time,cumulative size,size,pcore_ids,pcore_power,SCA-1,CD11b,Ly6C
-1,0,0,[],0,0.0,0.0,0.0
0,6252.0,6252.0,[0],1,237.64971209213084,405.2859884836849,790.2619961612284
0,33303.0,33303.0,[1 3],2,165.27249797315795,124.14290003903592,194.21250337807356
0,23042.0,23042.0,[2 4],2,183.52295807655725,443.53788733617125,574.060411422618
0,7550.0,7550.0,[6],1,360.2658278145661,142.8524503311264,285.114039735099
0,8493.0,8493.0,[7],1,292.2134699163998,134.24337689862298,680.5426822088774
0,6963.0,6963.0,[8],1,385.2122648283726,350.7143472641093,618.7613097802652
1,11253.0,8127.0,[0],1,214.44112681062907,393.9066915489203,781.1746201013057
1,46505.5,29854.0,[1 3],2,161.77250002688172,124.32083301975082,189.027502123404
1,42089.0,30568.0,[2 4],2,173.97885433248845,460.95509515550515,564.5102520848671
1,6517.5,4324.0,[5],1,215.794322976602,355.080552359033,378.8045262754123
1,8474.0,4699.0,[6],1,355.57345999527564,142.13771536464537,278.59340335142696
1,9583.5,5337.0,[7],1,268.59158971148145,137.97062659779868,672.9125580424684
1,10572.5,7091.0,[8],1,372.5034287065425,347.62024119176994,600.8104516434148
2,10969.5,5343.0,[0],1,252.65663886229953,392.03473266785164,762.8514517525871
2,57906.75,34654.0,[1 3],2,158.6664508023711,128.77917082205443,179.26708457994815
2,45581.5,24537.0,[2 4],2,183.9258251703012,471.6531158474392,541.6848063359027
2,10865.75,7607.0,[5],1,208.89305846352184,372.2737730943548,382.71377953661676
2,10658.0,6421.0,[6],1,349.8520125727103,151.56319196847477,266.89043441546215
2,10016.75,5225.0,[7],1,279.61212469114093,147.09998252926334,660.5208026555499
2,11499.25,6213.0,[8],1,372.43309346261043,351.6477596364969,593.260364806401
3,11604.75,6120.0,[0],1,257.6392856373464,381.8566966113011,774.3704517546705
3,58105.375,29152.0,[1 3],2,160.12660188494124,129.01368634141025,183.73734142495292
3,54291.75,31501.0,[2 4],2,187.9221152385046,490.3499012280886,550.3545566315258
3,8414.875,2982.0,[5],1,211.0815520135487,362.0474308887526,386.61621533296744
3,13573.0,8244.0,[6],1,380.84295107934537,162.3885102777569,259.7333032490968
3,11900.375,6892.0,[7],1,302.6372173145806,141.01932712204447,668.8083253678952
3,10858.625,5109.0,[8],1,401.7968780577597,358.3587010325882,596.1712118247024
4,11629.375,5827.0,[0],1,314.48927822862015,387.37986779168955,778.969183640566
4,49535.6875,20483.0,[1 3],2,168.61772888486007,129.73259556557088,186.54915332506351
4,62542.875,35397.0,[2 4],2,210.25805497428757,504.23332993566373,546.5338457817822
4,9148.4375,4941.0,[5],1,217.94371306575675,350.8773970964994,393.3091921434681
4,16733.5,9947.0,[6],1,394.90600815728703,161.69609615442099,254.75310380374665
4,13121.1875,7171.0,[7],1,340.27203616288296,136.65687175798737,668.3939191860461
4,11663.3125,6234.0,[8],1,425.99311409172316,381.99502714173144,600.5342661015059
5,13089.6875,7275.0,[0],1,351.60609258241846,401.7009477880955,773.0364361257678
5,41608.84375,16841.0,[1 3],2,183.65803694076678,127.29627115028907,188.82207658678217
5,59058.4375,27787.0,[2 4],2,229.94359823691482,518.0396122484668,539.9611359511366
5,7254.21875,2680.0,[5],1,234.87039438257887,355.3960884829948,387.9194132724504
5,25718.75,17352.0,[6],1,442.09406925881154,152.94510085054603,249.21065492101894
5,16393.59375,9833.0,[7],1,407.67166099562496,130.8202613444667,648.188318607691
5,14063.65625,8232.0,[8],1,472.9313123143187,409.1754366863165,613.7508093778949
6,13034.84375,6490.0,[0],1,371.2313726430277,411.4422880980057,750.4724931973212
6,36911.421875,16107.0,[1 3],2,201.14836828539381,127.81125972609242,192.81552373481955
6,53362.21875,23833.0,[2 4],2,250.11356583631368,524.3896091042925,528.6792258801925
6,8232.109375,4605.0,[5],1,263.3124161296721,368.5843258581579,389.39547503582617
6,29141.375,16282.0,[6],1,448.1833277213215,153.7356904487184,253.6996715366019
6,21693.796875,13497.0,[7],1,442.8385151861545,135.35353568092253,622.2198014553419
6,16217.828125,9186.0,[8],1,496.7528106125505,431.1056505138538,623.5944865844989
