time,cumulative size,size,pcore_ids,pcore_power,SCA-1,CD11b,Ly6C
-1,0,0,[],0,0.0,0.0,0.0
0,7583.0,7583.0,[0],1,232.877620994329,115.37201635236696,283.2940788606096
0,9214.0,9214.0,[1],1,206.28055133492543,120.60115042326954,172.2333405687
0,8108.0,8108.0,[4],1,149.92340897878978,116.91588554514047,85.96891958559466
0,7333.0,7333.0,[5],1,318.44865675712305,131.6127096686216,694.2514659757263
0,8860.0,8860.0,[7],1,108.09322799097475,125.00925507900692,232.78916478555365
0,7414.0,7414.0,[8],1,265.310223900727,380.91637442675875,771.7577555975195
0,5905.0,5905.0,[9],1,381.157493649444,356.9515664690937,569.3127857747655
0,14303.0,14303.0,[10],1,169.21009578410283,418.68062644200677,543.0302034538199
0,8024.0,8024.0,[11],1,217.4090229312073,535.7752991026921,635.4668494516427
1,11223.990721737591,5862.0,[0],1,229.7591567032835,119.87097232928453,288.15572843533846
1,14306.28188185285,7791.0,[1],1,214.23336713215463,118.97147730902257,168.20560248506536
1,5643.679000149299,2432.0,[2],1,403.41917381663103,144.38967913677206,284.6603429601367
1,8167.086683781374,4686.0,[3],1,169.81763986480635,239.54297772976224,521.3605123014042
1,13998.221781860528,8265.0,[4],1,144.38842200565398,117.14464359879248,86.71036230502023
1,9238.214026440954,4053.0,[5],1,300.50293636548344,133.13732120855394,691.0845993588777
1,5474.35753623074,2822.0,[6],1,212.32506006164618,303.8972773195562,296.10010286613795
1,15261.96608131281,8997.0,[7],1,109.63387011008142,126.31758796009157,229.7934750210733
1,13557.489675717065,8315.0,[8],1,232.84377751110287,379.02202274567475,773.573376541764
1,11246.465542906564,7071.0,[9],1,371.57247005389587,351.7956776005645,571.0261500057879
1,27766.74829131119,17653.0,[10],1,161.83523796033745,426.4554979953635,533.6550263953019
1,17726.82481224086,12053.0,[11],1,201.67281769736218,546.7175474731552,619.8565560476256
2,13998.559951315543,6062.0,[0],1,230.23591946230434,126.79633937254029,286.18952434929406
2,19711.068932224392,9595.0,[1],1,221.44027421849538,122.17681718364817,163.3755876253145
2,7139.683691845684,3149.0,[2],1,402.2353709041519,153.20041965601254,279.91917774295285
2,8636.002376640161,2861.0,[3],1,176.36369322158978,241.06828308988767,513.9562269728951
2,20509.237546506818,10611.0,[4],1,139.58607156826645,121.48245413765255,86.33469478441705
2,10819.403784149079,4287.0,[5],1,304.08464128881,141.01652653998076,682.6584717024645
2,8204.955336508438,4334.0,[6],1,209.69594028921028,323.45560439331865,304.581337842338
2,21282.83971033537,10491.0,[7],1,108.25581475074107,130.4056789242134,224.66965940575668
2,15371.592885566144,5785.0,[8],1,256.4527001386997,379.88508219013426,761.0338183626578
2,13798.45204977008,5846.0,[9],1,372.4939024014547,355.2454463554517,569.2713971649254
2,38018.05600828612,18384.0,[10],1,169.24079771004645,434.9860268783333,509.5721536400098
2,21129.75803364146,8595.0,[11],1,214.12450462497762,550.1461565160496,601.3656155168645
3,16830.47666842165,6932.0,[0],1,230.5362440690793,130.42664507767756,287.5282396842548
3,21749.830506411352,7812.0,[1],1,223.4319944662622,122.46052993072098,162.921327049534
3,10613.518754031087,5565.0,[2],1,428.85332555855,166.9257135938938,268.26477480589193
3,8483.575842865399,2377.0,[3],1,176.3169559972094,241.68237450509133,511.07336814454817
3,21449.220946100722,6947.0,[4],1,139.08505387574914,122.09997731665342,86.44084667396022
3,14031.473784167207,6381.0,[5],1,323.6941212456892,138.9245541425593,684.9582509389811
3,7650.779557777868,1849.0,[6],1,214.14701696029692,322.0072013332696,308.73217058947023
3,24635.24028208448,9586.0,[7],1,109.89333723225734,131.36410926879847,223.5299767908474
3,17083.35756702271,6214.0,[8],1,259.3748962668457,375.485952778093,769.407983226517
3,14399.97901426984,4643.0,[9],1,388.72662127683503,362.7020817064629,574.5196619636707
3,41006.82521098908,14124.0,[10],1,167.97459320410178,438.58892360613936,511.6742403425254
3,32510.99519041881,17570.0,[11],1,214.07268996193898,552.8435525661986,593.9185391289075
4,18713.94418284292,6813.0,[0],1,238.00113590547994,132.16108794918875,289.36238553271016
4,22431.45264074151,7052.0,[1],1,231.87676966908987,122.5439994660443,159.4777159918616
4,14064.891083225979,6560.0,[2],1,440.08563325301384,168.06936403020865,263.01326433989607
4,8370.794007200504,2372.0,[3],1,183.6066086062849,243.2219426348106,504.35775321118484
4,19414.889582156356,4248.0,[4],1,140.01870281869714,122.45914991608245,85.46707257182176
4,16712.7502628259,6791.0,[5],1,350.82312248667546,137.30934140033574,684.5925731163301
4,8343.918106668145,2934.0,[6],1,219.53245479226436,323.7430610460609,316.0084658160463
4,22605.745459621932,5186.0,[7],1,110.39281879696469,132.26249721925498,223.73685076326345
4,17831.75798107628,5752.0,[8],1,295.73892707980326,381.7572245023435,773.7573177432528
4,16410.32280993418,6228.0,[9],1,405.1301744430689,380.273852747896,581.591402515902
4,42556.204181621855,13560.0,[10],1,174.0967443959814,443.34130224963025,508.2201329597921
4,45492.74516226837,22504.0,[11],1,233.08293394725322,551.7557240174215,579.7379527022911
5,19778.756834434775,6546.0,[0],1,248.72878507670086,130.81173713109598,291.52767957325045
5,23087.432274133214,7226.0,[1],1,242.89551178603597,120.92892422948718,155.8165476664479
5,24551.379861599296,14606.0,[2],1,472.96701284379253,159.51753793290527,257.9267584224071
5,7071.045206407191,1152.0,[3],1,192.8959265173118,236.5053008189343,505.3619708471125
5,16592.400079530817,2864.0,[4],1,141.7261372459936,122.12315239113529,84.98156741240649
5,20970.69904312145,9153.0,[5],1,400.8134903672987,133.38699233280443,669.8867771340598
5,7607.041074890264,1707.0,[6],1,228.27699804038423,330.33242927753145,316.34414809077936
5,19147.675908275676,3163.0,[7],1,112.21719238217472,131.47695652091898,223.57867705180547
5,19604.956988896378,6996.0,[8],1,326.61201017263795,393.64255827347085,772.7055839932902
5,20229.850540364736,8626.0,[9],1,440.4972234396217,402.6877971955789,596.0864459326972
5,37742.780558384125,7651.0,[10],1,177.88655019487035,451.2085736084208,504.0453415177136
5,52478.22859903147,20310.0,[11],1,248.6131763599397,552.1714629969739,566.9472995628219
6,21039.693081068603,7054.0,[0],1,261.450223029127,130.9099327782135,292.155718596414
6,23599.279921224752,7274.0,[1],1,254.88304056711164,121.11833700689526,152.79346526885416
6,30802.447187623704,13442.0,[2],1,476.09898520839175,159.8355079645147,263.2996598765635
6,6451.984015527156,1452.0,[3],1,212.10538432108012,228.38799974331832,507.5080422410701
6,13948.598612396452,2216.0,[4],1,144.0077198441629,122.5806961543898,85.09554636171077
6,27014.523499613424,12186.0,[5],1,434.35751369227273,134.80149484783112,647.5273131159605
6,7985.99032881951,2607.0,[6],1,241.98724080308662,338.6059625718341,319.8553977633641
6,16173.451478704017,2634.0,[7],1,114.82807079121216,131.9593332439196,223.69564433290995
6,19351.798031719227,5489.0,[8],1,344.3211489100642,402.1223903473661,761.9940754192831
6,25167.66449948225,10863.0,[9],1,463.61957799053255,420.5666297377751,608.1751694548742
6,35134.17607366921,8446.0,[10],1,188.0347658896556,455.23486376552245,496.27982699742165
6,53444.71130703297,16337.0,[11],1,264.5812771679854,554.5500670891207,555.4130987432736
