time,cumulative size,size,pcore_ids,pcore_power,SCA-1,CD11b,Ly6C
-1,0,0,[],0,0.0,0.0,0.0
0,9439.0,9439.0,[0],1,228.51371967369403,112.85665854433736,243.74870219302954
0,10473.0,10473.0,[1],1,123.30411534422299,122.75040580540455,187.79919793755386
0,8793.0,8793.0,[2],1,174.374502445129,116.94632093710916,89.01831001933377
0,8403.0,8403.0,[3],1,276.9024158038785,167.6619064619782,727.2000476020455
0,5139.0,5139.0,[4],1,377.2761237594827,161.2739832652268,239.5841603424795
0,6362.0,6362.0,[5],1,146.25966677145792,180.3134234517448,299.9952845017293
0,4952.0,4952.0,[6],1,311.7790791599318,161.6708400646203,481.6809369951528
0,10808.0,10808.0,[7],1,225.05431162102096,494.3433567727597,701.5710584752029
0,7225.0,7225.0,[8],1,379.94214532871393,362.1934948096878,619.8870588235301
0,18357.0,18357.0,[9],1,172.65468213760602,411.7425505256862,533.5621288881648
1,14299.380907619823,7625.0,[0],1,227.76668645729563,112.61706625550325,241.48239049525654
1,17493.529319366713,10088.0,[1],1,119.04145832223936,121.20994514289607,190.77456615832384
1,15398.589926973313,9181.0,[2],1,172.53567778111807,118.58769378983533,88.64112585409234
1,12160.81828231056,6219.0,[3],1,249.44931880546645,183.80091940968788,729.2982537729224
1,6315.821748517668,2682.0,[4],1,380.1575280805157,158.6841661727518,234.0021918445869
1,9939.613341908815,5441.0,[5],1,150.01516025118187,196.51623310431174,305.00379492498377
1,7505.592780435783,4004.0,[6],1,306.2207662888792,172.79254075145363,483.01401335089116
1,20865.41009106421,13223.0,[7],1,210.49652621258454,497.61263320183934,700.464245519368
1,12205.846494072806,7097.0,[8],1,369.9020055106805,358.72513784772644,608.1006205342677
1,37420.35918224145,24440.0,[9],1,166.11331169669597,430.24159971388394,527.7027401805532
2,19092.189206547424,8981.0,[0],1,227.72595717976088,116.59508716958936,237.11791724724725
2,24347.793208609895,11978.0,[1],1,113.31939609713199,124.8440435731021,190.93594614549176
2,22869.447358073696,11981.0,[2],1,171.04504466866047,122.68065848803808,87.81669277695394
2,13492.997072199141,4894.0,[3],1,260.8215167645234,190.4942655896157,720.5497412420843
2,8229.96038714232,3764.0,[4],1,380.26664942043425,167.12828926164698,226.0312846935009
2,12569.367996436005,5541.0,[5],1,157.09141078927053,216.82095745014658,304.65850885486714
2,9080.255551870938,3773.0,[6],1,311.57965167641885,175.4647941485254,484.6411842540317
2,21487.07296762972,6733.0,[7],1,227.32919995812085,502.24845031858285,690.7350113236781
2,15811.83682608093,7181.0,[8],1,366.09363699318294,362.6900652502184,614.2920229007473
2,51634.18973219922,25174.0,[9],1,175.3728835777926,442.43038338738717,507.02142830476566
3,23019.216455646296,9519.0,[0],1,226.76126811499933,117.8549634685312,237.46234885458526
3,27136.489684735825,9920.0,[1],1,112.38584096241135,125.81329523609885,193.6096675840285
3,24401.141308882685,8230.0,[2],1,171.0768990137952,122.99048746479544,88.40394475276406
3,16953.989728282246,7413.0,[3],1,263.1035811543588,196.16502573074007,731.9916361164717
3,11519.460798645,5700.0,[4],1,410.61078656482624,177.66087870566705,225.08433735424356
3,13088.885345509068,4201.0,[5],1,161.5008759003758,216.4986349500483,309.45277533701994
3,10619.710275634738,4199.0,[6],1,338.4424412635538,166.96741820441014,493.61041833340715
3,28605.65500326113,13412.0,[7],1,229.68110450825364,520.7133931512856,669.1275714030448
3,16626.657042737002,5446.0,[8],1,383.7056591923784,367.24166599910967,621.7576633456923
3,58470.885700710875,21960.0,[9],1,175.14693312039915,452.1045105026888,512.3018756714605
4,25143.04405338846,8866.0,[0],1,233.1839032004532,118.56998802362614,238.17522256300404
4,24359.3958736755,5171.0,[1],1,111.50173924953313,126.36267053274149,194.89978204688117
4,23359.212488202134,6105.0,[2],1,176.07263812870514,123.2117309690454,88.11493318103265
4,17820.28110503545,5832.0,[3],1,288.60199568718815,191.73246770339435,734.4341777302815
4,14879.488846334483,6734.0,[4],1,423.86641418143296,178.68568829109816,222.54063923837677
4,13670.23958598269,4415.0,[5],1,169.12705042673562,225.63062754683898,317.1274760053707
4,12657.269150137783,5148.0,[6],1,364.045698058617,159.91856209982677,501.2379377670601
4,35397.252633088836,15170.0,[7],1,248.32994292100108,536.3075080849129,638.0467621213681
4,20894.821943382405,9138.0,[8],1,400.77733787270284,386.0364495662683,648.7288657744105
4,64766.1597809562,23421.0,[9],1,185.26199446729157,460.56190957296167,510.1082883014126
5,26801.81694982308,9023.0,[0],1,242.63772649521889,117.7869813350692,239.05303494632355
5,20447.694007883554,3223.0,[1],1,112.16953554937561,125.86501602347965,195.77347481908376
5,21579.457553585216,5062.0,[2],1,183.81121567996294,122.35842953088036,88.13514723120191
5,17348.841612021068,4748.0,[3],1,305.05333756118773,190.4035745604798,732.7040059681195
5,24036.38746383271,13515.0,[4],1,458.7824935465594,167.6231241826479,220.30112885489297
5,11968.319111693143,2302.0,[5],1,176.98483973198378,228.5124269929684,319.36634931628225
5,18746.040847365715,9796.0,[6],1,428.2284954617716,149.03801212180025,517.7898147292544
5,39954.63737223049,14925.0,[7],1,264.7362638142954,544.5114729658633,613.9819479246047
5,27200.870287851176,12426.0,[8],1,427.8419424902422,408.0585051604637,673.2179025897032
5,60776.590772525575,14980.0,[9],1,193.76324990647498,470.6475624008981,505.24134602980064
6,28342.74651334045,9391.0,[0],1,253.6351825934354,118.5824038348524,240.43497401848416
6,17083.703092601994,2625.0,[1],1,113.3892341750164,126.17269714565086,196.6666435025478
6,19725.980770467373,4467.0,[2],1,192.95429969977624,122.62411443377799,88.8055472215549
6,16069.483549591452,3802.0,[3],1,318.45564821589693,189.19529736731283,721.4055326767697
6,29610.29257090343,12614.0,[4],1,462.9911188448492,165.75167734343765,224.90873481817934
6,11216.87960328278,2754.0,[5],1,190.4404313685331,235.539138417979,320.77485814776946
6,26692.45260357231,13437.0,[6],1,457.11118068857013,147.56299708794933,531.4745167275302
6,41205.195025753645,12953.0,[7],1,282.2107394080491,551.8310085361894,594.1695875909745
6,32866.91983471524,13633.0,[8],1,445.3734848717059,421.66928467363755,677.4520484936826
6,57299.539472652585,14324.0,[9],1,205.88221656363277,473.5769980947009,496.5099662467311
