time,cumulative size,size,pcore_ids,pcore_power,SCA-1,CD11b,Ly6C
-1,0,0,[],0,0.0,0.0,0.0
0,46254.0,46254.0,[0 2 4 5],4,237.3956630777871,363.5822415358675,625.1961776278806
0,41326.0,41326.0,[1 3 6],3,203.65743115714233,128.81048250496116,214.51672070851217
1,68104.25852850129,51751.0,[0 2 4 5],4,212.9775724051963,393.30212193703727,611.7129768962237
1,49618.94741965763,35008.0,[1 3 6],3,192.19412168508717,128.42751647037483,204.7748099324664
1,4096.245651845129,3241.0,[7],1,295.52018313478567,388.7156652317074,367.42283393933104
2,66894.4915165925,42816.0,[0 2 4 5],4,225.53858065638633,402.2089741102991,583.7133198792607
2,58963.94709788934,41421.0,[1 3 6],3,188.0555806557226,134.30507143977442,192.73139294354212
2,7211.2415389128,5763.0,[7],1,288.6555100908089,392.35798134716987,393.46359363297245
3,56590.14690223877,39932.0,[0 2 5],3,252.41489273108957,422.1768753941387,628.0641369255623
3,58183.9034192212,37337.0,[1 3 6],3,203.38241046004197,135.95586387563242,199.4502955728522
3,22273.18628193518,12731.0,[4 7],2,205.03332438696117,388.99612018514995,471.074083308825
4,53295.54734104901,37283.0,[0 2],2,265.47736381909357,502.62430220396794,605.2944493822117
4,51076.116331817226,30505.0,[1 3 6],3,230.81330516265402,138.2715131647335,206.3397726674711
4,21962.760529293777,14088.0,[4 7],2,224.61085087608424,392.71804114870775,466.03839184794293
4,12119.090970408957,8124.0,[5],1,368.82176045260456,146.74408648440158,667.1096145264485
5,17143.877928936505,12029.0,[0],1,410.11089493936936,430.4060302090932,733.0082009636606
5,51729.13410745047,33671.0,[1 3 6],3,296.0185760427343,135.3039181639954,213.47748183048515
5,54703.95198893566,33211.0,[2 4 7],3,256.86255003687916,499.72772466906406,518.972124411975
5,15373.745703496415,11089.0,[5],1,438.06223826921104,141.49258977159033,643.7415608060062
6,50689.13250629374,31213.0,[0 2],2,336.8696308027795,509.5712105914927,600.7625963026392
6,49932.01075614328,31643.0,[1 3 6],3,317.627163038142,136.9548454206464,220.11154357607995
6,11596.933015383056,7897.0,[4],1,204.70132517680986,433.46192386020505,459.2030690536586
6,7489.978352555758,5264.0,[7],1,454.19722690941956,371.6474214909852,431.0828698041353
6,19418.43991958993,13983.0,[5],1,459.4999399592252,142.3629025924878,619.7717029452423
