time,cumulative size,size,pcore_ids,pcore_power,SCA-1,CD11b,Ly6C
-1,0,0,[],0,0.0,0.0,0.0
0,9439.0,9439.0,[0],1,228.51371967369403,112.85665854433736,243.74870219302954
0,10473.0,10473.0,[1],1,123.30411534422299,122.75040580540455,187.79919793755386
0,8793.0,8793.0,[2],1,174.374502445129,116.94632093710916,89.01831001933377
0,8403.0,8403.0,[3],1,276.9024158038785,167.6619064619782,727.2000476020455
0,6362.0,6362.0,[5],1,146.25966677145792,180.3134234517448,299.9952845017293
0,10808.0,10808.0,[7],1,225.05431162102096,494.3433567727597,701.5710584752029
0,7225.0,7225.0,[8],1,379.94214532871393,362.1934948096878,619.8870588235301
0,18357.0,18357.0,[9],1,172.65468213760602,411.7425505256862,533.5621288881648
1,11685.610631789907,7717.0,[0],1,227.13969008911948,112.5723059254326,240.8388213237233
1,14496.354078476077,10093.0,[1],1,117.74841245967721,120.88436102976557,192.03493161816493
1,12900.001089662956,9203.0,[2],1,172.0214370623031,118.92577878663128,88.6743172493268
1,9844.026288688481,6311.0,[3],1,241.0672670757983,189.95113059484936,730.4896060239579
1,8042.891496922066,5368.0,[5],1,151.51512854002854,202.21879703268348,307.1015985452029
1,17574.204228031074,13030.0,[7],1,208.3475135997721,498.57069249089164,700.7034293220372
1,10193.738300104043,7156.0,[8],1,367.52913370852684,357.97172183581324,604.7352285141725
1,32101.16774740622,24383.0,[9],1,164.95623588463098,434.2594382669632,526.9773718991494
2,14309.194045161414,9396.0,[0],1,226.45428963634623,118.51635932607789,235.18318726758602
2,18027.966089419548,11933.0,[1],1,109.88486284026325,126.51638403936047,193.08375547919508
2,17461.782336533295,12038.0,[2],1,169.66949734822066,123.82868464793094,87.8247801997012
2,9161.903208910735,5023.0,[3],1,262.5931567279002,199.1919476054157,717.1229191832541
2,8777.619314018173,5396.0,[5],1,163.65490842634023,234.8030731307446,308.32684811064144
2,6415.099710904493,3831.0,[6],1,314.09721719172194,177.41202027541547,486.6373744138979
2,14169.042668144,6780.0,[7],1,235.37544108668237,505.4084660216042,685.2671534969126
2,11335.93899729599,7050.0,[8],1,363.72676738885644,364.2080257780247,614.2614476479253
2,38362.87844212602,24866.0,[9],1,177.9678309151191,448.6225108629023,500.14202034446
3,16163.274988873016,10147.0,[0],1,225.4139264084992,120.18696766113831,237.41306944311103
3,17497.826029454212,9918.0,[1],1,109.64940103816672,127.89675569564334,198.18709305993306
3,15738.77508536574,8397.0,[2],1,169.8979287698224,123.61580499430463,89.20006643040924
3,11389.10578263727,7537.0,[3],1,259.47380539898995,209.35264793663845,739.3562325748852
3,7879.028661688662,5474.0,[4],1,426.9670513256873,183.09323110483288,221.76671920450752
3,7693.534307809825,4003.0,[5],1,172.61638163370392,232.85927186281552,321.7975915773852
3,7122.217175197364,4425.0,[6],1,365.3879606414967,160.0204992543965,509.736728754205
3,19774.348593609608,13817.0,[7],1,232.18669030704558,534.2721336300519,649.3158675922755
3,10098.175233180493,5332.0,[8],1,390.9338488603524,374.6370195437032,629.8365349789984
3,37079.60348039889,20950.0,[9],1,175.2153997105716,458.51707183403164,511.6617679601319
4,16232.81999845167,9437.0,[0],1,238.58950381916432,121.27215102321152,240.20136276920462
4,12790.929591450593,5434.0,[1],1,109.23583881788056,129.39985438854166,201.300888349599
4,12916.339774884262,6299.0,[2],1,179.93970135706147,123.69702338582721,88.94703666329985
4,10516.529112782515,5728.0,[3],1,301.238254293131,198.41054278512092,740.0565111299165
4,9586.723478647633,6274.0,[4],1,440.52785969490765,182.16007266215485,219.51585671356912
4,8139.732710034375,4905.0,[5],1,189.8720647243213,249.14411514145158,342.77897013080997
4,8195.523445640949,5201.0,[6],1,407.18665952579704,151.24538963521002,528.5813180929773
4,25686.089423171827,17372.0,[7],1,255.65066748382304,548.9233126545734,602.7649803741382
4,13149.75967709266,8904.0,[8],1,407.3289020812052,408.8628905128044,675.106068960215
4,36036.05282284829,20446.0,[9],1,188.56255900912578,464.725602784444,507.86364089039085
5,16283.060073078408,9458.0,[0],1,256.5021364305584,119.36415558266718,243.50544140598333
5,8988.92342060673,3611.0,[1],1,113.3608473749292,127.97355742314173,203.34712807252652
5,10803.651907449574,5373.0,[2],1,196.13450160676808,121.58494990849506,89.96665226203041
5,9395.65581592507,4974.0,[3],1,322.2683906686073,198.0267441569209,731.4184673413575
5,16800.720703611707,12770.0,[4],1,480.3532483493504,164.38624419588282,218.34671102161897
5,13211.793143283623,9766.0,[6],1,484.23896211869715,144.94681424313654,546.6920200173104
5,28209.670258915772,17410.0,[7],1,277.6408528852464,552.342215668985,573.3516869645281
5,17076.79288695753,11548.0,[8],1,437.3282609864399,436.85710134165777,702.0079069510174
5,27399.293819313312,12248.0,[9],1,196.95221966140895,478.32116548589795,500.0863647667495
6,16423.18342240626,9577.0,[0],1,274.66700932587526,120.09132775615161,246.36276732434817
6,7096.376740689178,3317.0,[1],1,120.4574363945937,130.30583354548176,205.05681410340785
6,9533.376080311651,4991.0,[2],1,216.12780732290946,122.81825014837369,93.08899195674576
6,8736.386647284553,4786.0,[3],1,343.5814906694969,196.58988037766892,699.7922589498612
6,18467.832906672975,11404.0,[4],1,480.60745011994766,162.9789470353992,227.24727387271884
6,6711.828855153343,4078.0,[5],1,258.9565360073983,254.29676812941946,355.5626924529219
6,17751.8747466304,12197.0,[6],1,499.95292940495284,146.46365159472785,555.9365890665608
6,26992.7052981058,15132.0,[7],1,302.3928963266777,556.4024456936031,552.06409386108
6,19621.906961336357,12442.0,[8],1,456.35484069361905,447.45428465910214,696.8875902314146
6,23595.983976571908,12076.0,[9],1,214.15328217153026,478.1178514637986,485.3616581697192
