time,cumulative size,size,pcore_ids,pcore_power,SCA-1,CD11b,Ly6C
-1,0,0,[],0,0.0,0.0,0.0
0,7583.0,7583.0,[0],1,232.877620994329,115.37201635236696,283.2940788606096
0,9214.0,9214.0,[1],1,206.28055133492543,120.60115042326954,172.2333405687
0,8108.0,8108.0,[4],1,149.92340897878978,116.91588554514047,85.96891958559466
0,7333.0,7333.0,[5],1,318.44865675712305,131.6127096686216,694.2514659757263
0,8860.0,8860.0,[7],1,108.09322799097475,125.00925507900692,232.78916478555365
0,7414.0,7414.0,[8],1,265.310223900727,380.91637442675875,771.7577555975195
0,14303.0,14303.0,[10],1,169.21009578410283,418.68062644200677,543.0302034538199
0,8024.0,8024.0,[11],1,217.4090229312073,535.7752991026921,635.4668494516427
1,9696.5,5905.0,[0],1,228.8892383849831,121.3003661114832,289.40004125199766
1,12398.0,7791.0,[1],1,216.1322390708181,118.56166317147938,167.30133892563293
1,7146.5,4685.0,[3],1,169.16854404254047,240.82173091723138,519.6643112012856
1,12312.0,8258.0,[4],1,143.28569688109596,117.1678849902527,86.99870045484113
1,7751.5,4085.0,[5],1,296.3150357995202,133.5889827775268,690.4565567954595
1,13454.0,9024.0,[7],1,110.03872454289197,126.48149249293893,229.22498885089945
1,12037.0,8330.0,[8],1,228.02076929467387,379.10459416798113,773.7941347511827
1,10081.5,7129.0,[9],1,370.0950751376214,351.31890095719825,571.7263304071794
1,24653.5,17502.0,[10],1,160.86206826617305,427.20496075608077,532.5697568296591
1,16103.0,12091.0,[11],1,199.92728063093878,547.9547599826077,617.4522759734186
2,11096.25,6248.0,[0],1,229.70789681198573,131.0857722203449,286.43242086290536
2,15762.0,9563.0,[1],1,225.2109979698017,122.57459396015783,160.54054054053967
2,6465.25,2892.0,[3],1,177.86265032288176,244.4669966358601,508.40377402265983
2,16655.0,10499.0,[4],1,137.20767036926318,122.41840288201658,86.67319123386432
2,8246.75,4371.0,[5],1,302.45902931457516,143.95495195076842,678.6325522175407
2,6477.75,4160.0,[6],1,207.79707460152144,333.9269036316617,306.5558643047353
2,17365.0,10638.0,[7],1,108.61160380075421,131.46835588828114,222.89424128995088
2,11872.5,5854.0,[8],1,261.3837018319625,380.5423457570016,756.9645820172669
2,10853.75,5813.0,[9],1,372.02227340780246,355.8727398364611,569.1248186110786
2,30428.75,18102.0,[10],1,170.35499322187292,437.18752002629,503.45710060387285
2,16771.5,8720.0,[11],1,216.40178278627445,551.4024237545849,594.3123751602361
3,12712.125,7164.0,[0],1,230.81256084250165,135.11779108528253,288.4681259034195
3,15560.0,7679.0,[1],1,227.77968348329108,122.42540970437071,160.20539845758267
3,8167.75,5420.0,[2],1,438.0550029077752,172.96125003826012,264.62783508310235
3,15223.5,6896.0,[4],1,137.04272177883294,122.93035438631078,86.88626137222113
3,10566.375,6443.0,[5],1,330.17576983591755,139.27238527877356,682.9759969715253
3,18494.5,9812.0,[7],1,111.4585011760314,132.09343318283814,221.90890535023755
3,12227.25,6291.0,[8],1,263.08761168700914,373.85965773170585,770.5089860761831
3,9969.875,4543.0,[9],1,395.26346869945087,367.12585413558315,577.2280244235769
3,29070.375,13856.0,[10],1,167.85596161040485,441.3582857118291,509.37946706913743
3,26056.75,17671.0,[11],1,214.67578458556872,553.6719612000743,589.3582660922784
4,13436.0625,7080.0,[0],1,243.39303739469617,136.64763207226866,291.55516636663594
4,14808.0,7028.0,[1],1,241.00965272150123,122.26064880470074,155.2755942733644
4,10269.875,6186.0,[2],1,450.8627295853168,172.9867330420287,259.3536922309181
4,11843.75,4232.0,[4],1,138.71070712401442,123.3222691292874,85.53705540897155
4,12119.1875,6836.0,[5],1,366.11913958753104,136.51642282125002,681.7587606429868
4,14725.25,5478.0,[7],1,112.98610380129949,133.18388482368616,222.74393473794825
4,12010.625,5897.0,[8],1,316.7134100015575,383.35663214861745,776.3235468595532
4,10920.9375,5936.0,[9],1,415.6216155893133,393.53649240278105,587.6358714625004
4,27958.1875,13423.0,[10],1,176.68230013122414,448.06986996206166,505.9007513452014
4,35459.375,22431.0,[11],1,238.8335560059904,551.5122287829356,573.6913721688462
5,13593.03125,6875.0,[0],1,261.2046544989699,133.64385243357717,294.8381891456331
5,14615.0,7211.0,[1],1,258.2466964591157,119.85479601436916,150.59093397194562
5,18777.9375,13643.0,[2],1,488.09854317067953,159.70689339550643,253.65698442653678
5,8852.875,2931.0,[4],1,142.44168914053733,122.49953404967276,85.24098103723412
5,15560.59375,9501.0,[5],1,431.5786632499163,132.8921052578742,658.7852166630867
5,10947.625,3585.0,[7],1,118.04992521209527,131.08295178177886,222.83473013553052
5,13447.3125,7442.0,[8],1,353.9437341104349,398.60086355544945,771.642251936959
5,13150.46875,7690.0,[9],1,460.27552012166603,425.90160284210475,605.5845965566803
5,21940.09375,7961.0,[10],1,181.8861616076751,461.50220842834455,500.38496445576925
5,37735.6875,20006.0,[11],1,258.03704550234966,551.8573755612637,559.0698923929633
6,14413.515625,7617.0,[0],1,280.96729632018037,133.88305680974452,295.2756614072092
6,14578.5,7271.0,[1],1,276.66260139074456,120.9807539784613,147.29692698151308
6,21219.96875,11831.0,[2],1,489.3140555991646,161.04307558181466,260.980049746773
6,6813.4375,2387.0,[4],1,148.12159565197803,123.43879741319982,86.41832775306187
6,19959.296875,12179.0,[5],1,464.27162154228034,135.99792859687105,633.4026514899458
6,8696.8125,3223.0,[7],1,126.00997851224794,132.35958576777327,223.7671021710535
6,13109.65625,6386.0,[8],1,372.93411106793116,406.8160969132953,750.9566278673403
6,15659.234375,9084.0,[9],1,486.7194806179674,446.674064125501,619.4256005092856
6,19690.046875,8720.0,[10],1,198.03404956343087,466.222702142499,489.0980492206171
6,34998.84375,16131.0,[11],1,279.3275893935778,554.9297534829327,545.3478552416361
