time,cumulative size,size,pcore_ids,pcore_power,SCA-1,CD11b,Ly6C
-1,0,0,[],0,0.0,0.0,0.0
0,58940.0,58940.0,[0 2 3 4 5],5,254.99458771632058,326.7279097387173,559.2001866304713
0,31060.0,31060.0,[1],1,162.59584674823324,123.66403734706996,180.57321313586587
1,91749.0,62279.0,[0 2 3 4 5],5,232.59323262378905,356.9314815420344,560.2157571199665
1,43251.0,27721.0,[1],1,158.42989757462715,124.50261265635243,175.1441353957129
2,103475.5,57601.0,[0 2 3 4 5],5,242.06004561466207,362.3750863731022,530.2541543650404
2,54024.5,32399.0,[1],1,155.08663199104586,128.4154087497324,166.85128969263988
3,115235.75,63498.0,[0 2 3 4 5],5,252.59328919193905,369.037218267769,534.4376625743263
3,53514.25,26502.0,[1],1,155.0828961444885,127.88965789485997,171.31767239567145
4,129731.875,72114.0,[0 2 3 4 5],5,277.4085132316162,376.9976754941687,527.3469410466705
4,44643.125,17886.0,[1],1,161.43100281398674,128.2010065939601,172.5599938400367
5,89220.6875,43618.0,[0 3 5],3,274.97733359205387,481.81789572346065,574.4674080632813
5,69012.5625,34988.0,[1 2],2,285.45843193404426,142.1383991682676,215.05830913031167
5,18954.25,11394.0,[4],1,422.00497909439594,145.76284342561806,646.2909538757821
6,86714.34375,42104.0,[0 3 5],3,304.89521377482384,486.23513861425454,567.8415751935429
6,67833.28125,33327.0,[1 2],2,313.0161706205237,144.39827172778902,222.96427684603557
6,24046.125,14569.0,[4],1,450.38320883302674,147.51128040380777,622.0097066055329
