time,cumulative size,size,pcore_ids,pcore_power,SCA-1,CD11b,Ly6C
-1,0,0,[],0,0.0,0.0,0.0
0,46254.0,46254.0,[0 2 4 5],4,237.3956630777871,363.5822415358675,625.1961776278806
0,41326.0,41326.0,[1 3 6],3,203.65743115714233,128.81048250496116,214.51672070851217
1,84637.51705700257,51931.0,[0 2 4 5],4,218.05930685894555,387.4991011648863,614.1206672278988
1,64276.89483931526,35055.0,[1 3 6],3,195.01733971212406,128.58031481798153,207.26301553805496
1,4724.491303690258,3014.0,[7],1,287.77585627784555,392.64009345725657,351.7230247682439
2,102832.7622537986,42985.0,[0 2 4 5],4,224.84092664026596,395.61868405002326,595.1872277469477
2,86903.62821449443,41453.0,[1 3 6],3,191.19438329577616,132.37366863557497,198.32754530449512
2,8902.719838496254,5562.0,[7],1,277.26802110899393,396.332088801041,371.12636884429423
3,122614.74351780502,49901.0,[0 2 4 5],4,229.00205690148903,405.98335970613965,598.6827466046495
3,99014.14482018359,37564.0,[1 3 6],3,199.7476681563946,134.2078763813785,200.86466854722173
3,8830.173568804707,2535.0,[7],1,303.5689272779459,394.23814976727704,375.8877310816404
4,112120.55322806789,46471.0,[0 2 5],3,268.5932392284327,427.30858061543125,622.0563943023446
4,100750.57323573869,30737.0,[1 3 6],3,215.80597801922227,135.9329534512516,204.75943232137823
4,40088.03899637735,12792.0,[4 7],2,208.79089365521128,384.1248686417346,466.0324743702947
5,101635.6648015718,37226.0,[0 2],2,275.64948973896014,497.6694224696399,608.092471432693
5,105787.4135434227,34546.0,[1 3 6],3,255.3772799646065,135.69254857627615,210.72019485355654
5,35810.52421880919,7464.0,[4 7],2,228.23265791153628,391.3501742216558,460.021660694833
5,25635.53869638226,10764.0,[5],1,390.7653057052552,146.06862669930453,656.6465479178595
6,103834.26779159433,31967.0,[0 2],2,299.5271345112113,501.19043320808663,604.7118241593467
6,107585.99748073982,32783.0,[1 3 6],3,280.4005422288438,137.1034587651333,216.72456221773507
6,36683.86451296507,11362.0,[4 7],2,254.0552519426078,401.6856534719292,453.6266390162481
6,32015.063251582043,13888.0,[5],1,423.9604746797516,145.95717642441645,637.7407518328513
