time,cumulative size,size,pcore_ids,pcore_power,SCA-1,CD11b,Ly6C
-1,0,0,[],0,0.0,0.0,0.0
0,11106.0,11106.0,[0],1,249.81172339275963,113.91004862236639,212.94201332613045
0,12978.0,12978.0,[1],1,127.76606564956492,139.3750963168446,247.96301433194574
0,11119.0,11119.0,[2],1,154.9240039571938,119.91914740534204,102.14947387355002
0,8312.0,8312.0,[3],1,339.2745428296433,199.13955726660262,346.6614533204992
0,9886.0,9886.0,[4],1,296.83916649807617,148.7638074044105,673.7348776046925
0,12618.0,12618.0,[5],1,298.81946425740614,410.83626565224085,720.0474718655923
0,23927.0,23927.0,[6],1,183.35591591089883,433.16408241735206,551.3618088352084
1,15089.667109610109,8486.0,[0],1,256.8225947738553,114.73593346794141,211.12342283727514
1,20004.764969252657,12288.0,[1],1,129.43674687724084,142.264998624994,250.44744641427275
1,18437.39695585763,11826.0,[2],1,151.84828394457458,120.41190475097915,103.05715742624841
1,10578.344769951309,5636.0,[3],1,336.1221287125866,219.7662677766648,371.8508430483291
1,12905.25076945845,7027.0,[4],1,274.6971075728628,160.46995152109236,669.0861508189898
1,21229.707688552167,13727.0,[5],1,275.1990360716784,411.6851035946199,719.7868631761066
1,45237.079320335055,31010.0,[6],1,174.13483093671223,450.40703479088114,545.1407464631754
2,19460.369744885444,10488.0,[0],1,264.5811640092364,121.78808774801713,206.5619751422393
2,25045.904417696227,13151.0,[1],1,128.1872947648068,146.9078736093978,246.05314042481234
2,26237.941821017703,15275.0,[2],1,148.49700975343785,124.4844099671931,102.43473514185726
2,12745.92143268896,6456.0,[3],1,332.0338042047321,239.0070874011199,376.7262816431911
2,13747.508017967164,6074.0,[4],1,284.2176525640968,166.58862512731525,661.5449819075749
2,22828.259716327106,10205.0,[5],1,294.5085604228998,411.0664194566866,705.9437606952727
2,55249.12829484245,28351.0,[6],1,182.8068665488669,457.9114818190908,520.1697225654771
3,21659.20508060073,10088.0,[0],1,278.8565363658956,124.35793140529191,207.10012022751346
3,27687.383867601216,12795.0,[1],1,131.78292387734484,144.43431947514938,245.92525070607238
3,26297.17354829085,10696.0,[2],1,148.886404593095,123.70766303005209,103.92402344315545
3,14241.770227509693,6663.0,[3],1,363.60072007278103,240.4499401025798,368.5270751735467
3,16570.317174261752,8396.0,[4],1,305.63743501842094,162.15647722111757,674.8828275009762
3,23734.764438893097,10161.0,[5],1,301.3501921551608,418.0785856119108,711.4567055535332
3,64052.3282329624,31201.0,[6],1,184.61323268731493,476.2957917770294,531.6548552144884
4,23816.640393576738,10938.0,[0],1,296.2183136105718,125.46837124281217,205.08736300162562
4,25020.01694558146,8557.0,[1],1,136.3945322800311,148.12642441864656,250.61236302750632
4,22648.392944044415,7012.0,[2],1,152.63711358172415,123.53356091267567,103.28824975188311
4,16286.207242394225,7818.0,[3],1,380.79278734195657,239.41067838436254,365.3924795646998
4,18150.76954074193,8298.0,[4],1,340.9993276795777,158.04042870796013,678.3728887490527
4,25358.775371822616,11246.0,[5],1,338.1861483607173,432.16377785685563,709.296147330526
4,74216.74223356428,36131.0,[6],1,202.97056351014803,489.3201272330658,530.8168559722119
5,28161.45910575133,14000.0,[0],1,334.1877102045718,122.64159308829805,197.22999022872156
5,21064.99108458706,6188.0,[1],1,145.89909999844213,146.7741183963841,253.6154831015563
5,19041.815016217522,5575.0,[2],1,159.55841240064768,122.18402558391247,103.82086744744485
5,21943.83676453203,12260.0,[3],1,438.3505627091656,217.53611186515928,357.9637057722005
5,21078.512140312487,10286.0,[4],1,395.39044920922396,152.36721757740006,670.0747445295557
5,28735.418049963613,13657.0,[5],1,380.388762908692,445.24106405312835,709.680568948748
5,72163.53895823879,28034.0,[6],1,220.77265915432037,504.00386598042667,527.2011416642376
6,30114.903768708824,13370.0,[0],1,350.44488699401086,123.85743294920755,197.19542364448165
6,18866.31863762991,6341.0,[1],1,159.79899281520176,149.6764501284112,256.50037138837297
6,16198.330949925767,4876.0,[2],1,168.7353567163297,121.8453913898021,105.26493291311331
6,25422.88340541989,12375.0,[3],1,455.108920904807,209.9097391504899,360.0792070004194
6,25359.358305465423,12826.0,[4],1,430.0993755093368,150.863869890581,650.6332165777294
6,31336.181798797174,14250.0,[5],1,412.63506959146355,453.21685506837537,698.6823206703649
6,68870.69698645681,25962.0,[6],1,240.3571309551586,509.51574037732126,516.7426002031448
