time,cumulative size,size,pcore_ids,pcore_power,SCA-1,CD11b,Ly6C
-1,0,0,[],0,0.0,0.0,0.0
0,6871.0,6871.0,[0],1,234.20084412749165,113.12385387862008,257.24625236501305
0,6114.0,6114.0,[1],1,234.21311743539437,545.0639515865217,641.0588812561333
0,7882.0,7882.0,[2],1,196.5157320477039,117.05328596802859,167.0052017254505
0,9952.0,9952.0,[3],1,165.41589630225332,458.00361736334565,564.0861133440502
0,7490.0,7490.0,[6],1,144.5216288384547,117.88571428571431,83.98104138851824
0,8287.0,8287.0,[9],1,105.66634487752296,123.62278267165452,226.019910703512
0,5732.0,5732.0,[11],1,242.61165387299388,399.17969295184827,790.4596999302172
0,6062.0,6062.0,[13],1,374.45034642031726,356.5084130649948,628.7314417683908
0,8652.0,8652.0,[14],1,171.73474341192957,345.87066574202623,521.9865926953293
1,8036.265346766384,5607.0,[0],1,232.4386906380537,117.48527672744133,259.3946710949051
1,10239.625430087275,8078.0,[1],1,218.1416738296979,558.7747459942475,634.738177122087
1,9648.707824656183,6862.0,[2],1,202.12477811606652,115.21473425364458,160.37698835198518
1,18038.56334318426,14520.0,[3],1,155.64057157411708,476.3588194703518,549.6452534596054
1,5439.846336377267,3898.0,[5],1,189.25872876725282,161.96306183857232,691.5064419839321
1,10141.11489554362,7493.0,[6],1,139.7185509334889,117.58873933040822,83.5183759742621
1,11335.89694784646,8406.0,[9],1,107.71185614727744,124.75192921567871,223.77470950851048
1,9291.568034880645,7265.0,[11],1,215.07812407189658,393.0908961973283,782.5521304309424
1,8420.240653776425,6277.0,[13],1,363.0242092781175,353.01892742947456,613.5241258203856
1,12644.943935413005,9586.0,[14],1,165.04279991428038,350.8017115825949,512.0387844472335
2,9587.248861056487,6746.0,[0],1,233.90142443780357,127.99468611660964,258.25947043787096
2,9250.254289212466,5630.0,[1],1,239.9046838016034,560.5513652674676,614.3020970655853
2,11909.333366251045,8498.0,[2],1,208.84729004075112,119.7843593232343,151.06071147879015
2,18025.595231414336,11648.0,[3],1,164.50722037283063,487.25806958038015,523.2530646752699
2,12943.425555715401,9358.0,[6],1,132.4149048292483,123.60218430376482,82.73242002130722
2,14075.84480132706,10068.0,[9],1,105.43718147285205,130.67374618887243,218.60359712704945
2,8123.065382660134,4838.0,[11],1,260.826005965524,389.76348782014395,760.9153223116724
2,8385.004632753979,5408.0,[13],1,362.70603130530213,359.9237107894306,609.7771425075927
2,12878.662802227122,8408.0,[14],1,165.93218870383527,363.74266760985677,482.99360286458756
2,5743.064104605679,4964.0,[15],1,264.7648461237258,447.88969606602035,431.0574053200381
3,10632.604341288024,7243.0,[0],1,233.51788555380884,129.35733330937083,259.1387146303973
3,15088.458767801041,11818.0,[1],1,237.13643862758317,565.4347643212087,604.1970767008526
3,11119.585191343664,6909.0,[2],1,210.9034884254052,119.14673314903669,149.34675765056642
3,19934.010311528487,13561.0,[3],1,158.62599458615975,493.8468249972718,538.3208902279096
3,5665.741162518049,4139.0,[5],1,218.47614311485523,165.44796031087583,698.803408146169
3,10554.191991114809,5978.0,[6],1,131.72908244935343,124.20347545304764,82.6760057654482
3,14104.562654973888,9128.0,[9],1,108.6329138481457,131.24732262550998,218.84085123454335
3,8135.937308050339,5264.0,[11],1,265.27747888452467,381.3484770730107,780.1897755693417
3,6754.546818050478,3790.0,[13],1,383.35125667855874,383.78765613618475,619.2095487981176
3,10446.29490003487,5893.0,[14],1,163.51684543877028,366.4403187909477,485.0397540142099
4,10583.193315699144,6824.0,[0],1,247.29737012246665,128.04747889306879,260.9463364692417
4,20099.57575618287,14765.0,[1],1,260.38441606412005,563.3409740983093,586.679202604439
4,9715.367046390309,5784.0,[2],1,225.734654583042,118.44282721307248,141.21143493208618
4,17471.73693376218,10424.0,[3],1,161.6248740125475,502.9527711794732,535.1172614216857
4,7321.470363431015,3590.0,[6],1,132.3142919488332,124.763543707102,81.57228475083886
4,5888.862852287136,4198.0,[7],1,461.22103381391787,136.13370003992586,679.9955838681802
4,10073.715949501286,5087.0,[9],1,110.3727253876386,132.33290711675903,220.7619486594546
4,8082.488220915509,5206.0,[11],1,332.5333077913253,380.2517638579945,786.1767967765962
4,6560.385577019383,4653.0,[12],1,449.35579157430624,156.95494803140335,189.9151615709729
4,7570.092929442755,5182.0,[13],1,409.54985024143616,425.9883753188761,634.0598444518107
4,9255.322981044552,5562.0,[14],1,172.03889332744075,366.5202670419439,475.16693682412614
4,9848.939848102882,8215.0,[15],1,272.05099936267624,473.4012791246469,486.4797790271092
5,10649.723880069503,6908.0,[0],1,267.59252233748947,124.01854962912638,260.4280796213011
5,18607.27315808482,11501.0,[1],1,276.6724464633949,565.4905882064893,576.9148213536184
5,9022.900960109453,5588.0,[2],1,245.17538112602878,116.21155829461061,133.49279779881851
5,13268.191832485347,7091.0,[3],1,165.17200530000895,513.5646843432277,528.2002299301415
5,8318.206362394267,6586.0,[4],1,468.37131367327555,194.20454790309702,407.8360954255796
5,8222.027428164894,6140.0,[7],1,525.0774070709641,131.96794912941223,656.3588486895918
5,7024.59642981972,3463.0,[9],1,118.35442975212223,129.23865713919878,221.5335761609725
5,8463.591114934876,5606.0,[11],1,356.8869507925891,382.4700434933322,773.752859785593
5,12169.446564354414,9850.0,[12],1,489.0426787666777,144.97804856119774,190.63439382854796
5,10148.432022310655,7472.0,[13],1,464.58313201030126,468.9957934754766,667.631911694025
5,12980.126077045978,9498.0,[15],1,285.5062313855846,496.3890874943786,484.6411265319145
6,11256.24598668073,7491.0,[0],1,286.8954422831737,124.56003075306657,259.2219275472236
6,15317.664514736101,8739.0,[1],1,298.1091015122398,577.8772512960875,566.5899037620914
6,8423.077227434002,5233.0,[2],1,262.9717548882517,118.7102787593538,128.5834505656563
6,8915.014209417177,4224.0,[3],1,172.10249897746175,517.4560716724321,516.1950027133539
6,10558.930063079035,7618.0,[4],1,477.39830143317056,196.67324065117666,411.8340028646637
6,5951.579725174447,4157.0,[5],1,336.90481049014153,158.52036930634162,653.2394420188806
6,10296.925674778593,7390.0,[7],1,536.4985793179073,135.58280050440192,640.1964622577169
6,5671.5698853121685,3188.0,[9],1,130.2872947822291,131.12511208140836,223.612711116068
6,8068.331335280332,5076.0,[11],1,374.7529545282643,382.58729936552413,737.2893701188744
6,12378.549094471171,8076.0,[12],1,485.0084681868581,143.43750289347057,195.90226770802963
6,11972.012550693285,8384.0,[13],1,490.59321343204124,482.4420095414857,675.9793012356035
6,16179.167584867775,11590.0,[15],1,300.13818182427485,495.6393255553789,480.1640323844597
