time,cumulative size,size,pcore_ids,pcore_power,SCA-1,CD11b,Ly6C
-1,0,0,[],0,0.0,0.0,0.0
0,7583.0,7583.0,[0],1,232.877620994329,115.37201635236696,283.2940788606096
0,9214.0,9214.0,[1],1,206.28055133492543,120.60115042326954,172.2333405687
0,4542.0,4542.0,[2],1,403.2813738441183,142.28445618670239,286.7498899163366
0,4923.0,4923.0,[3],1,174.7917936217763,236.72902701604716,527.4377412147056
0,8108.0,8108.0,[4],1,149.92340897878978,116.91588554514047,85.96891958559466
0,7333.0,7333.0,[5],1,318.44865675712305,131.6127096686216,694.2514659757263
0,3751.0,3751.0,[6],1,218.79338842975227,279.38629698747025,296.58890962409953
0,8860.0,8860.0,[7],1,108.09322799097475,125.00925507900692,232.78916478555365
0,7414.0,7414.0,[8],1,265.310223900727,380.91637442675875,771.7577555975195
0,5905.0,5905.0,[9],1,381.157493649444,356.9515664690937,569.3127857747655
0,14303.0,14303.0,[10],1,169.21009578410283,418.68062644200677,543.0302034538199
0,8024.0,8024.0,[11],1,217.4090229312073,535.7752991026921,635.4668494516427
1,9122.258758434458,5934.0,[0],1,228.51699014250394,122.09068730745057,290.0299035799342
1,11664.009785073862,7790.0,[1],1,217.08365484930928,118.33298001834353,166.7537735751978
1,4348.675759041185,2439.0,[2],1,403.3461588981887,145.13525768296418,284.89024758978906
1,6749.866526147018,4680.0,[3],1,168.7412155856482,241.87226257936018,518.437173773928
1,11654.994067438558,8246.0,[4],1,142.71350136726846,117.20311072735788,87.13711315295373
1,7196.146706527745,4113.0,[5],1,293.9539747515212,133.81109802535244,689.9806692825076
1,4303.101226808341,2726.0,[6],1,210.17454009115255,313.1396173851606,295.30835233649304
1,12773.171119573955,9048.0,[7],1,110.2666485830759,126.57310009902196,228.97269959274098
1,11447.20301134552,8330.0,[8],1,225.70857058473743,379.25951563285963,773.965622082249
1,9649.746666036592,7167.0,[9],1,369.35347838067804,351.0413722580138,572.2009718916433
1,23445.670713686937,17432.0,[10],1,160.4466275848989,427.5978087404391,532.1495803433858
1,15468.676417997904,12095.0,[11],1,199.1346648210307,548.5311259117182,616.3530910324894
2,10184.437344492168,6349.0,[0],1,229.60832481414798,133.20354729732597,286.2266637426407
2,14415.112007876429,9511.0,[1],1,227.00632202317993,122.7105406651878,159.0473374120228
2,4964.392928439229,3136.0,[2],1,401.84636740060586,158.31548593028717,279.1463798394692
2,5776.969282639035,2939.0,[3],1,178.875347260837,246.4143362853978,505.3199404956934
2,15359.321365556196,10459.0,[4],1,136.16754087804603,122.90789825130743,86.82348819830318
2,7427.606984579503,4402.0,[5],1,302.0397018596566,145.39175201942876,676.7286344904212
2,5875.231198048497,4066.0,[6],1,206.729623741759,339.16162580633033,307.6680769076622
2,16097.456902936006,10727.0,[7],1,108.91461270052487,131.9775783195489,222.0875034279289
2,10697.955988460988,5885.0,[8],1,264.2612681798354,380.99982476487565,754.9520192806094
2,9841.218689788326,5784.0,[9],1,371.843869237612,356.2732144192974,569.1460228686674
2,27840.69022817917,17983.0,[10],1,170.9365361951815,438.24005945305885,500.79166873416284
2,15262.777274307053,8759.0,[11],1,217.69167222160218,551.8898768924819,591.0954516510549
3,11546.028427179761,7264.0,[0],1,231.47858944117607,137.02221383797223,288.651871228493
3,13669.808006452033,7609.0,[1],1,229.84029713880264,122.31459480268177,158.84278513398306
3,7413.270108717719,5326.0,[2],1,442.5242656562963,175.60687286957406,263.25506368649803
3,5038.916380400993,2610.0,[3],1,177.9587501192885,249.99657122093245,501.19344917810884
3,13327.799138512997,6870.0,[4],1,136.21743615039705,123.27553126877687,87.1174329101753
3,9579.924043623178,6457.0,[5],1,333.23291839576444,139.20333731807094,682.3039612729856
3,4124.230426612884,1654.0,[6],1,215.63872884268451,335.4701906756866,314.48316672741595
3,16711.146902190027,9943.0,[7],1,112.42939276095527,132.24206876982083,221.31304751178698
3,10823.936420619426,6326.0,[8],1,264.4993717120628,372.97927770242,771.3639344219837
3,8633.72275898543,4496.0,[9],1,398.69971930140537,369.3669436397758,578.7832886814798
3,25455.56830553249,13750.0,[10],1,167.62730453032046,442.5877990592668,509.0870071988432
3,24112.20734839033,17695.0,[11],1,214.90299597186305,553.9129860870372,587.9338573654744
4,12066.506957416472,7212.0,[0],1,246.62608934278418,138.2109417648835,292.332282208808
4,12725.44627491602,6978.0,[1],1,245.27350099842263,121.97659152639666,153.38411962518566
4,9108.896129864122,5992.0,[2],1,455.6412886724823,174.82869051537568,257.80892170592875
4,4952.603360521209,2834.0,[3],1,192.85534021370972,255.29231474219787,490.8776150093532
4,9840.649259398562,4237.0,[4],1,138.4294571722819,123.63288309806111,85.61208881651585
4,10879.8618933428,6852.0,[5],1,372.13130215292864,136.0254231457804,680.3790524048571
4,4466.025290709536,2732.0,[6],1,225.49133601293948,336.4908832999542,326.065946746219
4,12651.171762414906,5625.0,[7],1,114.52016081125078,133.39463893830649,222.6339613417479
4,10490.904667516497,5940.0,[8],1,325.355203717392,383.582756999306,777.4520871178304
4,9455.033259162628,5825.0,[9],1,420.2923599059673,399.83786271550787,590.7667836438659
4,24145.74806818417,13443.0,[10],1,177.8472051315397,450.3202253530801,505.70298954309305
4,32467.93436155785,22330.0,[11],1,241.32556078288258,551.4152916411706,571.794178470727
5,12093.341222562758,7020.0,[0],1,267.36484534064743,134.38339647879485,295.96505648397533
5,12510.391077540307,7160.0,[1],1,265.300351581941,119.09367642762318,148.51190610775546
5,17063.819051260587,13234.0,[2],1,493.99191720074754,159.59594047860713,252.22199713940097
5,3643.3132060178923,1561.0,[3],1,219.79423027791844,235.7306412646473,501.3173002133517
5,7116.483342998686,2979.0,[4],1,143.53122518520175,122.54844878167721,85.51718062213864
5,14135.418432283726,9561.0,[5],1,442.8626091110871,132.68395356544397,654.4029469360449
5,3669.7323286950386,1792.0,[6],1,248.3536372246035,351.14572248426197,326.06617113064306
5,9125.162491886855,3806.0,[7],1,121.69135014739483,130.75260425447112,222.90389002909959
5,11932.882063841542,7522.0,[8],1,361.78279558598825,398.8441583000909,770.5793468308221
5,11377.35178686725,7402.0,[9],1,468.4783492509445,436.25241224697527,611.3568358683649
5,18364.036497077686,8212.0,[10],1,183.3257256885981,466.9000938067795,499.9056829354284
5,33402.08480766345,19751.0,[11],1,262.2241320246716,551.8048653719749,556.6404591178745
6,12831.623641246497,7747.0,[0],1,289.2691304883571,135.1626297043273,296.2173789888416
6,12458.971505262849,7199.0,[1],1,286.7031430442163,120.91056985160878,145.41139238931464
6,18382.45213537153,11208.0,[2],1,494.3229716198857,161.5254272986773,260.7469129073063
6,4370.8245072934815,2839.0,[3],1,282.6865243478973,210.8979602981122,516.8448476088251
6,5499.112666170182,2507.0,[4],1,151.38325897355082,123.71682617169898,87.51339871161879
6,17882.211343909334,11939.0,[5],1,474.2756317523861,136.1560229414336,629.6930956222744
6,4597.932380070162,3055.0,[6],1,275.5301217724091,367.9417106430539,341.5913770917623
6,7432.658214017654,3596.0,[7],1,133.3582265694052,132.7086521019962,224.54941321921356
6,11612.158875564848,6595.0,[8],1,379.85535774770227,406.0526177181793,745.7165460852352
6,13297.587166328558,8514.0,[9],1,495.6047993328709,457.1622178118009,626.1958361282333
6,16501.126229990503,8780.0,[10],1,200.97313498632602,471.249383387151,487.6225882334007
6,30064.84668838238,16021.0,[11],1,285.76239211186527,555.0299691910884,542.3102747669245
