time,cumulative size,size,pcore_ids,pcore_power,SCA-1,CD11b,Ly6C
-1,0,0,[],0,0.0,0.0,0.0
0,6039.0,6039.0,[0],1,233.55290611028354,404.0385825467787,791.5683060109292
0,37603.0,37603.0,[1 3 6],3,183.62612025636383,125.20897268834958,198.88508895566812
0,22462.0,22462.0,[2 4],2,183.51807497106373,447.45249755142254,574.5856112545616
0,6616.0,6616.0,[8],1,375.73367593711544,364.74803506650494,626.2188633615469
1,11463.810883750717,7873.0,[0],1,214.25652796435574,395.1515063882565,782.9668667317933
1,55014.877572723664,32656.0,[1 3 6],3,178.2506182805421,125.01551207223432,192.80854239797685
1,43400.98510859556,30045.0,[2 4],2,174.50331271332814,463.3721525854915,565.6307986121559
1,6740.713355735719,4241.0,[5],1,210.17763460195522,363.1054010362519,379.43731917940744
1,6464.444196865888,3891.0,[7],1,189.98188105026986,150.37097358606187,627.9390709541932
1,10715.897136429001,6782.0,[8],1,366.10239738977697,358.34491520192734,609.5305423520012
2,11666.422734000993,4850.0,[0],1,245.59371226742144,394.1895314762438,767.5404324466135
2,71465.0419202433,38753.0,[1 3 6],3,176.20582538181534,129.4302560111914,184.19563982337547
2,49706.38014463449,23900.0,[2 4],2,183.33515331153924,472.84485109696453,545.402146195609
2,11918.052141417393,7910.0,[5],1,203.48425142533446,376.74146134836116,384.79539317783787
2,12585.801387101192,5625.0,[7 9],2,273.94130079212783,153.25921149859096,656.7964465941939
2,12440.710559139327,6069.0,[8],1,364.7004316679893,363.0390771118843,604.9214116064769
2,5550.302228418015,2893.0,[10],1,403.80426279703886,189.8349799227272,364.7379410484779
3,12617.896460951739,5681.0,[0],1,252.0079446919176,385.8084412807578,776.7994086660127
3,75597.36816276053,33104.0,[1 3 6],3,179.26596308478958,130.08711492324525,187.0727973828643
3,60599.59046451466,31044.0,[2 4],2,187.01578050533564,489.54870065744467,551.4426123224792
3,10053.51620177349,2967.0,[5],1,202.9127325792272,368.6203309714894,388.78584464140476
3,6887.549378031472,3062.0,[7],1,204.49674531516297,151.86601091883486,627.5228036460023
3,11742.290756308983,4345.0,[8],1,377.5960946646841,378.3317669009165,608.4774866038063
3,8375.012900744456,4717.0,[9],1,383.19121322387645,148.8569892097528,698.5600960798223
3,8380.22945022508,5080.0,[10],1,437.92150823634614,200.63651018275107,336.2227623238848
4,12406.64612386573,4904.0,[0],1,297.3519509297226,389.7289531961896,781.3713694792414
4,70299.4640473175,25349.0,[1 3 6],3,191.5202115835246,130.88752961449785,189.37545589293205
4,70447.73207332594,34415.0,[2 4],2,205.9570419858324,502.72642035902,547.573140658082
4,10846.856498972084,4869.0,[5],1,207.86143869300724,359.67576795368205,394.2741372584077
4,6289.361362643796,2194.0,[7],1,222.23433969813848,148.06705160035173,613.361424443283
4,13379.007856916662,6397.0,[8],1,394.0594815455049,408.0962824310392,614.4539027215459
4,11015.812464902443,6036.0,[9],1,407.38596398146484,148.8398514025626,700.1127060318056
4,10818.914243781503,5836.0,[10],1,451.28995489131637,198.92010195470613,322.94194340947524
5,13048.035921911029,5671.0,[0],1,326.9981052316054,393.7056518146593,778.0362287287703
5,63903.31141297398,22103.0,[1 3 6],3,210.45376505073534,128.65744068924192,190.37489233818536
5,68489.47210870229,26601.0,[2 4],2,222.49639747008874,515.2394455823696,541.4296984370878
5,8968.579461995552,2519.0,[5],1,219.3628181889921,366.8656178956839,389.6734586416021
5,6079.6766406396055,2340.0,[7],1,245.84491203463745,146.31319175301303,601.6809128972254
5,17069.2056675613,9114.0,[8],1,433.709123032948,442.0506733506443,633.1265426090329
5,14845.041280398824,8295.0,[9],1,460.49685898549654,143.48940704313097,676.1975892040363
5,19789.964897654623,13357.0,[10],1,489.34631711387027,177.91436475613833,297.8746155649884
6,33262.818991228174,15355.0,[0 8],2,417.6654659952424,435.36739977946695,685.4634924767598
6,59494.13630227162,21497.0,[1 3 6],3,229.85007003853016,129.09299617611745,192.77294277262112
6,63254.0837672246,22530.0,[2 4],2,240.20409471728496,521.8160690389702,531.9457083125044
6,9838.749253836193,4506.0,[5],1,242.19246202332346,382.9693442611323,389.6884397491732
6,7069.997358982229,3455.0,[7],1,282.526796871669,148.55420001494812,583.8110965953284
6,19269.91435657969,10443.0,[9],1,485.7541223343762,143.75474928357727,650.3430153414561
6,23981.183530972485,12214.0,[10],1,490.4352993460216,176.22641423946843,300.64038587834864
