time,cumulative size,size,pcore_ids,pcore_power,SCA-1,CD11b,Ly6C
-1,0,0,[],0,0.0,0.0,0.0
0,58940.0,58940.0,[0 2 3 4 5],5,254.99458771632058,326.7279097387173,559.2001866304713
0,31060.0,31060.0,[1],1,162.59584674823324,123.66403734706996,180.57321313586587
1,103868.87368313511,62192.0,[0 2 3 4 5],5,235.22969255132506,353.5714648737777,560.3467860770083
1,49770.73662365417,27808.0,[1],1,159.09002549237726,124.40490340520016,175.99640904705768
2,130755.38493555378,57309.0,[0 2 3 4 5],5,241.5593098744203,359.79611803012534,537.3148247947115
2,67884.22537123552,32691.0,[1],1,156.44310682477058,127.71027076490141,169.22479744445627
3,155921.01936458744,63463.0,[0 2 3 4 5],5,249.50100703934265,365.8172687722136,537.6740981901817
3,74538.39609559652,26537.0,[1],1,156.09636303683448,127.59390851748941,171.4616117435284
4,182525.81012221874,72273.0,[0 2 3 4 5],5,268.2962487421367,372.55375460510635,531.2093790487595
4,70433.60533796519,17727.0,[1],1,159.81797818330253,127.83041186884532,171.7647626119246
5,205026.2380789891,75961.0,[0 2 3 4 5],5,305.194270771804,363.9125349731258,519.0861519671284
5,63843.079957892194,14039.0,[1],1,166.80571130299128,126.60615777148335,171.92732522165426
6,189478.53819559843,62938.0,[0 2 3 5],4,317.2878932944241,390.80086793233215,487.56306551182996
6,58034.87477006054,12891.0,[1],1,175.3605945100323,126.76871554739219,173.26577646972606
6,32605.905071222292,14171.0,[4],1,425.2294622327374,147.02833355551678,635.6614238581188
