time,cumulative size,size,pcore_ids,pcore_power,SCA-1,CD11b,Ly6C
-1,0,0,[],0,0.0,0.0,0.0
0,58940.0,58940.0,[0 2 3 4 5],5,254.99458771632058,326.7279097387173,559.2001866304713
0,31060.0,31060.0,[1],1,162.59584674823324,123.66403734706996,180.57321313586587
1,97277.93367913019,62232.0,[0 2 3 4 5],5,233.87894406441717,355.3113984702098,560.3024405698484
1,46236.38649599226,27768.0,[1],1,158.766514788649,124.45168564111748,175.5757425316971
2,115297.80543199222,57456.0,[0 2 3 4 5],5,241.73469974373114,361.24968399897807,533.7827421772813
2,60036.31989652486,32544.0,[1],1,155.75401406253235,128.09012222204012,168.01636904355345
3,132055.48528196226,63499.0,[0 2 3 4 5],5,251.05315628754948,367.5999867823766,535.7825353242322
3,62198.809389763395,26501.0,[1],1,155.52794660546843,127.78202421832835,171.25952121890631
4,150723.6613362233,72203.0,[0 2 3 4 5],5,273.11216100581447,375.0052882755659,528.9276434721056
4,54780.63333550234,17797.0,[1],1,160.502590337562,128.05029995906995,171.9965755099695
5,106784.99997131446,43586.0,[0 3 5],3,267.68883680856254,477.35704413231724,574.1574964237595
5,83756.25503271387,35164.0,[1 2],2,273.3972158827728,141.89983033872906,213.65687059774805
5,21652.329689587612,11250.0,[4],1,408.9900382720813,146.12721786300452,650.564054637959
6,105574.74087072627,42080.0,[0 3 5],3,295.13404503922766,482.7838306741254,568.9029777298277
6,83328.76720544291,33527.0,[1 2],2,301.1447947878777,143.98523726434664,221.17043548615814
6,27267.552261621124,14393.0,[4],1,440.47494644839486,147.261421366166,628.1769539349996
