time,cumulative size,size,pcore_ids,pcore_power,SCA-1,CD11b,Ly6C
-1,0,0,[],0,0.0,0.0,0.0
0,6039.0,6039.0,[0],1,233.55290611028354,404.0385825467787,791.5683060109292
0,37603.0,37603.0,[1 3 6],3,183.62612025636383,125.20897268834958,198.88508895566812
0,22462.0,22462.0,[2 4],2,183.51807497106373,447.45249755142254,574.5856112545616
0,6616.0,6616.0,[8],1,375.73367593711544,364.74803506650494,626.2188633615469
0,5192.0,5192.0,[9],1,361.7041602465299,137.1423343605547,708.355546995377
1,12127.217851585561,7857.0,[0],1,215.35885814241877,395.64934238344404,783.5413057937973
1,59253.33629295774,32664.0,[1 3 6],3,178.6222401273552,125.02935606997737,193.29417093528713
1,45946.03251901224,30063.0,[2 4],2,175.04230749987147,462.4695845180971,566.1864479321093
1,7233.676908108246,4261.0,[5],1,210.79324320873977,363.08292849810664,379.9830807084547
1,6961.358148975378,3901.0,[7],1,190.6770722920587,150.15351712788564,627.7232396526838
1,11437.218464330199,6759.0,[8],1,366.82959528353456,358.7074956442695,610.8143051632251
1,5814.298407920554,2143.0,[9],1,354.47164267380987,139.47520008462104,706.4170607980176
1,4863.643286774617,2352.0,[10],1,411.9070388953722,180.01672407988477,365.83414898051154
2,13335.237979782705,4760.0,[0],1,241.70798185320604,394.55983278734965,770.3834142102754
2,80674.43590067739,38776.0,[1 3 6],3,176.6395676562997,128.94531390102395,185.49979635842735
2,56284.75116281118,23796.0,[2 4],2,182.61056074666766,471.26080694663864,548.4007476436454
2,13183.98199463588,8069.0,[5],1,204.3248879359548,375.9991968924397,385.2052906440778
2,14634.753385491495,5601.0,[7 9],2,273.67465958587735,151.80008174811297,658.0523048230433
2,14235.334734039876,6148.0,[8],1,365.09887716109375,362.6394240340649,606.9187628960724
2,6289.1151493507605,2850.0,[10],1,406.5124706538728,188.30315788412307,364.1028522343257
3,15034.437204240749,5605.0,[0],1,248.1550979238652,387.55572206856573,777.3053203606504
3,90182.44069376844,33137.0,[1 3 6],3,179.10801544791806,129.6989986842138,187.4519086179369
3,70855.32922462121,31056.0,[2 4],2,186.09445431053717,486.1927731239653,552.3151939416673
3,12298.483071448376,2976.0,[5],1,203.78808461972147,370.0459740822327,388.38389851109025
3,8320.62117166678,3005.0,[7],1,203.00926162344825,151.76220813918601,626.4434426713046
3,14458.901722899995,4393.0,[8],1,375.5501988124439,374.97680716571773,609.625875465735
3,9772.712188207039,4740.0,[9],1,378.0620341704764,148.23817380316675,699.9508340022497
3,9535.07596976897,5088.0,[10],1,435.02200221659473,198.42867056925385,340.31045531084874
4,15335.952498441953,4705.0,[0],1,284.25284042303093,390.91686495634036,780.9427512739836
4,89125.61535851733,25357.0,[1 3 6],3,188.85376641741416,130.45876331632365,189.10616876056687
4,84510.28377793501,34408.0,[2 4],2,202.31074130921763,498.499193311639,548.8988500336955
4,13588.340778129106,4892.0,[5],1,207.8001778495359,364.0761572712782,392.6387938973474
4,7944.567654169937,2061.0,[7],1,215.64958595140155,148.8319151404676,615.5007533860127
4,16700.98745677244,6477.0,[8],1,389.87182877060275,399.30442378355417,614.8455192044092
4,13095.35105886562,6185.0,[9],1,399.3401440434402,149.23302265974635,701.545681792293
4,12657.316877352536,5915.0,[10],1,447.2724545353071,197.56967442319163,328.4987621524694
5,15996.156007603082,5152.0,[0],1,308.86440122259893,394.81725900821624,779.470269100619
5,85138.32699743152,22117.0,[1 3 6],3,203.88218303387697,128.85817433280704,189.7333465241629
5,86233.79473937734,26476.0,[2 4],2,216.55866831753903,509.8051477907095,543.8531721204381
5,12188.407909288779,2580.0,[5],1,216.08530761379657,370.4943469825437,389.57948635425686
5,7626.657661858865,2009.0,[7],1,231.26913872343346,147.26578774275688,606.423380751507
5,21412.381483195266,9603.0,[8],1,423.9216998177827,428.9476756985594,631.8526643164973
5,17674.811535742316,8415.0,[9],1,444.9301457385043,144.71750714659055,682.6073235752782
5,22598.074595602913,13648.0,[10],1,482.77258252666866,179.84064557018988,305.950774548425
6,14406.99038589407,3096.0,[0],1,320.71183147992343,394.89720395714005,770.0953094790871
6,81603.88835876154,21402.0,[1 3 6],3,219.56336617901306,129.0968192469273,191.45843488111717
6,83146.50102766254,22170.0,[2 4],2,231.44253364084713,516.5074006407052,536.406871695789
6,13253.505884525846,4635.0,[5],1,232.82748897647315,383.5950090449975,390.1062210015895
6,8141.8613504887435,2749.0,[7],1,257.5134001338095,148.44860688946,592.2428551056171
6,27562.84014812064,12422.0,[8],1,446.56713989250676,445.4801146643443,642.0780330501194
6,23257.97909311761,10760.0,[9],1,470.1010184746883,144.24930752986103,658.8826998897505
6,28745.25178831027,12766.0,[10],1,485.47456656342473,177.5282399653082,307.2293652661359
