time,cumulative size,size,pcore_ids,pcore_power,SCA-1,CD11b,Ly6C
-1,0,0,[],0,0.0,0.0,0.0
0,48599.0,48599.0,[0 2],2,243.43375378094186,363.00347743780765,614.5514722525157
0,41401.0,41401.0,[1],1,199.24569454844453,131.80217869133557,210.17067220598656
1,78873.5,54574.0,[0 2],2,222.3500478614488,389.2748261456661,603.1786404812681
1,56126.5,35426.0,[1],1,189.8376257204728,132.37064488253955,203.10519986102975
2,87438.75,48002.0,[0 2],2,232.57927692241716,397.8413689582675,575.5927120412813
2,70061.25,41998.0,[1],1,186.82682295848537,137.70478688290584,193.44878945208544
3,96248.375,52529.0,[0 2],2,239.04739820282606,408.5211308762323,586.0443630866376
3,72501.625,37471.0,[1],1,198.60242270432005,138.62730318113637,197.90513660900783
4,107010.1875,58886.0,[0 2],2,264.5733034763607,421.28919267616465,582.666671923158
4,67364.8125,31114.0,[1],1,220.9383747264231,141.76055748689373,204.35082484642794
5,109800.09375,56295.0,[0 2],2,307.7461525960661,420.3527899993233,584.7140354217437
5,67387.40625,33705.0,[1],1,273.6730365512468,139.57368610696565,209.89688262411738
6,112350.046875,57450.0,[0 2],2,343.1321683916692,410.7038328727864,577.4212717979707
6,66243.703125,32550.0,[1],1,301.1721432485205,141.34248090089633,218.10411508452196
