time,cumulative size,size,pcore_ids,pcore_power,SCA-1,CD11b,Ly6C
-1,0,0,[],0,0.0,0.0,0.0
0,46254.0,46254.0,[0 2 4 5],4,237.3956630777871,363.5822415358675,625.1961776278806
0,41326.0,41326.0,[1 3 6],3,203.65743115714233,128.81048250496116,214.51672070851217
1,71246.41139557265,51799.0,[0 2 4 5],4,214.14282943585036,391.9878191788907,612.2353731907331
1,52391.4426283875,35016.0,[1 3 6],3,192.86029366637348,128.45578993568986,205.36752633092595
2,72809.42597111422,42854.0,[0 2 4 5],4,225.21930994094328,400.8996048200138,586.3130745660402
2,63437.88814809085,41410.0,[1 3 6],3,188.66529650469064,133.81658848511853,193.8877421416474
2,7502.750367214105,5736.0,[7],1,285.85283325112226,393.1981819947709,388.09647212504166
3,61818.35014555626,40147.0,[0 2 5],3,251.51005426124618,421.1592275518226,628.0369223740736
3,64050.346367497856,37378.0,[1 3 6],3,202.47789233628302,135.6047998235253,199.5489757616655
3,18676.242502339068,9735.0,[4],1,163.43932093569262,386.99533368778816,493.73817795587746
4,58359.598994454325,37530.0,[0 2],2,262.6857023882184,500.7454186476776,606.0521496027106
4,57467.85332809386,30538.0,[1 3 6],3,227.72875938276843,137.83261268888916,205.83740237344546
4,24139.73218976232,13809.0,[4 7],2,221.25954053655278,391.0589282297021,465.2470740074476
4,13284.815522694273,8123.0,[5],1,363.4260343573248,147.61667010601988,667.3521017895914
5,60991.18879504046,36454.0,[0 2],2,295.6259753166776,506.09090403759626,604.6427974763488
5,57991.255927960185,33829.0,[1 3 6],3,288.7111737528514,135.61490844030004,213.07201918584593
5,18789.507131777915,8640.0,[4 7],2,261.27238198531325,401.72833316349914,456.8021095753589
5,16662.576875170256,11077.0,[5],1,430.66946409919,142.55293624321678,645.9987280474149
6,56983.636009906026,31340.0,[0 2],2,329.4939428370349,508.72629338754683,600.9102825334259
6,56296.319612941224,31914.0,[1 3 6],3,313.2184170386859,137.2763991501612,219.99955161397398
6,20593.014595748078,12693.0,[4 7],2,295.4036963779873,410.1448894840823,449.371086005276
6,21058.750581610053,14053.0,[5],1,455.62384204186924,143.3664976607222,622.1668239035588
