time,cumulative size,size,pcore_ids,pcore_power,SCA-1,CD11b,Ly6C
-1,0,0,[],0,0.0,0.0,0.0
0,31648.0,31648.0,[0 2],2,160.61637386248964,124.5648698179983,189.79423660262847
0,9080.0,9080.0,[1],1,216.91662995594857,529.9877753303991,614.2526431718051
0,12893.0,12893.0,[3],1,163.66951058714247,400.7722019700643,556.4382222911643
0,8704.0,8704.0,[6],1,344.0861672794086,140.0619255514705,270.97736672794053
0,6822.0,6822.0,[9],1,380.98050425094675,356.84989739079367,613.1156552330687
1,44802.0,28978.0,[0 2],2,158.4453930628125,124.68042721307131,185.1585643498049
1,18248.0,13708.0,[1],1,198.0617875931616,542.8335982025421,602.0847216133251
1,22039.5,15593.0,[3],1,155.99816239025725,409.9987295537596,542.4623970598252
1,7640.5,5170.0,[5],1,206.68274327596424,353.99110005889685,397.4822328381638
1,9621.0,5269.0,[6],1,342.1964452759554,139.99132106849646,267.0996258185214
1,11109.0,8026.0,[7],1,212.34156989828077,384.8267620847965,782.3167701863352
1,10520.0,7109.0,[9],1,369.66801330797705,351.43212927756576,597.1228612167295
2,56164.0,33763.0,[0 2],2,155.86970746385953,128.90387525817297,176.16060109678688
2,43378.75,23235.0,[1 3],2,185.14723222776377,480.20879462870903,545.9559807509421
2,12502.25,8682.0,[5],1,201.82293187226423,369.9292127417051,396.64144453997955
2,11918.5,7108.0,[6],1,339.18026597306493,150.29619918613946,258.350694298779
2,10835.5,5281.0,[7],1,251.02803285496657,386.06185685939727,763.3457154722923
2,11333.0,6073.0,[9],1,369.8527971410859,356.2685961351797,589.0476705197211
3,56628.0,28546.0,[0 2],2,157.80601689977073,128.96384518259578,181.08965529419982
3,52306.375,30617.0,[1 3],2,188.94369472172605,497.094046853756,553.7797065845191
3,9877.125,3626.0,[5],1,200.85099408988083,360.58192540845556,402.32144981459595
3,7837.25,4942.0,[4],1,386.55658872691225,144.81237041053967,690.672892277266
3,14621.25,8662.0,[6],1,370.52864837137474,161.46325553560698,254.76695733948816
3,11439.75,6022.0,[7],1,256.5769466115953,376.96895692650634,775.3530671561892
3,10270.5,4604.0,[9],1,390.1459398276548,372.7326809795031,588.3876758677774
4,48147.0,19833.0,[0 2],2,166.1432812532486,129.65520826842817,183.57265250171235
4,60317.1875,34164.0,[1 3],2,210.8277325596449,509.7560593736235,548.9581638732662
4,10420.5625,5482.0,[5],1,206.55892496206596,352.94518650024855,406.6181288198209
4,9913.625,5995.0,[4],1,414.36016719413675,143.71457211665768,690.6697663569071
4,17741.625,10431.0,[6],1,386.33073351510774,161.66221033868123,251.58263053694333
4,11299.875,5580.0,[7],1,312.36646976183016,384.7890629321111,779.7274416752397
4,11297.25,6162.0,[9],1,408.38106065634594,403.46442718360566,592.8369127442521
5,40378.5,16305.0,[0 2],2,181.11785433461128,127.28307530616557,185.34096734648256
5,57167.59375,27009.0,[1 3],2,229.277341894418,521.8778673232158,541.0660344611658
5,13726.8125,8770.0,[4],1,476.39921185271635,139.3015448779538,657.0921349184322
5,7725.28125,2515.0,[5],1,221.45421485463757,359.43942979422235,398.5022309058335
5,26420.8125,17550.0,[6],1,435.56134013668526,153.7860789197904,246.6307704863339
5,12809.9375,7160.0,[7],1,350.3552637356678,396.70382125205504,773.5723388580166
5,13656.625,8008.0,[9],1,451.7525720117488,438.40994755292684,608.0822608990135
6,35762.25,15573.0,[0 2],2,198.60169985459672,127.99596860166784,188.6094729777906
6,51479.796875,22896.0,[1 3],2,248.87196038980045,527.4960975285547,529.4947198643094
6,17485.40625,10622.0,[4],1,499.4978213974883,141.43463745659335,631.8897089179735
6,8417.640625,4555.0,[5],1,250.0375272168355,377.6543197043402,394.8586135144018
6,29712.40625,16502.0,[6],1,443.62284693788166,154.74921618389652,251.75640804503846
6,12503.96875,6099.0,[7],1,370.35053495514325,402.7580105816403,751.9711416625252
6,6924.6875,4274.0,[8],1,306.71626652826757,148.74245904598592,569.4402093957303
6,16307.3125,9479.0,[9],1,479.09511358018074,457.26112901803873,620.5226460905207
