time,cumulative size,size,pcore_ids,pcore_power,SCA-1,CD11b,Ly6C
-1,0,0,[],0,0.0,0.0,0.0
0,15155.0,15155.0,[0 4],2,NA,NA,NA
0,7175.0,7175.0,[1],1,NA,139.82299651567976,NA
0,21422.0,21422.0,[3 9],2,NA,NA,NA
1,27435.5,19858.0,[0 4],2,NA,NA,NA
1,7483.5,3896.0,[1],1,NA,NA,NA
1,19991.0,14430.0,[ 2 10],2,NA,NA,NA
1,53221.0,34237.0,[ 3  9 11],3,NA,NA,NA
1,7996.5,5905.0,[6],1,NA,NA,NA
1,8114.5,5186.0,[12],1,NA,NA,NA
2,16239.25,8653.0,[0],1,NA,NA,NA
2,9595.75,5854.0,[1],1,NA,NA,NA
2,38993.0,22866.0,[ 2  4 10],3,NA,NA,NA
2,31755.0,17422.0,[3 9],2,NA,NA,NA
2,10835.25,6778.0,[12],1,331.4279550540998,NA,NA
3,24879.625,16760.0,[0],1,NA,NA,NA
3,11319.875,6522.0,[1],1,NA,NA,NA
3,37514.5,18018.0,[ 2  4 10],3,NA,NA,NA
3,66023.25,34007.0,[ 3  9 11],3,NA,NA,NA
3,15780.25,7218.0,[ 6 12],2,NA,NA,NA
4,34489.8125,22050.0,[0],1,NA,NA,NA
4,21297.4375,11913.0,[1 9],2,NA,NA,NA
4,37500.25,18743.0,[ 2  4 10],3,NA,NA,NA
4,49346.125,20059.0,[ 3 11],2,NA,NA,NA
4,5361.8125,2006.0,[6],1,NA,NA,NA
5,61338.9375,29730.0,[0 2 4],3,NA,NA,NA
5,20680.96875,13824.0,[1],1,NA,NA,NA
5,40511.0625,15838.0,[ 3 11],2,NA,NA,NA
5,9598.03125,6878.0,[5],1,NA,NA,NA
5,6780.3125,4141.0,[8],1,NA,NA,NA
5,7423.75,3632.0,[9],1,NA,NA,NA
5,5376.90625,2696.0,[6],1,NA,NA,NA
6,49330.4375,24095.0,[0 2],2,NA,NA,NA
6,29985.359375,15933.0,[1 9],2,NA,NA,NA
6,8223.03125,2789.0,[4],1,NA,NA,NA
6,35300.53125,15045.0,[ 3 11],2,NA,NA,NA
6,13140.015625,8341.0,[5],1,NA,NA,NA
6,7026.1875,4088.0,[7],1,NA,NA,NA
6,9408.15625,6018.0,[8],1,NA,NA,NA
6,16960.328125,9887.0,[12],1,NA,NA,NA
