time,cumulative size,size,pcore_ids,pcore_power,SCA-1,CD11b,Ly6C
-1,0,0,[],0,0.0,0.0,0.0
0,22474.0,22474.0,[1 8],2,197.55214915012976,125.45830737741386,172.28303817744938
0,11377.0,11377.0,[2],1,120.07304210249187,125.73499164982026,223.2240485189417
0,14501.0,14501.0,[ 3 11],2,207.99827598096812,504.2732225363789,647.5198262188815
0,6448.0,6448.0,[4],1,139.35313275434484,357.19261786600515,492.4330024813889
0,4884.0,4884.0,[5],1,372.7330057330026,116.10667485667508,655.3730548730551
0,5333.0,5333.0,[6],1,207.46502906431624,216.15882242640245,753.1785111569458
0,7541.0,7541.0,[10],1,202.98806524333796,392.2782124386698,580.5548335764475
0,3228.0,3228.0,[0],1,337.50650557620486,375.0678438661712,409.70508054522844
1,13211.5,8671.0,[ 0 12],2,355.96798243953464,359.1404458237143,558.4193694887024
1,46114.5,30070.0,[ 1  8  9 11],4,204.20429582886152,199.4341042405321,317.5311236162153
1,16214.5,10526.0,[2],1,119.2319528816845,128.0126738413152,222.46495420765302
1,19393.0,14745.0,[3],1,172.96310524416248,529.6485071933166,573.2060021657284
1,11937.0,8713.0,[4],1,135.51775990617804,365.59194102370816,488.0667671944375
1,4758.0,2316.0,[5],1,357.01744430432717,116.74705758722149,645.7589323245058
1,7808.5,5142.0,[6],1,192.23301530383702,229.03265672024057,751.4729461484251
1,11397.5,7627.0,[10],1,201.69076551875585,401.89313445931066,568.5471375301579
2,16287.75,9682.0,[ 0 12],2,349.0036684010929,362.80075516876167,551.6043498948607
2,87911.5,49459.0,[ 1  3  8  9 10 11],6,202.57820080421962,302.7116276027602,381.76541749372814
2,19756.25,11649.0,[2],1,113.8028345460344,132.79872192344183,218.04790888959062
2,16468.5,10500.0,[4],1,144.1552509336043,385.87548957100086,461.18234811913646
2,10600.5,6144.0,[5 7],2,369.14404980896734,133.23338521767883,439.0782510258936
2,6470.25,2566.0,[6],1,215.66906224643566,235.11977898844657,738.1815617634547
3,13986.875,5843.0,[ 0 12],2,373.2154787970806,371.4731846820673,550.8021538049072
3,89210.875,49454.0,[ 1  3  8  9 10],5,199.32702991647713,315.91407998184144,371.8585976765705
3,20054.125,10176.0,[2],1,114.04694171399207,133.03633915715565,218.53227203879325
3,14061.25,5827.0,[4],1,140.05606720597748,387.1745577384662,465.26558805227137
3,14527.25,9227.0,[5 7],2,412.88280644994575,139.97317110946634,426.4192121702317
3,8372.125,5137.0,[6],1,222.25604311927927,228.92334682054923,750.8682234199803
3,8534.875,4336.0,[11],1,268.1541323100791,460.3070490194637,757.9730663893696
4,15042.4375,8049.0,[ 0 12],2,395.81857162444004,388.06134311676476,561.1881344030855
4,96603.4375,51998.0,[ 1  3  8  9 10],5,217.39721606697466,347.1581614267094,398.28125616647515
4,15620.0625,5593.0,[2],1,113.42514234498643,134.86909463390364,220.14071646640167
4,12699.625,5669.0,[4],1,144.2416360719348,388.05312164729276,459.52662972331774
4,18574.625,11311.0,[5 7],2,430.1503731569261,138.43383782983497,427.08556700337186
4,7321.0625,3135.0,[6],1,262.6928383004489,229.3964076252587,750.0992256929911
4,8512.4375,4245.0,[11],1,319.90378783984835,466.6006138077344,763.671590833998
5,18157.21875,10636.0,[ 0 12],2,440.49846910061416,407.1804912302449,576.3228863864405
5,92794.71875,44493.0,[ 1  3  8  9 10],5,236.10922563952386,357.6420223268372,402.96653432929816
5,41342.34375,24245.0,[2 5 7],3,380.51976295490374,134.8193317233008,345.8905495651772
5,8711.8125,2362.0,[4],1,146.37612365395026,400.8462719439831,452.03818809231666
5,7169.53125,3509.0,[6],1,292.4247444698663,229.13265337256166,741.9458079982559
5,9011.21875,4755.0,[11],1,357.4707916173891,473.95667553292697,769.1196425289301
6,6852.09375,3998.0,[0],1,462.58960764729653,350.73309481134777,388.86923248824485
6,89231.359375,42834.0,[ 1  3  8  9 10],5,259.19088037820086,354.3856180046033,398.128632783419
6,32960.734375,16512.0,[2 4 5],3,322.3007442093772,196.5821083514611,471.54712591260386
6,34227.859375,19425.0,[ 7 12],2,474.81199068923695,275.4598287305243,418.49080222023076
6,6968.765625,3384.0,[6],1,319.80156770948435,228.51577238616048,712.5773910820856
6,8352.609375,3847.0,[11],1,371.169249130599,476.45262240280414,754.0937674790998
