time,cumulative size,size,pcore_ids,pcore_power,SCA-1,CD11b,Ly6C
-1,0,0,[],0,0.0,0.0,0.0
0,19920.0,19920.0,[1 3],2,193.33308232931947,146.95426706827394,261.7364959839341
0,17557.0,17557.0,[ 2  6 17],3,202.64276357008686,429.67044483681804,570.7546277837894
0,17084.0,17084.0,[10],1,180.79214469679403,128.10337157574313,140.5242917349559
0,1170.0,1170.0,[0],1,256.19145299145396,376.9794871794867,648.2102564102562
0,6602.0,6602.0,[ 9 15],2,187.7396243562569,339.14010905786205,529.5780066646466
0,3437.0,3437.0,[8],1,247.5277858597605,371.38842013383874,776.1387838231029
0,4236.0,4236.0,[11],1,253.251888574125,162.18673276676085,722.8184608120876
0,2288.0,2288.0,[7],1,239.8090034965039,187.4707167832166,347.5227272727263
0,4282.0,4282.0,[18],1,250.15670247547902,521.129378794956,675.044371788883
1,24639.0,14679.0,[1 3],2,190.47852997280935,148.08598157392802,267.27738544583656
1,35076.0,24633.0,[ 2  6 15 17],4,191.77520241760877,427.61295472687846,556.4298380659143
1,27409.0,18867.0,[10],1,176.8500674960814,130.93429165602552,143.98535152687026
1,1543.0,958.0,[0],1,255.69669475048624,378.31885936487294,649.0667530784184
1,6271.5,4635.0,[9],1,197.75651757952843,332.3657019851715,500.2430837917553
1,7031.5,5313.0,[8],1,223.3296593898875,369.2210765839428,762.6562611107157
1,4709.0,2591.0,[11],1,235.017519643237,167.92025907836052,719.8784242939051
1,10393.0,8252.0,[18],1,208.52867314538815,528.0101029539077,646.403252188974
2,32425.75,17649.0,[ 1  3  7 12],4,204.19767468755782,162.33437931273775,278.10517104461564
2,35030.5,21455.0,[2 6],2,201.10196828478186,443.0645580280044,519.6822483264574
2,39261.5,25557.0,[10],1,176.29496453268817,139.1984768793859,148.9457674821384
2,2598.5,1827.0,[0],1,291.73176832787857,389.0506061189144,633.0098133538575
2,8669.75,5534.0,[9],1,203.4777242711744,351.89154819919906,469.9627151878646
2,7544.75,4029.0,[8],1,262.37201365187485,366.4862321481813,745.3312236985969
2,4738.5,2384.0,[11],1,262.38297984594146,178.7538778094334,707.661021420279
2,10111.5,4915.0,[18],1,226.56809078771835,531.1493349156877,624.2400731839995
3,6560.625,2942.0,[0 4],2,328.9746022673098,365.4542440697346,640.2766695246266
3,31234.5,16433.0,[1 3 7],3,195.87992444252583,160.54342153708245,274.81543245449575
3,58262.75,33260.0,[ 2  6 15 17 18],5,207.63504769342433,474.426271502804,553.778889599271
3,36852.75,17222.0,[10],1,173.814311686377,137.00989749747316,148.11378051841317
3,3428.75,2608.0,[5],1,465.07170980678194,139.77353262850886,625.7916879329209
3,7079.875,2745.0,[9],1,196.65650876604641,354.64183689683784,469.8924239481613
3,7892.375,4120.0,[8],1,271.9302649709358,359.20385181900065,760.209046706472
3,6063.25,3694.0,[11],1,259.05642600915223,176.0368820352123,719.3105801344154
3,5757.375,4346.0,[12],1,385.1621398640849,170.54117544888058,273.64810351939974
4,5332.125,3854.0,[0],1,373.533956912108,440.7788639613676,658.7287432308881
4,26331.625,12067.0,[1 3],2,206.05932267758067,155.35598591047864,268.5472008468889
4,67015.375,37884.0,[ 2  6 15 17 18],5,228.92635365391797,487.61661969361336,546.7473322353237
4,30014.375,11588.0,[10],1,178.89760114945253,137.3656039814262,148.2195135664152
4,2887.1875,1085.0,[4],1,350.99997835263054,326.15690009741314,644.3494101093193
4,4152.375,2438.0,[5],1,495.42233360426616,135.57741051807665,627.7291008157979
4,6711.9375,3172.0,[9],1,200.92376456127766,355.3684666312826,459.9308042573384
4,3071.625,1719.0,[7],1,245.50455784804475,237.8604769462417,369.2221950921735
4,7644.1875,3698.0,[8],1,317.5031764330698,353.6123034658681,766.6023939758131
4,6432.625,3401.0,[11],1,301.9353588154098,169.85908746429382,719.9064048502765
4,8150.6875,5272.0,[12],1,412.83798912668067,162.03452162777722,240.0862964013769
5,8722.0625,6056.0,[0],1,438.0636890643694,475.78620309129684,689.7464905806411
5,10554.28125,6259.0,[1],1,289.6604340063399,154.7434186956121,289.34828875722707
5,30455.25,12646.0,[ 2  6 15 17],4,221.58402286962112,462.7245712972313,517.6480101952834
5,37925.71875,14048.0,[ 3 10],2,187.5111084743802,141.4099131278829,186.45750533732357
5,3213.59375,1770.0,[4],1,383.6319929984877,331.40438566635765,643.374658433412
5,7795.1875,5719.0,[5],1,543.1673909383244,130.63330740921845,619.2462096004746
5,4011.96875,656.0,[9],1,202.88714237866517,358.9101906015606,456.24617745339947
5,8005.09375,4183.0,[8],1,348.7837861049359,356.54902542521853,759.8043706546241
5,6059.3125,2843.0,[11],1,327.7004559098042,167.79311287377985,714.395563646865
5,15349.34375,11274.0,[12],1,468.00546236708095,149.71639259821666,219.12670940736373
5,3234.09375,1953.0,[13],1,314.24491018542227,134.6436501724785,500.4683788928501
5,4499.21875,3292.0,[16],1,462.9598333043929,260.86621288418127,433.2425629449573
6,11109.03125,6748.0,[0],1,464.68043174331586,483.8405238980662,689.7704063979479
6,12945.140625,7668.0,[1],1,314.70356033694594,153.41044479769855,286.7218454318644
6,22795.140625,9850.0,[ 2  6 15],3,224.20536929129037,467.16687287381103,496.70842469851874
6,11030.765625,4282.0,[3],1,189.60998995706854,149.94608403485205,253.24560710172827
6,4839.796875,3233.0,[4],1,419.5113431284226,334.17446496656964,636.4900160453515
6,11081.59375,7184.0,[5],1,532.3388459466908,132.3032224042679,614.1523782398189
6,3065.984375,1060.0,[9],1,212.47382824643523,368.0153244013204,445.7030878133548
6,6790.546875,2788.0,[8],1,370.5010066843789,360.92854266616166,742.5581035216719
6,20194.09375,7980.0,[10],1,203.51175312707625,137.7859398865076,150.26668456587564
6,5588.65625,2559.0,[11],1,353.93064913859655,169.71959102422935,695.4301374995102
6,16648.671875,8974.0,[12],1,465.72786211362427,147.603256641154,216.23307977832232
6,4788.046875,3171.0,[13],1,362.60124333055415,131.14284595428026,483.65834516292244
6,6626.609375,4377.0,[16],1,479.17126264138693,250.57491458442942,423.91732668714974
6,2058.796875,1289.0,[14],1,347.5351350530829,386.87379613396814,532.2605511410636
