time,cumulative size,size,pcore_ids,pcore_power,SCA-1,CD11b,Ly6C
-1,0,0,[],0,0.0,0.0,0.0
0,38873.0,38873.0,[1 2 5],3,0.21567301992053142,0.15789556850228054,0.1850632666698253
0,10092.0,10092.0,[3],1,0.21906783435093907,0.4329633435739608,0.5582134341783866
0,6049.0,6049.0,[6],1,0.32657194707640186,0.1659698061606983,0.735213830922741
0,5536.0,5536.0,[8],1,0.3923741232058157,0.37653376991081056,0.6680508709141693
0,12782.0,12782.0,[10],1,0.23493184762983166,0.5468325083845997,0.6255631962960163
1,8838.5,6507.0,[0],1,0.25424671047822517,0.4492512959422424,0.7963404310434182
1,53781.5,34345.0,[1 2 5],3,0.2085083661971013,0.15897656820965245,0.18036618804865895
1,17317.0,12271.0,[3],1,0.21840255045863477,0.44161754058013614,0.550661431478239
1,6210.5,3186.0,[6],1,0.2983962462990818,0.1700849823372403,0.7331189240722981
1,7171.0,4403.0,[8],1,0.3730112234201682,0.3754613384351624,0.6565034432487451
1,7460.0,5347.0,[9],1,0.21634575413441182,0.35440554753557435,0.5100669047093018
1,25574.0,19183.0,[10],1,0.2169875830702375,0.5606906600913635,0.6100586219683378
2,9307.25,4888.0,[0],1,0.29629167306747817,0.4432021198382176,0.7761851781016321
2,24311.75,13541.0,[1 5],2,0.22358787995308704,0.17898317606791977,0.25628262090999937
2,43751.0,27631.0,[2],1,0.19722243266863806,0.15898459489639577,0.1253876716989071
2,22822.5,14164.0,[3],1,0.2297702592429864,0.45983343816557815,0.5178792174818706
2,6430.25,3325.0,[6],1,0.31388953808128495,0.18320245917688605,0.7182202907350242
2,7296.5,3711.0,[8],1,0.36332954002110657,0.37582165316352817,0.647738481564446
2,9839.0,6109.0,[9],1,0.22869011306757944,0.3831828755175509,0.47736661587867474
2,25856.0,13069.0,[10],1,0.2331129540271442,0.5668209860879336,0.584476995427128
3,9189.625,4536.0,[0],1,0.3071641765040029,0.4335252252118618,0.793717438746421
3,14942.375,7694.0,[1],1,0.2791627498561647,0.17304401952311582,0.2372856536779712
3,41148.5,19273.0,[2],1,0.19443214239245962,0.15629872300068454,0.12441104321673979
3,18980.25,7569.0,[3],1,0.2253976080103395,0.4676592261508286,0.5229031736746383
3,12676.5,7769.0,[5],1,0.1896767419320127,0.18343260135216505,0.26877083553498543
3,8138.125,4923.0,[6],1,0.3118104634777524,0.18378076000446225,0.7318458327296888
3,6398.25,2750.0,[8],1,0.3985076897343262,0.39354648020448024,0.648652188355027
3,8548.5,3629.0,[9],1,0.21768921941098984,0.3887932033801259,0.48116592824930543
3,37565.0,24637.0,[10],1,0.23681406161903712,0.5773561949634196,0.5863668675854118
4,9188.8125,4594.0,[0],1,0.363090895292871,0.4342331539979774,0.8017263006637727
4,25514.25,13974.0,[1 6],2,0.33699315749196057,0.1739701306789036,0.40473017360292945
4,32731.25,12157.0,[2],1,0.1985401883315173,0.15646744103261184,0.12298672117573559
4,17349.125,7859.0,[3],1,0.23373006701354979,0.4789373171472869,0.5171580365543147
4,5822.4375,3407.0,[4],1,0.5694545425598974,0.1778695004924921,0.4990114011318272
4,12234.25,5896.0,[5],1,0.19116121668010472,0.18475737620730778,0.2651449550176171
4,5981.5625,3656.0,[7],1,0.3536425661956255,0.22984418323557865,0.372871803887899
4,6971.125,3772.0,[8],1,0.435591608724666,0.4334351200966429,0.6512548720998793
4,8654.25,4380.0,[9],1,0.22168594179712547,0.393918430865382,0.46744620242394064
4,48350.5,29568.0,[10],1,0.2660870313902835,0.583441896935559,0.5745026244307289
5,10423.40625,5829.0,[0],1,0.4054890373568684,0.44226380667454773,0.7955888564597599
5,22205.09375,13998.0,[1],1,0.4201997381187221,0.16652846554541667,0.1982099896212338
5,25997.625,9632.0,[2],1,0.2082980894592324,0.15550705733627296,0.12333341755594888
5,13296.5625,4622.0,[3],1,0.2343088827395588,0.4935599615838185,0.5103405108565747
5,11310.21875,8399.0,[4],1,0.6161024898465689,0.16681969578450687,0.5154498449566728
5,11187.125,5070.0,[5],1,0.20434614091013095,0.17866253966297402,0.2614701870162589
5,9124.03125,4574.0,[6],1,0.38540984861367666,0.17581007445639626,0.7269722536138011
5,7453.78125,4463.0,[7],1,0.3912290953676149,0.22090851121924227,0.3752604032222367
5,9687.5625,6202.0,[8],1,0.5049419869636188,0.4921283605205741,0.6774419545737822
5,49475.25,25300.0,[10],1,0.28855118173091765,0.5910070005408169,0.5623659645394685
6,10195.703125,4984.0,[0],1,0.4350395942468852,0.4431837392544554,0.7706012629199795
6,23767.546875,12665.0,[1],1,0.45325371267873094,0.1663401128595202,0.1970879065410677
6,21699.8125,8701.0,[2],1,0.22162143287301972,0.1563257069020646,0.12718484556687004
6,13345.28125,6697.0,[3],1,0.251012993246231,0.5020353403128198,0.4940637383292144
6,14639.109375,8984.0,[4],1,0.6032750959181632,0.16526455751396477,0.5466790270604073
6,11403.5625,5810.0,[5],1,0.2288113459147814,0.17719578854716644,0.25567936542707753
6,9546.015625,4984.0,[6],1,0.41925377162529587,0.17616215906749988,0.7034001945323295
6,10031.890625,6305.0,[7],1,0.4252779824397401,0.22104065808627701,0.37601755161311357
6,11838.78125,6995.0,[8],1,0.5396822594543158,0.5229840720078571,0.6883225992600617
6,44561.625,19824.0,[10],1,0.31319430858862407,0.5970570508241649,0.5490207681228477
