time,cumulative size,size,pcore_ids,pcore_power,SCA-1,CD11b,Ly6C
-1,0,0,[],0,0.0,0.0,0.0
0,9637.0,9637.0,[0],1,0.34228902416132034,0.43751552392574306,0.7733848962321141
0,33081.0,33081.0,[1 3],2,0.18532872496484018,0.1425325004400966,0.16517592742764226
0,22429.0,22429.0,[2 4],2,0.20189797418170227,0.5102915000356102,0.6016275461066395
0,7406.0,7406.0,[6],1,0.4049214575488409,0.16144990059423533,0.2620139753056417
0,7907.0,7907.0,[8],1,0.3755733434888413,0.17064737871878274,0.7188896647356247
1,15291.5,10473.0,[0],1,0.3046483193460972,0.4320233507421322,0.7774771811959797
1,46426.5,29886.0,[1 3],2,0.18120132377902984,0.1441020504701811,0.15993939890667422
1,41760.5,30546.0,[2 4],2,0.1913698754898379,0.5278918120736013,0.5852944336392305
1,9088.5,6326.0,[5],1,0.3488837294692041,0.41861825284152654,0.4634265775307944
1,8310.0,4607.0,[6],1,0.39816256304168063,0.15897919150998405,0.2524948474883338
1,8307.5,4354.0,[8],1,0.35828299188157003,0.17772572349850144,0.7158402629443051
2,15410.75,7765.0,[0],1,0.3272673733697083,0.4346782080411485,0.7632656672028479
2,58047.25,34834.0,[1 3],2,0.1775376762276378,0.14965488112946823,0.15057024670047037
2,47002.25,26122.0,[2 4],2,0.2006565965853564,0.5335370726572292,0.5482313841275731
2,12601.25,8057.0,[5],1,0.347693993261322,0.42534937593726135,0.46679400199144216
2,10641.0,6486.0,[6],1,0.3899396176966491,0.17004435907216256,0.2386825477954433
2,8633.75,4480.0,[8],1,0.3633607982782448,0.18477624837285483,0.7064476405105955
3,15778.375,8073.0,[0],1,0.33159350066933496,0.43534948726109796,0.7771954150618783
3,58103.625,29080.0,[1 3],2,0.17916023050738886,0.14883480383468853,0.15585039652079527
3,55393.125,31892.0,[2 4],2,0.20703742820881788,0.5532917404592018,0.5591823788565701
3,10319.625,4019.0,[5],1,0.37308010413778503,0.4281107137988913,0.4690572428422488
3,13346.5,8026.0,[6],1,0.4233171954773276,0.1798565298272475,0.23180619369441685
3,10826.875,6510.0,[8],1,0.40001354307807824,0.17472921335195526,0.7135149569421658
4,16392.1875,8503.0,[0],1,0.3861003385459265,0.45364698291274014,0.7792537202850103
4,49597.8125,20546.0,[1 3],2,0.18834856104124983,0.15063098185167248,0.1595364870969262
4,63663.5625,35967.0,[2 4],2,0.23151403467709053,0.5666070578519332,0.554585287921919
4,11031.8125,5872.0,[5],1,0.3870901003170001,0.4396800270833371,0.4745122998643054
4,16490.25,9817.0,[6],1,0.43908406295241637,0.17872958026548108,0.22668107705136806
4,12346.4375,6933.0,[8],1,0.4392084397269863,0.17018318344023792,0.7153771499350597
5,19651.09375,11455.0,[0],1,0.44070171673799885,0.4787151792258824,0.7774612288574164
5,41348.90625,16550.0,[1 3],2,0.2045460703114114,0.1479460609778494,0.16056472106930986
5,59191.78125,27360.0,[2 4],2,0.2531617152878127,0.5834174300612808,0.5489943635271908
5,10948.90625,5433.0,[5],1,0.4235483252858097,0.4594045201600686,0.4725119432401023
5,25098.125,16853.0,[6],1,0.49361324917675947,0.1690856868127433,0.22130307390929146
5,15973.21875,9800.0,[8],1,0.5099117560430286,0.16444302146614154,0.6877548382145309
6,21838.546875,12013.0,[0],1,0.4779384076818263,0.4953327087177967,0.758299126194356
6,36582.453125,15908.0,[1 3],2,0.2237955884950594,0.14936766428025247,0.16419861795997256
6,53013.890625,23418.0,[2 4],2,0.27332271217699833,0.5901659190003403,0.5352547341741052
6,12863.453125,7389.0,[5],1,0.4431639772819559,0.4722253705316216,0.4716319711981174
6,28034.0625,15485.0,[6],1,0.501062612434384,0.1694173371477783,0.22463565938181373
6,6658.578125,4171.0,[7],1,0.34058966451597367,0.1751652829902111,0.5205257081965973
6,19602.609375,11616.0,[8],1,0.540872314753514,0.164789763937483,0.6634880209239907
