time,cumulative size,size,pcore_ids,pcore_power,SCA-1,CD11b,Ly6C
-1,0,0,[],0,0.0,0.0,0.0
0,4599.0,4599.0,[0],1,269.9484670580557,NA,NA
0,19785.0,19785.0,[1 3],2,NA,NA,NA
0,14180.0,14180.0,[2],1,206.29076163610745,NA,NA
0,25252.0,25252.0,[ 5 10],2,NA,144.38852368129292,NA
0,5784.0,5784.0,[4],1,NA,NA,NA
0,12122.0,12122.0,[6],1,NA,360.3038277511975,529.2668701534399
0,3037.0,3037.0,[8],1,NA,NA,NA
1,8304.5,6005.0,[0],1,235.65530736347716,NA,NA
1,24193.5,14301.0,[1 3],2,NA,NA,NA
1,27767.0,20677.0,[2],1,191.54663809558386,NA,NA
1,37474.0,24848.0,[ 5 10],2,184.00074718471822,146.86477290921755,NA
1,7756.0,4864.0,[4],1,NA,NA,NA
1,20660.0,14599.0,[6],1,195.20837366892732,369.08114714424,NA
1,2879.5,1556.0,[7],1,NA,NA,NA
1,3459.0,2171.0,[9],1,NA,NA,NA
2,8744.25,4592.0,[0],1,268.0708751465238,NA,NA
2,26936.75,14840.0,[1 3],2,NA,NA,NA
2,29340.5,15457.0,[2],1,205.0502121640751,NA,558.2199689848444
2,48992.0,30255.0,[ 5 10],2,NA,NA,NA
2,7758.0,3880.0,[4],1,309.4407063676168,NA,NA
2,26892.0,16562.0,[6],1,203.50213818235991,384.6540699836404,NA
2,2971.75,1532.0,[7],1,335.6375872802174,NA,NA
2,3236.5,1507.0,[9],1,NA,NA,NA
3,8235.125,3863.0,[0],1,NA,NA,NA
3,28908.375,15440.0,[1 3],2,NA,NA,NA
3,41476.25,26806.0,[2],1,208.3888219161581,NA,563.1459088032194
3,48422.0,23926.0,[ 5 10],2,NA,151.34526919581992,NA
3,6563.0,2684.0,[4],1,NA,NA,NA
3,22088.0,8642.0,[6],1,NA,NA,496.6282427109718
3,5323.875,3838.0,[7],1,NA,NA,NA
3,4415.875,3104.0,[8],1,NA,135.27978599937722,NA
3,3315.25,1697.0,[9],1,NA,NA,NA
4,8673.5625,4556.0,[0],1,NA,NA,NA
4,27868.1875,13414.0,[1 3],2,NA,NA,NA
4,52678.125,31940.0,[2],1,232.63467402266028,NA,553.0374182831868
4,33920.4375,13319.0,[10],1,NA,138.60411403891896,NA
4,6962.5,3681.0,[4],1,NA,NA,NA
4,7013.5625,3404.0,[5],1,NA,227.6895835746809,NA
4,20241.0,9197.0,[6],1,NA,NA,NA
4,7508.9375,4847.0,[7],1,NA,NA,NA
4,5803.9375,3596.0,[8],1,NA,NA,NA
4,3703.625,2046.0,[9],1,NA,NA,NA
5,12110.78125,7774.0,[0],1,NA,NA,741.3483982505244
5,11173.8125,6334.0,[1],1,NA,NA,NA
5,53431.0625,27092.0,[2],1,NA,NA,542.4591383523225
5,42144.5,16090.0,[ 3 10],2,NA,NA,NA
5,7693.25,4212.0,[4],1,NA,NA,NA
5,7110.78125,3604.0,[5],1,323.23760135357304,NA,NA
5,13343.5,3223.0,[6],1,NA,NA,NA
5,16170.46875,12416.0,[7],1,NA,NA,NA
5,9840.96875,6939.0,[8],1,NA,NA,NA
5,4167.8125,2316.0,[9],1,NA,NA,NA
6,14506.390625,8451.0,[0],1,NA,NA,NA
6,13779.90625,8193.0,[1],1,NA,NA,NA
6,48538.53125,21823.0,[2],1,NA,NA,NA
6,35466.25,14394.0,[ 3 10],2,NA,NA,NA
6,9054.625,5208.0,[4],1,NA,NA,NA
6,6817.390625,3262.0,[5],1,NA,NA,NA
6,12358.75,5687.0,[6],1,NA,NA,NA
6,18471.234375,10386.0,[7],1,NA,NA,NA
6,13426.484375,8506.0,[8],1,NA,NA,NA
6,6173.90625,4090.0,[9],1,NA,144.8597550173357,NA
