time,cumulative size,size,pcore_ids,pcore_power,SCA-1,CD11b,Ly6C
-1,0,0,[],0,0.0,0.0,0.0
0,27365.0,27365.0,[1 3 5 7],4,186.63668920153614,135.80281381326517,313.1680248492607
0,5500.0,5500.0,[2],1,242.34509090909017,544.3389090909074,627.2165454545458
0,7215.0,7215.0,[4],1,206.59792099792222,395.98669438669515,576.8557172557156
0,4730.0,4730.0,[10],1,154.55665961945203,314.5099365750528,482.0619450317116
0,4545.0,4545.0,[14],1,114.40836083608531,475.3476347634776,604.5460946094599
0,5120.0,5120.0,[17],1,365.01835937499527,348.9369140624999,670.1398437499986
1,6226.5,4387.0,[0],1,255.70697823817397,440.9444310607888,787.0936320565311
1,36168.5,22486.0,[1 3 5 7],4,178.95487786333612,137.38863928556623,300.18868628779165
1,10106.0,7356.0,[2],1,228.0819315258262,557.364239065899,622.1179992083925
1,18941.0,13277.0,[4 6],2,190.9108019639952,436.3506942611272,527.4450662583804
1,4991.5,3688.0,[8],1,143.8436341781061,299.6444956425926,772.9319843734359
1,4241.5,2360.0,[5],1,259.5831663326642,142.2889308027817,732.1900271130497
1,8354.0,5989.0,[10],1,148.2646037826219,323.4152501795551,482.8784414651649
1,9200.5,6928.0,[14],1,108.7363730232106,490.1226563773699,591.9429378838107
1,7211.0,4651.0,[17],1,357.03577867146777,346.48432949660196,652.8589654694202
2,6446.25,3333.0,[0],1,279.9129338762816,434.1222028311024,768.4202831103347
2,55978.75,33746.0,[ 1  3  5 11],4,163.19958912980653,124.96958220753405,216.63286961570242
2,10878.0,5825.0,[2],1,240.47150211435894,559.7431053502488,605.0808282772581
2,25385.5,15915.0,[4 6],2,195.5555238226557,454.218520415199,501.1868783360575
2,6053.0,3678.0,[9],1,339.2927886998148,130.59020320502194,159.2609862877917
2,8927.5,5096.0,[7],1,215.27796135536263,219.08448613833764,283.4355082609909
2,10641.0,6464.0,[10],1,154.64789493469002,341.6655859411703,458.3624894276818
2,5111.75,2922.0,[12],1,377.61387978676044,365.4242187117906,486.6837188829677
2,7053.25,2453.0,[14],1,109.05150108106778,494.5395030659604,575.8920355864306
2,8416.5,4811.0,[17],1,350.570605358515,346.9091962217073,660.0403968395427
3,6693.125,3470.0,[0],1,292.7422355028456,430.3106732654771,779.6919413577331
3,66503.125,34050.0,[ 1  3  5  7 11],5,174.2676528358656,137.09530003289308,238.9668887740233
3,16954.0,11515.0,[2],1,239.61504659667295,564.9483160316179,597.8244440839957
3,23741.75,11049.0,[4 6],2,200.1995377341614,456.71869702107165,510.0243558288668
3,6511.5,3485.0,[9],1,362.7575251478114,137.17257928280688,157.0059702065579
3,10713.625,7187.0,[14],1,114.20128574596025,507.0655707101937,570.9277905470819
3,9376.5,4056.0,[10],1,152.57496133952236,344.77030341811854,459.2029675251954
3,5281.625,3493.0,[16],1,428.7965114903056,183.98331479421554,325.27285636522976
3,7190.25,2982.0,[17],1,363.1935954938908,360.75624978269076,660.9625534578099
4,7884.5625,4538.0,[0],1,348.49710272446504,432.87913089661004,785.7556855564228
4,59742.5625,26491.0,[ 1  3  5  7 11],5,191.67577135647792,139.92163355061987,261.5004074774994
4,24422.0,15945.0,[2],1,259.87154000491176,562.1723394889871,582.9221936164099
4,26164.875,14294.0,[4 6],2,214.0740090483906,465.61906229248206,509.6207176606038
4,7713.75,4458.0,[9],1,374.7943364122474,138.42121212121197,151.0331793874575
4,9852.8125,4496.0,[14],1,119.40376161629524,513.3471470709522,561.2215928193041
4,9070.25,4382.0,[10],1,160.39927923706932,346.88838510515035,451.1460337366673
4,4542.9375,2695.0,[13],1,519.1844621459167,135.14060285883292,627.2544746653441
4,6793.8125,4153.0,[16],1,441.8915281368134,179.65015041260008,318.70612045887356
4,7640.125,4045.0,[17],1,382.6919553017714,383.1882086353286,662.5411233454968
5,10099.28125,6157.0,[0],1,407.7109540592262,464.1854370824666,780.7029739121261
5,22238.15625,10555.0,[1 7],2,237.78811614609415,142.22200159916582,253.70997623735076
5,26214.0,14003.0,[2],1,278.4933384832492,562.3608544098546,570.9402955004936
5,22126.40625,7486.0,[ 3 11],2,142.82018657006714,126.97727828033497,146.8140245323387
5,24246.4375,11164.0,[4 6],2,224.2133032430016,480.7250253258856,501.15895118612764
5,17916.59375,10512.0,[5 9],2,384.5379946313708,145.6058489772924,372.469597841386
5,7948.40625,3022.0,[14],1,125.33109231804075,520.1614592548027,554.8279018199364
5,5674.125,1139.0,[10],1,165.2176822417583,350.035324829819,444.1456006432724
5,5214.71875,3005.0,[12],1,454.6034182092721,417.25954180175165,456.3860107508207
5,8686.46875,6415.0,[13],1,550.393769764042,134.92648048149576,617.3411879827468
5,12304.90625,8908.0,[16],1,482.8799157856263,164.4430016482247,310.2835352768322
5,8601.0625,4781.0,[17],1,404.95871149639544,388.9589113263626,668.7201145207372
6,21121.171875,11771.0,[ 0 17],2,434.5903932295381,439.4414120902083,716.0775118272187
6,22304.078125,11185.0,[1 7],2,254.0495782371618,143.17263098606605,253.9126259841774
6,24048.0,10941.0,[2],1,298.13681751080884,569.9107916978567,560.9027550367947
6,17511.203125,6448.0,[ 3 11],2,152.58693050966897,127.83036127764582,144.54617178110055
6,24685.21875,12562.0,[4 6],2,241.24837548279635,483.8281467781208,491.2027605082492
6,18655.296875,9697.0,[5 9],2,398.0267140951046,146.3269890672809,347.8802979046669
6,4716.0625,1879.0,[10],1,178.75015240468278,363.32917423168107,427.5364942947653
6,6374.359375,3767.0,[12],1,471.0301549910631,423.4994325410146,454.60432543466345
6,12145.234375,7802.0,[13],1,547.0152271660114,137.0671225210502,614.444253468762
6,5404.203125,1430.0,[14],1,129.27201339235887,522.6293741271963,546.879662531186
6,5858.5,3726.0,[15],1,326.2859600366923,131.2928970726293,525.0554856191858
6,14613.453125,8461.0,[16],1,484.5632299432993,163.04612188469352,316.6631368142154
