time,cumulative size,size,pcore_ids,pcore_power,SCA-1,CD11b,Ly6C
-1,0,0,[],0,0.0,0.0,0.0
0,5468.0,5468.0,[0],1,0.2890839860927303,0.5614618744352169,0.7632387993802372
0,18741.0,18741.0,[1 2],2,0.23289003440752834,0.17102876047169374,0.26033021462774203
0,20828.0,20828.0,[7],1,0.2025369910427423,0.14822295865207596,0.12208360084056705
0,16309.0,16309.0,[4],1,0.22452178813517973,0.49957536701413413,0.5906255594728819
0,8042.0,8042.0,[6],1,0.22080984941417245,0.3838873065726206,0.5369437125469901
0,6343.0,6343.0,[8],1,0.33668398499982943,0.1669061201894993,0.7334232324569395
0,5825.0,5825.0,[10],1,0.3889951294787057,0.37352727555201654,0.662651767877112
1,10074.0,7340.0,[0],1,0.24880965127717805,0.5784811737037324,0.7267275612582688
1,22809.5,13439.0,[1 2],2,0.2244599690006962,0.1736100620534102,0.26638126154894415
1,31922.0,21508.0,[7],1,0.19942025118811887,0.15044547215058415,0.12346408401659391
1,6730.0,5157.0,[3],1,0.23450381488221494,0.38023362333846644,0.7735285114353498
1,29488.5,21334.0,[4],1,0.21439205113858154,0.513877025609419,0.5786778908526946
1,3689.5,2318.0,[5],1,0.24581540996237483,0.2271322739902091,0.452487813034705
1,14170.0,10149.0,[6],1,0.22167365775138426,0.401465239480517,0.5336468322139826
1,6041.5,2870.0,[8],1,0.31570030137987476,0.16494678773475938,0.7272061448772932
1,7485.5,4573.0,[10],1,0.36974210064551255,0.3727435636499033,0.6498633810072899
2,9131.0,4094.0,[0],1,0.2742693122207466,0.5808201921156665,0.705899821431142
2,25332.75,13928.0,[1 2],2,0.22495394168782218,0.18117519838104118,0.26003560757761757
2,7602.0,4237.0,[3],1,0.28561610782496494,0.38549970030511094,0.7619165173975456
2,32047.25,17303.0,[4],1,0.22691889021661493,0.5245710439785052,0.549854794895778
2,19802.0,12717.0,[6],1,0.2307077993483832,0.42310285857134966,0.4976898944314872
2,43949.0,27988.0,[7],1,0.19847927666925894,0.15938561139716712,0.1257450868973907
2,6092.75,3072.0,[8],1,0.32413805503778215,0.17330691789124808,0.710183723599345
2,7568.75,3826.0,[10],1,0.36299175163992486,0.3763559527857382,0.6380063964512417
3,16004.5,11439.0,[0],1,0.26921846243384456,0.6043548678828933,0.6539784780742004
3,28492.375,15826.0,[1 2],2,0.23407750378316977,0.18042702799802388,0.25817211811963203
3,8711.0,4910.0,[3],1,0.29133239453151705,0.3788049196392342,0.7892321493265931
3,34620.625,18597.0,[4],1,0.22399715860743522,0.5320656684898876,0.5535367228385449
3,16412.0,6511.0,[6],1,0.2242128087970737,0.42792376563666573,0.5012704339456119
3,41326.5,19352.0,[7],1,0.19687600808959746,0.15685802329129053,0.12453859949599583
3,8307.375,5261.0,[8],1,0.3631370595810424,0.16890293127345146,0.7141568536101328
3,5056.375,3694.0,[9],1,0.48758797924191105,0.20674141699398063,0.361382208472525
3,6745.375,2961.0,[10],1,0.3995798619403531,0.39045330456438787,0.6407382902423431
4,26599.25,18597.0,[0],1,0.29880700414696376,0.6044097834172429,0.6129669768767212
4,12248.75,7772.0,[1],1,0.3298302108332518,0.18693049872574521,0.2578576776276664
4,16389.4375,6620.0,[2],1,0.20566279177733557,0.17751495947987192,0.2511894488307902
4,8838.5,4483.0,[3],1,0.3490019008385765,0.38793887236706304,0.7994542204565882
4,34259.3125,16949.0,[4],1,0.238045310447351,0.5370546605268274,0.5439733537571637
4,15398.0,7192.0,[6],1,0.23088204764663994,0.4310459826421589,0.49017117113957
4,33402.25,12739.0,[7],1,0.20277081768275843,0.15683948154385433,0.12246978647814867
4,9873.6875,5720.0,[8],1,0.4087474291669082,0.16522247257847728,0.71622253054947
4,6651.1875,4123.0,[9],1,0.5208797512398263,0.201113690913307,0.32708737917109704
4,7135.6875,3763.0,[10],1,0.4404061559936797,0.42118028799461826,0.6489051247104668
5,30936.625,17637.0,[0],1,0.32429965559801793,0.6067980694567982,0.590745496957069
5,14934.375,8810.0,[1],1,0.3650774737792408,0.17516869382356157,0.23688760590016272
5,12864.71875,4670.0,[2],1,0.21163424409025072,0.17500322683323558,0.2515606974386772
5,9697.25,5278.0,[3],1,0.3853701971860953,0.3959372950172825,0.7934588579316768
5,29872.65625,12743.0,[4],1,0.24659733718708315,0.5476617599427738,0.5336565284164502
5,4012.46875,2224.0,[5],1,0.3103992286684267,0.2200357912881785,0.4529777644855697
5,9711.0,2012.0,[6],1,0.23625903064866918,0.4356821356664621,0.48498527331299845
5,26723.125,10022.0,[7],1,0.21375345596870637,0.15525920605522342,0.12019365354312533
5,13057.84375,8121.0,[8],1,0.49002952210883155,0.1580710192967424,0.6927506484965809
5,14959.59375,11634.0,[9],1,0.5637611526724311,0.18300745833561236,0.27719787103012067
5,10416.84375,6849.0,[10],1,0.5080924298444222,0.4748802121042653,0.6856627312614072
6,31455.3125,15987.0,[0],1,0.3492258340232737,0.6106594487565108,0.5711478238308343
6,18649.1875,11182.0,[1],1,0.3888013306224728,0.17289584484160242,0.22542638458420308
6,10684.359375,4252.0,[2],1,0.22118225128611246,0.1759414476664206,0.25211995165838674
6,9306.625,4458.0,[3],1,0.41214869247878605,0.3942956143397098,0.7647650528216244
6,25011.328125,10075.0,[4],1,0.2604293763658004,0.5476296960745056,0.5194709565936116
6,6256.234375,4250.0,[5],1,0.3750495117075715,0.21074343726747924,0.45187158270649697
6,8951.5,4096.0,[6],1,0.2578209029997487,0.4458304941688007,0.4715705288751668
6,21852.5625,8491.0,[7],1,0.22678158743178417,0.15616897272303693,0.12071747419906798
6,17224.921875,10696.0,[8],1,0.5288547249346951,0.16023370054902483,0.6621924550162711
6,15855.796875,8376.0,[9],1,0.5628485428256097,0.18574911542688866,0.27794992943200336
6,13345.421875,8137.0,[10],1,0.5349943195154988,0.5007421447672509,0.6973172201269353
