time,cumulative size,size,pcore_ids,pcore_power,SCA-1,CD11b,Ly6C
-1,0,0,[],0,0.0,0.0,0.0
0,20539.0,20539.0,[0 2],2,0.18435576932019454,0.1433702773599902,0.22415848343707195
0,7099.0,7099.0,[1],1,0.25056290567907247,0.6075787234069664,0.631582258048828
0,12288.0,12288.0,[9],1,0.1888318008251418,0.13429833321549736,0.07036778054240936
0,15385.0,15385.0,[3 5],2,0.19193019612712145,0.4629575437084667,0.5721516705957616
0,6293.0,6293.0,[6],1,0.40503484342331014,0.16237103209556272,0.22479355397891437
0,4729.0,4729.0,[7],1,0.22307849487147263,0.2574497014187041,0.7883678445228013
0,4693.0,4693.0,[8],1,0.21958929986568665,0.37495938400602336,0.3924951961339376
0,6254.0,6254.0,[10],1,0.43080365644638274,0.40488078579934966,0.638101904313532
0,4596.0,4596.0,[12],1,0.2936121786409285,0.515035945087013,0.8313004820692335
1,28542.5,18273.0,[0 2],2,0.18252651033891226,0.14468744909650932,0.22181149393716507
1,14378.5,10829.0,[1],1,0.23341888814174505,0.6226378562638333,0.6219704190547396
1,18130.0,11986.0,[9],1,0.1867323698383113,0.13434764758294113,0.06776442594132737
1,26651.5,18959.0,[3 5],2,0.18003306093824392,0.4756747113721827,0.5586631113037961
1,6270.5,3124.0,[6],1,0.4124602539625033,0.15952039302039542,0.213542076421409
1,7013.5,4649.0,[7],1,0.20644479386864875,0.2647037855564272,0.7849983241038618
1,7059.5,4713.0,[8],1,0.21169465641565335,0.38366475456358395,0.38629981144995496
1,9607.0,6480.0,[10],1,0.41955122844647724,0.3994598584082959,0.6197548627659434
1,4991.5,3069.0,[11],1,0.3140969986054915,0.1704822406235395,0.5088121967701417
1,8424.0,6126.0,[12],1,0.26410876628573204,0.49525186334669763,0.8198211917588274
2,35225.25,20954.0,[0 2],2,0.18113396855502284,0.15100168530768776,0.21475346327055816
2,16022.25,8833.0,[1],1,0.2504181947821508,0.6245114525057003,0.597567653778787
2,23996.0,14931.0,[9],1,0.18477835023065925,0.13937487413060615,0.06411478286470179
2,29465.75,16140.0,[3 5],2,0.19047928145866125,0.4899995097460144,0.5302834514731475
2,4550.0,2588.0,[4],1,0.39086041486602774,0.14660098950823003,0.717853471695342
2,7277.25,4142.0,[6],1,0.41635043951424205,0.17078381785173463,0.19984527856705656
2,5771.75,2265.0,[7],1,0.23442148239463562,0.2716839137106206,0.7692702620078601
2,10717.75,7188.0,[8],1,0.21001640930106946,0.40538375623555867,0.38101869705038843
2,10287.5,5484.0,[10],1,0.42071727169712697,0.4034230796720955,0.6112431567923322
2,5373.75,2878.0,[11],1,0.3169763023018115,0.17577743535011212,0.5065601312989848
2,8809.0,4597.0,[12],1,0.3034204356882175,0.4811685742522684,0.798856883815675
3,38011.625,20399.0,[0 2],2,0.1859025533916933,0.15149014903796745,0.21542165073064562
3,23665.125,15654.0,[1],1,0.25085337197645946,0.6293107224983895,0.6008390329011771
3,22206.0,10208.0,[9],1,0.18614347954344096,0.1389090577411107,0.06431455402310014
3,30360.875,15628.0,[3 5],2,0.18696166705903178,0.5013201304884023,0.5360286231337293
3,9403.625,5765.0,[6],1,0.46396252879410094,0.19093926123247576,0.20040185540683728
3,7768.875,4883.0,[7],1,0.24686825616263708,0.2514770805972396,0.7820013324112335
3,8397.875,3039.0,[8],1,0.20732826505902993,0.39662538189235635,0.3874992304866073
3,9567.75,4424.0,[10],1,0.45412956799218634,0.407080677677212,0.6146955637381274
3,6040.875,3354.0,[11],1,0.3527218715757302,0.16416801658610142,0.5185431947161371
3,8982.5,4578.0,[12],1,0.3162485888603593,0.47840350392228087,0.8094934037168254
4,18560.0,9691.0,[0],1,0.26439446314412923,0.15526400176387747,0.2402732057529673
4,32326.5625,20494.0,[1],1,0.27635439556709324,0.6272558635548318,0.5876302729541796
4,34119.8125,12880.0,[2 9],2,0.16416844080076576,0.14396814602043967,0.12365229468034596
4,30648.4375,15468.0,[3 5],2,0.2022978035039703,0.511554496454948,0.5302101375759515
4,5766.5,3595.0,[4],1,0.4678039300025198,0.14604523101719166,0.7274196181886884
4,11389.8125,6688.0,[6],1,0.4823703212010681,0.19325263554045688,0.19663610663482542
4,6500.4375,2616.0,[7],1,0.2872007966620203,0.24522100779241868,0.7782862310770896
4,8508.9375,4310.0,[8],1,0.2108282872099062,0.38776903397721696,0.39013208746659406
4,9693.875,4910.0,[10],1,0.478058172374853,0.43153385969157176,0.6143819101555957
4,6765.4375,3745.0,[11],1,0.3788580797786305,0.15950658889860006,0.517882007994462
4,10094.25,5603.0,[12],1,0.38059255700416333,0.48067346341052025,0.8138887036452014
5,23371.0,14091.0,[0],1,0.3385903566265479,0.1525886658732794,0.24692992465916458
5,36832.28125,20669.0,[1],1,0.31302620174044965,0.626074303741389,0.5835639370427008
5,27582.90625,10523.0,[2 9],2,0.18189454679895062,0.14159592743212365,0.11987908204369936
5,15021.625,7025.0,[3],1,0.30064888194425865,0.47185747918545345,0.5330911947895733
5,6668.25,3785.0,[4],1,0.5044175305415505,0.1558199603781892,0.690110322768274
5,12497.59375,5170.0,[5],1,0.1543624535363549,0.5634103116886233,0.5278054583413758
5,16113.90625,10419.0,[6],1,0.5304075107852851,0.17985450195509076,0.22610954027974614
5,5757.21875,2507.0,[7],1,0.3416116210724433,0.225975671748514,0.754287330207203
5,6466.46875,2212.0,[8],1,0.2335407107418827,0.38514959163140294,0.38260412958001505
5,8473.9375,3627.0,[10],1,0.5115900521816403,0.41689592353023763,0.6264670272322453
5,5362.71875,1980.0,[11],1,0.40855400401085856,0.15803156280448946,0.5443899935916919
5,13039.125,7992.0,[12],1,0.4501399283724403,0.46636494193228667,0.7895021465826976
6,21773.5,10088.0,[0],1,0.340284634992074,0.15270571921069911,0.24430055025793912
6,32559.140625,14143.0,[1],1,0.3301314513215773,0.6343772981329906,0.5684186823753085
6,9819.953125,3948.0,[2],1,0.14394586821114283,0.1491036900618541,0.19789133856675425
6,15356.8125,7846.0,[3],1,0.31238249494091674,0.49336448586341614,0.5146482510894946
6,10731.125,7397.0,[4],1,0.5674526860658554,0.14935489765282406,0.6729467159422557
6,10472.796875,4224.0,[5],1,0.1700647683552719,0.5692263797612561,0.5126664029894933
6,18905.953125,10849.0,[6],1,0.5419430803765363,0.18110961437220197,0.22053694233402912
6,5648.609375,2770.0,[7],1,0.3636086570352812,0.23355750263433742,0.7340924465149663
6,5934.234375,2701.0,[8],1,0.2482587421899313,0.40046613336787434,0.3681822153749462
6,13801.5,5882.0,[9],1,0.2365974801936955,0.13746703676956182,0.06585213646446099
6,9572.96875,5336.0,[10],1,0.5430566246873361,0.43304538911981433,0.607973906101531
6,8787.359375,6106.0,[11],1,0.4436260417724043,0.1606974140976021,0.5090963729199199
6,15229.5625,8710.0,[12],1,0.48310864966066525,0.5009915593152745,0.7755935363630415
