time,cumulative size,size,pcore_ids,pcore_power,SCA-1,CD11b,Ly6C
-1,0,0,[],0,0.0,0.0,0.0
0,28420.0,28420.0,[1 7 8],3,207.45566502463052,126.7775510204082,288.46491907107657
0,23437.0,23437.0,[ 2 11],2,153.31625208004746,268.19204676366604,380.63258949524226
0,7355.0,7355.0,[4],1,208.5048266485398,541.5471108089739,623.5374575118946
0,2940.0,2940.0,[0],1,251.97959183673356,355.93911564625824,334.681972789115
0,7160.0,7160.0,[ 3 10],2,407.05013966480186,175.8575418994418,450.23086592178777
0,5252.0,5252.0,[9],1,374.3768088347243,393.56359482102033,614.356245239908
0,6193.0,6193.0,[12],1,142.7571451638967,328.0145325367349,513.8462780558684
1,14064.0,9812.0,[0 5],2,218.41968856655305,389.2309442548351,657.9073876564248
1,72247.5,48846.0,[ 1  4  7  8 11],5,190.56001245717977,299.4572338143184,414.31052977611625
1,17340.5,11136.0,[2],1,122.18341454975815,126.37452783945137,221.19330469132882
1,10675.5,7579.0,[12],1,146.23816214697564,328.8661889372869,503.8129361622401
1,7373.0,3793.0,[ 3 10],2,398.0289570052862,169.3438220534384,420.2097517970979
1,8637.0,6011.0,[9],1,363.61971749449293,377.3750144726173,601.5174829223075
2,51423.25,29315.0,[ 0  5 11 12],4,191.26940634829717,411.81649351217624,533.2747346774074
2,60572.25,34187.0,[1 4 7 8],4,201.01879573567206,233.76062883581181,323.17033377495414
2,21033.25,12363.0,[2],1,116.5052357576747,130.78396110919604,216.1183958731991
2,9374.0,5469.0,[3 6],2,356.9240985705089,201.27813633454247,580.6464422871766
2,5327.0,3215.0,[10],1,388.2374694950213,138.88572367186066,201.0200394218137
2,9769.5,5451.0,[9],1,363.2869389426215,380.83985874404925,596.2097599672438
3,14028.5,6416.0,[0 5],2,252.23221477705994,387.89767259507414,645.250374238158
3,95168.875,52679.0,[ 1  4  7  8 11],5,197.08145782956998,322.2333575446804,406.16315996169936
3,21483.625,10967.0,[2],1,117.25301828718963,131.4792487301372,216.6107965950786
3,18362.5,11012.0,[ 3  6 10],3,408.73055139550434,173.42637168141596,427.50762423417365
3,9115.75,4231.0,[9],1,379.4013520555019,397.709733154155,600.9796917423143
3,10590.375,4695.0,[12],1,153.85927080014002,342.51065236122366,478.3618379896844
4,13896.25,6882.0,[0 5],2,297.5069398218912,390.150886030403,645.5318116398305
4,99697.4375,52113.0,[ 1  4  7  8 11],5,213.98251396882722,351.01763836708267,422.7939710085315
4,16607.8125,5866.0,[2],1,116.57814281682745,132.73027001599343,217.75327500234943
4,23121.25,13940.0,[ 3  6 10],3,424.59851327242046,167.00722819916754,431.4400118938206
4,10834.875,6277.0,[9],1,396.60318531592895,427.94478478062604,609.8130631410148
4,10217.1875,4922.0,[12],1,164.15316715094374,343.75234133659455,469.42533109037845
5,14792.125,7844.0,[0 5],2,331.08579100365466,398.91544487353923,656.0359460692773
5,94391.71875,44543.0,[ 1  4  7  8 11],5,231.24484271825952,360.42275722677954,424.1700149145743
5,38233.84375,21583.0,[ 2  3 10],3,371.7303027504298,145.39938438049373,330.73689622168763
5,23469.125,14838.0,[6 9],2,435.81594168934606,337.27663206446755,554.5943580129194
5,6300.59375,1192.0,[12],1,169.29703549764955,343.42383406325683,467.02428838551873
6,70419.28125,35396.0,[0 1 4 5 7],5,295.7999462593889,375.28270222511037,497.06317450343096
6,33893.640625,14325.0,[ 8 11],2,203.93854258242712,342.64885558822886,344.4381758561813
6,21545.984375,10643.0,[2 3],2,353.35855216641005,143.85915153853333,473.3851616781845
6,34584.65625,19544.0,[ 9 10],2,472.570702415902,302.39506003836505,414.3364353231065
6,13392.84375,8485.0,[6],1,443.86319536319456,168.00159833493214,442.6186244519575
6,4757.296875,1607.0,[12],1,180.2849274305612,348.31671741108147,459.7274909924555
