time,cumulative size,size,pcore_ids,pcore_power,SCA-1,CD11b,Ly6C
-1,0,0,[],0,0.0,0.0,0.0
0,11588.0,11588.0,[0 7],2,0.22801862057998845,0.42645233327658466,0.5638648344458937
0,28586.0,28586.0,[ 1 10 14 15 16],5,0.2445745422643443,0.3144355541569725,0.42584584757096783
0,20704.0,20704.0,[ 2 11],2,0.1598685267353251,0.13713069195101682,0.12451398952850772
0,3492.0,3492.0,[4],1,0.3418696989587738,0.4374831547739381,0.8368797786604842
0,5093.0,5093.0,[5],1,0.12328774678618426,0.4686534085911543,0.5715121895330376
0,7189.0,7189.0,[6 9],2,0.46052411533850557,0.1452783570172883,0.45102128003653236
0,4778.0,4778.0,[8],1,0.23545322428170284,0.20058919178966925,0.776148289161253
0,2212.0,2212.0,[3],1,0.4419951439543204,0.411958527325243,0.4569593067979077
1,10857.5,7540.0,[0],1,0.20163812618523602,0.39652209880569406,0.5028174257836003
1,30322.0,18850.0,[ 1  7 10 14],4,0.2496480287609617,0.2276716336659224,0.3673645815536838
1,40523.5,27625.0,[ 2  5 11],3,0.14879802716776144,0.22489563482716352,0.2320903433551695
1,10886.0,7428.0,[ 3 13],2,0.41599952108366467,0.3934683947915992,0.5890894170686516
1,6025.0,4279.0,[4],1,0.3009652664459861,0.42793216424776165,0.8286232198800457
1,6879.5,3285.0,[6 9],2,0.4566730172936821,0.14682639647796153,0.4192213689326822
1,16745.5,12326.0,[12 15],2,0.21474818490562297,0.5885000711341215,0.5381648920871538
1,6342.0,3953.0,[8],1,0.21732130012508177,0.21194166663099265,0.775014415860887
2,18235.25,11690.0,[ 0 12],2,0.21202851496569192,0.42286139836194425,0.4343691269042567
2,56879.75,31255.0,[ 1  7 10 14 15 16],6,0.24774667294115646,0.37655266481747157,0.44602886930875346
2,49905.75,29644.0,[ 2  5 11],3,0.14803917744499398,0.21903289397346684,0.2055894012775325
2,11853.0,6410.0,[ 3 13],2,0.41714134856106394,0.3948861152817332,0.5826339717966786
2,7351.5,4339.0,[4],1,0.32624672638083935,0.4257237110781402,0.8033542614441526
2,8016.75,4577.0,[6 9],2,0.44772780866464845,0.15617819844677627,0.40302476378278973
2,5256.0,2085.0,[8],1,0.24316928325894013,0.21732117614344637,0.7614397841643687
3,12521.375,5013.0,[0],1,0.20498517198512214,0.4158647762100576,0.4742719237409142
3,66753.875,38314.0,[ 1  7 10 14 15 16],6,0.24996286774497928,0.4033155781091603,0.458600434342461
3,49953.875,25001.0,[ 2  5 11],3,0.146231589652696,0.23237226782883755,0.2210573301755047
3,10942.5,5016.0,[ 3 13],2,0.44296355053098585,0.4101344879703331,0.5759597012730557
3,7754.75,4079.0,[4],1,0.3230843654722656,0.4217149458389157,0.8219012580190979
3,11913.375,7905.0,[6 9],2,0.4957200757386847,0.16477899450155029,0.39374415950816927
3,6730.0,4102.0,[8],1,0.2493419536871634,0.21232512707334608,0.7757675551084303
4,11949.6875,5689.0,[0],1,0.21036879519732934,0.41489629585014076,0.46675782738165567
4,71127.3125,40616.0,[ 1  7 10 14 15],5,0.26507135246180163,0.4112266713831049,0.4446514819202424
4,40805.9375,15829.0,[ 2  5 11],3,0.14916314554425417,0.24597913352084305,0.2296630694222906
4,4270.375,2188.0,[3],1,0.4935154729129015,0.3826046788201828,0.42565246450154287
4,8569.375,4692.0,[4],1,0.37638685907074804,0.41985510692441985,0.8281496299932464
4,15205.6875,9249.0,[6 9],2,0.5120271516529945,0.16204140746410015,0.3909616554488776
4,6527.625,3662.0,[16],1,0.32465738201235683,0.6327757114927763,0.7153034906598121
4,6031.0,2666.0,[8],1,0.2949447983173055,0.20333087916428816,0.772029208591541
4,7717.875,4329.0,[13],1,0.4514330878976876,0.46237483605044033,0.6660822970220649
5,7502.84375,1528.0,[0],1,0.21500887374211636,0.4185663972696916,0.46191557249093806
5,77369.15625,38790.0,[ 1  7  8 10 14 15],6,0.2877758157090091,0.39958059217745073,0.4623327528639549
5,57669.8125,29664.0,[ 2  5  6  9 11],5,0.33816953846355474,0.2087257618788092,0.292351009745395
5,5848.1875,3713.0,[3],1,0.5399965164948939,0.3567633823296082,0.4123228162628873
5,8938.6875,4654.0,[4],1,0.3976564832943084,0.4221876122272024,0.8191791990320858
5,7266.8125,4003.0,[16],1,0.3643118616544061,0.6428929836952854,0.6988476543939514
5,10578.9375,6720.0,[13],1,0.5096105907122639,0.504304875304095,0.6958791195741576
6,6290.421875,2539.0,[0],1,0.22741891256500857,0.43267025152832916,0.4531964325845099
6,65376.75,31794.0,[ 1  7 14 15],4,0.30095245318158426,0.4247764657572061,0.4152057462160615
6,68996.375,34872.0,[ 2  5  6  9 11 13],6,0.4167332117309803,0.26113880788182553,0.3903038375184323
6,7624.09375,4700.0,[3],1,0.5565907999104145,0.33783353052624226,0.40702112684008745
6,8027.34375,3558.0,[4],1,0.41113373684353666,0.421828985698716,0.792451601016589
6,19857.234375,11122.0,[ 8 10 16],3,0.38445571803648615,0.3651169408974281,0.642265479676755
