time,cumulative size,size,pcore_ids,pcore_power,SCA-1,CD11b,Ly6C
-1,0,0,[],0,0.0,0.0,0.0
0,10249.0,10249.0,[0 8],2,301.92633427651225,375.95648355937163,703.8568640842998
0,40157.0,40157.0,[1 3],2,194.89720347635796,139.2753940782433,212.35704858430557
0,27942.0,27942.0,[2 4 5],3,202.824207286523,418.2313005511429,565.7625438408126
0,5725.0,5725.0,[7],1,253.97344978165833,158.99825327510922,713.4918777292568
1,21421.5,14382.0,[0 4 8],3,259.1068552622343,376.26818850220474,674.3299955652005
1,59342.5,37535.0,[1 3 6],3,193.37838817037033,145.51706618359464,224.3834941230975
1,45464.0,33408.0,[2 5],2,191.32946947035188,440.90899392926434,555.7359889143029
1,6553.5,3691.0,[7],1,234.7728694590676,165.17410543984096,710.6429388876182
2,12799.25,5766.0,[0 4],2,255.37482664999797,396.45455788425113,696.0340644959656
2,73662.25,43991.0,[1 3 6],3,190.40963994448006,151.03523514418805,213.13752634490552
2,33389.25,16959.0,[2 4],2,208.11290310504197,481.59357427914455,558.4102143653971
2,6557.75,3281.0,[7],1,261.1610689642013,173.72684991041098,698.0630932865702
3,15818.875,7213.0,[0 8],2,304.2848416843769,376.8641259255155,698.6883469905416
3,75393.125,38562.0,[1 3 6],3,200.24750598944112,150.3741836540139,215.95178439678776
3,65060.5,36066.0,[2 4 5],3,205.30830150398586,461.4691460256216,539.4618028604054
3,8196.875,4918.0,[7],1,257.65922988943964,174.67408311094104,709.8760960732001
3,4280.25,3241.0,[9],1,473.47856433619626,143.95578529291484,584.9834997955732
4,16233.4375,8324.0,[0 8],2,348.85549887384747,389.2133905711588,702.9334860530921
4,69220.5625,31524.0,[1 3 6],3,223.38127669794866,152.01270305337388,221.044822302622
4,74939.25,42409.0,[2 4 5],3,225.25498153504378,474.7114054050451,534.7846997734694
4,8995.4375,4897.0,[7],1,298.10759621196604,167.8659667748237,707.9612095020389
4,4986.125,2846.0,[9],1,502.9355085361918,141.72175286419798,593.7586427335851
5,20245.71875,12129.0,[0 8],2,400.2402220839866,418.3990565906676,701.3916661392908
5,53535.59375,22455.0,[1 3],2,221.84549239728958,143.2698514247823,206.08074301034478
5,68923.625,31454.0,[2 4 5],3,242.699984040306,491.05804205380156,531.0157461429085
5,16021.6875,12492.0,[6],1,469.10218765969734,171.7994963857572,286.05754114539945
5,8944.71875,4447.0,[7],1,322.48706813726994,167.7941976934719,699.1333747916902
5,9516.0625,7023.0,[9],1,538.5349934650028,138.7701255114705,596.5668475012636
6,22524.859375,12402.0,[0 8],2,433.36210547928954,433.4503336938153,688.3057045999866
6,68351.640625,33573.0,[1 3 6],3,307.6357818770339,151.6204455132635,231.2104521540152
6,64156.8125,29695.0,[2 4 5],3,264.47156089230526,495.05682926306986,519.7150197903676
6,9169.359375,4697.0,[7],1,351.40776260609306,171.95290190324775,675.0303319990691
6,14391.03125,9633.0,[9],1,522.7554716153554,141.80725191254064,589.3146610410553
