time,cumulative size,size,pcore_ids,pcore_power,SCA-1,CD11b,Ly6C
-1,0,0,[],0,0.0,0.0,0.0
0,5955.0,5955.0,[0],1,243.41729638958853,405.85306465155304,792.5852225021002
0,33454.0,33454.0,[1 3 6],3,165.9991929216255,128.33212769773462,205.31060560770032
0,21226.0,21226.0,[2 4],2,184.18972015452943,452.9578347309929,581.6751154244783
0,5301.0,5301.0,[11],1,328.30843237124793,118.4055838521037,178.14676476136646
0,5123.0,5123.0,[5],1,201.57954323638495,368.0015615850086,417.3132929923866
0,4546.0,4546.0,[7],1,196.07831060272798,151.6575010998684,655.7008358996922
0,6382.0,6382.0,[8],1,374.2919147602558,364.69680350987096,621.967878408021
0,4629.0,4629.0,[9],1,374.47764095916676,134.68891769280611,705.0475264636
0,3381.0,3381.0,[10],1,408.0910973084855,183.20851818988447,394.8669032830532
1,10659.5,7682.0,[0],1,218.77095548571697,397.90698438013084,782.9493409634591
1,46228.0,29501.0,[1 3 6],3,161.51071861209897,127.78282642554323,198.52711560093383
1,39033.0,28420.0,[2 4],2,174.0587835933718,470.3413649988481,570.9154561524848
1,6682.5,4032.0,[11],1,323.0252899363975,117.91485222596361,174.13273475495728
1,8110.5,5549.0,[5],1,193.25257382405633,365.9029652919053,412.0992540533856
1,6340.0,4067.0,[7],1,188.11466876971826,155.74503154574154,660.4589905362776
1,9820.0,6629.0,[8],1,364.0328411405213,359.11206720977543,607.9179735234197
1,4110.5,1796.0,[9],1,367.74662449823313,136.70344240360052,699.7047804403369
1,4014.5,2324.0,[10],1,397.2280483248174,197.67044463818624,405.14273259434606
2,10356.75,5027.0,[0],1,254.551524368165,395.5773529340767,764.7533492649736
2,57633.0,34519.0,[1 3 6],3,158.69149185362818,132.31017385872718,189.16212499783
2,40872.5,21356.0,[2 4],2,184.62592819132826,482.10934613738016,549.8706832222122
2,8699.25,5358.0,[11],1,320.5631807339678,127.3490243411784,168.03494554128173
2,14033.25,9978.0,[5],1,192.71319900949698,384.13567776530687,410.3967719523253
2,10585.25,5360.0,[7 9],2,273.9581729293104,155.95215039795957,666.3974162159606
2,10703.0,5793.0,[8],1,362.778590114915,364.80120059796195,603.1122348874142
2,4616.25,2609.0,[10],1,394.57871649065356,206.47776875169208,401.82696994313613
3,10786.375,5608.0,[0],1,260.31277885295,386.56396379691927,777.0726147570418
3,58704.5,29888.0,[1 3 6],3,161.99898431977397,132.2791459768843,193.68146181297695
3,50276.25,29840.0,[2 4],2,188.42876358121524,499.0969518410789,556.3000770741595
3,10870.625,3854.0,[5],1,190.9853619272141,375.8386477318461,416.15521186684225
3,9263.625,4914.0,[11],1,345.46169830924293,133.0778717834541,168.9591277712566
3,6505.0,3633.0,[7],1,206.8360876249048,158.41274019984613,662.7362797847829
3,9511.5,4160.0,[8],1,377.0522656783826,383.8856778636377,609.1577695421339
3,6511.625,4091.0,[9],1,406.1517862284752,145.3524081930393,688.8305338529166
3,6320.125,4012.0,[10],1,437.1068610193611,220.83052154822855,372.46745515318185
4,10562.1875,5169.0,[0],1,313.4641971655925,388.6854818189871,782.4960797656715
4,50928.25,21576.0,[1 3 6],3,172.66803174073564,133.51473028230902,199.6922471810821
4,58114.125,32976.0,[2 4],2,210.2397448554882,512.0026080148325,550.6271646523
4,11240.3125,5805.0,[5],1,198.3674497483969,369.16104423253347,420.28694709333
4,10577.8125,5946.0,[11],1,362.9462908800819,134.98951224556083,165.63244999852265
4,5602.5,2350.0,[7],1,229.67646140115983,152.4964636323069,645.6429718875514
4,10932.75,6177.0,[8],1,394.47333127529,419.3121870069277,616.6667181175833
4,8725.8125,5470.0,[9],1,426.8858702269827,145.05161410470353,694.270139600181
4,7691.0625,4531.0,[10],1,452.44216907611764,219.807373818637,362.73511462167966
5,11243.09375,5962.0,[0],1,343.9497969586826,392.2186870273134,776.7467167344402
5,43334.125,17870.0,[1 3 6],3,189.4546005890293,131.086038572372,204.14078612986808
5,55301.0625,26244.0,[2 4],2,228.64411341554123,523.5397200777106,542.0987153275644
5,8300.15625,2680.0,[5],1,211.9587884264238,379.3007812352919,412.47323657310744
5,5372.25,2571.0,[7],1,258.566557308388,151.31494601889355,638.8899204244036
5,14003.375,8537.0,[8],1,439.6938706740317,456.95803020700316,638.8276062913384
5,11769.90625,7407.0,[9],1,483.1216927704942,139.28527202584985,671.4215358554793
5,13083.53125,9238.0,[10],1,493.22712474891154,199.13034755047457,356.93064276893637
5,14779.90625,9491.0,[11],1,410.4528678082749,129.42469611402277,163.32860704038643
6,27416.234375,14793.0,[0 8],2,427.4055227314541,441.75129585059904,689.393374933534
6,39156.0625,17489.0,[1 3 6],3,209.10791711692164,131.96218058506238,209.38949548042532
6,49349.53125,21699.0,[2 4],2,248.85160794966927,529.7887077828152,531.2912160386443
6,9404.078125,5254.0,[5],1,240.20361179740613,400.9959110159969,410.60432558348305
6,6406.125,3720.0,[7],1,299.55021073581486,155.28511531932347,618.1896524810252
6,14981.953125,9097.0,[9],1,504.94821686508436,140.0417074709673,648.0998962293188
6,15807.765625,9266.0,[10],1,492.49359047224704,197.68467831771784,364.6224739225262
6,16071.953125,8682.0,[11],1,422.2931339046526,130.27062866698117,168.47166793861572
