time,cumulative size,size,pcore_ids,pcore_power,SCA-1,CD11b,Ly6C
-1,0,0,[],0,0.0,0.0,0.0
0,24612.0,24612.0,[1 3 7 9],4,0.278466565135851,0.2472025105657914,0.46269790896359647
0,32512.0,32512.0,[ 2 10 11 13],4,0.165660354275417,0.22012314422854254,0.2380409070133985
0,7850.0,7850.0,[4],1,0.17040478064839576,0.401351557771566,0.5420365142638259
0,5397.0,5397.0,[12],1,0.4219522706122571,0.38784220662224755,0.6396822783258685
1,19730.0,13162.0,[ 0  3 15],3,0.28720630192998614,0.48608906894661685,0.5932288003865083
1,29951.5,19006.0,[ 1  7  9 14],4,0.27065099813987553,0.2756774659001884,0.48044767771743196
1,51510.0,35254.0,[ 2 10 11 13],4,0.1618852126455253,0.2556726783271878,0.2621912777547903
1,19319.5,13836.0,[4 6],2,0.16672085111654733,0.4091260570785236,0.6171211265075952
1,8688.5,5990.0,[12],1,0.41361595755204467,0.38642532634675647,0.622229573356376
2,21317.0,14050.0,[0 3],2,0.2630480341427139,0.5009385234566256,0.48425741743600076
2,33413.75,18438.0,[ 1  7  9 14],4,0.28062908906420436,0.27017589860840807,0.44847049533090527
2,54617.5,32030.0,[ 2 10 13],3,0.15769456943411272,0.25012106511201865,0.22316330222442884
2,17645.75,7986.0,[4 6],2,0.17115237825832041,0.4146263283757663,0.5660861226197956
2,2277.75,1159.0,[5],1,0.47773909547540094,0.13755896978988666,0.6727454930394483
2,7102.5,3935.0,[11],1,0.19311237141535345,0.21146344493446906,0.30443607719920396
2,9216.25,4872.0,[12],1,0.41524779906033543,0.39193458706187917,0.6108624829594046
2,7459.0,4861.0,[15],1,0.3506138802231184,0.45612663707907763,0.7943029168213094
3,4895.25,1380.0,[0],1,0.2734430131479204,0.45201450015840855,0.3552090858041667
3,57070.125,33220.0,[ 1  3  7  9 14],5,0.2756092820854204,0.3729617674556346,0.49411569419326196
3,56139.75,28831.0,[ 2 10 13],3,0.1559053147414927,0.2723140749534255,0.2485299025734087
3,16383.875,7561.0,[4 6],2,0.17172673117640744,0.4132301131668798,0.5740219700032013
3,11000.25,7638.0,[5 8],2,0.5141415197662759,0.17645227057262425,0.36645121549930465
3,7571.25,4020.0,[11],1,0.19913879938338858,0.20731620495190145,0.30164462108852297
3,7805.125,3197.0,[12],1,0.43341937710546274,0.4084749215929521,0.6075716055020534
3,7882.5,4153.0,[15],1,0.361518065548412,0.45589661429967415,0.8065053115179275
4,4827.625,2380.0,[0],1,0.2864940742199684,0.4484067878106779,0.3557167739789138
4,64240.5,38127.0,[ 1  3  7 14],4,0.28826503245484747,0.4252812056370033,0.5045460247959132
4,46938.875,18869.0,[ 2 10 13],3,0.16056892541845882,0.290083233608993,0.26060055423570305
4,11106.75,4836.0,[4],1,0.17650543638940416,0.41647667198628735,0.49229414555235046
4,13982.125,8482.0,[5 8],2,0.5304185580847467,0.1760914630537686,0.3607662756574356
4,5765.5625,3344.0,[9],1,0.36141811348156977,0.18455434335233414,0.45015461324886574
4,7381.625,3596.0,[11],1,0.20709085934421737,0.21382527146218092,0.30085136989734457
4,18052.8125,10209.0,[12 15],2,0.42789924847916433,0.4502970835083607,0.7222899775046769
5,4312.8125,1899.0,[0],1,0.3020702131175954,0.46645973912966454,0.34949314540810683
5,66094.25,33974.0,[ 1  3  7 14],4,0.30557175427429273,0.43462275638123027,0.4952092350396235
5,62905.5,32445.0,[ 2  5  8 10 13],5,0.3326486246000043,0.24646753514779748,0.30010752376664757
5,6685.375,1132.0,[4],1,0.17965255472336716,0.4188584144765232,0.4901432680542446
5,7701.78125,4819.0,[9],1,0.40305100969592383,0.17942070039220342,0.43424963798534116
5,13265.625,8237.0,[15],1,0.4592088061301423,0.489959161430268,0.8084918507558988
5,5893.8125,2203.0,[11],1,0.21632948832623092,0.2120342504873079,0.29947219901850175
5,8736.78125,4739.0,[12],1,0.4867732002676711,0.4623922359954348,0.6018921298643706
6,63227.265625,31944.0,[ 0  1  3 14],4,0.31627810580147764,0.4668267788627851,0.4391295501528775
6,48429.09375,23556.0,[ 2  5  8 13],4,0.41968276205151794,0.24698715666173152,0.3723688143225266
6,4930.6875,1588.0,[4],1,0.1878375817637193,0.42829738634742626,0.4832962208662128
6,8086.265625,4166.0,[7],1,0.37786685701229916,0.18760330804684364,0.7181756057894136
6,10084.390625,5716.0,[12],1,0.50741918154916,0.47027917597352514,0.592696674975802
6,10952.890625,7102.0,[9],1,0.43779718474797397,0.18154742468556806,0.4282407337317715
6,11017.65625,4438.0,[10],1,0.2225657186171925,0.13881855840837465,0.05527440690223899
6,5405.90625,2459.0,[11],1,0.23036838868952117,0.21604199116157527,0.29516710004643687
6,15101.8125,8469.0,[15],1,0.4942161341597984,0.5101840046038174,0.7861100256950294
