time,cumulative size,size,pcore_ids,pcore_power,SCA-1,CD11b,Ly6C
-1,0,0,[],0,0.0,0.0,0.0
0,9637.0,9637.0,[0],1,304.6372315035751,386.76372315035684,737.4996368164385
0,33081.0,33081.0,[1 3],2,164.94256521870776,125.99873038904539,191.32798283002273
0,22429.0,22429.0,[2 4],2,179.68919702171502,451.0976860314794,583.2615364037623
0,5525.0,5525.0,[5],1,290.9196380090465,381.9695927601803,436.94986425339243
0,7406.0,7406.0,[6],1,360.3800972184684,142.72171212530404,278.28854982446626
0,4005.0,4005.0,[7],1,183.45842696629293,180.33732833957583,530.3727840199746
0,7907.0,7907.0,[8],1,334.26027570506875,150.85228278740394,688.562918932591
1,15291.5,10473.0,[0],1,271.1370042180265,381.90864205604487,741.1745087139898
1,46426.5,29886.0,[1 3],2,161.26917816333656,127.38621261564009,186.62558021819345
1,41760.5,30546.0,[2 4],2,170.3191891859557,466.65636187306353,568.594401408029
1,9088.5,6326.0,[5],1,310.50651922759164,370.05853551190944,459.15706662265336
1,8310.0,4607.0,[6],1,354.36468110709575,140.5376052948259,269.7403730445237
1,5810.5,3808.0,[7],1,177.13028138714571,181.28482918853769,536.3954048704895
1,8307.5,4354.0,[8],1,318.87186277459733,157.10953957267526,685.824556123986
2,15410.75,7765.0,[0],1,291.2679622990404,384.25553590837524,728.4125691481574
2,58047.25,34834.0,[1 3],2,158.00853184259765,132.2949149184499,178.21208153702239
2,47002.25,26122.0,[2 4],2,178.5843709609672,471.6467722289906,535.3117829465607
2,12601.25,8057.0,[5],1,309.4476540025766,376.00884832853905,462.18101378831506
2,10641.0,6486.0,[6],1,347.04625975001767,150.3192134197917,257.3369279203081
2,5161.25,2256.0,[7],1,191.05618793896988,177.54279486558454,530.7301041414357
2,8633.75,4480.0,[8],1,323.3911104676379,163.34220356160367,677.3899811785147
3,15778.375,8073.0,[0],1,295.11821559570814,384.8489467388106,740.9214827255666
3,58103.625,29080.0,[1 3],2,159.45260515157608,131.56996658986466,182.95365607567416
3,55393.125,31892.0,[2 4],2,184.26331110584792,489.10989856593443,545.1457762132
3,10319.625,4019.0,[5],1,332.0412926826287,378.4498709982199,464.2134040723394
3,13346.5,8026.0,[6],1,376.7523039748216,158.9931723672868,251.16196193758634
3,4980.625,2400.0,[7],1,194.5529677500329,172.61796963232482,540.1059856945658
3,10826.875,6510.0,[8],1,356.0120533394896,154.46062460312845,683.736431334065
4,16392.1875,8503.0,[0],1,343.6293013058746,401.0239328948623,742.7698408159392
4,49597.8125,20546.0,[1 3],2,167.63021932671236,133.15778795687848,186.26376541303972
4,63663.5625,35967.0,[2 4],2,206.04749086261057,500.880639141109,541.0175885538832
4,11031.8125,5872.0,[5],1,344.51018928213006,388.67714394167,469.11204527814624
4,16490.25,9817.0,[6],1,390.78481602765055,157.99694895468528,246.5596071921285
4,4852.3125,2362.0,[7],1,218.410641833146,168.01178561768202,526.8897432925007
4,12346.4375,6933.0,[8],1,390.8955113570178,150.4419341611703,685.4086806416836
5,19651.09375,11455.0,[0],1,392.224527896819,423.18421843568007,741.16018351396
5,41348.90625,16550.0,[1 3],2,182.04600257715614,130.78431790441888,187.18711952024026
5,59191.78125,27360.0,[2 4],2,225.31392660615333,515.7410081741722,535.9969384474173
5,10948.90625,5433.0,[5],1,376.95800950437064,406.11359582150067,467.3157250296119
5,25098.125,16853.0,[6],1,439.31579176731594,149.4717471424651,241.73016037054373
5,4975.15625,2549.0,[7],1,252.9629785496665,158.54694890235885,518.4049935617595
5,15973.21875,9800.0,[8],1,453.8214628782955,145.3676309760691,660.6038447166487
6,21838.546875,12013.0,[0],1,425.36518283682545,437.8741145065323,723.9526153225318
6,36582.453125,15908.0,[1 3],2,199.17807376060287,132.0410152237432,190.45035892805535
6,53013.890625,23418.0,[2 4],2,243.25721383752852,521.7066723963009,523.6587512883465
6,12863.453125,7389.0,[5],1,394.41593978094073,417.4472275499535,466.5255101359094
6,28034.0625,15485.0,[6],1,445.94572506660177,149.76492603863602,244.72282212486874
6,6658.578125,4171.0,[7],1,303.12480141921657,154.84611016334662,510.4320859605443
6,19602.609375,11616.0,[8],1,481.3763601306275,145.67415132073498,638.8122427897437
