time,cumulative size,size,pcore_ids,pcore_power,SCA-1,CD11b,Ly6C
-1,0,0,[],0,0.0,0.0,0.0
0,5280.0,5280.0,[0],1,0.380186414708882,0.40877146750308563,0.6509454933522285
0,41578.0,41578.0,[ 1  3 10 11],4,0.2113967466589142,0.1497449921849989,0.23099787974645186
0,17264.0,17264.0,[6 7],2,0.2120698003769638,0.5296718329985458,0.6045486339739619
0,7103.0,7103.0,[14],1,0.20055127838055598,0.38930271639731684,0.5116505557581451
0,3318.0,3318.0,[8],1,0.2660252893647861,0.19768218874696852,0.4256518738983305
0,3358.0,3358.0,[9],1,0.33327723163198775,0.3353789424323365,0.8005481043839089
0,2803.0,2803.0,[12],1,0.4904544488850204,0.1490060746162401,0.6801454375561669
0,2811.0,2811.0,[13],1,0.34116332705782426,0.5567747746007534,0.8205395760688784
1,8089.0,5449.0,[0],1,0.377969805020267,0.39943573167068336,0.6395882967906288
1,56159.0,35370.0,[ 1  3 10 11],4,0.20290277344562238,0.14971758434097054,0.21713087851780558
1,3160.0,2168.0,[2],1,0.41511964869861484,0.41520795148633965,0.4534174043584892
1,4170.0,3210.0,[4],1,0.13553997251636998,0.41331789771802463,0.8088789102348418
1,33037.0,24405.0,[6 7],2,0.20062170674827565,0.547191517888141,0.5899176923383394
1,11728.5,8177.0,[14],1,0.19473715471724046,0.3942751124277294,0.5042757951739003
1,4291.0,2632.0,[8],1,0.2589650666799338,0.1961273780437003,0.4256930001624593
1,4672.0,2993.0,[9],1,0.3090971073187601,0.34288572433056463,0.8014723548524899
1,4642.5,3237.0,[13],1,0.3131421345289282,0.5445255447773739,0.8012173285215883
2,8199.5,4155.0,[0],1,0.37921248966262666,0.4024094491469645,0.6285989177731115
2,69031.5,40952.0,[ 1  3 10 11],4,0.20014921538425115,0.15502389836261765,0.19703070579427906
2,3585.0,2005.0,[2],1,0.4134597182392247,0.41031738894463443,0.44098329466069097
2,3176.75,1881.0,[5],1,0.4706898701326211,0.17136402175449666,0.2457364835649047
2,36523.5,20005.0,[6 7],2,0.21534511488140173,0.5542765359586554,0.5598437126074006
2,15874.25,10010.0,[14],1,0.20039370169306753,0.4167913444729688,0.46983044952441866
2,4346.5,2201.0,[8],1,0.2684532434077778,0.20316068007076876,0.4176150869667815
2,6470.0,4134.0,[9],1,0.3286456506260491,0.3460348230958054,0.7764850965394539
2,5656.25,3335.0,[13],1,0.3324051399838556,0.5275484612884669,0.7755875426054201
3,6911.75,2812.0,[0],1,0.3934831704518729,0.4161741874409865,0.6322531802666814
3,69733.75,35218.0,[ 1  3 10 11],4,0.20273772855542474,0.15529916350384793,0.21018810690343168
3,3413.5,1621.0,[2],1,0.4552178396090831,0.41056824049041324,0.4268004954127191
3,5525.375,3937.0,[5],1,0.5007748978347321,0.18019236220223345,0.21385721081221445
3,46814.75,28553.0,[6 7],2,0.21864930090517776,0.5693762938349548,0.5706722449645755
3,12956.125,5019.0,[14],1,0.19730274854817748,0.4160345988455911,0.4741199853428551
3,4577.25,2404.0,[8],1,0.28183554351914875,0.20086473062107013,0.40882923449358266
3,6614.0,3379.0,[9],1,0.33017656197442724,0.33869343121747647,0.796479072198207
3,4222.625,3021.0,[12],1,0.5335358716704329,0.15150819739763702,0.6479723416960134
3,5570.125,2742.0,[13],1,0.3563604139156249,0.5290288689630885,0.7817753787018705
4,6995.875,3540.0,[0],1,0.40965962486320046,0.4383990076731538,0.6285506675644804
4,61094.875,26228.0,[ 1  3 10 11],4,0.21829420032404664,0.15506807068181072,0.22125892215241744
4,3493.75,1787.0,[2],1,0.4839072380454632,0.41049767684698635,0.415732416700201
4,12733.0,7859.0,[ 5 12],2,0.5305526999206698,0.16445186275338983,0.3815413159727183
4,56541.375,33134.0,[6 7],2,0.2438399204480331,0.5788027532214679,0.5615402674428512
4,12246.0625,5768.0,[14],1,0.2056730055344013,0.4151611249501948,0.46579466767151767
4,5558.625,3270.0,[8],1,0.30691470209899674,0.20102312872590375,0.4014046896661971
4,7192.0,3885.0,[9],1,0.37103344579182296,0.3309741015186556,0.8047698924937633
4,7259.0625,4474.0,[13],1,0.41599168222983074,0.540924182188397,0.7844629931808025
5,7204.9375,3707.0,[0],1,0.4312691310412359,0.45402361726472906,0.6292774771214
5,39204.28125,17533.0,[ 1 10 11],3,0.2662574660584971,0.14901970540756962,0.2311957197217105
5,4568.875,2822.0,[2],1,0.5359971783307839,0.4021257612403224,0.40395016750247864
5,13161.15625,4285.0,[3],1,0.1571890948991749,0.1596811276094984,0.21446191027069422
5,14793.34375,11043.0,[5],1,0.5451950648830164,0.16121116386966436,0.18707448017958903
5,55904.6875,27634.0,[6 7],2,0.26491685694734635,0.5893522496512318,0.5521206564351175
5,7715.03125,1592.0,[14],1,0.2117034094896042,0.41934774628353766,0.4575148325565423
5,6380.3125,3601.0,[8],1,0.34618387519102606,0.18804597224786349,0.39817064211196446
5,7516.0,3920.0,[9],1,0.3943055236842971,0.33683355692621936,0.7978562400212902
5,9640.15625,7024.0,[12],1,0.6060614532821124,0.14943190473190446,0.6309201809706343
5,10266.53125,6637.0,[13],1,0.48391931675280475,0.5581579924575079,0.7837347597379831
6,8619.46875,5017.0,[0],1,0.44386815889541203,0.4608954312017562,0.6257858189405467
6,37888.140625,18286.0,[ 1 10 11],3,0.2916931094599404,0.15026651950408912,0.24367595322478486
6,5736.4375,3452.0,[2],1,0.5654815914724134,0.3872188504283878,0.4018772023932602
6,10304.578125,3724.0,[3],1,0.1621023415723369,0.16083579746742627,0.21382320934347082
6,16292.671875,8896.0,[5],1,0.5426883051344221,0.15824686931681586,0.18673173184535774
6,51055.34375,23103.0,[6 7],2,0.2866675434324169,0.5955281038863363,0.5385835781569325
6,7152.515625,3295.0,[14],1,0.23554638651655002,0.4361883660347507,0.4386804895985229
6,8461.15625,5271.0,[8],1,0.3906044073766817,0.18226894089149806,0.3995145019170164
6,6989.0,3231.0,[9],1,0.4169454312032795,0.3434321043807373,0.7754096697769771
6,13198.078125,8378.0,[12],1,0.6059536965749076,0.15167998673320784,0.6283872777684354
6,12424.265625,7291.0,[13],1,0.5216614604747716,0.5641933417600661,0.76464406506888
