time,cumulative size,size,pcore_ids,pcore_power,SCA-1,CD11b,Ly6C
-1,0,0,[],0,0.0,0.0,0.0
0,22831.0,22831.0,[0 4 7],3,0.20787707822845078,0.4909376411487845,0.5900670941386986
0,12769.0,12769.0,[1 9],2,0.3130781096422934,0.17920043912912706,0.4508256267222907
0,3728.0,3728.0,[2],1,0.2656640304769243,0.44026675955955036,0.4699018204498322
0,31956.0,31956.0,[ 3 11],2,0.18393662071865965,0.1498776739963158,0.16597898669690778
0,2901.0,2901.0,[5],1,0.47993640317751485,0.13184757635454156,0.6933858150441956
0,4429.0,4429.0,[6],1,0.2823236026089537,0.5288169091211885,0.8221448430847299
0,3083.0,3083.0,[10],1,0.2560460225885334,0.15844148982230669,0.5688143978004242
0,5647.0,5647.0,[12],1,0.40956797185737925,0.4028557589141549,0.6856067612619646
1,41756.5,30341.0,[0 4 7],3,0.19698453729265564,0.5108648649439419,0.5805362658153544
1,8559.5,4605.0,[1],1,0.34641134005123053,0.15257114227556481,0.233319534124485
1,5852.0,3988.0,[2],1,0.2582885328745759,0.44867555045573576,0.4558577997433344
1,52138.0,33730.0,[ 3  9 11],3,0.18867101180488893,0.1609552785342208,0.24083431874003
1,8309.5,6095.0,[6],1,0.25742837999825585,0.5082473203679263,0.8088699158434955
1,3406.5,2082.0,[8],1,0.4428102586430045,0.27973603830313715,0.41924435696593354
1,4130.5,2589.0,[10],1,0.24446954622301367,0.1574894518812434,0.5657455039363033
1,8359.5,5536.0,[12],1,0.39545474401390013,0.39754476374049735,0.6653096359835461
2,55540.25,31736.0,[0 2 4 7],4,0.21617410371838566,0.5098596914581198,0.5317103241675799
2,16317.75,8783.0,[1 9],2,0.32061705053726375,0.18888926093098377,0.41011569410508814
2,57141.0,34327.0,[ 3 11],2,0.17776358068716305,0.15487633155769867,0.15329153542701598
2,2753.25,1511.0,[5],1,0.45030163535025103,0.13878754150278197,0.6792068171306771
2,7456.75,3302.0,[6],1,0.28993578324140934,0.5047305601062644,0.792845386121584
2,3901.25,2198.0,[8],1,0.43825704092248713,0.28485445986246993,0.4132973769899856
2,4155.25,2090.0,[10],1,0.2566996942408713,0.16101788583977972,0.5654881010941003
2,10232.75,6053.0,[12],1,0.3891915388435219,0.3995901224784981,0.6712774102584194
3,62349.125,34579.0,[0 2 4 7],4,0.21793657754989193,0.5333924555415256,0.5495771491712824
3,12331.375,6966.0,[1],1,0.3745635590406667,0.16228145052321447,0.2104055535453901
3,64722.0,33358.0,[ 3  9 11],3,0.18965065019657484,0.1647408941737732,0.23247950554535368
3,4421.625,3045.0,[5],1,0.5194452253146806,0.14391133892672922,0.6747606812211991
3,7309.375,3581.0,[6],1,0.30550430175192317,0.4960096456117877,0.8059924529451656
3,5061.625,3111.0,[8],1,0.48697574861738835,0.2916062918198365,0.3786546845760756
3,4059.625,1982.0,[10],1,0.2631158161021809,0.15859013068350314,0.569927472400717
3,8494.375,3378.0,[12],1,0.4103224787718824,0.4175313481006682,0.6708151060925794
4,61190.0625,36016.0,[0 2 4],3,0.255175914004083,0.5656587919415718,0.5517095158222928
4,22410.4375,12513.0,[1 9],2,0.36892105131465036,0.18508383301065434,0.39667600274472925
4,10196.5,4196.0,[7],1,0.15539437965330033,0.4382257836011086,0.5036901623084089
4,47830.25,19201.0,[ 3 11],2,0.18543099135290922,0.1562884317444181,0.16270353784202513
4,5690.8125,3480.0,[5],1,0.5420180270362364,0.1421097269538156,0.6788695744080323
4,16763.875,8862.0,[ 6 12],2,0.4077421319368205,0.4730412752237948,0.7380629413799235
4,5982.8125,3452.0,[8],1,0.5087948330452674,0.28208288968800904,0.363443489813119
4,4309.8125,2280.0,[10],1,0.28646947055264377,0.15548567646294326,0.5651713231572947
5,51615.15625,26110.0,[0 4],2,0.2757214962602169,0.5949325107828657,0.5590447968863306
5,27323.21875,16118.0,[1 9],2,0.4135683541877895,0.17285618720006585,0.34104092570358524
5,14286.125,4098.0,[2 7],2,0.21056379741442227,0.46009611400708406,0.46997036154252786
5,38804.125,14889.0,[ 3 11],2,0.1974478706563467,0.15354306310993768,0.16389705170557015
5,9397.40625,6552.0,[5],1,0.5936838633568452,0.14383736369323152,0.6614255107723875
5,20442.9375,12061.0,[ 6 12],2,0.46036252492764845,0.4988080025258478,0.7393415905508552
5,10715.40625,7724.0,[8],1,0.5622791130472596,0.24688042665130705,0.340860194317892
5,4602.90625,2448.0,[10],1,0.31972282259078466,0.151013049896268,0.5497759514742034
6,47466.578125,21659.0,[0 4],2,0.3008758676071536,0.5999814161333876,0.5464043138358979
6,28996.609375,15335.0,[1 9],2,0.43029689148988143,0.17168536558715614,0.3153911019953844
6,13766.0625,6623.0,[2 7],2,0.23444454289940103,0.47340656730145975,0.4562478127772845
6,33385.0625,13983.0,[ 3 11],2,0.21269801056698895,0.15424099006331923,0.16774071883076014
6,12742.703125,8044.0,[5],1,0.5991236130580795,0.14842391778281963,0.6516780995320344
6,22906.46875,12685.0,[ 6 12],2,0.495383995673781,0.5102460424177108,0.7261259340483447
6,13007.703125,7650.0,[8],1,0.5647680149876645,0.24140207057194674,0.3450231997911053
6,6322.453125,4021.0,[10],1,0.366451970142853,0.1496520757328807,0.5365275042389579
