time,cumulative size,size,pcore_ids,pcore_power,SCA-1,CD11b,Ly6C
-1,0,0,[],0,0.0,0.0,0.0
0,34244.0,34244.0,[0 2],2,0.23729839000746758,0.4889083188467533,0.6095514204494458
0,55755.0,55755.0,[1 3 4],3,0.25889560970498005,0.16836292100499467,0.3186236954988603
1,59731.0,42609.0,[0 2],2,0.22028364433126357,0.5031063665448519,0.6018043254727128
1,75268.5,47391.0,[1 3 4],3,0.24603721672666645,0.17385420826923628,0.30905298156578614
2,119047.75,68464.0,[0 2 3],3,0.20551538910161415,0.34948059645369495,0.37594692532252366
2,38452.0,21536.0,[1 4],2,0.3404437912961941,0.22522603988141948,0.4899856272373382
3,124394.875,64871.0,[0 2 3],3,0.20811176004159998,0.3699806816836499,0.39338585419409167
3,44355.0,25129.0,[1 4],2,0.36393055455283296,0.22150668187204134,0.4909301918189425
4,150873.0625,77537.0,[0 1 2 3],4,0.2593408689082304,0.37127085229938617,0.39436090152412767
4,23501.875,12463.0,[4],1,0.4002529262696242,0.24619418783737607,0.7197247862100783
5,78698.6875,38043.0,[0 2],2,0.294769851866469,0.5675327801665094,0.5748622917094816
5,62112.25,37454.0,[1 4],2,0.457257600874929,0.20905635724669272,0.4553902449773898
5,36376.53125,14503.0,[3],1,0.19488056224051428,0.14300296088902617,0.14389322531388798
6,34464.796875,16732.0,[0],1,0.24505511987803788,0.5390853659703694,0.4892097153097635
6,111967.671875,59295.0,[1 2 4],3,0.45042261121534216,0.35329692876294166,0.5191639021427088
6,32161.265625,13973.0,[3],1,0.2131029911261436,0.1446425189088074,0.1489117193837484
