time,cumulative size,size,pcore_ids,pcore_power,SCA-1,CD11b,Ly6C
-1,0,0,[],0,0.0,0.0,0.0
0,4904.0,4904.0,[0],1,NA,NA,NA
0,39901.0,39901.0,[1 3],2,NA,140.13363073607212,NA
0,17890.0,17890.0,[2 4],2,NA,NA,NA
0,10831.0,10831.0,[6],1,NA,NA,NA
0,4921.0,4921.0,[5],1,NA,NA,NA
0,3405.0,3405.0,[7],1,NA,NA,NA
0,3150.0,3150.0,[8],1,NA,NA,NA
0,4991.0,4991.0,[9],1,NA,NA,NA
1,8997.0,6545.0,[0],1,236.78303879070913,NA,NA
1,55014.5,35064.0,[1 3],2,185.443846622258,141.00220850866498,NA
1,34295.0,25350.0,[2 4],2,195.51516256014187,NA,NA
1,24200.0,16289.0,[6 9],2,NA,NA,NA
1,6060.5,3600.0,[5],1,218.29015757775838,NA,NA
1,3602.5,1900.0,[7],1,NA,NA,NA
1,2827.0,1252.0,[8],1,NA,NA,NA
2,16956.25,8961.0,[0 9],2,NA,NA,NA
2,68958.25,41451.0,[1 3],2,NA,146.80687227416485,NA
2,58819.75,33069.0,[2 4 6],3,205.35448127542284,NA,NA
2,5622.25,2592.0,[5],1,247.3144648494807,NA,NA
2,4034.25,2233.0,[7],1,NA,NA,NA
2,3107.5,1694.0,[8],1,NA,NA,NA
3,9556.25,4661.0,[0],1,NA,NA,NA
3,68286.125,33807.0,[1 3],2,NA,145.46866585268975,NA
3,65784.875,36375.0,[2 4 6],3,NA,NA,NA
3,5928.875,2346.0,[9],1,NA,NA,NA
3,7423.125,4612.0,[5],1,NA,NA,NA
3,6872.125,4855.0,[7],1,NA,NA,NA
3,4897.75,3344.0,[8],1,NA,136.8917360012248,NA
4,9889.125,5111.0,[0],1,NA,NA,NA
4,59085.0625,24942.0,[1 3],2,NA,146.91971849907114,NA
4,58456.375,35157.0,[2 4],2,NA,NA,NA
4,16821.0625,7228.0,[6],1,NA,NA,478.44052657196727
4,7866.5625,4155.0,[5],1,NA,NA,NA
4,9906.0625,6470.0,[7],1,NA,NA,NA
4,6114.875,3666.0,[8],1,NA,NA,NA
4,6235.4375,3271.0,[9],1,NA,NA,NA
5,20353.28125,12291.0,[0 9],2,NA,NA,NA
5,50120.53125,20578.0,[1 3],2,NA,145.4390883975316,NA
5,58249.1875,29021.0,[2 4],2,NA,NA,NA
5,10608.53125,2198.0,[6],1,NA,NA,474.16092590574067
5,8001.28125,4068.0,[5],1,NA,NA,NA
5,19108.03125,14155.0,[7],1,NA,NA,NA
5,10746.4375,7689.0,[8],1,NA,NA,NA
6,23367.640625,13191.0,[0 9],2,NA,NA,NA
6,17744.15625,8947.0,[1],1,NA,NA,NA
6,54511.59375,25387.0,[2 4],2,NA,NA,NA
6,27649.109375,11386.0,[3],1,NA,139.15655793614513,NA
6,8785.265625,3481.0,[6],1,NA,NA,NA
6,8693.640625,4693.0,[5],1,NA,NA,NA
6,22693.015625,13139.0,[7],1,NA,NA,NA
6,15149.21875,9776.0,[8],1,NA,NA,NA
