time,cumulative size,size,pcore_ids,pcore_power,SCA-1,CD11b,Ly6C
-1,0,0,[],0,0.0,0.0,0.0
0,25811.0,25811.0,[1 7],2,0.216198258820929,0.15467637092537148,0.15793809186342422
0,14191.0,14191.0,[4],1,0.2241191798251629,0.5067163848350776,0.5971799153106718
0,9036.0,9036.0,[6],1,0.21900052722941055,0.4028578997233786,0.5380107878311033
1,7225.0,5277.0,[0],1,0.23339854593522857,0.3722610343045927,0.7896440378850323
1,36861.5,23956.0,[1 7],2,0.20778805022810495,0.1559700236601692,0.15136218228789725
1,9886.0,7530.0,[3],1,0.24722601704373862,0.5845203761798533,0.7157712060023226
1,25846.5,18751.0,[4],1,0.21316630139433954,0.5182651615397675,0.5813600269916323
1,15123.0,10605.0,[6],1,0.21943534923737845,0.4179721756708112,0.5358717020800604
2,7550.5,3938.0,[0],1,0.2819272330353885,0.38206064085534397,0.7732506099612272
2,26276.0,14521.0,[1 2],2,0.22186476401757851,0.1796164165603007,0.25746024258165967
2,42545.25,27002.0,[7],1,0.19824857328044262,0.15881724517901505,0.12384993894028887
2,9001.0,4058.0,[3],1,0.27218873308708547,0.5868369137969072,0.6966097122591406
2,47496.75,27012.0,[4 6],2,0.22671098194004327,0.4918479299619606,0.5328445752407173
3,8600.25,4825.0,[0],1,0.2876355828433264,0.37457818823271616,0.7951331113866046
3,28739.0,15601.0,[1 2],2,0.22654482164353507,0.1792753058459195,0.2594967632042947
3,40101.625,18829.0,[7],1,0.1962720240574226,0.1563274170531089,0.12271219729701673
3,16648.5,12148.0,[3],1,0.26438161416168315,0.6058312582207852,0.646174215752635
3,45908.375,22160.0,[4 6],2,0.22289723824901472,0.5037651476436412,0.5398761675985928
3,6391.75,4238.0,[8],1,0.4031737277204678,0.1713063334434746,0.7314163110280232
4,8629.125,4329.0,[0],1,0.34681597483827953,0.38726838819888965,0.8027675798963436
4,9905.625,6153.0,[1],1,0.3117335443132172,0.19554765863013238,0.29794916557303663
4,50609.6875,19942.0,[2 7],2,0.20532981157638683,0.16266842456761288,0.16491098472015764
4,56473.5625,32964.0,[3 4],2,0.26258289696631787,0.5702581347415684,0.5744067084743847
4,13453.875,5685.0,[6],1,0.23066924246690357,0.45144004458672554,0.5028209266259208
4,8142.875,4947.0,[8],1,0.44679780541581005,0.1679473536222401,0.7321058054667939
4,7825.25,4996.0,[9],1,0.4985174666853795,0.19699106262200022,0.26294035127989596
5,9778.5625,5464.0,[0],1,0.3873064954559375,0.3959478609435062,0.7943443990879732
5,11736.8125,6784.0,[1],1,0.34758584835322454,0.18748573089239515,0.2983096278471376
5,14148.9375,5237.0,[2],1,0.21666529432794585,0.1714464898042585,0.24401513146114104
5,56653.78125,28417.0,[3 4],2,0.28252965638933486,0.5797826561195568,0.5610126292526866
5,8549.9375,1823.0,[6],1,0.23484524699610734,0.45804205125867603,0.4995106210726355
5,26801.90625,10409.0,[7],1,0.2158121705691098,0.15563359313548525,0.12079384166688499
5,10800.4375,6729.0,[8],1,0.5265408125958299,0.15641280701115423,0.7045386337575548
5,16602.625,12690.0,[9],1,0.5449835776273727,0.17729137147838853,0.22885000550584358
5,8402.8125,5669.0,[12],1,0.4755606131073164,0.546447848528952,0.6795234446057671
6,9366.28125,4477.0,[0],1,0.4162634208615444,0.3973425602552463,0.7681516267441272
6,14391.40625,8523.0,[1],1,0.3781041373761809,0.18941406387211582,0.30143744750502083
6,12257.46875,5183.0,[2],1,0.2281566750563216,0.17132986255644195,0.24172845483036856
6,30015.5625,15329.0,[3],1,0.3413233598553894,0.6104643483208589,0.5664482606858113
6,30565.296875,12650.0,[4 6],2,0.2592464875818944,0.5282461034440776,0.5098286137616451
6,22407.953125,9007.0,[7],1,0.23172395707687002,0.15579483963506952,0.12213214819626328
6,13034.21875,7634.0,[8],1,0.5611490955836768,0.15509379841685664,0.6778497410675187
6,18529.3125,10228.0,[9],1,0.5410557647405111,0.17596956010096967,0.21993806129322443
6,6679.84375,4606.0,[10],1,0.40033962278035506,0.1621909270254956,0.5529824645214669
6,6825.46875,3979.0,[11],1,0.5282458555471269,0.36444899249974827,0.5999663678393224
6,11127.40625,6926.0,[12],1,0.5134602356711551,0.5517246720887555,0.7038696533149579
