time,cumulative size,size,pcore_ids,pcore_power,SCA-1,CD11b,Ly6C
-1,0,0,[],0,0.0,0.0,0.0
0,22662.0,22662.0,[0 2 7],3,NA,NA,NA
0,8511.0,8511.0,[1],1,NA,NA,NA
0,20359.0,20359.0,[3 8],2,NA,NA,NA
1,41554.0,30223.0,[0 2 7],3,NA,NA,NA
1,8874.5,4619.0,[1],1,NA,NA,NA
1,27206.5,17027.0,[3 8],2,NA,NA,NA
1,6773.0,4588.0,[4],1,176.2217628820332,NA,NA
1,7532.5,5524.0,[6],1,NA,NA,NA
1,7132.5,4761.0,[12],1,NA,NA,NA
2,47948.0,27171.0,[0 2 7],3,NA,NA,NA
2,10874.25,6437.0,[1],1,NA,NA,NA
2,57777.25,34735.0,[ 3 11],2,NA,NA,NA
2,7986.5,4600.0,[4],1,NA,NA,NA
2,6204.25,2438.0,[6],1,NA,NA,NA
2,6018.5,3636.0,[9],1,287.3349256459214,NA,NA
2,8392.25,4826.0,[12],1,NA,NA,NA
3,55956.0,31982.0,[0 2 7],3,NA,NA,NA
3,12875.125,7438.0,[1],1,NA,NA,NA
3,63516.375,32303.0,[ 3  8 11],3,NA,135.6328801037537,NA
3,6967.25,2974.0,[4],1,NA,NA,NA
3,6054.125,2952.0,[6],1,NA,NA,NA
3,6641.25,3632.0,[9],1,NA,NA,NA
3,7526.125,3330.0,[12],1,NA,NA,NA
4,64812.0,36834.0,[0 2 7],3,NA,NA,NA
4,21286.4375,12117.0,[1 8],2,NA,NA,NA
4,48806.3125,19780.0,[ 3 11],2,NA,NA,NA
4,7449.625,3966.0,[4],1,NA,NA,NA
4,5734.4375,3351.0,[5],1,NA,NA,NA
4,14478.125,7688.0,[ 6 12],2,NA,NA,NA
4,7284.625,3964.0,[9],1,NA,NA,NA
5,61363.0,28957.0,[0 2 7],3,NA,NA,NA
5,23157.78125,15277.0,[1],1,NA,NA,NA
5,25594.90625,10734.0,[3 8],2,NA,NA,NA
5,10215.21875,7348.0,[5],1,NA,NA,NA
5,18153.0625,10914.0,[ 6 12],2,NA,NA,NA
5,7258.3125,3616.0,[9],1,NA,NA,NA
5,6146.4375,3885.0,[10],1,NA,NA,NA
6,57486.5,26805.0,[0 2 7],3,NA,NA,NA
6,25520.890625,13942.0,[1],1,NA,NA,NA
6,35414.078125,15193.0,[ 3 11],2,NA,NA,NA
6,13859.609375,8752.0,[5],1,NA,NA,NA
6,5946.265625,2876.0,[6],1,NA,NA,NA
6,6113.71875,3481.0,[8],1,NA,NA,NA
6,6854.15625,3225.0,[9],1,NA,NA,NA
6,8247.21875,5174.0,[10],1,NA,NA,NA
6,14684.265625,8678.0,[12],1,NA,NA,NA
