time,cumulative size,size,pcore_ids,pcore_power,SCA-1,CD11b,Ly6C
-1,0,0,[],0,0.0,0.0,0.0
0,5968.0,5968.0,[0],1,197.4183981233253,130.95408847184984,294.7432975871324
0,8949.0,8949.0,[1],1,218.24114426192847,106.84478712705327,200.46116884568127
0,6077.0,6077.0,[2],1,228.72404146783003,377.51209478360937,785.3893368438382
0,11784.0,11784.0,[3],1,171.45247793618745,463.35862186015163,565.5350475220627
0,3798.0,3798.0,[4],1,236.42443391258558,274.1224328593998,284.3962611900993
0,8607.0,8607.0,[5],1,169.77251074706834,343.3253166027659,516.8936911815961
0,9562.0,9562.0,[6],1,161.16743359130186,119.19441539426901,93.05082618699043
0,7008.0,7008.0,[7],1,306.4783105022813,135.64711757990898,706.7788242009118
0,4171.0,4171.0,[8],1,402.84799808199165,136.01774154878953,252.0208583073606
0,8285.0,8285.0,[9],1,102.20458660229713,126.76572118286094,215.14725407362732
0,3549.0,3549.0,[10],1,271.5483234713982,142.61792054099772,481.89659058889805
0,6829.0,6829.0,[11],1,381.6899985356512,354.5646507541354,599.5561575633324
0,5382.0,5382.0,[12],1,257.33537718320275,550.8758825715349,659.6605351170571
1,8591.0,5607.0,[0],1,196.58206262367634,134.34384821324585,298.36538237690485
1,11664.5,7190.0,[1],1,222.38912940974785,109.43512366582344,193.58965236401082
1,10692.5,7654.0,[2],1,207.60467617488928,375.675052606967,780.1936404021498
1,22107.0,16215.0,[3],1,162.42217397204726,482.1484597638769,552.4079024743312
1,4470.0,2571.0,[4],1,230.28814317673405,307.2725950783002,284.0652125279638
1,14386.5,10083.0,[5],1,162.61592465158702,349.4771834706165,510.3685399506491
1,13940.0,9159.0,[6],1,156.92098278336047,118.47263271162065,90.25832137733167
1,7440.0,3936.0,[7],1,279.50026881720265,139.74764784946223,705.6266129032258
1,4365.5,2280.0,[8],1,401.21440842972976,135.91936777001516,244.75947772305585
1,12669.5,8527.0,[9],1,104.52129129011185,126.69963297683402,213.18051225383817
1,4512.5,2738.0,[10],1,271.0190581717424,146.8586149584485,489.0531855955673
1,10512.5,7098.0,[11],1,370.7310820451769,351.1555766944102,589.4478478002367
1,9633.0,6942.0,[12],1,234.96351084812704,558.1107650783742,653.687688155298
2,10030.5,5735.0,[0],1,202.7978914311349,142.63326853098104,294.1036339165552
2,14634.25,8802.0,[1],1,225.6501699779632,115.42839571553019,186.21782804038455
2,10308.25,4962.0,[2],1,247.1535420658202,376.06759149225104,762.1949651977804
2,25846.5,14793.0,[3],1,175.93459462596644,491.0390575126224,524.695867912483
2,5637.0,3402.0,[4],1,228.48305836437814,329.09814617704416,285.9229643427356
2,17423.25,10230.0,[5],1,169.15403268621324,365.6330908412622,483.668689825377
2,18308.0,11338.0,[6],1,152.58101649552492,122.96909820843362,87.01045990823759
2,7604.0,3884.0,[7],1,288.6205944239853,153.15810757496018,698.0323513940031
2,5229.75,3047.0,[8],1,397.64764090061306,145.44309001386333,233.9172522587115
2,16701.75,10367.0,[9],1,102.43389165806575,131.6336611432937,209.05954465849382
2,4874.25,2618.0,[10],1,284.40616505102963,151.00779607118994,492.05380314920166
2,11134.25,5878.0,[11],1,371.8013561757577,355.60684374789395,584.2884118822546
2,9760.5,4944.0,[12],1,251.2917114901897,558.1390809897023,637.8538753137639
3,11720.25,6705.0,[0],1,207.22681896717233,143.93468569356426,294.03018280326853
3,15126.125,7809.0,[1],1,225.15069127089743,116.54141427497147,185.002842763761
3,10790.125,5636.0,[2],1,252.61609573568344,370.5224337067455,775.0306066889857
3,29494.25,16571.0,[3],1,173.12678742466906,496.95145663985153,534.2584359663304
3,4349.5,1531.0,[4],1,244.9845959305658,326.4522646281172,289.18263593516576
3,15517.625,6806.0,[5],1,167.6063508429965,368.0207103213291,484.5970469063396
3,16589.0,7435.0,[6],1,151.92179305564323,123.31708511664404,86.3322533003803
3,9438.0,5636.0,[7],1,308.30742742106395,147.9107994278448,707.0869887688068
3,7724.875,5110.0,[8],1,434.5729704364124,164.92946487807245,229.81386430201206
3,17265.875,8915.0,[9],1,104.32582333650093,132.0528643929135,209.947142846799
3,5190.125,2753.0,[10],1,314.85395342115646,146.48951133161498,493.6491173141313
3,10220.125,4653.0,[11],1,398.2647594818981,363.47449272880647,591.342437103264
3,15320.25,10440.0,[12],1,246.75565836066585,565.426037434116,619.9790718167156
4,12043.125,6183.0,[0],1,219.70759769578027,145.6984171467131,295.9484872074337
4,14586.0625,7023.0,[1],1,236.37864913851817,116.51499505092626,180.95980752173477
4,10605.0625,5210.0,[2],1,309.9255308490598,379.88872649265267,780.1914946281535
4,31834.125,17087.0,[3],1,185.8904987964973,501.96200618047146,529.061123479908
4,4529.75,2355.0,[4],1,263.04680169987205,327.99957227220017,293.49852364920844
4,14791.8125,7033.0,[5],1,177.737937794983,370.84297056226103,478.298560436727
4,13153.5,4859.0,[6],1,155.45720245562364,123.73425799216966,84.21400197666074
4,10410.0,5691.0,[7],1,346.44243515849917,145.24813280499578,710.719164265129
4,9507.4375,5645.0,[8],1,447.15192053589544,162.872987595238,224.22231936838904
4,13478.9375,4846.0,[9],1,104.54097828557205,133.24493306686733,211.4452687758199
4,6104.0625,3509.0,[10],1,346.7219884298332,145.09622689806935,490.26354374647974
4,10791.0625,5681.0,[11],1,421.98725218206397,385.8959555650792,600.6541814117004
4,22538.125,14878.0,[12],1,270.4059538005027,561.8784226726962,595.8623970494411
5,11540.5625,5519.0,[0],1,237.45333308060123,141.72100580019395,299.10338534192005
5,14620.03125,7327.0,[1],1,252.30540290397673,115.04657351536125,176.32811361124803
5,11789.53125,6487.0,[2],1,345.1841914834341,393.8622957337673,774.3529057824084
5,28418.0625,12501.0,[3],1,193.72635581683394,509.0149486792017,519.4875959172023
5,4076.875,1812.0,[4],1,285.634248045377,340.07494251111405,298.3906714701819
5,9450.90625,2055.0,[5],1,183.98723667373434,373.8152458924232,476.21849095159496
5,10083.75,3507.0,[6],1,161.08909445890973,122.7174693194491,82.86296640634723
5,11158.0,5953.0,[7],1,399.0059934576083,140.98364682290773,704.4042167055021
5,16826.71875,12073.0,[8],1,483.60346361349036,153.2893259418135,219.08251385909585
5,9831.46875,3092.0,[9],1,108.17566360571126,131.61706510026775,212.50881576061445
5,10111.03125,7059.0,[10],1,427.49421269467615,141.29985195624835,493.3488516564514
5,12969.53125,7574.0,[11],1,471.0832865490013,416.28348653695633,627.4768339256652
5,26310.0625,15041.0,[12],1,289.4532688301255,558.83029781856,574.2714823938543
6,12028.28125,6258.0,[0],1,259.7277574986011,140.08352710409136,301.23469687325615
6,14612.015625,7302.0,[1],1,268.2265430098707,116.66523590923143,172.1790018702497
6,11176.765625,5282.0,[2],1,362.34730530550127,403.60441233418067,752.3211251577983
6,23285.03125,9076.0,[3],1,204.63175645297957,510.2345874025808,506.6857913010058
6,4874.4375,2836.0,[4],1,311.9690348886386,346.4538248002982,311.3054038286474
6,8564.453125,3839.0,[5],1,206.31697514253193,386.7276022804996,470.35976465222393
6,7830.875,2789.0,[6],1,168.02452830941908,123.43028596740464,82.74269717624179
6,13252.0,7673.0,[7],1,436.3971806142461,142.5412591024001,684.4842382281947
6,18585.359375,10172.0,[8],1,483.4146896540726,152.2894516264894,222.01512699428227
6,7741.734375,2826.0,[9],1,114.77684264064496,133.39795467343137,214.08431371361698
6,14094.515625,9039.0,[10],1,452.05573865721493,148.15085987568278,491.5625348512119
6,15387.765625,8903.0,[11],1,496.06628338056856,437.0034615568173,644.1420700495629
6,27160.03125,14005.0,[12],1,308.5037244526357,559.3469643467383,555.4753290968641
