time,cumulative size,size,pcore_ids,pcore_power,SCA-1,CD11b,Ly6C
-1,0,0,[],0,0.0,0.0,0.0
0,23326.0,23326.0,[1 3 7],3,172.13405641773352,137.36161365000416,247.54025550887448
0,5448.0,5448.0,[2],1,242.6879588839934,544.8283773861955,627.7619309838478
0,10874.0,10874.0,[11],1,159.73809085893248,119.37318374103336,102.0545337502302
0,7065.0,7065.0,[4],1,207.596744515217,396.4887473460729,577.7246992215131
1,6221.0,4384.0,[0],1,255.72383861115418,440.80959652788965,787.156807587203
1,31480.0,19817.0,[1 3 7],3,167.25379606099378,138.95316073697595,244.28665819567968
1,10004.0,7280.0,[2],1,228.36015593762528,557.8283186725289,622.6026089564191
1,16149.0,10712.0,[11],1,157.29066815283,118.68251904142645,100.07130472475117
1,18954.5,13325.0,[4 6],2,190.67137091456047,437.8453401566914,528.828906064522
1,8500.0,6094.0,[10],1,148.45776470588532,324.53341176470633,484.78188235293993
1,9033.5,6782.0,[14],1,108.39973432225011,490.3903802512863,593.5886422759729
1,7177.5,4622.0,[17],1,357.09571577846793,346.44082201323556,653.1793103448265
2,6435.5,3325.0,[0],1,279.89682231372547,434.0845699634829,768.4878020355833
2,30285.25,17914.0,[1 3],2,152.3889269528928,121.29887486482643,227.98557878835365
2,10731.0,5729.0,[2],1,240.82858074736717,560.2199468828638,605.8694669648698
2,21545.5,13471.0,[11],1,154.5003132904816,123.09503144508191,97.46753382376882
2,25447.25,15970.0,[4 6],2,195.22173319317545,455.61814144946896,502.8577842399471
2,8032.75,4664.0,[7],1,214.1849304410075,237.72195076405984,275.8517008496468
2,6511.5,3948.0,[9],1,330.1864393764847,127.69745834293148,158.72936343392507
2,10774.0,6524.0,[10],1,154.87149619454584,342.50686838685704,460.200761091513
2,6823.75,2307.0,[14],1,108.33757098370246,494.58475911338854,578.0482139586006
2,8388.75,4800.0,[17],1,350.63939800327125,346.8231262106987,660.5382506332904
3,6675.75,3458.0,[0],1,292.7305546193287,430.30020971426376,779.8314234355654
3,32871.625,17729.0,[1 3],2,156.62771082963232,122.39183110053091,229.02436752061865
3,16761.5,11396.0,[2],1,239.93000328132916,565.3856233034063,598.3896802195552
3,23932.625,11209.0,[4 6],2,199.94029593494378,458.2091339750663,511.2895837794645
3,5836.625,3474.0,[5],1,275.11113014798514,158.00381213458076,733.9947957938032
3,10477.875,7066.0,[14],1,113.67154599573485,507.40702432506583,572.3302912088559
3,7422.375,3406.0,[7],1,218.27353104633005,230.5820576298016,280.86318395392226
3,6786.75,3531.0,[9],1,348.8652889822035,133.13485836372305,155.43597819280257
3,9501.0,4114.0,[10],1,152.70463635407128,345.6303020734651,460.85775181559706
3,19986.75,9214.0,[11],1,155.70541733899069,122.87950767383437,97.55459867162018
3,5500.25,3692.0,[16],1,433.6716512885754,185.06386073360292,317.6606290623166
3,7174.375,2980.0,[17],1,363.23723320846045,360.5380608066894,661.5722101228359
4,7852.875,4515.0,[0],1,348.46562564665385,433.1471356032028,785.8838721487308
4,28417.8125,11982.0,[1 3],2,167.2450927565268,121.49218689862168,231.44788369970288
4,24106.75,15726.0,[2],1,260.2978574465642,562.6520191440173,583.4782089041437
4,26501.3125,14535.0,[4 6],2,213.96781999004818,467.09598581202346,510.63036736387994
4,7090.3125,4172.0,[5],1,316.49793291903075,161.38054563885615,739.0306403984308
4,9638.9375,4400.0,[14],1,118.83738482587448,513.6523281222659,562.3393268189526
4,7725.1875,4014.0,[7],1,227.12833830894024,230.06189170165823,286.76843604119597
4,7925.375,4532.0,[9],1,361.00850117501915,133.75171521852278,149.41167610365446
4,9132.5,4382.0,[10],1,160.24619490829767,347.8358335614555,453.15234054202017
4,16115.375,6122.0,[11],1,160.8426502641143,122.84802556564799,96.21176593780811
4,7021.125,4271.0,[16],1,446.98538339653385,181.2897149673314,309.866216240275
4,7643.1875,4056.0,[17],1,382.5899943577135,382.4593633219114,663.6225478571623
5,10053.4375,6127.0,[0],1,407.9597152715136,464.8462932454705,780.6800317055706
5,14280.125,7164.0,[1],1,237.7348587634905,108.28516688404328,245.38343501894983
5,25937.375,13884.0,[2],1,279.0002722904647,562.7314553323122,571.3099593251029
5,10038.78125,2946.0,[3],1,110.65151397238203,131.3646888161844,216.27328080786543
5,24585.65625,11335.0,[4 6],2,224.0647951485936,481.85320836209104,502.1360155375142
5,6907.15625,3362.0,[5],1,336.8653525102989,166.2106963339653,735.3320107316224
5,7766.46875,2947.0,[14],1,124.65794863335289,520.4024472190125,555.8316078333506
5,6686.59375,2824.0,[7],1,241.58167228269204,227.37640147496626,288.36849386131814
5,10775.6875,6813.0,[9],1,398.1472991862447,129.09990661848738,141.31411858872116
5,5683.25,1117.0,[10],1,164.6317138081233,351.0111951788148,446.9789073153573
5,12870.6875,4813.0,[11],1,170.08375135361177,121.64765868179092,95.71573731007031
5,8787.0625,6503.0,[13],1,549.7212307867444,134.62785131549893,615.333729275284
5,12863.5625,9353.0,[16],1,487.0169616698345,164.66386158577723,299.0333913136416
5,8620.59375,4799.0,[17],1,404.83934546271433,387.6828452216535,670.1536980848934
6,10984.71875,5958.0,[0],1,452.063895582212,489.474669356008,756.9088606046485
6,14170.0625,7030.0,[1],1,251.25293201776466,107.89824387683578,243.90690319820334
6,23798.6875,10830.0,[2],1,298.29264087567594,570.0772107968161,560.5010078024203
6,7564.390625,2545.0,[3],1,113.96835708428875,132.52709136765313,216.72758050156762
6,24835.828125,12543.0,[4 6],2,240.69843717461984,484.88569059442216,491.5082224331902
6,6493.578125,3040.0,[5],1,355.7825543986913,167.93431972453592,714.3235143374835
6,6997.296875,3654.0,[7],1,263.15279784380783,227.1642665582922,288.7537173953334
6,11751.84375,6364.0,[9],1,406.8777239741604,129.9140081742492,144.22744436378315
6,10622.34375,4187.0,[11],1,182.1801715134696,122.26430725328358,96.52537104864498
6,6428.484375,3794.0,[12],1,471.0703460914898,422.43337392415947,456.0784618263922
6,12251.53125,7858.0,[13],1,546.7932350293012,136.83560345773068,612.8778366989856
6,6088.546875,3886.0,[15],1,328.5870576671811,132.40322634454506,517.5586231320592
6,15061.78125,8630.0,[16],1,487.99603715529986,162.833923610463,305.4364077538968
6,10547.296875,6237.0,[17],1,413.2675715193562,384.0891371752545,672.2687788784763
