time,cumulative size,size,pcore_ids,pcore_power,SCA-1,CD11b,Ly6C
-1,0,0,[],0,0.0,0.0,0.0
0,19694.0,19694.0,[0 5 6],3,NA,NA,NA
0,20724.0,20724.0,[ 1  7 10],3,NA,NA,NA
0,40965.0,40965.0,[2 4 8],3,NA,NA,NA
0,8610.0,8610.0,[3 9],2,NA,NA,NA
1,32185.0,22338.0,[0 5 6],3,NA,NA,NA
1,17514.0,9717.0,[1 7],2,NA,NA,NA
1,64032.5,43550.0,[2 4 8],3,NA,NA,NA
1,12721.0,8416.0,[3 9],2,NA,NA,NA
1,8544.0,5979.0,[10],1,NA,NA,NA
2,36046.5,19954.0,[0 5 6],3,NA,NA,NA
2,28798.0,15769.0,[ 1  7 10],3,NA,NA,NA
2,77497.25,45481.0,[2 4 8],3,NA,NA,NA
2,15156.5,8796.0,[3 9],2,NA,NA,NA
3,15407.625,7783.0,[0 5],2,NA,NA,NA
3,32927.0,18528.0,[ 1  7 10],3,NA,NA,NA
3,86221.625,47473.0,[2 4 8],3,NA,NA,NA
3,14209.25,6631.0,[3 9],2,NA,NA,NA
3,19983.625,9585.0,[6],1,NA,NA,NA
4,14366.8125,6663.0,[0 5],2,NA,NA,NA
4,38226.5,21763.0,[ 1  7 10],3,NA,NA,NA
4,86212.8125,43102.0,[2 4 8],3,NA,NA,NA
4,16102.625,8998.0,[3 9],2,NA,NA,NA
4,19465.8125,9474.0,[6],1,NA,NA,NA
5,12208.40625,5025.0,[0 5],2,NA,NA,NA
5,49135.25,30022.0,[ 1  7 10],3,NA,NA,NA
5,94739.3125,41900.0,[2 4 6 8],4,NA,NA,NA
5,12040.5625,6918.0,[3],1,NA,NA,NA
5,9063.75,6135.0,[9],1,NA,NA,NA
6,11162.203125,5058.0,[0 5],2,NA,NA,NA
6,56430.625,31863.0,[ 1  7 10],3,NA,NA,NA
6,86020.65625,38651.0,[2 4 6 8],4,NA,NA,NA
6,13881.28125,7861.0,[3],1,NA,NA,NA
6,11098.875,6567.0,[9],1,NA,NA,NA
