time,cumulative size,size,pcore_ids,pcore_power,SCA-1,CD11b,Ly6C
-1,0,0,[],0,0.0,0.0,0.0
0,15700.0,15700.0,[0 6],2,0.20450962570672276,0.5339672017753695,0.600255131715204
0,41858.0,41858.0,[1 3 5],3,0.2207230599335063,0.14787106656009416,0.24984646893447393
0,9691.0,9691.0,[ 2 11],2,0.2392662484246364,0.4191911280280111,0.5405257420898182
0,4012.0,4012.0,[4],1,0.2931987744631277,0.5501690629469067,0.8143673100964367
0,5357.0,5357.0,[7],1,0.4350552569042251,0.16771518130377908,0.27628463559325284
0,5672.0,5672.0,[8],1,0.42509350089538467,0.39414082194665884,0.6451423159442216
0,3439.0,3439.0,[9],1,0.20567254003156288,0.24076733607975584,0.47925732023151274
0,4267.0,4267.0,[10],1,0.27315088621060934,0.3102734126045731,0.8114120225504382
1,31292.0,23442.0,[0 6],2,0.192084436270464,0.5496218873688935,0.5872099524074802
1,55498.0,34569.0,[1 3 5],3,0.20811452462504298,0.1480673491311664,0.22367928184735192
1,14526.5,9681.0,[ 2 11],2,0.23719227587551195,0.42273580052558,0.52392701089944
1,7032.0,5026.0,[4],1,0.2713581412739187,0.5315567747182884,0.8016929765551547
1,5838.5,3160.0,[7],1,0.4278065110228163,0.16890437441898593,0.2694798352003726
1,8893.0,6057.0,[8],1,0.4104605692900664,0.38763297229556143,0.6287602145477642
1,4900.5,3181.0,[9],1,0.19709316522391326,0.23859775597743554,0.4783902328951915
1,7017.5,4884.0,[10],1,0.2347996781721463,0.3190314453039993,0.8067668087179423
2,34076.0,18430.0,[0 6],2,0.20575693492800887,0.556739171397021,0.5622799936131194
2,67954.0,40205.0,[1 3 5],3,0.20206762886195967,0.1539041057785028,0.20684189088216406
2,20037.25,12774.0,[ 2 11],2,0.23912587805212857,0.44127948855889265,0.4828819102817431
2,7192.0,3676.0,[4],1,0.30813852938970687,0.5135218115653892,0.7837761999227043
2,7700.25,4781.0,[7],1,0.416892928837486,0.17731038291199558,0.2512491459472332
2,9571.5,5125.0,[8],1,0.41164863854360995,0.39152577658551113,0.6193737393410059
2,4493.25,2043.0,[9],1,0.2029682476273737,0.24000323008394006,0.4684482179839905
2,6474.75,2966.0,[10],1,0.2693631396986812,0.3256868528091809,0.7876604517583352
3,44437.0,27399.0,[0 6],2,0.2118808555629722,0.5732858733758729,0.5716691082086965
3,69330.25,35261.0,[ 1  3 10],3,0.19658645688206042,0.17169913572394302,0.23483582126279037
3,16723.625,6705.0,[ 2 11],2,0.24044543222973755,0.44078491562776395,0.49348462153974093
3,7001.0,3405.0,[4],1,0.33080151872364694,0.5110971541880552,0.7921085048620138
3,18683.25,11688.0,[5 7],2,0.4326810110660589,0.16888620472290086,0.4341798227078155
3,8381.75,3596.0,[8],1,0.4391230210901564,0.40270212756194107,0.6167748122827317
3,4192.625,1946.0,[9],1,0.2107757435223522,0.23590966064225333,0.4641084816647946
4,53731.5,31513.0,[0 6],2,0.2403411503431493,0.5840351138640875,0.5635548588464205
4,52569.9375,21795.0,[1 3],2,0.19767215933627322,0.15515204188318457,0.16641368280553046
4,16701.8125,8340.0,[ 2 11],2,0.25182754714310873,0.44369873236825386,0.4886346320870694
4,8564.5,5064.0,[4],1,0.3973041235016993,0.5130919646472889,0.7971184059100314
4,23309.625,13968.0,[5 7],2,0.4555461067494334,0.1661745669895312,0.42444020306044367
4,8222.875,4032.0,[8],1,0.46619177079833135,0.42188966733693,0.6109646899722626
4,4445.3125,2349.0,[9],1,0.23329311822436405,0.23192224192637634,0.45274410230114936
4,6829.1875,2939.0,[10],1,0.31202308992002875,0.30527831965594354,0.8004214783496676
5,57963.625,27908.0,[ 0  6 11],3,0.2646230766433059,0.5826904923325851,0.5548119920708375
5,43859.96875,17575.0,[1 3],2,0.21347512129443785,0.15187310419760416,0.1674264984762734
5,7536.03125,2375.0,[2],1,0.2577835032885315,0.4595988919221834,0.4369843403669738
5,11884.25,7602.0,[4],1,0.46281900048052177,0.5319428962074492,0.7910819572356972
5,13338.28125,8403.0,[5],1,0.5189201400200212,0.13810854003821257,0.6644736260916546
5,22172.53125,15453.0,[7],1,0.5138953231764927,0.17282558564572473,0.21921683454255508
5,9058.4375,4947.0,[8],1,0.5079788576281544,0.43252686451579864,0.5969083214708866
5,4521.65625,2299.0,[9],1,0.2799650433847639,0.2105751800355709,0.4452409622911467
5,6852.59375,3438.0,[10],1,0.34448656389692833,0.30432260483327883,0.7909318847383031
6,52102.8125,23121.0,[ 0  6 11],3,0.2877557182377824,0.5897789616954799,0.5442261752233769
6,38640.984375,16711.0,[1 3],2,0.23180174605662945,0.1523482381007291,0.17026324364741202
6,8703.015625,4935.0,[2],1,0.2770942817609871,0.47601885830827373,0.4296063954325035
6,14479.125,8537.0,[4],1,0.5003009842142913,0.5413270013121145,0.7679630377843866
6,17189.140625,10520.0,[5],1,0.5477121300321242,0.14192755993818,0.6453015818119578
6,24632.265625,13546.0,[7],1,0.5183306228766665,0.17153909113311555,0.2184388386305094
6,9786.21875,5257.0,[8],1,0.5320188642370729,0.4357795854762117,0.5806256576821212
6,6557.828125,4297.0,[9],1,0.35198348936959384,0.19639763530859203,0.43775590554712
6,6502.296875,3076.0,[10],1,0.37367137687381546,0.30371141149685277,0.7628722408958192
