time,cumulative size,size,pcore_ids,pcore_power,SCA-1,CD11b,Ly6C
-1,0,0,[],0,0.0,0.0,0.0
0,21199.0,21199.0,[0 2],2,165.32454361055008,128.72248690976022,250.1852445870081
0,6945.0,6945.0,[1],1,234.03282937365046,540.1907847372206,632.2954643628494
0,12042.0,12042.0,[9],1,167.11509715994174,119.47060288988503,105.46445773127417
0,16011.0,16011.0,[3 5],2,170.70870026856767,414.3621260383491,558.4070326650411
0,6606.0,6606.0,[4],1,269.7936724190113,141.85286103542242,714.1748410535876
0,6436.0,6436.0,[10],1,386.7226538222432,361.1993474207569,623.8275326289607
1,29182.5,18583.0,[0 2],2,162.48057911419806,129.4589908335482,248.57782917844477
1,12782.5,9310.0,[1],1,220.05546645804907,551.4567181693699,625.7762566008203
1,17845.0,11824.0,[9],1,165.45603810591388,119.74152423648019,103.29848697114075
1,28882.5,20877.0,[3 5],2,160.735237600626,430.8145070544443,545.6770535791568
1,7638.0,4335.0,[4],1,241.15455616653597,148.0621890547261,707.6127913066247
1,6641.5,3495.0,[6],1,355.90597003688475,135.21312956410438,218.90604532108753
1,10156.0,7383.0,[7],1,210.1176152028361,389.903209925167,784.8141985033443
1,7757.0,5223.0,[8],1,188.18306046152037,336.79250999097525,405.0512440376431
1,9566.0,6348.0,[10],1,373.78052477523755,357.48886681998664,607.55143215555
2,35581.25,20990.0,[0 2],2,160.95198313718925,135.1884911294573,242.29933602669814
2,13313.25,6922.0,[1],1,236.26736521886042,553.3735000845018,606.4556363021804
2,23786.5,14864.0,[9],1,163.43053833056786,124.01617514136238,100.57636684674097
2,32040.25,17599.0,[3 5],2,170.97290907530626,445.85304421781825,521.4413667184238
2,7798.0,3979.0,[4],1,257.26625416773425,158.55789946140013,695.9301423441899
2,7930.75,4610.0,[6],1,356.78123128329133,144.05497588500393,205.82230558269958
2,9735.0,4657.0,[7],1,248.89833076527916,388.79707241910523,766.9310220852597
2,11899.5,8021.0,[8],1,186.73448464221389,359.4203748056642,398.3993655195572
2,10366.0,5583.0,[10],1,372.54478583831064,362.74013602160824,603.7747925911635
3,15389.125,8871.0,[0],1,227.92802547253294,145.78951857236834,284.4248617124093
3,20386.625,13730.0,[1],1,234.01942450013206,558.3289963395135,598.7999362327024
3,45285.75,22120.0,[2 9],2,144.4917606531899,126.08933273711949,159.5146320862509
3,33637.125,17617.0,[3 5],2,167.8637628810457,455.3804018625238,526.9272232689316
3,8923.0,5024.0,[4],1,252.34373248907374,158.22159027232985,707.0799759049636
3,9775.375,5810.0,[6],1,399.371929465618,162.9934401493546,209.1425265015416
3,10125.5,5258.0,[7],1,256.5011727815901,382.85079749148105,779.2484074860475
3,9282.75,3333.0,[8],1,183.77102690474493,353.8734076647539,402.7321241011543
3,9377.0,4194.0,[10],1,393.4345339660801,378.6568332089148,606.6038978351306
3,6565.75,4043.0,[11],1,424.93566995392564,152.08100750104748,540.6673266572752
4,16860.5625,9166.0,[0],1,240.9798271854803,144.90943362654755,283.4120673613361
4,29113.3125,18920.0,[1],1,255.28328749948815,555.2072076133543,579.2403346407203
4,17939.25,6406.0,[2],1,123.76831528631914,129.898257312875,216.47540658054044
4,33566.5625,16748.0,[3 5],2,179.40336272146064,462.95284928267193,521.7828437898585
4,9347.5,4886.0,[4],1,289.54218373896515,153.27046001604762,707.0582843006126
4,11654.6875,6767.0,[6],1,418.7151468025188,166.70262501675722,208.31577959511975
4,10242.75,5180.0,[7],1,314.41119938492636,385.5440067364705,784.0279099851087
4,9258.375,4617.0,[8],1,187.6766981246731,347.9032970148652,402.8403270012287
4,18680.625,7571.0,[9],1,174.66252467463184,123.05073772959916,101.17212017799164
4,10172.5,5484.0,[10],1,412.86682845907404,411.32834234455544,613.8719464241832
4,7537.875,4255.0,[11],1,457.7657081737222,149.36330696648662,549.8741024492984
5,17492.28125,9062.0,[0],1,258.84838312612686,138.97640030513432,282.98032525060125
5,31913.65625,17357.0,[1],1,272.44421618096214,555.1112141451944,562.188183546027
5,13133.625,4164.0,[2],1,126.6389420285776,128.37123461725142,216.63738828769485
5,27709.28125,10926.0,[3 5],2,188.06890177817337,475.0585464933314,515.0777492198573
5,8798.75,4125.0,[4],1,311.61901193350946,153.24936070464602,700.8246235260683
5,18970.34375,13143.0,[6],1,464.0734089887038,157.55837318445907,211.71232894764944
5,11024.375,5903.0,[7],1,346.5969414365831,393.942644140824,777.7336073473539
5,6553.1875,1924.0,[8],1,200.3462627919628,353.26619202487336,392.5696321446631
5,15849.3125,6509.0,[9],1,189.8636021278545,121.04741727756299,102.26192579331128
5,12943.25,7857.0,[10],1,457.4437568809986,447.721768585943,638.1678625924685
5,12798.9375,9030.0,[11],1,509.89297695609713,144.94531040174277,556.8162298628287
6,18768.140625,10022.0,[0],1,278.36941675595125,138.10020888124123,283.4771874877732
6,29616.828125,13660.0,[1],1,290.64292418214467,561.2928286652934,548.6720640767419
6,10175.8125,3609.0,[2],1,130.83212642725644,129.8408189149507,216.85679736875946
6,25749.640625,11895.0,[3 5],2,214.02380433707577,474.9143343626763,502.2304310072276
6,8986.375,4587.0,[4],1,335.4189971623658,156.3427306616967,676.024351100974
6,21331.171875,11846.0,[6],1,469.30961437743434,157.98340896355407,220.2657620339949
6,10215.1875,4703.0,[7],1,364.0174326829463,397.34578721633886,755.8360988234426
6,13873.65625,5949.0,[9],1,207.4488317562303,121.51751070486533,104.78929153048632
6,15876.625,9405.0,[10],1,483.023530071727,463.4749759867101,650.8077814869349
6,17866.46875,11467.0,[11],1,514.3169755845033,147.66935880236548,559.9679602327681
