time,cumulative size,size,pcore_ids,pcore_power,SCA-1,CD11b,Ly6C
-1,0,0,[],0,0.0,0.0,0.0
0,5468.0,5468.0,[0],1,NA,NA,NA
0,18741.0,18741.0,[1 2],2,NA,NA,NA
0,20828.0,20828.0,[7],1,NA,131.02909544843516,NA
0,16309.0,16309.0,[4],1,NA,NA,NA
0,8042.0,8042.0,[6],1,NA,339.35637901019663,NA
0,6343.0,6343.0,[8],1,NA,NA,NA
0,5825.0,5825.0,[10],1,NA,NA,NA
1,10074.0,7340.0,[0],1,221.44058963668846,NA,NA
1,22809.5,13439.0,[1 2],2,NA,NA,NA
1,31922.0,21508.0,[7],1,177.4840235574258,132.9937973811164,NA
1,6730.0,5157.0,[3],1,208.7083952451713,NA,NA
1,29488.5,21334.0,[4],1,190.80892551333756,NA,NA
1,14170.0,10149.0,[6],1,NA,NA,NA
1,6041.5,2870.0,[8],1,NA,NA,NA
1,7485.5,4573.0,[10],1,329.07046957450615,NA,NA
2,9131.0,4094.0,[0],1,244.09968787646446,NA,NA
2,25332.75,13928.0,[1 2],2,NA,NA,NA
2,7602.0,4237.0,[3],1,254.19833596421878,NA,NA
2,32047.25,17303.0,[4],1,201.95781229278728,463.72080287699856,NA
2,19802.0,12717.0,[6],1,205.32994142006106,NA,NA
2,43949.0,27988.0,[7],1,176.64655623564045,140.89688047509574,NA
2,6092.75,3072.0,[8],1,NA,NA,NA
2,7568.75,3826.0,[10],1,323.0626589595331,NA,615.929744013215
3,16004.5,11439.0,[0],1,239.60443156612166,534.2497032084776,NA
3,28492.375,15826.0,[1 2],2,NA,NA,NA
3,8711.0,4910.0,[3],1,NA,NA,751.7304700952807
3,34620.625,18597.0,[4],1,199.35747116061734,470.3460509450606,NA
3,16412.0,6511.0,[6],1,NA,NA,NA
3,41326.5,19352.0,[7],1,NA,138.66249258950083,NA
3,8307.375,5261.0,[8],1,NA,NA,NA
3,6745.375,2961.0,[10],1,NA,NA,NA
4,26599.25,18597.0,[0],1,265.93823369079774,NA,593.4443452352956
4,12248.75,7772.0,[1],1,NA,NA,NA
4,16389.4375,6620.0,[2],1,NA,156.92322418020677,NA
4,8838.5,4483.0,[3],1,NA,NA,NA
4,34259.3125,16949.0,[4],1,NA,NA,531.4880716739331
4,15398.0,7192.0,[6],1,NA,NA,NA
4,33402.25,12739.0,[7],1,NA,138.64610168476722,NA
4,9873.6875,5720.0,[8],1,NA,NA,NA
4,6651.1875,4123.0,[9],1,NA,NA,NA
4,7135.6875,3763.0,[10],1,NA,NA,NA
5,30936.625,17637.0,[0],1,NA,NA,NA
5,14934.375,8810.0,[1],1,NA,154.84912534002842,NA
5,12864.71875,4670.0,[2],1,NA,NA,NA
5,9697.25,5278.0,[3],1,NA,NA,755.5260544226458
5,29872.65625,12743.0,[4],1,NA,NA,522.2235625179723
5,9711.0,2012.0,[6],1,NA,NA,NA
5,26723.125,10022.0,[7],1,NA,137.2491381528175,NA
5,13057.84375,8121.0,[8],1,NA,NA,NA
5,14959.59375,11634.0,[9],1,NA,NA,NA
5,10416.84375,6849.0,[10],1,NA,NA,NA
6,31455.3125,15987.0,[0],1,NA,NA,555.8907458000892
6,18649.1875,11182.0,[1],1,NA,NA,NA
6,10684.359375,4252.0,[2],1,NA,NA,NA
6,9306.625,4458.0,[3],1,NA,NA,NA
6,25011.328125,10075.0,[4],1,NA,NA,509.48491902106326
6,6256.234375,4250.0,[5],1,NA,NA,NA
6,8951.5,4096.0,[6],1,NA,NA,NA
6,21852.5625,8491.0,[7],1,NA,138.05337188716464,NA
6,17224.921875,10696.0,[8],1,NA,NA,NA
6,15855.796875,8376.0,[9],1,NA,NA,NA
6,13345.421875,8137.0,[10],1,NA,NA,NA
