time,cumulative size,size,pcore_ids,pcore_power,SCA-1,CD11b,Ly6C
-1,0,0,[],0,0.0,0.0,0.0
0,5468.0,5468.0,[0],1,257.28474762252995,496.3322970007317,728.388441843453
0,18741.0,18741.0,[1 2],2,207.27213062270022,151.18942425697728,276.77653273571235
0,20828.0,20828.0,[7],1,180.25792202804067,131.02909544843516,152.63107355482921
0,16309.0,16309.0,[4],1,199.82439144030997,441.6246244404946,573.3817524066479
0,8042.0,8042.0,[6],1,196.52076597861347,339.35637901019663,525.1754538671971
0,6343.0,6343.0,[8],1,299.6487466498482,147.54501024751738,701.6140627463317
0,5825.0,5825.0,[10],1,346.20566523604805,330.1981115879826,638.0612875536466
1,10074.0,7340.0,[0],1,221.44058963668846,511.37735755409943,695.6013500099253
1,22809.5,13439.0,[1 2],2,199.7693724106196,153.4712948552146,282.21037287095186
1,31922.0,21508.0,[7],1,177.4840235574258,132.9937973811164,153.87074744690133
1,6730.0,5157.0,[3],1,208.7083952451713,336.12652303120433,737.6286032689442
1,29488.5,21334.0,[4],1,190.80892551333756,454.26729063872637,562.6527459857198
1,3689.5,2318.0,[5],1,218.7757148665136,200.78493020734484,449.3340561051651
1,14170.0,10149.0,[6],1,197.28955539873198,354.895271700777,522.2148553281563
1,6041.5,2870.0,[8],1,280.97326822808856,145.8129603575273,696.0311180998093
1,7485.5,4573.0,[10],1,329.07046957450615,329.5053102665145,626.5773161445463
2,9131.0,4094.0,[0],1,244.09968787646446,513.4450498302492,676.8980396451656
2,25332.75,13928.0,[1 2],2,200.20900810216173,160.1588753688404,276.5119756047006
2,7602.0,4237.0,[3],1,254.19833596421878,340.7817350697181,727.201032622996
2,32047.25,17303.0,[4],1,201.95781229278728,463.72080287699856,536.7696058164087
2,19802.0,12717.0,[6],1,205.32994142006106,374.0229269770731,489.9255251994755
2,43949.0,27988.0,[7],1,176.64655623564045,140.89688047509574,155.91908803385684
2,6092.75,3072.0,[8],1,288.48286898362613,153.2033154158633,680.7449837922118
2,7568.75,3826.0,[10],1,323.0626589595331,332.69866226259256,615.929744013215
3,16004.5,11439.0,[0],1,239.60443156612166,534.2497032084776,630.272673310632
3,28492.375,15826.0,[1 2],2,208.3289783670211,159.49749275025312,274.8385620714296
3,8711.0,4910.0,[3],1,259.2858311330502,334.86354896108304,751.7304700952807
3,34620.625,18597.0,[4],1,199.35747116061734,470.3460509450606,540.0759771090134
3,16412.0,6511.0,[6],1,199.54939982939558,378.2846088228125,493.14084968315944
3,41326.5,19352.0,[7],1,175.21964719974173,138.66249258950083,154.83566234740425
3,8307.375,5261.0,[8],1,323.1919830271278,149.3101912457311,684.3128545418992
3,5056.375,3694.0,[9],1,433.95330152530084,182.75941262267887,367.52122320832746
3,6745.375,2961.0,[10],1,355.62607712691425,345.16072123491887,618.3829846376241
4,26599.25,18597.0,[0],1,265.93823369079774,534.2982485408428,593.4443452352956
4,12248.75,7772.0,[1],1,293.5488876415941,165.24656087355876,274.55619450964446
4,16389.4375,6620.0,[2],1,183.03988468182865,156.92322418020677,268.5681250500496
4,8838.5,4483.0,[3],1,310.6116917463331,342.9379631724837,760.9098899700163
4,34259.3125,16949.0,[4],1,211.86032629814238,474.7563199057154,531.4880716739331
4,15398.0,7192.0,[6],1,205.48502240550954,381.0446486556684,483.17371168333386
4,33402.25,12739.0,[7],1,180.466027737655,138.64610168476722,152.9778682573775
4,9873.6875,5720.0,[8],1,363.7852119585483,146.0566657593739,686.1678324334241
4,6651.1875,4123.0,[9],1,463.58297860344544,177.7845027673634,336.7244664956451
4,7135.6875,3763.0,[10],1,391.96147883437493,372.32337458724254,625.7168019899992
5,30936.625,17637.0,[0],1,288.62669348223596,536.4094933998095,573.489456267448
5,14934.375,8810.0,[1],1,324.91895166352435,154.84912534002842,255.72507009834612
5,12864.71875,4670.0,[2],1,188.35447724032315,154.70285252058025,268.9015062999321
5,9697.25,5278.0,[3],1,342.9794754956248,350.0085687952777,755.5260544226458
5,29872.65625,12743.0,[4],1,219.47163009650401,484.132995789412,522.2235625179723
5,4012.46875,2224.0,[5],1,276.25531351489974,194.5116394987498,449.7740325080416
5,9711.0,2012.0,[6],1,210.27053727731558,385.1430079291525,478.5167754350726
5,26723.125,10022.0,[7],1,190.24057581214868,137.2491381528175,150.93390088172654
5,13057.84375,8121.0,[8],1,436.1262746768601,139.73478105832027,665.0900823499296
5,14959.59375,11634.0,[9],1,501.7474258784637,161.7785931686813,291.9236881850484
5,10416.84375,6849.0,[10],1,452.2022625615357,419.7941075001705,658.7251326727437
6,31455.3125,15987.0,[0],1,310.81099228071355,539.8229527007555,555.8907458000892
6,18649.1875,11182.0,[1],1,346.0331842540008,152.83992683997653,245.43289335661436
6,10684.359375,4252.0,[2],1,196.8522036446401,155.5322397371158,269.4037165892313
6,9306.625,4458.0,[3],1,366.81233630611956,348.5573230763034,729.7590174338187
6,25011.328125,10075.0,[4],1,231.78214496556234,484.104651329863,509.48491902106326
6,6256.234375,4250.0,[5],1,333.7940654197386,186.29719854445165,448.7806812704343
6,8951.5,4096.0,[6],1,229.46060366977633,394.11415684521984,466.4703349298998
6,21852.5625,8491.0,[7],1,201.8356128142879,138.05337188716464,151.40429183076304
6,17224.921875,10696.0,[8],1,470.68070519187864,141.64659128533796,637.6488246046115
6,15855.796875,8376.0,[9],1,500.9352031147926,164.20221803736956,292.599036629939
6,13345.421875,8137.0,[10],1,476.1449443687939,442.6560559742498,669.1908636739879
