time,cumulative size,size,pcore_ids,pcore_power,SCA-1,CD11b,Ly6C
-1,0,0,[],0,0.0,0.0,0.0
0,25246.0,25246.0,[0 2 6],3,186.35621484591792,424.2604769072333,555.7842430484022
0,39718.0,39718.0,[ 1  3 10],3,176.76071302684156,150.3692028803068,268.4822498615234
0,4421.0,4421.0,[4],1,264.8676769961541,505.8993440398114,762.6521149061294
0,10572.0,10572.0,[5 7],2,349.3113885735877,125.4090049186532,477.1696935300791
0,5914.0,5914.0,[8],1,377.3468041934337,355.3248224551903,619.6312140683114
0,4123.0,4123.0,[9],1,304.74096531651423,181.88964346349726,434.0375939849627
1,45286.0,32663.0,[0 2 6],3,177.20601289582015,442.13677516230155,547.4950867817857
1,54733.0,34379.0,[1 3 5],3,181.82431074489205,131.8754225056188,246.65045767635556
1,7569.5,5359.0,[4],1,246.88090362639454,497.19631415549213,749.5913204306734
1,5143.5,2756.0,[7],1,365.291144162531,131.67084669971808,222.3783415961896
1,9075.0,6118.0,[8],1,363.1293112947586,349.0735537190069,607.0722314049592
1,5218.5,3157.0,[9],1,305.62508383634696,189.07358436332265,433.10999329309175
1,7971.5,5568.0,[10],1,197.78122059838265,288.08097597691847,764.2369064793309
2,53356.0,30713.0,[0 2 6],3,188.17875684084518,448.70522527925687,517.5316037559033
2,67013.5,39647.0,[1 3 5],3,176.73112134122567,137.0569773254639,232.55124340617783
2,7605.75,3821.0,[4],1,275.19948723005433,485.4250731354562,735.3515103704409
2,6947.75,4376.0,[7],1,356.3516965924169,140.36666546723677,208.89633334532724
2,9802.5,5265.0,[8],1,363.8959704157033,351.9832950777849,605.3174445294584
2,5715.25,3106.0,[9],1,312.6390359126856,194.51261974541782,423.16246008486104
2,7057.75,3072.0,[10],1,229.32358046119455,294.588891643937,749.2288973114652
3,60205.0,33527.0,[0 2 6],3,190.26201935055374,469.534008803257,533.4412444979635
3,60519.375,30260.0,[1 3],2,164.3841744895785,137.02483915275084,190.69311893918103
3,7434.875,3632.0,[4],1,293.8353704668845,492.317473393969,735.6696481110941
3,17487.25,10766.0,[5 7],2,370.8361377575066,142.7423694405922,430.2852506826405
3,8548.25,3647.0,[8],1,391.81132103061435,359.5014330418501,605.4125844471114
3,6255.625,3398.0,[9],1,328.7307223498814,191.64545908682237,413.8303726646019
3,8298.875,4770.0,[10],1,232.3485110933713,286.85989064782734,763.8836739919558
4,69387.5,39285.0,[0 2 6],3,211.38163844352468,482.02982525670996,529.2726220500754
4,51455.6875,21196.0,[1 3],2,171.9123614857961,137.77020883259985,193.62680145902115
4,8948.4375,5231.0,[4],1,349.80091496420096,495.5626540946377,738.5320551772284
4,21233.625,12490.0,[5 7],2,395.89481894871693,141.35776392396517,424.8707356845553
4,8301.125,4027.0,[8],1,417.6686367811541,373.16075381348844,603.409906789742
4,7563.8125,4436.0,[9],1,341.2519893241634,186.13008486130548,404.7092405450293
4,7484.4375,3335.0,[10],1,280.25026930881336,287.84543761638713,765.4120383128334
5,54394.3125,27699.0,[0 6],2,242.6278758463934,521.8161733361344,538.6688670345764
5,42882.84375,17155.0,[1 3],2,185.71647023759002,134.91746116417488,194.69914687618996
5,10427.4375,2429.0,[2],1,176.9385065841948,383.78137006335544,461.1700951216438
5,11325.21875,6851.0,[4],1,408.01885725165084,502.01341309632437,743.7512823979663
5,30888.8125,20272.0,[5 7],2,453.06779153455864,136.18716727941518,387.7207301996466
5,9167.5625,5017.0,[8],1,457.4356358355858,378.40015066709395,601.9188340684879
5,10552.90625,6771.0,[9],1,387.16008030962973,174.09957861134296,403.5966306674997
5,7548.21875,3806.0,[10],1,308.8272729907257,290.21066642378435,756.5703208124457
6,50770.15625,23573.0,[0 6],2,265.79217490590185,526.7971969260988,527.8531586900474
6,37959.421875,16518.0,[1 3],2,202.51025457694823,135.33878940628628,198.356460002725
6,9610.71875,4397.0,[2],1,193.71169397450217,398.07794032054045,447.67257099007196
6,29045.90625,17112.0,[4 5],2,459.0111655149329,296.3822273792885,681.2871644992997
6,20138.109375,10965.0,[7],1,460.5179157365679,145.84588610369445,202.63234585545575
6,10062.78125,5479.0,[8],1,479.13482076587763,377.7054694123452,599.6595887071479
6,13987.453125,8711.0,[9],1,408.4226745621344,172.2535363724408,404.6201014972113
6,7019.109375,3245.0,[10],1,330.22265111091326,290.76948197220554,730.4442581969356
