time,cumulative size,size,pcore_ids,pcore_power,SCA-1,CD11b,Ly6C
-1,0,0,[],0,0.0,0.0,0.0
0,36699.0,36699.0,[1 3],2,186.13915910515533,138.2925965285164,204.93727349518946
0,17138.0,17138.0,[2 4],2,203.66898121134375,439.11261524098626,584.6739409499355
1,6508.0,4401.0,[0],1,258.41379840196527,348.4960049170254,743.085356484327
1,51792.5,33443.0,[1 3],2,182.5862914514686,139.27817734227978,201.5836173191088
1,44460.0,31770.0,[2 4 6],3,191.9826698155661,426.8621007647338,553.0737404408453
2,8122.0,4868.0,[0],1,281.4213863580368,350.80066486087145,727.7428896823446
2,65276.25,39380.0,[1 3],2,181.31303881580587,145.25913329886413,193.70700292985518
2,51426.0,29196.0,[2 4 6],3,202.00238692490302,435.2467915062415,523.0820061836428
3,8488.0,4427.0,[0],1,288.37738572101574,351.8496112158328,746.891950400563
3,64241.125,31603.0,[1 3],2,179.8107929305443,143.94777099560494,197.1314850884069
3,52383.0,26670.0,[2 4 6],3,200.85873995380354,447.8376715728379,530.5737476853122
3,7672.5,5480.0,[9],1,357.22940697295326,172.285565330727,281.8790159661142
4,9061.0,4817.0,[0],1,335.69215594304836,358.5172442335276,757.2532212228219
4,54332.5625,22212.0,[1 3],2,186.48759319055054,145.02552451856167,200.3537231931587
4,51196.5,25005.0,[2 4 6],3,213.0013514107429,453.8802139794694,522.9835694334517
4,10903.25,7067.0,[9],1,388.35634443858305,164.35562790910998,255.67600256804204
5,18030.3125,10854.0,[ 0 12],2,396.15686084198114,400.8896788394547,711.2869854585161
5,45423.28125,18257.0,[1 3],2,199.2398866220187,143.45478812145558,202.79590862339944
5,41876.25,16278.0,[2 4 6],3,221.53793244977805,467.6273588848054,517.4627660368297
5,19075.625,13624.0,[9],1,446.08431735526517,151.48841781068614,231.7176337603611
5,8244.25,5971.0,[11],1,540.1411817327285,131.9744632622736,623.2045478666946
6,20510.15625,11495.0,[ 0 12],2,429.6732746733661,419.63664190759096,697.9452100712301
6,40526.640625,17815.0,[1 3],2,217.01598177125004,145.14110972527791,208.3446509915354
6,63700.984375,29336.0,[ 2  4  6 13],4,269.5155456536057,500.1697047460262,527.4899409178051
6,6577.875,4342.0,[8],1,477.37007582235947,264.5923621800355,431.43727790129947
6,20921.8125,11384.0,[9],1,451.0233794574455,149.9824226510007,228.99289168899722
6,11538.125,7416.0,[11],1,532.3218866800331,134.43096121553526,617.8939859704255
