time,cumulative size,size,pcore_ids,pcore_power,SCA-1,CD11b,Ly6C
-1,0,0,[],0,0.0,0.0,0.0
0,22342.0,22342.0,[0 1],2,166.9814251186138,141.03083877898175,250.49843344373767
0,12814.0,12814.0,[6],1,173.93038863742905,118.6065241142499,107.56469486499178
0,11335.0,11335.0,[2],1,269.07781208645537,461.77715041905424,718.2532862814302
0,19903.0,19903.0,[3],1,186.5244435512244,437.03929055921316,542.3861729387554
0,7276.0,7276.0,[4],1,369.8613249037902,153.8400219901045,291.4010445299614
0,6029.0,6029.0,[5],1,171.4894675733959,212.5135179963506,582.758002985568
0,10276.0,10276.0,[7],1,352.86327364733074,203.03162709225393,681.9798559750867
1,10194.5,6495.0,[0],1,209.13296385305836,201.90955907597348,301.53881995193416
1,39782.5,25904.0,[1 6],2,156.03098095896763,117.91688556526158,168.28692264186486
1,17886.5,12219.0,[2],1,243.157157632851,459.22645570681624,724.9356497917418
1,37580.5,27629.0,[3],1,177.09623341893055,454.6279187344536,537.0551748912224
1,7874.0,4236.0,[4],1,371.33928117855856,156.63271526543093,292.9022098044193
1,8901.5,5887.0,[5],1,165.21103184856702,210.87861596360068,595.1335168230073
1,12768.0,7630.0,[7],1,348.5767935463601,232.61227286967363,661.4105184837081
2,12229.25,7132.0,[0],1,207.91994603103353,224.26121798147852,302.2749350941382
2,51369.25,31478.0,[1 6],2,154.84431347547738,122.65404400492574,162.4422441441124
2,16606.25,7663.0,[2],1,268.16218291305677,459.15019947308826,712.423500188179
2,46039.25,27249.0,[3],1,186.45072411040772,460.22535662504924,511.2322420543297
2,9286.0,5349.0,[4],1,369.66936786559904,161.74779237561918,280.4708162825757
2,7416.75,2966.0,[5],1,183.04607813395458,197.84986685542808,589.5920045842181
2,14547.0,8163.0,[7],1,350.55765793633975,247.93653330583538,652.5627792672036
3,12019.625,5905.0,[0],1,212.8981977391147,216.2610106388511,311.4478925091254
3,51703.625,26019.0,[1 6],2,156.2066126891523,122.98722043183648,167.67199833667246
3,18367.125,10064.0,[2],1,279.5764783546668,470.9018150635999,708.2411849976497
3,51792.625,28773.0,[3],1,185.52264439193902,478.0257444954754,526.0673792841978
3,12092.0,7449.0,[4],1,404.2392387528908,174.2605028117765,267.6087495865034
3,7758.375,4050.0,[5],1,190.0652520663167,184.998469395975,627.2682423832318
3,15013.5,7740.0,[7],1,377.28025610283686,230.53700835914324,664.8961517967159
4,13283.8125,7274.0,[0],1,221.48184115064953,221.3138076888703,323.6517707171808
4,43515.8125,17664.0,[1 6],2,164.760845554708,122.76846634772107,168.02122360693517
4,20758.5625,11575.0,[2],1,328.33429879838326,484.4497421244861,693.6833023722094
4,59257.3125,33361.0,[3],1,204.67194449630156,491.2105162126635,526.0753303653207
4,14799.0,8753.0,[4],1,418.2236933238715,172.5678762078518,259.9767889722274
4,6226.1875,2347.0,[5],1,212.7600156596637,171.21211817022856,616.461859685403
4,16532.75,9026.0,[7],1,400.7337897506413,215.63379882354658,680.2386891170563
5,11803.90625,5162.0,[0],1,241.12777285061924,212.88813290091957,324.72849559865074
5,19218.71875,7443.0,[1],1,163.4390446163359,118.42750801220829,225.17789622422032
5,24232.28125,13853.0,[2],1,379.7900385977829,486.366718981524,693.0681812613076
5,55835.65625,26207.0,[3],1,223.3652208126419,507.6151949275309,522.2001330914534
5,23947.5,16548.0,[4],1,460.3036734001486,160.1118697150005,253.4994153878255
5,5524.09375,2411.0,[5],1,241.84254204592204,163.65550910500042,616.1855168551408
5,17045.1875,7063.0,[6],1,197.80116821830325,122.4834172402032,103.24018876295686
5,19579.375,11313.0,[7],1,451.47303125099324,194.9098908289978,663.8928001404566
6,12508.953125,6607.0,[0],1,267.2101956973289,210.56748353991378,322.51758552936514
6,16300.359375,6691.0,[1],1,175.7315559568784,117.67123903518252,226.52606873122863
6,26507.140625,14391.0,[2],1,416.33704184662054,483.3915035865944,683.6910024834085
6,52571.828125,24654.0,[3],1,245.13528068888863,512.5341409387273,510.7685336460646
6,26911.75,14938.0,[4],1,465.20159816344193,158.94850762213576,257.55194756936805
6,6135.046875,3373.0,[5],1,284.6026237574551,159.6172299009535,602.3540417121922
6,15122.59375,6600.0,[6],1,217.35940635183783,123.2471384910409,105.82775772178636
6,22535.6875,12746.0,[7],1,480.0815990470683,180.80721619320448,638.6548023828855
