time,cumulative size,size,pcore_ids,pcore_power,SCA-1,CD11b,Ly6C
-1,0,0,[],0,0.0,0.0,0.0
0,21583.0,21583.0,[1 3 7],3,0.2286581147147134,0.17015350400421997,0.25643935098222875
0,3465.0,3465.0,[0],1,0.24741767595700187,0.4649859943977592,0.621358992405764
0,3465.0,3465.0,[0],1,0.24741767595700187,0.4649859943977592,0.621358992405764
1,51059.0,33034.0,[ 1  3 10],3,0.2048704285920858,0.15723826814139902,0.1750494460511225
1,17754.5,13731.0,[2],1,0.21693734236074572,0.5770818538261062,0.6161195307867912
1,4011.5,2279.0,[0],1,0.24438097212088303,0.4648070620495514,0.6209339129956816
1,6388.0,4691.0,[16],1,0.21900271224838955,0.3727568588728303,0.4909851503305883
2,29430.25,16129.0,[1 3 7],3,0.22119389312132134,0.1792744990542676,0.25183803939135063
2,18754.25,9877.0,[2],1,0.23427488271198055,0.5807920038878666,0.589267145475232
2,3871.0,883.0,[ 0 14],2,0.25927002574603986,0.45287099747396686,0.6023753091775446
3,63553.75,31168.0,[ 1  3 10],3,0.20253248654649272,0.1623874640973993,0.1698981672345011
3,3240.375,1951.0,[0],1,0.2600515268424592,0.484931182375651,0.6035679419614051
3,4693.5,2758.0,[ 0 14],2,0.26423879307146025,0.46999053880715985,0.5939266039395343
4,53280.875,21504.0,[ 1  3 10],3,0.21004904103842895,0.1630625693447114,0.1713343058203491
4,4763.1875,3143.0,[0],1,0.291050423432635,0.5081141123379128,0.5819632628776894
4,4763.1875,3143.0,[0],1,0.291050423432635,0.5081141123379128,0.5819632628776894
4,6515.1875,4023.0,[7],1,0.31248981016373983,0.21477343031985457,0.31614117450901147
4,6474.6875,3366.0,[8],1,0.35577249563582114,0.3508120074279861,0.800719361665282
4,7384.6875,4874.0,[12],1,0.4793044368019701,0.19206543058039263,0.23234685026906368
4,8072.5,3778.0,[16],1,0.22907851423719897,0.40380581312735564,0.45654458377965323
5,47078.625,24217.0,[0 2],2,0.29112105701969027,0.5893940373094703,0.5621230047793243
5,44128.4375,17488.0,[ 1  3 10],3,0.22442903953037574,0.16079478605729527,0.17211302790833752
5,10595.5625,3774.0,[6],1,0.24039941527355457,0.5124822141643466,0.5091799537198044
5,9119.3125,6136.0,[4],1,0.4960937789376322,0.5270622675343198,0.7324578743675255
5,8262.65625,6238.0,[5],1,0.6100130651628499,0.1526847910287082,0.6294254414742783
5,7057.59375,3800.0,[7],1,0.3450464171018252,0.20813542976427613,0.31486308949847264
5,6542.34375,3305.0,[8],1,0.3904504767049297,0.3548811524212865,0.7937326699531425
5,15312.34375,11620.0,[12],1,0.5345498985256808,0.1735127272284006,0.2033321916311535
6,43060.3125,19521.0,[0 2],2,0.3175525493092252,0.5948984727008578,0.550370119589822
6,32653.34375,14158.0,[ 1 10],2,0.2566709608681593,0.15772441039990964,0.16269445366588373
6,10408.65625,5849.0,[4],1,0.5297814120182004,0.5417358261851767,0.7271812781267084
6,11701.328125,7570.0,[5],1,0.5973665583583394,0.15401703534095604,0.6272417257947835
6,9519.78125,4222.0,[6],1,0.25725809803854216,0.5176938297373848,0.495404573016575
6,8052.796875,4524.0,[7],1,0.37600054599286314,0.21156899962360515,0.3152966599004834
6,16901.171875,9245.0,[12],1,0.5300688388249265,0.17085028069943772,0.1997104630732576
