time,cumulative size,size,pcore_ids,pcore_power,SCA-1,CD11b,Ly6C
-1,0,0,[],0,0.0,0.0,0.0
0,24467.0,24467.0,[0],1,186.53243143826583,134.28139943597552,175.85547880818967
0,15356.0,15356.0,[2],1,219.10647303985587,165.9386558999746,302.60191456108225
0,5655.0,5655.0,[3],1,287.3713527851445,171.88753315649896,703.378956675508
0,7548.0,7548.0,[6],1,277.32154213036404,347.57498675145627,702.6136724960247
0,15873.0,15873.0,[7],1,220.50765450765462,447.14962514962485,606.4096264096263
0,11747.0,11747.0,[8],1,221.14786754064886,363.3747339746307,549.6674895718064
1,36692.5,24459.0,[0],1,172.0075083463966,128.0940382912035,164.24768004360476
1,17811.0,10133.0,[2],1,223.32892594464226,159.69400932008267,299.7666329796197
1,7079.5,4252.0,[3],1,267.29747863549625,160.836923511547,690.4576594392266
1,9575.0,7610.0,[5],1,251.16344647519517,317.6154046997382,485.09044386422704
1,14373.0,10599.0,[6],1,259.91814513323254,360.3007722813612,725.1199471230776
1,28045.5,20109.0,[7],1,193.1991585102802,493.2207305984943,592.8187053181424
1,17097.5,11224.0,[8],1,192.61617195496652,381.55230296827165,537.3797923673026
2,47035.25,28689.0,[0],1,160.6481468685768,128.42504823509915,153.03613779027347
2,20839.5,11934.0,[2],1,237.58740612778792,160.01962619064696,281.4315482617143
2,7995.75,4456.0,[3],1,285.46293343338436,159.99505987555844,678.059406559736
2,11307.5,6520.0,[5],1,283.0363917753683,335.20935219986745,472.48741985407804
2,15437.5,8251.0,[6],1,289.8048097165947,371.72608906882556,717.7157246963556
2,27587.75,13565.0,[7],1,204.299208888003,513.5214723926397,571.1042944785252
2,22748.75,14200.0,[8],1,176.25528875213314,404.95584372767956,493.9197318533983
3,52568.625,29051.0,[0],1,174.08585206480458,129.9059871739086,167.52229110044217
3,17495.75,7076.0,[2],1,261.5729748653252,159.0535701527519,281.1127488104257
3,7450.875,3453.0,[3],1,303.9746506282804,161.11507037764008,686.3304980958611
3,6591.75,938.0,[5],1,294.6862365836065,333.2529108355146,470.1262563052291
3,16506.75,8788.0,[6],1,309.8034970542312,340.23861450618676,720.3665318733256
3,38505.875,24712.0,[7],1,210.9190545598556,525.7972971656936,580.2639272578432
3,25488.375,14114.0,[8],1,193.8543257465448,382.04344627698333,503.79026713158163
4,48992.3125,22708.0,[0],1,201.43207033757028,138.9835101680488,187.51493410318167
4,14903.875,6156.0,[2],1,272.80191812532127,163.9607652372289,288.7076808883598
4,8013.4375,4288.0,[3],1,339.4578871426876,180.5437585305933,678.76917677339
4,10355.375,2102.0,[6],1,323.37423198097224,337.4036068225436,712.8784930531243
4,62502.9375,43250.0,[7],1,253.2633186240236,488.7447489967911,567.53468786965
4,19976.1875,7232.0,[8],1,216.47753731786966,370.53873831030415,503.8144853716446
5,40008.15625,15512.0,[0],1,210.91545473931043,146.23002731474287,191.4509400817476
5,7146.15625,6395.0,[1],1,506.55050136218415,157.96239237002354,544.0888239744263
5,15411.9375,7960.0,[2],1,295.71336139599447,170.42512500456147,300.6876710828872
5,8700.71875,4694.0,[3],1,372.0138961220855,173.10547619988338,679.2956257205778
5,12887.65625,11424.0,[4],1,462.3511232890041,167.3272559741028,266.1234466119468
5,13467.6875,8290.0,[6],1,382.1062612827887,368.9523860350923,712.3534803209545
5,62998.46875,31747.0,[7],1,274.2768519671353,496.53970756233304,556.0074912534876
5,12676.09375,2688.0,[8],1,218.04374375978492,377.8367966275134,500.88516523475494
6,33955.078125,13951.0,[0],1,225.99922185792397,149.53115030198407,193.41417911992977
6,12554.078125,8981.0,[1],1,488.2040285713954,157.1361870706845,534.7594469426647
6,15150.96875,7445.0,[2],1,315.9026330824523,175.41945543911163,311.58158100451664
6,9902.359375,5552.0,[3],1,405.62001322285596,174.38177770133677,661.6553536010223
6,17610.828125,11167.0,[4],1,446.7788292536641,167.2599980658205,264.0739388852561
6,16675.84375,9942.0,[6],1,421.07391773654297,392.0675809132588,689.3074319702708
6,57758.234375,26259.0,[7],1,294.6698428010906,501.0530349162855,542.7650381019654
6,10954.046875,4616.0,[8],1,234.87944666568765,394.96584025025,488.075477242285
