time,cumulative size,size,pcore_ids,pcore_power,SCA-1,CD11b,Ly6C
-1,0,0,[],0,0.0,0.0,0.0
0,10353.0,10353.0,[1],1,0.24638898566013054,0.11755538539335243,0.19455535843090818
0,15542.0,15542.0,[2],1,0.1975400473382035,0.5448889478284212,0.6044653341086824
0,5952.0,5952.0,[3],1,0.2453798930772017,0.19014578924001443,0.3502374976051915
0,11461.0,11461.0,[4],1,0.25226508265941633,0.39449533949680415,0.5194752651045301
0,9950.0,9950.0,[5],1,0.18216035232341818,0.13283214716114516,0.05775637653747615
0,9447.0,9447.0,[6],1,0.3374186918622261,0.1695862652655661,0.719511243479328
0,4628.0,4628.0,[7],1,0.4592973400794354,0.1649525610390428,0.2770087854889295
0,9108.0,9108.0,[8],1,0.11979726428920816,0.14292678407128578,0.19993290120142118
0,10655.0,10655.0,[9],1,0.34106433124712826,0.4656100103832461,0.7649095596972898
1,13670.5,8494.0,[1],1,0.2527670301300794,0.12165406039129398,0.1911583711092825
1,29082.0,21311.0,[2],1,0.18871009056917223,0.5684521197823882,0.5953514017426157
1,7422.0,4446.0,[3],1,0.23827990880437433,0.18694658231428984,0.3613496473195
1,20115.5,14385.0,[4],1,0.24844525673226137,0.4020915806241602,0.5196554485817658
1,15030.0,10055.0,[5],1,0.17904599041617456,0.13211634799781985,0.056440830291903596
1,10900.5,6177.0,[6],1,0.3107308756582113,0.1786059047895386,0.7143199230046943
1,4933.0,2619.0,[7],1,0.4597080656072221,0.17525474847114234,0.28219511160011873
1,13900.0,9346.0,[8],1,0.1228225284940645,0.14347093818158135,0.19902741503901528
1,16436.5,11109.0,[9],1,0.30904943334869955,0.45638961845897325,0.7700285711827328
2,17101.25,10266.0,[1],1,0.26004755221093345,0.1304649642913969,0.1848508709997075
2,30781.0,16240.0,[2],1,0.20487546308480975,0.5799891927367168,0.5678681780889124
2,7611.0,3900.0,[3],1,0.24323141107120166,0.19402299214461763,0.35903004501455515
2,25412.75,15355.0,[4],1,0.24437287573178235,0.42402401286880337,0.49574816001621624
2,20267.0,12752.0,[5],1,0.17626064233494448,0.1378866593644536,0.05371383621086212
2,11049.25,5599.0,[6],1,0.3254788252697989,0.18626374284530386,0.6994237130144109
2,5815.5,3349.0,[7],1,0.459793374737596,0.19143119242498674,0.2829439852295498
2,18144.0,11194.0,[8],1,0.12089109533222933,0.14886487224875672,0.19377920216589423
2,16894.25,8676.0,[9],1,0.3349197162188465,0.45242681768683785,0.7523143853750536
3,18181.625,9631.0,[1],1,0.2621229283145406,0.13340176312337143,0.18470759587009802
3,39726.5,24336.0,[2],1,0.21284006571901867,0.5943915881457136,0.5780432147178115
3,8243.5,4438.0,[3],1,0.25091696351841297,0.19163876749733288,0.3535170215096905
3,22018.375,9312.0,[4],1,0.23319374529050096,0.4302499285420477,0.49725477946940655
3,18697.5,8564.0,[5],1,0.1762106707770563,0.13840887970480298,0.053763641388166694
3,13516.625,7992.0,[6],1,0.35563171944828115,0.17924474021078282,0.7100614176013582
3,8660.75,5753.0,[7],1,0.5017322597395494,0.2112785708342746,0.2683937248062604
3,19116.0,10044.0,[8],1,0.12393884850857986,0.14968738578897656,0.19473376352835245
3,17330.125,8883.0,[9],1,0.34463840770872445,0.4538387679941996,0.7604392488979378
4,18132.8125,9042.0,[1],1,0.27750123203384713,0.1338678834407861,0.18166605477824638
4,48271.25,28408.0,[2],1,0.24302999668597916,0.6025472818280293,0.5710106800650068
4,9042.75,4921.0,[3],1,0.26920767117738686,0.1915027785314891,0.3547440289040341
4,21427.1875,10418.0,[4],1,0.23409378475543471,0.43928273544514185,0.49201917601573286
4,15119.75,5771.0,[5],1,0.18252947768480143,0.1383919142421007,0.051501858529481165
4,14643.3125,7885.0,[6],1,0.40108945022598647,0.1738294083675596,0.7102279475938768
4,10614.375,6284.0,[7],1,0.5175588873738245,0.2102283545190113,0.26294450483498044
4,15180.0,5622.0,[8],1,0.12526333344436685,0.1511583797968851,0.19674274335296205
4,18639.0625,9974.0,[9],1,0.39709927935038064,0.4695991251404896,0.7573241157173282
5,18686.40625,9620.0,[1],1,0.2994132703080843,0.1324161911442249,0.17640786753781362
5,49356.625,25221.0,[2],1,0.2687024949435745,0.6090640784376775,0.5600525853558522
5,9700.375,5179.0,[3],1,0.30697227041639524,0.1769643525291721,0.3834309603671507
5,15308.59375,4595.0,[4],1,0.2405556588329402,0.4513172997544178,0.48748865188212687
5,11940.875,4381.0,[5],1,0.1918466518613573,0.13679962706997054,0.05017512685402506
5,13374.65625,6053.0,[6],1,0.45115714015646824,0.1681331112994631,0.697448502894054
5,20266.1875,14959.0,[7],1,0.5608004798910454,0.18723838280272995,0.26969528043211927
5,11331.0,3741.0,[8],1,0.13106118778751186,0.1491631513784503,0.19825060848699425
5,24310.53125,14991.0,[9],1,0.4588640861172467,0.460701743363149,0.7540364232092579
6,19962.203125,10619.0,[1],1,0.32277112815089815,0.1350020316073785,0.1730023179645965
6,43932.3125,19254.0,[2],1,0.2958477248732318,0.6164327754285195,0.5490993179383203
6,10273.1875,5423.0,[3],1,0.34106150590138196,0.17501070204801883,0.3861987990284215
6,15637.296875,7983.0,[4],1,0.25739988134955716,0.4734624382285377,0.4775144633778976
6,9606.4375,3636.0,[5],1,0.20217838949142472,0.1376118364167267,0.05056262549964242
6,19137.328125,12450.0,[6],1,0.5044793260010353,0.16617303468383116,0.6652859952364022
6,21713.09375,11580.0,[7],1,0.5625619135052118,0.1906042700700351,0.267904818402801
6,9133.5,3468.0,[8],1,0.140499589654218,0.15062868473785046,0.20077018441984498
6,25850.265625,13695.0,[9],1,0.4888635667462378,0.4835496766715212,0.7376531873608303
