time,cumulative size,size,pcore_ids,pcore_power,SCA-1,CD11b,Ly6C
-1,0,0,[],0,0.0,0.0,0.0
0,4365.0,4365.0,[0],1,0.2697295905890836,0.4735117890666708,0.8091469652556126
0,19557.0,19557.0,[1 3],2,0.22830039303149208,0.17433134887995397,0.27235242810889126
0,12579.0,12579.0,[2],1,0.24070383044328345,0.5480484604269367,0.624311456273414
0,20979.0,20979.0,[9],1,0.2039839732723642,0.14734547087488328,0.122105030048608
0,5450.0,5450.0,[5],1,0.37486815792185957,0.371534517829715,0.6996663329314896
0,3537.0,3537.0,[4],1,0.2936615490179252,0.38250805639669583,0.5679885499331601
0,4080.0,4080.0,[8],1,0.24496915620180673,0.18249961183568503,0.6923943185291949
1,8707.5,6525.0,[0],1,0.2466091158661491,0.4571924005804519,0.7958580876762517
1,24033.5,14255.0,[1 3],2,0.22246417278504013,0.17712728848410847,0.2780500844149279
1,26188.5,19899.0,[2],1,0.21906094385283398,0.5574178011712382,0.6067221314307999
1,32110.5,21621.0,[9],1,0.19991507555808943,0.14997293353740798,0.12380269287960187
1,25552.0,17544.0,[4 6],2,0.2282247305340796,0.41981941447765564,0.543819263534216
1,6909.0,4184.0,[5],1,0.3588130447014996,0.37472771432631996,0.6831002362561837
1,5400.0,3360.0,[8],1,0.23892821473158732,0.18365436986760564,0.6983789078610888
2,8436.75,4083.0,[0],1,0.2879095037328317,0.4538833148500403,0.778697411889057
2,26956.75,14940.0,[1 3],2,0.2236538387594051,0.18481162656772923,0.27031665815093386
2,27814.25,14720.0,[2],1,0.2341102738845482,0.5621978150380879,0.5787356078973875
2,43837.25,27782.0,[9],1,0.19875057517717426,0.1591701194016971,0.12504623772830692
2,39401.5,23171.0,[4 5 6],3,0.25896298506858334,0.4230340588705567,0.5444144255641069
2,4194.0,1494.0,[8],1,0.25762016899476503,0.1859946039051699,0.6777838050539864
3,8796.375,4578.0,[0],1,0.3004843670440714,0.4397322021341171,0.7946499841011261
3,28357.375,14879.0,[1 3],2,0.22731602676928978,0.18418632627250986,0.27244659518945336
3,40160.125,26253.0,[2],1,0.23705074024422437,0.5733192941812497,0.5825581612260895
3,41965.625,20047.0,[9],1,0.196576003132584,0.15669651247772334,0.12523161240150957
3,6681.75,2687.0,[5],1,0.3819725707665003,0.3910891920942873,0.6705178017474898
3,3318.375,1399.0,[4],1,0.3018083255349939,0.38820446857081065,0.5499632831731047
3,6162.375,4488.0,[7],1,0.4587568724757008,0.21234437584160643,0.3167739773992189
3,5582.0,3485.0,[8],1,0.25808140330677687,0.18920324155211238,0.7061495688097048
3,5323.875,3571.0,[10],1,0.45562113006414057,0.17040024813518792,0.7111299589156888
4,8775.1875,4377.0,[0],1,0.3571262162121241,0.438063091044675,0.8020563047696608
4,26932.6875,12754.0,[1 3],2,0.24470445161779417,0.18754838805807456,0.27874176147520063
4,51857.0625,31777.0,[2],1,0.2648546389880007,0.5798604948024008,0.5715260862587425
4,34687.8125,13705.0,[9],1,0.2021719209129541,0.157375656107782,0.1252705943839791
4,23566.0,10707.0,[4 6],2,0.23924368341078053,0.4409999512056846,0.5040047426627456
4,7039.875,3699.0,[5],1,0.42395178269212697,0.42982075722659013,0.6681899354658498
4,8945.1875,5864.0,[7],1,0.48566572776601896,0.19627773731185838,0.2697081677545972
4,5158.0,2367.0,[8],1,0.2894860879358327,0.18350718264383958,0.6930543543404807
4,7411.9375,4750.0,[10],1,0.48595780853445825,0.16938048529164745,0.717148084283391
5,9955.59375,5568.0,[0],1,0.39753034286981054,0.44170771468363895,0.7956966770263553
5,7484.15625,4109.0,[1],1,0.3376884792720093,0.21077899045141607,0.36370049063464716
5,52829.53125,26901.0,[2],1,0.28561001985231693,0.5877046391195074,0.5594201514105409
5,45598.09375,18163.0,[3 9],2,0.22501060056418948,0.16203867036582198,0.17257839171961456
5,3707.09375,1699.0,[4],1,0.3571113232554119,0.4089386589022125,0.5259770744041834
5,9976.9375,6457.0,[5],1,0.4974031542829905,0.492368999562931,0.6888757080482323
5,13081.90625,3307.0,[6],1,0.2215774403647268,0.4600994445877342,0.4926745428431821
5,18087.59375,13615.0,[7],1,0.5367602436854069,0.1778995300200715,0.23227187895768936
5,5348.0,2769.0,[8],1,0.32625854304454543,0.1826762914816556,0.6931081551415662
5,11117.96875,7412.0,[10],1,0.5590903416264116,0.1616282502255132,0.6761695123056266
6,9713.796875,4736.0,[0],1,0.42644111570499316,0.44032491228397597,0.7690553891129939
6,10088.078125,6346.0,[1],1,0.38880808471827794,0.20530318519413507,0.37114826667634593
6,47627.765625,21213.0,[2],1,0.3083617998782247,0.5937221516380432,0.5463378219419175
6,39740.046875,16941.0,[3 9],2,0.24231802008476774,0.16255979321410965,0.17631805764786698
6,5368.546875,3515.0,[4],1,0.40080272098298453,0.4218301253687361,0.5180979601403279
6,12527.46875,7539.0,[5],1,0.5305235480985571,0.5227817710513252,0.6945922596230641
6,12179.953125,5639.0,[6],1,0.23531645416905017,0.4735328304613207,0.47802222244679227
6,20489.796875,11446.0,[7],1,0.5328397724466943,0.17574392617818954,0.22222508560422907
6,6393.0,3719.0,[8],1,0.37267932732781295,0.184661309532025,0.6713725974208977
6,14464.984375,8906.0,[10],1,0.5798010186624803,0.16177615790167302,0.6488853481329672
