time,cumulative size,size,pcore_ids,pcore_power,SCA-1,CD11b,Ly6C
-1,0,0,[],0,0.0,0.0,0.0
0,42305.0,42305.0,[0],1,200.8544616475625,146.11071977307523,219.99482330693823
0,10837.0,10837.0,[1],1,277.2883639383579,185.8477438405465,595.5143489895718
0,36788.0,36788.0,[2],1,232.74208981189315,404.5444438403844,618.9910296835858
1,57983.5,36831.0,[0],1,191.5148447403154,148.97903713987412,215.00588098338366
1,13828.5,8410.0,[1],1,258.7645803955577,206.98730881874323,601.4706945800336
1,63153.0,44759.0,[2],1,213.79405570598237,421.5470128101622,604.4398207527638
2,73985.75,44994.0,[0],1,188.92564446532123,157.81693096305727,209.40747035746512
2,13672.25,6758.0,[1],1,277.6077090456909,220.68949880231722,625.4373457185175
2,69824.5,38248.0,[2],1,224.11319808949392,425.86506527078467,570.4169596631505
3,75541.875,38549.0,[0],1,202.07015976238412,153.88577527364862,213.32008736876017
3,15738.125,8902.0,[1],1,296.6807037051728,201.06283308843896,653.5008379333628
3,77461.25,42549.0,[2],1,225.54559860575313,446.39658700317585,572.548086946675
4,68588.9375,30818.0,[0],1,219.13898833904793,155.24445177474954,217.50803017614885
4,17727.0625,9858.0,[1],1,338.1948926958402,194.18101560819744,665.5588277809709
4,88054.625,49324.0,[2],1,251.7623350278297,460.3994714928372,560.9930227968971
5,68640.46875,34346.0,[0],1,270.8972494815599,155.93279292691435,221.51668863348186
5,25473.53125,16610.0,[1],1,424.0311990509723,200.8574488470243,647.6200063055674
5,83071.3125,39044.0,[2],1,274.89761883803135,478.38161225933993,561.4785624700193
6,68025.234375,33705.0,[0],1,298.39891446533596,161.43025600564144,230.20981575081748
6,31781.765625,19045.0,[1],1,459.2981136490897,199.74731186760397,624.1366344597232
6,78785.65625,37250.0,[2],1,299.6163657645443,484.5509832651105,556.2500923192895
