time,cumulative size,size,pcore_ids,pcore_power,SCA-1,CD11b,Ly6C
-1,0,0,[],0,0.0,0.0,0.0
0,40089.0,40089.0,[ 1  3 10],3,0.21730842695228036,0.15880878281118682,0.1902098843436377
0,23773.0,23773.0,[2 6],2,0.2306795973337709,0.49254805967376764,0.5928888277646852
1,5803.5,3423.0,[0],1,0.35879665796404897,0.39531330952962906,0.6833811022954213
1,21626.0,12784.0,[1 3],2,0.2259741187521902,0.17447886698305656,0.2729126472156636
1,43349.5,31463.0,[2 6],2,0.21826036120578007,0.5100999432216728,0.5829091104977758
1,33511.5,22309.0,[10],1,0.1993785128600041,0.15020591634545982,0.12801361245301915
1,6006.5,3575.0,[5],1,0.2510622855202748,0.2071982350944844,0.7576756583485944
1,7272.0,5070.0,[9],1,0.21861580821003648,0.3438222569428889,0.5057212917839653
1,8112.0,6154.0,[11],1,0.24764684861378916,0.4712881368979073,0.7931088233549857
2,10262.0,5526.0,[0 4],2,0.3482369777010805,0.3831208314997734,0.6481830820910838
2,24534.0,13721.0,[1 3],2,0.22552819384793382,0.18240928324788527,0.2641522614042441
2,49162.75,27488.0,[2 6],2,0.23090846105680168,0.5152685393382795,0.5507117234891117
2,44940.75,28185.0,[10],1,0.19856087668989372,0.15848004548371777,0.1276186065178833
2,5623.25,2620.0,[5],1,0.2816975268710299,0.21771801101317956,0.7436205097017575
2,9210.0,5574.0,[9],1,0.22820230818968304,0.37362604462982946,0.4739161884656201
3,5748.375,2397.0,[0],1,0.3794713845607997,0.4055378575904829,0.680711402752874
3,27962.0,15695.0,[1 3],2,0.2349170654154252,0.18047122512906116,0.2616467122338621
3,57383.375,32802.0,[2 6],2,0.23282102979607305,0.5387867431135425,0.5629843454684283
3,49475.0,24193.0,[ 5 10],2,0.2093514032169274,0.1648392681984367,0.2204376943429401
3,7952.0,3347.0,[9],1,0.21768062730314738,0.37657653713570954,0.47641050576846294
3,7875.5,3977.0,[11],1,0.30228375013107606,0.45376659989410895,0.7921239737456429
4,14403.9375,7592.0,[ 0 11],2,0.38872250667646757,0.4465217549570633,0.7478535534843294
4,28026.0,14045.0,[1 3],2,0.2571960942968693,0.1809830306045806,0.2608960725619552
4,66552.6875,37861.0,[2 6],2,0.2566705307519777,0.55408734271676,0.5579512921995335
4,41711.5,16974.0,[ 5 10],2,0.22526749083155298,0.16533096022164423,0.2395669447870084
4,8216.0,4240.0,[9],1,0.2238259924455458,0.37997693325186055,0.4640354820595592
4,6809.125,4262.0,[7],1,0.488426644516395,0.20724726177184644,0.2978396829029183
4,5689.9375,3443.0,[8],1,0.5187048617637753,0.1510833405940736,0.6515051639314327
5,9698.59375,6379.0,[0],1,0.49715043609900084,0.5023772696148342,0.7057525007553845
5,14405.71875,8390.0,[1],1,0.35249198909013857,0.17630555383207488,0.27053767115181837
5,63412.34375,30136.0,[2 6],2,0.2763819559707519,0.5690287303708595,0.5501987619905347
5,39833.875,14843.0,[ 3 10],2,0.21347466985340544,0.16107023334510165,0.16315544547312136
5,7551.15625,3689.0,[5],1,0.3537496699129811,0.20158299226634374,0.7401532916540596
5,14850.5625,11446.0,[7],1,0.5475066203796936,0.18186676849561656,0.2349877174176236
5,9958.96875,7114.0,[8],1,0.5803370627860305,0.15147507390583193,0.6348680414850569
5,8692.375,4810.0,[11],1,0.39655786882826977,0.44818857629876585,0.795864382682376
6,12178.296875,7329.0,[0],1,0.5290465737603421,0.530795067949876,0.7042828603435826
6,17247.859375,10045.0,[1],1,0.3753894726412577,0.177442783892255,0.2822355358012044
6,58831.171875,27125.0,[2 6],2,0.29814438337802696,0.5733232414353591,0.535711816876137
6,33258.9375,13342.0,[ 3 10],2,0.2272036026811848,0.16206339464786684,0.16308957513207892
6,5685.703125,3860.0,[4],1,0.46722405353092283,0.356879858679433,0.5163248760063422
6,7657.578125,3882.0,[5],1,0.38707510151013186,0.200645238518741,0.7112585237872818
6,16948.28125,9523.0,[7],1,0.5422537635927855,0.17802637607450322,0.22065532522804024
6,14047.484375,9068.0,[8],1,0.5826293783783221,0.15302942077130605,0.6211445360918926
6,8927.1875,4581.0,[11],1,0.42669052410988423,0.44276723355921094,0.7662654095015036
