time,cumulative size,size,pcore_ids,pcore_power,SCA-1,CD11b,Ly6C
-1,0,0,[],0,0.0,0.0,0.0
0,4383.0,4383.0,[0],1,NA,NA,NA
0,22843.0,22843.0,[ 1 11],2,NA,135.282537319967,NA
0,4383.0,4383.0,[0],1,NA,NA,NA
1,30867.5,22294.0,[0 2 4],3,196.73585486353133,NA,NA
1,34094.5,22673.0,[ 1 11],2,182.94609101175027,137.192963674493,NA
1,5454.5,3848.0,[8],1,213.93839948666312,300.30754422953544,NA
1,6081.0,4601.0,[13],1,NA,NA,NA
2,28382.0,14481.0,[0 2],2,206.40722112606713,NA,NA
2,45321.25,28274.0,[ 1 11],2,NA,144.2631822820419,NA
2,5431.25,2704.0,[8],1,252.65850402761654,NA,NA
3,4982.375,3006.0,[0],1,NA,NA,NA
3,43980.625,21320.0,[ 1 11],2,NA,142.92809333655438,NA
3,4982.375,3006.0,[0],1,NA,NA,NA
3,6394.625,3679.0,[8],1,NA,NA,NA
3,6364.25,4778.0,[9],1,NA,NA,NA
4,54770.6875,33516.0,[0 2 4],3,NA,NA,NA
4,25952.875,12194.0,[1 3],2,NA,NA,NA
4,31702.3125,12176.0,[11],1,NA,138.06823831857773,NA
4,5841.125,3569.0,[5],1,NA,NA,NA
4,5710.3125,2513.0,[8],1,NA,NA,NA
4,8931.125,5749.0,[9],1,NA,NA,NA
4,3940.375,1542.0,[13],1,NA,NA,NA
5,54826.34375,27441.0,[0 2 4],3,NA,NA,NA
5,8736.0,5368.0,[1],1,NA,NA,NA
5,41186.59375,15727.0,[ 3 11],2,NA,142.1303640216672,NA
5,5879.5625,2959.0,[5],1,NA,NA,NA
5,5815.15625,2960.0,[8],1,NA,NA,NA
5,16608.5625,12143.0,[9],1,NA,150.85341333724566,NA
5,8343.0,6337.0,[14],1,NA,NA,NA
5,4070.1875,2100.0,[13],1,NA,NA,NA
6,48743.125,22198.0,[0 2],2,NA,NA,NA
6,11491.0,7123.0,[1],1,335.70082700591206,NA,NA
6,34965.296875,14372.0,[ 3 11],2,NA,NA,NA
6,5853.78125,2914.0,[5],1,NA,NA,NA
6,2331.046875,1463.0,[4],1,NA,NA,NA
6,18122.28125,9818.0,[9],1,NA,NA,NA
6,12027.5,7856.0,[14],1,NA,NA,NA
6,4934.09375,2899.0,[13],1,NA,NA,NA
