time,cumulative size,size,pcore_ids,pcore_power,SCA-1,CD11b,Ly6C
-1,0,0,[],0,0.0,0.0,0.0
0,3321.0,3321.0,[0],1,167.7958446251137,377.24028906955874,759.2520325203257
0,40489.0,40489.0,[ 1  3 10],3,181.64091481637197,134.83341154387676,265.59354392551035
0,20356.0,20356.0,[2 6],2,178.5806150520748,428.1944389860504,548.1569070544306
0,4162.0,4162.0,[4],1,274.0845747236893,543.2277751081227,716.0360403652078
0,3192.0,3192.0,[5],1,353.6171679197955,172.15131578947327,427.62061403508875
0,4033.0,4033.0,[7],1,377.1894371435627,131.09075130176075,214.36573270518272
0,5701.0,5701.0,[8],1,346.0596386598797,341.6435713032794,703.6358533590586
0,3905.0,3905.0,[12],1,333.31830985915093,392.30115236875844,541.0701664532651
1,6524.5,4864.0,[0],1,161.47122384857332,374.50233734385796,768.3151199325612
1,54791.5,34547.0,[ 1  3 10],3,174.66204612029557,134.57698730642585,250.31854393473427
1,38832.0,28654.0,[2 6],2,171.65797538113185,445.15858055212465,541.7965337865671
1,6831.0,4750.0,[4],1,251.00190308885948,548.4826526130865,699.3292343727105
1,3853.0,2257.0,[5],1,348.49441993251446,183.14365429535385,423.31780430833294
1,4632.5,2616.0,[7],1,364.1995682676705,129.9228278467354,207.38747976254754
1,7317.5,4467.0,[8],1,332.3606422958595,342.8557567475222,704.4710625213521
1,3819.0,2494.0,[9],1,173.51911495155989,214.17936632626382,497.9711966483376
1,6463.5,4511.0,[12],1,340.7624352131147,373.08223098940084,543.6429952811927
2,3691.25,429.0,[0],1,166.12055536742537,375.51676261429105,764.936810023705
2,66151.75,38756.0,[ 1  3 10],3,171.04823001659375,138.75051680416578,229.54204915213725
2,46786.0,27370.0,[2 6],2,182.398885350321,449.0331295686747,509.35674133287745
2,7087.5,3672.0,[4],1,267.221587301586,545.8382363315704,679.7381305114621
2,4390.5,2464.0,[5],1,345.1753786584615,192.77810044414002,405.66558478533307
2,6410.25,4094.0,[7],1,353.9495729495688,137.54904254904244,195.31129831129797
2,10255.75,6597.0,[8],1,319.771689052478,347.61519147795065,707.8064012870832
2,3402.5,1493.0,[9],1,183.1637766348291,208.00778839088937,494.3614988978694
2,7321.75,4090.0,[12],1,344.49195888960503,374.0718407484538,542.7710929764065
3,4020.625,2175.0,[0],1,170.77599875641465,360.9177988496821,773.9049277164621
3,67312.875,34237.0,[ 1  3 10],3,174.01153754018418,138.80581909478676,243.71241200141694
3,51122.0,27729.0,[2 6],2,181.45186270099228,464.22860999178425,523.7436377684712
3,9974.75,6431.0,[4],1,268.3040176445492,561.9741096268082,650.47725506905
3,5264.25,3069.0,[5],1,362.97900935555407,196.25248136011766,388.7046350382311
3,8234.125,5029.0,[7],1,390.02208795712596,148.33147116420957,195.3633355092386
3,9370.875,4243.0,[8],1,329.7557858791153,355.33898915522764,727.3058012192016
3,3056.25,1355.0,[9],1,185.74507157464402,202.804498977505,490.895214723927
3,3894.125,2893.0,[11],1,486.08272076525725,132.59743844894516,635.4661188328574
3,6499.875,2839.0,[12],1,366.40120002307145,387.27917844573847,542.9539991153688
4,58647.4375,24991.0,[ 1  3 10],3,187.43489751790315,139.37013658951423,258.09822573236784
4,54666.0,29105.0,[2 6],2,195.10783782424372,471.17499908535433,517.5911009585368
4,15451.375,10464.0,[4],1,290.83494187410184,561.98031728568,617.3475176157436
4,6668.125,4036.0,[5],1,371.06819758177426,192.04245008904329,379.1788827443996
4,10296.0625,6179.0,[7],1,407.02281211870843,147.5065771502452,190.4135743639859
4,11154.4375,6469.0,[8],1,363.47804405196854,371.4632517327738,751.0810719948886
4,2977.125,1449.0,[9],1,198.63314019398032,198.14573623882106,483.87563505059427
4,4878.0625,2931.0,[11],1,510.57493369550247,134.44958936052964,631.7022895873098
4,7480.9375,4231.0,[12],1,383.1391453277017,408.2218471949523,547.2570199256457
5,49706.71875,20383.0,[ 1  3 10],3,204.65803164185073,137.36611184981925,268.0225755446782
5,46360.0,19027.0,[2 6],2,205.95639627372842,485.0057646678182,512.3367248166423
5,18296.6875,10571.0,[4],1,306.91522030968395,561.7820336331396,594.9526109575835
5,9873.0625,6539.0,[5],1,407.033031797376,180.88901303420337,376.23342238034024
5,16802.03125,11654.0,[7],1,454.3120437447106,141.57523178931044,188.8962104656244
5,14735.21875,9158.0,[8],1,407.9751827572942,407.6728628477258,749.9285640058762
5,9081.03125,6642.0,[11],1,548.1829190655037,134.3884539544996,616.3930583324446
5,8213.46875,4473.0,[12],1,413.25718807902734,431.064775464082,537.1479353653115
6,45173.359375,20320.0,[ 1  3 10],3,226.81504654810712,139.17442560690685,279.9008434520489
6,39648.0,16468.0,[2 6],2,219.68657348731486,485.4065936491134,497.4462591114218
6,18928.34375,9780.0,[4],1,321.8540416405923,569.1428314350059,575.2230170693052
6,13265.53125,8329.0,[5],1,425.38735727225196,178.5817108248114,377.8449541457307
6,18246.015625,9845.0,[7],1,456.67354174070294,140.5055649992074,189.7412611486236
6,17191.609375,9824.0,[8],1,439.4146363187689,431.32159674550394,730.8567478866383
6,12555.515625,8015.0,[11],1,544.8035997625614,136.61325637512354,613.3439312652705
6,9639.734375,5533.0,[12],1,426.9314215413702,436.67619536975013,526.2646970627738
