time,cumulative size,size,pcore_ids,pcore_power,SCA-1,CD11b,Ly6C
-1,0,0,[],0,0.0,0.0,0.0
0,6204.0,6204.0,[0],1,0.2660608596121388,0.4507553877078275,0.8326914599245547
0,37229.0,37229.0,[1 3 6],3,0.20395571773967583,0.14203184667623406,0.17338828287285393
0,22379.0,22379.0,[2 4],2,0.20647702927754996,0.5082489866570563,0.594338611474664
0,4289.0,4289.0,[5],1,0.24597651164070083,0.4116963947549716,0.3823667630614586
0,4032.0,4032.0,[7],1,0.22394356384876093,0.16695564443726216,0.6105885654187435
0,6613.0,6613.0,[8],1,0.42446373078562605,0.40845041270006294,0.6400174522949821
0,5695.0,5695.0,[9],1,0.3900807923370565,0.15547634465415813,0.743821896674103
1,11128.0,8026.0,[0],1,0.24007509147893016,0.44166736470067774,0.822663271204161
1,51032.5,32418.0,[1 3 6],3,0.19782484944326822,0.1416861271751902,0.16622837514457764
1,41054.5,29865.0,[2 4],2,0.19573467770507022,0.5269200983198109,0.582931683971284
1,6470.5,4326.0,[5],1,0.23535162609214386,0.41158874194438305,0.3762181592008546
1,5704.0,3688.0,[7],1,0.21397688592275269,0.16958548577484742,0.6177948815663266
1,10231.5,6925.0,[8],1,0.41251395365819704,0.4018409896860521,0.6225958699753258
1,5387.5,2540.0,[9],1,0.3770477853958633,0.15972630208606717,0.7431432572512264
1,3989.5,2212.0,[10],1,0.47074849570008503,0.18945064504732106,0.3273681107785454
2,10657.0,5093.0,[0],1,0.2816424136480421,0.4423954238222956,0.8026367018718746
2,63965.25,38449.0,[1 3 6],3,0.19540214711912182,0.14710842094851423,0.15586820008208468
2,44300.25,23773.0,[2 4],2,0.20714759326503612,0.5381866761167853,0.5575283885151523
2,11205.25,7970.0,[5],1,0.22718163060102603,0.4267621956458056,0.3824530131710735
2,11395.75,5850.0,[7 9],2,0.307797160729395,0.174760193304581,0.67323659374243
2,11066.75,5951.0,[8],1,0.4116542289472669,0.40825839642146733,0.6162688973365348
2,4908.75,2914.0,[10],1,0.4625864155672447,0.2051714145139747,0.32515722628391397
3,11148.5,5820.0,[0],1,0.2867150591629948,0.43201272232512167,0.8160744107215087
3,64567.625,32585.0,[1 3 6],3,0.1982249644235713,0.1476390011346008,0.16081998704169184
3,53111.125,30961.0,[2 4],2,0.21139613701090804,0.5584152833145075,0.5666219933107483
3,8689.625,3087.0,[5],1,0.22640275687153216,0.41431629699353356,0.3886882165913941
3,5486.5,2807.0,[7],1,0.233349810617891,0.16980732839511822,0.6211750364378873
3,9933.375,4400.0,[8],1,0.43079060589491386,0.4277378549290521,0.6217242113891154
3,8107.375,5089.0,[9],1,0.4199051321527022,0.16917779319273818,0.7324912725706765
3,7705.375,5251.0,[10],1,0.5030353829690224,0.2192043545438954,0.28999076766005316
4,10746.25,5172.0,[0],1,0.3475419894318988,0.4388812760633622,0.821705867769171
4,56954.8125,24671.0,[1 3 6],3,0.21307982761269917,0.14854429553253293,0.16480746554995176
4,60939.5625,34384.0,[2 4],2,0.23558059118183405,0.5735739084603104,0.5616006047943203
4,9334.8125,4990.0,[5],1,0.2333163140602803,0.40186321927749585,0.39576643713088017
4,5043.25,2300.0,[7],1,0.2599738804286726,0.16481134453941687,0.6046054634096575
4,11241.6875,6275.0,[8],1,0.4512669754799385,0.46559824231111635,0.6295123123825607
4,10158.6875,6105.0,[9],1,0.45490295812150855,0.16747983964530758,0.7314231906596996
4,9955.6875,6103.0,[10],1,0.5146836060551759,0.21623305546458366,0.27341568656845583
5,11664.125,6291.0,[0],1,0.38464739669809445,0.44539932212769184,0.8155449567357642
5,49369.40625,20892.0,[1 3 6],3,0.23460417208836354,0.14553726533214734,0.16762106844026226
5,57312.78125,26843.0,[2 4],2,0.25628685879838947,0.588224860283023,0.553399690711989
5,7138.40625,2471.0,[5],1,0.25075452107386526,0.41127798078747896,0.38792980086184
5,5181.625,2660.0,[7],1,0.2964495393049675,0.16218568366092623,0.5907411603137407
5,14187.84375,8567.0,[8],1,0.5006979041912502,0.5071846810058447,0.6522269711006795
5,13535.34375,8456.0,[9],1,0.5249216529166435,0.1610084948017836,0.6984924768461858
5,18797.84375,13820.0,[10],1,0.5530475317672134,0.19185488091393443,0.25095634498991437
6,28157.984375,15232.0,[0 8],2,0.48210376421275314,0.4952625563457149,0.7138600891696887
6,45175.703125,20491.0,[1 3 6],3,0.25820319192612434,0.14648130611255764,0.17159046136677725
6,51532.390625,22876.0,[2 4],2,0.27865352269357224,0.5949982875850025,0.5408337394820557
6,8083.203125,4514.0,[5],1,0.28358411165475494,0.4328564712354895,0.38788593928614085
6,6928.8125,4338.0,[7],1,0.34794622611227605,0.16688010129353226,0.572491879666563
6,17101.671875,10334.0,[9],1,0.5551786380699073,0.1622239551915951,0.6685310482497855
6,21613.921875,12215.0,[10],1,0.552205571083176,0.19131399673984217,0.25544508371750113
