time,cumulative size,size,pcore_ids,pcore_power,SCA-1,CD11b,Ly6C
-1,0,0,[],0,0.0,0.0,0.0
0,6068.0,6068.0,[0],1,233.9527027027029,403.6634805537241,791.4174357284118
0,37946.0,37946.0,[1 3 6],3,185.3148421441008,125.46373794339351,200.10443788541576
0,22587.0,22587.0,[2 4],2,183.53402399610525,447.2010448488097,574.0307256386402
0,6621.0,6621.0,[8],1,375.6911342697409,364.1685545990027,625.3732064642794
0,5206.0,5206.0,[9],1,361.3958893584294,136.9281598155974,707.9669611986163
1,10940.0,7906.0,[0],1,213.30077696526527,394.41032906764195,782.2829524680068
1,51793.0,32820.0,[1 3 6],3,179.00178595563256,125.16182688780361,193.27502751336988
1,41425.5,30132.0,[2 4],2,174.0433670082461,463.9071344944552,564.6834679122755
1,6128.0,4085.0,[5],1,210.22470626631903,363.3200881201051,375.49151436031315
1,6013.5,3852.0,[7],1,189.29417144757795,150.5141764363517,627.4239627504763
1,10111.5,6801.0,[8],1,365.1759382880801,357.78875537753976,607.9763635464565
1,4777.0,2174.0,[9],1,351.8590119321724,139.9403391249736,705.8664433745032
2,10418.0,4948.0,[0],1,249.88579861777612,393.6965348435397,764.6842724131325
2,64812.5,38916.0,[1 3 6],3,176.76430858245203,130.03504339440738,183.70818514946848
2,44887.75,24175.0,[2 4],2,184.09598944032788,473.7995221413427,541.9424787386293
2,10643.0,7579.0,[5],1,203.31678098280665,377.1464577656665,382.12139434369976
2,11039.25,5644.0,[7 9],2,274.51090427338653,154.69003781959827,655.6004257535602
2,11013.75,5958.0,[8],1,364.0611281352783,363.6201566224024,602.8779934173192
2,4684.75,2780.0,[10],1,405.1422701318074,194.36634825764406,370.99428998345735
3,10935.0,5726.0,[0],1,255.54276406035572,384.0674211248282,776.7560470964786
3,65752.25,33346.0,[1 3 6],3,180.82992407104203,130.55632506872388,187.47433547901264
3,53572.875,31129.0,[2 4],2,187.80866949925823,492.08249977250705,550.5871441471025
3,8191.5,2870.0,[5],1,202.7682658853704,366.2054416163087,387.20429713727685
3,5874.875,3094.0,[7],1,205.85537990170053,151.62726866529027,627.8178684652855
3,9792.875,4286.0,[8],1,379.26166983648125,382.01210063438907,607.7346795501845
3,7442.75,4704.0,[9],1,386.8189345336055,149.52574653186025,698.1411440663736
3,7187.375,4845.0,[10],1,444.8883111010615,205.8037705003567,337.96619071636155
4,10568.5,5101.0,[0],1,309.5109109618164,387.67153569569786,782.0360209585064
4,58524.125,25648.0,[1 3 6],3,196.09274273643754,131.33911976471214,190.28801690755625
4,61347.4375,34561.0,[2 4],2,209.22070604008456,505.7107743905344,546.3401486818314
4,8896.75,4801.0,[5],1,208.6338410093589,353.93654283867744,394.26183718773797
4,5405.4375,2468.0,[7],1,232.9958143998511,145.8517696301176,612.490432088059
4,11231.4375,6335.0,[8],1,398.8237536379392,415.07726637841233,615.4473881905145
4,9283.375,5562.0,[9],1,412.9136561326,148.2284594772914,700.3412013411071
4,9117.6875,5524.0,[10],1,458.9822323368742,202.78282596327242,325.403330065875
5,23225.96875,12326.0,[0 8],2,402.5703368131808,392.52470362511684,695.469517552416
5,36072.71875,16033.0,[1 3],2,186.81940732565658,128.25591015370816,184.37876702182217
5,62833.71875,32160.0,[2 4],2,244.31581321533574,512.0299053205432,549.1725103808101
5,7573.375,3125.0,[5],1,255.1976579134137,338.5830582468182,412.0833182035757
5,33433.1875,19652.0,[ 6 10],2,400.4659572916885,149.40015441243833,261.75800243395923
5,14048.40625,6704.0,[7 9],2,389.4130917875463,148.41964724646286,652.2580007963546
6,26014.984375,14402.0,[0 8],2,432.72103757509547,420.8328973866617,688.9281724054475
6,31324.359375,13288.0,[1 3],2,195.07198521119233,128.7718493843897,186.32941964595142
6,55791.859375,24375.0,[2 4],2,258.14139747649966,520.4951198357543,533.6954147936494
6,7837.6875,4051.0,[5],1,271.5587705238282,359.7654581628811,401.17633549436596
6,37491.59375,20775.0,[ 6 10],2,421.8547449386583,153.62907018323267,266.26355908116113
6,6307.359375,3906.0,[7],1,316.5583185316711,142.86519963039208,592.4562824676526
6,13825.84375,9203.0,[9],1,491.15870979845465,144.9422277573476,645.3537419732512
