time,cumulative size,size,pcore_ids,pcore_power,SCA-1,CD11b,Ly6C
-1,0,0,[],0,0.0,0.0,0.0
0,33014.0,33014.0,[0 3 5],3,0.21952998489575157,0.4798751222229325,0.6096338558130766
0,21335.0,21335.0,[1 4],2,0.33796183409125924,0.16193596654107584,0.4600150426722288
0,28393.0,28393.0,[2],1,0.17518853555058542,0.1388641694076344,0.14613207700351338
0,7256.0,7256.0,[6],1,0.43111365410105507,0.39812815232954274,0.6268015963441961
1,15422.5,11014.0,[0],1,0.18961633102081984,0.38226184197883384,0.47854434901715986
1,95458.5,62388.0,[1 2 4 5],4,0.2187707194131626,0.27853559921575954,0.36249905260314524
1,13052.0,9160.0,[3],1,0.24834000213493398,0.4826700854084543,0.8040414152879669
1,11066.0,7438.0,[6],1,0.41814084847400973,0.3933559788942196,0.6081582483233828
2,21087.25,13376.0,[0],1,0.195124789847855,0.4120029693480489,0.45579174561645586
2,112306.25,64577.0,[1 2 4 5],4,0.22219775005768633,0.2767731656505449,0.33136800188297294
2,24106.0,12047.0,[3 6],2,0.35210827972335235,0.43532166143649886,0.6956941589826822
3,31225.125,14545.0,[0 3],2,0.2335490106304411,0.4336237436854949,0.6005023874282343
3,76152.5,45274.0,[1 4 5],3,0.2778944341797904,0.4018851250490036,0.5037679108318281
3,50190.625,24916.0,[2],1,0.16876092481683821,0.1441324661267384,0.13806787846280372
3,11181.5,5265.0,[6],1,0.45655269513697544,0.3997673086584713,0.5962257370714655
4,31421.5625,15809.0,[0 3],2,0.2658665834679972,0.43806637757804695,0.6018037743390136
4,89687.25,51611.0,[1 4 5],3,0.3035575262614356,0.4138750204661047,0.4988177325945219
4,41542.3125,16447.0,[2],1,0.17507389455515904,0.14456237570894484,0.1392611622438387
4,11723.75,6133.0,[6],1,0.48466201087535343,0.41891779869246676,0.595446486262374
5,13234.90625,3903.0,[0],1,0.21053342963058247,0.42725547501889116,0.45367062385586177
5,49644.46875,30308.0,[1 4],2,0.4471191165931468,0.1637206600361433,0.3838797810702787
5,85675.3125,39397.0,[2 5],2,0.23602360197684358,0.4193993407051339,0.3914655588754631
5,28632.75,16392.0,[3 6],2,0.47091477195860226,0.45878622673084524,0.7040825111218078
6,13139.453125,6522.0,[0],1,0.23327622839082088,0.44617002904445613,0.44208654922034296
6,74627.671875,42166.0,[1 3 4],3,0.468830194684251,0.24073077614054297,0.4805434547244796
6,30049.078125,12912.0,[2],1,0.20688521211282326,0.14325030984085257,0.1459296348628737
6,14158.9375,7482.0,[6],1,0.5549515006377984,0.44051214129276867,0.5838317658087147
6,46618.578125,20918.0,[5],1,0.2918394154365471,0.6096250922821589,0.5460734722920779
