time,cumulative size,size,pcore_ids,pcore_power,SCA-1,CD11b,Ly6C
-1,0,0,[],0,0.0,0.0,0.0
0,6159.0,6159.0,[1],1,0.2571970132317552,0.19293088362026198,0.2548400931369204
0,27015.0,27015.0,[ 2 10 11],3,0.19570001684457664,0.2275385385863226,0.2523880365069809
0,9055.0,9055.0,[12],1,0.12421407255288025,0.14865390237138082,0.2098373094882924
1,7848.5,4769.0,[1],1,0.2477569248543165,0.19719672923638573,0.25882628615712966
1,20008.5,13126.0,[ 0 11],2,0.20266038618980403,0.21650674029148448,0.1448265333558408
1,12510.5,8452.0,[0 3],2,0.2907138677668044,0.5501762230133924,0.5476568502057366
1,13407.0,9834.0,[5 8],2,0.16529533875897864,0.36708840893880285,0.6289634790056646
1,38428.5,27565.0,[10 12 16],3,0.1538887263710132,0.40610690465462773,0.45350913896061185
1,7857.5,5305.0,[13],1,0.4232176371962585,0.3887846006999667,0.6275381995695861
2,40695.5,25646.0,[ 0  2  3 15],4,0.27626839866760455,0.3893311410964042,0.4441760536773751
2,9564.25,5640.0,[1],1,0.24709285779528423,0.20799420139833125,0.25516325440071086
2,20527.0,12924.0,[11],1,0.1695438126709557,0.1424015786954918,0.05733537110067395
2,9244.25,5387.0,[5],1,0.1622502964946673,0.38589911033114854,0.4616594267682047
2,41394.25,22180.0,[10 12 16],3,0.15357846680247603,0.3897179032532801,0.41407339896483697
2,8150.75,4222.0,[13],1,0.4272267630985837,0.3955583231312984,0.6138135661474335
3,44665.75,24318.0,[ 0  2  3 15],4,0.28102753177833295,0.40848560460006156,0.4629774234845871
3,10209.125,5427.0,[1],1,0.24703761794946355,0.20091525730602247,0.26011588065471686
3,35831.875,17524.0,[10 11],2,0.1760625024130558,0.3176136811629165,0.2881870172967742
3,8108.125,3486.0,[5],1,0.16346546890387342,0.38532444516683106,0.4619130155022998
3,5532.125,3279.0,[6],1,0.32845202168233933,0.1972886769861389,0.7823248727454605
3,3845.125,2849.0,[4],1,0.556932844704501,0.14950080028760582,0.6405218072894628
3,29680.75,17028.0,[12 16],2,0.13988802374179693,0.35457741894579986,0.3656706229039765
3,7099.375,3024.0,[13],1,0.4467803088379083,0.41333857698103704,0.61199564879041
4,47237.8125,28426.0,[0 2 3],3,0.2866351250311347,0.44751195729967175,0.4369991028165067
4,10466.5625,5362.0,[1],1,0.2537391110065928,0.2019856853995176,0.2619996253580107
4,14940.25,5634.0,[11],1,0.17598194982297843,0.14254503383424535,0.053972768066592854
4,7617.0625,3563.0,[5],1,0.17066759585890937,0.38339731148807676,0.45187680950945036
4,13268.375,7904.0,[ 6 14],2,0.37448601859430464,0.2033639467029568,0.5952409245547046
4,4718.5625,2796.0,[4],1,0.5839809394911647,0.15207661303493694,0.6374369718609716
4,28478.625,13512.0,[10 16],2,0.18253289809659973,0.5627813828935659,0.5510947549543831
4,13134.4375,4651.0,[12],1,0.12039921107557398,0.15200241386440191,0.2004518937538998
4,16110.75,9040.0,[13 15],2,0.4327683056553531,0.46876165355149446,0.7240949098263901
5,50817.90625,27199.0,[0 2 3],3,0.30332434536433267,0.46470661457760337,0.4382120045449108
5,9330.28125,4097.0,[1],1,0.26339698037541637,0.19794320492459513,0.2623719559522384
5,42487.375,25478.0,[ 4  9 12 13],4,0.4587433763783997,0.22002915585291102,0.36068353948534015
5,15444.1875,8810.0,[ 6 14],2,0.4060303813255025,0.20144611178109664,0.5598202465748789
5,34401.4375,12692.0,[10 11 16],3,0.18694634996451587,0.42672520627348376,0.3781573535465181
5,11981.53125,7560.0,[15],1,0.46006168904441425,0.5119014919844634,0.8101982379490529
6,61824.09375,31750.0,[0 1 2 3],4,0.31329809199111697,0.4291067297057799,0.40311487642125404
6,46110.6875,24867.0,[ 4  9 12 13],4,0.4958391008452004,0.2243358282255487,0.3872620371977674
6,18104.09375,10382.0,[ 6 14],2,0.4370810527501256,0.2038820897416622,0.5159541935589266
6,26076.71875,8876.0,[10 11 16],3,0.1952862242926668,0.4215212425884716,0.3642203146902781
6,13795.765625,7805.0,[15],1,0.49550404761699246,0.5267548288179359,0.7879204678235361
