time,cumulative size,size,pcore_ids,pcore_power,SCA-1,CD11b,Ly6C
-1,0,0,[],0,0.0,0.0,0.0
0,6635.0,6635.0,[0],1,189.3382064807842,353.0477769404686,501.56352675207233
0,12288.0,12288.0,[ 1 10],2,242.38859049479078,124.43579101562521,294.4865722656254
0,20704.0,20704.0,[ 2 11],2,142.28298879443932,121.22353168469887,154.81356259659992
1,10857.5,7540.0,[0],1,179.45793230486007,350.52553534423356,494.5300483536731
1,22651.5,14031.0,[ 1  7 10],3,233.8666534225099,216.61947332406248,390.8590601063944
1,40523.5,27625.0,[ 2  5 11],3,132.4302441793077,198.80774118721254,251.4171283329422
1,6145.5,3784.0,[10 12],2,229.37694247823583,228.76112602717427,427.6147587665766
1,6342.0,3953.0,[8],1,193.41595711132277,187.3564333017975,738.9629454430766
1,3773.0,2667.0,[3],1,382.84243307712137,347.92168036045535,461.23681420620227
2,15016.75,9588.0,[0],1,185.2530840561396,369.70765977991283,469.4515124777332
2,34467.0,19306.0,[ 1  7 10 14],4,227.98645806133393,199.34673745901904,351.6816302550264
2,49905.75,29644.0,[ 2  5 11],3,131.75486792604465,193.6250782725447,227.61928234722419
2,7351.5,4339.0,[4],1,290.359586478947,376.33976059307594,764.412126776849
2,4367.5,2481.0,[3],1,385.00658271321686,341.58311390955856,461.4084144247283
3,12521.375,5013.0,[0],1,182.4368030667587,367.6244621696909,468.89618751934097
3,38527.5,21294.0,[ 1  7 10 14],4,229.60858153267085,214.75642073843443,358.7421030432808
3,49953.875,25001.0,[ 2  5 11],3,130.14611479089945,205.4170847606924,241.50948249760322
3,7754.75,4079.0,[4],1,287.5450852703164,372.7960121216015,781.0673297011499
3,6730.0,4102.0,[8],1,221.91433878157542,187.69541233283795,739.6392644873704
3,4643.0,3120.0,[6],1,460.55292914064233,128.00239608012052,650.0342181779027
3,4164.75,1981.0,[3],1,419.7277447625863,344.21564919863096,438.9751185545367
4,11949.6875,5689.0,[0],1,187.22822772562313,366.76832553152445,462.1485289887268
4,43809.75,24546.0,[ 1  7 10 14],4,243.7559975233809,244.36482746420668,375.82524866040126
4,40805.9375,15829.0,[ 2  5 11],3,132.7551995343862,217.44555403242526,249.23743634121695
4,8569.375,4692.0,[4],1,334.98430457296575,371.15191452118717,786.6783677339353
4,27317.5625,16070.0,[15],1,223.33633125210088,554.6230561383351,548.8992269167495
4,5997.5,3676.0,[6],1,481.12240516882053,128.10913922467682,654.5047832430179
4,7717.875,4329.0,[13],1,401.77544822894197,408.73935506858925,641.1419027258142
5,7502.84375,1528.0,[0],1,191.35789763048356,370.01269518640737,457.8001840968624
5,40472.84375,20794.0,[ 1  7  8 10],4,272.01973005047023,262.4951151659567,438.7073755473379
5,57669.8125,29664.0,[ 2  5  6  9 11],5,300.9708892325637,184.51357350086732,305.5312067513647
5,8938.6875,4654.0,[4],1,353.9142701319345,373.2138492088469,778.622920730813
5,9756.53125,4515.0,[14],1,243.29825213238468,162.36259685018717,315.34241165373214
5,10578.9375,6720.0,[13],1,453.5534257339149,445.80550976881995,667.8994493775936
6,65376.75,31794.0,[ 1  7 14 15],4,267.84768333160997,375.5023957293702,415.8547601020232
6,68996.375,34872.0,[ 2  5  6  9 11 13],6,370.8925584405725,230.84670616753377,393.49284609155217
6,7624.09375,4700.0,[3],1,495.3658119202689,298.6448409851982,408.50497190239855
6,8027.34375,3558.0,[4],1,365.90902579074765,372.89682335766497,754.6215377128968
6,27328.640625,10933.0,[ 8 15],2,262.9481404867695,487.9473497641291,564.3392577498521
