time,cumulative size,size,pcore_ids,pcore_power,SCA-1,CD11b,Ly6C
-1,0,0,[],0,0.0,0.0,0.0
0,5646.0,5646.0,[0],1,247.50318809776851,419.64204746723317,791.990435706695
0,30772.0,30772.0,[1 3],2,158.96639802418008,123.95326920577169,186.47504224619726
0,9476.0,9476.0,[2],1,209.4420641620953,525.1680033769549,607.7195018995351
0,12527.0,12527.0,[4],1,162.85024347409873,391.9031691546291,554.5670950746375
0,5718.0,5718.0,[5],1,231.9053864987743,162.10668065757244,726.2521860790476
0,8016.0,8016.0,[7],1,343.57198103792075,137.67914171656705,250.320608782435
0,6619.0,6619.0,[9],1,375.1701163317653,358.36062849372934,615.4994712192164
1,10173.0,7350.0,[0],1,221.39511451882447,410.01469576329555,781.5260001965953
1,43520.0,28134.0,[1 3],2,156.56261488970853,124.14271599264767,181.9889705882342
1,19200.0,14462.0,[2],1,192.63205729166768,538.5969270833333,595.653489583332
1,21386.5,15123.0,[4],1,155.90692726720488,399.5503004231668,539.9492203025263
1,7286.0,4427.0,[5],1,215.20704090035713,169.27449903925296,723.1789733735927
1,5410.5,3503.0,[6],1,218.25986507716487,395.84992144903464,373.380186674059
1,8897.0,4889.0,[7],1,340.2794762279381,135.92649207598097,242.5937956614589
1,5993.0,3887.0,[8],1,223.84481895544738,185.20849324211568,455.6354079759682
1,10252.5,6943.0,[9],1,366.6057546939691,353.63760058522234,599.8337478663727
2,10056.5,4970.0,[0],1,258.25249838412896,405.7209516233279,762.9857306219856
2,54689.0,32929.0,[1 3],2,153.64949989943491,128.6311049754068,173.99839090127696
2,43391.25,23098.0,[2 4],2,183.05392216172802,474.53038919137043,544.5894621611471
2,10606.25,7901.0,[6],1,207.5389982321751,403.44721272834397,386.37508544490265
2,7210.0,3567.0,[5],1,241.04635922329967,178.10069348127553,710.145214979194
2,11198.5,6750.0,[7],1,335.7779390096848,144.4944412198063,232.87918024735444
2,6135.5,3139.0,[8],1,234.76489283676793,190.02448863173404,448.19273082878124
2,11148.25,6022.0,[9],1,366.6183257461869,358.57213015495586,593.3061915547279
3,10268.25,5240.0,[0],1,266.5057945609027,401.86043142697065,773.8274779051911
3,55090.5,27746.0,[1 3],2,155.5519690327772,128.65176845372662,178.67349179985567
3,52499.625,30804.0,[2 4],2,186.9987880865831,492.48083914885177,552.1868156201056
3,7835.125,2532.0,[6],1,210.1252054051477,399.01916051115876,389.0882883170342
3,8655.0,5050.0,[5],1,240.4836655112654,175.76140958983163,722.2093009820911
3,13283.25,7684.0,[7],1,369.6683887602778,156.73570097679385,229.20420454331577
3,6282.75,3215.0,[8],1,245.1020651784629,188.72239465202438,433.46993752735506
3,9929.125,4355.0,[9],1,384.2966399355362,376.97489708307523,592.6297508592152
3,4904.875,3374.0,[10],1,466.74731771961547,130.99678890899352,616.3795458599876
4,10678.125,5544.0,[0],1,324.61495463856795,405.50177933859845,779.0465086333013
4,46482.25,18937.0,[1 3],2,163.13990555534983,129.2621188733335,180.41932135384906
4,60081.8125,33832.0,[2 4],2,208.3747743961614,506.1845077909386,548.3194997654127
4,8522.5625,4605.0,[6],1,217.59249345487433,392.59888091169734,396.80949098349396
4,8852.5,4525.0,[5],1,282.4011366845497,168.95639649816462,720.3050833097974
4,15546.625,8905.0,[7],1,387.78010098654727,157.0315582964146,223.4622225081006
4,7382.375,4241.0,[8],1,265.35572901674317,185.93729152203792,420.5543100966833
4,10856.5625,5892.0,[9],1,399.92370398087905,408.3764485766089,594.2728591577684
4,5971.4375,3519.0,[10],1,492.76872193672006,132.570329589818,616.0955904671191
5,12732.0625,7393.0,[0],1,370.93640808391683,421.9513015860534,774.2659918610965
5,38427.125,15186.0,[1 3],2,176.7761688520832,126.85640839641289,180.48261481960847
5,55811.90625,25771.0,[2 4],2,226.53195190766218,520.0649340614491,542.2160202152068
5,7158.28125,2897.0,[6],1,231.38470739746333,408.2722022133436,392.9019754218244
5,8423.25,3997.0,[5],1,306.8690863087248,168.92544445433796,713.7623096785677
5,22848.3125,15075.0,[7],1,438.4314993175138,150.1991175497086,218.66637579908667
5,8240.1875,4549.0,[8],1,298.39184484576015,175.04448852043762,410.2986506678402
5,12662.28125,7234.0,[9],1,437.4441093503547,441.2958540744788,599.2824727969139
5,10883.71875,7898.0,[10],1,534.484393259432,135.97197361885148,597.2445912616023
6,13271.03125,6905.0,[0],1,394.15556086682477,430.0339637791887,753.6259474937177
6,33603.5625,14390.0,[1 3],2,192.81634108734977,127.57309678847325,182.81540833654023
6,48450.953125,20545.0,[2 4],2,245.2021119295568,527.8280203466101,533.2581957075681
6,9342.140625,5763.0,[6],1,254.23460228099228,426.06762034263204,402.235801484203
6,8569.625,4358.0,[5],1,333.15139409541894,172.15579736569612,688.6159181411117
6,24607.15625,13183.0,[7],1,447.7980243298116,150.01075906526094,219.48224284348123
6,10893.09375,6773.0,[8],1,338.6276166952056,171.96158833435211,403.11962854905306
6,14883.140625,8552.0,[9],1,467.50429544335344,458.84523175866946,603.8792373081536
6,14972.859375,9531.0,[10],1,535.3303404180322,139.49422131502453,594.4839162108924
