time,cumulative size,size,pcore_ids,pcore_power,SCA-1,CD11b,Ly6C
-1,0,0,[],0,0.0,0.0,0.0
0,15348.0,15348.0,[0 5 6],3,0.23545885274368766,0.366186818746264,0.5991627501069465
0,39496.0,39496.0,[ 1  7  8 11 12],5,0.2385975368292172,0.2799299167244848,0.3799306676146162
0,20229.0,20229.0,[2 4],2,0.14274711852658295,0.25929554564042634,0.33009061832221454
0,6965.0,6965.0,[ 3 13],2,0.4669154762576902,0.14326058216096663,0.42030147556107056
0,7960.0,7960.0,[ 9 10],2,0.42501849133306424,0.40320692830669164,0.6069660664122374
1,23690.0,16016.0,[0 5 6],3,0.22422768816311942,0.37629839804870263,0.5901624406189443
1,60738.0,40990.0,[ 1  7  8 11 12],5,0.22753055951127077,0.3186995561680315,0.40214152120454943
1,31695.5,21581.0,[2 4],2,0.13922346400501484,0.28929663781011217,0.34946109378288676
1,11874.0,7894.0,[ 9 10],2,0.4149694924043208,0.39534903439356023,0.5941825882981385
1,2693.5,1167.0,[3],1,0.47730449709349937,0.1380623874973015,0.6745038682996235
2,22158.25,13670.0,[0 6],2,0.22715495040336256,0.4257410176786226,0.47008917958206703
2,70214.0,39845.0,[ 1  7  8 11 12],5,0.23335874387866654,0.30656738136816913,0.3580662693110687
2,36962.75,21115.0,[2 4],2,0.1391716637893698,0.29037018771895,0.3252671356263225
2,8351.75,4851.0,[ 3 13],2,0.44478436363501384,0.15243479331491908,0.356146401975021
2,5835.75,2479.0,[5],1,0.25992990704813806,0.29971826797805606,0.7968793933636349
2,13977.0,8040.0,[ 9 10],2,0.4122907175753349,0.39716278391423265,0.6003607501538081
3,20274.125,9195.0,[0 6],2,0.22912220612189396,0.43288524790573224,0.4824909096379244
3,78093.0,42986.0,[ 1  7  8 11 12],5,0.2381921558665941,0.33941248398692564,0.3891704189029132
3,37925.375,19444.0,[2 4],2,0.1375955967934869,0.29515760760411,0.3288783541603234
3,12166.875,7991.0,[ 3 13],2,0.4915590948207925,0.16190462244145817,0.37022837917815005
3,7449.875,4532.0,[5],1,0.26491210639798357,0.28937133310035207,0.811343283102424
3,12840.5,5852.0,[ 9 10],2,0.4369815987773861,0.40861879418222147,0.5852586024401336
4,7742.0625,3955.0,[0],1,0.19747228427230493,0.3806946780590093,0.3925066798693554
4,98217.5,52821.0,[ 1  6  7  8 11 12],6,0.26307205145196166,0.38995211894669435,0.43462737635773785
4,31349.6875,12387.0,[2 4],2,0.13924921522814696,0.3151777729495411,0.34043745662916225
4,15563.4375,9480.0,[ 3 13],2,0.5067096720629831,0.15968254288412165,0.37200915035082327
4,7106.9375,3382.0,[5],1,0.322813728751941,0.28340447170768746,0.8112925532959837
4,14395.25,7975.0,[ 9 10],2,0.4599652146102281,0.42883743899308,0.5875767278777513
5,5341.03125,1470.0,[0],1,0.20618625403541796,0.38713586465745176,0.38227005581200807
5,87915.4375,42241.0,[ 1  6  7  8 11],5,0.27671040232792443,0.39240343272003364,0.4102086522379363
5,50543.5625,27087.0,[ 2  3  4 13],4,0.35880337774041793,0.23758070332423573,0.3529630887464089
5,11900.4375,7284.0,[9],1,0.49828231931091466,0.49645771892250745,0.6978920509077585
5,6935.46875,3382.0,[5],1,0.3555654391165697,0.28606621909496677,0.8016871901587592
5,7511.3125,4077.0,[12],1,0.4004385426513468,0.5312508271366393,0.818536416369304
5,7040.1875,4459.0,[10],1,0.52856399660576,0.34009477063704663,0.3979387141594665
6,4835.515625,2165.0,[0],1,0.22287597142761525,0.40036054286009776,0.3666628699495369
6,86112.71875,42155.0,[ 1  6  7  8 11],5,0.30077481083380164,0.39110521886689925,0.4077275530293258
6,31960.46875,14897.0,[2 3 4],3,0.3405498173189886,0.2557664694527384,0.4687644508992278
6,32977.53125,18819.0,[ 9 13],2,0.5294151164316846,0.3157445216678165,0.41554837010669754
6,6348.734375,2881.0,[5],1,0.3849127398683282,0.2939149721193468,0.772506059906161
6,7043.65625,3288.0,[12],1,0.41452160839004454,0.5354267222859074,0.7985161479937812
6,9315.09375,5795.0,[10],1,0.5418680970653398,0.31667529343576345,0.39517991196111474
