time,cumulative size,size,pcore_ids,pcore_power,SCA-1,CD11b,Ly6C
-1,0,0,[],0,0.0,0.0,0.0
0,5655.0,5655.0,[0],1,247.47126436781627,419.4834659593277,791.9915119363401
0,30461.0,30461.0,[1 3],2,158.28351006204895,123.64876399330309,185.6190210433008
0,9561.0,9561.0,[2],1,208.97583934735027,524.6397866331997,607.5001568873546
0,12746.0,12746.0,[4],1,163.35713164914708,390.89369213871316,552.4679115016467
0,5747.0,5747.0,[5],1,231.65860448929726,161.9199582390812,725.3034626761778
0,8122.0,8122.0,[7],1,341.82393499137817,136.68234425018494,249.1473774932283
0,6628.0,6628.0,[9],1,375.0256487628175,358.36934218467024,615.448249849124
1,10194.5,7367.0,[0],1,221.33650497817473,409.77453528863646,781.4801118250002
1,43223.5,27993.0,[1 3],2,156.0914548798713,123.93301097782509,181.4023505731824
1,19370.5,14590.0,[2],1,192.17784775819,538.0453524689611,595.4350946026155
1,21609.0,15236.0,[4],1,156.42079689018837,398.5029154518977,538.2323106113186
1,7329.5,4456.0,[5],1,215.02517224913046,168.7222866498393,721.9531345930823
1,5026.0,3248.0,[6],1,222.09818941504173,397.42678074015083,365.0125348189408
1,8963.0,4902.0,[7],1,338.9750083677306,134.86935177953845,241.15803860314622
1,6111.5,3960.0,[8],1,224.03477051460305,185.94583981019358,450.13450053178116
1,10266.0,6952.0,[9],1,366.36518605103436,353.55006818624497,599.9074128190128
2,10086.25,4989.0,[0],1,258.20731193456373,405.43187507745677,762.9289874829592
2,54357.75,32746.0,[1 3],2,153.18962797393561,128.4487538575459,173.49881571624903
2,44152.75,23663.0,[2 4],2,183.08139357118355,473.22140750010055,543.0243586186567
2,9826.0,7313.0,[6],1,209.84080500712426,404.2165174028085,380.3863728882554
2,7241.75,3577.0,[5],1,240.46887837884367,177.35340214727066,708.8902199054085
2,11259.5,6778.0,[7],1,334.5377236999831,143.45281762067603,231.14310138105594
2,6323.75,3268.0,[8],1,235.00158134018406,191.31354022534185,442.04823087566575
2,11158.0,6025.0,[9],1,366.46437533607536,358.40701738662705,593.4718363505999
3,10302.125,5259.0,[0],1,266.4040428552351,401.496062705509,773.8059138284555
3,54776.875,27598.0,[1 3],2,155.10196136599995,128.48183882340902,178.22916376664335
3,53121.375,31045.0,[2 4],2,186.95300149892725,491.3078445352752,551.0197236987874
3,8679.875,5059.0,[5],1,240.0757787410535,175.08460663315932,721.0177421909883
3,7225.0,2312.0,[6],1,214.23873702422202,400.22723183390957,382.1724913494814
3,13281.75,7652.0,[7],1,368.66706194590023,155.49679070905546,227.58370508404403
3,6497.875,3336.0,[8],1,245.37185233633846,189.62160706384864,427.3986880326245
3,9931.0,4352.0,[9],1,383.92888430167466,376.7016161514437,593.1381910180249
3,4932.625,3387.0,[10],1,466.1420643166669,131.1497174425381,615.8926028230419
4,10692.0625,5541.0,[0],1,324.36462796583515,405.0880092124391,779.09165093264
4,46187.4375,18799.0,[1 3],2,162.63093996067985,129.09273896175782,179.93350058660337
4,60713.6875,34153.0,[2 4],2,208.1202570672382,504.92545235372137,547.3390277521737
4,8882.9375,4543.0,[5],1,281.93600090060045,168.37079513392987,719.1544393394622
4,7921.5,4309.0,[6],1,222.5789859875027,394.03192261566613,390.61883797260674
4,15490.875,8850.0,[7],1,387.12389551913515,155.6691762085743,222.03328975929387
4,7622.9375,4374.0,[8],1,265.0577697245947,186.8594291898633,415.14791705953235
4,10854.5,5889.0,[9],1,399.6671311437575,408.3051153899294,595.2052777649833
4,6008.3125,3542.0,[10],1,492.10689357452753,132.705512155035,615.4652616687295
5,12672.03125,7326.0,[0],1,369.71976671063936,421.04892664701885,774.3798226902235
5,38184.71875,15091.0,[1 3],2,176.27138310400954,126.70553992884932,179.97300703569937
5,56200.84375,25844.0,[2 4],2,226.20973773191702,519.1117982548091,541.5995083481148
5,6800.75,2840.0,[6],1,236.48240543322385,410.38134580744656,387.9059754438851
5,31218.90625,19032.0,[5 7],2,402.52194533561067,154.5618690597138,351.76222541428626
5,8441.46875,4630.0,[8],1,297.6813017580591,175.81938865792793,405.6547994091671
5,12723.25,7296.0,[9],1,437.93719666751423,441.82366435462745,601.0706261175404
5,10945.15625,7941.0,[10],1,533.9351825151015,136.14498137018367,596.6796328284476
6,13119.015625,6783.0,[0],1,392.13210547189306,428.61482437825714,753.6494306332525
6,33402.359375,14310.0,[1 3],2,192.3584056328379,127.4632326215731,182.31632262129543
6,48761.421875,20661.0,[2 4],2,244.77696924214123,526.9370035418021,532.7358118979059
6,9101.375,5701.0,[6],1,258.51751624067504,427.3832765653527,399.99283418714293
6,8607.234375,4380.0,[5],1,332.7645494433227,171.58006255638924,687.4447966191257
6,24502.21875,13120.0,[7],1,447.82838161339896,149.42440416747905,218.76792216521173
6,11031.734375,6811.0,[8],1,337.2970719415953,172.4276412792077,399.29507061304804
6,15003.625,8642.0,[9],1,468.52218838780476,459.75139133042785,606.4881601529636
6,15064.578125,9592.0,[10],1,534.7639298727503,139.58997254528097,593.7850255099651
