time,cumulative size,size,pcore_ids,pcore_power,SCA-1,CD11b,Ly6C
-1,0,0,[],0,0.0,0.0,0.0
0,33574.0,33574.0,[0 2],2,210.23991779353062,434.2631202716383,590.7790850062545
0,49479.0,49479.0,[1 3 4],3,209.33844661371592,148.16039127710764,332.7099577598575
0,6947.0,6947.0,[5],1,383.35338995249487,170.94717144090936,326.8878652655819
1,86088.5,59652.0,[0 2 3],3,185.42614286461293,342.8914082601048,439.3943558082659
1,40647.0,25557.0,[1 4],2,223.85289197234698,174.78561763475778,452.42393042536986
1,8264.5,4791.0,[5],1,378.7816564825425,182.64274910762907,333.7065763204059
2,101031.25,57987.0,[0 2 3],3,190.4409699969083,338.0028209093712,402.0931197030601
2,46310.5,25987.0,[1 4],2,224.37475842411592,179.92499541140737,431.42306280433206
2,10158.25,6026.0,[5],1,373.5255088228744,192.28287352644406,322.79014594049164
3,133653.0,69526.0,[0 1 2 3],4,188.47859569183115,314.0515327003505,387.3070310804809
3,21590.875,12047.0,[4],1,313.36147793917115,220.7750959606775,689.9947084126974
3,13506.125,8427.0,[5],1,403.5534803653873,194.69261168543824,302.9681348277169
4,134725.5,67899.0,[0 1 2 3],4,209.33553688796934,344.91063495774705,410.32540471179533
4,39649.5,22101.0,[4 5],2,378.130269612476,205.89543689075444,525.5054792620356
5,123822.75,56460.0,[0 1 2 3],4,236.31332237008104,365.6985398482913,424.8774046469564
5,53364.75,33540.0,[4 5],2,430.4659360814016,192.60814606083554,482.2766667135132
6,117284.375,55373.0,[0 1 2 3],4,264.2975052623153,376.206970770832,431.0508141269834
6,61309.375,34627.0,[4 5],2,448.60521790101313,185.65586064529256,469.1909822111218
