time,cumulative size,size,pcore_ids,pcore_power,SCA-1,CD11b,Ly6C
-1,0,0,[],0,0.0,0.0,0.0
0,36699.0,36699.0,[1 3],2,0.20914512259006215,0.15643958883316336,0.18033103952693705
0,17138.0,17138.0,[2 4],2,0.22884155192285816,0.49673372764817453,0.6032003796769884
1,11959.0,8083.0,[ 0 12],2,0.316555534781286,0.38855484367970666,0.7182473488204217
1,51792.5,33443.0,[1 3],2,0.20515313646232428,0.1575544992559726,0.17659645581192518
1,52887.5,38108.0,[ 2  4  6 13],4,0.21966193876656942,0.49791837022793545,0.594475435577577
2,14034.5,8055.0,[ 0 12],2,0.3301597467877073,0.3917079178991524,0.7056955413961189
2,65276.25,39380.0,[1 3],2,0.2037225155233774,0.16432028653717662,0.1678251703005069
2,51426.0,29196.0,[2 4 6],3,0.22696897407292474,0.4923606238758388,0.5346124790463728
3,8488.0,4427.0,[0],1,0.3240195345179952,0.3980199221898561,0.7838440427623197
3,64241.125,31603.0,[1 3],2,0.20203459879836438,0.16283684501765264,0.1716386248200522
3,52383.0,26670.0,[2 4 6],3,0.22568397747618374,0.506603700874251,0.5429551755961161
3,5926.625,3720.0,[5],1,0.27880735786444594,0.20737036055464475,0.7606234783699724
3,7672.5,5480.0,[9],1,0.4013813561493857,0.19489317345104865,0.2660122672228443
4,9061.0,4817.0,[0],1,0.3771821976888184,0.4055624934768412,0.7953822062614944
4,54332.5625,22212.0,[1 3],2,0.20953662156241634,0.16405602321104262,0.17522686324405198
4,51196.5,25005.0,[2 4 6],3,0.2393273611356662,0.5134391560853726,0.5345028612844674
4,6162.3125,3199.0,[5],1,0.3290892229211759,0.19859934656993258,0.7586543661919717
4,10903.25,7067.0,[9],1,0.43635544318941916,0.18592265600578053,0.23683296499781964
5,18030.3125,10854.0,[ 0 12],2,0.4451200683617766,0.4534951118093379,0.7441948613123788
5,45423.28125,18257.0,[1 3],2,0.2238650411483356,0.16227917208309456,0.17794644612850719
5,41876.25,16278.0,[2 4 6],3,0.24891902522446974,0.5289902249828116,0.5283549733149552
5,6244.15625,3163.0,[5],1,0.36321565720127713,0.1975960475533313,0.7510001472757848
5,19075.625,13624.0,[9],1,0.5012183341070395,0.17136698847362686,0.2101532669937206
5,8244.25,5971.0,[11],1,0.6069002041940769,0.14929237925596558,0.6461075143281677
6,20510.15625,11495.0,[ 0 12],2,0.48277896030715295,0.4747020836058721,0.7293376504133966
6,40526.640625,17815.0,[1 3],2,0.2438381817654495,0.16418677570732795,0.1841254465384581
6,63700.984375,29336.0,[ 2  4  6 13],4,0.3028264557905682,0.5658028334231066,0.5395210923360859
6,6151.078125,3029.0,[5],1,0.3960633927875423,0.20467454576219157,0.7253331559602595
6,6577.875,4342.0,[8],1,0.5363708717105162,0.29931262690049265,0.43255821592572324
6,20921.8125,11384.0,[9],1,0.5067678420870174,0.16966337403959353,0.20711903306124413
6,5963.09375,4011.0,[10],1,0.41183786082121754,0.15530924759453746,0.4896193212679727
6,11538.125,7416.0,[11],1,0.5981144794157676,0.15207122309449692,0.6401937482966877
