time,cumulative size,size,pcore_ids,pcore_power,SCA-1,CD11b,Ly6C
-1,0,0,[],0,0.0,0.0,0.0
0,4365.0,4365.0,[0],1,240.0593356242844,418.584421534937,769.6139747995401
0,19557.0,19557.0,[1 3],2,203.18734979802795,154.1089124098793,287.57248044178436
0,12579.0,12579.0,[2],1,214.22640909452227,484.474839017412,603.6316877335257
0,20979.0,20979.0,[9],1,181.54573621240414,130.25339625339683,152.65031698365
0,5450.0,5450.0,[5],1,333.632660550455,328.43651376146806,671.3003669724777
0,3537.0,3537.0,[4],1,261.3587786259534,338.1371218546791,553.0537178399777
0,4080.0,4080.0,[8],1,218.022549019608,161.32965686274557,664.770098039217
1,8707.5,6525.0,[0],1,219.4821131208727,404.15808211311946,757.680562733274
1,24033.5,14255.0,[1 3],2,197.9931137786857,156.5805230199519,292.68897580460526
1,26188.5,19899.0,[2],1,194.96424002902225,492.75733623537457,587.8364740248583
1,32110.5,21621.0,[9],1,177.9244172466996,132.57607324706865,154.17481820588247
1,25552.0,17544.0,[4 6],2,203.12001017533083,371.1203623982476,531.3496986537259
1,6909.0,4184.0,[5],1,319.34360978433466,331.25929946446684,656.424012158053
1,5400.0,3360.0,[8],1,212.6461111111127,162.35046296296338,670.1442592592578
2,8436.75,4083.0,[0],1,256.23945832222023,401.23285032743564,742.2702758763731
2,26956.75,14940.0,[1 3],2,199.05191649587053,163.37347788587263,285.7443590195386
2,27814.25,14720.0,[2],1,208.3581437572479,496.9828684936697,562.704575891854
2,43837.25,27782.0,[9],1,176.8880119076851,140.70638555110023,155.2915214800196
2,39401.5,23171.0,[4 5 6],3,230.47705671103918,373.9621080415721,531.884154156568
2,4194.0,1494.0,[8],1,229.28195040534087,164.4192298521702,651.6498569384797
3,8796.375,4578.0,[0],1,267.43108666922353,388.72326668655955,756.5956857228113
3,28357.375,14879.0,[1 3],2,202.3112638246679,162.82071242489872,287.6570424801291
3,40160.125,26253.0,[2],1,210.9751588173597,506.81425605622474,566.1372287810284
3,41965.625,20047.0,[9],1,174.95264278799976,138.51971703030745,155.45798793655558
3,6681.75,2687.0,[5],1,339.9555879821853,345.72284581134994,645.1249859692458
3,3318.375,1399.0,[4],1,268.6094097261446,343.1727502165966,536.8670282894481
3,6162.375,4488.0,[7],1,408.2936165033737,187.71242824398007,327.4630317044986
3,5582.0,3485.0,[8],1,229.69244894303142,167.25566553206735,677.122312791115
3,5323.875,3571.0,[10],1,405.5028057570851,150.63381935150613,681.5947031062885
4,8775.1875,4377.0,[0],1,317.8423324287904,387.2477724834927,763.2465616831554
4,26932.6875,12754.0,[1 3],2,217.7869619398368,165.7927750433379,293.31010180473015
4,51857.0625,31777.0,[2],1,235.72062869932063,512.5966774053222,556.2304254603507
4,34687.8125,13705.0,[9],1,179.93300961252916,139.12007999927928,155.49299375681323
4,23566.0,10707.0,[4 6],2,212.92687823559467,389.8439568658252,495.5962589111456
4,7039.875,3699.0,[5],1,377.317086595993,379.9615493883057,643.0345620483331
4,8945.1875,5864.0,[7],1,432.24249771175687,173.5095197836828,285.1979346436283
4,5158.0,2367.0,[8],1,257.6426182628911,162.22034945715419,665.3628101977516
4,7411.9375,4750.0,[10],1,432.5024495956678,149.73234899781636,686.9989796864852
5,9955.59375,5568.0,[0],1,353.8020051541314,390.4696197803368,757.535615969667
5,7484.15625,4109.0,[1],1,300.54274655208826,186.3286275590518,369.6030405899131
5,52829.53125,26901.0,[2],1,254.19291766856207,519.5309009816445,545.3592959666657
5,45598.09375,18163.0,[3 9],2,200.25943450212864,143.24218460338662,197.97539576421389
5,3707.09375,1699.0,[4],1,317.82907769731656,361.5017744695558,515.3274128149567
5,9976.9375,6457.0,[5],1,442.6888073118615,435.254195613631,661.6103858273126
5,13081.90625,3307.0,[6],1,197.20392192460685,406.72790901555703,485.4217394731775
5,18087.59375,13615.0,[7],1,477.7166168800121,157.2631845377432,251.58014730400504
5,5348.0,2769.0,[8],1,290.37010330964546,161.48584166978355,665.4111233171265
5,11117.96875,7412.0,[10],1,497.5904040475063,142.87937319935367,650.2002220504527
6,9713.796875,4736.0,[0],1,379.5325929774439,389.24722245903473,733.6117394234685
6,10088.078125,6346.0,[1],1,346.0391953992674,181.4880157116154,376.29114347535864
6,47627.765625,21213.0,[2],1,274.44200189162,524.8503820480302,533.6113641038419
6,39740.046875,16941.0,[3 9],2,215.66303787544328,143.70285720127293,201.33361576778455
6,5368.546875,3515.0,[4],1,356.7144216748562,372.8978308259627,508.2519682060145
6,12527.46875,7539.0,[5],1,472.1659578077158,462.1390856093715,666.7438491415116
6,12179.953125,5639.0,[6],1,209.43164421045466,418.6030221278075,472.26395575721943
6,20489.796875,11446.0,[7],1,474.227397477558,155.35763074151956,242.5581268725977
6,6393.0,3719.0,[8],1,331.6846013217535,163.2405976263101,645.8925924839662
6,14464.984375,8906.0,[10],1,516.0229066096075,143.01012358507896,625.6990426234045
