time,cumulative size,size,pcore_ids,pcore_power,SCA-1,CD11b,Ly6C
-1,0,0,[],0,0.0,0.0,0.0
0,31648.0,31648.0,[0 2],2,0.18046783580055015,0.1409104862194551,0.1634679694906776
0,9080.0,9080.0,[1],1,0.24372655051230177,0.5995336825004515,0.6361388008594712
0,12893.0,12893.0,[3],1,0.18389832650240726,0.4533622194231497,0.5717574858476216
0,5438.0,5438.0,[4],1,0.4011886805707618,0.1507778345445742,0.7381998409280235
0,4941.0,4941.0,[5],1,0.24060202524621974,0.40213798844464216,0.3984534207433912
0,8704.0,8704.0,[6],1,0.3866136711004591,0.15844109225279468,0.2538723460222055
0,6166.0,6166.0,[7],1,0.26194991016338265,0.4407359802625101,0.8337636453083122
0,6822.0,6822.0,[9],1,0.42806798230443455,0.4036763545144725,0.6348726672974039
1,44802.0,28978.0,[0 2],2,0.17802853153125,0.14104120725460556,0.15830575094633062
1,18248.0,13708.0,[1],1,0.22254133437433887,0.6140651563377173,0.6225887768522551
1,22039.5,15593.0,[3],1,0.17527883414635645,0.463799467820995,0.5561942060799835
1,5077.0,2358.0,[4],1,0.38973261215483535,0.15446134060357364,0.7358587551265093
1,7640.5,5170.0,[5],1,0.2322278014336677,0.40044242088110504,0.394746361735149
1,9621.0,5269.0,[6],1,0.38449038795051166,0.15836122292816343,0.249554149018398
1,11109.0,8026.0,[7],1,0.2385860335935739,0.43532439149863855,0.8232926171340036
1,5934.0,3789.0,[8],1,0.2193714189416935,0.16881997218269756,0.6237423837415703
1,10520.0,7109.0,[9],1,0.4153573183235697,0.39754765755380744,0.6170633198404559
2,56164.0,33763.0,[0 2],2,0.1751345027683815,0.14581886341422282,0.1482857473238161
2,43378.75,23235.0,[1 3],2,0.20803059800872334,0.5432226183582681,0.5600846110812273
2,12502.25,8682.0,[5],1,0.22676733918231937,0.418471960115051,0.39381007187080125
2,5790.5,3252.0,[4],1,0.38603509817028403,0.17216557702368665,0.726518831532103
2,11918.5,7108.0,[6],1,0.381101422441646,0.17001832487119847,0.2398114635843864
2,10835.5,5281.0,[7],1,0.2820539694999624,0.4367215575332548,0.8021667210159158
2,5573.0,2606.0,[8],1,0.2362858545515405,0.17135882807622035,0.6097688225564124
2,11333.0,6073.0,[9],1,0.4155649406079617,0.4030187739085743,0.6080709025832084
3,56628.0,28546.0,[0 2],2,0.17731013134805698,0.1458867026952441,0.15377467181982163
3,52306.375,30617.0,[1 3],2,0.21229628620418656,0.5623235824137511,0.5687970006509121
3,9877.125,3626.0,[5],1,0.22567527425829306,0.4078981056656737,0.4001352447824008
3,7837.25,4942.0,[4],1,0.4343332457605756,0.16381489865445664,0.7212393009769109
3,14621.25,8662.0,[6],1,0.41632432401278063,0.1826507415561165,0.2358206651887396
3,11439.75,6022.0,[7],1,0.28828870405797224,0.4264354716363194,0.8155379366995426
3,5767.5,2981.0,[8],1,0.23649340307710348,0.17015425706143167,0.6293176668665021
3,10270.5,4604.0,[9],1,0.4383662245254548,0.421643304275456,0.6073359419462999
4,48147.0,19833.0,[0 2],2,0.1866778441047737,0.1466687876339685,0.15653970211771978
4,60317.1875,34164.0,[1 3],2,0.23688509276364594,0.5766471259882618,0.5634277994134368
4,10420.5625,5482.0,[5],1,0.23208867973265837,0.3992592607468875,0.404919965278197
4,9913.625,5995.0,[4],1,0.46557322156644576,0.16257304538083447,0.7212358199965557
4,17741.625,10431.0,[6],1,0.4340794758596716,0.1828758035505444,0.23227464425049368
4,11299.875,5580.0,[7],1,0.35097356153014625,0.4352817453983157,0.8204091778120709
4,5236.75,2353.0,[8],1,0.26211839886969834,0.1652781924084635,0.6135862777230848
4,11297.25,6162.0,[9],1,0.458855124332973,0.45640772305837746,0.6122905487129756
5,40378.5,16305.0,[0 2],2,0.20350320711754077,0.14398537930561717,0.15850887232347724
5,57167.59375,27009.0,[1 3],2,0.2576149908926045,0.5903595784199274,0.5546392365937258
5,13726.8125,8770.0,[4],1,0.5352800133176588,0.15758093311985724,0.6838442482387886
5,7725.28125,2515.0,[5],1,0.24882496051082872,0.4066056898124687,0.39588221704435805
5,26420.8125,17550.0,[6],1,0.4893947641985228,0.1739661526241973,0.22676032348144085
5,12809.9375,7160.0,[7],1,0.3936575997029975,0.4487599787919175,0.8135549430490162
5,5301.375,2683.0,[8],1,0.2959674376930477,0.16325186995263236,0.6037589577734351
5,13656.625,8008.0,[9],1,0.5075871595637627,0.495938854697881,0.6292675511124872
6,35762.25,15573.0,[0 2],2,0.22314797736471542,0.14479181968514462,0.16214863360555745
6,51479.796875,22896.0,[1 3],2,0.2796314161683151,0.5967150424531162,0.5417535855949994
6,17485.40625,10622.0,[4],1,0.5612335071881891,0.15999393377442686,0.6557791858774761
6,8417.640625,4555.0,[5],1,0.2809410418166691,0.42721076889631243,0.39182473665300865
6,29712.40625,16502.0,[6],1,0.4984526370088558,0.17505567441617254,0.23246816040650162
6,12503.96875,6099.0,[7],1,0.4161241965788126,0.4556086092552492,0.7895001577533688
6,6924.6875,4274.0,[8],1,0.3446250185710871,0.16826070027826462,0.5862363133582743
6,16307.3125,9479.0,[9],1,0.5383091163822256,0.5172637206086411,0.6431209867377735
