time,cumulative size,size,pcore_ids,pcore_power,SCA-1,CD11b,Ly6C
-1,0,0,[],0,0.0,0.0,0.0
0,22474.0,22474.0,[1 8],2,0.22196870691025816,0.14192116219164463,0.1439677485272265
0,11377.0,11377.0,[2],1,0.13491353045223806,0.1422341534500229,0.2006949315355698
0,9296.0,9296.0,[3],1,0.20693484209712304,0.5786796588422237,0.5994129237280015
0,6448.0,6448.0,[4],1,0.15657655365656722,0.40406404735973434,0.5004821853913016
0,7541.0,7541.0,[10],1,0.22807647780150334,0.4437536339803957,0.5986134004192066
1,36813.0,23371.0,[1 8 9],3,0.2223819626493703,0.14809252719473867,0.18041028343030477
1,16214.5,10526.0,[2],1,0.13396848638391518,0.14481071701506246,0.1998496149305713
1,19393.0,14745.0,[3],1,0.1943405676900702,0.599149895015064,0.5904298465097197
1,11937.0,8713.0,[4],1,0.1522671459619978,0.4135655441444662,0.49562000801162304
1,7808.5,5142.0,[6],1,0.21599215202678318,0.25908671574687847,0.7889453743300947
1,11397.5,7627.0,[10],1,0.22661883766152344,0.45463024260103013,0.5852418012585278
1,4621.0,3007.0,[0],1,0.38063299203197376,0.4173900920546667,0.4108591599596869
2,79513.75,45712.0,[ 1  3  8  9 10],5,0.22110745102915963,0.3232142396043946,0.33387606232326716
2,19756.25,11649.0,[2],1,0.12786835342251057,0.15022479855592968,0.19493085622448844
2,16468.5,10500.0,[4],1,0.16197219206022953,0.4365107348088245,0.465681902137123
2,6470.25,2566.0,[6],1,0.24232478904093893,0.26597260066566353,0.7741442781330231
2,6061.5,3751.0,[0],1,0.36763172797180527,0.4215876164487459,0.3998864092936051
3,75535.0,41739.0,[1 3 8 9],4,0.22095515100894653,0.33458551098693684,0.33134080640502844
3,20054.125,10176.0,[2],1,0.12814263113931693,0.15049359633162404,0.1954702361233778
3,14061.25,5827.0,[4],1,0.15736636764716572,0.43798026893491654,0.47022893992457837
3,14527.25,9227.0,[5 7],2,0.46391326567409635,0.1583406913003013,0.426970169454601
3,8372.125,5137.0,[6],1,0.24972589114525762,0.25896306201419594,0.7882719637193544
3,8534.875,4336.0,[11],1,0.30129677787649334,0.5207093314699816,0.7961838155783626
3,5110.75,2080.0,[0],1,0.40671153610449534,0.4186806080165952,0.3891433370008006
4,96603.4375,51998.0,[ 1  3  8  9 10],5,0.2442665349067131,0.3927128522926577,0.3956361427243599
4,15620.0625,5593.0,[2],1,0.1274439801629061,0.15256684913337515,0.19726137691136045
4,12699.625,5669.0,[4],1,0.1620692540134099,0.4389741195105122,0.4638381177319797
4,18574.625,11311.0,[5 7],2,0.4833150260190181,0.15659936406089928,0.42771221269863235
4,7321.0625,3135.0,[6],1,0.2951604924724145,0.2594981986711071,0.7874156188117941
4,8512.4375,4245.0,[11],1,0.3594424582470206,0.5278287486512833,0.8025296111737172
4,5092.375,2537.0,[0],1,0.43218822975857746,0.4173847860994378,0.3798017867120983
5,92794.71875,44493.0,[ 1  3  8  9 10],5,0.26529126476350995,0.4045724234466484,0.4008536017030046
5,41342.34375,24245.0,[2 5 7],3,0.42755029545494805,0.15251055624807783,0.33729459862491895
5,8711.8125,2362.0,[4],1,0.16446755466735985,0.4534460089864062,0.4554990958711767
5,12449.03125,7474.0,[12],1,0.5000488677977701,0.48241729691277846,0.6919297175882766
5,7169.53125,3509.0,[6],1,0.32856712861782733,0.2591998341318571,0.7783360890849175
5,9011.21875,4755.0,[11],1,0.40165257485099903,0.5361500854444875,0.8085964838852228
6,6852.09375,3998.0,[0],1,0.519763604098086,0.3967568945829726,0.38515504731430383
6,89231.359375,42834.0,[ 1  3  8  9 10],5,0.29122570829011335,0.40088870815000377,0.3954661835004666
6,32960.734375,16512.0,[2 4 5],3,0.36213566765098565,0.2223779506238248,0.4772239709494475
6,34227.859375,19425.0,[ 7 12],2,0.5334966187519516,0.31160614109787815,0.4181412051450231
6,6968.765625,3384.0,[6],1,0.35932760416795995,0.25850200496172,0.7456318386214761
6,8352.609375,3847.0,[11],1,0.4170441001467404,0.5389735547543033,0.7918638836070154
