time,cumulative size,size,pcore_ids,pcore_power,SCA-1,CD11b,Ly6C
-1,0,0,[],0,0.0,0.0,0.0
0,6467.0,6467.0,[0],1,219.57538271223146,368.1383949280976,547.5498685634765
0,10107.0,10107.0,[1],1,239.13564856040256,121.73087958840448,247.96665677253364
0,30945.0,30945.0,[ 2 10 13],3,149.38956212635648,214.2646631119733,273.470770722249
1,18039.0,12623.0,[ 0 15],2,215.04833970840974,391.51480126392823,657.9951216807997
1,16820.0,10490.0,[1 3],2,238.61706302021295,215.8628121284194,295.6134958382878
1,49046.5,33574.0,[ 2 10 13],3,145.57789036934693,242.6527479025003,292.52620472408876
1,9504.0,6940.0,[4],1,124.36647727273161,365.82123316498325,505.3495896464651
1,7924.0,5161.0,[11],1,362.60954063603543,357.844333669864,641.2036219081256
2,17501.5,8482.0,[ 0 15],2,232.52129817444194,393.66212896037433,630.8017027111938
2,19574.5,11267.0,[1 6],2,235.7331732611306,125.29321310889205,312.26894684410803
2,56680.25,32157.0,[ 2 10 13],3,143.6087526078344,220.75643632482206,253.79966125766862
2,10524.25,8348.0,[3],1,225.47915528422496,489.69890966102344,448.59084970425346
2,11159.0,6407.0,[4],1,129.24110583386062,377.2997132359545,478.3510395196707
2,9448.0,5486.0,[11],1,359.63886536832473,363.0398232430139,645.8487245977993
2,7153.5,4226.0,[12],1,190.99776333263625,243.6042147200676,318.2430278884459
3,17556.75,8806.0,[ 0 15],2,237.4037763253444,397.4661526193628,641.0771355746353
3,21137.25,11350.0,[1 6],2,235.40396693041774,124.95272563838749,306.482690510827
3,60229.125,31889.0,[ 2 10 13],3,143.07546390554816,248.63641967237677,283.7869739100471
3,8799.125,3537.0,[3],1,227.5044961857006,494.1823050587448,460.5366016507321
3,9821.5,4242.0,[4],1,128.00211271191236,378.0365270070763,478.02551799623336
3,13714.375,7400.0,[ 7 12],2,220.69344209998658,216.01162101809214,541.888821036321
3,4190.125,2937.0,[5],1,474.5572924435435,127.58915306822557,645.6016825273723
3,8314.0,3590.0,[11],1,375.2214337262372,379.89332751984483,648.4328091171532
4,10416.8125,5487.0,[0],1,236.12338227264803,398.87750571491875,523.5718879935656
4,21467.625,10899.0,[1 6],2,246.8385417576447,123.15472717638836,309.22939193320104
4,50786.5625,20672.0,[ 2 10 13],3,147.4438637188769,264.59753010454284,294.4615431001065
4,13077.5625,8678.0,[3],1,241.10603562399177,503.1538513006548,481.1020067768772
4,8438.75,3528.0,[4],1,131.927758850545,377.62972892904617,468.9396904162359
4,7098.3125,3587.0,[7],1,290.43433738652357,196.2825671594482,752.1596682310056
4,8787.125,5400.0,[8],1,435.35669374226376,151.74965503506604,198.51371324523012
4,9539.0,5382.0,[11],1,400.5667784883054,412.1910643149163,659.5359248873062
4,7051.875,3706.0,[12],1,209.39929096871472,236.45430293361778,323.46218204378187
4,7376.5625,3528.0,[15],1,305.5856132175339,403.47041728447357,788.7041304808275
5,7297.40625,2089.0,[0],1,244.1122830457733,401.8432019938587,524.016337140335
5,21741.8125,11008.0,[1 6],2,263.40304539927104,119.86074068111849,307.8037910822745
5,64433.375,31981.0,[ 2  5  8 10 13],5,284.96843347877154,217.28169941043745,318.0262810228393
5,16917.78125,10379.0,[3],1,256.19959029792756,512.7463135125929,480.69688696619176
5,6737.15625,3188.0,[7],1,317.0224594019129,196.50731716367702,745.3122654680891
5,12768.5,7999.0,[11],1,448.539550456199,446.5091656224303,682.6228291302783
5,7851.09375,5228.0,[9],1,471.9110872290867,262.5656815332263,394.67265309371857
5,7475.28125,3787.0,[15],1,330.8732614575489,406.3913147080585,782.4584066653028
6,7474.703125,3826.0,[0],1,265.42649478135365,407.21276764754356,519.6721504407572
6,23505.90625,12635.0,[1 6],2,285.9574415472664,119.49694026368431,320.0017934322356
6,63933.703125,32349.0,[ 2  5  8 11 13],5,389.30653530989406,274.6434040437885,457.2759249877255
6,19300.890625,10842.0,[3],1,271.3006054610477,512.8121896900828,473.26947590663497
6,10335.546875,6410.0,[9],1,483.1616705090892,251.88864431762386,393.3836350580148
6,11882.234375,4866.0,[10],1,197.47229911251645,122.64274921988265,97.15318168010836
6,6563.640625,2826.0,[15],1,345.1289418743828,407.20871848464463,759.9138364046265
