time,cumulative size,size,pcore_ids,pcore_power,SCA-1,CD11b,Ly6C
-1,0,0,[],0,0.0,0.0,0.0
0,14458.0,14458.0,[2 7],2,NA,NA,NA
0,32287.0,32287.0,[3 5 8],3,NA,NA,NA
1,26872.0,19381.0,[0 2 5],3,NA,NA,NA
1,63851.0,42958.0,[3 8 9],3,NA,NA,NA
1,6282.0,3934.0,[1],1,NA,NA,NA
1,9414.0,6320.0,[10],1,NA,NA,NA
2,31000.0,17961.0,[0 5 7],3,NA,NA,NA
2,78057.75,45743.0,[ 1  6  8  9 11],5,NA,NA,NA
2,14572.75,8211.0,[2],1,NA,NA,NA
2,20436.25,10822.0,[3],1,NA,NA,NA
2,10247.0,5540.0,[10],1,NA,NA,NA
3,46343.375,25146.0,[1 6 8],3,NA,NA,NA
3,18561.875,8044.0,[0 2],2,NA,NA,NA
3,54631.625,30639.0,[3 9],2,NA,NA,NA
3,4753.5,1522.0,[0],1,NA,NA,NA
3,9165.5,4042.0,[10],1,NA,NA,NA
3,4982.0,3389.0,[4],1,NA,NA,NA
4,43642.6875,20471.0,[1 6 8],3,NA,NA,NA
4,29328.125,15126.0,[2 7],2,NA,NA,NA
4,57202.8125,29887.0,[3 9],2,NA,NA,NA
4,15023.5,8064.0,[ 0 10],2,NA,NA,NA
4,6160.0,3669.0,[4],1,NA,NA,NA
5,70310.3125,34580.0,[1 3 6 7],4,NA,NA,NA
5,58050.5,25614.0,[2 4 8 9],4,NA,NA,NA
5,32809.625,21461.0,[10 11],2,NA,NA,NA
5,4302.875,1806.0,[0],1,NA,NA,NA
6,85483.625,42021.0,[ 1  3  5  6 11],5,NA,NA,NA
6,21928.046875,12142.0,[2 4],2,NA,NA,NA
6,51103.6875,24207.0,[7 8 9],3,NA,NA,NA
6,15281.9375,8985.0,[10],1,NA,NA,NA
