time,cumulative size,size,pcore_ids,pcore_power,SCA-1,CD11b,Ly6C
-1,0,0,[],0,0.0,0.0,0.0
0,12523.0,12523.0,[0],1,176.72123293140717,NA,NA
0,7770.0,7770.0,[1],1,NA,NA,NA
0,32213.0,32213.0,[3 8],2,NA,NA,NA
0,11004.0,11004.0,[4],1,NA,NA,NA
1,21394.5,15133.0,[0],1,NA,NA,NA
1,8081.0,4196.0,[1],1,NA,NA,NA
1,46012.5,29906.0,[3 8],2,NA,NA,NA
1,21299.0,15797.0,[4],1,181.57880651674046,NA,NA
1,7532.5,5389.0,[6],1,NA,NA,NA
1,7254.0,4770.0,[9],1,NA,NA,NA
1,9609.0,6739.0,[10],1,NA,NA,NA
2,26676.25,15979.0,[0],1,NA,NA,NA
2,10003.5,5963.0,[1],1,NA,NA,NA
2,7122.75,4407.0,[2],1,NA,NA,NA
2,57855.25,34849.0,[3 8],2,NA,NA,NA
2,22069.5,11420.0,[4],1,198.11679014024034,NA,NA
2,8975.0,5348.0,[9],1,302.318412256264,NA,NA
2,10051.5,5247.0,[10],1,NA,NA,NA
3,24294.125,10956.0,[0],1,NA,NA,NA
3,12404.75,7403.0,[1],1,NA,NA,NA
3,58346.625,29419.0,[3 8],2,NA,135.30759276993405,NA
3,32456.75,21422.0,[4],1,NA,NA,570.7324978625329
3,7140.125,4247.0,[6],1,NA,NA,NA
3,8520.5,4033.0,[9],1,NA,NA,NA
3,8499.75,3474.0,[10],1,NA,NA,NA
4,22238.0625,10091.0,[0],1,NA,NA,498.438670747505
4,22993.625,13912.0,[1 5],2,NA,NA,NA
4,6761.6875,3709.0,[2],1,NA,NA,NA
4,49248.3125,20075.0,[3 8],2,NA,NA,NA
4,42976.375,26748.0,[4],1,NA,NA,556.63275462389
4,10595.25,6335.0,[9],1,NA,NA,NA
4,8419.875,4170.0,[10],1,NA,NA,NA
5,15774.03125,4655.0,[0],1,NA,NA,NA
5,35458.8125,23962.0,[1 5],2,NA,NA,NA
5,41089.15625,16465.0,[3 8],2,NA,NA,NA
5,45151.1875,23663.0,[4],1,NA,NA,NA
5,13844.625,8547.0,[9],1,NA,NA,NA
5,9096.9375,4887.0,[10],1,NA,NA,NA
6,14712.015625,6825.0,[0],1,NA,NA,NA
6,26854.59375,14875.0,[1],1,NA,NA,NA
6,36025.578125,15481.0,[3 8],2,NA,NA,NA
6,40985.59375,18410.0,[4],1,NA,NA,NA
6,14996.8125,9247.0,[5],1,NA,NA,NA
6,6605.890625,4040.0,[7],1,NA,NA,NA
6,16169.3125,9247.0,[9],1,NA,NA,NA
6,10351.46875,5803.0,[10],1,NA,NA,NA
