time,cumulative size,size,pcore_ids,pcore_power,SCA-1,CD11b,Ly6C
-1,0,0,[],0,0.0,0.0,0.0
0,31032.0,31032.0,[1 3],2,159.35021912864354,124.38273395204968,187.5235563289503
0,21342.0,21342.0,[2 4],2,183.5203823446749,453.4060069346855,580.2525067941141
0,8147.0,8147.0,[7],1,343.19479563029034,139.6553332515037,252.80078556523867
0,6662.0,6662.0,[9],1,375.0747523266219,359.19693785649883,612.4285499849884
1,10112.5,7302.0,[0],1,221.7200000000002,410.51965389369616,781.5006180469683
1,43847.0,28331.0,[1 3],2,156.9300522270649,124.49641936734601,182.90575181882355
1,39436.0,28765.0,[2 4],2,173.52748757480703,469.2699183487184,569.0744877776636
1,7157.5,4347.0,[5],1,215.80495983234434,171.607963674467,727.4366049598318
1,6915.0,4592.0,[6],1,205.71142443962458,377.56211135213294,394.07816341287054
1,9064.5,4991.0,[7],1,340.1540073914686,138.25991505322997,245.76402449114664
1,10316.0,6985.0,[9],1,366.7324544396972,353.7882900348965,597.5490984877846
2,10042.25,4986.0,[0],1,258.7766436804492,405.9803330926832,762.7237421892502
2,55057.5,33134.0,[1 3],2,154.1000771920301,128.883844162921,174.7084638786711
2,41724.0,22006.0,[2 4],2,183.69269485188576,479.74701011408536,547.7431154731056
2,12717.5,9260.0,[6],1,200.70165126793896,390.64218596422273,399.1319245134634
2,7019.75,3441.0,[5],1,242.26190391395562,180.86698244239426,714.8187257380946
2,11495.25,6963.0,[7],1,335.83427937626146,147.864857223636,237.46408299080062
2,11164.0,6006.0,[9],1,367.04183088498155,358.48620566105217,590.8572420279463
3,10237.125,5216.0,[0],1,267.041759771419,402.7722627202451,773.3676447244682
3,55524.75,27996.0,[1 3],2,156.1032782678035,128.92155525238803,179.49879333090115
3,51091.0,30229.0,[2 4],2,187.64461451136384,496.6898108277405,554.5492723767337
3,9661.75,3303.0,[6],1,201.07036768701457,384.03301679302353,403.0538075400412
3,8478.875,4969.0,[5],1,241.66319234568232,178.3421149621846,727.0236175200127
3,13687.625,7940.0,[7],1,368.8133989643909,159.85021141359388,233.97247513721302
3,9939.0,4357.0,[9],1,384.64186537880397,376.5789314820395,589.8365152429828
4,10668.5625,5550.0,[0],1,325.38347481208996,406.79557344299866,778.511221638338
4,46973.375,19211.0,[1 3],2,163.95932270142754,129.61052005524428,181.49734424022006
4,58921.5,33376.0,[2 4],2,209.58888521167947,509.9387246166503,549.9089031592777
4,10129.875,5299.0,[6],1,206.9796332629986,378.010439418058,408.0770554918006
4,8693.4375,4454.0,[5],1,284.2131205291319,171.42151766778122,725.10847262662
4,16088.8125,9245.0,[7],1,386.410976571452,160.10522063079532,228.3781820441998
4,10817.5,5848.0,[9],1,400.08567136583423,407.3074185347807,590.8422059163404
5,12899.28125,7565.0,[0],1,374.3685307078596,425.03399171949866,773.651773233487
5,38879.6875,15393.0,[1 3],2,177.68142748061214,127.22756018165022,181.71201623598313
5,55499.75,26039.0,[2 4],2,227.81487754449245,522.4784126279842,542.6399888062437
5,7765.9375,2701.0,[6],1,219.3974528188004,391.0075570399568,401.02534706852896
5,8309.71875,3963.0,[5],1,308.79655222987725,171.4886108509992,718.3421934406624
5,23369.40625,15325.0,[7],1,436.75118510980883,152.1091464401231,221.69681247250193
5,7403.65625,4262.0,[8],1,302.8302527889473,165.59305157502493,428.3053094543659
5,12411.75,7003.0,[9],1,435.9045561665313,438.3608274417398,593.3006853384896
5,10648.0625,7749.0,[10],1,537.4491339386914,136.22312451208808,599.7047027334779
6,13882.640625,7433.0,[0],1,402.0409110298442,435.71231607819374,753.0127868774966
6,34046.84375,14607.0,[1 3],2,193.891047169389,127.90556806385341,184.21305802024483
6,48692.875,20943.0,[2 4],2,246.68815252744818,529.6083798836106,532.7927516987768
6,9237.96875,5355.0,[6],1,243.80483568154307,411.4799722612165,403.4815435617282
6,8449.859375,4295.0,[5],1,334.806903221387,174.860313873567,692.8360031879257
6,25124.703125,13440.0,[7],1,446.220712806929,151.48167919894524,221.84825069450346
6,10258.828125,6557.0,[8],1,344.61923952692644,166.24208874978152,417.5753398368786
6,14292.875,8087.0,[9],1,463.49892428919804,454.0911118301958,593.8215992671157
6,14607.03125,9283.0,[10],1,537.7061806707006,139.20721720061965,597.3521538214676
