time,cumulative size,size,pcore_ids,pcore_power,SCA-1,CD11b,Ly6C
-1,0,0,[],0,0.0,0.0,0.0
0,9351.0,9351.0,[0],1,NA,NA,NA
0,28224.0,28224.0,[1],1,179.16666666667018,135.65228174603217,NA
0,11187.0,11187.0,[4],1,NA,NA,NA
0,28893.0,28893.0,[5],1,208.39549371820283,442.21863427127585,NA
1,11231.5,6556.0,[0],1,242.5806882428873,NA,NA
1,42199.0,28087.0,[1],1,177.51837721273435,138.05801085333664,NA
1,7505.5,4487.0,[2],1,NA,NA,NA
1,9867.5,6746.0,[3],1,NA,NA,NA
1,12721.5,7128.0,[4],1,NA,NA,NA
1,51442.5,36996.0,[5],1,196.84551683919088,NA,NA
2,13690.75,8075.0,[0],1,NA,NA,NA
2,55325.5,34226.0,[1],1,175.10668679000258,143.96412142682846,NA
2,8436.75,4684.0,[2],1,NA,NA,NA
2,12629.75,7696.0,[3],1,NA,NA,NA
2,13045.75,6685.0,[4],1,287.796332138815,NA,NA
2,54355.25,28634.0,[5],1,210.596046380066,NA,NA
3,17295.375,10450.0,[0],1,NA,NA,NA
3,54730.75,27068.0,[1],1,NA,141.1058591376882,NA
3,7889.375,3671.0,[2],1,NA,NA,NA
3,10875.875,4561.0,[3],1,NA,NA,NA
3,17177.875,10655.0,[4],1,NA,NA,NA
3,60772.625,33595.0,[5],1,209.34643476400794,NA,NA
4,20358.6875,11711.0,[0],1,NA,NA,NA
4,45959.375,18594.0,[1],1,NA,141.15530835656452,NA
4,8999.6875,5055.0,[2],1,NA,NA,NA
4,11058.9375,5621.0,[3],1,NA,NA,NA
4,19048.9375,10460.0,[4],1,NA,NA,NA
4,68945.3125,38559.0,[5],1,230.1385491218105,NA,NA
5,29501.34375,19322.0,[0],1,NA,154.55055754875585,NA
5,38705.6875,15726.0,[1],1,NA,139.8655656226236,NA
5,6847.84375,2348.0,[2],1,NA,NA,NA
5,15997.46875,10468.0,[3],1,NA,NA,NA
5,21324.46875,11800.0,[4],1,NA,NA,NA
5,64808.65625,30336.0,[5],1,NA,NA,NA
6,32829.671875,18079.0,[0],1,NA,NA,NA
6,35008.84375,15656.0,[1],1,NA,142.60940673026238,NA
6,6577.921875,3154.0,[2],1,NA,NA,NA
6,20678.734375,12680.0,[3],1,NA,NA,NA
6,23856.234375,13194.0,[4],1,NA,NA,NA
6,59641.328125,27237.0,[5],1,NA,NA,NA
