time,cumulative size,size,pcore_ids,pcore_power,SCA-1,CD11b,Ly6C
-1,0,0,[],0,0.0,0.0,0.0
0,22386.0,22386.0,[0 6],2,NA,NA,NA
0,39913.0,39913.0,[1 3],2,NA,NA,NA
1,48941.5,34687.0,[0 6 8],3,NA,NA,NA
1,54022.5,34066.0,[1 3],2,NA,NA,NA
1,8174.0,6056.0,[2],1,NA,NA,NA
1,7160.5,4974.0,[4],1,NA,NA,NA
1,7988.5,5586.0,[5],1,NA,NA,NA
2,55356.75,30886.0,[0 6 8],3,NA,NA,NA
2,67883.25,40872.0,[1 3],2,NA,NA,NA
2,8797.0,4710.0,[2],1,NA,NA,NA
2,11175.25,7181.0,[5],1,NA,NA,NA
3,53234.5,31001.0,[0 6],2,NA,NA,NA
3,76307.25,40012.0,[1 3 4],3,NA,NA,NA
3,7806.5,3408.0,[2],1,NA,NA,NA
3,9566.625,3979.0,[5],1,NA,NA,NA
3,10439.875,4995.0,[8],1,NA,NA,NA
4,62231.25,35614.0,[0 6],2,NA,NA,NA
4,25558.6875,13130.0,[1 4],2,NA,NA,NA
4,7873.25,3970.0,[2],1,NA,NA,NA
4,42818.9375,17094.0,[3],1,NA,133.73937203602952,NA
4,9668.3125,4885.0,[5],1,NA,NA,NA
4,12395.9375,7176.0,[8],1,NA,NA,NA
5,60028.625,28913.0,[0 6],2,NA,NA,NA
5,28394.6875,17686.0,[1],1,NA,NA,NA
5,8725.625,4789.0,[2],1,NA,NA,NA
5,35551.46875,14142.0,[3],1,NA,132.37258745463257,NA
5,15870.96875,9673.0,[8],1,NA,NA,NA
5,12130.78125,7600.0,[9],1,NA,NA,NA
6,55608.3125,25594.0,[0 6],2,NA,NA,NA
6,30010.34375,15813.0,[1],1,NA,NA,NA
6,9549.8125,5187.0,[2],1,NA,NA,NA
6,31269.734375,13494.0,[3],1,NA,133.0555579151766,NA
6,8929.21875,5916.0,[7],1,NA,NA,NA
6,18360.484375,10425.0,[8],1,NA,NA,NA
6,14925.390625,8860.0,[9],1,NA,NA,NA
