time,cumulative size,size,pcore_ids,pcore_power,SCA-1,CD11b,Ly6C
-1,0,0,[],0,0.0,0.0,0.0
0,10464.0,10464.0,[0],1,0.24321676459471522,0.12343473248509038,0.19670027856671005
0,8040.0,8040.0,[3],1,0.1319658728827811,0.13210868733256764,0.08147624904431082
0,9070.0,9070.0,[4],1,0.336562194170185,0.16388870873597572,0.7153566789361626
0,8146.0,8146.0,[5],1,0.1342326970981868,0.17682692446560672,0.21905158474762218
0,10814.0,10814.0,[7],1,0.3486907317397494,0.4394749306873013,0.757395449188817
0,12667.0,12667.0,[8],1,0.22504871988880326,0.5748329021110581,0.6225317069079577
0,13932.0,13932.0,[9],1,0.19993346495175798,0.418803824783079,0.5323102923714101
1,13413.0,8181.0,[0],1,0.2460672481920514,0.12393877858078542,0.1994634398002011
1,17932.0,10632.0,[2 4],2,0.29621525889314443,0.15910458110731027,0.43974915506091383
1,12801.0,8781.0,[3],1,0.1357252198520363,0.13134517205775376,0.07695546474741263
1,12331.0,8258.0,[5],1,0.13309185126734174,0.1752607470191561,0.21629454726792635
1,7297.0,4302.0,[6],1,0.24007980807873902,0.17982441181741482,0.35779622952715806
1,17172.0,11765.0,[7],1,0.32087386835637427,0.4332494864311372,0.7561871711186764
1,24327.5,17994.0,[8],1,0.20607829258745897,0.5919442738163423,0.6138728912421191
1,23676.0,16710.0,[9],1,0.1973838059116455,0.428979262081847,0.5224180858817493
2,16010.5,9304.0,[0],1,0.2509163403651186,0.12997584235232515,0.20001225532047537
2,6786.25,3775.0,[1],1,0.455242569554675,0.2584276330649292,0.3508767359651072
2,10130.0,6371.0,[2],1,0.2859465155229194,0.15021585899148157,0.06758302974472255
2,17664.5,11264.0,[3],1,0.1353295872728995,0.13689319747956744,0.07193229963510082
2,10423.0,5216.0,[4],1,0.3210034366520859,0.17895465258480237,0.6960756011792473
2,15742.5,9577.0,[5],1,0.12920368714904934,0.17509551700623022,0.21063004867096483
2,7603.5,3955.0,[6],1,0.24513721874092503,0.19708981366345163,0.3535855161649691
2,18162.0,9576.0,[7],1,0.34339901560115693,0.4335948808635796,0.7384626888074147
2,25158.75,12995.0,[8],1,0.22299733769217234,0.600059924906709,0.5870350778126803
2,29805.0,17967.0,[9],1,0.20361964190459225,0.44938801872807005,0.49019928720050937
3,17125.25,9120.0,[0],1,0.2521232610563045,0.13139117729958807,0.20203909041823265
3,8940.125,5547.0,[1],1,0.5002030832776513,0.2573073971692399,0.32865200492923036
3,9633.0,4568.0,[2],1,0.30366518650192176,0.15052171480671017,0.07054924932090163
3,16724.25,7892.0,[3],1,0.13914509358929494,0.13709657454760762,0.07089101808041638
3,12808.5,7597.0,[4],1,0.3492281832683966,0.17375728116068243,0.7100926418833954
3,16481.25,8610.0,[5],1,0.12933172271862192,0.16850747369920185,0.2091911321919592
3,8023.75,4222.0,[6],1,0.25267233336425665,0.19890652679157445,0.35034242024390805
3,17931.0,8850.0,[7],1,0.34925985002433807,0.43875965206998674,0.7530646586475591
3,35093.375,22514.0,[8],1,0.22551958993188506,0.6074985074966553,0.5901358428880583
3,25982.5,11080.0,[9],1,0.1992815442978615,0.4529069285235102,0.4955835230025659
4,16272.625,7710.0,[0],1,0.261537389299548,0.13186139183658727,0.20587895191804914
4,10388.0625,5918.0,[1],1,0.5197272609461987,0.24980991467728736,0.31877768646690485
4,10041.5,5225.0,[2],1,0.33142179058032434,0.15119519266537054,0.07589836393887454
4,13231.125,4869.0,[3],1,0.14420078061169056,0.1370967859149133,0.06803640795947494
4,13899.25,7495.0,[4],1,0.39511142384410164,0.1689263158100357,0.7117500812100166
4,13170.625,4930.0,[5],1,0.12925001213012438,0.16915578747697219,0.2102488253527836
4,9006.875,4995.0,[6],1,0.2687879265136873,0.2070585848982265,0.3515828202256417
4,18815.5,9850.0,[7],1,0.39795312046993625,0.4575038378750745,0.7554305689304288
4,44910.6875,27364.0,[8],1,0.2539756410112267,0.6099258032176249,0.5780028156538494
4,24635.25,11644.0,[9],1,0.20839037341327032,0.4581050737270366,0.4906267521083616
5,15814.3125,7678.0,[0],1,0.2734967004936713,0.1306862233647713,0.20790840272795869
5,18842.03125,13648.0,[1],1,0.5660246909807249,0.20986962596747466,0.3315246983435647
5,12021.75,7001.0,[2],1,0.38919930472460534,0.14598691878888032,0.08302008161895522
5,10430.5625,3815.0,[3],1,0.1550419639077923,0.13613476500176777,0.0657721085595206
5,12920.625,5971.0,[4],1,0.4461040889788938,0.1638071211427774,0.7011820395150864
5,9545.3125,2960.0,[5],1,0.13213380516129897,0.1673025407954578,0.21028065131550325
5,8960.4375,4457.0,[6],1,0.29578335650400533,0.19591225973324786,0.37127664694327406
5,23706.75,14299.0,[7],1,0.4543271377812373,0.45931017174548083,0.7568684361626029
5,46964.34375,24509.0,[8],1,0.27864974601854536,0.61349531066789,0.5646798767991951
5,17979.625,5662.0,[9],1,0.21518491827476863,0.4718831647418159,0.4830279535826342
6,15711.15625,7804.0,[0],1,0.2853254994656074,0.1329430459361121,0.20894256331168912
6,19998.015625,10577.0,[1],1,0.5675903851309999,0.21222323766124063,0.3315455251609131
6,13309.875,7299.0,[2],1,0.421139390148247,0.14820257613306267,0.09931637894616294
6,8685.28125,3470.0,[3],1,0.17163427398663877,0.13700276637271974,0.06400827193684712
6,18361.3125,11901.0,[4],1,0.4990037589721818,0.16317580179196206,0.6709000596470255
6,7432.65625,2660.0,[5],1,0.13752928271434123,0.17035211246839324,0.210864934636503
6,9457.21875,4977.0,[6],1,0.3263941506397089,0.1951278389579201,0.37126230537989
6,25323.375,13470.0,[7],1,0.48610370226291,0.4821047052752755,0.7407028381317483
6,42656.171875,19174.0,[8],1,0.30561398278891116,0.6184478960683689,0.5522052809261438
6,17657.8125,8668.0,[9],1,0.2370090197844677,0.48686099836598146,0.4688566772477485
