time,cumulative size,size,pcore_ids,pcore_power,SCA-1,CD11b,Ly6C
-1,0,0,[],0,0.0,0.0,0.0
0,5955.0,5955.0,[0],1,0.2735025802130208,0.4591098016420283,0.8347274192673722
0,33454.0,33454.0,[1 3 6],3,0.18651594710295,0.1451720901558084,0.18074677684599144
0,21226.0,21226.0,[2 4],2,0.20695474174666229,0.5123957406459195,0.599860930316791
0,5301.0,5301.0,[11],1,0.3688858790688179,0.13394296815848836,0.15049751087011853
0,5123.0,5123.0,[5],1,0.22649386880492692,0.41629135925905947,0.41682994765299175
0,4546.0,4546.0,[7],1,0.220312708542391,0.17155825916274706,0.6822949174829533
0,6382.0,6382.0,[8],1,0.4205527132137706,0.4125529451469129,0.6447303768463485
0,4629.0,4629.0,[9],1,0.42076139433614246,0.1523630290642603,0.7372466887122494
0,3381.0,3381.0,[10],1,0.458529322818523,0.20724945496593267,0.3918339680212174
1,10659.5,7682.0,[0],1,0.24581006234350222,0.4501210230544466,0.8239970389348097
1,46228.0,29501.0,[1 3 6],3,0.18147271754168423,0.14455070862618014,0.17319277906562786
1,39033.0,28420.0,[2 4],2,0.19557166695884473,0.5320603676457558,0.5878791271185799
1,6682.5,4032.0,[11],1,0.36294976397348033,0.13338784188457423,0.14602754427055376
1,8110.5,5549.0,[5],1,0.2171377233978161,0.41391738155192903,0.4110236682108971
1,6340.0,4067.0,[7],1,0.21136479637046995,0.17618216238206055,0.6875935306640063
1,9820.0,6629.0,[8],1,0.40902566420283293,0.4062353701468048,0.6290846030327614
1,4110.5,1796.0,[9],1,0.4131984544923968,0.1546419031714938,0.7312970828956981
1,4014.5,2324.0,[10],1,0.44632364980316563,0.22360910026944145,0.4032769850716548
2,10356.75,5027.0,[0],1,0.28601294872827526,0.4474856933643402,0.8037342419431778
2,57633.0,34519.0,[1 3 6],3,0.1783050470265485,0.14967214237412577,0.16276405901762808
2,40872.5,21356.0,[2 4],2,0.20744486313632388,0.5453725635038237,0.5644439679534656
2,8699.25,5358.0,[11],1,0.3601833491392896,0.1440599822864009,0.1392371331194674
2,14033.25,9978.0,[5],1,0.21653168428033367,0.4345426219064557,0.40912780841016183
2,10585.25,5360.0,[7 9],2,0.3078181718306859,0.1764164597261986,0.6942064768551899
2,10703.0,5793.0,[8],1,0.40761639338754496,0.41267104140040944,0.6237330009882117
2,4616.25,2609.0,[10],1,0.44334687246140847,0.23357213659693674,0.3995845990458086
3,10786.375,5608.0,[0],1,0.2924862683741011,0.4372895518064698,0.8174528003975967
3,58704.5,29888.0,[1 3 6],3,0.18202133069637524,0.14963704296027636,0.16779672807681176
3,50276.25,29840.0,[2 4],2,0.21171771188900587,0.5645893120374196,0.571603649303073
3,10870.625,3854.0,[5],1,0.21459029430024054,0.42515684132561776,0.41554032501875526
3,9263.625,4914.0,[11],1,0.38815921158341904,0.15054057894055894,0.1402662892775686
3,6505.0,3633.0,[7],1,0.23240009845494922,0.1791999323527671,0.6901294875108941
3,9511.5,4160.0,[8],1,0.4236542310993063,0.4342598165878254,0.6304652222072761
3,6511.625,4091.0,[9],1,0.4563503216050283,0.16442580112334765,0.7191876768963437
3,6320.125,4012.0,[10],1,0.491131304516136,0.24980828229437618,0.3668902618632314
4,10562.1875,5169.0,[0],1,0.3522069631074073,0.4396894590712524,0.8234922937256921
4,50928.25,21576.0,[1 3 6],3,0.19400902442779286,0.151034762762793,0.17449025298561482
4,58114.125,32976.0,[2 4],2,0.23622443242189686,0.5791884706050141,0.5652863748912027
4,11240.3125,5805.0,[5],1,0.22288477499819875,0.41760299121327316,0.4201413664736414
4,10577.8125,5946.0,[11],1,0.4078048212135752,0.15270306815108692,0.1365617483279762
4,5602.5,2350.0,[7],1,0.2580634397765841,0.17250731180125214,0.6710946234827967
4,10932.75,6177.0,[8],1,0.4432284621070674,0.47433505317525754,0.6388270803091128
4,8725.8125,5470.0,[9],1,0.479647045198857,0.16408553631753794,0.7252451443209142
4,7691.0625,4531.0,[10],1,0.5083619877259749,0.24865087536044908,0.35605246617113545
5,11243.09375,5962.0,[0],1,0.3864604460209917,0.44368629754220973,0.8170898850049445
5,43334.125,17870.0,[1 3 6],3,0.21287033774048236,0.14828737395064706,0.17944408254996444
5,55301.0625,26244.0,[2 4],2,0.25690349821970926,0.5922395023503514,0.55578921528682
5,8300.15625,2680.0,[5],1,0.2381559420521616,0.4290732819403754,0.41144012981415085
5,5372.25,2571.0,[7],1,0.29052422169481795,0.17117075341503796,0.663574521630739
5,14003.375,8537.0,[8],1,0.4940380569371143,0.5169208486504561,0.6635051295003768
5,11769.90625,7407.0,[9],1,0.5428333626634766,0.15756252491611974,0.6998012648724714
5,13083.53125,9238.0,[10],1,0.5541877806167546,0.22526057415212056,0.34958868905226764
5,14779.90625,9491.0,[11],1,0.4611829975373875,0.1464080272783063,0.13399622164853722
6,27416.234375,14793.0,[0 8],2,0.48023092441736415,0.49971866046447855,0.71981444870104
6,39156.0625,17489.0,[1 3 6],3,0.2349527158617097,0.14927848482473122,0.18528897046817966
6,49349.53125,21699.0,[2 4],2,0.27960854825805537,0.5993084929669855,0.5437541381276663
6,9404.078125,5254.0,[5],1,0.26989169864877094,0.45361528395474765,0.40935893717537086
6,6406.125,3720.0,[7],1,0.3365732704896796,0.17566189515760572,0.6405229983084912
6,14981.953125,9097.0,[9],1,0.5673575470394207,0.15841822112100373,0.673830619409041
6,15807.765625,9266.0,[10],1,0.5533635848002776,0.2236252017168754,0.35815420258633207
6,16071.953125,8682.0,[11],1,0.47448666730859845,0.14736496455540857,0.13972346095614224
