time,cumulative size,size,pcore_ids,pcore_power,SCA-1,CD11b,Ly6C
-1,0,0,[],0,0.0,0.0,0.0
0,12654.0,12654.0,[0 9],2,0.2006922357011083,0.12635068981818207,0.11037593683238967
0,8712.0,8712.0,[12],1,0.11938408600819687,0.1417440810823166,0.20811590801720448
1,7146.5,5111.0,[1],1,0.26902868301211297,0.6471594170231091,0.6697749626532337
1,18255.0,11928.0,[0 9],2,0.19479249951529626,0.12575926015434907,0.1081969793185993
1,12201.5,9638.0,[5],1,0.196877479145825,0.5680016625060762,0.5369968933864491
1,5776.0,3727.0,[0],1,0.2634744895577187,0.10594872604379516,0.23657865046363438
1,7628.0,5536.0,[7],1,0.26655830382446594,0.4556108182048984,0.8346217866890547
1,12605.0,8249.0,[12],1,0.1193660443287682,0.14164776062074053,0.2045021816739389
1,7295.0,5054.0,[14],1,0.2417728781449512,0.40449658695133145,0.5288307273340633
1,7368.5,4799.0,[15],1,0.4088594556390512,0.3944418226417512,0.6642207627635406
1,8435.5,6122.0,[19],1,0.12974341317026916,0.41922871746237245,0.5360047070136167
2,6898.0,4010.0,[0],1,0.26188892888672954,0.10804335868879321,0.23248511882660716
2,7494.25,3921.0,[1],1,0.28435253544571376,0.6479480044806614,0.6530884517030985
2,29922.25,18343.0,[2 9],2,0.19295681194737171,0.13900640267958356,0.08364235774300052
2,17924.75,11824.0,[5],1,0.20776615911932939,0.5723581944098991,0.515700784003254
2,7795.5,4612.0,[6],1,0.23165817357896745,0.2105370789099535,0.2657988683151824
2,7550.0,3736.0,[7],1,0.29959022248679007,0.45413600131850973,0.8136350462396189
2,15845.5,9543.0,[12],1,0.1157008742070177,0.14660226200081605,0.1970075005311241
2,9991.5,6344.0,[14],1,0.24399326506182117,0.4209291415802978,0.49967976677725734
2,8148.25,4464.0,[15],1,0.4053599432152059,0.3973400584446619,0.6670494443277867
2,8523.75,4306.0,[19],1,0.128064578318024,0.4324543679192873,0.5094422730148404
3,16478.75,9132.0,[0 6],2,0.242958969118383,0.1603653134796185,0.24947632834147265
3,11688.125,7941.0,[1],1,0.28169155167451615,0.6563734341885561,0.637228741742789
3,34961.125,17243.0,[ 2  9 10],3,0.21015058419020322,0.15440220940942012,0.22388982063843552
3,7391.625,4781.0,[3],1,0.26488184984638363,0.5120624815920354,0.6138921973368919
3,18312.375,9350.0,[5],1,0.20919240082246454,0.5777188215483285,0.523976280476903
3,7926.0,4151.0,[7],1,0.3044124797636546,0.4490662282790005,0.8277350746352501
3,16339.75,8417.0,[12],1,0.11716712071324675,0.14683606324941528,0.19552216333629013
3,8776.75,3781.0,[14],1,0.24232474844960497,0.42247499789589504,0.4981110722085827
3,7140.125,3066.0,[15],1,0.4211868005804273,0.41714952009867684,0.6727493923441338
3,7965.875,3704.0,[19],1,0.12662831604547004,0.43742268970148074,0.507391094033036
4,8639.0,4542.0,[0],1,0.26677068552461947,0.10990555071209751,0.23227191697618413
4,16269.0625,10425.0,[1],1,0.30598556706059155,0.6549712045937037,0.6181919368272308
4,23384.5625,9394.0,[2 9],2,0.20560862006311026,0.1406952648511819,0.08217946605778823
4,31323.0,18471.0,[3 5],2,0.24395366805165627,0.5663092779971824,0.5453809233479137
4,7915.375,3773.0,[6],1,0.23202976464344519,0.2139059560539409,0.2673975900487154
4,8251.0,4288.0,[7],1,0.36480605347121176,0.4518720238764416,0.8331219435776002
4,6947.0,3457.0,[10],1,0.3242006795431826,0.20823454955001894,0.7855494256064777
4,7963.0,4829.0,[11],1,0.5002868780751417,0.17445359739303343,0.16909384564524008
4,12605.875,4436.0,[12],1,0.11698141460927783,0.1474045995575834,0.19532658052221769
4,9259.375,4871.0,[14],1,0.25061833777639686,0.4255526989736139,0.49130047873287874
4,8082.0625,4512.0,[15],1,0.4480728885587784,0.4557339442237953,0.681686690450513
4,6432.9375,2450.0,[19],1,0.12671686260023754,0.441891338266497,0.49981764272007945
5,9306.5,4987.0,[0],1,0.28184146017915235,0.10971173643901386,0.2305338587083279
5,17926.53125,9792.0,[1],1,0.3283462163303396,0.653903650733057,0.5992117682168608
5,11569.09375,5438.0,[2],1,0.2682356332536627,0.13982484808009282,0.10764081271921767
5,31243.5,15582.0,[3 5],2,0.2592284824456953,0.5741489772859157,0.5342795054155192
5,9488.40625,6799.0,[4],1,0.6049437921005159,0.14705748228789953,0.643085937407452
5,6397.6875,2440.0,[6],1,0.23893309522939327,0.21311618557557316,0.2663615448467213
5,8406.5,4281.0,[7],1,0.38729655590209455,0.4569602952816355,0.826072124331887
5,8062.1875,2501.0,[9],1,0.15731778211071332,0.13901359167346403,0.04334537664008886
5,6530.5,3057.0,[10],1,0.35498010523652956,0.21012966892039087,0.7793228118052874
5,14450.5,10469.0,[11],1,0.5428597247325169,0.16236399046221217,0.1716340713929412
5,9063.9375,2761.0,[12],1,0.12025140994683743,0.14512841901220633,0.19482231502883943
5,7820.9375,4966.0,[13],1,0.41293010739412245,0.17782710509753616,0.3635260911534021
5,11290.03125,7249.0,[15],1,0.5052917538214252,0.5008680649815932,0.713916076492203
6,9876.25,5223.0,[0],1,0.299309358863688,0.1114018175859518,0.22908628429092873
6,17218.265625,8255.0,[1],1,0.3503284748492186,0.6634833715522593,0.5826900502079768
6,10992.546875,5208.0,[2],1,0.2854117911575883,0.14183199752984663,0.10072583884352392
6,12608.453125,6971.0,[3],1,0.3291177226955367,0.5429468913663642,0.5561024159680213
6,12958.203125,8214.0,[4],1,0.6054754587543675,0.15072527363405255,0.6378932540799661
6,17175.296875,7191.0,[5],1,0.2449364513564591,0.5950855372637501,0.498197272401933
6,7208.25,3005.0,[7],1,0.3982723886136948,0.4565186087601043,0.8009443391932846
6,15591.25,8366.0,[11],1,0.5423096202403909,0.16004339168985096,0.17363402276311005
6,6842.96875,2311.0,[12],1,0.12570671065780903,0.1448703130948954,0.19461312589456062
6,10552.46875,6642.0,[13],1,0.4393295128266667,0.1773472977140912,0.3649593589135679
6,14529.015625,8884.0,[15],1,0.5339238328938145,0.5197197693955726,0.722274243988754
