time,cumulative size,size,pcore_ids,pcore_power,SCA-1,CD11b,Ly6C
-1,0,0,[],0,0.0,0.0,0.0
0,12523.0,12523.0,[0],1,176.72123293140717,383.2348478799035,537.0281082807612
0,7770.0,7770.0,[1],1,339.1906048906027,138.83616473616493,270.001287001287
0,32213.0,32213.0,[3 8],2,165.53680191227375,131.10349858752727,190.9271722596457
0,11004.0,11004.0,[4],1,193.76463104325833,501.7134678298838,598.1882951653944
1,21394.5,15133.0,[0],1,170.1025497207254,394.25871135104967,527.7082661431673
1,8081.0,4196.0,[1],1,339.782390793215,139.18630120034658,267.202945180052
1,46012.5,29906.0,[3 8],2,163.6310024449905,130.81991850040777,187.20746536267237
1,21299.0,15797.0,[4],1,181.57880651674046,520.0854734964097,587.7897553875756
1,7532.5,5389.0,[6],1,177.96302688350673,305.8140723531362,768.2152671755703
1,7254.0,4770.0,[9],1,288.2116763165132,461.7483457402807,752.0953956437821
1,9609.0,6739.0,[10],1,358.99266312831037,343.1707773961912,577.1285773753752
2,26676.25,15979.0,[0],1,178.1623916405056,412.18593318026393,497.43765521765897
2,10003.5,5963.0,[1],1,340.5494826810578,147.32326185834935,256.74618883390826
2,7122.75,4407.0,[2],1,199.85349759573302,288.34540732161025,385.26710189182535
2,57855.25,34849.0,[3 8],2,160.37140536079653,135.13305620492542,179.33531961230722
2,22069.5,11420.0,[4],1,198.11679014024034,526.1659416842251,565.8322118761156
2,8975.0,5348.0,[9],1,302.318412256264,444.4529526462391,732.7094150417819
2,10051.5,5247.0,[10],1,360.01743520867,345.59598069939824,569.8935730985419
3,24294.125,10956.0,[0],1,174.08576147525633,415.5196163681597,503.99092887683537
3,12404.75,7403.0,[1],1,376.7142727584168,156.52392228783302,251.33092162276608
3,58346.625,29419.0,[3 8],2,162.20456410289745,135.30759276993405,185.24200628570975
3,32456.75,21422.0,[4],1,202.0438968781542,533.2624993260249,570.7324978625329
3,7140.125,4247.0,[6],1,217.99550077904829,287.73587647274985,766.4902750301989
3,8520.5,4033.0,[9],1,319.70774895839025,447.16162490464035,738.9577489583928
3,8499.75,3474.0,[10],1,381.4445866054827,356.9317921115326,562.6393276272835
4,22238.0625,10091.0,[0],1,179.2438808461859,420.20219837047705,498.438670747505
4,22993.625,13912.0,[1 5],2,413.049549059792,149.60640992883933,389.6617105828249
4,6761.6875,3709.0,[2],1,212.56736946213542,280.2647360588602,390.42965420984063
4,49248.3125,20075.0,[3 8],2,169.4745061061766,135.54264803489514,187.40351636413806
4,42976.375,26748.0,[4],1,227.28529628196696,533.8442065553446,556.63275462389
4,10595.25,6335.0,[9],1,366.72697081238715,452.4025683678988,744.9924022557248
4,8419.875,4170.0,[10],1,398.25684021436865,376.8300004453739,554.760945085291
5,15774.03125,4655.0,[0],1,180.17362001232414,432.47330164887643,493.08468031911394
5,35458.8125,23962.0,[1 5],2,463.86644275665134,144.09103079100507,370.5145406378163
5,41089.15625,16465.0,[3 8],2,183.50585426660086,132.56439997475044,188.48210028041004
5,45151.1875,23663.0,[4],1,246.42282248944034,536.5658966610846,545.3651468192118
5,13844.625,8547.0,[9],1,417.00392525979976,467.85349233005456,742.9477053369058
5,9096.9375,4887.0,[10],1,428.2366902322869,395.2268277098757,539.940161867662
6,14712.015625,6825.0,[0],1,195.08551577207965,441.95158931528425,480.127588100283
6,26854.59375,14875.0,[1],1,448.47856977448953,147.75368797470628,243.0685124868057
6,36025.578125,15481.0,[3 8],2,199.81259799352762,132.239090108287,190.83019876936316
6,40985.59375,18410.0,[4],1,267.10413415079364,541.3623586488884,533.9085273102708
6,14996.8125,9247.0,[5],1,523.5434404811057,137.5840470266593,622.3375571475603
6,6605.890625,4040.0,[7],1,326.3878120143645,129.0560366339698,583.2832864607113
6,16169.3125,9247.0,[9],1,447.66006497647527,476.32848200101154,725.5837987855058
6,10351.46875,5803.0,[10],1,445.27470588412694,402.85103261312724,527.0341904983284
