time,cumulative size,size,pcore_ids,pcore_power,SCA-1,CD11b,Ly6C
-1,0,0,[],0,0.0,0.0,0.0
0,25286.0,25286.0,[1 3 7],3,NA,134.81258403859846,NA
0,8429.0,8429.0,[2],1,219.40918258393745,NA,NA
0,6924.0,6924.0,[13],1,NA,NA,NA
0,8709.0,8709.0,[18],1,200.29601561603087,422.0543116316467,NA
1,50303.0,32572.0,[1 3 7 9],4,182.87820805916402,138.79112577778653,NA
1,18519.5,14305.0,[2],1,196.60881773266178,511.78908717837726,606.0177110613104
1,5720.5,3479.0,[4],1,322.74311686041057,NA,NA
1,11062.0,7600.0,[13],1,NA,NA,514.5835291990603
1,7599.0,5731.0,[16],1,218.70765890248725,388.47815502039765,NA
1,2496.5,1448.0,[17],1,NA,NA,NA
2,14424.25,8356.0,[1 7],2,NA,NA,NA
2,18280.75,9021.0,[2],1,211.3497805068184,NA,NA
2,38425.25,25036.0,[3],1,175.60352242341006,139.44688713801463,NA
2,2511.5,1579.0,[0],1,283.0167230738573,NA,NA
2,16208.25,9429.0,[13 17],2,NA,NA,NA
2,4503.75,2078.0,[14],1,253.03064113238858,NA,NA
2,7441.5,3642.0,[16],1,256.2640260700112,NA,NA
3,64546.25,32136.0,[1 3 7 9],4,NA,144.4298932935684,NA
3,30412.375,21272.0,[2],1,213.09651909790122,NA,578.1017842243424
3,4651.125,1687.0,[4],1,NA,NA,NA
3,28336.375,11261.0,[13 18],2,NA,NA,NA
3,7483.75,3763.0,[16],1,NA,NA,NA
4,5288.875,3818.0,[0],1,NA,NA,NA
4,39177.5625,15776.0,[1 3],2,NA,139.75828160570202,NA
4,39968.1875,24762.0,[2],1,237.72030255312401,NA,563.9126148765022
4,12249.25,5085.0,[9],1,NA,152.6294518031708,NA
4,6119.4375,4013.0,[12],1,NA,NA,NA
4,24132.1875,9964.0,[13 18],2,NA,NA,NA
4,6059.4375,3063.0,[14],1,NA,NA,NA
4,7319.875,3578.0,[16],1,NA,NA,NA
4,5092.0625,3833.0,[17],1,276.2873099063463,NA,NA
5,8362.4375,5718.0,[0],1,NA,NA,NA
5,11535.625,5852.0,[1],1,264.29304058080874,NA,NA
5,39502.09375,19518.0,[2],1,NA,NA,552.7296021492382
5,21740.15625,7835.0,[3],1,NA,136.40687092577843,NA
5,7405.625,5230.0,[8],1,NA,NA,NA
5,9541.625,3417.0,[9],1,NA,NA,NA
5,5537.125,3548.0,[10],1,NA,NA,NA
5,13244.71875,10185.0,[12],1,NA,NA,NA
5,5392.25,883.0,[13],1,NA,NA,NA
5,5696.71875,2667.0,[14],1,NA,NA,NA
5,7800.9375,4141.0,[16],1,NA,NA,NA
5,7461.03125,4915.0,[17],1,NA,NA,NA
5,12480.84375,4924.0,[18],1,NA,NA,NA
5,5114.46875,3857.0,[19],1,NA,NA,NA
6,10282.21875,6101.0,[0],1,NA,NA,NA
6,12359.8125,6592.0,[1],1,NA,NA,NA
6,32883.046875,13132.0,[2],1,NA,NA,542.5395143298932
6,17450.078125,6580.0,[3],1,NA,137.2447347567394,NA
6,5771.640625,3655.0,[4],1,NA,NA,NA
6,10378.8125,6676.0,[8],1,NA,NA,NA
6,7811.8125,3041.0,[9],1,NA,NA,NA
6,7401.5625,4633.0,[10],1,NA,NA,NA
6,14519.359375,7897.0,[12],1,NA,NA,NA
6,5183.359375,2335.0,[14],1,NA,NA,NA
6,6931.46875,3031.0,[16],1,373.5565852294955,NA,NA
6,11441.515625,7711.0,[17],1,332.9217201064601,NA,NA
6,4267.125,1571.0,[13],1,NA,NA,NA
6,7212.234375,4655.0,[19],1,486.55325261112586,NA,NA
