time,cumulative size,size,pcore_ids,pcore_power,SCA-1,CD11b,Ly6C
-1,0,0,[],0,0.0,0.0,0.0
0,34244.0,34244.0,[0 2],2,NA,NA,NA
0,55755.0,55755.0,[1 3 4],3,NA,NA,NA
1,59731.0,42609.0,[0 2],2,NA,NA,NA
1,75268.5,47391.0,[1 3 4],3,NA,NA,NA
2,119047.75,68464.0,[0 2 3],3,NA,NA,NA
2,38452.0,21536.0,[1 4],2,NA,NA,NA
3,124394.875,64871.0,[0 2 3],3,NA,NA,NA
3,44355.0,25129.0,[1 4],2,NA,NA,NA
4,150873.0625,77537.0,[0 1 2 3],4,NA,NA,NA
4,23501.875,12463.0,[4],1,NA,NA,NA
5,78698.6875,38043.0,[0 2],2,NA,NA,NA
5,62112.25,37454.0,[1 4],2,NA,NA,NA
5,36376.53125,14503.0,[3],1,NA,NA,NA
6,34464.796875,16732.0,[0],1,NA,NA,NA
6,111967.671875,59295.0,[1 2 4],3,NA,NA,NA
6,32161.265625,13973.0,[3],1,NA,NA,NA
