time,cumulative size,size,pcore_ids,pcore_power,SCA-1,CD11b,Ly6C
-1,0,0,[],0,0.0,0.0,0.0
0,13268.0,13268.0,[0 2],2,217.87179680434096,111.5232891166716,211.0193699125717
0,4990.0,4990.0,[1],1,248.00020040080108,553.3174348697382,640.6440881763524
0,8749.0,8749.0,[7],1,151.40987541433628,120.10629786261299,89.37901474454237
0,4834.0,4834.0,[3],1,271.7525858502271,412.5000000000002,794.1232933388496
0,8290.0,8290.0,[4],1,206.57370325693637,444.9833534378788,549.1480096501795
0,5108.0,5108.0,[5],1,225.6875489428352,193.8187157400156,310.2777995301492
0,9065.0,9065.0,[10],1,108.00617760618162,126.32277992278016,230.1773855488148
0,5938.0,5938.0,[12],1,369.9917480633148,354.91007073088593,622.0495116200724
0,7269.0,7269.0,[13],1,156.23799697345132,342.649745494566,511.6187921309653
0,4618.0,4618.0,[16],1,114.53919445647647,471.8841489822447,622.2880034647027
1,6733.5,4282.0,[0],1,234.55981287591766,103.65203831588323,266.5376847107749
1,9247.0,6752.0,[1],1,231.1102519736141,564.8354060776442,631.9382502433222
1,24009.0,15452.0,[2 7],2,175.9563705277212,118.34518305635356,126.60158690491073
1,8206.0,5789.0,[3],1,248.34572264196797,408.6221667072878,784.4577138678975
1,14909.0,10764.0,[4],1,198.1419276946817,459.2316050707651,537.4175665705258
1,6170.0,3616.0,[5],1,218.40194489465227,199.64878444084357,312.39230145867117
1,4892.5,3329.0,[6],1,152.1347981604529,229.13071027082245,731.7503321410327
1,13312.5,8780.0,[10],1,108.68184037559203,127.01483568075113,227.68240375586842
1,9498.0,6529.0,[12],1,364.55480101073147,350.12497367866854,603.7940619077691
1,12245.5,8611.0,[13],1,151.80049814217776,346.8169123351436,504.4753174635583
1,9157.0,6848.0,[16],1,105.13541552910863,491.0702741072393,605.2430927159578
2,8062.75,4696.0,[0],1,233.47955102167242,106.94855973458174,263.59688071687856
2,9708.5,5085.0,[1],1,243.43660194674786,566.4795282484429,615.8019776484535
2,31065.5,19061.0,[2 7],2,174.44770726368773,123.3526500458704,120.63523040028316
2,9010.0,4907.0,[3],1,277.980077691452,401.8675638179793,762.8492785793557
2,20866.5,13412.0,[4],1,202.4515371528536,472.38415642297383,512.1174250593035
2,7429.0,4344.0,[5],1,224.52671961233014,209.8949387535342,308.8897900121148
2,5037.5,2968.0,[8],1,295.56521091811004,152.39101736972734,708.4233746898243
2,4548.75,2654.0,[9],1,404.5685078318187,142.78103874690885,215.88320967298696
2,16881.25,10225.0,[10],1,106.13322473158662,131.77676416142182,221.59342465753394
2,10241.0,5492.0,[12],1,365.4899668001113,354.77663314129376,594.1563323894155
2,14228.75,8106.0,[13],1,155.7168760432261,359.01061231661265,478.951858033909
2,6939.5,2361.0,[16],1,104.62893580229715,497.1009798976852,583.9319115210048
3,9537.375,5506.0,[0],1,230.14200710363156,108.2700166450412,264.4326006893947
3,15302.25,10448.0,[1],1,242.65536930843467,569.9753467627327,606.1911646980043
3,35043.5,16992.0,[2 7 8],3,195.4182230656201,128.08443077888927,220.23306033929254
3,9122.0,4617.0,[3],1,287.58213659285,401.02646075421956,774.3091427318551
3,20932.25,10499.0,[4],1,206.65449246975467,475.13062379820457,518.4518207550502
3,7570.5,3856.0,[5],1,231.98672478700175,209.90195495674,310.3760815005602
3,7075.375,4801.0,[9],1,439.0313587619009,164.78047099977,218.83481440913093
3,17630.625,9190.0,[10],1,107.95027119005175,132.5138076500407,221.11002871423884
3,8967.5,3847.0,[12],1,381.4264148313285,369.97242821299074,593.8199609701716
3,12613.375,5499.0,[13],1,155.9881673223897,361.21308729820555,478.0437531588482
3,10540.75,7071.0,[16],1,111.55337618291502,509.3579797452733,574.4765552735802
4,10087.6875,5319.0,[0],1,239.9851613662693,107.41370358667422,265.1975923619774
4,21550.125,13899.0,[1],1,263.1008201808559,567.946989866651,590.3988201924552
4,24822.875,10194.0,[2 7],2,186.86213069598293,124.33821374437906,120.53422246617217
4,10192.0,5631.0,[3],1,340.82938824567793,406.28009100274494,779.0626962323352
4,24966.125,14500.0,[4],1,221.5137811734904,482.47196951869387,516.1290573727356
4,8271.25,4486.0,[5],1,245.02121807465397,218.3125132235159,311.75022668883094
4,7256.875,4364.0,[8],1,324.1997330117936,152.67638446300944,726.8814314012584
4,9127.6875,5590.0,[9],1,450.87298946200775,169.43259861821502,217.66040823593036
4,13832.3125,5017.0,[10],1,108.47849012954863,134.0058377801969,222.1048721968928
4,9442.75,4959.0,[12],1,398.4758346350307,395.99818643933094,592.0114638214502
4,11885.6875,5579.0,[13],1,165.47512501906536,362.62337054545475,468.74811091070455
4,4659.5625,2759.0,[14],1,526.6648827009022,141.64403846927652,607.9774925220967
4,9967.375,4697.0,[16],1,118.03851314915455,516.0989290058826,560.6743876898332
5,10747.84375,5704.0,[0],1,255.04368318063612,105.5059008929117,264.7166524680821
5,23202.0625,12427.0,[1],1,280.77679651323723,567.8214733065207,576.8569577596809
5,12597.21875,6001.0,[2],1,244.36562137971876,122.83611461855426,144.85777366531664
5,12967.0,7871.0,[3],1,392.62262377573364,431.294851835427,773.446171049585
5,24118.0625,11635.0,[4],1,233.4086900637222,493.326889338638,506.1443174073308
5,7242.625,3107.0,[5],1,263.0171899000692,221.07325555306272,310.8860435615546
5,8536.21875,2721.0,[7],1,141.95295414026683,123.25862226761699,83.46856226593344
5,7291.4375,3663.0,[8],1,343.1185508687357,157.59234290220567,723.2771101377487
5,16804.84375,12241.0,[9],1,485.7261392269756,158.00009483872626,219.94331805375998
5,10110.15625,3194.0,[10],1,112.29689823043641,132.6345784715244,222.40061819024714
5,5220.59375,3070.0,[11],1,320.23217545896364,139.48597202186045,486.1227889547986
5,10338.375,5617.0,[12],1,430.34740408912967,419.0821998137993,588.9821296867253
5,7456.84375,1514.0,[13],1,169.90054438247046,366.8169969700636,462.1673588440141
5,9257.78125,6928.0,[14],1,555.3113461986441,140.27093424787884,597.0282093779218
5,8409.6875,3426.0,[16],1,125.43356248374813,523.1185797629214,550.5992865371007
6,11300.921875,5927.0,[0],1,269.4954324799241,105.09306071545596,263.3235272564873
6,21607.03125,10006.0,[1],1,299.6153111328026,575.4783946198116,564.6809805835733
6,12161.609375,5863.0,[2],1,261.1141745991149,124.06365445568336,138.63317586205488
6,14738.5,8255.0,[3],1,428.42872621026197,449.0408909912784,752.4116599382569
6,23141.03125,11082.0,[4],1,246.9102878680047,494.4413345883184,497.31388442876215
6,7240.3125,3619.0,[5],1,282.169372868916,220.64328628771244,306.1715244507754
6,6380.109375,2112.0,[7],1,145.38665089499744,123.84854785502797,84.76985602225696
6,7604.71875,3959.0,[8],1,363.1514622910875,164.0001951913083,701.3608388706049
6,18649.421875,10247.0,[9],1,486.6475217479125,154.89002675183394,226.41825441974999
6,7860.078125,2805.0,[10],1,118.79227902076937,134.33697979305973,223.37138029400896
6,7870.296875,5260.0,[11],1,365.49816259313053,143.6795606106027,474.92310089954344
6,11419.1875,6250.0,[12],1,447.97928240297,424.99262480364683,583.9203588258799
6,5788.421875,2060.0,[13],1,177.427272653656,376.9071368221563,452.7271762867147
6,12509.890625,7881.0,[14],1,552.8703400934082,141.21824606280236,600.9025583507073
6,5966.84375,1762.0,[16],1,130.98860369018908,526.0311853523882,539.6848155693679
