time,cumulative size,size,pcore_ids,pcore_power,SCA-1,CD11b,Ly6C
-1,0,0,[],0,0.0,0.0,0.0
0,42305.0,42305.0,[0],1,0.22567917039051966,0.16528361965280003,0.19709891236852808
0,10837.0,10837.0,[1],1,0.31155995948130105,0.21023500434450962,0.6152721035518617
0,36788.0,36788.0,[2],1,0.2615079660807788,0.45762946135790095,0.6414154005385142
1,57983.5,36831.0,[0],1,0.21518521880934313,0.1685283225564187,0.1915432973088905
1,13828.5,8410.0,[1],1,0.2907467195455704,0.2341485393877186,0.6219050051002601
1,63153.0,44759.0,[2],1,0.24021804011908132,0.4768631366630794,0.6252113816845922
2,73985.75,44994.0,[0],1,0.21227600501721486,0.17852594000345845,0.1853089870350391
2,13672.25,6758.0,[1],1,0.31191877420864145,0.24964875430126382,0.6485939261898858
2,69824.5,38248.0,[2],1,0.2518125821230269,0.48174781139229034,0.5873240085335751
3,75541.875,38549.0,[0],1,0.22704512332852148,0.17407893130503238,0.18966602156877524
3,15738.125,8902.0,[1],1,0.333349105286711,0.22744664376520246,0.6798450311061947
3,77461.25,42549.0,[2],1,0.2534220209053406,0.5049735147094749,0.589697201499638
4,68588.9375,30818.0,[0],1,0.24622358240342462,0.1756158956727936,0.19432965498457555
4,17727.0625,9858.0,[1],1,0.37999426145600024,0.2196617823622143,0.6932726367271391
4,88054.625,49324.0,[2],1,0.28287902812115695,0.5208138817792276,0.576829646767146
5,68640.46875,34346.0,[0],1,0.3043789320017527,0.17639456213451848,0.19879363990365465
5,25473.53125,16610.0,[1],1,0.4764395494954745,0.22721430865047998,0.6732962208302532
5,83071.3125,39044.0,[2],1,0.3088737290314959,0.5411556699766289,0.5773703368263021
6,68025.234375,33705.0,[0],1,0.3352796791745348,0.1826134117710876,0.20847418235057627
6,31781.765625,19045.0,[1],1,0.5160652962349322,0.2259584975877873,0.6471454726722975
6,78785.65625,37250.0,[2],1,0.33664760198263405,0.548134596453745,0.5715479869925273
