time,cumulative size,size,pcore_ids,pcore_power,SCA-1,CD11b,Ly6C
-1,0,0,[],0,0.0,0.0,0.0
0,20939.0,20939.0,[0 4 9],3,240.12851616600528,456.80586465447374,664.6423897989392
0,37975.0,37975.0,[1 3 7],3,173.77851217906763,142.48842659644552,218.28466096115835
0,4163.0,4163.0,[2],1,359.24117223155946,362.3893826567385,548.1506125390331
0,12038.0,12038.0,[6],1,168.62452234590697,375.9245721880713,539.955391261006
0,4641.0,4641.0,[10],1,369.6451195862927,135.0383538030596,223.40120663650106
1,14855.5,10079.0,[0 9],2,250.79324156036313,394.93487260610476,748.4294032513194
1,55938.0,35134.0,[1 3 8],3,179.6705459616033,133.97236225821513,264.93941506668045
1,7421.5,5340.0,[2],1,352.952704978772,351.4512564845369,549.7596846998566
1,42662.0,30950.0,[4 6],2,177.73949885143946,458.3434672542326,559.8604613004536
1,5367.5,3649.0,[7],1,188.6022356776921,259.4084769445739,412.8482533768044
1,5201.5,2881.0,[10],1,361.56233778717234,134.67432471402483,217.5596462558879
2,14902.75,7475.0,[0 9],2,279.5588398114419,389.173306939993,732.7396285920375
2,74549.75,43980.0,[ 1  3  8 10],4,192.17883024423526,138.58245332814604,238.90965093779508
2,8057.75,4347.0,[2],1,356.07325245880696,355.37113338090603,547.6081722565232
2,48958.0,27627.0,[4 6],2,188.94667367948227,465.7672392663113,531.6035887903918
2,3924.75,2148.0,[5],1,369.9026689598008,150.66552009682133,485.12688706287054
2,7106.75,4423.0,[7],1,191.53287367643603,287.8405037464384,395.2541597776761
3,14351.375,6900.0,[0 9],2,288.4189668237337,386.60694532753666,745.0135439983958
3,68885.0,35223.0,[1 3 8],3,177.6529396820821,138.52859838861852,255.91401248457402
3,6991.875,2963.0,[2],1,379.1255743273379,369.7800482703136,541.8002860463043
3,57018.0,32539.0,[4 6],2,191.82943324915098,484.6606027921034,544.7271957978136
3,5761.375,3799.0,[5],1,435.1406999197213,143.83289579310474,532.8264303226239
3,6131.375,2578.0,[7],1,194.11667448166364,282.1644818658133,401.76016798841925
3,9610.875,5998.0,[10],1,389.588369945501,156.15010339849343,213.60819124169328
4,60470.5,26028.0,[1 3 8],3,192.3407343250036,138.97057656212522,271.9359253685665
4,7678.9375,4183.0,[2],1,394.1576959703026,396.2854154627502,542.3063981833432
4,65461.0,36952.0,[4 6],2,212.4322468721833,497.0300656115864,539.8900509463538
4,6759.6875,3879.0,[5],1,469.9137903934162,141.66107900698054,550.3913365077898
4,6913.6875,3848.0,[7],1,207.10772109673846,278.8337084949241,403.37781032191594
4,12514.4375,7709.0,[10],1,404.3208943670042,155.89119067477,215.86210426956822
4,12033.1875,7198.0,[9],1,372.4759181638212,400.8550363318097,747.9750481740599
5,51773.25,21538.0,[1 3 8],3,210.31834369099988,137.03236951514546,281.89972017402727
5,8856.46875,5017.0,[2],1,420.20587000320796,426.72475626925257,533.7895500111149
5,60703.5,27973.0,[4 6],2,229.6182535809303,511.0487296861021,534.3824707389052
5,11907.84375,8528.0,[5],1,519.8832229806541,138.66770064899453,560.5128736048438
5,5635.84375,2179.0,[7],1,231.60383593849514,267.1602743599838,399.3336512390001
5,20711.21875,14454.0,[10],1,448.42229679265193,148.86276459467032,216.71985895325346
5,15575.59375,9559.0,[9],1,415.19850768128464,427.32457029126004,746.9367259273811
6,46902.625,21016.0,[1 3 8],3,231.38415160665272,138.27508721526812,291.48782917267476
6,10620.234375,6192.0,[2],1,432.2771905045611,438.6745216604495,524.2795062491264
6,54811.75,24460.0,[4 6],2,246.80071021496235,516.3345866762184,521.5381037140655
6,16507.921875,10554.0,[5],1,522.276708057782,139.76402806607007,566.0604605553948
6,6320.921875,3503.0,[7],1,275.9729593438416,252.75708398943036,391.6822704362263
6,23697.609375,13342.0,[10],1,453.0754968031457,148.38271595170073,223.4840282544325
6,17917.796875,10130.0,[9],1,444.7139174650874,444.20332525535497,728.4257429109819
