time,cumulative size,size,pcore_ids,pcore_power,SCA-1,CD11b,Ly6C
-1,0,0,[],0,0.0,0.0,0.0
0,4500.0,4500.0,[0],1,0.2862701622971289,0.4722493715434893,0.8105068052462253
0,40720.0,40720.0,[1 3 9],3,0.2222151828877967,0.15906660873507686,0.19211421582998126
0,16605.0,16605.0,[2 4],2,0.23901992428164048,0.51708618267681,0.6223014910178796
0,4774.0,4774.0,[5],1,0.2728334188464657,0.19081985377051774,0.7623014603041909
0,3032.0,3032.0,[4],1,0.2554200883460321,0.4008050627395251,0.6302021202202491
1,8542.0,6292.0,[0],1,0.2545527847858167,0.4592920421955493,0.7963616434241549
1,51614.5,33507.0,[1 3],2,0.20484500425094343,0.15878197965083016,0.17653336784191562
1,30339.5,22037.0,[2 4],2,0.22192221324557457,0.5387511158601177,0.6084576065711578
1,5748.0,3361.0,[5],1,0.25369635163769794,0.19812527749175768,0.7557535263548627
1,3632.0,2116.0,[4],1,0.25797406325793176,0.4093376559790296,0.6233624280093782
2,11261.0,5174.0,[0 4],2,0.2903957578557379,0.4438713971376797,0.7438689000747378
2,70035.0,42317.0,[1 3 9],3,0.21056557596001785,0.1672692338381544,0.176937287003968
2,30095.75,14926.0,[2 4],2,0.23539058437737234,0.5512598778341062,0.5823463001818207
2,5421.0,2547.0,[5],1,0.2852773442438775,0.20989437131116523,0.7440864509009542
3,14613.125,6635.0,[ 0 11],2,0.33764500994516955,0.42506948152394164,0.7358507645548886
3,72073.5,37056.0,[1 3 9],3,0.22220868397219418,0.16653730133520406,0.1815719995563178
3,42346.875,27299.0,[2 4],2,0.23787367406858462,0.5650835573070527,0.5839750548903754
3,7198.5,4488.0,[5],1,0.283623285281811,0.20979532956369387,0.7570899530077189
4,14970.5625,7664.0,[ 0 11],2,0.3872947991894727,0.4396234935721979,0.7404731907005958
4,53747.5625,21891.0,[1 3],2,0.2080477976731911,0.16457617321917853,0.1746500706929815
4,54712.4375,33539.0,[2 4],2,0.26570736777737247,0.5722100134103588,0.5716081166637851
4,7720.25,4121.0,[5],1,0.3315343076667223,0.20412682731448648,0.7545230202958146
4,11571.1875,7391.0,[9],1,0.420916267528355,0.18240834286695548,0.2345860861707819
4,5435.4375,3199.0,[10],1,0.5231136361551599,0.14875220262202732,0.6441739299367659
5,18886.28125,11401.0,[ 0 11],2,0.4467267545223561,0.4735012199901706,0.740539695133245
5,44629.78125,17756.0,[1 3],2,0.22147526887029959,0.16289323133696096,0.17715701534770145
5,55415.21875,28059.0,[2 4],2,0.2863580065364936,0.5813079593348868,0.5599608891601264
5,26960.71875,17315.0,[5 9],2,0.4532391675170037,0.17809827969354278,0.35955928489100636
5,5613.71875,4042.0,[8],1,0.5302349137042697,0.2852396733630107,0.4260370938691947
5,9123.71875,6406.0,[10],1,0.5862075254448397,0.1445990820411945,0.6394151424272903
6,21151.140625,11708.0,[ 0 11],2,0.48516342100012383,0.4923213800543127,0.7256580745584004
6,39655.890625,17341.0,[1 3],2,0.24054271828186666,0.16478473911625463,0.18268155532776817
6,63475.984375,29410.0,[2 4 6],3,0.2986049156258929,0.5626457470287829,0.5340746482547153
6,7794.0625,3970.0,[5],1,0.39569402441446555,0.20799147753404,0.7174720670403562
6,4918.578125,2998.0,[7],1,0.34470085740685236,0.1989492379791165,0.42525298223412883
6,8087.859375,5281.0,[8],1,0.5432211118382182,0.27098837714336715,0.42308126267112917
6,21037.296875,11381.0,[9],1,0.4974983902611504,0.16693748810773168,0.20435461456217666
6,12472.859375,7911.0,[10],1,0.5883358244397188,0.14620172641476709,0.6318420806030367
