time,cumulative size,size,pcore_ids,pcore_power,SCA-1,CD11b,Ly6C
-1,0,0,[],0,0.0,0.0,0.0
0,32401.0,32401.0,[1 3 7],3,163.18536464924102,127.73824881948073,198.40230239807408
0,19904.0,19904.0,[2 4],2,186.29798030546823,460.70895297427904,586.0013565112529
0,5479.0,5479.0,[11],1,364.2628216827839,357.46486585143214,675.8722394597535
1,9065.0,6688.0,[0],1,207.85135135135147,414.21053502481993,785.5725868725825
1,45021.5,28821.0,[1 3 7],3,159.31929189387532,127.63816176715585,192.52147307397556
1,36425.0,26473.0,[2 4],2,176.0401784488696,478.9943857240912,575.0192038435127
1,6428.5,3896.0,[5],1,213.42280469783012,174.1733685929843,736.665785175391
1,9018.0,6334.0,[6],1,166.3547904191641,360.6066755378132,435.2436238633834
1,6188.5,3721.0,[9],1,317.6184051062419,116.807384665105,167.8795346206676
1,7607.5,4868.0,[11],1,354.2951035162601,355.1457114689452,660.4763720013132
2,7040.5,2508.0,[0],1,229.69196079823794,417.3605922874781,772.8168098856586
2,56381.75,33871.0,[1 3 7],3,156.52018161905568,132.17499900233727,184.5250236113629
2,38358.5,20146.0,[2 4],2,187.63308653883976,490.17660362110223,553.0692349805096
2,5816.25,2602.0,[5],1,237.17193208682394,180.97206103589062,725.4079518590148
2,14815.0,10306.0,[6],1,173.64365507931373,379.65720553493156,422.993216334795
2,7932.25,4838.0,[9],1,313.56043367266165,125.28150902959355,158.35157111790522
2,9774.75,5971.0,[11],1,345.56157446481393,361.3106729072358,675.8660835315501
2,6032.0,3566.0,[12],1,368.9333968832841,370.6294346816967,499.4228696949618
3,7514.25,3994.0,[0],1,239.64695412050287,409.4543866653343,783.5990784176704
3,64644.0,33545.0,[1 3 5 7],4,168.7937550275381,137.6332412907618,252.57559672978041
3,48127.25,28948.0,[2 4],2,190.73487213585003,505.17435808196154,558.6648961866691
3,11732.5,4325.0,[6],1,171.8818985723444,372.1816109098663,428.78084380993084
3,7960.125,3994.0,[9],1,326.99472370094287,127.86748009610326,155.04582214475352
3,6438.75,4281.0,[8],1,427.35785284410713,195.37082119976682,309.2369248689591
3,8600.375,3713.0,[11],1,359.6464107669643,377.13620045637447,679.0251587866824
4,49025.4375,20396.0,[1 3 7],3,168.92081661688664,133.29061953807133,195.28693522622765
4,56591.625,32528.0,[2 4],2,212.52477619258994,516.1581472965282,552.4672522215028
4,11516.25,5650.0,[6],1,179.75801042006128,366.180169325952,428.43491805058073
4,16580.625,8908.0,[5 9],2,314.9301217535486,150.59675072562072,417.4407214746124
4,8147.375,4928.0,[8],1,441.96630049555773,193.75847282100125,300.8286257843783
4,4865.125,1108.0,[0],1,256.1045322576477,409.01894863955084,784.6120474807921
4,6078.0,3454.0,[12],1,392.3050448338231,404.6895668805517,494.76549646265283
4,5573.125,3334.0,[13],1,492.6021756196045,130.7620388022875,638.1452618593698
5,40824.71875,16312.0,[1 3 7],3,183.5872897164805,131.2492928992922,199.35810871324105
5,54033.8125,25738.0,[2 4],2,229.4218498602142,526.6623959997253,544.284373442084
5,7832.125,2074.0,[6],1,188.32719009847435,373.1392422235343,418.61982699459105
5,18641.3125,10351.0,[5 9],2,348.6425714391054,144.9866325131341,370.7546360402468
5,14575.6875,10502.0,[8],1,486.19926804482054,174.08074018806866,289.0429568073537
5,15115.59375,9232.0,[11],1,428.81954273214956,437.6362117763328,724.8384966683798
5,7692.0,4653.0,[12],1,410.6270191432621,435.41947396645963,493.4884742264707
5,9759.5625,6973.0,[13],1,534.4040524357586,133.23185273417718,620.5617983644261
6,36187.359375,15775.0,[1 3 7],3,201.6170524842286,132.15973248600662,204.5761417034869
6,47361.90625,20345.0,[2 4],2,246.03888508763367,532.954278590194,533.6960416500272
6,7562.0625,3646.0,[6],1,209.44485011529545,388.68411808947485,406.09257147107826
6,19346.65625,10026.0,[5 9],2,367.47024760415195,146.60060766314578,348.2682189913319
6,16879.84375,9592.0,[8],1,488.5385444918575,173.81021280928607,296.02684599790734
6,6259.484375,3987.0,[10],1,325.881250202811,139.24962369604089,506.343321509609
6,17442.796875,9885.0,[11],1,455.3012946784057,453.17305764646716,717.4813313876834
6,10442.0,6596.0,[12],1,413.85572836860445,448.195106002203,493.38188774899373
6,13440.78125,8561.0,[13],1,536.8387998279547,137.22634589228178,614.2342974389985
