time,cumulative size,size,pcore_ids,pcore_power,SCA-1,CD11b,Ly6C
-1,0,0,[],0,0.0,0.0,0.0
0,23326.0,23326.0,[1 3 7],3,0.19340905215475676,0.1553864407805477,0.2277731130388357
0,5448.0,5448.0,[2],1,0.2726830998696555,0.6163216938757867,0.6511825512069574
0,10874.0,10874.0,[11],1,0.17948100096509267,0.13503753816858977,0.06576228702698242
0,7065.0,7065.0,[4],1,0.23325476911822135,0.448516682518182,0.5954618031419968
1,6221.0,4384.0,[0],1,0.28733015574286985,0.49865338973743173,0.8286824137942127
1,31480.0,19817.0,[1 3 7],3,0.18792561355167842,0.1571868334128687,0.22414995344730476
1,10004.0,7280.0,[2],1,0.2565844448737363,0.631027509810553,0.6454372037376604
1,16149.0,10712.0,[11],1,0.17673108781216854,0.13425624325953217,0.06355379145295231
1,18954.5,13325.0,[4 6],2,0.2142374954096185,0.49530015854829346,0.5410121448379978
1,8500.0,6094.0,[10],1,0.16680647719762395,0.3671192440777221,0.49196200707454335
1,9033.5,6782.0,[14],1,0.12179745429466304,0.5547402491530388,0.6131276640044242
1,7177.5,4622.0,[17],1,0.4012311413241213,0.39190138236791355,0.6794869825666219
2,6435.5,3325.0,[0],1,0.3144908115884556,0.4910458936238495,0.8078928753180215
2,30285.25,17914.0,[1 3],2,0.17122351343021663,0.13721592179279007,0.20599730377322234
2,10731.0,5729.0,[2],1,0.27059391095209795,0.6337329715869501,0.6268034153283628
2,21545.5,13471.0,[11],1,0.17359585762975463,0.13924777312792072,0.06065426929150203
2,25447.25,15970.0,[4 6],2,0.21935026201480387,0.5154051373862771,0.5120910737638609
2,8032.75,4664.0,[7],1,0.2406572252146152,0.2689162338959953,0.25930033502187844
2,6511.5,3948.0,[9],1,0.370995999299421,0.14445413839698132,0.12887456952552903
2,10774.0,6524.0,[10],1,0.17401291707252342,0.38745120858241744,0.46458882081460245
2,6823.75,2307.0,[14],1,0.1217276078468567,0.5594850216214803,0.5958220645418715
2,8388.75,4800.0,[17],1,0.3939768516890688,0.39233385317952346,0.6876817935782744
3,6675.75,3458.0,[0],1,0.32891073552733563,0.48676494311568297,0.8205249704182243
3,32871.625,17729.0,[1 3],2,0.1759861919434071,0.13845229762503497,0.20715408409868447
3,16761.5,11396.0,[2],1,0.26958427334980806,0.6395764969495547,0.6184740314248944
3,23932.625,11209.0,[4 6],2,0.2246520179044312,0.5183361244061836,0.5214806055450607
3,5836.625,3474.0,[5],1,0.30911362937975856,0.1787373440436434,0.7694819552269523
3,10477.875,7066.0,[14],1,0.1277208381974549,0.5739898465215677,0.5894546672704408
3,7422.375,3406.0,[7],1,0.24525115847902254,0.26083943170792034,0.2648810511736328
3,6786.75,3531.0,[9],1,0.3919834707665208,0.15060504339787675,0.12520710266459084
3,9501.0,4114.0,[10],1,0.17157824309446212,0.39098450460799217,0.465320436320264
3,19986.75,9214.0,[11],1,0.17494990712246145,0.1390039679568262,0.06075122346505588
3,5500.25,3692.0,[16],1,0.4872715183017701,0.20934825874841959,0.3058581615393281
3,7174.375,2980.0,[17],1,0.40813172270613535,0.40784848507544047,0.6888331961278796
4,7852.875,4515.0,[0],1,0.3915344108389369,0.4899854475149353,0.8272648910342214
4,28417.8125,11982.0,[1 3],2,0.18791583455789526,0.13743460056405168,0.20985287717116133
4,24106.75,15726.0,[2],1,0.2924695027489485,0.6364841845520558,0.6018688295146366
4,26501.3125,14535.0,[4 6],2,0.2404132808876946,0.528389124221746,0.520746511541069
4,7090.3125,4172.0,[5],1,0.3556156549652031,0.18255717832449792,0.7750897999982526
4,9638.9375,4400.0,[14],1,0.1335251514897466,0.5810546698215677,0.5783288717360274
4,7725.1875,4014.0,[7],1,0.25520038012240476,0.26025100871228307,0.27145705572516254
4,7925.375,4532.0,[9],1,0.40562752941013386,0.15130284526982216,0.11849852572790029
4,9132.5,4382.0,[10],1,0.1800519043913457,0.3934794497301533,0.45673980015815163
4,16115.375,6122.0,[11],1,0.18072207894844303,0.13896835471227148,0.059255864073282975
4,7021.125,4271.0,[16],1,0.502230767861274,0.20507886308521653,0.2971784145214643
4,7643.1875,4056.0,[17],1,0.4298763981547343,0.4326463385994473,0.6911164230035215
5,10053.4375,6127.0,[0],1,0.45838170255226246,0.5258442231283603,0.8214699684917267
5,14280.125,7164.0,[1],1,0.2671178188353826,0.1224945326742571,0.22537130848435394
5,25937.375,13884.0,[2],1,0.3134834520117581,0.6365740444935658,0.5883184402283996
5,10038.78125,2946.0,[3],1,0.12432754378919329,0.14860258915857966,0.19295465568804615
5,24585.65625,11335.0,[4 6],2,0.25175819679617256,0.5450828148892433,0.5112873224248488
5,6907.15625,3362.0,[5],1,0.37850039607898756,0.18802114969905578,0.7709710587211831
5,7766.46875,2947.0,[14],1,0.140065110823992,0.5886905511527291,0.5710819686340207
5,6686.59375,2824.0,[7],1,0.2714400812165079,0.2572131238404596,0.27323885730659037
5,10775.6875,6813.0,[9],1,0.4473565159396008,0.14604061834670518,0.10948120110102579
5,5683.25,1117.0,[10],1,0.18497945371699245,0.39707148775884027,0.44986515291242457
5,12870.6875,4813.0,[11],1,0.1911053385995638,0.13761047362193543,0.0587034936637754
5,8787.0625,6503.0,[13],1,0.617664304254769,0.15229394945192187,0.6373426829346147
5,12863.5625,9353.0,[16],1,0.5472100692919488,0.1862713366354946,0.28511513509314207
5,8620.59375,4799.0,[17],1,0.4548756690592296,0.4385552547756261,0.6983894188027767
6,10984.71875,5958.0,[0],1,0.5079369613283281,0.5537043770995566,0.7949987311855773
6,14170.0625,7030.0,[1],1,0.2823066651884996,0.12205683696474635,0.22372706369510395
6,23798.6875,10830.0,[2],1,0.3351602706468269,0.6448837226208327,0.576281745882428
6,7564.390625,2545.0,[3],1,0.12805433380257164,0.14991752417155332,0.1934605573514116
6,24835.828125,12543.0,[4 6],2,0.270447682218674,0.5485132246543237,0.4994523635113477
6,6493.578125,3040.0,[5],1,0.3997556790996531,0.1899709499146334,0.7475762965896253
6,6997.296875,3654.0,[7],1,0.2956773009480987,0.2569731522152627,0.273667836743133
6,11751.84375,6364.0,[9],1,0.45716598199343866,0.1469615477084267,0.1127254391578877
6,10622.34375,4187.0,[11],1,0.20469682192524674,0.13830803987928006,0.05960509025461579
6,6428.484375,3794.0,[12],1,0.5292925236983032,0.47786580760651526,0.4599982871117953
6,12251.53125,7858.0,[13],1,0.6143744213812373,0.15479140662639218,0.6346078359676899
6,6088.546875,3886.0,[15],1,0.3691989411990799,0.1497774053671324,0.5284617184098654
6,15061.78125,8630.0,[16],1,0.5483101541070785,0.18420127105255996,0.2922454429330699
6,10547.296875,6237.0,[17],1,0.4643455859768047,0.43448997418015217,0.7007447426263655
