time,cumulative size,size,pcore_ids,pcore_power,SCA-1,CD11b,Ly6C
-1,0,0,[],0,0.0,0.0,0.0
0,14938.0,14938.0,[1 4],2,NA,NA,NA
0,11035.0,11035.0,[2 5],2,NA,NA,NA
0,34299.0,34299.0,[3 7 8],3,NA,NA,NA
0,6039.0,6039.0,[10],1,NA,NA,NA
1,23677.5,13936.0,[1 4 6],3,NA,NA,NA
1,24469.5,17066.0,[0 2 5],3,NA,NA,NA
1,63183.0,42751.0,[3 8 9],3,NA,NA,NA
1,9508.5,6489.0,[10],1,NA,NA,NA
2,45300.75,25986.0,[0 2 5 7],4,NA,NA,NA
2,27501.75,15663.0,[1 4 6],3,NA,NA,NA
2,74287.5,42696.0,[3 8 9],3,NA,NA,NA
2,10409.25,5655.0,[10],1,NA,NA,NA
3,14100.5,7125.0,[0 5],2,NA,NA,NA
3,31899.875,18149.0,[1 4 6],3,NA,NA,NA
3,30453.875,14779.0,[2 7],2,NA,NA,NA
3,82991.75,45848.0,[3 8 9],3,NA,NA,NA
3,9303.625,4099.0,[10],1,NA,NA,NA
4,13697.25,6647.0,[0 5],2,NA,NA,NA
4,38356.9375,22407.0,[1 4 6],3,NA,NA,NA
4,9667.6875,4285.0,[2],1,NA,NA,NA
4,103623.125,52283.0,[3 7 8 9],4,NA,NA,NA
4,9029.8125,4378.0,[10],1,NA,NA,NA
5,13170.625,6322.0,[0 5],2,NA,NA,NA
5,52628.46875,33450.0,[1 4 6],3,NA,NA,NA
5,38312.375,17292.0,[ 2  7 10],3,NA,NA,NA
5,73075.9375,32936.0,[3 8 9],3,NA,NA,NA
6,13890.3125,7305.0,[0 5],2,NA,NA,NA
6,61621.234375,35307.0,[1 4 6],3,NA,NA,NA
6,87088.28125,39578.0,[3 7 8 9],4,NA,NA,NA
6,4776.421875,1703.0,[2],1,NA,NA,NA
