time,cumulative size,size,pcore_ids,pcore_power,SCA-1,CD11b,Ly6C
-1,0,0,[],0,0.0,0.0,0.0
0,18093.0,18093.0,[0 3],2,203.45465096998942,150.40551594539357,279.2646880008839
0,21119.0,21119.0,[1],1,179.57876793408937,131.57971494862488,153.4065059898662
0,6938.0,6938.0,[2],1,242.13433266070896,488.9475353127704,723.7098587489185
0,4944.0,4944.0,[5],1,197.61508899676502,288.9702669902901,483.06593851132607
0,6561.0,6561.0,[6],1,339.6616369455836,336.50510592897353,648.6977594878811
0,6007.0,6007.0,[8],1,264.91676377559395,163.86066256034655,721.9853504245037
0,20539.0,20539.0,[9],1,198.53137932713477,421.27352840936777,567.2379862700238
1,22134.5,13088.0,[0 3],2,197.08597438388153,151.98199643091147,284.64103548758663
1,32456.5,21897.0,[1],1,176.5726433842259,133.92374408824128,154.7535932709928
1,13272.0,9803.0,[2],1,212.78993369499813,496.81291440626984,703.9699743821532
1,10293.0,7821.0,[5],1,198.60793743320855,318.40867579908524,500.8558243466433
1,8663.5,5383.0,[6],1,317.8103537831073,339.0695446413111,650.5288855543366
1,6905.5,3902.0,[8],1,236.0642241691409,175.06125552096148,722.6826442690598
1,35099.5,24830.0,[9],1,192.25282411430584,437.6917762361312,559.5580706277774
2,24266.25,13199.0,[0 3],2,197.03438932674095,158.5821768917738,278.44922474630357
2,44481.25,28253.0,[1],1,175.9513952508116,141.12110158774757,155.9954137979485
2,11174.0,4538.0,[2],1,238.39421872203351,501.1848487560434,689.5575219258966
2,14982.5,9836.0,[5],1,207.13504088102863,349.67470382112305,478.66687802435945
2,10585.75,6254.0,[6],1,310.59924899038333,344.66471435656393,655.2596178825318
2,6459.75,3007.0,[8],1,260.5098881535648,181.28143504005567,709.9795657726708
2,38561.75,21012.0,[9],1,202.9834745570423,451.0283441493153,534.0923648433957
3,25995.125,13862.0,[0 3],2,202.00825635576038,158.69253850481564,279.5721216958941
3,42537.625,20297.0,[1],1,173.56979850191834,138.77064128521525,156.351594617707
3,15921.0,10334.0,[2],1,238.5216694931221,527.5261447145308,652.9172712141228
3,5014.875,3436.0,[4],1,408.3186769361139,139.8482763777757,585.2292430020713
3,13370.25,5879.0,[5],1,200.7858024345114,358.0944728034247,483.83951309810726
3,10051.875,4759.0,[6],1,327.432046260022,356.5945905614615,675.176546664179
3,6604.5,4696.0,[7],1,391.1486107956667,199.29905746082218,315.59317510788304
3,8388.875,5159.0,[8],1,254.85829446737486,188.94564229410915,726.649312333299
3,40858.875,21578.0,[9],1,201.38897607924892,464.1868412921294,540.0609322943799
4,16666.4375,8187.0,[0],1,240.79755721641237,153.85049669432976,267.5104495186797
4,34658.8125,13390.0,[1],1,178.43673957381293,138.84840255274193,155.48122861970603
4,24101.5,16141.0,[2],1,266.23806609547046,535.1612918283116,606.0879172458161
4,8590.125,4072.0,[3],1,172.1466800541347,172.51768746089311,305.438854207593
4,6084.4375,3577.0,[4],1,441.7988618504177,138.74262205832454,591.1223099916805
4,13630.125,6945.0,[5],1,209.3995607156963,363.0441622875784,476.0460835832358
4,11994.9375,6969.0,[6],1,367.7418911103052,373.5638576691197,704.0931330405023
4,9180.25,5878.0,[7],1,418.0436807276459,185.44128019389507,284.8067931156561
4,8366.4375,4172.0,[8],1,293.2251854507941,181.91944749482715,724.7812614389329
4,41098.4375,20669.0,[9],1,215.51448275862003,471.46337528038674,531.1059346842371
5,16817.21875,8484.0,[0],1,270.2362255203448,150.53219449559634,272.1659366980623
5,27881.40625,10552.0,[1],1,187.97906759096975,137.5056674194836,153.8601868404686
5,28955.75,16905.0,[2],1,291.57712630478886,537.5751944777776,578.7285761463619
5,7044.0625,2749.0,[3],1,173.72613459917756,168.90143294441242,305.2634710083856
5,11094.21875,8052.0,[4],1,506.7741954565344,140.22036533667566,586.5568835119633
5,8791.0625,1976.0,[5],1,216.69827665882354,364.45840946415655,472.926999722728
5,15994.46875,9997.0,[6],1,413.953136142765,408.2499184288317,714.5841316236249
5,17460.125,12870.0,[7],1,470.96992432757645,164.39908971155626,249.1478028507808
5,8274.21875,4091.0,[8],1,319.03424039278246,182.0215163818338,715.5551166084422
5,34873.21875,14324.0,[9],1,222.77210215933917,480.9661004191099,522.0416607299692
6,18329.609375,9921.0,[0],1,300.67835853020875,152.83541315920712,283.1871613125957
6,23553.703125,9613.0,[1],1,201.06818659751795,138.50219942856648,155.12257958375696
6,30399.875,15922.0,[2],1,314.26297599907724,541.2472738374782,557.2225209601976
6,6048.03125,2526.0,[3],1,179.96250846091743,169.14018508088853,301.44412437931743
6,15738.109375,10191.0,[4],1,513.5761671261768,144.15478054364425,581.024821318475
6,7818.53125,3423.0,[5],1,236.8693028981619,370.45811233727494,463.38337603370115
6,18928.234375,10931.0,[6],1,442.51513818229455,425.8911381558788,699.1268978964104
6,20065.0625,11335.0,[7],1,470.6813086179033,162.59352933114448,245.55442529147376
6,8871.109375,4734.0,[8],1,349.9121040737872,183.57173303085364,685.9033660883053
6,28840.609375,11404.0,[9],1,234.15625645045915,480.13676949657065,509.7523191853424
