time,cumulative size,size,pcore_ids,pcore_power,SCA-1,CD11b,Ly6C
-1,0,0,[],0,0.0,0.0,0.0
0,2947.0,2947.0,[0],1,NA,NA,NA
0,23977.0,23977.0,[ 1 10],2,NA,136.93256037035502,NA
0,2947.0,2947.0,[0],1,NA,NA,NA
1,3980.5,2507.0,[0],1,NA,NA,NA
1,34988.5,23000.0,[ 1 10],2,183.39715906655422,138.06813667347845,NA
1,3980.5,2507.0,[0],1,NA,NA,NA
1,7132.5,5427.0,[12],1,216.28503329828246,NA,NA
2,3172.25,1182.0,[0],1,NA,NA,NA
2,46955.25,29461.0,[ 1 10],2,NA,145.62104344029652,NA
2,3172.25,1182.0,[0],1,NA,NA,NA
2,6064.25,2498.0,[12],1,247.0674032238097,NA,NA
3,3884.125,2298.0,[0],1,251.4140894023748,NA,NA
3,45023.625,21546.0,[ 1 10],2,NA,144.18779585162213,NA
3,3884.125,2298.0,[0],1,251.4140894023748,NA,NA
3,6642.625,4849.0,[7],1,NA,NA,NA
3,5894.125,2862.0,[12],1,NA,NA,NA
4,6136.0625,4194.0,[0],1,NA,NA,570.6144820069868
4,39177.8125,16666.0,[ 1 10],2,NA,147.4731807703667,NA
4,3288.6875,1993.0,[4],1,NA,NA,NA
4,9368.3125,6047.0,[7],1,NA,NA,NA
4,5210.0625,2263.0,[12],1,NA,NA,NA
5,54398.03125,27858.0,[0 2],2,NA,NA,NA
5,7526.125,4498.0,[1],1,NA,182.89633609593218,NA
5,43539.25,17000.0,[ 3 10],2,NA,142.19008064562505,NA
5,10125.9375,7168.0,[5],1,NA,NA,NA
5,2610.34375,966.0,[4],1,NA,NA,NA
5,17803.15625,13119.0,[7],1,NA,NA,NA
5,7706.03125,5101.0,[12],1,NA,NA,NA
5,9077.625,5152.0,[13],1,NA,NA,NA
6,49771.015625,22572.0,[0 2],2,NA,NA,NA
6,10501.0625,6738.0,[1],1,NA,NA,NA
6,37762.625,15993.0,[ 3 10],2,NA,NA,NA
6,13838.96875,8776.0,[5],1,NA,NA,NA
6,4278.171875,2973.0,[4],1,NA,NA,NA
6,19710.578125,10809.0,[7],1,NA,NA,NA
6,10057.015625,6204.0,[12],1,NA,NA,NA
6,9194.8125,4656.0,[13],1,NA,NA,NA
