time,cumulative size,size,pcore_ids,pcore_power,SCA-1,CD11b,Ly6C
-1,0,0,[],0,0.0,0.0,0.0
0,14938.0,14938.0,[1 4],2,0.3746592281805968,0.14365448075272222,0.46773985778187527
0,11035.0,11035.0,[2 5],2,0.17690077027639534,0.3627429794545127,0.6517286059844002
0,34299.0,34299.0,[3 7 8],3,0.20208411749810537,0.34197849389168766,0.41961449199756423
1,23677.5,13936.0,[1 4 6],3,0.3457762845540294,0.26349726313858307,0.5541633009827912
1,24469.5,17066.0,[0 2 5],3,0.1932625825638042,0.37307130152515167,0.5798233162496594
1,63183.0,42751.0,[3 8 9],3,0.18183523266730267,0.27463755715549487,0.2875884230227829
1,9508.5,6489.0,[10],1,0.4195451379103059,0.3841091692905389,0.6171333865737045
2,45300.75,25986.0,[0 2 5 7],4,0.21846145365428374,0.4329298384704567,0.5249217224251073
2,27501.75,15663.0,[1 4 6],3,0.3527441920703071,0.2634489179154251,0.527464976261988
2,74287.5,42696.0,[3 8 9],3,0.1828207446396234,0.2607892588946427,0.2553923745515565
2,10409.25,5655.0,[10],1,0.4205685684162111,0.3875808444390676,0.6089177632559019
3,31899.875,18149.0,[1 4 6],3,0.38335466866988893,0.2568778550051404,0.5128118498485007
3,38713.125,19634.0,[2 5 7],3,0.21301468650214542,0.44070582493441246,0.5788552070295773
3,82991.75,45848.0,[3 8 9],3,0.18831734763943841,0.2985840572497624,0.2939100066048232
3,9303.625,4099.0,[10],1,0.4543930789330727,0.3889265478126704,0.6059902202427814
4,13697.25,6647.0,[0 5],2,0.30444991623636175,0.344210691175665,0.5820327627824763
4,38356.9375,22407.0,[1 4 6],3,0.4159837228220653,0.2625692129575542,0.5121055415479076
4,9667.6875,4285.0,[2],1,0.1516589310200024,0.4089410504501933,0.48353953779773345
4,103623.125,52283.0,[3 7 8 9],4,0.2178665313809723,0.38082727072579614,0.37345217612763626
4,9029.8125,4378.0,[10],1,0.48350895710393266,0.3985299982144974,0.6008140212605889
5,52628.46875,33450.0,[1 4 6],3,0.47833197015177187,0.2550312888335612,0.48267765902077403
5,95020.5625,43209.0,[3 7 8 9],4,0.2391628383569641,0.40388494561052996,0.3858778000754481
5,6043.8125,2773.0,[0],1,0.3273372839642715,0.3535966641306659,0.3298655207684589
5,6146.84375,1313.0,[2],1,0.15136133112985387,0.41691324588348705,0.48062336231437447
6,13890.3125,7305.0,[0 5],2,0.36057376071199365,0.3316486679176471,0.5468771309237038
6,61621.234375,35307.0,[1 4 6],3,0.500852743437602,0.2551467491957641,0.4851285413801762
6,87088.28125,39578.0,[3 7 8 9],4,0.26240885781078455,0.41345115772408997,0.38535905156015665
6,4776.421875,1703.0,[2],1,0.15759729320557295,0.4340075184015631,0.46812147649657615
