time,cumulative size,size,pcore_ids,pcore_power,SCA-1,CD11b,Ly6C
-1,0,0,[],0,0.0,0.0,0.0
0,17528.0,17528.0,[ 0  9 10],3,192.39953217708916,126.96959151072565,309.22329986307636
0,5127.0,5127.0,[5],1,187.4088160717781,481.33079773746874,529.4842988102228
0,4098.0,4098.0,[0],1,237.1203025866265,94.22669594924334,254.06661786237134
0,8712.0,8712.0,[12],1,106.25183654729521,125.30176767676787,229.8880853994496
0,5139.0,5139.0,[15],1,372.80404748004923,351.13913212687316,654.8945320101171
0,4627.0,4627.0,[19],1,117.8426626323777,363.9213313161877,536.6351847849555
1,22822.5,14295.0,[0 2 6],3,213.38455471574127,127.948033738635,223.42653083579816
1,7146.5,5111.0,[1],1,239.43552788078054,572.0889246484285,644.4579164626039
1,18523.0,11808.0,[ 9 10],2,167.11677374075762,138.89073044323237,301.6708686497873
1,5740.5,3685.0,[3],1,222.67677031617427,433.0099294486549,615.5086664924653
1,12201.5,9638.0,[5],1,175.22095643978426,502.1134696553714,525.2232102610312
1,7628.0,5536.0,[7],1,237.23689040377468,402.75996329313017,792.4903644467712
1,12605.0,8249.0,[12],1,106.2357794526037,125.21662038873463,226.64295914319715
1,7295.0,5054.0,[14],1,215.17786154900656,357.574982864977,517.8899931459889
1,7368.5,4799.0,[15],1,363.8849155187556,348.68657121530805,639.4702449616594
1,5696.0,4164.0,[17],1,94.28563904494716,495.63281249999994,648.7302492977525
1,8435.5,6122.0,[19],1,115.47163772153955,370.59818623673726,524.3322268982278
2,6898.0,4010.0,[0],1,233.08114670918928,95.5103290808932,251.77163670629324
2,7494.25,3921.0,[1],1,253.07375654668525,572.7860359609047,629.4734296293824
2,35436.25,20835.0,[ 2  9 10],3,182.3639211259681,133.07707502910108,213.991407104307
2,5221.25,2351.0,[3],1,234.3528848455822,437.17189370361467,608.5433085946856
2,17924.75,11824.0,[5],1,184.91188161620315,505.9646438583508,506.0993040349221
2,7795.5,4612.0,[6],1,206.17577448528104,186.1147777563989,281.6873837470338
2,7550.0,3736.0,[7],1,266.6352980132432,401.4562251655626,773.6442715231777
2,15845.5,9543.0,[12],1,102.97377804424576,129.59639960872138,219.91273547694942
2,9991.5,6344.0,[14],1,217.15400590502085,372.1013611569833,491.7124305659771
2,8148.25,4464.0,[15],1,360.77034946153327,351.2486116650811,642.0104010063525
2,4768.0,3239.0,[16],1,182.12510486577358,378.5500209731545,319.05924916107364
2,8523.75,4306.0,[19],1,113.97747470304137,382.28966124065,500.47916116732665
3,16478.75,9132.0,[0 6],2,216.23348251536086,141.76293711598274,267.02974285064244
3,11688.125,7941.0,[1],1,250.7054809903194,580.2341158226836,615.2314100850245
3,34961.125,17243.0,[ 2  9 10],3,187.03401992928087,136.4915531179274,244.0530589333151
3,7391.625,4781.0,[3],1,235.74484636328143,452.6632337273593,594.275193208529
3,18312.375,9350.0,[5],1,186.18123673199344,510.7034382487224,513.5306998682589
3,7926.0,4151.0,[7],1,270.9271069896526,396.9745457986364,786.3060970224545
3,6268.0,4139.0,[11],1,434.66979100191236,155.88219926611325,198.0513321633701
3,16339.75,8417.0,[12],1,104.2787374347896,129.8030799124831,218.57890267598853
3,8776.75,3781.0,[14],1,215.66902612014843,373.4678981399712,490.30374284330725
3,7140.125,3066.0,[15],1,374.8562525165803,368.76017576723035,647.1289543250322
3,6051.5,4313.0,[17],1,103.8048004626996,519.3530736181111,609.5874369990918
3,7965.875,3704.0,[19],1,112.69920128046833,386.68165769610897,498.63720244166626
4,8639.0,4542.0,[0],1,237.42591011691133,97.1565068294942,251.58018144461334
4,16269.0625,10425.0,[1],1,272.3271546839265,578.9945448608341,598.1363592708533
4,23384.5625,9394.0,[2 9],2,182.99167185616813,124.37461412844479,116.79716051989382
4,31323.0,18471.0,[3 5],2,217.1187645659741,500.61740174950927,532.7520691664265
4,5378.8125,3244.0,[4],1,497.0162791508365,128.89222760600018,638.9790729831176
4,7915.375,3773.0,[6],1,206.50649053266622,189.09286515168375,283.1230358637464
4,8251.0,4288.0,[7],1,324.67738758937844,399.45486910677437,791.143505332685
4,6947.0,3457.0,[10],1,288.5386047934325,184.07934180221673,748.4233841946169
4,7963.0,4829.0,[11],1,445.25532148687614,154.21698009544156,194.8462733894256
4,12605.875,4436.0,[12],1,104.11345900225727,130.30566600890373,218.40326930895148
4,5709.875,3513.0,[13],1,337.2124608682269,165.6130169224364,369.4064887585107
4,9259.375,4871.0,[14],1,223.0503206209932,376.1885858926747,484.1878299021251
4,8082.0625,4512.0,[15],1,398.78487081731276,402.86880669383504,655.1546480245606
4,5479.75,2454.0,[17],1,109.0815046306909,525.0251494137501,590.5837287285004
4,6432.9375,2450.0,[19],1,112.77800771421141,390.63194302758336,491.8362431626313
5,9306.5,4987.0,[0],1,250.8388995594456,96.98517501208825,250.01940512007846
5,17926.53125,9792.0,[1],1,292.22813253400227,578.0508272480224,581.092167858741
5,11569.09375,5438.0,[2],1,238.7297135957598,123.60516570280205,139.66144982185747
5,31243.5,15582.0,[3 5],2,230.71334937666882,507.5476959207495,522.7829958631362
5,9488.40625,6799.0,[4],1,538.3999749694591,129.99881434250318,620.4911717918919
5,6397.6875,2440.0,[6],1,212.65045475416,188.39470804880668,282.1926672723557
5,8406.5,4281.0,[7],1,344.69393475286415,403.9529010289658,784.8127676500345
5,8062.1875,2501.0,[9],1,140.01282607853486,122.88801503934219,81.9241482227998
5,6530.5,3057.0,[10],1,315.93229366051133,185.75462732562553,742.8318850011481
5,14450.5,10469.0,[11],1,483.14515501194,143.52976756859556,197.1273961108612
5,9063.9375,2761.0,[12],1,107.02375485268531,128.2935224067904,217.9504388958978
5,7820.9375,4966.0,[13],1,367.50779558076897,157.19916090622198,369.4464298557551
5,6127.6875,1498.0,[14],1,230.02254622971554,379.1277857674685,481.9164397254261
5,11290.03125,7249.0,[15],1,449.70966090106845,442.7673694437284,684.0966366899983
5,4592.875,1853.0,[17],1,116.43179653267808,530.1174713550886,580.276753395205
5,4754.59375,2856.0,[18],1,493.3199931645035,365.84975057017175,412.9071555798015
6,9876.25,5223.0,[0],1,266.3853293886823,98.47920674598139,248.719483293254
6,17218.265625,8255.0,[1],1,311.79234261580456,586.5193004521973,566.2556650867632
6,10992.546875,5208.0,[2],1,254.0164941302536,125.37948581638442,133.45180328148447
6,12608.453125,6971.0,[3],1,292.91477319902765,479.965051967866,542.3799695392831
6,12958.203125,8214.0,[4],1,538.8731582913871,133.24114189250247,615.8281421638096
6,17175.296875,7191.0,[5],1,217.99344170724862,526.0556149411551,490.3811506169358
6,6080.84375,2882.0,[6],1,224.16717714955263,191.26116081752636,279.28628325633326
6,7208.25,3005.0,[7],1,354.46242586618837,403.5624501439322,762.2480165955695
6,4597.515625,2784.0,[8],1,307.31806580319613,129.41087747798537,570.6117638262527
6,5948.09375,1917.0,[9],1,142.9393792128825,123.42409858200342,83.07399692128287
6,6020.25,2755.0,[10],1,343.7883679041514,194.4373235123129,721.6796333208757
6,15591.25,8366.0,[11],1,482.6555620139479,141.47835825382825,198.9233524412728
6,6842.96875,2311.0,[12],1,111.87897248545003,128.06535677588752,217.76258705331543
6,10552.46875,6642.0,[13],1,391.0032664157334,156.7750111792566,370.733504304384
6,6079.84375,3016.0,[14],1,247.0321939811343,392.72708231605293,473.2249363933084
6,14529.015625,8884.0,[15],1,475.1922112754949,459.4322761456862,691.602271101901
6,5664.296875,3287.0,[18],1,512.9814242169292,357.48734810973326,412.4539977656097
