time,cumulative size,size,pcore_ids,pcore_power,SCA-1,CD11b,Ly6C
-1,0,0,[],0,0.0,0.0,0.0
0,33574.0,33574.0,[0 2],2,0.23622462673430408,0.4912478736104505,0.6099989810760073
0,49479.0,49479.0,[1 3 4],3,0.23521173776822013,0.1676022525759136,0.32261687946532014
0,6947.0,6947.0,[5],1,0.4307341460140392,0.19337915321369836,0.3161334802512048
1,86088.5,59652.0,[0 2 3],3,0.20834398074675609,0.3878862084390326,0.44141910446354776
1,40647.0,25557.0,[1 4],2,0.2515201033397157,0.19772128691714683,0.455928653034933
1,8264.5,4791.0,[5],1,0.42559736683431737,0.20660944469188808,0.323726699688648
2,101031.25,57987.0,[0 2 3],3,0.2139786179740543,0.3823561322504199,0.3998809796247885
2,46310.5,25987.0,[1 4],2,0.2521064701394561,0.20353506268258753,0.4325423861963609
2,10158.25,6026.0,[5],1,0.41969158294704983,0.21751456281271953,0.3115703184192557
3,133653.0,69526.0,[0 1 2 3],4,0.21177370302452939,0.355261914819401,0.3834154020940767
3,21590.875,12047.0,[4],1,0.3520915482462597,0.24974558366592478,0.7204840850920906
3,13506.125,8427.0,[5],1,0.4534308768150419,0.2202405109563781,0.2894968093849854
4,134725.5,67899.0,[0 1 2 3],4,0.2352084684134487,0.3901704015359129,0.40904833486836895
4,39649.5,22101.0,[4 5],2,0.42486547147469217,0.23291339014791226,0.5373112241225341
5,123822.75,56460.0,[0 1 2 3],4,0.26552058693267533,0.4136861310501033,0.4252532345734481
5,53364.75,33540.0,[4 5],2,0.4836695911026984,0.21788251816836599,0.48917223464756476
6,117284.375,55373.0,[0 1 2 3],4,0.2969634890587813,0.425573496347095,0.43212785537525994
6,61309.375,34627.0,[4 5],2,0.5040508066303518,0.21001794190643955,0.47460020290770805
