time,cumulative size,size,pcore_ids,pcore_power,SCA-1,CD11b,Ly6C
-1,0,0,[],0,0.0,0.0,0.0
0,37229.0,37229.0,[1 3 6],3,181.5205887883115,125.5561524617909,198.70267801982283
0,22379.0,22379.0,[2 4],2,183.76455605701946,449.29210420483776,576.7160731042483
0,6613.0,6613.0,[8],1,377.7727203992072,361.07016482685566,617.735672160894
1,11128.0,8026.0,[0],1,213.66683141624785,390.4339503953991,781.7516175413366
1,51032.5,32418.0,[1 3 6],3,176.06411600450872,125.25053642286812,192.27308087983073
1,41054.5,29865.0,[2 4],2,174.2038631575125,465.7973669147128,566.4726522062131
1,6470.5,4326.0,[5],1,209.46294722200804,363.8444478788346,380.84390696236744
1,10231.5,6925.0,[8],1,367.13741875579535,355.22743488247005,602.0910912378425
2,10657.0,5093.0,[0],1,250.66174814675747,391.07755465890926,763.7677582809434
2,63965.25,38449.0,[1 3 6],3,173.90791093601842,130.0438441184866,182.96964367371206
2,44300.25,23773.0,[2 4],2,184.36135800588215,475.7570216872382,543.6604928866068
2,11205.25,7970.0,[5],1,202.19165123491317,377.25778095089214,386.442805827624
2,11066.75,5951.0,[8],1,366.3722637630675,360.9004224365771,596.4094698082082
3,11148.5,5820.0,[0],1,255.17640265506535,381.89924653540754,775.8348208279148
3,64567.625,32585.0,[1 3 6],3,176.42021833697845,130.5128770029871,187.41634836343928
3,53111.125,30961.0,[2 4],2,188.14256193970814,493.63911045002465,551.8265499930519
3,8689.625,3087.0,[5],1,201.49845361566364,366.25560654228366,392.0420184990719
3,9933.375,4400.0,[8],1,383.40363924647335,378.12026375728203,601.3083418274256
3,8107.375,5089.0,[9],1,373.71556761590494,149.55316918238054,700.7771627684675
3,7705.375,5251.0,[10],1,447.7014908424299,193.77664941680354,303.41170935872776
4,10746.25,5172.0,[0],1,309.3123705943899,387.9710480400122,780.8918692567155
4,56954.8125,24671.0,[1 3 6],3,189.64104657530225,131.3131572507591,190.99710406385668
4,60939.5625,34384.0,[2 4],2,209.6667261518323,507.0393350789144,547.3173431052996
4,9334.8125,4990.0,[5],1,207.65151951364948,355.24708584130633,398.3982605435304
4,11241.6875,6275.0,[8],1,401.62760817714525,411.58884620302683,608.3020565195395
4,10158.6875,6105.0,[9],1,404.8636327281426,148.0521782464519,699.8180252124102
4,9955.6875,6103.0,[10],1,458.0684093891066,191.15002103069196,288.52728653847333
5,11664.125,6291.0,[0],1,342.33618306130404,393.7330007608796,775.3593711487163
5,49369.40625,20892.0,[1 3 6],3,208.79771315864355,128.65494255361824,193.5237194593555
5,57312.78125,26843.0,[2 4],2,228.09530433056662,519.9907764901924,539.9529222593661
5,7138.40625,2471.0,[5],1,223.17152375574008,363.5697350161314,391.3609611739323
5,14187.84375,8567.0,[8],1,445.62113473021265,448.3512580091667,628.6998200484102
5,13535.34375,8456.0,[9],1,467.1802710958127,142.3315094047767,670.2462442078748
5,18797.84375,13820.0,[10],1,492.21230327281995,169.59971472791804,268.3587978009431
6,28157.984375,15232.0,[0 8],2,429.0723501493503,437.812099809612,684.0463600743805
6,45175.703125,20491.0,[1 3 6],3,229.80084081425068,129.48947460350095,197.08823430736598
6,51532.390625,22876.0,[2 4],2,248.00163519727928,525.9784862251422,528.668698054886
6,8083.203125,4514.0,[5],1,252.3898593727319,382.6451205721727,391.32157347895446
6,6928.8125,4338.0,[7],1,309.6721412399257,147.5220095434825,557.0977079405736
6,17101.671875,10334.0,[9],1,494.1089878822175,143.40597638937007,643.3408813283073
6,21613.921875,12215.0,[10],1,491.46295826402667,169.12157311802048,272.38968517831603
