time,cumulative size,size,pcore_ids,pcore_power,SCA-1,CD11b,Ly6C
-1,0,0,[],0,0.0,0.0,0.0
0,15155.0,15155.0,[0 4],2,0.2114210832632108,0.5367769847324253,0.6194583953931113
0,12343.0,12343.0,[1 9],2,0.32351949474159264,0.16949152853046962,0.45711436308182224
0,11122.0,11122.0,[ 2 10],2,0.21353638602708855,0.41448331992113835,0.5206304725600536
0,32800.0,32800.0,[ 3 11],2,0.1859838311866296,0.15010881111356386,0.16862557037318637
0,4183.0,4183.0,[6],1,0.27331064474451167,0.5166408312897612,0.8276782629020745
0,5857.0,5857.0,[12],1,0.39164449338445956,0.3918498343243987,0.7156259066778237
1,27435.5,19858.0,[0 4],2,0.19880649588954374,0.5582448376863487,0.6110033376927485
1,7483.5,3896.0,[1],1,0.37314751629614673,0.15673017591945143,0.2251829302862735
1,19991.0,14430.0,[ 2 10],2,0.20586013706167985,0.4311787872415902,0.5121866643998708
1,53221.0,34237.0,[ 3  9 11],3,0.1900333863311993,0.15566473607320486,0.23843393867710228
1,7996.5,5905.0,[6],1,0.2447850428944688,0.48888936986854775,0.8156855094036792
1,4344.0,3072.0,[7],1,0.4204083638545678,0.38043801509128855,0.4863026902426913
1,4031.0,2402.0,[8],1,0.2946673114820792,0.16782492246178057,0.47057036806619656
1,8114.5,5186.0,[12],1,0.37981633654831376,0.3914558988727236,0.7011146561717386
2,16239.25,8653.0,[0],1,0.24825863194199518,0.6119881290073059,0.6036061100965376
2,15275.75,8249.0,[1 9],2,0.3302730313357384,0.17592414795786887,0.41251627878546165
2,38993.0,22866.0,[ 2  4 10],3,0.2003264126635268,0.46956883605863486,0.5061269634541805
2,58352.5,35027.0,[ 3 11],2,0.17955150530797132,0.15513055891202632,0.15497677075686736
2,6289.25,2291.0,[6],1,0.2718022057434358,0.4915596119716586,0.8027018386891089
2,4889.0,2717.0,[7],1,0.419991220832819,0.37918816967446467,0.4865317395853886
2,4086.5,2071.0,[8],1,0.2982964598424218,0.17309754610839145,0.469270524354051
2,10835.25,6778.0,[12],1,0.3723909607349436,0.39359252068281697,0.7085779940903765
3,24879.625,16760.0,[0],1,0.25277141458595037,0.6178345964325015,0.6010543271419796
3,11319.875,6522.0,[1],1,0.40980859086092863,0.16962139979341004,0.20589878146354051
3,37514.5,18018.0,[ 2  4 10],3,0.19447509135419283,0.479247202393957,0.5186255227043455
3,66023.25,34007.0,[ 3  9 11],3,0.19102475902577604,0.1596582239737198,0.22881485268775867
3,4318.125,3050.0,[5],1,0.5308351100421048,0.1470407803055751,0.6621518493195513
3,15780.25,7218.0,[ 6 12],2,0.34526671530993325,0.4358322405412386,0.7553598139310967
3,4593.5,2149.0,[7],1,0.462792685805414,0.386589481645074,0.45997903496346626
3,4319.25,2276.0,[8],1,0.307385834125121,0.17326529634119742,0.4560700188066256
4,34489.8125,22050.0,[0],1,0.2805479728350788,0.6153221645709079,0.5870450379474121
4,21297.4375,11913.0,[1 9],2,0.38941794871600105,0.17488165459329488,0.3975913693152085
4,37500.25,18743.0,[ 2  4 10],3,0.2070731045313656,0.4868918030742545,0.5112897094420241
4,49346.125,20059.0,[ 3 11],2,0.18898098592205065,0.15583801834784022,0.16333773773967644
4,5440.0625,3281.0,[5],1,0.5563635063367417,0.14608410474472902,0.6626297941305039
4,16451.125,8561.0,[ 6 12],2,0.39428366763277795,0.44907651259873005,0.7615261823420031
4,4570.75,2274.0,[7],1,0.48917819525352196,0.39199361632829927,0.44280190428461796
4,5278.625,3119.0,[8],1,0.32671321773922996,0.17634709650859604,0.4372298673142906
5,61338.9375,29730.0,[0 2 4],3,0.2694124469368565,0.5830061581142192,0.5499909916723326
5,20680.96875,13824.0,[1],1,0.48854270991797527,0.1579707523552677,0.18754608768870248
5,40511.0625,15838.0,[ 3 11],2,0.20266075712812331,0.15261590308306205,0.16327930020819245
5,9598.03125,6878.0,[5],1,0.6039269011197466,0.14525359863802395,0.6407575218368684
5,19523.5625,11298.0,[ 6 12],2,0.4471816034881192,0.4761399860740843,0.7640121236351128
5,5876.375,3591.0,[7],1,0.5421842700453307,0.3844045994915405,0.4212980954701464
5,6780.3125,4141.0,[8],1,0.3623467387662415,0.16865999157045092,0.4199172229634033
5,7423.75,3632.0,[9],1,0.3440327174589546,0.19113569974987027,0.7526773262016843
5,5454.09375,1068.0,[10],1,0.2063105881386539,0.3903043155009004,0.46835311826914766
6,49330.4375,24095.0,[0 2],2,0.3130868155319743,0.5906612926534609,0.5350134404803706
6,29985.359375,15933.0,[1 9],2,0.46491582060526215,0.166637086887352,0.3244099915329998
6,8223.03125,2789.0,[4],1,0.1736460261461654,0.5604928098033068,0.5367613259762286
6,35300.53125,15045.0,[ 3 11],2,0.2198131020106233,0.15291921541725298,0.16599810285541722
6,13140.015625,8341.0,[5],1,0.6036545269123625,0.14823830936015792,0.6354546460659247
6,4852.453125,2164.0,[6],1,0.37013449520366404,0.4863411380080952,0.7865179278100487
6,7026.1875,4088.0,[7],1,0.56645560833763,0.3730399940244542,0.4134341932823655
6,9408.15625,6018.0,[8],1,0.39755174293879697,0.1677995278869008,0.41105490138518225
6,4367.046875,1640.0,[10],1,0.2165718266580851,0.3986005644617927,0.4478972230293375
6,16960.328125,9887.0,[12],1,0.5168077977824748,0.4952469378681853,0.7364840431976494
