time,cumulative size,size,pcore_ids,pcore_power,SCA-1,CD11b,Ly6C
-1,0,0,[],0,0.0,0.0,0.0
0,11802.0,11802.0,[0 5],2,NA,NA,NA
0,25542.0,25542.0,[1 3 6],3,NA,NA,NA
0,5048.0,5048.0,[14],1,NA,NA,NA
0,5161.0,5161.0,[15],1,NA,NA,633.394690951366
1,6892.5,4195.0,[0],1,NA,NA,NA
1,32739.0,19968.0,[1 3 6],3,NA,NA,NA
1,22367.5,16640.0,[ 5 14],2,NA,NA,NA
1,7566.0,5348.0,[9],1,NA,NA,NA
1,6612.5,4724.0,[11],1,NA,338.6371266540645,NA
1,10560.5,7980.0,[15],1,NA,NA,NA
2,6517.25,3071.0,[0],1,NA,NA,NA
2,38807.5,22438.0,[1 3 6],3,NA,NA,NA
2,4933.25,2833.0,[2],1,NA,NA,NA
2,26160.75,14977.0,[ 5 14],2,NA,NA,NA
2,5287.0,3142.0,[8],1,300.2369491204805,NA,NA
2,11839.0,8056.0,[9],1,190.65702339724868,NA,NA
2,6862.25,3556.0,[11],1,NA,NA,NA
2,6195.0,4151.0,[13],1,299.05375302663117,NA,NA
2,10379.25,5099.0,[15],1,216.61567550642087,NA,NA
3,27182.75,14106.0,[0 5],2,NA,NA,NA
3,44582.0,22367.0,[ 1  6 10],3,NA,134.1608861199589,NA
3,5427.625,2961.0,[2],1,NA,NA,NA
3,21673.375,11180.0,[3],1,NA,140.45722574356776,NA
3,7185.25,3923.0,[14],1,136.48369924498607,NA,NA
3,5287.5,2644.0,[8],1,NA,NA,NA
3,9404.5,3485.0,[9],1,NA,NA,NA
3,5609.125,2178.0,[11],1,NA,NA,NA
3,5973.5,2876.0,[13],1,NA,NA,NA
3,18383.625,13194.0,[15],1,NA,NA,592.577116863515
3,5805.125,3944.0,[17],1,NA,NA,NA
4,31502.375,17911.0,[0 5],2,NA,NA,NA
4,40802.0,18511.0,[ 1  6 10],3,NA,NA,NA
4,6352.8125,3639.0,[2],1,NA,NA,NA
4,17028.6875,6192.0,[3],1,NA,141.8678369956582,230.00374001225686
4,4691.5,2775.0,[4],1,NA,NA,NA
4,30497.4375,17713.0,[14 15],2,NA,NA,NA
4,6839.75,4196.0,[8],1,NA,NA,NA
4,9456.25,4754.0,[9],1,NA,NA,NA
4,5483.5625,2679.0,[11],1,NA,NA,NA
4,6489.75,3503.0,[13],1,NA,NA,NA
4,7735.5625,4833.0,[17],1,NA,NA,NA
5,39264.8125,20359.0,[ 0 15],2,NA,NA,NA
5,36531.0,16130.0,[ 1  6 10],3,NA,NA,NA
5,6824.40625,3648.0,[2],1,NA,NA,NA
5,12507.34375,3993.0,[3],1,NA,NA,NA
5,9080.75,6735.0,[4],1,NA,NA,NA
5,17129.28125,7938.0,[5],1,NA,NA,NA
5,9722.875,6303.0,[8],1,NA,NA,NA
5,6119.125,1391.0,[9],1,NA,NA,NA
5,5941.78125,3200.0,[11],1,NA,NA,NA
5,6995.875,3751.0,[13],1,NA,NA,NA
5,4699.59375,3112.0,[16],1,NA,NA,NA
5,14783.78125,10916.0,[17],1,NA,NA,NA
6,38439.40625,18807.0,[ 0 15],2,NA,NA,NA
6,34262.5,15997.0,[ 1  6 10],3,NA,NA,NA
6,8265.203125,4853.0,[2],1,NA,NA,NA
6,9699.671875,3446.0,[3],1,NA,NA,NA
6,12361.375,7821.0,[4],1,NA,NA,NA
6,14254.640625,5690.0,[5],1,NA,NA,NA
6,11666.4375,6805.0,[8],1,NA,NA,NA
6,5777.5625,2718.0,[9],1,NA,NA,NA
6,7326.890625,4356.0,[11],1,NA,NA,NA
6,6631.9375,3134.0,[13],1,NA,NA,NA
6,6172.796875,3823.0,[16],1,NA,NA,NA
6,16131.890625,8740.0,[17],1,NA,NA,NA
