time,cumulative size,size,pcore_ids,pcore_power,SCA-1,CD11b,Ly6C
-1,0,0,[],0,0.0,0.0,0.0
0,5019.0,5019.0,[0],1,258.1896792189672,NA,NA
0,39528.0,39528.0,[1 3],2,NA,139.96344363489234,NA
0,28470.0,28470.0,[2 4 6],3,NA,NA,NA
0,5230.0,5230.0,[9],1,NA,NA,NA
0,3655.0,3655.0,[5],1,NA,NA,NA
0,3989.0,3989.0,[7],1,NA,NA,NA
0,4097.0,4097.0,[8],1,NA,160.990969001709,NA
1,9407.5,6898.0,[0],1,228.71007175126266,NA,NA
1,54797.0,35033.0,[1 3],2,185.26953117871778,140.89799624066973,NA
1,50997.0,36762.0,[2 4 6],3,195.28365394042999,NA,NA
1,7348.0,4733.0,[9],1,NA,NA,NA
1,2901.5,1074.0,[5],1,NA,NA,NA
1,4087.5,2093.0,[7],1,NA,NA,NA
1,5455.5,3407.0,[8],1,NA,NA,NA
2,10020.75,5317.0,[0],1,264.6150238255613,NA,NA
2,68963.5,41565.0,[1 3],2,NA,147.11541250081476,NA
2,58502.5,33004.0,[2 4 6],3,205.73941711892732,NA,NA
2,7530.0,3856.0,[9],1,319.1489043824658,NA,NA
2,8107.5,3929.0,[5 8],2,NA,NA,NA
2,4372.75,2329.0,[7],1,NA,NA,NA
3,9908.375,4898.0,[0],1,NA,NA,NA
3,68430.75,33949.0,[1 3],2,NA,145.85547980988068,NA
3,65574.25,36323.0,[2 4 6],3,NA,NA,NA
3,6217.0,2452.0,[9],1,NA,NA,NA
3,5764.875,3708.0,[5],1,NA,NA,NA
3,7343.375,5157.0,[7],1,NA,NA,NA
3,5509.875,3513.0,[8],1,NA,NA,NA
4,10012.1875,5058.0,[0],1,NA,NA,NA
4,59113.375,24898.0,[1 3],2,NA,147.41223855853306,NA
4,58241.3125,35041.0,[2 4],2,NA,NA,553.0012630638934
4,23579.3125,10884.0,[6 9],2,NA,NA,NA
4,7865.4375,4983.0,[5],1,NA,NA,NA
4,10477.6875,6806.0,[7],1,NA,NA,NA
4,5084.9375,2330.0,[8],1,NA,164.769036000934,NA
5,20763.34375,12482.0,[0 9],2,NA,NA,NA
5,50099.6875,20543.0,[1 3],2,NA,145.59011907509432,NA
5,58117.65625,28997.0,[2 4],2,NA,NA,NA
5,10867.40625,2353.0,[6],1,NA,NA,NA
5,11589.71875,7657.0,[5],1,NA,NA,NA
5,20214.84375,14976.0,[7],1,NA,NA,NA
5,5534.46875,2992.0,[8],1,NA,NA,NA
6,23092.671875,12711.0,[0 9],2,NA,NA,NA
6,45306.84375,20257.0,[1 3],2,NA,147.3666488713418,NA
6,54855.828125,25797.0,[2 4],2,NA,NA,NA
6,9129.703125,3696.0,[6],1,NA,NA,NA
6,14921.859375,9127.0,[5],1,NA,NA,NA
6,23913.421875,13806.0,[7],1,NA,NA,NA
6,7373.234375,4606.0,[8],1,NA,NA,NA
