time,cumulative size,size,pcore_ids,pcore_power,SCA-1,CD11b,Ly6C
-1,0,0,[],0,0.0,0.0,0.0
0,9039.0,9039.0,[0],1,0.2395677407886697,0.5809367301772781,0.6201025449974129
0,27650.0,27650.0,[1 3 6],3,0.23639592010890523,0.14936369289682755,0.2334461149349371
0,14324.0,14324.0,[9],1,0.16805110618150537,0.15471273412593725,0.22625125243412111
0,11432.0,11432.0,[5],1,0.18856934211871554,0.45826136208911383,0.576053172355642
0,4945.0,4945.0,[10],1,0.20207677713273134,0.3697342715572656,0.46462040125117793
0,4574.0,4574.0,[11],1,0.4083161788909421,0.41371231651652945,0.708162140421847
1,17596.5,13077.0,[0],1,0.2164291162344937,0.5996975887198863,0.606785414972617
1,37536.0,23711.0,[1 3 6],3,0.22426136826249915,0.14888773142790476,0.2129533524579578
1,19333.0,12171.0,[9],1,0.16740590839323236,0.1551945446243079,0.22603328234942435
1,19537.0,13821.0,[5],1,0.18385779675901864,0.4715825778537872,0.5634684881510287
1,6267.0,4617.0,[7],1,0.2224652764704733,0.3687370352640821,0.8036030638089771
1,8373.5,5901.0,[10],1,0.1938122071838489,0.3776383127443366,0.4636681928073266
1,6557.0,4270.0,[11],1,0.392065774119084,0.4079774335327445,0.6886513095883844
1,5801.5,4125.0,[12],1,0.26697735087884006,0.5426376896597576,0.8044675681947703
1,5070.5,3623.0,[13],1,0.4047819010380535,0.3933640867389709,0.5234316405936877
2,18841.25,10043.0,[0],1,0.23336119275704847,0.6041061554732277,0.5842934541135086
2,47319.0,28551.0,[1 3 6],3,0.223077202995401,0.15444044627687828,0.19004312458995598
2,3984.25,2360.0,[2],1,0.4469097069711947,0.195713708133014,0.3037364690283139
2,22637.5,12971.0,[9],1,0.16076084353421233,0.1603496605710206,0.21544029987492674
2,21583.5,11815.0,[5],1,0.19614943323070427,0.49013577910141326,0.5327380201499481
2,4523.5,1390.0,[7],1,0.23939340497750192,0.3668426247644897,0.7937184261452737
2,12907.75,8721.0,[10],1,0.20114833893669729,0.4062987738170912,0.4369107335637975
2,8912.5,5634.0,[11],1,0.37905441480056806,0.40675874039334153,0.7002157826180668
2,5340.75,2440.0,[12],1,0.2986301002415676,0.5360388081647474,0.7877229712675797
2,5732.25,3197.0,[13],1,0.4041348451815776,0.39822541905378134,0.5217755090008185
3,28190.625,18770.0,[0],1,0.2357993794753573,0.610844454944496,0.5895067707642803
3,47830.5,24171.0,[1 3 6],3,0.22950314423745274,0.15535957279100363,0.20993742833389253
3,6425.125,4433.0,[2],1,0.4924297148942796,0.20207036396724823,0.25610565669322105
3,23435.75,12117.0,[9],1,0.1598322307691162,0.1602105083876436,0.21862727591455056
3,3928.75,2849.0,[4],1,0.545878016780649,0.15026482753457707,0.6589355778422313
3,21764.75,10973.0,[5],1,0.19182110259464033,0.497043730004916,0.538678778140133
3,5743.75,3482.0,[7],1,0.25038759765744373,0.35739759920038844,0.8112555770167512
3,10525.875,4072.0,[10],1,0.19759832077799988,0.40216227818679995,0.4455781797444064
3,7456.25,3000.0,[11],1,0.3976229126835305,0.41857985685730786,0.6987873583281852
3,5124.375,2454.0,[12],1,0.3248204015014121,0.5388692418620732,0.7934059262482703
3,4857.125,1991.0,[13],1,0.42795855040940384,0.4096746953704358,0.5121478772631748
4,39011.3125,24916.0,[0],1,0.26486130886587617,0.6082121523356389,0.5736119657970284
4,23411.625,12932.0,[1 6],2,0.31073411863175965,0.16509527876241492,0.3778235641338827
4,8397.5625,5185.0,[2],1,0.5064243076822464,0.1945567912014979,0.2296823789661231
4,40518.5,15365.0,[3 9],2,0.17716355602857842,0.15382629321827568,0.1456197656337396
4,4822.375,2858.0,[4],1,0.5740837930398811,0.15140959509657487,0.6531104630067791
4,20122.375,9240.0,[5],1,0.1970095792381633,0.5050813308354563,0.5310769657169078
4,4217.875,1346.0,[7],1,0.2839016465171123,0.3519570776067101,0.811450128697811
4,3805.8125,2073.0,[8],1,0.3000560201657801,0.16420868576457717,0.5243676364364274
4,10353.9375,5091.0,[10],1,0.2064547446294644,0.39947298149820043,0.4415297339285415
4,8239.125,4511.0,[11],1,0.42400941520290625,0.4253754675108887,0.7173883323353604
4,6313.1875,3751.0,[12],1,0.3961748408978441,0.5527751872012856,0.794799245551748
4,5160.5625,2732.0,[13],1,0.44396920464613226,0.42785810184039647,0.5051484105309673
5,41451.65625,21946.0,[0],1,0.2868763088096117,0.6100966917818212,0.5610541647200745
5,23741.8125,12036.0,[1 6],2,0.3300384053154171,0.16094906687824667,0.36636928100304267
5,16108.78125,11910.0,[2],1,0.546392248156404,0.17520107806704074,0.2081001052106195
5,31722.25,11463.0,[3 9],2,0.1870566582081288,0.1508041361300965,0.14179379019359517
5,9214.1875,6803.0,[4],1,0.615199684048552,0.1518993355926406,0.6308262442611927
5,15839.1875,5778.0,[5],1,0.1982922037297029,0.5205743514063071,0.523793199173171
5,3790.9375,1682.0,[7],1,0.3091747857425324,0.35511334410811596,0.8042287434188667
5,4578.90625,2676.0,[8],1,0.34318112681617996,0.16086845248251108,0.5012990858374912
5,6632.96875,1456.0,[10],1,0.21342667382010214,0.4030235178786368,0.43309262784778263
5,9429.5625,5310.0,[11],1,0.4491515857112302,0.42511016877249563,0.7289231387504411
5,8537.59375,5381.0,[12],1,0.47636176778784645,0.5789766814039109,0.7902673910937934
5,6139.28125,3559.0,[13],1,0.4812839164907423,0.45301537667379543,0.490114290015102
6,38456.828125,17731.0,[0],1,0.3093436034286442,0.6144661678851201,0.5481670920662719
6,25324.90625,13454.0,[1 6],2,0.34935186711719746,0.1615214322892312,0.35435562236313156
6,17885.390625,9831.0,[2],1,0.5469654891915029,0.17229227373979386,0.20699661430202002
6,25929.125,10068.0,[3 9],2,0.19953579569242047,0.1509113418031526,0.139695826409915
6,12493.09375,7886.0,[4],1,0.6147889770896259,0.15446534210151056,0.6284395541677101
6,13700.59375,5781.0,[5],1,0.21140733823175067,0.5274678790044445,0.510031376357069
6,7158.453125,4869.0,[8],1,0.3999631314131704,0.16525614715957976,0.48021010969629335
6,6058.484375,2742.0,[10],1,0.23597371790946842,0.41980321188862174,0.4172663973859081
6,11297.78125,6583.0,[11],1,0.46386942524168107,0.4253510548692827,0.7198577643390778
6,10136.796875,5868.0,[12],1,0.5218081807340719,0.5887547209725157,0.7672488073309642
6,7509.640625,4440.0,[13],1,0.5038006623181175,0.4624169820661423,0.480357197496778
