time,cumulative size,size,pcore_ids,pcore_power,SCA-1,CD11b,Ly6C
-1,0,0,[],0,0.0,0.0,0.0
0,4742.0,4742.0,[0],1,228.17355546183114,426.7193167439907,798.5423871784052
0,32584.0,32584.0,[1 3 7],3,163.72050699730102,127.85253498649637,199.04864350601514
0,20003.0,20003.0,[2 4],2,186.29080637904516,460.3544468329774,585.5045243213508
0,5306.0,5306.0,[6],1,173.38786279683498,357.134753109687,437.43177534866106
0,5021.0,5021.0,[5],1,228.36168094005043,164.96415056761597,737.9265086636136
0,4868.0,4868.0,[9],1,325.53225143795953,116.72555464256371,173.8625718981107
0,3213.0,3213.0,[8],1,400.4285714285688,171.93899782135063,350.436352318705
0,3048.0,3048.0,[10],1,222.17191601049888,153.99212598425194,519.7585301837275
0,5480.0,5480.0,[11],1,364.216788321163,357.3554744525542,676.0058394160563
0,2853.0,2853.0,[12],1,379.02103049421225,382.568524360323,489.9400630914815
0,2877.0,2877.0,[13],1,431.932568647895,116.78136948209928,659.0563086548499
1,9040.0,6669.0,[0],1,207.7778207964603,414.721073008849,785.4766592920311
1,45224.0,28932.0,[1 3 7],3,159.7564014682493,127.70567618963395,193.08861445250267
1,36575.5,26574.0,[2 4],2,176.04042323413427,478.64781069295077,574.6369427622301
1,8922.0,6269.0,[6],1,166.08451019950934,359.0243779421654,434.30738623626837
1,6366.5,3856.0,[5],1,213.4978402575987,175.55100918872208,738.4782062357647
1,6123.0,3689.0,[9],1,318.4897109260129,116.97305242528205,166.98750612444894
1,3450.5,1844.0,[8],1,394.9011737429321,174.52253296623653,349.83451673670515
1,4223.0,2699.0,[10],1,213.5910490172868,153.83471465782608,524.9078853895321
1,7603.0,4863.0,[11],1,354.2372747599565,355.06536893331594,660.600289359462
1,4935.5,3509.0,[12],1,369.9911863033072,366.6629520818559,494.32570154999576
2,7033.0,2513.0,[0],1,229.73777193231825,417.927378074789,772.6318071946507
2,56571.0,33959.0,[1 3 7],3,156.88408813703464,132.22797458061615,184.92030810839393
2,38591.75,20304.0,[2 4],2,187.5413333160608,489.7611924828508,552.5218667202157
2,14621.0,10160.0,[6],1,173.51528623213406,378.31049517816854,422.1393372546325
2,5753.25,2570.0,[5],1,237.41554773388793,182.20792595489485,727.0839525485587
2,7873.5,4812.0,[9],1,314.2903727694125,125.54340509303276,157.7717978027565
2,4236.25,2511.0,[8],1,388.8699321333682,184.6316907642371,339.100147536147
2,4279.5,2168.0,[10],1,221.17502044631402,153.04942166140884,530.6178291856509
2,9768.5,5967.0,[11],1,345.59082766033083,361.2299738956855,675.880739110408
2,6041.75,3574.0,[12],1,368.5673438986999,370.9464145322125,499.5185583647138
2,2729.25,1462.0,[13],1,411.4582760831691,124.16762846935983,637.1425299990847
3,7494.5,3978.0,[0],1,239.74579691773812,410.1638034558661,783.4134031623165
3,57446.5,29161.0,[1 3 7],3,159.90483101668835,132.01805810623813,190.01826699624726
3,48295.875,29000.0,[2 4],2,190.676804696055,504.8522829330681,558.3209513234798
3,7338.625,4462.0,[5],1,240.72404571700983,182.79171847587207,741.6458634962277
3,11595.5,4285.0,[6],1,171.75089474365308,370.8537687033768,428.02040662326004
3,7915.75,3979.0,[9],1,327.87576982597585,128.11154975839236,154.66887218520105
3,6350.125,4232.0,[8],1,429.05078640184126,195.6520540934232,309.9916143383019
3,4018.75,1879.0,[10],1,228.2837325038874,149.03626749611144,533.9671539657847
3,8593.25,3709.0,[11],1,359.6697407849104,377.03889680854076,679.0697931516029
3,5252.875,2232.0,[12],1,388.1032529805062,383.13128524855364,493.04811650762775
3,4447.625,3083.0,[13],1,469.9670610719211,130.43708720946543,636.8317079340104
4,16601.875,8558.0,[ 0 11],2,349.44085758385063,408.4950080939644,732.3337951285617
4,49211.25,20488.0,[1 3 7],3,169.36355889151648,133.3535256166018,195.67969087352913
4,56736.9375,32589.0,[2 4],2,212.4315497730198,515.8873683479989,552.229725784895
4,11392.75,5595.0,[6],1,179.58313401066735,364.8700653924642,427.7396864233835
4,16501.1875,8874.0,[5 9],2,315.54256701221846,151.0729114192537,417.6622137043164
4,8061.0625,4886.0,[8],1,443.34801553765334,194.11566403312275,301.2607519170081
4,4222.375,2213.0,[10],1,249.66603511056908,144.2097753041828,530.9964771011566
4,6093.4375,3467.0,[12],1,391.7453715575121,404.9890353351442,495.14499205087503
4,5553.8125,3330.0,[13],1,493.1462171256248,130.80341207053684,638.2743948413815
5,4168.125,1737.0,[0],1,276.1809491677879,404.3343604738336,777.232553606239
5,41007.625,16402.0,[1 3 7],3,184.0862088148261,131.3099903676445,199.79816177479142
5,54117.46875,25749.0,[2 4],2,229.27607421124924,526.4690929858003,544.1021060089688
5,7732.375,2036.0,[6],1,188.1705006547165,371.6677888423671,417.94049774487297
5,18566.59375,10316.0,[5 9],2,349.2973250007121,145.33894881768467,370.59604699973585
5,14510.53125,10480.0,[8],1,486.95364142853424,174.2595916327999,289.4315723278558
5,4533.1875,2422.0,[10],1,280.8506845348847,139.256290413754,520.560450014475
5,15087.8125,9218.0,[11],1,428.9572792609888,437.5983844576552,724.7936455334369
5,7723.71875,4677.0,[12],1,409.79547174085945,435.83962550423115,493.9395975869798
5,9739.90625,6963.0,[13],1,534.7221707087848,133.28011370745975,620.6551686521634
6,3667.0625,1583.0,[0],1,298.3437995330004,401.85600276106544,747.6221686295235
6,36361.8125,15858.0,[1 3 7],3,202.16313775269074,132.20645758170014,205.04533559417592
6,47426.734375,20368.0,[2 4],2,245.8246713433982,532.7431600913412,533.4895116184073
6,7438.1875,3572.0,[6],1,209.14939795481058,387.0259198729516,405.20991547
6,6858.578125,3291.0,[5],1,340.7217421613843,187.59496661343368,713.5733923531003
6,16843.265625,9588.0,[8],1,488.9618912974296,174.00144902126118,296.6861087842039
6,12397.71875,6682.0,[9],1,383.2766474174901,124.38908367718832,144.87385154022792
6,6255.59375,3989.0,[10],1,326.1507201054992,138.4336119173336,510.4367690916633
6,17421.90625,9878.0,[11],1,455.5033982001795,453.1907745456956,717.4178952145334
6,10512.859375,6651.0,[12],1,412.7907859868018,448.6878569846751,493.6488809092426
6,13409.953125,8540.0,[13],1,537.0844953084112,137.34074154341948,614.4169559224325
