time,cumulative size,size,pcore_ids,pcore_power,SCA-1,CD11b,Ly6C
-1,0,0,[],0,0.0,0.0,0.0
0,15155.0,15155.0,[0 4],2,188.1647641042576,474.510854503464,599.273639063014
0,7175.0,7175.0,[1],1,332.4158885017395,139.82299651567976,253.58578397212517
0,21422.0,21422.0,[3 9],2,177.97707963775778,144.6054056577355,372.5365978900192
1,27435.5,19858.0,[0 4],2,176.93778134169392,493.48843651473226,591.6809972480881
1,7483.5,3896.0,[1],1,332.10128950357057,138.54947551279506,245.21427139707362
1,19991.0,14430.0,[ 2 10],2,183.21552198489508,381.1620479215657,502.943624631084
1,53221.0,34237.0,[ 3  9 11],3,169.12971383476736,137.60762668871308,257.11367693203783
1,7996.5,5905.0,[6],1,217.85868817607724,432.1782029637962,775.485587444504
1,8114.5,5186.0,[12],1,338.03653952799925,346.04701460348764,672.6009612422213
2,16239.25,8653.0,[0],1,220.9501824283757,540.9975060424584,585.0382868666908
2,9595.75,5854.0,[1],1,330.9665216371782,145.54865435218693,234.5235651199749
2,38993.0,22866.0,[ 2  4 10],3,178.29050727053885,415.09885107583324,497.5020131818541
2,31755.0,17422.0,[3 9],2,172.4956621004603,149.8854589828372,332.9158793890713
2,10835.25,6778.0,[12],1,331.4279550540998,347.9357882836102,679.3030386931581
3,24879.625,16760.0,[0],1,224.96655898149584,546.1657832463313,582.7467857734977
3,11319.875,6522.0,[1],1,364.72964586622646,149.94531741737447,227.89710575425937
3,37514.5,18018.0,[ 2  4 10],3,173.08283130523162,423.654526916258,508.7257193885022
3,66023.25,34007.0,[ 3  9 11],3,170.01203553294067,141.1378699927683,248.4757377136073
3,15780.25,7218.0,[ 6 12],2,307.2873766258406,385.2757006384549,721.3131129101249
4,34489.8125,22050.0,[0],1,249.68769582322014,543.9447934806826,570.1664440767761
4,21297.4375,11913.0,[1 9],2,346.58197435724094,154.59538266047267,400.0370496450572
4,37500.25,18743.0,[ 2  4 10],3,184.29506303291538,430.412353917641,502.13815907893763
4,49346.125,20059.0,[ 3 11],2,168.19307747062507,137.76080821949077,189.67728849022944
4,5361.8125,2006.0,[6],1,288.9296529858099,428.6693398920608,779.3473871941594
5,61338.9375,29730.0,[0 2 4],3,239.7770777738023,515.3774437729697,536.8919105217547
5,20680.96875,13824.0,[1],1,434.803011826998,139.64614508205665,211.41638674445483
5,40511.0625,15838.0,[ 3 11],2,180.36807384402974,134.91245832542685,189.6248115869568
5,9598.03125,6878.0,[5],1,537.4949419965744,128.40418119601318,618.4002546095078
5,6780.3125,4141.0,[8],1,322.4885975019549,149.0954325482786,420.08566622113614
5,7423.75,3632.0,[9],1,306.1891185384696,168.96395857888533,718.9042389291125
5,5376.90625,2696.0,[6],1,313.2800227826135,432.0107520007432,773.4948477574835
6,49330.4375,24095.0,[0 2],2,278.64726582345713,522.1445827056594,523.4420695513728
6,29985.359375,15933.0,[1 9],2,413.7750803386833,147.30718480841915,334.32017239663384
6,8223.03125,2789.0,[4],1,154.5449632700872,495.4756438661233,525.0116707266533
6,35300.53125,15045.0,[ 3 11],2,195.63366078945472,135.18058642885163,192.06629636416466
6,13140.015625,8341.0,[5],1,537.2525289520026,131.0426654743796,613.6382721672004
6,7026.1875,4088.0,[7],1,504.14549142049066,329.76735471761754,414.2639055675642
6,9408.15625,6018.0,[8],1,353.8210512155293,148.33478265202032,412.12730144389366
6,16960.328125,9887.0,[12],1,459.95894002640256,437.7982930754758,704.3626707914891
