time,cumulative size,size,pcore_ids,pcore_power,SCA-1,CD11b,Ly6C
-1,0,0,[],0,0.0,0.0,0.0
0,17492.0,17492.0,[ 1 11],2,NA,128.59632975074308,NA
0,8080.0,8080.0,[12],1,NA,NA,NA
1,9165.0,6821.0,[2],1,221.63115111838593,NA,NA
1,40982.5,26905.0,[ 3 11 12],3,NA,NA,NA
1,14274.5,11136.0,[4],1,NA,NA,NA
1,6934.5,5092.0,[5],1,NA,NA,NA
1,6491.0,4117.0,[7],1,NA,NA,NA
1,10201.5,7377.0,[18],1,NA,NA,NA
2,14953.25,8803.0,[ 1 15],2,NA,NA,NA
2,9508.5,4926.0,[2],1,NA,NA,NA
2,37782.25,22994.0,[ 3 11],2,NA,NA,NA
2,21183.25,14046.0,[4],1,NA,NA,508.3596355611119
2,8460.5,5215.0,[7],1,NA,NA,NA
2,14183.0,8480.0,[12],1,NA,NA,NA
2,9022.25,6332.0,[14],1,NA,NA,NA
2,9844.75,4744.0,[18],1,NA,NA,NA
3,7921.375,3920.0,[1],1,NA,NA,NA
3,15835.25,11081.0,[2],1,NA,NA,602.6493266604605
3,36524.125,17633.0,[ 3 11],2,NA,129.4876126395911,NA
3,19947.625,9356.0,[4],1,NA,483.97673281906833,NA
3,6530.125,3443.0,[5],1,NA,NA,NA
3,6999.25,2769.0,[7],1,NA,NA,NA
3,15554.5,8463.0,[12],1,NA,145.60430261339135,NA
3,7104.125,2593.0,[14],1,NA,NA,NA
3,7675.25,4200.0,[15],1,NA,NA,NA
3,9391.375,4469.0,[18],1,NA,NA,NA
4,8074.625,5096.0,[0],1,NA,NA,NA
4,8973.6875,5013.0,[1],1,NA,NA,NA
4,22635.625,14718.0,[2],1,263.4172764171504,NA,585.301372283731
4,30307.0625,12045.0,[ 3 11],2,NA,NA,NA
4,21205.8125,11232.0,[4],1,NA,NA,NA
4,14299.6875,7535.0,[5 7],2,NA,NA,NA
4,6541.375,3996.0,[9],1,NA,NA,NA
4,12422.25,4645.0,[12],1,NA,NA,NA
4,7430.0625,3878.0,[14],1,NA,NA,NA
4,8717.625,4880.0,[15],1,NA,NA,NA
4,6636.5625,3576.0,[16],1,NA,NA,NA
4,7759.6875,3064.0,[18],1,NA,NA,500.97157585276517
5,7368.3125,3331.0,[0],1,NA,NA,NA
5,10355.84375,5869.0,[1],1,NA,NA,NA
5,24445.8125,13128.0,[2],1,NA,NA,NA
5,25110.53125,9957.0,[ 3 11],2,NA,NA,NA
5,20052.90625,9450.0,[4],1,NA,NA,NA
5,6740.03125,3467.0,[5],1,NA,NA,778.2692494934655
5,10911.8125,7035.0,[7],1,NA,NA,NA
5,13521.6875,10251.0,[9],1,NA,NA,NA
5,8931.125,2720.0,[12],1,NA,NA,NA
5,7060.53125,5392.0,[13],1,NA,NA,NA
5,9048.8125,4690.0,[15],1,NA,NA,NA
5,6579.28125,3261.0,[16],1,NA,NA,NA
6,9272.15625,5588.0,[0],1,NA,NA,NA
6,11688.921875,6511.0,[1],1,NA,NA,NA
6,22624.90625,10402.0,[2],1,NA,NA,558.1369025009733
6,21931.265625,9376.0,[ 3 11],2,NA,NA,NA
6,18329.453125,8303.0,[4],1,NA,NA,NA
6,7954.71875,5393.0,[6],1,NA,NA,NA
6,13862.90625,8407.0,[7],1,NA,NA,NA
6,14299.84375,7539.0,[9],1,NA,NA,NA
6,6799.5625,2334.0,[12],1,NA,NA,NA
6,9234.265625,5704.0,[13],1,NA,NA,NA
6,10387.40625,5863.0,[15],1,NA,NA,NA
