time,cumulative size,size,pcore_ids,pcore_power,SCA-1,CD11b,Ly6C
-1,0,0,[],0,0.0,0.0,0.0
0,9173.0,9173.0,[0 2],2,209.99215087757537,104.30262727570036,135.2395072495367
0,3717.0,3717.0,[1],1,254.59994619316524,567.1937046004849,662.4856066720475
0,4509.0,4509.0,[3],1,267.61166555777265,417.66356176535857,794.4491017964067
0,3969.0,3969.0,[4],1,311.1058201058166,158.19299571680492,358.34593096497935
0,2781.0,2781.0,[5],1,216.2998921251357,146.53865516001443,541.4318590435096
0,3654.0,3654.0,[6],1,153.11795292829885,170.33087027914644,172.40804597701117
0,4766.0,4766.0,[7],1,221.2419219471248,181.1374318086444,748.8680234997898
0,8024.0,8024.0,[8],1,215.71635094715882,117.54486540378866,259.96909272183547
0,5031.0,5031.0,[9],1,109.52812562115118,114.57125819916492,93.65275293182272
0,5687.0,5687.0,[11],1,198.8971338139627,365.9400386847203,572.5109899771414
0,2856.0,2856.0,[12],1,420.592086834732,127.97689075630248,218.59033613445408
0,3264.0,3264.0,[14],1,419.98100490195776,115.01531862745092,662.4892769607847
0,6307.0,6307.0,[15],1,101.44918344696696,120.68162359283336,243.1312827017604
0,4192.0,4192.0,[16],1,106.46636450381845,470.8225190839704,623.942032442747
0,6948.0,6948.0,[17],1,212.26511226252242,478.94084628670277,557.5345423143355
0,5166.0,5166.0,[18],1,144.5865272938466,357.9308943089423,483.3201703445586
0,5530.0,5530.0,[19],1,374.93815551536477,350.20705244122934,636.5090415913185
1,12989.5,8403.0,[0 2],2,210.25612995111453,102.95615689595458,136.2848454520955
1,6976.5,5118.0,[1],1,236.8105783702425,570.7632050455095,656.2757113165619
1,8068.5,5814.0,[3],1,239.3970998326815,407.43576873024756,786.0159261324868
1,4243.5,2259.0,[4],1,311.4529280075367,163.3387533875334,363.2073759868043
1,3852.5,2462.0,[5],1,206.84853990915087,142.473977936405,546.8119402985053
1,13621.5,9279.0,[6 9],2,127.86811290974241,136.72433285614633,124.66358330580353
1,6194.0,3811.0,[7],1,206.50896028414644,192.15829835324507,749.2898773006121
1,9886.0,5874.0,[8],1,217.41493020432884,121.35433946995754,264.17722031155245
1,3220.5,2027.0,[10],1,179.2685918335674,299.7699115044247,280.6854525694764
1,8137.5,5294.0,[11],1,200.82285714285763,372.4986175115199,564.8216282642089
1,3103.0,1675.0,[12],1,415.8751208507878,127.71382533032522,212.94166935224035
1,3135.5,2132.0,[13],1,369.1604209854834,373.08451602615224,428.4804656354639
1,2819.0,1187.0,[14],1,414.5689960979047,116.42816601631802,649.50177367861
1,9228.5,6075.0,[15],1,102.0075851980336,121.29343880370602,243.660237308339
1,7971.0,5875.0,[16],1,97.65456028102409,484.7317776941401,614.8729770417785
1,13698.0,10224.0,[17],1,196.8385895751219,497.75459921156425,540.6446926558608
1,9636.0,7053.0,[18],1,139.29379410544163,360.7567974263182,484.1627231216276
1,8203.0,5438.0,[19],1,365.55333414603615,348.49024747043757,624.171705473605
2,16662.75,10168.0,[0 2],2,211.95180867503925,106.22289237970952,133.69623861607462
2,7285.25,3797.0,[1],1,252.72221269002355,568.6694005010131,640.7771524655983
2,8247.25,4213.0,[3],1,269.32877625875113,403.11797872017945,767.4225650974555
2,4728.75,2607.0,[4],1,312.9208035950263,173.44414485857703,359.5961406291311
2,3955.25,2029.0,[5],1,216.8545603944131,142.5665887112064,552.035522406926
2,19332.75,12522.0,[6 9],2,126.57996146435981,141.2681718844961,124.254257671568
2,5529.0,2432.0,[7],1,234.46414360643755,200.38926568999773,737.1542322300592
2,11103.0,6160.0,[8],1,221.429253354949,128.9714941907593,261.8579663154119
2,4259.25,2649.0,[10],1,187.1952221635282,322.2584962141225,279.00046956623834
2,7209.75,3141.0,[11],1,211.38985401713026,378.0448351191073,553.9276673948464
2,3811.5,2260.0,[12],1,409.41997901088473,137.87590187590203,204.2550177095635
2,3847.75,2280.0,[13],1,370.67669417191405,369.37645377168457,438.39990903774856
2,3077.5,1668.0,[14],1,401.58212835093025,122.10284321689704,643.844922826971
2,11115.25,6501.0,[15],1,97.74827376802834,125.7388947617009,239.68567958435602
2,5554.5,1569.0,[16],1,97.67400306058771,489.38851381762436,598.9351426771101
2,19373.0,12524.0,[17],1,201.3374025705899,503.4425876219464,515.505987714859
2,13688.0,8870.0,[18],1,149.437280829927,377.7455618059623,462.791496201052
2,8711.5,4610.0,[19],1,364.0359295184449,353.45873270963654,624.7445617861447
3,16819.375,8488.0,[0 2],2,210.41762847906128,105.9448849912676,137.66340901490102
3,11919.625,8277.0,[1],1,250.47761569679994,573.9548328911355,623.5869731640075
3,8363.625,4240.0,[3],1,272.9005514953128,400.17628420690744,780.6203500276457
3,5286.375,2922.0,[4],1,317.94020004255816,173.8921283488209,358.72107540611665
3,3733.625,1756.0,[5],1,221.9312330509892,138.49522916736362,561.6941310388687
3,18452.375,8786.0,[6 9],2,128.5219585554758,142.62349020112563,127.81217864909011
3,7087.5,4323.0,[7],1,237.06033509700083,196.43486772486716,750.1549029982367
3,12067.5,6516.0,[8],1,222.31220219598066,131.85425730267235,264.11704992749213
3,3153.625,1024.0,[10],1,192.60489912402525,314.9879107376432,281.89000753101607
3,7629.875,4025.0,[11],1,214.2787398220814,390.7133963531498,550.077163780533
3,5878.75,3973.0,[12],1,442.23399957473777,152.9384648096957,205.37069955347687
3,3677.875,1754.0,[13],1,415.8435577609317,373.53556741324735,420.49406926554036
3,4698.75,3160.0,[14],1,462.5735567970206,128.3796222399573,639.6408353285457
3,11517.625,5960.0,[15],1,98.43958715447692,126.97857631239079,239.56207334411553
3,8866.25,6089.0,[16],1,105.82885943888944,506.34735654870997,584.3873819258424
3,20410.5,10724.0,[17],1,204.4544107199738,507.8543702995987,522.199149947329
3,11609.0,4765.0,[18],1,147.1503790162835,376.44875742958186,463.6527694030502
3,7573.75,3218.0,[19],1,377.1729328271915,370.9054134345588,632.7560488529471
4,15536.6875,7127.0,[0 2],2,219.88461182604104,106.40159783094064,136.07805717917665
4,16673.8125,10714.0,[1],1,273.40613461977944,572.1115784107544,605.3282917449123
4,8749.8125,4568.0,[3],1,327.40175146609846,402.35470045786684,787.0809731637084
4,6420.1875,3777.0,[4],1,327.6902056988158,172.97384227485577,358.95370072914454
4,3788.8125,1922.0,[5],1,242.3429504627091,133.65813826891625,566.1786179706698
4,6472.375,2405.0,[6],1,158.27025435022233,173.74380540373494,176.95889260124773
4,6891.75,3348.0,[7],1,284.16767330503535,191.12446947437144,749.6331755359664
4,11808.75,5775.0,[8],1,231.23939875092546,132.44963480470054,264.5359796760887
4,7897.8125,2739.0,[9],1,108.68658251890051,120.73355755153653,89.00246903810427
4,3328.8125,1752.0,[10],1,199.86911623889964,309.9858808509038,291.46210172546546
4,8419.9375,4605.0,[11],1,229.20348280494994,398.9540525092952,537.0480481595004
4,7600.375,4661.0,[12],1,452.0636892916468,151.06998009966625,203.32950676775755
4,3705.9375,1867.0,[13],1,442.31191500126187,378.50599544649486,409.1224723838439
4,5863.375,3514.0,[14],1,485.98081309825875,128.42840087833363,641.5890485428616
4,8975.8125,3217.0,[15],1,97.85756164136285,128.50556008160802,240.76762549351488
4,8153.125,3720.0,[16],1,111.35896512074193,512.8406745879645,569.531598313527
4,25587.25,15382.0,[17],1,219.20790139620334,513.1143367302027,520.941479643177
4,10226.5,4422.0,[18],1,152.10730699653152,375.6464882902265,458.2422627487407
4,8271.875,4485.0,[19],1,397.85716660369553,403.9863316962584,640.511499811106
5,7489.1875,3811.0,[0],1,262.1275630700899,123.0457367705109,90.58363724369343
5,18554.90625,10218.0,[1],1,293.41761360286705,570.1085444045287,588.5404685755284
5,7160.15625,3070.0,[2],1,204.84089034369947,87.5909088925261,182.28726241134743
5,9213.90625,4839.0,[3],1,352.3527243127687,410.99040851973064,782.6084044158805
5,8040.09375,4830.0,[4],1,355.5099443025733,162.532339874769,361.9047391393906
5,3665.40625,1771.0,[5],1,267.2756942016962,129.22082306702006,566.9208733684015
5,4886.1875,1650.0,[6],1,163.61144936620084,174.7752273628469,176.80863786950462
5,6528.875,3083.0,[7],1,312.4212488751841,191.91882694185387,743.9753738201455
5,11400.375,5496.0,[8],1,245.0387048671622,129.6573413155268,263.087453263598
5,5832.90625,1884.0,[9],1,112.36201936213877,119.81754378445511,88.06114554815653
5,2725.40625,1061.0,[10],1,210.36511758568125,317.91826906539166,291.0646233933014
5,6325.96875,2116.0,[11],1,240.97961280633854,404.04247867174416,535.7848946060617
5,14286.1875,10486.0,[12],1,488.1099860442146,141.65341523062034,204.8585915591545
5,4611.96875,2759.0,[13],1,482.8448059735857,371.6967469152945,402.86507931130325
5,10002.6875,7071.0,[14],1,531.6649025574432,130.36715757640107,620.6583574414377
5,6341.90625,1854.0,[15],1,99.59569530061172,126.73065078027554,241.51611059372055
5,6815.5625,2739.0,[16],1,118.34838008602208,520.0486478555499,558.8585177305599
5,26031.625,13238.0,[17],1,231.77261071869268,519.28315678525,510.74563871828195
5,6324.25,1211.0,[18],1,154.4498853619032,381.9974552318457,453.1617583112628
5,10948.9375,6813.0,[19],1,449.4718665623919,441.6481707699941,669.5822796732534
6,7692.59375,3948.0,[0],1,281.33348837964746,125.51882086259863,95.19843965177586
6,18551.453125,9274.0,[1],1,314.30072442101107,575.9552216681171,571.9176572252996
6,6262.078125,2682.0,[2],1,211.0846214690122,86.40682630815932,183.50675569462015
6,8017.953125,3411.0,[3],1,361.976983293345,413.16935821759347,762.1484110852799
6,10457.046875,6437.0,[4],1,381.11138720748494,159.55648329251707,365.258859531029
6,4616.703125,2784.0,[5],1,305.8875482707092,128.6330071851865,565.8240492234389
6,4077.09375,1634.0,[6],1,171.0333762560675,176.40317091678386,177.8333103390128
6,6010.4375,2746.0,[7],1,341.0340163465582,199.12311135836617,722.8768470473251
6,11661.1875,5961.0,[8],1,261.41407661097634,130.0311959009325,261.131451020747
6,4334.453125,1418.0,[9],1,117.81522322958045,119.56646779978666,87.55296047295491
6,2959.703125,1597.0,[10],1,229.84406691971822,327.2899942456224,294.41759361422476
6,7476.984375,4314.0,[11],1,271.3200467267229,414.06921448528533,523.8459857019562
6,15358.09375,8215.0,[12],1,487.608977554586,139.79831481364675,207.3906551716412
6,5601.984375,3296.0,[13],1,504.78462431002436,361.78553079684366,406.06442750476265
6,13501.34375,8500.0,[14],1,534.73158458765,133.45204759711388,614.5129663019652
6,4673.953125,1503.0,[15],1,102.27515519853063,128.01025965038914,242.8244860981577
6,4731.78125,1324.0,[16],1,123.8659100365272,523.025241551475,549.0409300144618
6,23501.8125,10486.0,[17],1,243.93343465530654,520.3665548401844,497.2579229261499
6,5051.125,1889.0,[18],1,163.16045311688274,396.68661993615245,443.98725531441085
6,14055.46875,8581.0,[19],1,477.58191540214415,458.3043955310979,681.9984759046201
