time,cumulative size,size,pcore_ids,pcore_power,SCA-1,CD11b,Ly6C
-1,0,0,[],0,0.0,0.0,0.0
0,5643.0,5643.0,[0],1,248.11004784689007,419.80577706893456,791.7776005670743
0,30648.0,30648.0,[1 3],2,158.44440093970456,124.1207582876536,186.3750652571126
0,21408.0,21408.0,[2 4],2,183.4594076980592,453.0156016442477,579.9853325859483
0,5663.0,5663.0,[5],1,232.87427158749634,163.67031608687955,728.9671552180815
0,4580.0,4580.0,[6],1,212.29978165938897,373.6596069868991,401.9017467248907
0,8361.0,8361.0,[7],1,340.1735438344667,138.93385958617378,251.89630426982407
0,3916.0,3916.0,[8],1,231.71552604698624,167.9744637385086,467.6289581205313
0,6665.0,6665.0,[9],1,375.1240810202483,359.14628657164224,612.1906976744176
1,10141.5,7320.0,[0],1,221.73233742543025,410.2873342207763,781.4037864221235
1,43473.0,28149.0,[1 3],2,156.28578658017878,124.3831918662163,182.0652473949337
1,18328.0,13855.0,[2],1,194.6709951986042,541.8146006110865,596.8106449148826
1,21212.0,14981.0,[4],1,155.22932773901906,405.91815953234277,544.6792145955108
1,7208.5,4377.0,[5],1,215.79212041340134,171.10681833945995,726.1718110563912
1,6788.0,4498.0,[6],1,206.1873158515034,378.7530200353564,392.50427224513845
1,9240.5,5060.0,[7],1,337.7224717277171,137.25231318651623,244.69536280504258
1,5506.0,3548.0,[8],1,225.84580457682446,174.81565564838337,468.2647112241164
1,10311.5,6979.0,[9],1,366.7414052271656,353.67221063860654,597.4846045677144
2,10058.75,4988.0,[0],1,258.7166645955005,405.8195600845034,762.7171616751581
2,54671.5,32935.0,[1 3],2,153.51742681287683,128.8084696779863,174.08311917543756
2,41841.0,22071.0,[2 4],2,183.6715243421544,479.3724098372431,547.5510265050993
2,12557.0,9163.0,[6],1,200.91508720235834,391.5558453452254,398.30074858644326
2,7096.25,3492.0,[5],1,242.0180729258397,180.08663026246202,713.275849920731
2,11639.25,7019.0,[7],1,333.8633717808257,146.5772279141699,235.7646540799452
2,5520.0,2767.0,[8],1,236.006068840578,177.75661231884038,464.1003170289832
2,11160.75,6005.0,[9],1,366.97488968034696,358.45310575006044,591.1059068610975
3,10259.375,5230.0,[0],1,267.0566311300627,402.4827779469988,773.4303137374325
3,55143.75,27808.0,[1 3],2,155.5244610676679,128.8309395897092,178.91633458007394
3,51177.5,30257.0,[2 4],2,187.6195813589974,496.4111670167569,554.4365834595221
3,8550.125,5002.0,[5],1,241.21768687592274,177.5982076285426,725.3687957778394
3,9525.5,3247.0,[6],1,201.31314629153465,385.30296309904895,402.2490420450363
3,13768.625,7949.0,[7],1,367.2412187128323,158.68087772017864,232.20226239003503
3,5605.0,2845.0,[8],1,246.57337198929315,176.4235950044611,450.0634924174832
3,9936.375,4356.0,[9],1,384.65008617327067,376.55238957869346,590.0890037865927
3,4782.75,3306.0,[10],1,470.04806335267415,131.19520673252822,619.1834457163777
4,10694.6875,5565.0,[0],1,325.30918388218043,406.3670747742721,778.5809367968875
4,46602.875,19031.0,[1 3],2,163.26524919332027,129.47807538698007,180.85961032446932
4,58975.75,33387.0,[2 4],2,209.5413040529364,509.72101668906225,549.8737722707954
4,8733.0625,4458.0,[5],1,283.48951899748533,170.67534298535045,723.6035397090061
4,10018.75,5256.0,[6],1,207.22058016219768,379.3190455396129,407.6288583905181
4,16074.3125,9190.0,[7],1,385.33127388807355,159.1628102290532,226.35312941066658
4,6604.5,3802.0,[8],1,268.5053940495089,175.0132674691504,435.6129816791583
4,10819.1875,5851.0,[9],1,400.23751783578115,407.4175509944708,591.0336439312111
4,5851.375,3460.0,[10],1,495.6836961397974,132.87781717972246,618.5591954882398
5,12882.34375,7535.0,[0],1,373.4924424175484,424.09716302594256,773.7097456547815
5,38570.4375,15269.0,[1 3],2,176.9820733819809,127.10001750044991,181.07385756902426
5,55502.875,26015.0,[2 4],2,227.7586842348245,522.3519975316586,542.6478009021935
5,7707.375,2698.0,[6],1,219.52176892262315,392.5135787151899,400.85266546651815
5,31654.6875,19251.0,[5 7],2,402.4992664988415,156.64092699540876,351.28468532503945
5,7692.25,4390.0,[8],1,302.890563554223,167.44353895154293,421.5938078910593
5,12463.59375,7054.0,[9],1,436.5170659545883,439.0498877982135,594.0944525931775
5,10713.6875,7788.0,[10],1,536.71404861772,136.15143887200335,599.163537880864
6,13794.171875,7353.0,[0],1,400.41106241652676,434.4345404025912,753.0000022654493
6,33782.21875,14497.0,[1 3],2,193.209837645731,127.80094974149712,183.579799746722
6,48659.4375,20908.0,[2 4],2,246.60017680280336,529.4975679178401,532.8404902183584
6,9238.6875,5385.0,[6],1,244.23017846149455,412.80373125240794,403.69283042098886
6,8504.265625,4330.0,[5],1,334.1207280170007,174.27955272446025,691.4096400152158
6,25009.078125,13356.0,[7],1,446.10080277099286,151.06539187957318,220.70902441051007
6,10516.125,6670.0,[8],1,343.88008593944494,167.20111079413783,412.32093422006784
6,14397.796875,8166.0,[9],1,464.6456499963619,455.15426947916296,595.3689323127767
6,14691.84375,9335.0,[10],1,537.1185830148152,139.19798080992996,596.7621628922491
