time,cumulative size,size,pcore_ids,pcore_power,SCA-1,CD11b,Ly6C
-1,0,0,[],0,0.0,0.0,0.0
0,40157.0,40157.0,[1 3],2,194.89720347635796,139.2753940782433,212.35704858430557
0,17669.0,17669.0,[2 4],2,210.7766710057168,452.95653404267534,594.5257230177144
1,14066.5,9773.0,[0 4],2,225.96058010165916,397.8851882131297,694.8882806668294
1,55147.5,35069.0,[1 3],2,187.7862550432968,140.40021759825856,207.61077111382954
1,32860.5,24026.0,[2 4],2,196.97550250300674,471.24360554465284,582.5165320065096
1,6553.5,3691.0,[7],1,234.7728694590676,165.17410543984096,710.6429388876182
2,12799.25,5766.0,[0 4],2,255.37482664999797,396.45455788425113,696.0340644959656
2,69430.75,41857.0,[1 3],2,185.60172906097498,146.9268371722899,199.71346269484366
2,33389.25,16959.0,[2 4],2,208.11290310504197,481.59357427914455,558.4102143653971
2,6557.75,3281.0,[7],1,261.1610689642013,173.72684991041098,698.0630932865702
3,15818.875,7213.0,[0 8],2,304.2848416843769,376.8641259255155,698.6883469905416
3,70392.375,35677.0,[1 3],2,191.95869758621157,145.45280294918342,202.195248420018
3,45148.625,28454.0,[2 4],2,210.65088637804644,495.5448615544756,562.2578123918378
3,8196.875,4918.0,[7],1,257.65922988943964,174.67408311094104,709.8760960732001
4,16233.4375,8324.0,[0 8],2,348.85549887384747,389.2133905711588,702.9334860530921
4,69220.5625,31524.0,[1 3 6],3,223.38127669794866,152.01270305337388,221.044822302622
4,57100.3125,34526.0,[2 4],2,234.53981863058945,503.2079038534159,552.375428111694
4,8995.4375,4897.0,[7],1,298.10759621196604,167.8659667748237,707.9612095020389
5,20245.71875,12129.0,[0 8],2,400.2402220839866,418.3990565906676,701.3916661392908
5,53535.59375,22455.0,[1 3],2,221.84549239728958,143.2698514247823,206.08074301034478
5,57452.15625,28902.0,[2 4],2,252.12386121278092,511.57096964920976,542.2763533135286
5,16021.6875,12492.0,[6],1,469.10218765969734,171.7994963857572,286.05754114539945
5,8944.71875,4447.0,[7],1,322.48706813726994,167.7941976934719,699.1333747916902
5,9516.0625,7023.0,[9],1,538.5349934650028,138.7701255114705,596.5668475012636
6,22524.859375,12402.0,[0 8],2,433.36210547928954,433.4503336938153,688.3057045999866
6,68351.640625,33573.0,[1 3 6],3,307.6357818770339,151.6204455132635,231.2104521540152
6,64156.8125,29695.0,[2 4 5],3,264.47156089230526,495.05682926306986,519.7150197903676
6,9169.359375,4697.0,[7],1,351.40776260609306,171.95290190324775,675.0303319990691
6,14391.03125,9633.0,[9],1,522.7554716153554,141.80725191254064,589.3146610410553
