id,time,new_centre,nearest_clust_from_prev,power,change_in_power,distance_from_prev(norm),distance_from_prev,top5_nearest,top5_num_overlap,ks_closest,ks_overlap,move_dir_0,move_0,move_dir_1,move_1,move_dir_2,move_2,move_dir_3,move_3,move_dir_4,move_4
1,0,yes,0.0,0.08004304374205809,0.0,0.0,0.0,[ 8 13  4  5  9],[ 15.  15.  14.  14.  14.],[ 4  8  9 14 15],[ 2.  2.  2.  2.  2.],,,,,,,,,,
2,0,yes,0.0,0.26374308838849264,0.0,0.0,0.0,[ 8 11  6  7 12],[ 16.  16.  15.  14.  13.],[12 14  7  8 10],[ 5.  4.  3.  3.  3.],,,,,,,,,,
3,0,yes,0.0,0.2902762355042185,0.0,0.0,0.0,[ 5  8  1  6 13],[ 16.  14.  13.  13.  13.],[ 8  2  5  7 10],[ 6.  4.  4.  4.  4.],,,,,,,,,,
4,0,yes,0.0,0.04515299989696977,0.0,0.0,0.0,[15  1 10 13  5],[ 16.  14.  14.  14.  13.],[ 6 12  1  2  5],[ 3.  3.  2.  2.  2.],,,,,,,,,,
5,0,yes,0.0,0.0723329479239408,0.0,0.0,0.0,[ 3  1 10  4  6],[ 16.  14.  14.  13.  13.],[ 3  1  6  8 13],[ 4.  3.  3.  2.  2.],,,,,,,,,,
6,0,yes,0.0,0.04298364108845718,0.0,0.0,0.0,[ 2  8 11  7  1],[ 15.  15.  15.  14.  13.],[13 15  2  4  5],[ 3.  3.  2.  2.  2.],,,,,,,,,,
7,0,yes,0.0,0.08943310475885201,0.0,0.0,0.0,[11 12  2  6  8],[ 16.  16.  14.  14.  13.],[ 5  6 12  2  3],[ 3.  3.  3.  2.  2.],,,,,,,,,,
8,0,yes,0.0,0.06876123315741875,0.0,0.0,0.0,[ 2 10  1  6  9],[ 16.  16.  15.  15.  15.],[ 3  6 15  7 12],[ 3.  3.  3.  2.  2.],,,,,,,,,,
9,0,yes,0.0,0.003213970899682896,0.0,0.0,0.0,[ 8 10 13  1 15],[ 15.  15.  15.  14.  14.],[ 7 15  3  8 11],[ 3.  3.  2.  2.  2.],,,,,,,,,,
10,0,yes,0.0,0.002632994859936121,0.0,0.0,0.0,[8 9 1 4 5],[ 16.  15.  14.  14.  14.],[4 6 1 7 8],[ 3.  3.  2.  2.  2.],,,,,,,,,,
11,0,yes,0.0,0.02162490126269275,0.0,0.0,0.0,[ 2  7 12  6  8],[ 16.  16.  16.  15.  15.],[15  2  3  4 12],[ 4.  2.  2.  2.  2.],,,,,,,,,,
12,0,yes,0.0,0.013631472302038854,0.0,0.0,0.0,[ 7 11  2  6  8],[ 16.  16.  13.  12.  12.],[ 6 10 11  1  5],[ 4.  3.  3.  2.  2.],,,,,,,,,,
13,0,yes,0.0,0.004968346822662072,0.0,0.0,0.0,[ 1  9  4 10 15],[ 15.  15.  14.  14.  14.],[14 15  3  6 12],[ 5.  3.  2.  2.  2.],,,,,,,,,,
14,0,yes,0.0,2.8619509347131755e-06,0.0,0.0,0.0,[1 2 3 4 5],[ 0.  0.  0.  0.  0.],[ 5  9 12  1  2],[ 4.  3.  3.  2.  2.],,,,,,,,,,
15,0,yes,0.0,0.0011991574416448205,0.0,0.0,0.0,[ 4  9 13  1  5],[ 16.  14.  14.  13.  13.],[13 14  1  3  4],[ 3.  3.  2.  2.  2.],,,,,,,,,,
1,1,yes,1.0,0.045584906964288796,-0.034458136777769294,0.03174269259406039,167057315.95461026,[18 13  9 10 16],[ 16.  16.  15.  14.  14.],[ 4 15 19  7 12],[ 5.  3.  3.  2.  2.],_SSC-A,-11410.011697249309,BV421 CD117_[V 440_F-A],-0.8262062761703765,BV605 CD11b_[V 610_D-A],0.5996081626819275,BV650 CD150_[V 660_C-A],-0.2591362953499621,PerCPCy5-5 CD45_[B 695_A-A],0.22909864050355822
2,1,no,2.0,0.14815454697281202,-0.11558854141568062,0.008329246404967915,52810011.35084159,[ 7 11  6  8 17],[ 16.  16.  14.  14.  13.],[11  1 18  4  6],[ 4.  2.  2.  2.  2.],BV785 B220_[V 780_A-A],0.48798993555734443,_FSC-A,-7185.8041832253075,BV421 CD117_[V 440_F-A],-0.2370543319773731,FITC Ly6C_[B 525_B-A],-0.19808191618850626,BV510 SCA-1_[V 525_E-A],-0.20157187492631906
3,1,yes,3.0,0.2346337024815282,-0.05564253302269029,0.01214347569857404,6078200.22456104,[ 5  9  1 18  8],[ 14.  13.  12.  12.  12.],[17 16 18 13 11],[ 6.  4.  3.  3.  3.],APCCy7 Ly6G_[R 780_A-A],0.6068856226671658,PECy7 CD16-32_[YG 780_A-A],0.38000147248934973,BV605 CD11b_[V 610_D-A],0.25748046561640514,PerCPCy5-5 CD45_[B 695_A-A],0.15055970393523016,_SSC-A,-2436.488468958291
4,1,yes,4.0,0.019983529425315158,-0.02516947047165461,0.01747780593533495,11102066.439966619,[15 16 10 13 18],[ 15.  13.  12.  12.  11.],[11 18 14  5 13],[ 5.  4.  4.  4.  3.],BV711 CD11c_[V 715_B-A],-0.6949422479099837,BV650 CD150_[V 660_C-A],0.35883694758806234,BV421 CD117_[V 440_F-A],-0.40237530878784583,PECy7 CD16-32_[YG 780_A-A],0.24767399966453316,AF700 CD48_[R 730_B-A],0.12895705589361034
5,1,yes,5.0,0.06733931111533434,-0.004993636808606455,0.02696835187871717,62721474.36530975,[10  3 16  9 18],[ 15.  14.  13.  13.  12.],[20 11  7 17 19],[ 4.  3.  3.  2.  2.],BV650 CD150_[V 660_C-A],-0.5004522898275627,BV711 CD11c_[V 715_B-A],0.516890061366808,_FSC-A,-7842.798714754832,PerCPCy5-5 CD45_[B 695_A-A],-0.2843290299460343,APCCy7 Ly6G_[R 780_A-A],-0.45594012484930235
6,1,yes,6.0,0.028938684542423248,-0.014044956546033934,0.09104443341118168,98520129.0152952,[ 7 12  2  8 11],[ 15.  15.  14.  14.  14.],[ 7  2  1  5 16],[ 5.  4.  3.  3.  3.],FITC Ly6C_[B 525_B-A],-1.5995793280650719,PECy5 CD3-CD19-NK11_[YG 670_B-A],0.5676389439501803,BV785 B220_[V 780_A-A],-0.9989357330827386,BV711 CD11c_[V 715_B-A],-0.6540780089553195,BV510 SCA-1_[V 525_E-A],-0.5875457619066221
7,1,yes,7.0,0.06891150233525106,-0.020521602423600946,0.022477779043698094,21947991.447685108,[ 2  6 12  8 17],[ 16.  15.  15.  14.  13.],[15 14  4 12 11],[ 3.  3.  3.  3.  3.],PerCPCy5-5 CD45_[B 695_A-A],-0.5221328251857802,BV650 CD150_[V 660_C-A],0.32537106495661544,PECy5 CD3-CD19-NK11_[YG 670_B-A],-0.26229821071436665,BV510 SCA-1_[V 525_E-A],-0.34862647755373827,AF700 CD48_[R 730_B-A],0.2095752535424931
8,1,yes,8.0,0.14927466123022523,0.08051342807280648,0.10054547605468074,183937088.6841522,[10 17 11  2  6],[ 15.  15.  15.  14.  14.],[16 10  2 14 12],[ 4.  3.  3.  3.  3.],PE CD115_[YG 582_D-A],-0.9823282783313021,AF700 CD48_[R 730_B-A],-0.7167188206471807,PerCPCy5-5 CD45_[B 695_A-A],-0.6497880891220453,BV421 CD117_[V 440_F-A],-0.8884656839626778,BV711 CD11c_[V 715_B-A],-0.5886953764992922
9,1,yes,9.0,0.01068283777635724,0.007468866876674344,0.02936577681901783,9785342.116338812,[ 1 10 18 16  3],[ 15.  15.  14.  14.  13.],[ 8  2 13 10 16],[ 4.  3.  3.  2.  2.],PECy7 CD16-32_[YG 780_A-A],-0.6145514960806402,AF700 CD48_[R 730_B-A],-0.4039633007595647,PerCPCy5-5 CD45_[B 695_A-A],-0.33297155051812005,BV421 CD117_[V 440_F-A],-0.5160293303370129,BV711 CD11c_[V 715_B-A],-0.38501196854210923
10,1,yes,8.0,0.050200699135582776,-0.018560534021835974,0.0874436095980772,78874603.16956732,[16  5  8  9 18],[ 16.  15.  15.  15.  15.],[11  1 20 16  2],[ 4.  3.  3.  2.  2.],FITC Ly6C_[B 525_B-A],1.7644476747579445,AF700 CD48_[R 730_B-A],0.5411242727978314,BV421 CD117_[V 440_F-A],0.7094392976991185,_SSC-A,8880.764344765375,PECy7 CD16-32_[YG 780_A-A],0.4590245772652725
11,1,yes,2.0,0.05346026041936617,-0.21028282796912648,0.04810716757192679,420058503.82906556,[ 2  8  6  7 12],[ 16.  15.  14.  13.  13.],[12 20  8 16 15],[ 5.  3.  3.  2.  2.],_FSC-A,20372.553853044297,BV785 B220_[V 780_A-A],-1.1241149240337553,PECy5 CD3-CD19-NK11_[YG 670_B-A],-0.40458012416993566,PerCPCy5-5 CD45_[B 695_A-A],-0.312844006165078,FITC Ly6C_[B 525_B-A],0.19773647465714156
12,1,yes,7.0,0.048576677435888574,-0.040856427322963434,0.03811046799390024,21943591.695095647,[ 6  7 17  2  8],[ 15.  15.  14.  13.  13.],[16 20  5  2 17],[ 5.  3.  3.  2.  2.],BV650 CD150_[V 660_C-A],-0.7594757835241829,BV711 CD11c_[V 715_B-A],0.7606045871466047,AF700 CD48_[R 730_B-A],-0.35835290840317896,PerCPCy5-5 CD45_[B 695_A-A],-0.28904995126600463,_FSC-A,-4683.218466479288
13,1,yes,1.0,0.030565585713216197,-0.04947745802884189,0.031879248379126465,186770885.723492,[ 1 18 16 10  5],[ 16.  16.  14.  14.  12.],[ 4  5  6 19  2],[ 4.  3.  3.  3.  2.],_FSC-A,12113.330221474227,PE CD115_[YG 582_D-A],0.456977129253427,AF700 CD48_[R 730_B-A],0.4159334576112167,PECy7 CD16-32_[YG 780_A-A],0.4053286373861874,BV605 CD11b_[V 610_D-A],-0.5223767028686853
14,1,yes,10.0,3.16741820862344e-05,-0.0026013206778498867,0.480381961562373,4346350285.569934,[16  4 15  5 13],[ 13.  10.   9.   7.   7.],[10 18 16 17 15],[ 3.  3.  3.  2.  2.],_SSC-A,45268.473439101006,_FSC-A,47928.23372824041,BV711 CD11c_[V 715_B-A],1.757778777354256,PE CD115_[YG 582_D-A],1.2688892992563459,PECy7 CD16-32_[YG 780_A-A],1.118861330788902
15,1,yes,4.0,0.01342121479126714,-0.031731785105702626,0.044649907332873794,31895802.596955966,[ 4 16 10 13 18],[ 15.  14.  12.  12.  11.],[ 9 10 13  4 12],[ 5.  4.  4.  4.  4.],BV711 CD11c_[V 715_B-A],1.1172766652350001,BV650 CD150_[V 660_C-A],-0.6850964392997491,BV421 CD117_[V 440_F-A],-0.3690626223530576,AF700 CD48_[R 730_B-A],-0.2326213405928028,_SSC-A,-4361.78508005579
16,1,yes,10.0,0.006496086798776801,0.0038630919388406796,0.029321940803015787,379368861.395254,[10 18 15 13  9],[ 16.  15.  14.  14.  14.],[ 2  7  1 18 11],[ 4.  3.  2.  2.  2.],_FSC-A,19283.480719850453,APCCy7 Ly6G_[R 780_A-A],-0.5090285547561262,PECF594 CD135_[YG 610_C-A],-0.2996396362100276,PE CD115_[YG 582_D-A],-0.19972578252195367,PECy5 CD3-CD19-NK11_[YG 670_B-A],-0.13268907833579838
17,1,yes,6.0,0.015125861681726301,-0.02785777940673088,0.09523230406079351,420329911.0305697,[ 8 12 10  2 18],[ 15.  14.  13.  13.  13.],[18 15  5  6  7],[ 3.  3.  2.  2.  2.],BV785 B220_[V 780_A-A],1.506226144216884,_FSC-A,-20499.012966278373,PECy5 CD3-CD19-NK11_[YG 670_B-A],-0.5791247008636473,BV711 CD11c_[V 715_B-A],0.8740456843151393,PerCPCy5-5 CD45_[B 695_A-A],-0.5528277944871858
18,1,yes,1.0,0.00860961858525826,-0.07143342515679983,0.07174488283074677,149143706.87824973,[ 1 13 16 10  9],[ 16.  16.  15.  15.  14.],[10 13  3 14 17],[ 4.  4.  3.  3.  2.],PE CD115_[YG 582_D-A],-0.8655531434710781,BV421 CD117_[V 440_F-A],-0.9993962239813826,AF700 CD48_[R 730_B-A],-0.6066909708683963,_SSC-A,-9779.611009649892,PECy7 CD16-32_[YG 780_A-A],-0.4013741131706836
19,1,yes,8.0,2.879471098748582e-06,-0.06875835368632,1.0114821741542435,336641651.80943286,[ 1 18 17 16 15],[ 0.  0.  0.  0.  0.],[14 12  5 11  7],[ 3.  3.  3.  3.  3.],BV711 CD11c_[V 715_B-A],-3.3292733589164993,AF700 CD48_[R 730_B-A],2.238888422875158,BV650 CD150_[V 660_C-A],2.187886301062964,PerCPCy5-5 CD45_[B 695_A-A],2.0542113463483167,BV421 CD117_[V 440_F-A],-3.2849557228433683
20,1,yes,8.0,5.758942197497164e-06,-0.06875547421522125,0.8119974004594481,1525905049.398928,[ 8 17 12  7  9],[ 9.  8.  8.  8.  8.],[19  2 16  6  7],[ 4.  3.  3.  3.  3.],BV785 B220_[V 780_A-A],3.9672515799996155,AF700 CD48_[R 730_B-A],-2.228881077124842,BV711 CD11c_[V 715_B-A],2.3378846410835004,BV650 CD150_[V 660_C-A],-1.6146251989370357,_FSC-A,-36231.76996221922
1,2,yes,1.0,0.014049092800450582,-0.031535814163838216,0.05824300575646983,135509930.85324025,[18 13  9 15 16],[ 16.  15.  14.  13.  12.],[20  8  2  4 16],[ 3.  3.  2.  2.  2.],BV650 CD150_[V 660_C-A],-0.8211363775628266,BV510 SCA-1_[V 525_E-A],1.0261889874994923,_FSC-A,10357.55207825075,PerCPCy5-5 CD45_[B 695_A-A],0.33450513224381595,BV711 CD11c_[V 715_B-A],0.47226073959977627
2,2,no,2.0,0.14176968568423592,-0.006384861288576099,0.0018952357162606726,7023094.379265258,[12 20 11  7 17],[ 16.  15.  15.  14.  13.],[ 6  7  5  1 17],[ 4.  4.  3.  2.  2.],_SSC-A,2599.124035237252,BV785 B220_[V 780_A-A],0.17586393218293755,PerCPCy5-5 CD45_[B 695_A-A],0.08300429928290509,BV650 CD150_[V 660_C-A],0.08768386165345114,BV711 CD11c_[V 715_B-A],-0.11058342511248268
3,2,yes,3.0,0.12437570762714299,-0.11025799485438521,0.04597140947689317,14351350.008539585,[ 5 16 10 18  6],[ 15.  14.  12.  12.  12.],[17 18  1  4 14],[ 3.  3.  2.  2.  2.],BV650 CD150_[V 660_C-A],0.8399171301322166,BV711 CD11c_[V 715_B-A],-0.7542417751096362,PECF594 CD135_[YG 610_C-A],0.30117401895349805,FITC Ly6C_[B 525_B-A],-0.402169655502085,BV421 CD117_[V 440_F-A],-0.4076137358418305
4,2,yes,4.0,0.019804939165617798,-0.00017859025969736014,0.010215360567634493,33796386.33544666,[15 14 16 13  1],[ 15.  14.  13.  13.  12.],[ 1 17  2  8 11],[ 5.  4.  3.  3.  3.],PE CD115_[YG 582_D-A],-0.42347511108772734,_SSC-A,3868.607605233544,BV421 CD117_[V 440_F-A],-0.28363996245079776,_FSC-A,4339.384880583831,BV711 CD11c_[V 715_B-A],0.2264762455572198
5,2,yes,3.0,0.1499135042558205,-0.0847201982257077,0.03748424404016511,23930070.107527144,[ 3 16  9 10 18],[ 15.  14.  13.  12.  12.],[ 8 16  9  7  1],[ 4.  3.  3.  3.  2.],BV650 CD150_[V 660_C-A],-0.8385043217811312,BV711 CD11c_[V 715_B-A],0.5869101950870815,FITC Ly6C_[B 525_B-A],-0.36331587012694994,AF700 CD48_[R 730_B-A],-0.24067280584674178,PECy7 CD16-32_[YG 780_A-A],-0.2563495078798682
6,2,yes,6.0,0.023080857715937632,-0.005857826826485616,0.01214273436791164,18159269.935976923,[20 17 12  7  8],[ 15.  14.  14.  14.  14.],[20  9  2 16 11],[ 4.  4.  3.  3.  3.],FITC Ly6C_[B 525_B-A],0.5224165834687667,BV510 SCA-1_[V 525_E-A],0.4952693999637171,PerCPCy5-5 CD45_[B 695_A-A],0.17080553959620295,_SSC-A,3850.1668546884334,BV650 CD150_[V 660_C-A],-0.11971459844886219
7,2,no,7.0,0.06924257314781289,0.00033107081256182613,0.006631107170060407,31041717.401861884,[12 20  2  6 17],[ 15.  14.  14.  14.  13.],[20  2 12 11  6],[ 3.  3.  3.  3.  3.],PerCPCy5-5 CD45_[B 695_A-A],0.2383604647768453,BV510 SCA-1_[V 525_E-A],0.3235336491269337,_SSC-A,3721.0937941069647,_FSC-A,4146.706904536785,BV421 CD117_[V 440_F-A],-0.13251639090690534
8,2,no,8.0,0.12473203560980936,-0.02454262562041587,0.0047964133134728954,14266208.089658894,[20 11 17  9  6],[ 16.  16.  14.  14.  14.],[14  1 15  6 17],[ 4.  3.  3.  3.  2.],BV605 CD11b_[V 610_D-A],0.3749856530086121,APCCy7 Ly6G_[R 780_A-A],0.21605683301172152,PECy7 CD16-32_[YG 780_A-A],0.15246055902391498,BV421 CD117_[V 440_F-A],-0.19888964980972007,_FSC-A,3118.3454481103586
9,2,yes,9.0,0.010526043552475042,-0.00015679422388219753,0.009868083408259957,15541994.280649211,[20 18  8  1 10],[ 15.  15.  14.  14.  14.],[ 2  3 18 11 17],[ 2.  2.  2.  2.  1.],BV510 SCA-1_[V 525_E-A],0.5320969973133971,BV711 CD11c_[V 715_B-A],-0.27852205721768336,PECy7 CD16-32_[YG 780_A-A],-0.19225570655978413,BV421 CD117_[V 440_F-A],-0.25453503619756473,PE CD115_[YG 582_D-A],-0.14817341549119345
10,2,no,10.0,0.03562705104110991,-0.014573648094472869,0.012923036252834617,45290359.96246354,[20 14 16 17  8],[ 16.  16.  15.  14.  14.],[ 1 15 14 13  3],[ 4.  3.  3.  3.  2.],FITC Ly6C_[B 525_B-A],-0.5818113065026488,_SSC-A,5609.1405197369695,PECy7 CD16-32_[YG 780_A-A],-0.25266414658394387,BV510 SCA-1_[V 525_E-A],0.2944773424211556,BV421 CD117_[V 440_F-A],0.2605868087158941
11,2,no,11.0,0.060411961125766536,0.006951700706400367,0.005638976973738615,71116769.78680362,[20  8  2 17  6],[ 16.  16.  15.  13.  13.],[10  9 14 12  1],[ 4.  3.  2.  2.  2.],_FSC-A,-8307.397056288508,FITC Ly6C_[B 525_B-A],-0.25765421830536106,BV421 CD117_[V 440_F-A],-0.21916855273712466,BV650 CD150_[V 660_C-A],-0.07321771371736663,_SSC-A,-1450.490883571303
12,2,yes,12.0,0.06761036109817985,0.019033683662291273,0.011607639496650491,12646800.952659942,[20  2  7 17  6],[ 16.  16.  15.  14.  14.],[17  4 10  7 15],[ 6.  4.  3.  3.  2.],PECy5 CD3-CD19-NK11_[YG 670_B-A],-0.3891338219638795,PerCPCy5-5 CD45_[B 695_A-A],-0.18140158145192267,BV785 B220_[V 780_A-A],-0.2901893511137634,_SSC-A,3052.7060511245304,BV711 CD11c_[V 715_B-A],-0.1403260903418006
13,2,yes,13.0,0.030290752139404704,-0.0002748335738114935,0.02792694050256576,326183.8847883063,[18  1 14 15 10],[ 16.  15.  14.  13.  13.],[12  8  7  9 11],[ 5.  4.  3.  3.  3.],BV510 SCA-1_[V 525_E-A],0.7924905009944123,BV421 CD117_[V 440_F-A],-0.7577970755643464,PerCPCy5-5 CD45_[B 695_A-A],0.2756671991397934,BV711 CD11c_[V 715_B-A],-0.39323998357869694,BV650 CD150_[V 660_C-A],0.25417475485036956
14,2,yes,16.0,0.008761645315723834,0.0022655585169470338,0.032493358710563566,197553743.71636388,[10 15 13  4 20],[ 16.  16.  14.  14.  13.],[ 1  5 16 15 12],[ 3.  3.  2.  2.  2.],_SSC-A,13584.347350718803,PECF594 CD135_[YG 610_C-A],0.3902655494330493,BV785 B220_[V 780_A-A],-0.4993559016444617,PECy7 CD16-32_[YG 780_A-A],-0.3329933320212073,BV510 SCA-1_[V 525_E-A],0.3492015979357919
15,2,yes,15.0,0.009724305591475715,-0.0036969091997914247,0.019905959649479218,41280730.441604674,[14  4  1 16 13],[ 16.  15.  13.  13.  13.],[ 4  6 12 14 16],[ 3.  3.  3.  3.  3.],BV650 CD150_[V 660_C-A],-0.5200379374778749,_SSC-A,6221.604509818665,PE CD115_[YG 582_D-A],-0.31152382985722715,AF700 CD48_[R 730_B-A],-0.2316158398590472,BV421 CD117_[V 440_F-A],-0.32429065843689175
16,2,yes,5.0,0.0462766599424128,-0.02106265117292154,0.027273941004475073,184342612.48709622,[10  3  5 15 18],[ 15.  14.  14.  13.  13.],[15 20  3  5 17],[ 4.  3.  3.  3.  2.],_FSC-A,12154.568204232333,PECF594 CD135_[YG 610_C-A],0.36969535309923934,BV510 SCA-1_[V 525_E-A],0.4530402076185538,FITC Ly6C_[B 525_B-A],-0.4058482466564209,_SSC-A,6050.544062680257
17,2,yes,17.0,0.017120984844566287,0.001995123162839986,0.00675329250958508,40524153.09755487,[20 12  8  6 10],[ 16.  14.  14.  14.  14.],[14  1  3  8  2],[ 4.  3.  3.  3.  2.],FITC Ly6C_[B 525_B-A],-0.39060401247123433,_FSC-A,5300.6627653529495,_SSC-A,3525.2130507449638,BV510 SCA-1_[V 525_E-A],0.2288583854876704,BV785 B220_[V 780_A-A],-0.22743940663063617
18,2,yes,18.0,0.036417294551055475,0.027807675965797217,0.042716548595237824,2546848.207882336,[ 1 13  9 10 20],[ 16.  16.  15.  14.  14.],[10  6  3 16 15],[ 4.  3.  2.  2.  2.],BV650 CD150_[V 660_C-A],-0.6478358711623599,BV510 SCA-1_[V 525_E-A],0.7932776975620426,BV785 B220_[V 780_A-A],-0.6848144497130383,BV711 CD11c_[V 715_B-A],0.48455960318544256,FITC Ly6C_[B 525_B-A],-0.4670248811519199
20,2,yes,8.0,0.010264544791002144,-0.1390101164392231,0.09659575439722994,13894129.803556794,[10 17  8 11 12],[ 16.  16.  16.  16.  16.],[ 8 18 11 12 14],[ 3.  3.  3.  3.  2.],BV711 CD11c_[V 715_B-A],1.3356618969532301,BV785 B220_[V 780_A-A],1.3902456340020424,BV510 SCA-1_[V 525_E-A],0.9832022129831998,PerCPCy5-5 CD45_[B 695_A-A],0.4425999070781903,PECy5 CD3-CD19-NK11_[YG 670_B-A],0.3750268594855922
1,3,yes,13.0,0.03829418399030897,0.008003431850904266,0.032623706006867786,263545488.73614,[18 13 14 22 16],[ 15.  14.  14.  13.  13.],[18 10 15 25  6],[ 5.  4.  3.  3.  3.],_FSC-A,-14007.278922360943,_SSC-A,-8206.194299621628,BV650 CD150_[V 660_C-A],-0.3316169821475886,BV510 SCA-1_[V 525_E-A],-0.47369283485792,BV605 CD11b_[V 610_D-A],-0.5183481033993009
2,3,yes,2.0,0.09707737506787897,-0.04469231061635695,0.010108172403420502,11506022.015177516,[12 21  8 11 27],[ 16.  14.  14.  14.  13.],[14 26 12  5 30],[ 4.  4.  4.  3.  2.],PECy5 CD3-CD19-NK11_[YG 670_B-A],0.3006801360925641,BV650 CD150_[V 660_C-A],0.20849659476052482,AF700 CD48_[R 730_B-A],0.2075477361662335,BV785 B220_[V 780_A-A],0.2680442636753094,_SSC-A,-3333.7632675790414
3,3,yes,3.0,0.09629415614252496,-0.028081551484618036,0.030958310044004567,7492927.34408861,[25 23  5 20 26],[ 16.  15.  14.  14.  13.],[26 17 18  1 27],[ 4.  4.  3.  2.  2.],PECy7 CD16-32_[YG 780_A-A],0.5057195887264979,PerCPCy5-5 CD45_[B 695_A-A],0.4060033342888666,APCCy7 Ly6G_[R 780_A-A],0.5738656476238827,BV605 CD11b_[V 610_D-A],0.5485219831769986,FITC Ly6C_[B 525_B-A],0.4038964352092061
4,3,yes,14.0,0.00713599465322547,-0.0016256506624983645,0.08767854079132845,134501842.33372733,[15 14 22 13 25],[ 16.  15.  14.  12.  11.],[ 8 10 30 27 26],[ 4.  4.  3.  3.  3.],PECy7 CD16-32_[YG 780_A-A],0.8296954647062823,PE CD115_[YG 582_D-A],0.7645220546450832,PerCPCy5-5 CD45_[B 695_A-A],0.6599283073306383,FITC Ly6C_[B 525_B-A],0.7610794372170895,_SSC-A,11317.76176730923
5,3,yes,5.0,0.13544465949122098,-0.014468844764599531,0.03517989711459384,12795350.574633138,[23  3 26 25 16],[ 15.  14.  14.  14.  13.],[ 3 15 23 24 22],[ 4.  3.  3.  2.  2.],PerCPCy5-5 CD45_[B 695_A-A],0.4561913089917083,PECy7 CD16-32_[YG 780_A-A],0.5335326847864154,APCCy7 Ly6G_[R 780_A-A],0.6236809380255703,BV605 CD11b_[V 610_D-A],0.5916281896599945,BV711 CD11c_[V 715_B-A],0.4362737868708093
6,3,no,6.0,0.02861707904593492,0.005536221329997287,0.0037372820695657644,29878402.767833065,[28  7 21 27  8],[ 16.  15.  14.  14.  14.],[21  1 14  4 13],[ 4.  3.  3.  3.  3.],_SSC-A,-4035.72701373878,_FSC-A,-3686.6394070561378,BV510 SCA-1_[V 525_E-A],0.1835824194807913,BV711 CD11c_[V 715_B-A],0.1774985751733411,BV421 CD117_[V 440_F-A],0.16800790094117435
7,3,yes,7.0,0.0720004455645442,0.0027578724167313107,0.037760669725728675,45596443.63275497,[27 21 12  6 28],[ 16.  16.  16.  15.  14.],[17 20 26 24 11],[ 4.  3.  3.  3.  2.],PECy5 CD3-CD19-NK11_[YG 670_B-A],0.5996072697988641,BV711 CD11c_[V 715_B-A],0.602713434616297,PerCPCy5-5 CD45_[B 695_A-A],0.3369098612462278,BV650 CD150_[V 660_C-A],-0.29686799151532134,BV510 SCA-1_[V 525_E-A],0.39316149181498344
8,3,yes,8.0,0.026577228867012907,-0.09815480674279645,0.031237766330897,37240023.98251859,[10 11 14 12  2],[ 16.  16.  16.  14.  14.],[ 6 17 21 14  7],[ 6.  4.  4.  3.  3.],FITC Ly6C_[B 525_B-A],-0.9384056563515648,BV605 CD11b_[V 610_D-A],-0.6371045093430271,AF700 CD48_[R 730_B-A],0.3716654155798276,APCCy7 Ly6G_[R 780_A-A],-0.4431734351193059,_FSC-A,-5450.285928566327
9,3,yes,9.0,0.015469444018992189,0.004943400466517147,0.024821086045849376,5517277.926615161,[22 18 14 13  1],[ 16.  15.  14.  14.  13.],[ 1 26  4 22 14],[ 3.  3.  3.  3.  3.],BV510 SCA-1_[V 525_E-A],0.7710630200803134,BV421 CD117_[V 440_F-A],0.5175394093039994,FITC Ly6C_[B 525_B-A],0.41664836780836545,AF700 CD48_[R 730_B-A],0.2725146206632693,PerCPCy5-5 CD45_[B 695_A-A],0.2327983582147213
10,3,yes,10.0,0.025578189615561343,-0.010048861425548564,0.09649694528799796,153017089.85863844,[ 8 14 21 28  6],[ 16.  15.  13.  13.  13.],[15 20 29 21 12],[ 5.  4.  4.  3.  3.],AF700 CD48_[R 730_B-A],-0.9187970754689146,FITC Ly6C_[B 525_B-A],-1.254353235326162,PECy7 CD16-32_[YG 780_A-A],-0.7039677624082398,PerCPCy5-5 CD45_[B 695_A-A],-0.5194539660247199,_SSC-A,-9035.807005013921
11,3,yes,11.0,0.03175691669335413,-0.02865504443241241,0.009802404593357423,45282832.50826213,[ 8  2  6 10 12],[ 16.  14.  13.  13.  12.],[ 6 30 28 25 23],[ 8.  4.  3.  3.  3.],BV785 B220_[V 780_A-A],-0.5814736631448193,_SSC-A,-5755.184123359991,PECy5 CD3-CD19-NK11_[YG 670_B-A],-0.16615998350639266,PerCPCy5-5 CD45_[B 695_A-A],-0.1529168816924097,_FSC-A,-3487.217771678001
12,3,yes,12.0,0.09525682618805609,0.02764646508987624,0.017521981267423364,5919639.827957143,[ 2  7 21  8  6],[ 16.  16.  15.  14.  13.],[18  3 16 25 29],[ 4.  3.  3.  3.  3.],PerCPCy5-5 CD45_[B 695_A-A],-0.40693534693745287,AF700 CD48_[R 730_B-A],0.34302547253535726,BV421 CD117_[V 440_F-A],0.459310414413848,PECy5 CD3-CD19-NK11_[YG 670_B-A],0.17271593375947697,BV510 SCA-1_[V 525_E-A],-0.2783590490276786
13,3,yes,1.0,0.03464960525766162,0.02060051245721104,0.04496663873957964,7289167.789391663,[18  1 22  9 15],[ 16.  14.  14.  14.  13.],[12 26 27 25 22],[ 6.  4.  4.  4.  3.],BV650 CD150_[V 660_C-A],0.8317266106924223,PECF594 CD135_[YG 610_C-A],0.3508765092527626,BV785 B220_[V 780_A-A],0.5892006832582902,PerCPCy5-5 CD45_[B 695_A-A],0.29823795306098233,FITC Ly6C_[B 525_B-A],0.39695726543470483
14,3,yes,10.0,0.027464876982414125,-0.008162174058695782,0.03539731015820211,21052697.288840845,[ 8  4 10  1  9],[ 16.  15.  15.  14.  14.],[10  2 25  1 16],[ 5.  4.  4.  3.  3.],AF700 CD48_[R 730_B-A],0.5180657788682077,PECF594 CD135_[YG 610_C-A],0.41221249873919935,PerCPCy5-5 CD45_[B 695_A-A],0.3932926094489939,BV711 CD11c_[V 715_B-A],0.5489144123440938,BV510 SCA-1_[V 525_E-A],0.37893771002180054
15,3,yes,4.0,0.013715033626199195,-0.006089905539418603,0.03905334406965422,226489631.71754894,[ 4 22 13  9 14],[ 16.  13.  13.  13.  12.],[24 18  6 14  1],[ 5.  4.  4.  3.  3.],_SSC-A,-13653.956473048645,BV650 CD150_[V 660_C-A],-0.4851669838659818,BV711 CD11c_[V 715_B-A],0.627031931315256,PE CD115_[YG 582_D-A],0.431873306197444,_FSC-A,-6329.226121950892
16,3,yes,16.0,0.04570169453765716,-0.0005749654047556355,0.023914904005639618,253428651.50305536,[26 25 14  1  3],[ 16.  14.  14.  13.  13.],[13  3  6 15 28],[ 5.  4.  4.  3.  3.],_FSC-A,-14492.9079430945,BV711 CD11c_[V 715_B-A],0.49634884006122765,_SSC-A,-6586.67368177482,FITC Ly6C_[B 525_B-A],0.36441441370908845,BV421 CD117_[V 440_F-A],0.3613041002707013
17,3,yes,17.0,0.0257800860496526,0.008659101205086311,0.03538317397291879,18272079.07652416,[27  6  7 12 22],[ 14.  14.  14.  13.  13.],[22 12  5 20 16],[ 4.  4.  3.  3.  3.],BV510 SCA-1_[V 525_E-A],0.7991450596854512,FITC Ly6C_[B 525_B-A],0.5941161959993014,PerCPCy5-5 CD45_[B 695_A-A],0.39869690359387505,BV711 CD11c_[V 715_B-A],0.583002770553596,BV785 B220_[V 780_A-A],0.6586329713266327
18,3,yes,18.0,0.021606399420766094,-0.014810895130289381,0.020555010804059474,35742344.102813,[13  1  9 14 16],[ 16.  15.  15.  14.  13.],[11 25 28  5  1],[ 5.  4.  3.  3.  2.],PE CD115_[YG 582_D-A],-0.5835714583715274,PerCPCy5-5 CD45_[B 695_A-A],0.22920152187541643,_SSC-A,-5019.990531568861,BV510 SCA-1_[V 525_E-A],-0.31187783965262783,FITC Ly6C_[B 525_B-A],0.2940454329075221
20,3,yes,8.0,0.054230078391512,-0.07050195721829736,0.04693786400132113,39719488.510689475,[ 3 24  5  8 23],[ 14.  14.  13.  13.  12.],[14  3  6 17  8],[ 6.  4.  4.  3.  3.],FITC Ly6C_[B 525_B-A],0.9260618928499995,BV605 CD11b_[V 610_D-A],0.9222128704791083,PECy7 CD16-32_[YG 780_A-A],0.5673005223989297,APCCy7 Ly6G_[R 780_A-A],0.7427902289862772,_SSC-A,-6112.727393816404
21,3,yes,7.0,0.02616995502582882,-0.04307261812198407,0.15121129801959643,330859431.68281734,[28 27  7 12  2],[ 16.  16.  16.  15.  14.],[11 30 29  4  8],[ 4.  3.  3.  3.  3.],PECy5 CD3-CD19-NK11_[YG 670_B-A],0.9500894478574751,BV421 CD117_[V 440_F-A],1.4180023561815485,BV711 CD11c_[V 715_B-A],1.0589230500926465,BV510 SCA-1_[V 525_E-A],1.0453576006440657,_FSC-A,17777.5201836561
22,3,yes,1.0,0.009520461159303249,-0.004528631641147333,0.2824075745513827,97698296.41369471,[ 9  4 13  1 25],[ 16.  14.  14.  13.  13.],[26  8 30 27 21],[ 4.  4.  3.  3.  3.],BV711 CD11c_[V 715_B-A],2.0566955910071694,BV650 CD150_[V 660_C-A],1.270101200986592,FITC Ly6C_[B 525_B-A],-1.7368546898670583,PE CD115_[YG 582_D-A],-1.0089238273902739,BV510 SCA-1_[V 525_E-A],1.1854415671424272
23,3,yes,3.0,0.0497152564084713,-0.0746604512186717,0.14775299571448125,7956382.119664463,[ 3 25  5 26 24],[ 15.  15.  15.  14.  13.],[21 20 13  1 22],[ 5.  4.  4.  3.  3.],BV711 CD11c_[V 715_B-A],1.7973237782607234,PerCPCy5-5 CD45_[B 695_A-A],0.840223474653155,APCCy7 Ly6G_[R 780_A-A],1.1345727226488425,PECy7 CD16-32_[YG 780_A-A],0.8622751268718287,BV605 CD11b_[V 610_D-A],1.0868791466526333
24,3,yes,20.0,0.0007692950333477213,-0.009495249757654423,0.3997279642145701,169832190.64137098,[20  7 26 21 22],[ 14.  14.  13.  13.  13.],[29 15  9 27 26],[ 5.  4.  4.  3.  3.],BV711 CD11c_[V 715_B-A],2.485613621779346,BV785 B220_[V 780_A-A],2.602158323736189,BV650 CD150_[V 660_C-A],1.342990433196971,BV605 CD11b_[V 610_D-A],1.9945511020689604,AF700 CD48_[R 730_B-A],-1.094946977548118
25,3,yes,3.0,0.004786337877163425,-0.11958936974997957,0.221045701515062,388968589.8199986,[ 3 26 23  5 16],[ 16.  15.  15.  14.  14.],[ 7 10 24 14  6],[ 5.  3.  3.  3.  3.],PerCPCy5-5 CD45_[B 695_A-A],1.053709451724671,BV785 B220_[V 780_A-A],1.3825215124465746,AF700 CD48_[R 730_B-A],0.8129119644791357,PECy7 CD16-32_[YG 780_A-A],0.9093721264550537,APCCy7 Ly6G_[R 780_A-A],1.1771585120933628
26,3,yes,16.0,0.011424553391163899,-0.0348521065512489,0.12576462809885103,521194802.3277534,[16 25 30  5 23],[ 16.  15.  14.  14.  14.],[ 4 17 24 15 22],[ 4.  4.  4.  3.  3.],_FSC-A,21194.252679092566,APCCy7 Ly6G_[R 780_A-A],1.2305194647594504,BV711 CD11c_[V 715_B-A],1.1685920094054116,BV650 CD150_[V 660_C-A],-0.7707469564452731,PerCPCy5-5 CD45_[B 695_A-A],0.6110221026759839
27,3,yes,12.0,0.0026525014271989306,-0.06495785967098092,0.14460184751567182,35341737.71062258,[21  7 17  6  2],[ 16.  16.  14.  14.  13.],[13 28 29 15  3],[ 4.  3.  3.  2.  2.],PECy5 CD3-CD19-NK11_[YG 670_B-A],1.0850779082288966,PECy7 CD16-32_[YG 780_A-A],1.0566085740685283,PerCPCy5-5 CD45_[B 695_A-A],0.8176864433349136,BV785 B220_[V 780_A-A],0.8819483654389823,BV510 SCA-1_[V 525_E-A],0.7384835788130426
28,3,yes,6.0,0.002269594397025857,-0.020811263318911775,0.1618729424992155,1711107.9350402625,[21  6  7 17 14],[ 16.  16.  14.  13.  13.],[ 5 29  1 27 21],[ 3.  3.  2.  2.  2.],BV650 CD150_[V 660_C-A],1.3658228591968045,AF700 CD48_[R 730_B-A],0.7587450134021844,PECy5 CD3-CD19-NK11_[YG 670_B-A],0.6101606242617366,BV510 SCA-1_[V 525_E-A],0.9906799186318331,BV785 B220_[V 780_A-A],1.0652239164393384
29,3,yes,14.0,3.4809730015734e-06,-0.00875816434272226,1.3806060274505623,6027662853.621537,[ 1 28 27 26 25],[ 0.  0.  0.  0.  0.],[25 10  1 27 23],[ 3.  3.  2.  2.  2.],APCCy7 Ly6G_[R 780_A-A],5.275399878986961,PECy5 CD3-CD19-NK11_[YG 670_B-A],2.391656160700377,_FSC-A,-74738.92127033131,BV785 B220_[V 780_A-A],3.9746365372726693,PECy7 CD16-32_[YG 780_A-A],2.137494899202649
30,3,yes,5.0,3.8290703017307394e-05,-0.1498752135528032,0.873511386410028,2426162146.6016417,[26 24 25  5 23],[ 14.  12.  11.  11.  11.],[15  2 28 21 20],[ 3.  3.  3.  3.  3.],PECy5 CD3-CD19-NK11_[YG 670_B-A],2.5496927859099623,BV785 B220_[V 780_A-A],4.008852258106051,_FSC-A,49049.066780997455,PerCPCy5-5 CD45_[B 695_A-A],1.4731533989224648,BV510 SCA-1_[V 525_E-A],1.9926115880180133
1,4,yes,1.0,0.023725608183615576,-0.014568575806693393,0.022144700428411636,22914296.12773975,[18 14 13 22 16],[ 16.  14.  14.  14.  13.],[12 17 37 27 24],[ 5.  4.  3.  3.  3.],PE CD115_[YG 582_D-A],0.5514437810594757,BV510 SCA-1_[V 525_E-A],0.641292541182579,BV421 CD117_[V 440_F-A],0.4118404850033284,BV605 CD11b_[V 610_D-A],-0.41684882509944227,_FSC-A,-4530.745364096943
2,4,yes,2.0,0.058248087337746064,-0.03882928773013291,0.006592721026849706,586924.7059489959,[12 21  6  8 11],[ 16.  15.  14.  14.  14.],[35  8  1 34 33],[ 3.  3.  2.  2.  2.],PECy5 CD3-CD19-NK11_[YG 670_B-A],-0.23036827310285724,BV785 B220_[V 780_A-A],-0.31654529257360514,PerCPCy5-5 CD45_[B 695_A-A],-0.14212905064066736,AF700 CD48_[R 730_B-A],-0.15099387885343285,BV650 CD150_[V 660_C-A],-0.1316990960768078
3,4,yes,3.0,0.059786813375741425,-0.03650734276678353,0.01794590664551457,7098196.87447237,[25 23 24  5 16],[ 16.  15.  14.  14.  14.],[ 8 36 37 21 32],[ 4.  4.  3.  3.  2.],PECF594 CD135_[YG 610_C-A],-0.44301943721976866,BV650 CD150_[V 660_C-A],-0.3123716529038835,PerCPCy5-5 CD45_[B 695_A-A],0.24100631787689555,BV421 CD117_[V 440_F-A],0.32717672743548126,PECy7 CD16-32_[YG 780_A-A],0.19679809929444597
4,4,yes,15.0,0.011410069056419954,-0.0023049645697792408,0.04303289493470441,60723976.27186082,[32 15 16 13 31],[ 15.  15.  14.  14.  13.],[23 20 16 32  9],[ 4.  3.  3.  3.  3.],AF700 CD48_[R 730_B-A],0.6045889140634829,BV711 CD11c_[V 715_B-A],-0.8370254940345762,BV650 CD150_[V 660_C-A],0.5737047816952682,_SSC-A,-7722.226500490622,BV785 B220_[V 780_A-A],0.42235146025711356
5,4,yes,5.0,0.06421673973466288,-0.0712279197565581,0.017809993738687243,8169436.674215935,[23 20 16 35  3],[ 15.  15.  15.  14.  14.],[17  1 20  6 33],[ 4.  3.  3.  3.  2.],PerCPCy5-5 CD45_[B 695_A-A],-0.384423926433449,APCCy7 Ly6G_[R 780_A-A],-0.5140443717517135,PECy7 CD16-32_[YG 780_A-A],-0.352172447634385,BV605 CD11b_[V 610_D-A],-0.36365833457520125,BV785 B220_[V 780_A-A],-0.346322397629916
6,4,yes,6.0,0.017456087566978997,-0.011160991478955922,0.05248450373263535,14513358.13368712,[27  7 28 21 11],[ 15.  15.  15.  15.  14.],[29 16 15 27 30],[ 5.  4.  4.  4.  3.],FITC Ly6C_[B 525_B-A],-1.7134348486871214,AF700 CD48_[R 730_B-A],-0.20803331990694846,BV650 CD150_[V 660_C-A],-0.13074683357457323,_FSC-A,-3327.970630991061,BV785 B220_[V 780_A-A],-0.1936976737794741
7,4,yes,7.0,0.02057938622883177,-0.05142105933571243,0.026896670443599335,1208116.7214678375,[30 21  6 27 28],[ 16.  16.  15.  15.  14.],[26  9 17 33 32],[ 4.  4.  4.  3.  3.],BV510 SCA-1_[V 525_E-A],0.7941890438379288,BV650 CD150_[V 660_C-A],0.5319989805098314,PerCPCy5-5 CD45_[B 695_A-A],0.2997180110171616,AF700 CD48_[R 730_B-A],-0.2250632133547867,PECy5 CD3-CD19-NK11_[YG 670_B-A],0.18084980098884088
8,4,yes,8.0,0.03195507034585518,0.005377841478842273,0.028742594413556095,40306175.51645351,[11 10  2 21 12],[ 16.  16.  14.  14.  14.],[28 18 33 32  6],[ 4.  3.  3.  3.  3.],FITC Ly6C_[B 525_B-A],0.8557173796294937,BV421 CD117_[V 440_F-A],-0.6502708618010012,AF700 CD48_[R 730_B-A],-0.32683619272499564,PECy7 CD16-32_[YG 780_A-A],-0.28232411985972966,BV785 B220_[V 780_A-A],0.373517883318508
9,4,yes,9.0,0.00854752285165764,-0.006921921167334548,0.024956660731265987,6930066.383235833,[18 31 22 14 13],[ 15.  15.  15.  15.  14.],[30 18 17 29 14],[ 4.  3.  3.  3.  3.],PE CD115_[YG 582_D-A],0.5255670017052655,PerCPCy5-5 CD45_[B 695_A-A],0.40039530712939775,BV605 CD11b_[V 610_D-A],0.6470020094432468,BV711 CD11c_[V 715_B-A],0.4402182747418151,BV510 SCA-1_[V 525_E-A],0.24010987052006436
10,4,yes,10.0,0.0354222184016734,0.009844028786112059,0.00972722735995284,66053992.56236608,[ 8  6 21 14 30],[ 16.  14.  14.  14.  13.],[26 28 29  6 23],[ 4.  4.  4.  4.  3.],_SSC-A,-5403.740808726118,_FSC-A,-6070.714745800081,FITC Ly6C_[B 525_B-A],-0.2542990680632726,BV785 B220_[V 780_A-A],-0.27603828252359847,PECF594 CD135_[YG 610_C-A],-0.15023835312308098
11,4,no,11.0,0.03141350755035961,-0.0003434091429945149,0.0007646935369868712,3954794.068398142,[ 8  2  6 27 10],[ 16.  14.  14.  13.  13.],[21 36  5  6 17],[ 5.  4.  3.  3.  3.],BV785 B220_[V 780_A-A],-0.12110308884790207,_FSC-A,-1827.6490436651234,BV421 CD117_[V 440_F-A],0.10521449158446888,BV650 CD150_[V 660_C-A],-0.049134286480044156,FITC Ly6C_[B 525_B-A],-0.06389330817513396
12,4,no,12.0,0.05159746697613112,-0.043659359211924965,0.0039128359432739025,33923378.36984628,[ 2 21 30 27  6],[ 16.  15.  15.  15.  14.],[30  3  7 23  1],[ 4.  3.  3.  3.  2.],_FSC-A,-5666.623220230958,PerCPCy5-5 CD45_[B 695_A-A],0.15208197435121434,PECy5 CD3-CD19-NK11_[YG 670_B-A],-0.09620328886699593,BV650 CD150_[V 660_C-A],-0.09402736600807549,BV510 SCA-1_[V 525_E-A],0.1305536865412722
13,4,yes,13.0,0.020502020115189548,-0.014147585142472073,0.060911609424727974,28964037.27291763,[18 31 22  9  1],[ 16.  15.  14.  14.  14.],[ 7 23 29 25 10],[ 4.  4.  3.  3.  3.],BV650 CD150_[V 660_C-A],1.055106150182524,BV711 CD11c_[V 715_B-A],-1.022641857997557,BV785 B220_[V 780_A-A],0.5358694608661072,BV510 SCA-1_[V 525_E-A],0.366209210730673,_FSC-A,-5321.822527533561
14,4,no,14.0,0.03412991776268661,0.006665040780272486,0.015637666260918285,182152062.16921732,[32  9  1 30 17],[ 16.  15.  14.  14.  14.],[25  9 13  3 35],[ 4.  4.  3.  3.  3.],_FSC-A,-11185.232803667968,_SSC-A,-7552.65707911798,BV421 CD117_[V 440_F-A],-0.3750909766455423,BV711 CD11c_[V 715_B-A],0.2756992572590892,FITC Ly6C_[B 525_B-A],-0.22782019431358078
15,4,yes,15.0,0.009570474798704834,-0.004144558827494361,0.04071351099086588,37009880.02514821,[32  4 33 31 35],[ 16.  15.  14.  14.  13.],[ 7 22 13 11  9],[ 4.  3.  3.  3.  2.],BV711 CD11c_[V 715_B-A],1.2208588731712908,BV650 CD150_[V 660_C-A],-0.45755509607379236,_SSC-A,-6024.977569476754,BV605 CD11b_[V 610_D-A],0.37898931575243394,PerCPCy5-5 CD45_[B 695_A-A],0.18169745825467942
16,4,yes,16.0,0.05843720450442706,0.0127355099667699,0.008361643661554174,51106162.66648471,[35  5  3  4 25],[ 15.  15.  14.  14.  14.],[14 35 17 18  3],[ 5.  4.  4.  3.  3.],_FSC-A,-6432.907046238642,PerCPCy5-5 CD45_[B 695_A-A],0.19324214737311166,BV510 SCA-1_[V 525_E-A],0.2845293856660398,BV711 CD11c_[V 715_B-A],0.24409221186275998,_SSC-A,-3118.311931226975
17,4,no,17.0,0.017877303074586664,-0.007902782975065935,0.009143168799984766,2931970.3206832698,[24 14 30 27  7],[ 14.  14.  14.  14.  14.],[ 6 18  5 25 16],[ 5.  4.  4.  4.  4.],BV510 SCA-1_[V 525_E-A],0.4787558127587092,PerCPCy5-5 CD45_[B 695_A-A],0.27575850339408575,BV785 B220_[V 780_A-A],0.2666188512626238,AF700 CD48_[R 730_B-A],0.15154333813932075,BV711 CD11c_[V 715_B-A],0.17780569896694137
18,4,yes,18.0,0.0313877188458122,0.009781319425046106,0.014680296019006552,5819625.185405484,[ 1 22 13  9 31],[ 16.  16.  16.  15.  14.],[10 26 17 31 14],[ 3.  3.  3.  3.  3.],PE CD115_[YG 582_D-A],0.4622106269139241,BV510 SCA-1_[V 525_E-A],0.6102216297303368,BV785 B220_[V 780_A-A],0.2777027634963088,AF700 CD48_[R 730_B-A],0.15258551801994544,PerCPCy5-5 CD45_[B 695_A-A],0.1414798933011085
20,4,yes,20.0,0.057709389953866874,0.0034793115623548768,0.01769950988870534,3294492.2605729722,[ 5 24  3 30  8],[ 15.  14.  13.  13.  13.],[36 31 28 29 21],[ 5.  4.  3.  3.  3.],BV650 CD150_[V 660_C-A],0.45130395011777663,PerCPCy5-5 CD45_[B 695_A-A],0.2634703419935764,APCCy7 Ly6G_[R 780_A-A],0.39339172763366725,PECy7 CD16-32_[YG 780_A-A],0.275101929160651,BV711 CD11c_[V 715_B-A],-0.28086987585867407
21,4,yes,7.0,0.04163729619759878,-0.030363149366945417,0.05697127400238623,19039795.579419233,[30  7  2  6 27],[ 16.  16.  15.  15.  15.],[36 37  3 31  8],[ 4.  3.  3.  3.  3.],PerCPCy5-5 CD45_[B 695_A-A],-0.6392911879201252,PECy5 CD3-CD19-NK11_[YG 670_B-A],-0.458812450204603,BV421 CD117_[V 440_F-A],0.7437643385608127,AF700 CD48_[R 730_B-A],0.45178645685499125,BV510 SCA-1_[V 525_E-A],-0.5762678211552662
22,4,yes,13.0,0.018470443279177053,-0.01617916197848457,0.04732852220969259,96706999.62997748,[18 31  9 32 13],[ 16.  15.  15.  14.  14.],[34 11 35 31 21],[ 4.  4.  3.  3.  3.],BV650 CD150_[V 660_C-A],-0.8075087557379709,BV711 CD11c_[V 715_B-A],0.8147825099681769,_FSC-A,-9346.37260327484,BV510 SCA-1_[V 525_E-A],0.4457102142918391,BV605 CD11b_[V 610_D-A],0.37782887354766254
23,4,no,23.0,0.07141751912662254,0.021702262718151247,0.002373745127898901,4181663.8323141523,[ 3  5 25 26 16],[ 15.  15.  15.  15.  14.],[27 18  7 14 34],[ 5.  4.  4.  4.  3.],BV785 B220_[V 780_A-A],-0.3162786171395494,BV421 CD117_[V 440_F-A],0.13411674319527292,_FSC-A,-1990.1289944365637,BV510 SCA-1_[V 525_E-A],0.11101510209960479,PE CD115_[YG 582_D-A],-0.06665478166933071
24,4,yes,24.0,0.003429897704805295,0.0026606026714575738,0.045395242897696156,15135099.203084543,[30 35  3 16 20],[ 15.  15.  14.  14.  14.],[ 6 15 26 35  5],[ 4.  4.  3.  3.  3.],BV785 B220_[V 780_A-A],-0.9720562377740836,PECF594 CD135_[YG 610_C-A],0.4691692940240994,FITC Ly6C_[B 525_B-A],0.6400610952679371,BV650 CD150_[V 660_C-A],-0.4251936583740691,BV711 CD11c_[V 715_B-A],-0.5485149417323653
25,4,yes,3.0,0.05234820481962234,-0.04394595132290262,0.04141131018697241,18533652.772302557,[ 3 23 16 26 35],[ 16.  15.  14.  14.  13.],[15 35  3 20 28],[ 5.  4.  3.  3.  3.],PerCPCy5-5 CD45_[B 695_A-A],0.4816974894496343,BV650 CD150_[V 660_C-A],0.4551859833454788,PECF594 CD135_[YG 610_C-A],0.3545081667325138,APCCy7 Ly6G_[R 780_A-A],0.5495051387102483,PECy7 CD16-32_[YG 780_A-A],0.4001762633481989
26,4,yes,5.0,0.10589701710650735,-0.02954764238471362,0.02660343707870665,2387556.4774413314,[23 35  3  5 29],[ 15.  14.  14.  14.  14.],[ 8 32 28 10  2],[ 3.  3.  3.  2.  2.],PerCPCy5-5 CD45_[B 695_A-A],0.4733218531627533,APCCy7 Ly6G_[R 780_A-A],0.5963824596221128,PECy7 CD16-32_[YG 780_A-A],0.39784247649063725,BV605 CD11b_[V 610_D-A],0.42268001346149886,BV510 SCA-1_[V 525_E-A],0.32850115277506614
27,4,yes,27.0,0.020338691653055962,0.017686190225857032,0.037223311193324164,1785440.1349111316,[30  6  7 21 12],[ 16.  15.  15.  15.  15.],[18 21 24  7  9],[ 4.  4.  3.  3.  3.],PECy7 CD16-32_[YG 780_A-A],-1.0142715125634205,PE CD115_[YG 582_D-A],-0.3384619914768105,PECy5 CD3-CD19-NK11_[YG 670_B-A],-0.24648555100349848,BV421 CD117_[V 440_F-A],0.3502091658349635,PECF594 CD135_[YG 610_C-A],-0.19927465309613246
28,4,yes,6.0,0.013321298604544543,-0.015295780441390376,0.04281378141003456,6529949.375931725,[ 6 30  7 27 21],[ 15.  14.  14.  14.  13.],[15 17  7 25 34],[ 6.  3.  3.  3.  2.],FITC Ly6C_[B 525_B-A],1.1819497201736358,PerCPCy5-5 CD45_[B 695_A-A],0.36314930307717364,AF700 CD48_[R 730_B-A],0.3499468928719666,BV510 SCA-1_[V 525_E-A],0.4723032769616491,BV650 CD150_[V 660_C-A],0.2810790342445283
29,4,yes,30.0,6.303905556033124e-05,2.4748352543023848e-05,0.2523052271905584,477867688.15957373,[35 26 23 25 24],[ 14.  14.  13.  13.  13.],[ 3 23  7 21 27],[ 5.  4.  4.  4.  3.],BV650 CD150_[V 660_C-A],1.4155874818837384,AF700 CD48_[R 730_B-A],1.2472600605335784,PECF594 CD135_[YG 610_C-A],1.0661703192339336,_FSC-A,-21457.067912067825,APCCy7 Ly6G_[R 780_A-A],1.2592426558812926
30,4,yes,21.0,0.01023525029370469,-0.01593470473212413,0.024794548489230624,46272871.22237715,[21  7 27 24 12],[ 16.  16.  16.  15.  15.],[13  7 10  6 26],[ 4.  4.  3.  3.  3.],BV711 CD11c_[V 715_B-A],0.7639017270461849,PECy7 CD16-32_[YG 780_A-A],0.40044208684370386,FITC Ly6C_[B 525_B-A],0.439382641191925,BV605 CD11b_[V 610_D-A],0.42450619461002653,_FSC-A,-6500.328918191342
31,4,yes,22.0,0.0034728788790509757,-0.006047582280252273,0.10372193215663059,14592154.549925003,[32 22 13  9 18],[ 15.  15.  15.  15.  14.],[17 13  3 25  5],[ 5.  5.  3.  3.  3.],FITC Ly6C_[B 525_B-A],1.5731219528068512,BV650 CD150_[V 660_C-A],0.8708117815728968,PE CD115_[YG 582_D-A],0.7897732131269377,BV711 CD11c_[V 715_B-A],-0.659711846632632,BV605 CD11b_[V 610_D-A],0.5804830382477609
32,4,yes,4.0,0.004687813404395541,-0.0024481812488299287,0.13166486480091313,1393523238.8994393,[15 14 33  4 31],[ 16.  16.  15.  15.  15.],[31 15  8  3 17],[ 6.  5.  4.  3.  3.],_FSC-A,-28952.150254550634,_SSC-A,-23564.72431405101,BV711 CD11c_[V 715_B-A],1.1376595748129865,BV650 CD150_[V 660_C-A],-0.6804012679393909,PE CD115_[YG 582_D-A],-0.4625033605633185
33,4,yes,4.0,0.0008882776010773948,-0.006247717052148075,0.10471669797772981,450478949.5679251,[32 15  4 34 31],[ 15.  14.  12.  11.  10.],[ 2 20 31 10 27],[ 3.  3.  3.  3.  3.],_FSC-A,20407.817383990074,BV711 CD11c_[V 715_B-A],1.0941457069689302,AF700 CD48_[R 730_B-A],0.7303767366078968,PECy5 CD3-CD19-NK11_[YG 670_B-A],0.45616727026667914,PECF594 CD135_[YG 610_C-A],0.5060147688726238
34,4,yes,4.0,5.730823232757385e-06,-0.007130263829992712,0.7878634083600593,1906144006.4562974,[33 32 35 29 24],[ 11.   9.   8.   8.   7.],[12 26 18  2 35],[ 5.  3.  2.  2.  2.],AF700 CD48_[R 730_B-A],-2.882440013748093,BV711 CD11c_[V 715_B-A],2.7103398625356854,BV785 B220_[V 780_A-A],2.6688907689321004,_SSC-A,-32143.76457235048,PECy5 CD3-CD19-NK11_[YG 670_B-A],1.094581775294305
35,4,yes,26.0,0.009808303962864265,-0.0016162494282996338,0.011468071901786402,17047253.858387828,[24 16  5 26 29],[ 15.  15.  14.  14.  14.],[37 26 16 15 14],[ 4.  4.  3.  3.  3.],BV650 CD150_[V 660_C-A],0.4117534342227329,PE CD115_[YG 582_D-A],-0.22119788684126498,FITC Ly6C_[B 525_B-A],0.27331005205176434,BV421 CD117_[V 440_F-A],0.2623097065981376,_FSC-A,3438.4906457305965
36,4,yes,28.0,2.8654116163786927e-06,-0.002266728985409478,0.9237138729943948,53939511.15781979,[ 1 22 23 24 25],[ 0.  0.  0.  0.  0.],[ 3 27 25  1  2],[ 4.  4.  4.  3.  3.],PECy7 CD16-32_[YG 780_A-A],4.369977256385263,BV785 B220_[V 780_A-A],-3.695483122595971,BV510 SCA-1_[V 525_E-A],2.4198155603803966,BV650 CD150_[V 660_C-A],-1.1254692954105638,PE CD115_[YG 582_D-A],-1.2220525235965367
37,4,yes,26.0,2.8654116163786927e-06,-0.01142168797954752,0.9000864525106603,1654755643.6806192,[ 1 22 23 24 25],[ 0.  0.  0.  0.  0.],[ 1 28  6 32 21],[ 4.  4.  4.  3.  3.],BV711 CD11c_[V 715_B-A],3.453764618222808,BV785 B220_[V 780_A-A],-3.7030600632386044,FITC Ly6C_[B 525_B-A],-2.6414786754545267,PerCPCy5-5 CD45_[B 695_A-A],1.7481137648578498,AF700 CD48_[R 730_B-A],-1.5976829634240373
1,5,no,1.0,0.03112824941360215,0.007402641229986573,0.007568389001635815,23456457.146726467,[18 13 22 31 14],[ 15.  15.  14.  14.  14.],[20 28  2 31  5],[ 4.  3.  3.  3.  3.],PE CD115_[YG 582_D-A],0.35172381729312474,_SSC-A,4258.224704910729,BV510 SCA-1_[V 525_E-A],0.2363813800252211,FITC Ly6C_[B 525_B-A],-0.1944964049878657,BV650 CD150_[V 660_C-A],0.10174732264128356
2,5,yes,2.0,0.041328579449427284,-0.01691950788831878,0.008029558146691504,8299096.990621882,[21 12 37 11  8],[ 16.  16.  15.  14.  14.],[35 13  4 39 30],[ 6.  5.  4.  3.  3.],BV510 SCA-1_[V 525_E-A],0.36569915444013684,PECy5 CD3-CD19-NK11_[YG 670_B-A],0.19860397812676955,BV711 CD11c_[V 715_B-A],0.30724754170242474,BV785 B220_[V 780_A-A],0.27691478675029596,BV421 CD117_[V 440_F-A],0.21049304040754757
3,5,yes,3.0,0.03790851908536186,-0.021878294290379567,0.03297026867403678,8358941.775284728,[25 23 35 26  5],[ 15.  15.  15.  15.  14.],[44 50 27 22 42],[ 5.  4.  4.  3.  3.],PECF594 CD135_[YG 610_C-A],-0.72152552505206,BV711 CD11c_[V 715_B-A],0.6869493810973668,BV510 SCA-1_[V 525_E-A],0.3241633082030663,BV605 CD11b_[V 610_D-A],0.3429964665978905,PE CD115_[YG 582_D-A],-0.17014200888571532
4,5,yes,4.0,0.012924978125863922,0.001514909069443968,0.007447408058341607,8329610.11520384,[33 15 34 32 13],[ 15.  15.  14.  14.  14.],[47 28 26 16 24],[ 5.  4.  4.  3.  3.],FITC Ly6C_[B 525_B-A],0.47278414065622865,BV510 SCA-1_[V 525_E-A],0.21335364328648176,BV421 CD117_[V 440_F-A],-0.22432660763175316,_SSC-A,-2885.990154516457,BV711 CD11c_[V 715_B-A],0.18250735580890823
5,5,yes,5.0,0.08548440879981532,0.021267669065152442,0.018322422876631085,557482.3316492393,[26 24 23 20 35],[ 16.  15.  15.  15.  15.],[20 18 16 14 44],[ 4.  4.  4.  3.  3.],PerCPCy5-5 CD45_[B 695_A-A],0.39375955459002315,PECy7 CD16-32_[YG 780_A-A],0.43401375947315946,APCCy7 Ly6G_[R 780_A-A],0.5460184196000788,BV605 CD11b_[V 610_D-A],0.4152125428115704,BV510 SCA-1_[V 525_E-A],0.21997477637512675
6,5,yes,6.0,0.024040174309076554,0.006584086742097556,0.02232575419016897,2846320.395641159,[30 37  7 28 12],[ 15.  15.  15.  15.  14.],[25 29  3 24 18],[ 4.  4.  4.  3.  3.],BV510 SCA-1_[V 525_E-A],0.9502221417081699,PECy5 CD3-CD19-NK11_[YG 670_B-A],0.2658324095856441,FITC Ly6C_[B 525_B-A],-0.364100736960833,BV650 CD150_[V 660_C-A],0.2250160024413219,PerCPCy5-5 CD45_[B 695_A-A],0.1139668265858366
7,5,yes,7.0,0.03690815142887272,0.01632876520004095,0.02050583099026178,13312583.075114213,[27 39 29 21  6],[ 16.  16.  16.  15.  15.],[ 1 39 13 11 16],[ 4.  4.  4.  4.  4.],BV510 SCA-1_[V 525_E-A],0.6297934792679915,AF700 CD48_[R 730_B-A],0.3961449311074725,FITC Ly6C_[B 525_B-A],0.46892945439177186,PerCPCy5-5 CD45_[B 695_A-A],-0.20418533453820145,BV711 CD11c_[V 715_B-A],-0.3036495006239617
8,5,no,8.0,0.024487632206708448,-0.007467438139146732,0.006354453245557136,2355423.0795054007,[10 11 37 14  2],[ 16.  15.  15.  15.  14.],[46 17 27 13  5],[ 5.  5.  4.  4.  3.],BV510 SCA-1_[V 525_E-A],0.33278317292313825,BV650 CD150_[V 660_C-A],-0.18573766538829992,BV711 CD11c_[V 715_B-A],0.2573359149575072,AF700 CD48_[R 730_B-A],-0.1343531294424568,BV605 CD11b_[V 610_D-A],0.15597616006391882
9,5,yes,9.0,0.007281878525155969,-0.001265644326501671,0.03250601367769285,8586452.136298042,[31 18 32 22 13],[ 15.  15.  15.  15.  14.],[35 27  7 39 49],[ 5.  4.  3.  3.  2.],BV510 SCA-1_[V 525_E-A],0.9013192972646952,PE CD115_[YG 582_D-A],0.6222748300939109,PECy7 CD16-32_[YG 780_A-A],0.35772541869404634,BV650 CD150_[V 660_C-A],0.21555343803285365,PECy5 CD3-CD19-NK11_[YG 670_B-A],0.14782563280952343
10,5,yes,10.0,0.0184683259659533,-0.0169538924357201,0.00745826903706324,21395230.37347364,[37  8 14 30  6],[ 16.  16.  15.  13.  13.],[12  7 27 47 15],[ 5.  4.  4.  3.  3.],BV421 CD117_[V 440_F-A],0.35078234322461116,_SSC-A,4171.040749840887,BV785 B220_[V 780_A-A],0.3214438355358889,BV650 CD150_[V 660_C-A],0.1833133652434603,BV510 SCA-1_[V 525_E-A],0.23428010506248606
11,5,no,11.0,0.02603805957175144,-0.005375447978608172,0.001055472713079006,8359352.058081265,[37  8  2  6 10],[ 15.  15.  14.  13.  13.],[ 6 41  3  7 21],[ 4.  3.  3.  3.  3.],_FSC-A,-2849.752340111832,BV510 SCA-1_[V 525_E-A],0.13966260711104456,BV650 CD150_[V 660_C-A],0.059883517611456036,BV605 CD11b_[V 610_D-A],-0.0667972471550204,BV785 B220_[V 780_A-A],0.06608172213188714
12,5,yes,12.0,0.057836070806649736,0.0062386038305186145,0.010042888686789694,4930230.300356166,[30  2 21 37  6],[ 16.  16.  15.  14.  14.],[23 25 26  3 44],[ 5.  4.  4.  3.  3.],BV510 SCA-1_[V 525_E-A],0.429539257133041,PECy5 CD3-CD19-NK11_[YG 670_B-A],0.20997876748911076,BV785 B220_[V 780_A-A],0.3874678169231716,BV421 CD117_[V 440_F-A],-0.3249583116705433,PerCPCy5-5 CD45_[B 695_A-A],0.1512873669697143
13,5,yes,13.0,0.023906221944817327,0.0034042018296277787,0.013183625336291718,58689174.81620529,[18 22  1  4 31],[ 16.  15.  15.  14.  14.],[14 26 37 43 49],[ 6.  5.  4.  4.  3.],BV785 B220_[V 780_A-A],-0.5418039173894409,_FSC-A,-7308.519377978869,PECy7 CD16-32_[YG 780_A-A],-0.23911649292744996,BV711 CD11c_[V 715_B-A],0.295262831330238,BV650 CD150_[V 660_C-A],-0.1890163305347681
14,5,yes,14.0,0.0268930746627678,-0.0072368430999188126,0.04163777213274826,141049420.24441046,[32 37  8 10 18],[ 16.  15.  15.  15.  15.],[16 37 25 29 45],[ 5.  4.  3.  3.  3.],FITC Ly6C_[B 525_B-A],-0.8561158867360398,BV421 CD117_[V 440_F-A],-0.799451991558189,_SSC-A,-9217.198149863787,AF700 CD48_[R 730_B-A],-0.3640772429782459,PE CD115_[YG 582_D-A],-0.3229805311635305
15,5,yes,15.0,0.0076267346118658996,-0.0019437401868389343,0.031950615961110096,126769923.18707909,[33 34  4 13 22],[ 16.  15.  15.  14.  14.],[35  1 31 21 48],[ 5.  4.  4.  4.  4.],AF700 CD48_[R 730_B-A],-0.7059540184457851,_FSC-A,-9079.845710186377,_SSC-A,-6657.80174757378,PECy7 CD16-32_[YG 780_A-A],-0.27446514156475177,FITC Ly6C_[B 525_B-A],0.30572556914016213
16,5,yes,16.0,0.02850050303387855,-0.029936701470548513,0.016546147251280757,105936709.08522543,[24 35  5 14  1],[ 16.  15.  14.  14.  13.],[22 33  5 18 12],[ 4.  4.  4.  3.  3.],_FSC-A,-10279.852573554886,BV650 CD150_[V 660_C-A],-0.2790812921636508,PECF594 CD135_[YG 610_C-A],-0.24887859618029992,APCCy7 Ly6G_[R 780_A-A],-0.3769978747120616,BV605 CD11b_[V 610_D-A],-0.2539847140484274
17,5,yes,17.0,0.023974623152098636,0.006097320077511972,0.015212146999299646,865933.499409327,[30 28 18 27  7],[ 13.  13.  13.  13.  13.],[50 37 49 18 46],[ 4.  4.  4.  4.  3.],BV510 SCA-1_[V 525_E-A],0.6539509660867115,FITC Ly6C_[B 525_B-A],0.38459479151889614,PerCPCy5-5 CD45_[B 695_A-A],0.22435199540340825,BV785 B220_[V 780_A-A],0.36580731318206544,BV711 CD11c_[V 715_B-A],0.2638380968021796
18,5,yes,18.0,0.015803528932285656,-0.015584189913526544,0.04007708675657999,14249111.484741664,[22 13  1 32  9],[ 16.  16.  15.  15.  15.],[ 9 25 43 40  8],[ 4.  3.  3.  3.  3.],PECy7 CD16-32_[YG 780_A-A],-0.7744694350753267,BV711 CD11c_[V 715_B-A],0.6612354010904526,PECF594 CD135_[YG 610_C-A],0.416354848707528,BV510 SCA-1_[V 525_E-A],0.5466855002526866,FITC Ly6C_[B 525_B-A],-0.35409468508327985
20,5,yes,20.0,0.038692282918793515,-0.01901710703507336,0.006918701769095756,1987312.5013861386,[ 5 25 23 35 24],[ 15.  14.  14.  14.  13.],[29 13 30 25 42],[ 4.  4.  3.  2.  2.],PECy7 CD16-32_[YG 780_A-A],0.31536344134428834,BV605 CD11b_[V 610_D-A],0.382268360743721,BV421 CD117_[V 440_F-A],0.23431948617763002,PerCPCy5-5 CD45_[B 695_A-A],0.11014404232402561,BV510 SCA-1_[V 525_E-A],0.16122963751158373
21,5,no,21.0,0.051964967181670756,0.010327670984071974,0.0037364149469778156,5150957.598335843,[ 2 30 12  7 37],[ 16.  16.  15.  15.  14.],[27  5 32 35 28],[ 5.  5.  4.  4.  3.],BV421 CD117_[V 440_F-A],-0.34518572789088314,PECy5 CD3-CD19-NK11_[YG 670_B-A],-0.09534256690587387,APCCy7 Ly6G_[R 780_A-A],-0.15101186982922896,FITC Ly6C_[B 525_B-A],-0.13062379267579288,PE CD115_[YG 582_D-A],-0.09462183681567657
22,5,yes,22.0,0.022030888845188116,0.0035604455660110633,0.010085177898154815,7683632.497748408,[18 31 13  9  1],[ 16.  15.  15.  15.  14.],[31 30 43 32 35],[ 4.  4.  4.  3.  3.],BV785 B220_[V 780_A-A],-0.5400695489456598,PECF594 CD135_[YG 610_C-A],-0.22569618552482892,APCCy7 Ly6G_[R 780_A-A],-0.30499019526739746,BV650 CD150_[V 660_C-A],-0.18772177907228266,PECy7 CD16-32_[YG 780_A-A],-0.15642806778140497
23,5,yes,23.0,0.05682145289864366,-0.014596066227978884,0.00498956677261318,5096093.469609603,[24 35 25  3 26],[ 16.  16.  15.  15.  15.],[17  1  3  6 49],[ 5.  3.  3.  3.  3.],PECF594 CD135_[YG 610_C-A],-0.15811943485826016,PerCPCy5-5 CD45_[B 695_A-A],-0.1583087752489039,APCCy7 Ly6G_[R 780_A-A],-0.22482513990718664,FITC Ly6C_[B 525_B-A],-0.1868810712217503,BV510 SCA-1_[V 525_E-A],0.1773774944653887
24,5,yes,24.0,0.008550150910163564,0.0051202532053582685,0.1396945852363997,24369565.986409593,[23 35 16 25 32],[ 16.  16.  16.  15.  15.],[ 4 21 42 29 28],[ 5.  4.  3.  3.  3.],BV785 B220_[V 780_A-A],-2.166168589852609,BV650 CD150_[V 660_C-A],-0.9164012308119411,PerCPCy5-5 CD45_[B 695_A-A],0.5220580922131025,PE CD115_[YG 582_D-A],0.5638519193297673,BV510 SCA-1_[V 525_E-A],0.73645052772471
25,5,yes,25.0,0.06469044178629753,0.01234223696667519,0.007570822134279322,21303353.11340103,[23  3 35 24 47],[ 15.  15.  15.  15.  14.],[11 45  2  4  5],[ 5.  4.  3.  3.  3.],PerCPCy5-5 CD45_[B 695_A-A],-0.2024120405824809,_FSC-A,-4608.712183803768,PECF594 CD135_[YG 610_C-A],-0.1637093962002753,APCCy7 Ly6G_[R 780_A-A],-0.24916756257288353,FITC Ly6C_[B 525_B-A],-0.22241570782292497
26,5,yes,26.0,0.04989868071171456,-0.05599833639479279,0.021286875535837017,8839745.956330413,[ 5  3 23 24 35],[ 16.  15.  15.  15.  15.],[ 1  3  6 38 30],[ 3.  3.  3.  3.  3.],PECF594 CD135_[YG 610_C-A],-0.6284824119718673,AF700 CD48_[R 730_B-A],-0.24525830695863343,BV711 CD11c_[V 715_B-A],0.2957300263281666,BV510 SCA-1_[V 525_E-A],0.2699053143127665,BV785 B220_[V 780_A-A],0.1947082478894631
27,5,yes,7.0,0.023393212890207512,0.002813826661375741,0.0945947130540779,20460557.608201127,[39 30  7 29 45],[ 16.  16.  16.  15.  15.],[33 15 29 18 35],[ 5.  4.  4.  4.  3.],BV711 CD11c_[V 715_B-A],1.1435317401285876,BV510 SCA-1_[V 525_E-A],1.1151635694469226,AF700 CD48_[R 730_B-A],-0.6278336196865832,PECy5 CD3-CD19-NK11_[YG 670_B-A],0.46284580695409233,FITC Ly6C_[B 525_B-A],0.748339669815978
28,5,no,28.0,0.028651555699958104,0.01533025709541356,0.00834158374378494,1914826.3997947047,[ 6 18  7 29 30],[ 15.  14.  14.  14.  14.],[43  5  7 22 41],[ 4.  4.  4.  4.  4.],BV510 SCA-1_[V 525_E-A],0.588354479335831,AF700 CD48_[R 730_B-A],-0.21952810089413524,BV711 CD11c_[V 715_B-A],0.1837076722657067,BV650 CD150_[V 660_C-A],-0.08613183595337942,PECy7 CD16-32_[YG 780_A-A],-0.08631320411324923
29,5,yes,30.0,0.007521282750640549,-0.0027139675430641417,0.09271177216962943,160266076.3595521,[39 30  7 27 43],[ 16.  16.  16.  15.  15.],[50  2 49  4 47],[ 4.  3.  3.  3.  3.],FITC Ly6C_[B 525_B-A],1.3540195476273482,BV510 SCA-1_[V 525_E-A],1.1142051607856547,PerCPCy5-5 CD45_[B 695_A-A],0.5279775946153213,PECy7 CD16-32_[YG 780_A-A],0.581871816231168,_FSC-A,12326.672289075988
30,5,yes,27.0,0.0451248464535399,0.02478615480048394,0.03232865280847226,40679341.41139025,[27 29 12 21 39],[ 16.  16.  16.  16.  15.],[ 4 45 37 25 31],[ 4.  4.  4.  3.  3.],BV421 CD117_[V 440_F-A],0.8026937672824623,BV510 SCA-1_[V 525_E-A],0.6658274366758844,FITC Ly6C_[B 525_B-A],0.6294113221034232,BV650 CD150_[V 660_C-A],0.3314732101472171,_SSC-A,4912.487623138619
31,5,yes,31.0,0.008145443767082488,0.004672564888031513,0.03316522566045815,4526948.068385545,[41  9 42 22 38],[ 16.  15.  15.  15.  15.],[11 17 48  7 16],[ 4.  4.  3.  3.  2.],PECF594 CD135_[YG 610_C-A],-0.7589927488406267,BV510 SCA-1_[V 525_E-A],0.4999966052584779,AF700 CD48_[R 730_B-A],-0.26712133114258624,PE CD115_[YG 582_D-A],0.2525442135362811,APCCy7 Ly6G_[R 780_A-A],-0.33746528814378896
32,5,yes,32.0,0.01244901972519815,0.007761206320802609,0.05180728421119909,247460502.9084785,[14 34 24  9 18],[ 16.  15.  15.  15.  15.],[43 39 48 40 27],[ 5.  5.  3.  3.  3.],_FSC-A,-13752.184746487459,PECy7 CD16-32_[YG 780_A-A],-0.4890642371442907,PECF594 CD135_[YG 610_C-A],-0.3682557877291269,APCCy7 Ly6G_[R 780_A-A],-0.5928597438373246,BV605 CD11b_[V 610_D-A],-0.6215813520579551
33,5,yes,15.0,0.008550150910163564,-0.0010203238885412701,0.03071759769622613,195692455.44770017,[15  4 34 22 38],[ 16.  15.  15.  13.  13.],[14 45  5  6 43],[ 4.  3.  3.  3.  3.],_FSC-A,13787.080636913786,AF700 CD48_[R 730_B-A],0.5278442159539402,FITC Ly6C_[B 525_B-A],0.46693188635700605,BV785 B220_[V 780_A-A],0.45747283887364987,BV510 SCA-1_[V 525_E-A],0.38212033963111314
34,5,yes,33.0,0.0016188285723243016,0.0007305509712469067,0.0680052981976933,481966760.21938145,[38 33 15 32  4],[ 15.  15.  15.  15.  14.],[23 38 40 22 16],[ 4.  4.  3.  3.  3.],AF700 CD48_[R 730_B-A],-0.8342057046542194,_SSC-A,-17512.115420210237,_FSC-A,-13239.81012961503,PerCPCy5-5 CD45_[B 695_A-A],-0.35077797893156787,BV785 B220_[V 780_A-A],0.5243652767549114
35,5,yes,35.0,0.03001102969467411,0.020202725731809847,0.06596427749178269,740267687.9176509,[23 24 25  3  5],[ 16.  16.  15.  15.  15.],[20 25 45 26 21],[ 4.  3.  3.  3.  3.],_FSC-A,-26120.264773012896,AF700 CD48_[R 730_B-A],0.4219719448725516,FITC Ly6C_[B 525_B-A],-0.5706117537181778,_SSC-A,-7615.737296468903,PE CD115_[YG 582_D-A],0.3750114016452654
37,5,yes,10.0,0.005891053977102696,-0.029531164424570704,0.1677394824680922,1948543931.3280709,[10  2 14  6 11],[ 16.  15.  15.  15.  15.],[11 32 12  1 43],[ 5.  4.  4.  3.  3.],_FSC-A,44048.072474222805,PerCPCy5-5 CD45_[B 695_A-A],0.7871845730906316,PECy5 CD3-CD19-NK11_[YG 670_B-A],0.6228551230647787,BV711 CD11c_[V 715_B-A],0.8399627807446626,BV421 CD117_[V 440_F-A],-0.7741016985213153
38,5,yes,31.0,0.0001197021127422899,-0.0033531767663086856,0.24902853911962405,1552384088.7976458,[34 41 31 42 13],[ 15.  15.  15.  15.  13.],[31  5 34  2 47],[ 4.  4.  3.  3.  3.],_FSC-A,39072.18458370424,PECy5 CD3-CD19-NK11_[YG 670_B-A],1.1937730334803507,BV785 B220_[V 780_A-A],1.8890833835131378,PECF594 CD135_[YG 610_C-A],-0.8001699300771961,PECy7 CD16-32_[YG 780_A-A],0.643748056713249
39,5,yes,30.0,0.000960466952241707,-0.009274783341462983,0.20427414605896022,317668248.4082854,[29  7 27 30 43],[ 16.  16.  16.  15.  14.],[11  4  7 49 31],[ 5.  5.  5.  4.  4.],PE CD115_[YG 582_D-A],1.1579743022839681,PECy5 CD3-CD19-NK11_[YG 670_B-A],0.7556767471596718,AF700 CD48_[R 730_B-A],-0.8681057601948692,BV711 CD11c_[V 715_B-A],-1.0998583855919226,PECF594 CD135_[YG 610_C-A],0.6968563906147638
40,5,yes,34.0,2.850050303387855e-06,-2.8807729293695304e-06,0.7432675609253108,2850803742.4670053,[ 1 28 29 30 31],[ 0.  0.  0.  0.  0.],[20  1 48 47 45],[ 4.  3.  3.  3.  3.],_SSC-A,53376.00000000001,APCCy7 Ly6G_[R 780_A-A],-3.6771134999999995,BV711 CD11c_[V 715_B-A],-2.1035465000000015,PECy5 CD3-CD19-NK11_[YG 670_B-A],1.0895945,PECF594 CD135_[YG 610_C-A],-1.2420665000000009
41,5,yes,31.0,0.0011913210268161233,-0.002281557852234852,0.15899057768388525,93544489.2562704,[31 42 38 32  9],[ 16.  15.  15.  14.  14.],[ 3 26 22  2  4],[ 5.  4.  4.  3.  3.],BV510 SCA-1_[V 525_E-A],1.6974125178249106,BV711 CD11c_[V 715_B-A],1.4702509380952613,PE CD115_[YG 582_D-A],-0.7237614327052414,FITC Ly6C_[B 525_B-A],-0.8762544192251256,PerCPCy5-5 CD45_[B 695_A-A],0.5454897170254888
42,5,yes,22.0,0.0018411324959885541,-0.016629310783188498,0.1937805541610247,10638395.391248604,[38 31 41  9 22],[ 15.  15.  15.  14.  13.],[12 21 22 17  3],[ 5.  4.  4.  4.  3.],BV510 SCA-1_[V 525_E-A],2.0001951885124694,BV711 CD11c_[V 715_B-A],1.574751149656784,PerCPCy5-5 CD45_[B 695_A-A],0.976564301538374,BV605 CD11b_[V 610_D-A],1.339634390641168,PECy7 CD16-32_[YG 780_A-A],0.6731971251963383
43,5,yes,30.0,3.705065394404211e-05,-0.010198199639760649,0.4850280640808109,292605007.5485718,[29 39 27 46 38],[ 15.  14.  13.  13.  12.],[29  2 48 49  8],[ 4.  3.  3.  3.  3.],AF700 CD48_[R 730_B-A],2.7034643094503283,APCCy7 Ly6G_[R 780_A-A],2.007838080054224,PECy5 CD3-CD19-NK11_[YG 670_B-A],0.9624721923483965,BV421 CD117_[V 440_F-A],-1.3825232286440716,PE CD115_[YG 582_D-A],0.9386065345551152
44,5,yes,29.0,2.850050303387855e-06,-6.018900525694339e-05,1.2001469332543138,520224679.2590538,[ 1 28 29 30 31],[ 0.  0.  0.  0.  0.],[43  9 40 31 42],[ 4.  4.  4.  3.  3.],PECF594 CD135_[YG 610_C-A],-2.603237398783983,BV510 SCA-1_[V 525_E-A],3.9354235787747043,BV711 CD11c_[V 715_B-A],3.759378353962842,APCCy7 Ly6G_[R 780_A-A],-2.7379097415643834,AF700 CD48_[R 730_B-A],-1.6875544639168638
45,5,yes,24.0,0.0011770707752991841,-0.0022528269295061113,0.20830848036502037,96544109.53226852,[27 39 48 30 29],[ 15.  14.  14.  14.  14.],[50 24 39 27 49],[ 4.  4.  3.  3.  3.],PECy5 CD3-CD19-NK11_[YG 670_B-A],1.2830926672651104,FITC Ly6C_[B 525_B-A],-1.5470660115866128,BV785 B220_[V 780_A-A],1.3175464266599122,BV421 CD117_[V 440_F-A],-1.2075979986839198,BV605 CD11b_[V 610_D-A],-0.8374897082658493
46,5,yes,30.0,5.70010060677571e-06,-0.010229550193097915,0.9285169112995633,492560798.16631496,[43 32 39 14 41],[ 13.  10.  10.   9.   8.],[22 11 50 31 32],[ 4.  4.  3.  3.  3.],AF700 CD48_[R 730_B-A],2.2907225169854435,APCCy7 Ly6G_[R 780_A-A],3.365009916078921,BV650 CD150_[V 660_C-A],1.9739123062193764,BV421 CD117_[V 440_F-A],-3.1095969362542446,PECy5 CD3-CD19-NK11_[YG 670_B-A],1.307022680877171
47,5,yes,29.0,5.130090546098139e-05,-1.1738150099349855e-05,0.10965172240213623,630518356.3314583,[24 25 35 23 16],[ 15.  14.  14.  13.  13.],[ 5 30  2 48 49],[ 5.  4.  4.  4.  4.],_FSC-A,-23971.304679004283,AF700 CD48_[R 730_B-A],-0.7872821383234744,BV650 CD150_[V 660_C-A],0.7710116787661706,PECy5 CD3-CD19-NK11_[YG 670_B-A],-0.4836067075496962,PerCPCy5-5 CD45_[B 695_A-A],-0.5178090592702005
48,5,yes,24.0,5.7001006067757094e-05,-0.003372896698737538,0.2472415170313855,44027988.10602023,[45 25 24 23 16],[ 14.  13.  13.  13.  13.],[45 42  2 39 31],[ 4.  4.  3.  3.  3.],PECF594 CD135_[YG 610_C-A],-1.5584072311121828,BV605 CD11b_[V 610_D-A],1.563403594154985,BV421 CD117_[V 440_F-A],1.463349774655942,BV785 B220_[V 780_A-A],1.407722752863159,BV711 CD11c_[V 715_B-A],1.1961603209332201
49,5,yes,29.0,5.70010060677571e-06,-5.7338954953555535e-05,1.019806439484357,313013191.47428566,[47 42 38 41 31],[ 10.  10.  10.   9.   9.],[45  3  7 10 27],[ 4.  4.  4.  4.  3.],AF700 CD48_[R 730_B-A],3.5883810360831356,BV650 CD150_[V 660_C-A],2.8659493544750863,PE CD115_[YG 582_D-A],1.7123615908099359,BV711 CD11c_[V 715_B-A],2.0842558539628406,PECy5 CD3-CD19-NK11_[YG 670_B-A],1.0774310534657214
50,5,yes,29.0,2.850050303387855e-06,-6.018900525694339e-05,1.2091190240976368,4051752863.0261927,[ 1 28 29 30 31],[ 0.  0.  0.  0.  0.],[ 1 37 22 25  4],[ 5.  4.  4.  4.  4.],PE CD115_[YG 582_D-A],3.861683590809935,PECF594 CD135_[YG 610_C-A],-2.937181398783983,_FSC-A,58725.537411540834,AF700 CD48_[R 730_B-A],1.9085765360831362,BV421 CD117_[V 440_F-A],2.1031668696345873
1,6,yes,1.0,0.027468865011451293,-0.003659384402150856,0.08105603170346119,185783307.22876805,[32 18 16 15 38],[ 15.  15.  15.  15.  14.],[44 26 11 37  8],[ 4.  4.  4.  4.  4.],PE CD115_[YG 582_D-A],-1.0326338991670063,AF700 CD48_[R 730_B-A],-0.7951110775179019,_SSC-A,11943.257255697092,PerCPCy5-5 CD45_[B 695_A-A],-0.49748389126623754,FITC Ly6C_[B 525_B-A],-0.5351725845181237
2,6,yes,2.0,0.041424062532046536,9.548308261925209e-05,0.010271771429698744,9814050.058025751,[12 21 11 30  6],[ 15.  15.  15.  14.  14.],[18  1 28 44 48],[ 5.  3.  3.  3.  3.],PECy5 CD3-CD19-NK11_[YG 670_B-A],-0.328070552448499,FITC Ly6C_[B 525_B-A],0.33103708471496934,AF700 CD48_[R 730_B-A],-0.15167426320823427,BV650 CD150_[V 660_C-A],-0.14836761247116392,_SSC-A,2862.806912512161
3,6,yes,20.0,0.03590066428905119,-0.0027916186297423234,0.03791960427979274,7527885.289728863,[23  5 25 20 35],[ 16.  15.  15.  15.  14.],[25 44 27 26 34],[ 4.  4.  3.  3.  3.],PECF594 CD135_[YG 610_C-A],-0.7447871423728591,BV605 CD11b_[V 610_D-A],0.5684848405979902,PerCPCy5-5 CD45_[B 695_A-A],0.3000469859086797,FITC Ly6C_[B 525_B-A],0.44440771445802363,BV785 B220_[V 780_A-A],0.4585984832740267
4,6,yes,4.0,0.020327472853024622,0.0074024947271607005,0.07739622074516886,452114209.1685244,[40 34 33 15 13],[ 15.  15.  15.  14.  14.],[29 23 38 42  1],[ 4.  4.  4.  4.  3.],_SSC-A,19504.118828549857,AF700 CD48_[R 730_B-A],-0.6935988682270491,BV711 CD11c_[V 715_B-A],0.7613409656594486,PECy7 CD16-32_[YG 780_A-A],-0.5943243083772861,PerCPCy5-5 CD45_[B 695_A-A],-0.4190297567087758
5,6,yes,20.0,0.04544341009309162,0.006751127174298106,0.10330575702513663,12139801.453769844,[24  3 20 26 25],[ 16.  15.  15.  14.  14.],[21 30 49  7  9],[ 4.  3.  3.  3.  3.],BV650 CD150_[V 660_C-A],-1.4288182159463294,BV711 CD11c_[V 715_B-A],0.8663467878663688,AF700 CD48_[R 730_B-A],-0.5144353881016326,PECy7 CD16-32_[YG 780_A-A],-0.5183199522434282,APCCy7 Ly6G_[R 780_A-A],-0.4783708994188771
6,6,yes,28.0,0.01725100554903547,-0.011400550150922634,0.1382952878526357,12562843.671685662,[28 14 37 10 17],[ 16.  16.  15.  15.  14.],[ 4 15 31 46 39],[ 5.  5.  4.  4.  4.],PerCPCy5-5 CD45_[B 695_A-A],-1.1676684113534335,PECy5 CD3-CD19-NK11_[YG 670_B-A],-0.7944793880778664,AF700 CD48_[R 730_B-A],-0.924192642941028,FITC Ly6C_[B 525_B-A],-0.8810607795609495,BV510 SCA-1_[V 525_E-A],-0.8757877370672722
7,6,yes,7.0,0.01711142508802115,-0.019796726340851573,0.06478142421277155,17896268.552951768,[27 21 12 30 39],[ 16.  16.  16.  15.  15.],[15 21 53 29 31],[ 5.  4.  3.  3.  3.],PECy5 CD3-CD19-NK11_[YG 670_B-A],-0.849166466940417,FITC Ly6C_[B 525_B-A],1.085562347302761,BV510 SCA-1_[V 525_E-A],-0.5138447152513217,AF700 CD48_[R 730_B-A],-0.22646255825483702,PerCPCy5-5 CD45_[B 695_A-A],-0.20180060093844499
8,6,yes,8.0,0.03527112792406823,0.010783495717359783,0.023867020728546632,36125388.04430557,[20 14 37 10 11],[ 16.  16.  15.  15.  15.],[27  2 51 48 40],[ 3.  3.  3.  3.  3.],BV785 B220_[V 780_A-A],-0.6006466512918955,BV711 CD11c_[V 715_B-A],-0.4856938299182741,FITC Ly6C_[B 525_B-A],0.44628685415822117,BV510 SCA-1_[V 525_E-A],-0.45683103738414876,BV650 CD150_[V 660_C-A],0.2946284003301176
9,6,yes,9.0,0.006235543452252088,-0.0010463350729038815,0.1229081875210952,4083074.5397856394,[52 14 31 51 32],[ 16.  16.  15.  15.  15.],[25 10 52 32 37],[ 4.  3.  3.  3.  3.],PE CD115_[YG 582_D-A],-1.5205473149596005,PerCPCy5-5 CD45_[B 695_A-A],-0.7908500990830684,AF700 CD48_[R 730_B-A],-0.6783951412562378,BV605 CD11b_[V 610_D-A],-0.9713477867269512,BV711 CD11c_[V 715_B-A],-0.46968589727613447
10,6,yes,10.0,0.01340542141904903,-0.00506290454690427,0.05901533794609114,317933238.3522486,[14 37  6  8 16],[ 16.  15.  15.  15.  14.],[ 1 52 26 50 49],[ 5.  4.  4.  3.  3.],FITC Ly6C_[B 525_B-A],1.2708114974023803,_FSC-A,-16572.93324307317,BV421 CD117_[V 440_F-A],-0.6847791992129685,BV785 B220_[V 780_A-A],-0.5344958770332393,_SSC-A,6578.078700488711
11,6,yes,11.0,0.02937741417225938,0.0033393546005079412,0.014491031167949583,87804312.69651628,[37 14  2 21  8],[ 16.  16.  15.  15.  15.],[27 17 14 29 32],[ 3.  3.  3.  2.  2.],_SSC-A,7079.310775105547,FITC Ly6C_[B 525_B-A],0.42800325723407456,PerCPCy5-5 CD45_[B 695_A-A],0.26289391383892713,BV510 SCA-1_[V 525_E-A],0.34920710624736107,_FSC-A,-6139.028518745754
12,6,yes,12.0,0.033462279092556085,-0.02437379171409365,0.020653238120863414,20008926.549484562,[ 7 30 39  2 29],[ 16.  16.  15.  15.  15.],[29 28 33  2 24],[ 4.  4.  3.  3.  3.],PECy5 CD3-CD19-NK11_[YG 670_B-A],-0.3431560828895384,BV510 SCA-1_[V 525_E-A],0.5430097233244388,AF700 CD48_[R 730_B-A],-0.3402343104929535,BV650 CD150_[V 660_C-A],0.32327616576698026,PECy7 CD16-32_[YG 780_A-A],-0.18022213031495352
13,6,yes,13.0,0.024643072821120517,0.0007368508763031904,0.04171341126068035,53917620.885715984,[22 31 41 16 15],[ 15.  15.  15.  15.  15.],[ 7 51 50  4 17],[ 4.  3.  3.  3.  3.],PE CD115_[YG 582_D-A],-0.7528841975236046,AF700 CD48_[R 730_B-A],-0.5326034147567937,PerCPCy5-5 CD45_[B 695_A-A],-0.35188718562775484,FITC Ly6C_[B 525_B-A],-0.48312904289885417,_SSC-A,7184.196898663195
14,6,yes,14.0,0.02295386438476351,-0.003939210278004288,0.038823876298432355,50880962.55748117,[32  6  8  9 10],[ 16.  16.  16.  16.  16.],[12 49 45 53 51],[ 6.  4.  4.  3.  3.],AF700 CD48_[R 730_B-A],-0.7531229306652161,PECy7 CD16-32_[YG 780_A-A],-0.5546634991461319,PerCPCy5-5 CD45_[B 695_A-A],-0.43222983826732253,FITC Ly6C_[B 525_B-A],0.3804290979460016,_FSC-A,-5591.554176008749
15,6,yes,4.0,0.008719505942139626,-0.004205472183724296,0.1745207254605246,278667404.7562652,[35  1 34 33 32],[ 16.  15.  15.  15.  15.],[16 42 35 21 33],[ 4.  4.  4.  4.  4.],PE CD115_[YG 582_D-A],-1.2818159726120553,PerCPCy5-5 CD45_[B 695_A-A],-1.0184432640720273,_SSC-A,-16602.227297504516,BV650 CD150_[V 660_C-A],-0.752998508926615,PECy7 CD16-32_[YG 780_A-A],-0.7706796537395629
16,6,yes,18.0,0.019002882763807072,0.0031993538315214162,0.1866604892637963,250897546.4784299,[ 1 35 18 15 13],[ 15.  15.  15.  15.  15.],[22 28 26 14  4],[ 5.  4.  4.  4.  3.],AF700 CD48_[R 730_B-A],-1.1869404525940883,BV711 CD11c_[V 715_B-A],-1.4165340300530347,PerCPCy5-5 CD45_[B 695_A-A],-0.8947050494768046,PE CD115_[YG 582_D-A],-0.9131826929226092,_SSC-A,15558.661880270813
17,6,yes,17.0,0.027542928113214,0.0035683049611153622,0.05093712299502769,25170660.008704983,[27 30 39 14 12],[ 15.  14.  14.  14.  14.],[27 13 12 11 34],[ 3.  3.  3.  3.  3.],BV510 SCA-1_[V 525_E-A],-0.9803720565885173,AF700 CD48_[R 730_B-A],-0.6699233891833883,PerCPCy5-5 CD45_[B 695_A-A],-0.5516885815384124,BV711 CD11c_[V 715_B-A],-0.5210896886046362,BV785 B220_[V 780_A-A],-0.5440315927370347
18,6,yes,18.0,0.018347709171290864,0.002544180239005208,0.1353837397898102,62213873.08964895,[24  1 32 22 35],[ 16.  15.  15.  15.  15.],[31 15  3  5 42],[ 4.  4.  3.  3.  3.],AF700 CD48_[R 730_B-A],-1.4677373038995576,PerCPCy5-5 CD45_[B 695_A-A],-0.770606659356123,PE CD115_[YG 582_D-A],-0.6662166410748132,PECF594 CD135_[YG 610_C-A],-0.5183894163980439,BV650 CD150_[V 660_C-A],-0.5065480190793068
20,6,yes,20.0,0.042663195196153275,0.00397091227735976,0.036559850374610035,23537724.622920014,[ 8  3  5 25 35],[ 16.  15.  15.  15.  14.],[39 29 43 24 13],[ 5.  5.  4.  4.  4.],PECy7 CD16-32_[YG 780_A-A],-0.6364157435341131,APCCy7 Ly6G_[R 780_A-A],-0.671108150918302,BV605 CD11b_[V 610_D-A],-0.5813261572872243,PerCPCy5-5 CD45_[B 695_A-A],-0.33464020563255026,BV650 CD150_[V 660_C-A],-0.33356656011288455
21,6,yes,21.0,0.02818385880154507,-0.023781108380125687,0.04254725517850845,10718664.148102473,[ 7 12  2 37 29],[ 16.  15.  15.  15.  15.],[ 3 52 44 27 50],[ 7.  5.  4.  3.  3.],PECy5 CD3-CD19-NK11_[YG 670_B-A],-0.6361310053254821,BV785 B220_[V 780_A-A],-0.860371416767585,BV510 SCA-1_[V 525_E-A],0.5450610955625044,AF700 CD48_[R 730_B-A],-0.32042612672931714,PerCPCy5-5 CD45_[B 695_A-A],-0.2372973735584734
22,6,yes,22.0,0.021885646570878388,-0.000145242274309728,0.04743520642066709,37802160.22705104,[42 41 31 13 50],[ 15.  15.  15.  15.  15.],[11 52 35 16 37],[ 3.  3.  3.  3.  3.],PE CD115_[YG 582_D-A],-0.6905837729245063,AF700 CD48_[R 730_B-A],-0.6041507490138779,PerCPCy5-5 CD45_[B 695_A-A],-0.5569110204296059,FITC Ly6C_[B 525_B-A],-0.43155890025352195,_SSC-A,5789.792420772934
23,6,yes,23.0,0.08374257944691954,0.02692112654827588,0.028289039480326388,18310907.57888099,[ 3 25 26 24 35],[ 16.  16.  15.  15.  14.],[29 24 34  1 49],[ 6.  5.  4.  3.  3.],BV711 CD11c_[V 715_B-A],-0.6620434144139579,PerCPCy5-5 CD45_[B 695_A-A],-0.3718499610450223,PECy7 CD16-32_[YG 780_A-A],-0.42340479262886366,AF700 CD48_[R 730_B-A],0.35285576774148286,APCCy7 Ly6G_[R 780_A-A],-0.4593288057146345
24,6,yes,24.0,0.019860305595752196,0.011310154685588632,0.07009600852654198,17746956.438577067,[ 5 18 35 26 23],[ 16.  16.  15.  15.  15.],[32 52 49 16 15],[ 6.  6.  4.  4.  4.],PerCPCy5-5 CD45_[B 695_A-A],-0.63217341985222,BV711 CD11c_[V 715_B-A],-0.8658720259201729,APCCy7 Ly6G_[R 780_A-A],-0.7411515582561703,BV650 CD150_[V 660_C-A],-0.47769629335755875,BV785 B220_[V 780_A-A],-0.7847689051455091
25,6,yes,20.0,0.0431930312318403,0.004500748313046782,0.0421220210581146,18038506.26750213,[23  3 20 35 26],[ 16.  15.  15.  14.  14.],[52  7 32 53 49],[ 5.  4.  4.  3.  3.],BV650 CD150_[V 660_C-A],0.7300398629300089,BV711 CD11c_[V 715_B-A],-0.9049120492833923,PECy7 CD16-32_[YG 780_A-A],-0.32666874902541226,FITC Ly6C_[B 525_B-A],0.32387189248079945,BV421 CD117_[V 440_F-A],-0.3368700005458793
26,6,yes,5.0,0.07419128790036804,-0.011293120899447284,0.009346775555705306,16393353.128889892,[24 23  3  5 25],[ 15.  15.  14.  14.  14.],[11 45 40 37 46],[ 4.  3.  3.  3.  3.],PECF594 CD135_[YG 610_C-A],-0.3455553270516564,PECy7 CD16-32_[YG 780_A-A],-0.20526185330017938,BV510 SCA-1_[V 525_E-A],0.239786007395965,_FSC-A,3472.633763417286,BV785 B220_[V 780_A-A],0.19331441856234965
27,6,yes,27.0,0.012650547497236877,-0.010742665392970635,0.07967891824303334,18847959.748039804,[30  7 39 43 29],[ 16.  16.  15.  15.  15.],[45 53 30  8  9],[ 4.  3.  3.  3.  3.],FITC Ly6C_[B 525_B-A],1.4892620187019483,PECy5 CD3-CD19-NK11_[YG 670_B-A],-0.6506894035684853,BV650 CD150_[V 660_C-A],-0.6275502652934968,BV421 CD117_[V 440_F-A],0.47707336164459097,APCCy7 Ly6G_[R 780_A-A],0.345491542172673
28,6,no,28.0,0.022754463726171622,-0.005897091973786482,0.008004923100018114,35351057.98604108,[ 6 29 27 30 47],[ 16.  15.  14.  14.  14.],[47  7 39 21 48],[ 5.  4.  4.  3.  3.],AF700 CD48_[R 730_B-A],-0.27523018553901235,PerCPCy5-5 CD45_[B 695_A-A],-0.22218596485199596,_FSC-A,5585.429206968519,BV510 SCA-1_[V 525_E-A],0.22495107747122228,PECy5 CD3-CD19-NK11_[YG 670_B-A],-0.09352345099563317
29,6,yes,6.0,0.02187710082836731,-0.0021630734807092447,0.03182574581875111,145434023.71138188,[47 27 39 30 28],[ 16.  15.  15.  15.  15.],[48 37 23 12  1],[ 5.  5.  4.  4.  3.],BV785 B220_[V 780_A-A],0.9425462843000959,_FSC-A,10247.746824031088,PECy5 CD3-CD19-NK11_[YG 670_B-A],0.28431572811868927,_SSC-A,6357.492214534945,PECy7 CD16-32_[YG 780_A-A],0.3057491791287163
30,6,yes,30.0,0.022988047354807833,-0.02213679909873207,0.0315155664490931,31419127.121256914,[27 12 39 43  7],[ 16.  16.  15.  15.  15.],[ 3 48 25 42 37],[ 4.  4.  4.  3.  3.],PECy5 CD3-CD19-NK11_[YG 670_B-A],-0.5840666887196339,AF700 CD48_[R 730_B-A],-0.3521985140114631,PerCPCy5-5 CD45_[B 695_A-A],-0.28324804502364553,BV650 CD150_[V 660_C-A],-0.27249198558378585,BV421 CD117_[V 440_F-A],-0.36653598228192824
31,6,yes,31.0,0.007466130373847749,-0.000679313393234739,0.11916491209442955,9162920.918063996,[41 38 13 22 42],[ 16.  16.  15.  15.  15.],[15 35 50 46  7],[ 5.  4.  4.  4.  4.],PerCPCy5-5 CD45_[B 695_A-A],-0.981720284491334,AF700 CD48_[R 730_B-A],-0.8640160794299312,PE CD115_[YG 582_D-A],-0.917934371625898,BV605 CD11b_[V 610_D-A],-0.9463963362979915,BV785 B220_[V 780_A-A],-0.7938755447892242
32,6,yes,32.0,0.018518624021512484,0.0060696042963143335,0.054183111658380835,36026780.96666865,[34 14  1 41 24],[ 16.  16.  15.  15.  15.],[52 18  6 47 12],[ 4.  4.  3.  3.  3.],PECy7 CD16-32_[YG 780_A-A],-0.6991954329155782,PerCPCy5-5 CD45_[B 695_A-A],-0.46250821419329746,AF700 CD48_[R 730_B-A],-0.4901642287364075,PECy5 CD3-CD19-NK11_[YG 670_B-A],-0.3312648354886809,BV650 CD150_[V 660_C-A],-0.37004105852879265
33,6,yes,33.0,0.020529722092453538,0.011979571182289974,0.0973537802236896,606891435.9013067,[50  4 22 40 15],[ 16.  15.  15.  15.  15.],[30 51 39  6 42],[ 4.  4.  4.  4.  4.],_FSC-A,-20942.930659937247,BV711 CD11c_[V 715_B-A],-0.930885342194493,PerCPCy5-5 CD45_[B 695_A-A],-0.5814223724327252,_SSC-A,-12972.474249236408,BV605 CD11b_[V 610_D-A],-0.9644743860991879
34,6,yes,34.0,0.004717249866116701,0.003098421293792399,0.06360270749198797,437776841.2663343,[32  4 41 40 15],[ 16.  15.  15.  15.  15.],[ 3 10 41 43 26],[ 5.  5.  5.  4.  4.],_FSC-A,-19190.74684879112,PECy5 CD3-CD19-NK11_[YG 670_B-A],-0.4596240338953671,BV785 B220_[V 780_A-A],-0.7385271773612982,PECy7 CD16-32_[YG 780_A-A],-0.5030706400800676,BV711 CD11c_[V 715_B-A],-0.608746074353135
35,6,yes,35.0,0.022520880097535407,-0.007490149597138705,0.08130087765973426,269079523.34041095,[15  9 16 24 18],[ 16.  15.  15.  15.  15.],[50 40 42 32  5],[ 4.  4.  4.  3.  3.],APCCy7 Ly6G_[R 780_A-A],-1.3481879322368793,PerCPCy5-5 CD45_[B 695_A-A],-0.7073072980830465,PECy7 CD16-32_[YG 780_A-A],-0.6347996540221648,_SSC-A,10641.091664605585,_FSC-A,12483.857094025725
37,6,yes,37.0,0.012166288754942288,0.006275234777839592,0.036146897850814,87886443.04367228,[11  6  8  9 10],[ 16.  15.  15.  15.  15.],[32 30 27  3  5],[ 4.  4.  3.  3.  3.],PECy5 CD3-CD19-NK11_[YG 670_B-A],-0.43522201658970566,BV711 CD11c_[V 715_B-A],-0.6178709935072539,_FSC-A,-8939.823348186896,BV785 B220_[V 780_A-A],-0.5740979778025611,PerCPCy5-5 CD45_[B 695_A-A],-0.322357102343247
38,6,yes,31.0,0.007884871756890717,-0.0002605720101917716,0.024784459794728757,151554641.54512691,[31 41 42 52 13],[ 16.  15.  15.  15.  14.],[34 23 50 14 13],[ 4.  4.  4.  3.  3.],_FSC-A,11332.194980733197,PECy7 CD16-32_[YG 780_A-A],0.4133014294664755,PE CD115_[YG 582_D-A],0.3510255235397544,BV711 CD11c_[V 715_B-A],-0.40082171736930877,PECF594 CD135_[YG 610_C-A],0.24597049343355018
39,6,yes,7.0,0.02088864327791894,-0.016019508150953782,0.032153456632633755,25719673.94010131,[27 30 29 43 45],[ 15.  15.  15.  15.  15.],[44  9 43  7 42],[ 5.  4.  4.  4.  4.],AF700 CD48_[R 730_B-A],-0.7678454516293438,BV711 CD11c_[V 715_B-A],0.5610462587684886,PerCPCy5-5 CD45_[B 695_A-A],0.23267785710046368,FITC Ly6C_[B 525_B-A],-0.3151310236319614,PE CD115_[YG 582_D-A],0.22106971156636307
40,6,yes,15.0,0.003010949944737532,-0.004615784667128368,0.04628435401927886,339152164.2117682,[34  4 50 33 38],[ 15.  15.  15.  15.  13.],[ 1 30 39 31 28],[ 5.  5.  4.  3.  3.],_FSC-A,17333.424894317184,BV711 CD11c_[V 715_B-A],0.6922636704427079,BV785 B220_[V 780_A-A],0.7878572992660428,PECy5 CD3-CD19-NK11_[YG 670_B-A],0.3017403273712839,BV510 SCA-1_[V 525_E-A],0.42506207530659995
41,6,yes,32.0,0.006719802194546677,-0.005729217530651473,0.1387960529440459,100515504.98605558,[31 42 38 34 32],[ 16.  15.  15.  15.  15.],[12 53 35 28 24],[ 4.  3.  3.  3.  3.],BV605 CD11b_[V 610_D-A],1.7471017154643784,FITC Ly6C_[B 525_B-A],1.1485736645170652,PECy7 CD16-32_[YG 780_A-A],0.7834390668525568,BV650 CD150_[V 660_C-A],0.6482448699297658,PECF594 CD135_[YG 610_C-A],-0.58593588882784
42,6,yes,42.0,0.0076427423857434226,0.005801609889754868,0.06854151523602396,3468925.377043495,[22 50 31 41 52],[ 15.  15.  15.  15.  15.],[49 17  9 32 13],[ 4.  4.  4.  4.  4.],AF700 CD48_[R 730_B-A],-0.826127591692887,PerCPCy5-5 CD45_[B 695_A-A],-0.663066563786422,BV785 B220_[V 780_A-A],-0.749048572183424,PECF594 CD135_[YG 610_C-A],-0.40148835230166874,BV605 CD11b_[V 610_D-A],-0.5584942356218079
43,6,yes,7.0,0.011354443216389594,-0.02555370821248313,0.04527951524999524,26450995.966808088,[46 27 30 29 39],[ 16.  15.  15.  15.  15.],[46  2 52 26 25],[ 4.  3.  3.  3.  3.],BV650 CD150_[V 660_C-A],-0.8107806974031802,PECy7 CD16-32_[YG 780_A-A],0.4953091860693347,AF700 CD48_[R 730_B-A],0.36354207784757586,BV711 CD11c_[V 715_B-A],0.5156639701015584,BV605 CD11b_[V 610_D-A],0.4377701768765347
44,6,yes,44.0,1.994006585918895e-05,1.7090015555801097e-05,0.26639718374008586,134370870.19163278,[46 42 41 27 50],[ 13.  13.  13.  12.  12.],[39 40 10 22 21],[ 5.  4.  4.  4.  3.],FITC Ly6C_[B 525_B-A],1.7915236921875017,PE CD115_[YG 582_D-A],-1.258236922856212,PECF594 CD135_[YG 610_C-A],0.9599726583286831,BV510 SCA-1_[V 525_E-A],-1.453140443903457,BV711 CD11c_[V 715_B-A],-1.4146025838262675
45,6,yes,45.0,0.003321445255973474,0.0021443744806742895,0.04330787832254519,39515163.26799268,[27 39 46  7 12],[ 15.  15.  15.  15.  15.],[16 15 41 14 42],[ 5.  4.  3.  3.  3.],BV711 CD11c_[V 715_B-A],-0.84224409531214,BV650 CD150_[V 660_C-A],-0.47732935287055556,BV605 CD11b_[V 610_D-A],-0.7522859653281327,APCCy7 Ly6G_[R 780_A-A],-0.5488249068182388,BV785 B220_[V 780_A-A],-0.5176669002261738
46,6,yes,29.0,0.0017718172806307898,-0.005749465470009759,0.08470877469851659,766473015.1318882,[43 27 29 39 45],[ 16.  15.  15.  15.  15.],[ 8 53 50 17  4],[ 4.  3.  3.  3.  3.],_FSC-A,-27597.085126115388,BV650 CD150_[V 660_C-A],0.6266563552176461,AF700 CD48_[R 730_B-A],0.4724340471678569,BV711 CD11c_[V 715_B-A],0.6537068160849379,FITC Ly6C_[B 525_B-A],-0.5485693853797134
47,6,yes,29.0,0.006719802194546677,-0.0008014805560938717,0.06300793544099781,360929311.0439797,[29 46 27 30 28],[ 16.  15.  14.  14.  14.],[53 49 11  7 28],[ 4.  4.  4.  4.  3.],_FSC-A,18051.13383540514,PECy5 CD3-CD19-NK11_[YG 670_B-A],-0.4774121629079916,BV785 B220_[V 780_A-A],-0.8005322983891273,BV711 CD11c_[V 715_B-A],-0.6895516703762191,PECy7 CD16-32_[YG 780_A-A],-0.47727249814674017
48,6,yes,24.0,0.002050978202659435,-0.006499172707504129,0.1647305215514207,12129469.38715554,[41 24  9 23 20],[ 15.  15.  15.  14.  14.],[44 52 18 28 12],[ 5.  4.  4.  4.  4.],BV785 B220_[V 780_A-A],1.9324286740214638,BV650 CD150_[V 660_C-A],1.014028454274647,PerCPCy5-5 CD45_[B 695_A-A],-0.8840509376377809,PE CD115_[YG 582_D-A],-0.7476447957664532,PECF594 CD135_[YG 610_C-A],-0.5690062481579871
49,6,yes,49.0,1.4242904185134966e-05,8.542803578359257e-06,0.14813920888201723,25792123.178878505,[38 41 50 47 46],[ 13.  13.  12.  12.  12.],[27 48 45 51  9],[ 5.  5.  5.  4.  4.],BV650 CD150_[V 660_C-A],-1.1073644980468758,AF700 CD48_[R 730_B-A],-0.8714276566406246,PECy5 CD3-CD19-NK11_[YG 670_B-A],-0.6456153671874998,BV711 CD11c_[V 715_B-A],-1.0773268292968754,BV785 B220_[V 780_A-A],-1.061977017187501
50,6,yes,33.0,0.0020452810409853812,-0.0065048698691781825,0.16821666965064483,488108116.2902003,[33 40 22 42 34],[ 16.  15.  15.  15.  14.],[47 35  1 48 38],[ 4.  4.  3.  3.  3.],PECF594 CD135_[YG 610_C-A],-1.2244502483045026,BV650 CD150_[V 660_C-A],-1.26586487785493,_SSC-A,-22087.687644351805,BV605 CD11b_[V 610_D-A],0.8577112916095798,APCCy7 Ly6G_[R 780_A-A],0.5794668486118458
51,6,yes,14.0,0.0015809623645499811,-0.025312112298217816,0.10656966223981132,199550243.11495656,[14  9 11 35 16],[ 15.  15.  14.  14.  14.],[21 44 27 30 43],[ 5.  5.  4.  4.  4.],PECy7 CD16-32_[YG 780_A-A],1.5780834842281717,PECF594 CD135_[YG 610_C-A],-0.5266685667473192,_FSC-A,14124.393825736684,PerCPCy5-5 CD45_[B 695_A-A],-0.43633873229173387,PE CD115_[YG 582_D-A],-0.45777217807669585
52,6,yes,9.0,0.0011736153048551212,-0.006108263220300848,0.043122589570646845,70865895.66455045,[ 9 42 38 31 41],[ 16.  15.  15.  14.  14.],[41 15 12 11 10],[ 5.  4.  4.  4.  4.],BV510 SCA-1_[V 525_E-A],0.9362711288006896,BV711 CD11c_[V 715_B-A],0.7076965965148929,PECy7 CD16-32_[YG 780_A-A],0.4766597870533065,AF700 CD48_[R 730_B-A],-0.35209618499206374,_FSC-A,8264.06224312004
53,6,yes,15.0,2.8485808370269932e-06,-0.007623886031028873,1.2172421943833023,2755602400.1065426,[ 1 29 30 31 32],[ 0.  0.  0.  0.  0.],[17  6 37 48 18],[ 5.  4.  4.  3.  3.],BV711 CD11c_[V 715_B-A],-3.962536124640753,BV421 CD117_[V 440_F-A],3.289408362955337,_FSC-A,49651.88732298397,BV650 CD150_[V 660_C-A],-1.8860573269827636,BV785 B220_[V 780_A-A],2.908893255549986
