time,power,pcore_ids,pcore_power,SCA-1,CD11b,Ly6C
-1,0,[],0,0.0,0.0,0.0
0,7583.0,[0],1,232.877620994329,115.37201635236696,283.2940788606096
0,9214.0,[1],1,206.28055133492543,120.60115042326954,172.2333405687
0,4542.0,[2],1,403.2813738441183,142.28445618670239,286.7498899163366
0,4923.0,[3],1,174.7917936217763,236.72902701604716,527.4377412147056
0,8108.0,[4],1,149.92340897878978,116.91588554514047,85.96891958559466
0,7333.0,[5],1,318.44865675712305,131.6127096686216,694.2514659757263
0,3751.0,[6],1,218.79338842975227,279.38629698747025,296.58890962409953
0,8860.0,[7],1,108.09322799097475,125.00925507900692,232.78916478555365
0,7414.0,[8],1,265.310223900727,380.91637442675875,771.7577555975195
0,5905.0,[9],1,381.157493649444,356.9515664690937,569.3127857747655
0,14303.0,[10],1,169.21009578410283,418.68062644200677,543.0302034538199
0,8024.0,[11],1,217.4090229312073,535.7752991026921,635.4668494516427
1,13412.0,[0],1,230.4689830002977,118.79831494184353,287.0810468237405
1,17018.0,[1],1,212.46033611470293,119.2968621459633,169.06169937713037
1,6971.0,[2],1,403.44211734327513,143.85755271840517,284.87605795438236
1,9639.0,[3],1,170.49818445897068,238.31673410104835,523.0996991389156
1,16391.0,[4],1,145.45744615948115,117.14270026233899,86.49087914099249
1,11345.0,[5],1,304.44477743499095,132.8096959012781,691.8455707360056
1,6617.0,[6],1,213.67220794922258,298.91355599214177,296.3303611908715
1,17809.0,[7],1,109.23785726318627,126.11909708574385,230.40226851591814
1,15711.0,[8],1,237.9641652345471,379.0835720196051,773.2325759022357
1,12910.0,[9],1,373.0818745158709,352.4636715724252,570.3674670797826
1,32093.0,[10],1,162.75496214128032,425.5538590970023,534.9337238650112
1,20044.0,[11],1,203.78512272999524,545.3949810417095,622.215675513869
2,19316.0,[0],1,230.82713812383608,123.36368813418889,285.9041209360109
2,26695.0,[1],1,217.6566023599932,121.64746207154907,165.81247424611294
2,10125.0,[2],1,402.63111111110845,149.93244444444488,281.2298271604935
2,12490.0,[3],1,175.0073658927158,239.0000800640518,518.2154523618885
2,27081.0,[4],1,141.7999704589966,120.43428972342271,86.15704737638993
2,15573.0,[5],1,306.11449303281074,138.22744493674918,686.1153920246585
2,11112.0,[6],1,211.55669546436414,313.95176385889204,302.30921526277814
2,28128.0,[7],1,107.9950227531333,129.22895335608695,226.5678683162682
2,21446.0,[8],1,253.409493611859,379.53408561037025,764.5391215145019
2,18771.0,[9],1,373.27750253049135,354.78663896436063,569.2770230674963
2,50675.0,[10],1,168.10452886038783,432.3930340404511,516.3111001480013
2,28548.0,[11],1,212.4589113072734,548.4008687123459,608.3432114333743
3,25987.0,[0],1,230.70635317658923,125.95005194905112,286.71247162042533
3,34638.0,[1],1,219.1090420924996,122.06954789537487,165.46134303366284
3,15808.0,[2],1,419.79042257084905,159.7097039473676,273.21242408906846
3,14788.0,[3],1,175.126724371114,238.94556397078742,516.4555044630773
3,34098.0,[4],1,141.2740923221332,121.00434043052458,86.1744677107164
3,21866.0,[5],1,317.7078112137536,137.60797585292195,687.1259032287578
3,13114.0,[6],1,214.39454018606247,313.4116974226023,304.73410096080454
3,37513.0,[7],1,108.8364033801668,130.14749553488195,225.5818782821947
3,27604.0,[8],1,255.91885234023715,376.94243587885705,769.0167004781812
3,23492.0,[9],1,383.22420398432774,358.98612293546876,572.3487995913467
3,65076.0,[10],1,167.64590632491434,435.2777368000468,516.1943881000605
3,45976.0,[11],1,213.16787019314393,551.1395945710801,600.7497824952046
4,32454.0,[0],1,234.1301226351165,127.21775436001658,287.64257102360364
4,41647.0,[1],1,223.6294571037535,122.24491560016276,163.54075923836166
4,22764.0,[2],1,428.0374275171331,161.72368652257933,268.7830346160615
4,16953.0,[3],1,178.42948150769996,239.44694154427,512.9068601427475
4,38413.0,[4],1,141.71780386848528,121.29854476349229,85.63171322208638
4,28587.0,[5],1,334.06324553118145,137.05128205128094,687.1406933221397
4,16173.0,[6],1,217.12174612007902,314.87615161070937,308.51555060903763
4,42491.0,[7],1,108.94624744063918,130.74898213739408,225.53380715916242
4,33230.0,[8],1,275.6193800782391,380.13099608787167,771.5023773698276
4,30000.0,[9],1,393.45603333332843,368.58600000000246,576.2133999999979
4,78891.0,[10],1,171.28233892332563,438.3697633443609,513.3829334144536
4,68357.0,[11],1,225.99569905057177,551.2005354243154,589.4853050894209
5,38512.0,[0],1,238.61554840049948,126.79305151641005,288.5636425010398
5,48765.0,[1],1,228.93718855736742,121.5814826207325,161.59407361837447
5,38331.0,[2],1,452.60089744593,157.73877540371865,264.3868931152332
5,17896.0,[3],1,181.37852033974266,237.3303531515433,512.4933504693793
5,41325.0,[4],1,142.49224440411643,121.2369751966127,85.27842710223855
5,37246.0,[5],1,362.5049132792752,134.50432261182297,680.4795682757873
5,17889.0,[6],1,220.42322097378448,317.5898596903126,308.8468332494806
5,45349.0,[7],1,109.39427550773337,130.56201900813747,225.40598469646395
5,39736.0,[8],1,292.6756593517167,386.24743305818197,771.8358415542348
5,39693.0,[9],1,415.8138462701201,380.58700526541537,585.2169148212492
5,86475.0,[10],1,173.41266261925483,442.10177507949754,510.8845446660864
5,88743.0,[11],1,236.64248447764746,551.8038605861785,580.1059238474705
6,44880.0,[0],1,243.79757130124727,126.90516934046246,288.9137254901974
6,55846.0,[1],1,234.2861619453483,121.64638470078451,159.98406331697987
6,53424.0,[2],1,457.8533430667854,157.64143456124305,267.19626010781826
6,18895.0,[3],1,185.65811061127422,235.23074887536507,512.2125430007943
6,43545.0,[4],1,143.27782753473718,121.40084969571726,85.16644850155022
6,48593.0,[5],1,386.7005741567685,133.9326446195937,668.1161895746245
6,20393.0,[6],1,225.26842544010373,321.29593487961625,310.08561761388484
6,47557.0,[7],1,109.85888512732497,130.71442689824892,225.35780221628644
6,44090.0,[8],1,301.63483783170307,390.631390337945,768.7768655023725
6,53044.0,[9],1,432.6602443254616,391.95266194103243,593.795320865694
6,94817.0,[10],1,177.66786546716298,444.2545851482265,507.2342301486043
6,104876.0,[11],1,246.20979060985997,553.5293966207615,572.725142072497
