time,power,pcore_ids,pcore_power,SCA-1,CD11b,Ly6C
-1,0.0,[],0,0.0,0.0,-0.04788418708240535
0,6252.0,[0],1,0.26702214841812455,0.45846831276434935,0.8321403075292075
0,33303.0,[1 3],2,0.1856994359248966,0.1404331448405384,0.1683880883942913
0,23042.0,[2 4],2,0.20620557087253624,0.5017396915567548,0.5913813044795301
0,4387.0,[5],1,0.24944870313976705,0.3988096772962484,0.37992590986834385
0,7550.0,[6],1,0.4047930649601867,0.16159779449222442,0.26961474358028836
0,8493.0,[7],1,0.3283297414791009,0.15185902364097623,0.7099584434397298
0,6963.0,[8],1,0.43282276947008164,0.39673568695034994,0.6411595877285805
1,14302.0,[0],1,0.2469598814654667,0.448655489755255,0.8247222887511796
1,63269.0,[1 3],2,0.1829785110517089,0.14060217562745975,0.16432332395127894
1,53655.0,[2 4],2,0.1978756705083173,0.517049939048331,0.5834076865331334
1,8831.0,[5],1,0.24446733226542283,0.4013267484811575,0.37673938663631545
1,12173.0,[6],1,0.40186016760245524,0.16124588465014048,0.2650170326567047
1,13824.0,[7],1,0.3104489342748615,0.1548759878550779,0.7045831174472069
1,13936.0,[8],1,0.4223500045150133,0.3943440862170179,0.626782967763548
2,19309.0,[0],1,0.2678110166941989,0.4470755906150262,0.8138543585096712
2,98225.0,[1 3],2,0.18087938435317197,0.14363671227639002,0.15744543599900393
2,77835.0,[2 4],2,0.20371905998211717,0.5256143129087048,0.5686924956753454
2,17060.0,[5],1,0.23831223573112809,0.4157802114443043,0.38051518680303026
2,18298.0,[6],1,0.39909691118695334,0.16698008436498085,0.2579911857661611
2,18966.0,[7],1,0.3146641476705185,0.16051097391235378,0.6973546261543638
2,20297.0,[8],1,0.42085153448812335,0.3966011962180615,0.6223884886276195
3,25077.0,[0],1,0.27329806219316216,0.44177683864917744,0.8175333558386154
3,127369.0,[1 3],2,0.1810191850785527,0.1442658021200312,0.15834839764882908
3,109256.0,[2 4],2,0.20679852617047137,0.5383342998319851,0.5698655905999721
3,20192.0,[5],1,0.23937959632472203,0.41311397014005113,0.38219677951355113
3,26653.0,[6],1,0.4147856113336712,0.1743181134856509,0.2523810713569762
3,25759.0,[7],1,0.32479168402360187,0.1591691187669054,0.700249079375546
3,25684.0,[8],1,0.43473058031143696,0.3992269250853234,0.6235049144493473
4,30197.0,[0],1,0.2971003146752019,0.44320073448307884,0.8195576589747898
4,147334.0,[1 3],2,0.18359913110363626,0.14478712817191902,0.1588364987293246
4,144326.0,[2 4],2,0.21853325344760188,0.5489994120274277,0.5671238680236906
4,25249.0,[5],1,0.2425573868539015,0.411719320813567,0.38436852688867174
4,37303.0,[6],1,0.4237063802140204,0.17576300985339202,0.2481159972862924
4,32708.0,[7],1,0.3425943967252584,0.15752369658411655,0.7011140011107241
4,32873.0,[8],1,0.4485820301965619,0.4086356336665483,0.6264051766476255
5,35476.0,[0],1,0.31397327010759085,0.4479844955406747,0.8193650351402647
5,162809.0,[1 3],2,0.1872498490510838,0.14429536272815005,0.15892401197402414
5,171438.0,[2 4],2,0.2287945679841534,0.5579266641465846,0.5640423917367193
5,28108.0,[5],1,0.2469472084399976,0.4159035575128158,0.3831905285467504
5,56648.0,[6],1,0.45258426172904026,0.1725231340512898,0.24350429283294928
5,41043.0,[7],1,0.3712439433895958,0.15324373411264994,0.696013041241387
5,44468.0,[8],1,0.4767512151144154,0.4194080587514874,0.6356817384558936
6,38566.0,[0],1,0.321960893538985,0.45223792767080223,0.8161283286442295
6,176704.0,[1 3],2,0.1910611702831202,0.14432675765469724,0.15928371828539306
6,193860.0,[2 4],2,0.23818041399040243,0.5636041694967566,0.5601592153040255
6,33088.0,[5],1,0.25429830971682005,0.4232611978915977,0.3840234841125587
6,76234.0,[6],1,0.4624729211920766,0.17249653276402688,0.24473289747374302
6,51954.0,[7],1,0.3985958192056641,0.1508191113022523,0.6844206580551233
6,59584.0,[8],1,0.49547193877550755,0.42976101118585175,0.6428368649211951
