time,power,pcore_ids,pcore_power,SCA-1,CD11b,Ly6C
-1,0.0,[],0,0.0,0.0,-0.04788418708240535
0,34179.0,[1 3 6],3,0.18908009419017252,0.14466435623260535,0.18037873579362848
0,21862.0,[2 4],2,0.20664196969961912,0.5084448893946466,0.5952693948413796
0,6472.0,[8],1,0.4196903515228874,0.41509177717868456,0.6553087344214986
1,13386.0,[0],1,0.24704705738176932,0.453723431585511,0.8270457250652795
1,64353.0,[1 3 6],3,0.18535605142772357,0.1442142367609994,0.17475697881157035
1,51106.0,[2 4],2,0.1980203076487455,0.523516644404952,0.5870673878659264
1,9363.0,[5],1,0.22607934410727404,0.418876674964467,0.39630201044865254
1,8334.0,[11],1,0.383563067763564,0.13425772092078797,0.15374137552292097
1,8632.0,[7],1,0.21410482031844066,0.17492105561123725,0.6862163834367807
1,12913.0,[8],1,0.4114989945677843,0.41000484271173593,0.6415670780831182
1,6331.0,[9],1,0.4150332144841008,0.15415920082964582,0.7367793573461678
2,17816.0,[0],1,0.2661448741946381,0.4519237753648682,0.8168700239918474
2,99748.0,[1 3 6],3,0.18307598068481223,0.147213546009247,0.16793715485964467
2,72947.0,[2 4],2,0.20399087655298032,0.5323355387197092,0.5738681038309401
2,19143.0,[5],1,0.22264693815382536,0.4332599277218876,0.4000321923602283
2,13031.0,[11],1,0.38147727243332247,0.14092933974709154,0.14946993797042823
2,20178.0,[7 9],2,0.3053753615295759,0.17072562115722104,0.7022004162949745
2,19052.0,[8],1,0.4091803154937189,0.4128940275863229,0.6395993592965785
2,8082.0,[10],1,0.44555650092172766,0.23354759641278738,0.41968431593979155
3,23091.0,[0],1,0.272085918975191,0.44667458732526266,0.8207054609828262
3,129887.0,[1 3 6],3,0.18382251538783867,0.1477449925408544,0.1688219122384999
3,103281.0,[2 4],2,0.2070511571518268,0.5446241727473639,0.5743945060127171
3,22660.0,[5],1,0.22211450162143054,0.4310281237894045,0.4023325345919233
3,18148.0,[11],1,0.3961343435869351,0.14722188700847819,0.14986275920874273
3,14564.0,[7],1,0.224620273477161,0.17749330152697831,0.6838751499410618
3,23358.0,[8],1,0.4155654391681523,0.4216505705603782,0.641465817904363
3,13115.0,[9],1,0.42981884539102583,0.16221348564646473,0.731984577070915
3,11893.0,[10],1,0.4663538272442363,0.24042366074876473,0.4076629268737552
4,27291.0,[0],1,0.29314903583886803,0.44816661750654413,0.8228213711512452
4,151258.0,[1 3 6],3,0.1873029949126323,0.14849313680518003,0.1706537872826091
4,136628.0,[2 4],2,0.21872013336960383,0.5550439036034913,0.5711769470373378
4,28265.0,[5],1,0.2252585382724101,0.430304375284658,0.40465235755932577
4,24753.0,[11],1,0.4062661795165429,0.15028065522658007,0.14838065566640266
4,16299.0,[7],1,0.2300298288100681,0.17599190634075468,0.6784560955889593
4,29951.0,[8],1,0.4251484915999439,0.43758859681975354,0.6455480477058291
4,19158.0,[9],1,0.4431008960377937,0.16505450743259492,0.7354195715339634
4,16394.0,[10],1,0.47800908252265345,0.24058927584697362,0.4019400600958639
5,31358.0,[0],1,0.30631718802290625,0.45047771913840795,0.822720118024869
5,167872.0,[1 3 6],3,0.1916148994739737,0.14806251730471726,0.1719738397565814
5,162399.0,[2 4],2,0.22862864946793712,0.5634887680554509,0.5675694940412204
5,31313.0,[5],1,0.22909341957624654,0.4353296153145325,0.40345073241032403
5,17689.0,[7],1,0.2346948938621808,0.17549163283468072,0.6756723850754202
5,40173.0,[8],1,0.44814402428596717,0.4585128594845405,0.6578249239078771
5,26856.0,[9],1,0.4728891583242096,0.16299234428768328,0.7280044838661086
5,25913.0,[10],1,0.5082809504751644,0.2310005565088744,0.39624958863120624
5,36424.0,[11],1,0.432866834313465,0.14907349388250837,0.14744234203738518
6,32823.0,[0],1,0.30976860224417324,0.45123215386849086,0.8208630253908727
6,183337.0,[1 3 6],3,0.1963880170813361,0.14825301190397475,0.17352718950885115
6,182952.0,[2 4],2,0.23759959633299435,0.5689753960141577,0.5635477269537539
6,36857.0,[5],1,0.23714200007133532,0.44315267874604614,0.40361339343600744
6,19036.0,[7],1,0.24052369136184484,0.17533912881427807,0.6712088360536876
6,54272.0,[8],1,0.46569354777267663,0.47331409361526783,0.6661664777860539
6,36639.0,[9],1,0.4931067803663445,0.16261252783208424,0.7142595324964096
6,36619.0,[10],1,0.518165586662048,0.22707054135410856,0.3964535552423879
6,47462.0,[11],1,0.4420112553673907,0.14929788555779142,0.14933677102272522
