time,power,pcore_ids,pcore_power,SCA-1,CD11b,Ly6C
-1,0,[],0,0.0,0.0,0.0
0,58940.0,[0 2 3 4 5],5,254.99458771632058,326.7279097387173,559.2001866304713
0,31060.0,[1],1,162.59584674823324,123.66403734706996,180.57321313586587
1,121054.0,[0 2 3 4 5],5,238.0605101855372,349.8809456936587,560.3655889107305
1,58946.0,[1],1,159.70676551420166,124.31131883418644,176.83693550028954
2,178138.0,[0 2 3 4 5],5,241.79206570187114,355.88266400206646,543.8718184778063
2,91862.0,[1],1,157.73045437722112,126.86370860638662,171.6625155123962
3,241489.0,[0 2 3 4 5],5,246.8338557863907,360.8929557868031,542.5628910633479
3,118511.0,[1],1,157.35391651408176,127.00458185315956,172.50386883917756
4,313833.0,[0 2 3 4 5],5,258.3401713650235,365.8877842674247,537.6762705005353
4,136167.0,[1],1,159.1590473462772,127.21339972239913,172.3340677256606
5,390281.0,[0 2 3 4 5],5,279.63794291804925,362.3594128333151,529.730745283523
5,149719.0,[1],1,161.93951335502206,126.71914720242583,171.9910298626108
6,468319.0,[0 2 3 4 5],5,297.07165842085965,357.9432224616118,522.7873863755246
6,161681.0,[1],1,164.7926039547048,126.71957743952535,172.01281535863941
