time,power,pcore_ids,pcore_power,SCA-1,CD11b,Ly6C
-1,0.0,[],0,0.0,0.0,-0.04788418708240535
0,9439.0,[0],1,0.256756988397409,0.12766590333069838,0.22355089331072334
0,10473.0,[1],1,0.13854394982496968,0.13885792511923595,0.1612463228703272
0,8793.0,[2],1,0.195926407241718,0.13229221825464837,0.05124533409725364
0,8403.0,[3],1,0.31112630989199835,0.18966279011535994,0.7619154204922555
0,6362.0,[5],1,0.16433670423759314,0.20397446091826335,0.2861862856366696
0,10808.0,[7],1,0.2528700130573269,0.5592119420506332,0.733375343513589
0,7225.0,[8],1,0.42690128688619544,0.40972114797476,0.6424132058168487
0,18357.0,[9],1,0.19399402487371467,0.465772115979283,0.5462829943075332
1,17016.0,[0],1,0.2562106781192048,0.12740876566532092,0.22146024231877198
1,20559.0,[1],1,0.1346647166745694,0.13744346642562139,0.16373919116593186
1,17962.0,[2],1,0.19424090057787652,0.13392450930848987,0.050836596635957194
1,14566.0,[3],1,0.2861742059004554,0.20401621764687178,0.7636826707220378
1,7825.0,[4],1,0.42641174570125523,0.1803004062278637,0.21405352327145155
1,11831.0,[5],1,0.1675029132188469,0.21835466760191036,0.29057086258797976
1,8926.0,[6],1,0.3451532827971277,0.19317036609711014,0.48949454235693013
1,24134.0,[7],1,0.2385700904034883,0.5622663169850697,0.73214506865251
1,14289.0,[8],1,0.41736489371488594,0.406331690769946,0.6315809613232188
1,42843.0,[9],1,0.18763654178163927,0.48359141020307617,0.5404346797471958
2,25758.0,[0],1,0.2564199973652783,0.130596864164506,0.21794361982550914
2,32567.0,[1],1,0.12988652951582136,0.14037309371407863,0.16358546229486393
2,29926.0,[2],1,0.19312311191576093,0.13752731851689706,0.050095357710117014
2,19397.0,[3],1,0.29372959909820245,0.20955449331274467,0.7570552262059673
2,11635.0,[4],1,0.4264102403152023,0.18729482933962385,0.20793052986008173
2,17463.0,[5],1,0.17266052720133548,0.23423583618163057,0.2897617323142127
2,12663.0,[6],1,0.3487209041292534,0.19598802654114258,0.49065442751245364
2,30930.0,[7],1,0.25133065966281226,0.5658748846102674,0.7245886789409471
2,21473.0,[8],1,0.41392268419655426,0.409330732712214,0.6359087503787052
2,68139.0,[9],1,0.1951576676295072,0.49488922331308616,0.5226092929195422
3,34877.0,[0],1,0.2556919614452462,0.13162566002799586,0.21780823387414433
3,42531.0,[1],1,0.12895468975835597,0.14110351874294297,0.16517264310130805
3,38056.0,[2],1,0.19309388529736315,0.13799228476824452,0.050337434974504484
3,26734.0,[3],1,0.29667641172331594,0.21327853899672577,0.763610747006341
3,17498.0,[4],1,0.44836931604382174,0.19570084027702678,0.2061914934726235
3,21806.0,[5],1,0.1753983286735883,0.23450481477346788,0.29185118335465327
3,16705.0,[6],1,0.36487958594109865,0.19129788816039742,0.49493030173140756
3,44101.0,[7],1,0.2543581141246486,0.5788850480093968,0.710135430671914
3,27020.0,[8],1,0.4262552083766436,0.4121879301740636,0.6404086554709106
3,90623.0,[9],1,0.19567785889610725,0.5037465017795584,0.5251791072473753
4,43286.0,[0],1,0.2590116585428409,0.13217518000344206,0.21796029145558674
4,47601.0,[1],1,0.12824296250976394,0.14139347047825232,0.16574692498880383
4,44074.0,[2],1,0.1959075976919328,0.1382561917154145,0.050127503723490514
4,32675.0,[3],1,0.3133139619851579,0.2110471633771519,0.7654168832208877
4,24661.0,[4],1,0.45954637012723826,0.19724917849844814,0.2038567248052866
4,26045.0,[5],1,0.1792818824808438,0.2397363942845187,0.2949035441058167
4,21648.0,[6],1,0.38022117931853344,0.1871641554882223,0.4980213379654543
4,57840.0,[7],1,0.2683504087214601,0.5910156470024991,0.6914581388793613
4,36298.0,[8],1,0.4392912352864285,0.42335587964783433,0.6554563615388045
4,115823.0,[9],1,0.20329730166535986,0.5121645182344976,0.5236065217937514
5,51674.0,[0],1,0.2634228284234828,0.13175987836728698,0.2177817408141987
5,50660.0,[1],1,0.12830373896033637,0.14122010278799507,0.16608874218885458
5,49024.0,[2],1,0.19967168110276876,0.13794977046979726,0.050040487419097515
5,37597.0,[3],1,0.32615610317939736,0.209189244063351,0.7651501360726635
5,39019.0,[4],1,0.488934345151924,0.1903515737025194,0.20196936207938468
5,28139.0,[5],1,0.182217730519963,0.2415252642867457,0.2954436103115502
5,30522.0,[6],1,0.4209881397025098,0.17762656770681715,0.5061130100176756
5,70355.0,[7],1,0.2798088027092124,0.5985262683655721,0.6785647841624979
5,49614.0,[8],1,0.46226420777389876,0.4369473511983092,0.6710457291537788
5,133347.0,[9],1,0.2101091239271597,0.5204466033181698,0.5208555878033492
6,60328.0,[0],1,0.26844640683365334,0.13214193404861901,0.21778235918330804
6,53000.0,[1],1,0.12844776340895234,0.14129970972423808,0.16632581838046878
6,53248.0,[2],1,0.20339636114412424,0.13809897731166249,0.050167447760514614
6,41181.0,[3],1,0.3346762674725311,0.20774168138208143,0.7615374605961605
6,52634.0,[4],1,0.49633669098412264,0.18839301265444783,0.203768609940157
6,30457.0,[5],1,0.18628134046416223,0.24476344291937893,0.2954804732920371
6,43434.0,[6],1,0.4517951555582445,0.17229954346918666,0.5165976937796672
6,80283.0,[7],1,0.2899100471408216,0.6051641808054223,0.6681267161069863
6,65064.0,[8],1,0.47871343962797847,0.44756894082151144,0.6766847793791088
6,150322.0,[9],1,0.21810305637531152,0.5245990116179429,0.5162370968524105
