time,power,pcore_ids,pcore_power,SCA-1,CD11b,Ly6C
-1,0,[],0,0.0,0.0,0.0
0,6039.0,[0],1,233.55290611028354,404.0385825467787,791.5683060109292
0,37603.0,[1 3 6],3,183.62612025636383,125.20897268834958,198.88508895566812
0,22462.0,[2 4],2,183.51807497106373,447.45249755142254,574.5856112545616
0,4204.0,[5],1,218.7547573739295,362.0620837297812,384.16412940056983
0,4328.0,[7],1,197.82370609981547,147.28812384473207,622.2315157116451
0,6616.0,[8],1,375.73367593711544,364.74803506650494,626.2188633615469
0,5192.0,[9],1,361.7041602465299,137.1423343605547,708.355546995377
1,13864.0,[0],1,217.79082515868473,396.81390652048606,784.7398297749569
1,70284.0,[1 3 6],3,179.4209919754163,125.07055659894179,194.21731830857675
1,52537.0,[2 4],2,176.14856196585552,460.5313398176556,567.376782077391
1,8522.0,[5],1,212.07756395212397,363.11077211922,381.09504811077227
1,8250.0,[7],1,191.90775757575906,149.6423030303033,627.178181818183
1,13339.0,[8],1,368.29829822324626,359.61248969188085,613.2437963865365
1,7325.0,[9],1,356.1867576791766,139.08354948805484,706.7436177474381
1,5875.0,[10],1,414.38434042552825,178.64289361702177,364.1109787234047
2,18475.0,[0],1,235.37098782137903,395.743166441138,775.4811366711778
2,109087.0,[1 3 6],3,177.67028151842413,127.96306617653825,188.19677871790432
2,76165.0,[2 4],2,181.44398345697067,467.6768069323186,554.3242828070594
2,16884.0,[5],1,206.33392561004595,374.18988391376473,385.64599620942914
2,21134.0,[7 9],2,273.9718463139947,149.15543673701166,660.6431816031028
2,19568.0,[8],1,366.5803863450447,362.0150245298434,610.5507972199478
2,8683.0,[10],1,410.4361395830909,184.72578601865712,363.2371300241862
3,23945.0,[0],1,240.3898517435772,391.1250365420759,778.9004802672706
3,142250.0,[1 3 6],3,179.0229244288251,128.6919156414769,188.80816871704818
3,107219.0,[2 4],2,184.12275809324893,478.54982792228896,555.3293725925298
3,19949.0,[5],1,206.05193242769244,371.4405734623303,387.6607850017539
3,13750.0,[7],1,200.34109090909246,151.23301818181795,625.0421090909097
3,24041.0,[8],1,372.84226945633804,369.31483715319735,612.0163470737441
3,15044.0,[9],1,368.85761765487405,146.15993086944962,702.4766684392433
3,13798.0,[10],1,428.5566748804157,192.3151181330618,348.2124220901585
4,28262.0,[0],1,259.3643761941796,393.0223267992367,780.7972188804581
4,167629.0,[1 3 6],3,184.271904026156,129.2590422898191,189.42628662105065
4,141618.0,[2 4],2,194.35092996652824,487.7096273072579,552.749120874437
4,24950.0,[5],1,208.37006012024085,369.5001603206423,389.9872144288594
4,15584.0,[7],1,205.6847407597548,149.9228696098561,620.1103696098586
4,30716.0,[8],1,381.6524287016487,382.852226852456,615.4044146373169
4,21387.0,[9],1,382.99794267545354,147.9206059755925,703.8036190209008
4,19850.0,[10],1,437.5514357682611,192.76846347606954,340.36750629722997
5,32543.0,[0],1,271.65802169436887,395.5914636020062,780.7391758596108
5,189762.0,[1 3 6],3,191.67926139058656,128.66902751868216,189.4600657665918
5,167952.0,[2 4],2,203.02485829284396,495.32220515384444,549.8159652757607
5,27689.0,[5],1,211.78944707284487,373.16865903427606,389.04416916465226
5,17116.0,[7],1,210.7560177611604,149.2048375788736,616.5440523486826
5,41127.0,[8],1,402.15892236243207,400.7443771731472,626.1521871276688
5,29719.0,[9],1,411.1247686665069,145.7275480332441,694.8639254349049
5,34088.0,[10],1,464.67460689978896,182.28622975827088,324.51595869514176
6,34244.0,[0],1,275.36096834481515,396.6569618035305,778.9311412217971
6,210949.0,[1 3 6],3,198.8271477940185,128.7558367188287,189.97251468364357
6,189403.0,[2 4],2,210.91238259161346,500.15808619714926,546.2208307154374
6,32574.0,[5],1,218.51261742494108,379.72284644194923,389.72128077608096
6,18791.0,[7],1,217.57719120855842,149.04491511893994,611.5463785854951
6,55435.0,[8],1,417.61737169657584,414.0670875800482,633.7731757914561
6,40552.0,[9],1,431.3417833892241,145.05686525941795,679.9672765831515
6,48048.0,[10],1,470.34105477855474,179.76138444888235,323.4837870462881
