time,power,pcore_ids,pcore_power,SCA-1,CD11b,Ly6C
-1,0.0,[],0,0.0,0.0,-0.04788418708240535
0,46254.0,[0 2 4 5],4,0.26673670008740125,0.41129212843423923,0.6483253648417379
0,41326.0,[1 3 6],3,0.22882857433386786,0.14571321550334973,0.19099857539923404
1,98255.0,[0 2 4 5],4,0.24813791675981858,0.4346125178482172,0.6376124735203883
1,76394.0,[1 3 6],3,0.22072830297573529,0.14550451535069936,0.1842986013255747
2,141441.0,[0 2 4 5],4,0.2529331045167602,0.4424399524979817,0.6216431717009351
2,117859.0,[1 3 6],3,0.21708917845176423,0.148622669722034,0.17662425739140042
2,10699.0,[7],1,0.3098006639284773,0.4488852512540817,0.35305247810558604
3,191351.0,[0 2 4 5],4,0.2559006247651598,0.4513618348560372,0.6224272855586216
3,155520.0,[1 3 6],3,0.2228622858579584,0.15024109744800118,0.17779562866039778
3,13128.0,[7],1,0.32761504700477156,0.4479168390039183,0.3564252234975402
4,246542.0,[0 2 4 5],4,0.2685745364716203,0.46072683236884937,0.6194715053632756
4,186397.0,[1 3 6],3,0.2331740944617883,0.15157331440942115,0.18010823534646683
4,17060.0,[7],1,0.3381369126809511,0.44838459416591925,0.36299846996190493
5,238116.0,[0 2 5],3,0.31100932582948276,0.47509252306320476,0.6481353476310807
5,221537.0,[1 3 6],3,0.2568290390835893,0.15191725018937535,0.18409805666954648
5,80346.0,[4 7],2,0.23541052923633385,0.4313711129230348,0.472059622755194
6,223425.0,[0 2],2,0.30587995619775077,0.5544055295059325,0.6342212861971429
6,255157.0,[1 3 6],3,0.27363845560079003,0.15294657905326225,0.18821143640520327
6,90986.0,[4 7],2,0.24826176492889174,0.4375696678709377,0.4676255658314431
6,60431.0,[5],1,0.4220582709335676,0.16711451173774253,0.6812942324215019
