time,power,pcore_ids,pcore_power,SCA-1,CD11b,Ly6C
-1,0,[],0,0.0,0.0,0.0
0,6871.0,[0],1,234.20084412749165,113.12385387862008,257.24625236501305
0,7882.0,[2],1,196.5157320477039,117.05328596802859,167.0052017254505
0,9952.0,[3],1,165.41589630225332,458.00361736334565,564.0861133440502
0,7490.0,[6],1,144.5216288384547,117.88571428571431,83.98104138851824
0,8287.0,[9],1,105.66634487752296,123.62278267165452,226.019910703512
0,8652.0,[14],1,171.73474341192957,345.87066574202623,521.9865926953293
1,12291.0,[0],1,233.36839964201346,114.81954275486135,258.082011227728
1,14216.0,[1],1,222.9383089476645,554.9686972425421,636.2590742824964
1,14741.0,[2],1,199.55030187911362,116.00922596838764,163.37785767586973
1,24781.0,[3],1,158.3169767160358,470.6749525846436,553.9701787659885
1,8312.0,[5],1,191.43503368623863,160.16999518768083,688.844321462946
1,15059.0,[6],1,141.81658808686223,117.66405471810853,83.60249684574045
1,16585.0,[9],1,106.71341573711683,124.33059993970473,224.59837202291175
1,6316.0,[10],1,185.03736542115402,155.99081697276665,375.45614312856145
1,12918.0,[11],1,223.6813748258248,394.84471280384065,785.240981576095
1,12246.0,[13],1,367.3144700310226,353.81128531765455,618.53446023191
1,18105.0,[14],1,167.39359293013337,348.3752554542948,514.6678265672446
2,18429.0,[0],1,234.16946117532194,118.91176949373263,257.60312550870935
2,19905.0,[1],1,231.8025621703082,556.9494096960582,626.51127857322
2,23149.0,[2],1,202.43993261048118,118.39582703356521,160.13032960386988
2,37547.0,[3],1,163.34245079500616,477.11849149066296,538.1592670519555
2,8173.0,[4],1,365.5569558301673,184.42310045271012,412.53419796892314
2,10746.0,[5],1,200.4849246231172,162.42573981016227,680.9212730318252
2,24878.0,[6],1,138.893640967927,120.7846691856263,82.90401157649394
2,8232.0,[7],1,373.5232021379918,136.52052964042736,690.775145772596
2,7104.0,[8],1,190.00154842342442,290.9465090090091,248.92820945945905
2,26234.0,[9],1,105.1287641991359,127.28779446519796,221.89757566516687
2,8331.0,[10],1,186.02868803265017,159.88368743248128,376.9684311607247
2,17324.0,[11],1,240.3648118217493,393.21929115677824,776.0133341029779
2,7849.0,[12],1,393.27812460185686,130.87476111606563,184.62581220537598
2,18005.0,[13],1,365.5609552901898,356.20683143571017,617.5281310746968
2,26646.0,[14],1,168.58597913383267,355.07858590407574,499.9022742625562
2,7416.0,[15],1,289.95536677454083,441.4507820927731,405.1792071197407
3,24927.0,[0],1,233.86195691418945,120.6495366470091,258.0221446624146
3,31915.0,[1],1,232.88419238602413,560.8596898010376,617.6254425818497
3,30127.0,[2],1,203.1057191223835,118.83098217545717,159.62465562452226
3,52252.0,[3],1,163.15568782056482,481.42451963561115,538.9533989129436
3,11164.0,[4],1,375.7376388391224,186.4037979218912,411.29290576854146
3,14382.0,[5],1,203.25323320817816,163.15018773466883,687.2862606035318
3,31223.0,[6],1,138.56602504564287,121.4048618005963,82.62367485507514
3,12037.0,[7],1,395.8435656725045,136.28661626651152,687.4390628894255
3,8508.0,[8],1,192.72484720263415,287.358133521392,250.0091678420303
3,34831.0,[9],1,105.68551003417072,128.2329246935204,221.387384800895
3,10457.0,[10],1,186.93812757004963,161.23419718848635,375.75317968824675
3,22391.0,[11],1,245.37921486311296,389.3553659952677,779.8369880755627
3,12122.0,[12],1,410.88929219600567,141.25779574327663,187.65203761755478
3,21970.0,[13],1,371.50564406007595,363.35725989986213,619.8099226217512
3,32371.0,[14],1,168.0469865002663,356.9334898520305,497.6211732723757
3,9291.0,[15],1,299.23528145517076,444.19481218383396,406.3318264987627
4,31134.0,[0],1,237.0150960364873,121.35408235369663,258.76925547632845
4,48325.0,[1],1,245.76612519399674,560.4550646663246,604.8089187790886
4,35618.0,[2],1,206.25400078612157,118.86428210455342,157.84336571396486
4,65792.0,[3],1,167.02118798638293,485.1116701118636,536.3417892752732
4,14988.0,[4],1,383.1671337069629,186.59374165999387,409.9256738724321
4,15925.0,[5],1,207.87158555730107,162.04540031397235,683.6661224489804
4,35142.0,[6],1,139.08479881623487,121.67517500426892,81.98699561777954
4,17877.0,[7],1,406.7329529563077,139.21015830396578,691.7463780276354
4,10367.0,[8],1,195.5510755281197,286.7717758271451,251.89042152985382
4,39276.0,[9],1,105.62445259191902,128.65467461044918,221.41361136571805
4,12422.0,[10],1,188.85316374174886,163.44606343583996,376.378924488809
4,26738.0,[11],1,264.92456429052004,390.12476625028256,782.0148103822133
4,17487.0,[12],1,419.5635043174919,144.28209527077303,187.65139818150593
4,27646.0,[13],1,380.33730015191696,375.3908341170495,624.4025537148191
4,37687.0,[14],1,169.91103032876333,357.9421020511076,494.1442407196163
4,13544.0,[15],1,300.9924689899579,450.934435912579,417.7598936798597
5,37232.0,[0],1,241.36635152556883,120.90999677696581,258.8782767511826
5,62751.0,[1],1,255.34136507784513,560.9595066214067,596.2775892017422
5,40898.0,[2],1,210.07257078586002,118.34339087485989,155.85864834466202
5,74117.0,[3],1,168.5918210397094,488.2372060390884,533.8470121564334
5,22276.0,[4],1,407.90792781468684,182.22867660262136,411.6554587897288
5,17230.0,[5],1,212.06807893209654,161.8827045850267,681.8593731863034
5,37735.0,[6],1,139.85684377898815,121.5772889890025,81.57151185901716
5,25570.0,[7],1,433.99956980836544,138.08654673445454,685.5131403989074
5,11502.0,[8],1,197.6870109546181,287.2731698834994,251.81072856894414
5,41815.0,[9],1,105.91464785364593,128.3999521702741,221.4183187851234
5,13673.0,[10],1,191.58085277554355,162.60491479558277,377.37819059460287
5,30872.0,[11],1,276.764867841405,392.4045089401434,781.937548587698
5,29011.0,[12],1,444.5283513150177,143.26003929544004,189.65268346489182
5,36516.0,[13],1,401.9986307372058,391.84335633694667,637.9260050388797
5,38784.0,[14],1,170.55504847360004,358.291821369639,493.5038675742627
5,19986.0,[15],1,305.5300710497342,466.15155608926153,428.44245972180664
6,43777.0,[0],1,246.36149119400469,121.04931813509275,258.90001599013283
6,73147.0,[1],1,262.7909688709016,563.6764597317726,590.9761849426201
6,45905.0,[2],1,213.85348001307156,118.40108920596896,154.09031695893705
6,79026.0,[3],1,169.81644015893724,489.2314554703369,531.7508541492466
6,31572.0,[4],1,421.1402508551875,181.0286012922843,413.3473014063117
6,18322.0,[5],1,216.48040606920785,161.83800895098858,678.4972710402776
6,39661.0,[6],1,140.59264768916918,121.76341998436752,81.37580998966263
6,35236.0,[7],1,450.50502327164884,138.5942218185934,674.9239130434818
6,13053.0,[8],1,201.79361066421643,288.40565387267327,252.9999999999998
6,43764.0,[9],1,106.25751759437439,128.50404442007147,221.4481994333222
6,14725.0,[10],1,194.5215619694402,161.84135823429529,378.40298811544994
6,32332.0,[11],1,279.7384634417872,393.27833106520245,780.2814239762263
6,39263.0,[12],1,449.3134248529119,143.41863841275583,191.8336856582518
6,49094.0,[13],1,418.8141320731608,404.8382694422926,648.1322361184598
6,40283.0,[14],1,171.56584663506007,359.18968299282795,492.3029317578184
6,30808.0,[15],1,308.2504868865199,474.76090625811486,438.1854388470555
