time,power,pcore_ids,pcore_power,SCA-1,CD11b,Ly6C
-1,0.0,[],0,0.0,0.0,-0.04788418708240535
0,6039.0,[0],1,0.2624189956295321,0.45705722007554156,0.8335949955578277
0,37603.0,[1 3 6],3,0.20632148343411666,0.14163910937596105,0.17359141309094442
0,22462.0,[2 4],2,0.20620008423715025,0.5061679836554555,0.5919661595262379
0,6616.0,[8],1,0.42217266959226446,0.41261089939649886,0.6494642130974909
1,13864.0,[0],1,0.24470879231312898,0.4488845096385589,0.8259909017538494
1,70284.0,[1 3 6],3,0.20159662019709695,0.14148253008930067,0.1683934502322681
1,52537.0,[2 4],2,0.19791973254590509,0.5209630540923706,0.5839385101084532
1,8522.0,[5],1,0.23828939769901572,0.41075879199006793,0.37649782640397805
1,8250.0,[7],1,0.21562669390534722,0.16927862333744717,0.6505324964567739
1,13339.0,[8],1,0.41381831261038915,0.40680145892746694,0.6350153634593947
1,7325.0,[9],1,0.40020984008896254,0.15733433200006203,0.7391354317900202
1,5875.0,[10],1,0.46560038250059355,0.20208472128622368,0.3575846088233905
2,18475.0,[0],1,0.2644617840689652,0.44767326520490724,0.8156805530859441
2,109087.0,[1 3 6],3,0.19962952979598214,0.1447545997472152,0.1616890631602498
2,76165.0,[2 4],2,0.2038696443336749,0.5290461616881432,0.5694034329699993
2,16884.0,[5],1,0.23183587147196177,0.42329172388434927,0.3815656973378943
2,21134.0,[7 9],2,0.30783353518426365,0.16872786961200414,0.687798643210582
2,19568.0,[8],1,0.41188807454499404,0.4095192585179223,0.6320164779732158
2,8683.0,[10],1,0.46116420177875384,0.20896582128807367,0.3566115033676906
3,23945.0,[0],1,0.27010095701525527,0.4424491363598143,0.8194882853755797
3,142250.0,[1 3 6],3,0.20114935329081474,0.14557909009216843,0.16236989834860596
3,107219.0,[2 4],2,0.20687950347556056,0.5413459591881097,0.5705226866286524
3,19949.0,[5],1,0.23151902519965445,0.4201816441881565,0.3838093374184341
3,13750.0,[7],1,0.22510234933605897,0.17107807486630994,0.6481537963150443
3,24041.0,[8],1,0.4189238982655484,0.41777696510542695,0.6336484934006059
3,15044.0,[9],1,0.41444676140997083,0.16533928831385705,0.7343838178610728
3,13798.0,[10],1,0.48152435379821984,0.21755103861206088,0.33988020277300496
4,28262.0,[0],1,0.2914206474091906,0.4445953923068288,0.8216004664593075
4,167629.0,[1 3 6],3,0.20704708317545617,0.14622063607445598,0.16305822563591388
4,141618.0,[2 4],2,0.21837183142306543,0.5517077231982555,0.5676493550940279
4,24950.0,[5],1,0.23412366305645038,0.41798660669755916,0.3864000160677722
4,15584.0,[7],1,0.23110645029185933,0.16959600634599106,0.642661881525455
4,30716.0,[8],1,0.4288229535973581,0.4330907543579819,0.6374213971462326
4,21387.0,[9],1,0.43033476705107154,0.16733100223483316,0.7358614911145889
4,19850.0,[10],1,0.49163082670591135,0.21806387271048594,0.3311442163666259
5,32543.0,[0],1,0.3052337322408639,0.4475016556583781,0.8215358305786311
5,189762.0,[1 3 6],3,0.2153699566186366,0.14555319855054544,0.163095841610904
5,167952.0,[2 4],2,0.2281178183065663,0.5603192365993717,0.5643830348282413
5,27689.0,[5],1,0.23796567086836504,0.4221364921202218,0.3853498543036217
5,17116.0,[7],1,0.23680451433838245,0.16878375291727782,0.6386904814573303
5,41127.0,[8],1,0.4518639577105979,0.4533307434085376,0.6493899633938405
5,29719.0,[9],1,0.46193794232191787,0.1648501674584209,0.7259063757627003
5,34088.0,[10],1,0.5221062998874033,0.20620614226048742,0.3134921589032759
6,34244.0,[0],1,0.3093943464548485,0.4487069703659847,0.8195224289775024
6,210949.0,[1 3 6],3,0.22340128965620057,0.1456513990031999,0.16366649742053851
6,189403.0,[2 4],2,0.23698020515911622,0.5657896902682684,0.560379544226545
6,32574.0,[5],1,0.24551979485948439,0.42955073126917326,0.38610387614262914
6,18791.0,[7],1,0.24446875416691954,0.1686028451571719,0.6331251431909746
6,55435.0,[8],1,0.46923300190626493,0.46840168278286,0.6578765877410425
6,40552.0,[9],1,0.48465368920137536,0.16409147653780315,0.7093176799366943
6,48048.0,[10],1,0.5284730952568031,0.20334998240823798,0.31234274726758143
