time_in_hour,cumulative_size,size,pcore_ids,pcore_power,SCA-1,CD11b,Ly6C
-1,0,0,[],0,0.0,0.0,0.0
0,16750,16750,"[0,8]",2,NA,NA,NA
0,44420,44420,"[1,5,7]",3,NA,137.8064385411983,NA
0,14598,14598,[2],1,NA,NA,NA
0,4410,4410,[3],1,NA,NA,NA
0,3401,3401,[4],1,NA,NA,NA
0,6446,6446,[6],1,NA,NA,NA
24,28192.5,24005.0,"[0,8]",2,NA,NA,NA
24,47538.0,36433.0,"[1,5,7]",3,NA,NA,NA
24,20343.5,16694.0,[2],1,NA,NA,NA
24,3952.5,2850.0,[3],1,NA,NA,NA
24,3907.25,3057.0,[4],1,NA,NA,NA
24,8572.5,6961.0,[6],1,NA,NA,NA
48,15031.25,10582.0,"[0,6]",2,NA,NA,NA
48,58933.625,46061.0,"[1,3,5,7]",4,NA,NA,NA
48,41175.875,31348.0,"[2,8]",2,NA,NA,NA
48,2985.8125,2009.0,[4],1,NA,NA,NA
72,7230.03125,5355.0,[0],1,NA,NA,NA
72,51948.125,38395.0,"[1,5,7]",3,NA,142.8403726072882,NA
72,45391.96875,35098.0,"[2,8]",2,NA,NA,NA
72,6542.28125,5362.0,[3],1,NA,NA,NA
72,2916.453125,2170.0,[4],1,NA,NA,NA
72,5502.78125,3620.0,[6],1,NA,NA,NA
96,7213.5078125,5406.0,[0],1,NA,NA,NA
96,34838.55859375,23654.0,"[1,7]",2,NA,144.24200399364372,NA
96,52098.9921875,40751.0,"[2,8]",2,NA,NA,NA
96,16028.04296875,12590.0,"[3,5]",2,NA,NA,NA
96,3781.11328125,3052.0,[4],1,NA,NA,NA
96,5922.6953125,4547.0,[6],1,NA,NA,NA
120,17193.05078125,13909.0,"[0,6]",2,NA,NA,NA
120,28294.6396484375,19585.0,"[1,7]",2,NA,NA,NA
120,43452.748046875,30428.0,"[2,8]",2,NA,NA,NA
120,24913.0107421875,20906.0,"[3,5]",2,NA,NA,NA
120,6117.2783203125,5172.0,[4],1,NA,NA,NA
144,18479.2626953125,14181.0,"[0,6]",2,NA,NA,NA
144,26940.659912109375,19867.0,"[1,7]",2,NA,NA,NA
144,39311.18701171875,28448.0,"[2,8]",2,NA,NA,NA
144,25728.252685546875,19500.0,"[3,5]",2,NA,NA,NA
144,9533.319580078125,8004.0,[4],1,NA,NA,NA
