time_in_hour,cumulative_size,size,pcore_ids,pcore_power,SCA-1,CD11b,Ly6C
-1,0,0,[],0,0.0,0.0,0.0
0,16679,16679,[1],1,206.52449187601363,152.67264224473922,NA
0,18685,18685,[2],1,184.42001605566136,132.08793149585253,NA
0,5903,5903,[3],1,286.42012535998515,NA,NA
0,7290,7290,[5],1,274.51303155006616,NA,NA
0,8942,8942,[8],1,229.5270632968019,NA,NA
0,20011,20011,[9],1,220.6740792564087,NA,NA
24,13788.875,11704.0,[1],1,196.58498245868574,160.12592579162649,NA
24,23911.625,21576.0,[2],1,176.6509804331614,135.3985300037112,NA
24,19649.25,18106.0,"[4,8]",2,215.99414099774785,NA,NA
24,9426.25,8515.0,[5],1,237.43949078371455,NA,NA
24,24172.375,21671.0,[9],1,195.03439877132675,NA,NA
48,14304.609375,12581.0,[1],1,187.66648206707956,143.76530620047166,259.7191879802739
48,26864.953125,23876.0,[2],1,156.40524219228828,128.0856453895267,133.10403947522184
48,5604.984375,5076.0,[3],1,293.1755106364562,168.31600779440208,663.823039760925
48,12519.9375,11274.0,[4],1,168.78017561988872,389.28994753368534,451.04329469495826
48,9498.28125,8320.0,[5],1,306.804717958838,386.4851502738975,710.9263402918288
48,8977.21875,7767.0,[8],1,267.14466653438666,418.3463802472231,518.7781363242359
48,16349.546875,13328.0,[9],1,198.92242904285538,521.9251030466258,548.5726888455417
72,7378.25390625,6763.0,[0],1,432.11357277218053,184.7991315272442,256.7119822133575
72,16985.076171875,15197.0,[1],1,179.2786758228378,134.91145374748191,250.24307506164288
72,18003.119140625,14645.0,[2],1,153.86486174216978,124.86707663613436,124.85759856934416
72,10439.9921875,8875.0,[4],1,152.36100062934435,400.2392579915441,485.5884124599002
72,8582.28515625,7395.0,[5],1,304.576186867478,335.9421214210763,749.701644011441
72,8578.15234375,7456.0,[8],1,316.4517141794145,407.1253611668815,580.901679275159
72,23471.693359375,21428.0,[9],1,197.4601651573832,541.7806322059994,575.9448265767599
96,7809.28173828125,6887.0,[0],1,440.28510844685894,175.96302839500936,225.7542796223115
96,14415.134521484375,12292.0,[1],1,197.7240476915085,140.32093573460762,252.0955809333348
96,11934.389892578125,9684.0,[2],1,169.0455857271907,124.03236533258287,116.8517444447905
96,12757.9990234375,11453.0,[4],1,181.42021744783412,410.7354790664047,476.19077199269043
96,6083.78564453125,5011.0,[5],1,362.5190119773519,350.9360799345531,777.7407748792414
96,8921.26904296875,7849.0,[8],1,387.94574628782107,454.1695695838362,629.3746843248277
96,28581.961669921875,25648.0,[9],1,233.30401995904697,541.9871031700524,555.8395966181905
120,13244.160217285156,12268.0,[0],1,488.98818051722986,153.5591592570689,210.07283972735584
120,12144.891815185547,10343.0,[1],1,223.14495546284738,132.32922697506984,248.5800622903368
120,9172.798736572266,7681.0,[2],1,191.46980563396258,119.82900284455152,113.14107226523765
120,8282.749877929688,6688.0,[4],1,194.63655107159593,448.0493084779871,464.48464968837203
120,7619.473205566406,6859.0,[5],1,380.29098822741275,375.22613552444534,755.7519876787943
120,6945.281066894531,6610.0,[6],1,568.187278507706,141.23557454672405,592.9790984448437
120,6344.231018066406,5714.0,[7],1,365.22821563204394,179.3781776774339,409.55164286678865
120,8753.158630371094,7638.0,[8],1,463.25871817505333,504.45859622061283,655.641792101123
120,25537.745208740234,21965.0,[9],1,259.27233455294873,545.241473443952,541.6130571665287
144,11808.520027160645,10153.0,[0],1,479.3846064426966,151.01954007803155,208.9281118765542
144,12120.111476898193,10602.0,[1],1,246.10276263427772,137.84926990023894,251.95108570672355
144,8163.599842071533,7017.0,[2],1,205.7519086426892,122.53514810732268,116.99783846200403
144,5691.532466888428,5090.0,[3],1,365.9490366430232,148.96117149946832,647.825670299262
144,11346.343734741211,10311.0,[4],1,227.43861758762915,454.7624472709045,453.2165067582961
144,8496.4341506958,7544.0,[5],1,399.0262343305463,386.8244168570343,706.5675901260144
144,8402.160133361816,7534.0,[6],1,556.3389020548804,142.72925964267307,605.3900107175708
144,8793.0288772583,8000.0,[7],1,410.95628960477455,185.76750942702395,404.27960935235274
144,8094.144828796387,7000.0,[8],1,506.9089097947604,516.3099812013239,665.0266569508202
144,19941.21815109253,16749.0,[9],1,294.6241702949383,552.8035772304296,530.2282915638407
