time_in_hour,cumulative_size,size,pcore_ids,pcore_power,SCA-1,CD11b,Ly6C
-1,0,0,[],0,0.0,0.0,0.0
0,39738,39738,"[1,8]",2,0.21705163200989305,0.15997914165840557,0.19017958496750492
0,13032,13032,[2],1,0.23718530359150536,0.5447076496698726,0.6252094382031708
0,5804,5804,[3],1,0.33869396541710595,0.16434445272569084,0.7338560765250584
0,11274,11274,[4],1,0.22032956409597193,0.4114738231641776,0.5384233506505097
0,4957,4957,[7],1,0.39776867578024433,0.3594352608907192,0.6554634893491581
0,5135,5135,[9],1,0.2816914105663926,0.4363264263086707,0.805286442012218
24,50413.0,36236.0,"[0,2,4]",3,0.21818499419514126,0.4969280216004059,0.5795850550621124
24,15016.5,8833.0,[1],1,0.2291866961323833,0.1798615791106414,0.289773750730172
24,5980.0,3078.0,[3],1,0.31558509638871035,0.16703775026861784,0.736720583086906
24,7577.5,5099.0,[7],1,0.38242357066862687,0.3681707573773868,0.6427132694892196
24,39306.5,25621.0,[8],1,0.19955192246701298,0.1514390070425171,0.1399695392588363
24,9391.5,6824.0,[9],1,0.25139789924788525,0.43348683692267115,0.7989330611827664
48,14601.25,7093.0,[1],1,0.24514231792914573,0.18433585731711952,0.28026271509765255
48,28171.0,15135.0,[2],1,0.22904450109862756,0.5811347606272041,0.5833991861981292
48,6115.0,3125.0,[3],1,0.328036693707678,0.1708290014540317,0.7244483516563566
48,26316.5,16776.0,[4],1,0.21187818041272682,0.43826539025075506,0.4876887344086246
48,9227.75,5439.0,[7],1,0.4018353896512013,0.3731543748807048,0.6277463958179306
48,52710.25,33057.0,[8],1,0.19315670485811517,0.15004406721875918,0.13280631181886107
48,10107.75,5412.0,[9],1,0.29555967039419767,0.4323712338914708,0.7854151858931567
72,69321.75,35666.0,"[1,8]",2,0.21489532019779473,0.1612469875577084,0.1776996461490702
72,42439.5,28354.0,[2],1,0.23825508182103547,0.5693451381868664,0.5846917094427313
72,6745.5,3688.0,[3],1,0.3467184115252847,0.1811944933290538,0.723108938913166
72,22524.25,9366.0,[4],1,0.22319604850353203,0.42373115134784217,0.5004690688108355
72,7200.875,2587.0,[7],1,0.43088525251397847,0.3612829032607969,0.6278449093452245
72,9644.875,4591.0,[9],1,0.30960580304699675,0.40818371818338994,0.7816912555917046
96,15628.8125,8849.0,[1],1,0.27367686329479535,0.19231452322013623,0.2826152111535123
96,54847.75,33628.0,[2],1,0.26750298540920037,0.5740631251429412,0.5724839639865782
96,8752.75,5380.0,[3],1,0.3975897302260352,0.17091646762342702,0.7248861938968081
96,19349.125,8087.0,[4],1,0.22742096240597573,0.42934729165235114,0.49151696330368766
96,7582.0,5769.0,[5],1,0.4765257251058811,0.19873111857865347,0.28037603640435416
96,6471.4375,2871.0,[7],1,0.46674625870573605,0.3717364259402486,0.6303786789504424
96,44392.0625,16511.0,[8],1,0.20776638550611762,0.15689893771200736,0.1485069809586091
96,9843.4375,5021.0,[9],1,0.3656296276214888,0.41672357910090896,0.790253835611565
120,15100.40625,7286.0,[1],1,0.29612766436054244,0.18535754723194175,0.2820114783173468
120,55146.875,27723.0,[2],1,0.28567804757851084,0.5848172987499762,0.559898950628254
120,11833.375,7457.0,[3],1,0.47895750604454645,0.15599669635029825,0.7033281506294139
120,12262.5625,2588.0,[4],1,0.22553285042643734,0.43818850663373804,0.48676321651825255
120,17681.0,13890.0,[5],1,0.5372856301184111,0.17862218517346357,0.23890203805526988
120,8538.71875,5303.0,[7],1,0.54882099965084,0.4049799465334741,0.6379799084497437
120,35456.03125,13260.0,[8],1,0.21569387397116224,0.15573066759566462,0.14458559894451178
120,12804.71875,7883.0,[9],1,0.4182678825581024,0.4511997635116012,0.7841201744778462
144,55526.9375,25990.0,"[0,2]",2,0.3153993448417232,0.5794932114193273,0.5491107607362893
144,15792.203125,8242.0,[1],1,0.32384024842297016,0.18511387470730073,0.28153295945345125
144,15650.6875,9734.0,[3],1,0.5197450021378358,0.15718257600793878,0.6733286001199336
144,10767.28125,4636.0,[4],1,0.23831203933759895,0.4520859116788906,0.4747269818885478
144,20359.5,11519.0,[5],1,0.5319645945933651,0.17844087006504855,0.2297993726327172
144,7690.390625,5472.0,[6],1,0.4121746287735689,0.19038464871093566,0.4723738468792846
144,8618.359375,4349.0,[7],1,0.5837335271263568,0.42551213175433716,0.6424715355006395
144,29570.015625,11842.0,[8],1,0.22775921238969998,0.15810398603355122,0.14515481791711102
144,14618.359375,8216.0,[9],1,0.45412427555366236,0.47345455156609223,0.7560748850483013
