time_in_hour,cumulative_size,size,pcore_ids,pcore_power,SCA-1,CD11b,Ly6C
-1,0,0,[],0,0.0,0.0,0.0
0,13777,13777,[0],1,195.89794585178316,490.5358205705176,606.1327574943743
0,45085,45085,"[1,2,5,9]",4,189.54574692248121,141.87153155151432,273.24225352112626
0,6816,6816,[3],1,302.2847711267574,404.41226525821526,755.0234741784049
0,11539,11539,[4],1,175.83317445186057,356.8084756044726,521.9253834821029
0,5511,5511,[8],1,329.82906913445447,363.7285429141713,566.3872255489009
24,18852.0625,17991.0,[0],1,181.14439069995885,517.8730974395997,586.3222757456894
24,36213.375,33883.0,"[2,5,9]",3,169.2883413241676,137.91705412710084,249.26789652994185
24,7955.0,7529.0,[3],1,230.77954902576928,406.32540854808195,761.3702074167177
24,15968.1875,15247.0,[4],1,171.26619332970932,379.4264572920391,511.2558368005127
24,7191.4375,6847.0,[8],1,341.4724107662705,348.2288137802758,580.3262560510306
48,16135.25390625,14957.0,[0],1,211.20133006506464,514.3399073990005,540.6815760326795
48,37538.01171875,35558.0,"[2,5]",2,163.65916517330515,141.30106347409804,178.01849396200572
48,6863.1875,6366.0,[3],1,297.3285673794038,392.9346115143294,719.0888708781459
48,16855.01171875,15857.0,[4],1,191.91536155209934,397.50058692205516,465.90969187345326
72,25387.453369140625,24379.0,[0],1,208.20925265770452,522.8896187215106,571.4950194499773
72,32743.125732421875,30397.0,"[2,5]",2,170.46271099381175,139.66333264594232,194.34267887351638
72,11681.438232421875,10628.0,[4],1,178.95184973423267,400.01917766465164,501.40727243832356
96,31460.71583557129,29874.0,[0],1,245.9292076741734,525.2399635356604,551.0867676350933
96,5617.105331420898,5323.0,[1],1,318.99338749128026,185.6785901349747,366.46886097448794
96,23802.445358276367,21756.0,"[2,5]",2,187.41904693088074,142.00782011833866,198.26054012785832
96,6220.934326171875,5897.0,[3],1,382.6696065618114,402.42223770666766,761.7578770522138
96,11338.089889526367,10608.0,[4],1,197.53326689285782,398.50706787952436,481.7467874538387
96,5516.337203979492,5181.0,[9],1,331.67210472321625,160.34432789952007,709.4119912809491
120,25621.294739723206,23655.0,[0],1,270.8412036896515,534.4234050812231,541.4288447657784
120,6604.069083213806,6253.0,[1],1,385.0558926709946,173.13447179366912,377.37005104675916
120,20353.652834892273,18866.0,"[2,5]",2,216.20942010642412,134.94095425797553,199.77617224549695
120,9285.808395385742,8897.0,[3],1,434.5621817584941,442.4014549505058,744.63133024423
120,7058.630618095398,6350.0,[4],1,195.8890039475941,450.2377984873735,480.709036546021
120,6553.600987434387,6380.0,[6],1,568.7205046921467,136.55115116517615,590.907819067221
120,10700.01065158844,10371.0,[7],1,499.27429536395636,143.00854899197185,196.8794031690389
120,5773.771075248718,5429.0,[9],1,354.07949527810825,175.26016760135624,699.0579782996348
144,18944.3309212327,17343.0,[0],1,304.51212123551113,547.3656349596935,532.1410818194638
144,8018.754317700863,7606.0,[1],1,427.11590186717314,177.0819936010751,395.0886873971362
144,10532.207922279835,9908.0,[2],1,286.7138387539447,145.87180440663792,270.3642765529668
144,10495.363024711609,9915.0,[3],1,460.7703240797129,452.6667096074481,708.9657092942726
144,11132.164413630962,10691.0,[4],1,236.03498474617322,450.411951176775,471.5257990447535
144,10299.895379900932,9652.0,[5],1,200.93553157510766,135.70882110412228,153.24914426588037
144,7665.600061714649,7256.0,[6],1,544.5818879424511,131.36771444337714,606.5844606713742
144,8947.750665724277,8279.0,[7],1,482.7098092874783,141.2567369790843,197.14443303543985
144,6399.860692203045,6039.0,[9],1,382.1446261698333,186.79664494145774,654.9076218245742
