time_in_hour,cumulative_size,size,pcore_ids,pcore_power,SCA-1,CD11b,Ly6C
-1,0,0,[],0,0.0,0.0,0.0
0,6814,6814,[0],1,0.32211161422451173,0.487292100240787,0.7707610036457122
0,12404,12404,[1],1,0.24456635952882355,0.18338203921957769,0.29788732925437533
0,29066,29066,"[3,7]",2,0.23892729216807632,0.46629573418959247,0.587202545102405
0,28567,28567,[6],1,0.20694692508799845,0.15162909074435982,0.14898309237931745
24,14316.0,7502.0,[0],1,0.30718525041518535,0.4874298952284501,0.7698377879874652
24,20908.0,8504.0,[1],1,0.23701948396721612,0.18221239872676367,0.29985192313510173
24,66447.0,37381.0,"[3,7]",2,0.2255408424691943,0.48443114973339646,0.5813084514365598
24,6663.0,2875.0,[4],1,0.38215552261608515,0.22684823938233953,0.42677626369336075
24,9980.0,4839.0,[5],1,0.23296919682060716,0.2255574497411109,0.7498738010542193
24,55412.0,26845.0,[6],1,0.20005484959652747,0.151874110121368,0.14439436224808383
48,21099.0,6783.0,[0],1,0.32266383571083057,0.48331149060483847,0.7624495022985814
48,31954.0,11046.0,[1],1,0.2448948031334392,0.18918654842353927,0.2937472547187493
48,9771.0,3496.0,[2],1,0.41609831431925326,0.1755342131184208,0.6742958288230312
48,99660.0,33213.0,"[3,7]",2,0.22890799504833254,0.4929411129060519,0.5597244104342218
48,8676.0,2013.0,[4],1,0.3936543273190618,0.2315145123907633,0.41654883912921625
48,12661.0,2681.0,[5],1,0.24116285612102506,0.2269817242603053,0.7435003304432191
48,86180.0,30768.0,[6],1,0.19370515331120636,0.15004653261772327,0.13513992312148942
72,30181.0,9082.0,[0],1,0.3360783944359632,0.4751202436101583,0.7618346665541029
72,39190.0,7236.0,[1],1,0.25480803690462467,0.1880111569231687,0.28970912083272293
72,12753.0,2982.0,[2],1,0.43446767757662974,0.17362634574847594,0.667634166867936
72,96486.0,27544.0,[3],1,0.21303530791100594,0.5477566881200787,0.5712811445878175
72,10121.0,1445.0,[4],1,0.4050624521936211,0.23232551287788827,0.4049558251614269
72,18042.0,5381.0,[5],1,0.2558154568179854,0.22104286829975864,0.7469509402584251
72,115126.0,28946.0,[6],1,0.19775588329504276,0.14953733949417333,0.1386054233906648
72,38102.0,7384.0,[7],1,0.2682055086907446,0.4011816875920856,0.5227066335480549
96,35253.0,5072.0,[0],1,0.34715410306939787,0.4711863359275102,0.7525442716116847
96,46925.0,7735.0,[1],1,0.2612310584066152,0.1940593080804302,0.29131578728792146
96,17331.0,4578.0,[2],1,0.4439047650537166,0.1807031237149654,0.6767234427694272
96,179795.0,45207.0,"[3,7]",2,0.2461787160220877,0.5094475935954662,0.5569835628810276
96,13278.0,3157.0,[4],1,0.4222400490123862,0.22655283567074896,0.38917691605016114
96,19789.0,1747.0,[5],1,0.26041155539253535,0.22734069546841185,0.7389120589704682
96,137630.0,22504.0,[6],1,0.20514228427138098,0.1564946494026378,0.14987732998985115
120,46921.0,11668.0,[0],1,0.38280269800852934,0.48092854351026243,0.7528167399223719
120,52974.0,6049.0,[1],1,0.2649334865566881,0.19084353598205114,0.29060411028211613
120,26480.0,9149.0,[2],1,0.4832820615092125,0.17467558543287026,0.6744109518298467
120,163725.0,29117.0,[3],1,0.2463570559704605,0.553101540838331,0.5633895312397553
120,28961.0,15683.0,[4],1,0.4908789387044735,0.20351190811921926,0.3261748443052485
120,21586.0,1797.0,[5],1,0.264919626432861,0.22677536722519426,0.7385733906968076
120,152399.0,14769.0,[6],1,0.20932091992995358,0.154746156485689,0.147288603320633
120,46955.0,1768.0,[7],1,0.27479274323132696,0.4091414905288682,0.5194200057440258
144,60298.0,13377.0,[0],1,0.4105068795022126,0.4895812712397174,0.7439437578807702
144,60543.0,7569.0,[1],1,0.2717379438924179,0.18940378787658127,0.2892870376838694
144,39035.0,12555.0,[2],1,0.5045041111189402,0.17443140423346454,0.663354798660219
144,188689.0,24964.0,[3],1,0.2549586469525527,0.5579570362004129,0.5558337465801726
144,44505.0,15544.0,[4],1,0.5038846537884235,0.19866917185063745,0.31006188088773895
144,22782.0,1196.0,[5],1,0.2684803891106607,0.22636381186862037,0.7356282819300747
144,164633.0,12234.0,[6],1,0.21235623368477285,0.15453412997888952,0.14620176913171173
144,49516.0,2561.0,[7],1,0.2776025182190566,0.4097096546150509,0.5183477397510861
