time_in_hour,cumulative_size,size,pcore_ids,pcore_power,SCA-1,CD11b,Ly6C
-1,0,0,[],0,0.0,0.0,0.0
0,8800,8800,[0],1,312.48954545454035,400.2395454545442,733.8773863636388
0,45370,45370,"[1,5,6]",3,198.22532510469725,140.57773859378497,294.7955697597523
0,27263,27263,"[2,7]",2,190.0145985401473,427.24527748230366,568.0912225360375
24,9434.0,8884.0,[0],1,246.05069429722138,397.63321496713905,750.3124403752361
24,40629.625,37794.0,"[1,5,6]",3,178.36816577805212,139.1020160781698,267.0592870965452
24,35760.9375,34057.0,"[2,7]",2,177.24971555905398,454.2210128020265,554.9882728186296
24,6577.4375,6293.0,[4],1,359.36915972215036,294.7968813842774,541.7412746225245
48,7985.625,7396.0,[0],1,301.0016924943229,381.84343546998326,712.4867462041171
48,44886.09375,42486.0,"[1,3,6]",3,185.36908981415007,145.9519888015152,193.3546769426775
48,33938.05859375,31703.0,"[2,7]",2,202.7106966356345,454.3530248063362,504.8972457060141
72,6862.1015625,6363.0,[0],1,310.2263054036577,383.0933761807661,747.5460981696934
72,41522.77197265625,38717.0,"[1,5,6]",3,190.97453405209458,145.07510027471352,275.7782006019216
72,37884.128662109375,35763.0,"[2,7]",2,200.27786666078705,482.69742157017214,549.3763418690776
96,8339.88134765625,7911.0,[0],1,393.25694685831456,412.152338884363,734.0290973969977
96,10871.0234375,10111.0,[1],1,255.5877827694118,164.54938769647524,309.4926407879431
96,44386.758041381836,42019.0,"[2,7]",2,235.7351829917753,489.56985507294274,532.4127576330969
96,17056.744537353516,15584.0,[6],1,172.9055040422466,135.47757598397135,162.72758657278365
120,10851.242584228516,10330.0,[0],1,445.4012736081343,448.8254052392638,727.0016463452791
120,9799.43896484375,9120.0,[1],1,308.9947607627964,154.8750159154001,317.8795613360283
120,34646.172377586365,31872.0,"[2,7]",2,261.62999867036035,515.2811391191826,528.8738844223453
120,17758.568662643433,17024.0,"[3,5]",2,447.98281439595075,157.08593619867122,377.84664346352264
120,8004.525168418884,7780.0,[4],1,553.5722495919999,153.85587178336777,559.6847022429109
120,14940.046533584595,13874.0,[6],1,196.73930108681736,131.66005847668572,165.79072722541363
144,11707.202661514282,11029.0,[0],1,470.4002730991012,453.83006837785814,697.484590261672
144,10566.464935302734,9954.0,[1],1,355.2496960093168,163.848697478598,337.98523033336727
144,31855.385773599148,29690.0,"[2,7]",2,286.9549890883234,511.4302982811436,510.26916141846704
144,16772.910541415215,15663.0,"[3,5]",2,444.2574131467453,161.60941953406893,391.6487216931317
144,9661.28282302618,9161.0,[4],1,535.8403001552283,149.18613565889487,570.3461687002656
144,15436.752908349037,14503.0,[6],1,218.36171859389339,137.7630370287154,179.07629863200702
