time_in_hour,cumulative_size,size,pcore_ids,pcore_power,SCA-1,CD11b,Ly6C
-1,0,0,[],0,0.0,0.0,0.0
0,4530,4530,[0],1,NA,NA,NA
0,38520,38520,"[1,8]",2,NA,138.339667705089,NA
0,27432,27432,"[2,7,9]",3,NA,NA,NA
0,4230,4230,[3],1,NA,160.27044917257675,NA
0,6870,6870,[4],1,NA,NA,NA
0,8433,8433,"[5,6]",2,NA,NA,NA
24,8553.0,6288.0,[0],1,NA,NA,NA
24,52914.0,33654.0,"[1,8]",2,NA,138.0548815058399,NA
24,48754.0,35038.0,"[2,7,9]",3,NA,NA,NA
24,4568.0,2453.0,[3],1,NA,NA,NA
24,7775.0,4340.0,[4],1,NA,NA,NA
24,12443.5,8227.0,"[5,6]",2,NA,NA,NA
48,14915.5,7790.0,"[0,5]",2,NA,NA,NA
48,67117.0,40660.0,"[1,8]",2,NA,144.51682882131152,NA
48,57686.0,33309.0,"[2,7,9]",3,200.80793866796228,NA,NA
48,4800.0,2516.0,[3],1,NA,NA,NA
48,6634.5,2747.0,[4],1,NA,NA,NA
48,14349.75,8128.0,"[5,6]",2,327.1011167441896,NA,NA
72,14327.75,6870.0,"[0,5]",2,NA,NA,NA
72,67444.5,33886.0,"[1,8]",2,NA,144.3152517996281,NA
72,65614.0,36771.0,"[2,7,9]",3,NA,NA,NA
72,7262.0,4862.0,[3],1,NA,NA,NA
72,8577.25,5260.0,[4],1,NA,NA,NA
72,13202.875,6028.0,"[5,6]",2,NA,NA,NA
96,15267.875,8104.0,"[0,5]",2,NA,NA,NA
96,57802.25,24080.0,"[1,8]",2,NA,145.47115380456665,NA
96,74731.0,41924.0,"[2,7,9]",3,NA,NA,NA
96,10672.0,7041.0,[3],1,NA,NA,NA
96,9648.625,5360.0,[4],1,NA,NA,NA
96,6254.1875,3491.0,[6],1,NA,NA,NA
120,10292.3125,6915.0,[0],1,NA,NA,NA
120,48871.125,19970.0,"[1,8]",2,NA,143.03272126434572,NA
120,67835.5,30470.0,"[2,7,9]",3,NA,NA,NA
120,20276.0,14940.0,[3],1,NA,NA,NA
120,12840.3125,8016.0,[4],1,NA,NA,NA
120,9324.625,5068.0,[5],1,NA,NA,NA
120,7748.09375,4621.0,[6],1,NA,NA,NA
144,13275.15625,8129.0,[0],1,NA,NA,NA
144,44416.5625,19981.0,"[1,8]",2,NA,NA,NA
144,62417.75,28500.0,"[2,7,9]",3,NA,NA,NA
144,23267.0,13129.0,[3],1,NA,NA,NA
144,17572.15625,11152.0,[4],1,NA,NA,NA
144,9214.3125,4552.0,[5],1,NA,NA,NA
144,8431.046875,4557.0,[6],1,NA,NA,NA
