time_in_hour,cumulative_size,size,pcore_ids,pcore_power,SCA-1,CD11b,Ly6C
-1,0,0,[],0,0.0,0.0,0.0
0,12435,12435,"[1,3]",2,NA,NA,NA
0,21646,21646,"[2,5,8]",3,NA,NA,NA
0,34206,34206,"[4,10]",2,NA,136.1410278898442,NA
0,4683,4683,[7],1,NA,NA,NA
0,5683,5683,[9],1,NA,NA,NA
24,15829.0,13036.0,"[0,2]",2,NA,NA,NA
24,10192.75,7084.0,"[1,3]",2,NA,NA,NA
24,39502.5,30951.0,"[4,10]",2,NA,NA,NA
24,26661.0,22715.0,"[2,5]",2,NA,NA,NA
24,7534.75,6364.0,[7],1,NA,NA,774.391220677526
24,7347.5,5882.0,[8],1,187.8197686287865,NA,NA
24,7252.75,5832.0,[9],1,NA,NA,NA
24,5923.75,4986.0,[11],1,NA,NA,NA
48,10469.1875,7921.0,"[1,3]",2,NA,NA,NA
48,36936.125,28434.0,"[2,5,8]",3,NA,NA,NA
48,46490.625,36615.0,"[4,10]",2,NA,NA,NA
48,6277.6875,4394.0,[7],1,NA,NA,NA
48,6236.1875,4423.0,[9],1,NA,NA,601.2232934785866
48,5335.9375,3855.0,[11],1,262.2550629575381,NA,NA
72,12823.296875,10206.0,"[1,3]",2,NA,NA,NA
72,33551.03125,24317.0,"[2,5,8]",3,NA,NA,NA
72,42946.65625,31324.0,"[4,10]",2,NA,141.03844958826076,NA
72,6511.421875,4942.0,[7],1,NA,NA,NA
72,4791.046875,3232.0,[9],1,NA,NA,NA
72,29286.609375,23842.0,"[5,11]",2,NA,NA,NA
96,26358.25,20672.0,"[0,5]",2,NA,NA,NA
96,14700.82421875,11495.0,"[1,3]",2,NA,NA,NA
96,7602.796875,5200.0,[2],1,NA,NA,NA
96,33443.6640625,22707.0,"[4,10]",2,NA,143.23291383901437,NA
96,6587.85546875,4960.0,[7],1,NA,NA,NA
96,5745.8046875,4370.0,[8],1,NA,NA,NA
96,4702.76171875,3505.0,[9],1,NA,NA,NA
96,35801.65234375,28480.0,"[5,11]",2,NA,NA,NA
120,39703.1865234375,29050.0,"[0,5,11]",3,NA,NA,NA
120,21877.2060546875,18202.0,"[1,3]",2,NA,NA,NA
120,4530.69921875,2630.0,[2],1,NA,NA,NA
120,27690.916015625,19330.0,"[4,10]",2,NA,NA,NA
120,8426.59375,7305.0,[6],1,NA,NA,NA
120,8166.9638671875,6520.0,[7],1,NA,NA,NA
120,6699.6904296875,5524.0,[9],1,NA,NA,NA
144,8249.193359375,6606.0,[0],1,NA,NA,NA
144,12909.6513671875,9507.0,[1],1,NA,NA,NA
144,18935.3720703125,13459.0,"[2,5]",2,NA,NA,NA
144,11173.650146484375,9107.0,[3],1,NA,NA,NA
144,13305.997802734375,9680.0,[4],1,NA,134.31850342395947,NA
144,9962.6484375,7856.0,[6],1,NA,NA,NA
144,8759.740966796875,6718.0,[7],1,397.6967231708147,NA,NA
144,7233.922607421875,5559.0,[9],1,NA,NA,NA
144,13256.731201171875,9960.0,[10],1,NA,NA,NA
144,13518.906005859375,9580.0,[11],1,NA,NA,NA
