time_in_hour,cumulative_size,size,pcore_ids,pcore_power,SCA-1,CD11b,Ly6C
-1,0,0,[],0,0.0,0.0,0.0
0,7444,7444,[1],1,255.81743686190157,469.5808704997312,752.9266523374542
0,22782,22782,"[3,8]",2,151.09485558774742,121.7583618646303,154.64739706786096
0,20705,20705,[4],1,178.77498188843444,441.36334218787755,559.9524752475263
0,4521,4521,[5],1,233.51028533510214,291.4981198849813,352.6969696969694
0,11779,11779,[9],1,219.02546905509823,125.23771118091551,267.6725528482884
0,4986,4986,[10],1,248.04452466907165,190.97172081829123,754.3668271159256
0,6535,6535,[11],1,372.94904361131654,350.538485080336,600.647589900534
24,10883.0,9022.0,[1],1,224.44723421850622,475.4191858862456,742.6098961683342
24,26424.5,20729.0,"[3,8]",2,143.8959204526142,121.74038297791778,150.91567484720633
24,30433.25,25257.0,[4],1,166.74301955920214,466.19930503643417,549.5901029301805
24,5985.25,4855.0,[5],1,206.29313729585323,327.7603692410517,373.965122593042
24,4736.0,3702.0,[7],1,188.64986275337972,180.44663217905392,551.1263724662133
24,10874.75,7930.0,[9],1,204.44766546357414,127.99078139727334,273.04533437550157
24,6147.5,4901.0,[10],1,213.99959333062307,227.5017893452621,759.9032533550228
24,8851.75,7218.0,[11],1,362.1685542406802,350.59149320755677,587.8495212810997
48,5974.625,5067.0,[0],1,300.5533715505127,133.69840157331996,176.66793941042397
48,8257.75,5537.0,[1],1,270.40680724168146,474.45741878841227,721.0741273349266
48,30802.125,24196.0,"[3,8]",2,136.0898132028276,127.70736393998729,145.13290276239078
48,27710.3125,20102.0,[4],1,184.04249320537454,485.3152053048857,523.4618790387132
48,10883.3125,9387.0,[5],1,187.06363526729692,364.43058466804035,402.5090419392054
48,11732.6875,9014.0,[9],1,204.87584899026774,138.62731258290188,266.65041044517807
48,5430.875,3894.0,[10],1,264.2617672106219,256.1437728726956,738.1564319745904
48,7887.9375,5675.0,[11],1,365.04946635289076,361.1510692750792,580.047604332565
72,5810.65625,4317.0,[0],1,319.3624509925157,132.9045154108021,168.15711166445288
72,8200.4375,6136.0,[1],1,282.83209927823697,501.5794203053173,712.6916666031528
72,26221.53125,18521.0,"[3,8]",2,134.9961917031496,127.11738742850875,151.2148705322087
72,31487.578125,24560.0,[4],1,186.04119779377467,509.9867298860432,547.7211043045176
72,8973.828125,6253.0,[5],1,176.03869586036026,364.3214399512469,440.6216462804152
72,5381.296875,4553.0,[6],1,455.67195698062994,208.25961155971297,297.5485027714634
72,13316.171875,10383.0,[9],1,209.8408690091353,139.27656925613218,268.8375847037495
72,7399.71875,6042.0,[10],1,254.71591825702674,251.24917121005387,768.0471407274761
72,6203.984375,4232.0,[11],1,403.0524083565189,364.06591781994916,592.7603279142693
96,7244.6640625,5792.0,[0],1,366.6806814713807,138.34273123430296,171.7886132789544
96,9173.109375,7123.0,[1],1,348.23587157775665,516.3616259481256,703.8994743467223
96,18687.3828125,12132.0,"[3,8]",2,143.31277641791664,127.5758173650754,150.52339814003872
96,35915.89453125,28044.0,[4],1,217.10456579928547,523.1432766807966,543.1335351720572
96,10746.45703125,8503.0,[5],1,188.7222220404787,372.9631528268947,450.3441195917399
96,4725.32421875,3380.0,[6],1,464.16889466083137,213.15546882943755,303.993787628659
96,12850.04296875,9521.0,[9],1,230.69356863167042,144.18213916478354,274.5891885089152
96,6958.9296875,5109.0,[10],1,328.04075361804183,260.6856775747887,771.830072759481
96,5922.99609375,4372.0,[11],1,427.2791457026247,383.3995127571487,584.9990272290145
120,10562.166015625,8751.0,[0],1,438.67778465258414,127.3730834499393,169.87800566548984
120,7534.27734375,5241.0,[1],1,407.1513822244651,514.4005511270096,717.468374227167
120,7308.298828125,6455.0,[2],1,551.6923720064641,133.36111050980384,622.9380361152988
120,14549.845703125,9878.0,"[3,8]",2,164.64608818473334,123.86629871907179,147.60054055824568
120,34529.9736328125,25551.0,[4],1,247.2780391515018,534.5946071026974,538.4547897174732
120,6480.6142578125,3794.0,[5],1,201.7746714246488,397.11546184390863,439.3893571407154
120,8330.3310546875,7149.0,[6],1,506.23295787384876,202.40794318203086,320.7887278686386
120,4901.203125,3840.0,[7],1,322.21462025426797,129.67835643831086,596.0201979265289
120,12188.5107421875,8976.0,[9],1,256.89607480469203,137.70588601025491,273.3629881656438
120,7564.732421875,5825.0,[10],1,366.9589325774905,312.5376012452935,757.6865224186146
120,6020.7490234375,4540.0,[11],1,459.3744344711563,424.4530778734432,603.0654531764899
144,10505.54150390625,7865.0,[0],1,446.570497624741,128.13722289608216,176.3880447163558
144,6294.5693359375,4411.0,[1],1,443.67989446042293,518.1852689857434,720.8603459641466
144,9380.07470703125,7553.0,[2],1,548.7824286832736,139.359733556726,621.1583075629965
144,12919.46142578125,9282.0,"[3,8]",2,183.52404303373524,126.87602288698321,150.2868586170705
144,27765.493408203125,19133.0,[4],1,276.68354133044335,543.3921594715002,529.3873300486262
144,9522.153564453125,7902.0,[5],1,228.65289226723698,430.14093432561464,436.9724983944086
144,9472.582763671875,7390.0,[6],1,497.9720051178772,207.42846409710563,344.97751637197
144,6938.30078125,5713.0,[7],1,357.0022263407037,135.3249190338393,584.018211650683
144,12585.127685546875,9538.0,[9],1,281.04896749738134,140.33313462149997,274.95215113449115
144,6790.18310546875,4899.0,[10],1,385.0833612403531,332.3041214428432,724.6856047926503
144,7819.187255859375,6314.0,[11],1,484.44824512867706,453.90847506123663,618.492213618023
