time_in_hour,cumulative_size,size,pcore_ids,pcore_power,SCA-1,CD11b,Ly6C
-1,0,0,[],0,0.0,0.0,0.0
0,5718,5718,[0],1,258.411157747464,413.26267925848146,767.7336481287166
0,43432,43432,"[1,3,6]",3,203.9198747467325,141.4547108123047,224.70986829987035
0,27289,27289,"[2,7]",2,197.08490600608437,422.15830554435854,566.4279379969947
0,7668,7668,[4],1,289.7854720918085,147.53142931664115,694.388367240479
0,5914,5914,[5],1,363.16181941156094,328.9501183632052,616.0094690564755
24,8701.5,7272.0,[0],1,222.1783313221854,398.941331954261,761.116273056368
24,54146.0,41371.0,"[1,3,4,6]",4,199.9444234107806,142.32824216008544,270.79291637424694
24,41873.25,35051.0,"[2,7]",2,184.38245180395842,444.00120602055154,557.1750222397336
24,7784.5,6306.0,[5],1,345.95063909049395,332.7179330721297,606.092619949898
48,14147.5,10026.0,"[0,5]",2,302.36164516698705,364.25302615303053,670.3018421982683
48,55545.75,43626.0,"[1,3,6]",3,189.38536701728054,149.5562813086502,203.6327655581211
48,42883.3125,32415.0,"[2,7]",2,204.5620222318428,445.4668322322353,518.0938214602704
48,5549.75,3933.0,[4],1,279.892326230909,161.15778863912814,669.7744267759809
72,7187.84375,5234.0,[0],1,281.47962271369363,367.68568459769136,754.1088491419962
72,47123.578125,34139.0,"[1,6]",2,183.08567101991838,145.42234032923386,204.75475486826625
72,47246.828125,36526.0,"[2,7]",2,205.44131037897222,471.384624695374,545.7707709875998
72,5688.859375,4787.0,[3],1,416.9867778855032,177.32850664813628,293.3064212674459
72,7494.4375,6107.0,[4],1,313.9444567220685,151.6650661740796,679.8192868043795
72,4790.03125,3207.0,[5],1,395.0708665783701,335.04419660623273,600.5545892837333
96,12356.46875,9362.0,[05],2,387.2465857964031,370.84801072059906,697.5631251469971
96,36996.89453125,25216.0,[16],2,198.56766557159534,148.21917686292252,213.82857323856868
96,54366.70703125,42555.0,[27],2,233.2126638279661,483.328741445263,536.1545704132805
96,16162.82421875,12867.0,[34],2,397.5385721912456,153.63362804738827,475.4514081914929
120,10669.240234375,8786.0,[0],1,395.30551182932425,402.29574541738003,745.9021552905348
120,30975.2236328125,21726.0,"[1,6]",2,223.85671294304794,143.79406477499398,219.92384538436332
120,45153.6767578125,31562.0,"[2,7]",2,254.17099927731508,504.9135232944168,531.3443186911612
120,15463.8037109375,13513.0,[3],1,486.18003932444464,151.3440581852713,240.01193405593403
120,11664.90234375,9575.0,[4],1,448.1463852234357,135.11630667919067,642.684758632584
120,6043.876953125,4838.0,[5],1,507.9022349582249,411.8967063773557,605.1579113029226
144,17845.279296875,13667.0,"[0,5]",2,458.1135932362588,422.6328776085626,677.3833633375124
144,12457.05126953125,9519.0,[1],1,315.16430459248005,162.09967019102947,326.2313834279278
144,40673.419189453125,29385.0,"[2,7]",2,278.5721980458082,506.0846104305115,515.3193122439798
144,15220.950927734375,11355.0,[3],1,480.3748602033364,153.04370359041593,240.01328014757803
144,15735.2255859375,12819.0,[4],1,469.7808693280065,141.63340833238166,615.8836861847902
144,18060.754638671875,13255.0,[6],1,213.76532226277263,138.95534689628818,171.60559268736503
