time_in_hour,cumulative_size,size,pcore_ids,pcore_power,SCA-1,CD11b,Ly6C
-1,0,0,[],0,0.0,0.0,0.0
0,11771,11771,"[0,8]",2,221.16846487129325,128.95149095234038,227.45782006626493
0,7476,7476,[1],1,264.31474050294145,439.38884430176535,767.5480203317302
0,11925,11925,"[3,10]",2,239.66893081760958,137.5738364779879,NA
0,14692,14692,[4],1,186.13469915600416,485.4399673291605,578.0345766403477
0,5686,5686,[5],1,229.6683081252192,205.70436158987,349.5181146676044
0,9219,9219,[7],1,164.30241891745516,340.5578696170952,520.5539646382449
0,7373,7373,[9],1,117.74922012749575,122.34300827342989,109.44242506442454
0,15410,15410,"[8,11]",2,156.20188189487564,136.31005840363406,222.34399740428384
0,6537,6537,[12],1,370.054000305944,360.4001835704447,580.6926724797287
24,5775.125,5139.0,[0],1,234.1716845955698,98.92130040475347,260.0364710720549
24,9280.5,8346.0,[1],1,222.027167178492,423.41219492484225,767.2340525833702
24,11113.625,9623.0,"[3,10]",2,222.35170792608199,141.26101969429413,NA
24,20059.5,18223.0,[4],1,176.71334654403398,520.0663276751644,572.7830952915057
24,4838.75,4128.0,[5],1,220.72203564970357,214.683001808318,373.34704210798316
24,13999.375,12847.0,[7],1,157.60303584981773,372.37536497165064,511.10927273539
24,5580.25,4745.0,[8],1,198.5428968236194,185.9854173200128,194.9132431342684
24,8645.625,7724.0,[9],1,120.19277091014666,118.33827803079562,104.19164317212491
24,9392.0,8301.0,[11],1,114.55375585605228,121.97137191226587,236.07447827938714
24,8187.125,7370.0,[12],1,361.4399896178387,353.96418156556643,577.3983541230866
48,7350.890625,6629.0,[0],1,233.3505463836215,110.24696199652665,249.20815504924042
48,7031.0625,5871.0,[1],1,287.77121389903397,410.4042041121084,739.2129501231135
48,11800.203125,10411.0,"[3,10]",2,244.78745466510665,146.94291544239857,NA
48,16241.4375,13734.0,[4],1,206.18474638559633,530.8270165433322,545.4367455159042
48,4614.84375,4010.0,[5],1,228.57704418486577,230.29873370577295,373.5573116641274
48,16979.921875,15230.0,[7],1,171.1695743594255,406.07835817118547,467.18072999820527
48,5517.53125,4820.0,[8],1,198.97755449957847,215.4504590481476,193.7232486222894
48,10645.703125,9565.0,[9],1,116.2936528088703,125.11917073349699,98.83473379077583
48,10629.0,9455.0,[11],1,109.57522903142888,128.1202738380849,226.55719611440472
48,6483.390625,5460.0,[12],1,368.5601308150341,362.88614416164364,567.1381342227863
72,12358.552734375,10750.0,"[0,8]",2,222.50978423185217,143.22413295827656,235.68147975710883
72,6340.8828125,5462.0,[1],1,286.42087033178524,408.46886431428914,770.9337486893704
72,12072.025390625,10597.0,"[3,10]",2,238.85053399379973,148.39262454179237,NA
72,23529.1796875,21499.0,[4],1,203.03398365062074,541.7568056286509,572.359460908746
72,4868.763671875,4507.0,[6],1,467.05582140935815,193.0921655788027,235.25788598956925
72,13209.490234375,11087.0,[7],1,164.48513238958003,411.03276911323536,493.7336279743252
72,7637.712890625,6307.0,[9],1,119.18495443943911,124.40919251176744,99.27758023316161
72,10077.625,8749.0,[11],1,112.82850757712531,127.93815991646075,227.21678517383933
72,4799.423828125,3989.0,[12],1,400.3242849381683,394.1061772958584,579.5817076024341
96,7563.607666015625,6540.0,[0],1,255.31969126293563,111.29526357144816,256.3213287426237
96,6734.6103515625,5942.0,[1],1,373.45503532286136,412.5247794776902,778.1715342097217
96,11577.003173828125,10068.0,"[3,10]",2,289.26710683105017,140.00833523744137,NA
96,28188.1474609375,25247.0,[4],1,237.01518146080383,543.3489971111037,558.3256436771826
96,5286.48193359375,4744.0,[5],1,284.78244296630777,208.42138483371912,398.08443946293966
96,5296.595458984375,4688.0,[6],1,476.40943537073565,184.73980554375734,227.60561769138272
96,13650.186279296875,11999.0,[7],1,181.90803721968985,419.96633242989435,485.59705021696413
96,4882.714111328125,3928.0,[9],1,124.8392889616755,124.27313945376054,96.21364185488355
96,6433.703125,5174.0,[11],1,116.04909475583116,129.73525256553026,231.2251071323623
96,6035.927978515625,5436.0,[12],1,408.5576812366304,443.6256250566002,587.6803525245017
120,7564.450958251953,6619.0,[0],1,280.40676824683624,110.44294135863974,257.12219652351286
120,9567.826293945312,8726.0,[1],1,425.66954533009607,443.91537594658155,761.5539867512526
120,7282.976806640625,6841.0,[2],1,560.5876200254392,136.61179237920734,595.888621329512
120,11356.125396728516,9909.0,"[3,10]",2,318.54251783583237,146.64531779083163,NA
120,23709.518432617188,20186.0,[4],1,259.47660548953985,548.2574959760625,545.1067989267763
120,5616.810241699219,4956.0,[5],1,355.9817884043994,186.07446944318968,407.7174011784675
120,10980.074432373047,10318.0,[6],1,513.477075335435,156.24270240227602,220.43847471577027
120,9131.27328491211,7425.0,[7],1,190.91661916408665,459.51251295049013,476.76157948428204
120,4736.212890625,3932.0,[11],1,134.88776638663816,121.26688046868973,230.58195165882364
120,6458.490997314453,5704.0,[12],1,440.4251850098537,481.1332154175522,567.9087478489122
144,7949.556369781494,7004.0,[0],1,304.53050374585087,113.90409534563187,261.3894957250466
144,10821.978286743164,9626.0,[1],1,456.74814738795163,458.8219472650448,729.1735229226732
144,8572.372100830078,7662.0,[2],1,551.0846092278841,137.5906867496115,609.1667877500148
144,11848.515674591064,10429.0,"[3,10]",2,348.5179249876075,156.4589504814452,NA
144,17233.68980407715,14270.0,[4],1,287.6900551449455,561.0492738789861,535.209149460856
144,7559.101280212402,6857.0,[5],1,406.65274288858654,177.5793276807621,419.49205226724786
144,9002.50930404663,7630.0,[6],1,511.6243602483377,159.0938164421247,230.38152891271963
144,11694.409160614014,10553.0,[7],1,225.73359130601273,462.70860865059336,463.48087875245585
144,4607.026611328125,4015.0,[11],1,154.67528350961203,125.00605464143095,231.30985370340446
144,6739.311374664307,5932.0,[12],1,447.2786749220665,474.31215740415587,543.0387451258073
