time_in_hour,cumulative_size,size,pcore_ids,pcore_power,SCA-1,CD11b,Ly6C
-1,0,0,[],0,0.0,0.0,0.0
0,5536,5536,[0],1,NA,NA,NA
0,39608,39608,"[1,6]",2,NA,139.863790143406,NA
0,26803,26803,"[2,7]",2,NA,NA,NA
0,7605,7605,[4],1,NA,NA,NA
0,6453,6453,[5],1,NA,NA,641.9110491244369
24,7900.0,7208.0,[0],1,NA,NA,NA
24,45068.625,39167.0,"[1,4,6]",3,NA,NA,NA
24,38238.375,34888.0,"[2,7]",2,183.80215228811628,NA,NA
24,7040.625,6234.0,[5],1,NA,NA,NA
48,11948.578125,10081.0,"[0,5]",2,305.24202147483106,NA,NA
48,45346.75,40422.0,"[1,6]",2,NA,147.4900699195644,NA
48,37232.796875,32453.0,"[2,7]",2,207.0952386148149,NA,NA
48,4852.828125,4144.0,[4],1,NA,NA,NA
72,6375.1875,5487.0,[0],1,NA,NA,NA
72,39689.34375,34021.0,"[1,6]",2,NA,145.03483484822328,NA
72,41184.099609375,36530.0,"[2,7]",2,NA,NA,NA
72,5085.435546875,4676.0,[3],1,NA,NA,NA
72,6746.603515625,6140.0,[4],1,NA,NA,NA
96,7064.8984375,6268.0,[0],1,NA,NA,NA
96,11089.866455078125,9532.0,[1],1,NA,168.3322333150387,NA
96,48116.012451171875,42968.0,"[2,7]",2,NA,NA,NA
96,13548.0048828125,12069.0,"[3,4]",2,NA,NA,NA
96,19600.301513671875,16197.0,[6],1,NA,137.93758160134624,NA
120,11065.1123046875,10182.0,[0],1,NA,NA,NA
120,9968.233306884766,8582.0,[1],1,NA,NA,NA
120,38148.501556396484,32134.0,"[2,7]",2,NA,NA,NA
120,12911.959930419922,12110.0,[3],1,NA,NA,NA
120,9712.54067993164,8821.0,[4],1,NA,NA,NA
120,16578.037689208984,14128.0,[6],1,NA,133.41821964377368,NA
144,12331.139038085938,10948.0,[0],1,NA,NA,NA
144,10623.029163360596,9377.0,[1],1,NA,NA,NA
144,34716.56269454956,29948.0,"[2,7]",2,NA,NA,NA
144,11313.99499130249,9700.0,[3],1,NA,NA,NA
144,12243.067584991455,11029.0,[4],1,NA,NA,NA
144,5030.045673370361,4471.0,[5],1,NA,NA,NA
144,16599.254711151123,14527.0,[6],1,NA,140.3915160506986,NA
