time_in_hour,cumulative_size,size,pcore_ids,pcore_power,SCA-1,CD11b,Ly6C
-1,0,0,[],0,0.0,0.0,0.0
0,12765,12765,[1],1,0.22261573737880727,0.40817120484639785,0.5562492966482488
0,12614,12614,[2],1,0.2181308266363593,0.1754720030247223,0.27340887189014335
0,15624,15624,[3],1,0.2343305746848709,0.5315426522139048,0.6251005676835495
0,6601,6601,[6],1,0.3431427652262408,0.17142181940073573,0.7254436713881147
0,24044,24044,[7],1,0.20610552002976087,0.1495086120393163,0.13444815722029935
0,6891,6891,[8],1,0.3231321101126821,0.42314751157487,0.7788101325798888
24,21478.5,15096.0,[1],1,0.2125918968354324,0.41877719032301775,0.5399913042995873
24,15777.0,9470.0,[2],1,0.21240879733191703,0.17583951464945513,0.2781616073580072
24,29036.0,21224.0,[3],1,0.21590928966908404,0.5544453047519767,0.6149183787210114
24,6970.0,5221.0,[5],1,0.37496324536939474,0.3646828359420132,0.5937068825031231
24,6899.5,3599.0,[6],1,0.3108313499349804,0.17180773149342915,0.7269899161538277
24,35989.0,23967.0,[7],1,0.19886621099269022,0.15135966004695503,0.13202393072221144
24,10564.5,7119.0,[8],1,0.2803944309993013,0.4258100798178128,0.7871165470862421
48,30409.25,19670.0,[1],1,0.22780476039732736,0.4199388678806478,0.5098744643711824
48,19073.5,11185.0,[2],1,0.2207224536189575,0.1781023000213385,0.27283201083044983
48,32131.0,17613.0,[3],1,0.23663053007368992,0.5696746199910395,0.5958768440222264
48,6580.0,3095.0,[5],1,0.3884607339230165,0.357287956098969,0.6074350464727417
48,45929.5,27935.0,[7],1,0.1892261417749357,0.1484796268765038,0.11877040732345345
48,9911.25,4629.0,[8],1,0.31169811855498136,0.4120700173314169,0.7723092838698437
72,22317.625,7113.0,[1],1,0.23210231697638678,0.41258300278621257,0.516733830509306
72,17476.75,7940.0,[2],1,0.23420770259299814,0.18651872296788388,0.2829061027723027
72,48583.5,32518.0,[3],1,0.24424947816587608,0.5576999594205194,0.5943575336728149
72,6596.875,3989.0,[6],1,0.3334923860569819,0.18642570375816397,0.7254595136937811
72,50621.75,27657.0,[7],1,0.20158225999028379,0.15523702577453885,0.14355327526704292
72,9267.625,4312.0,[8],1,0.32183190577201043,0.3950658769846675,0.7703621754359612
96,9609.125,6583.0,[0],1,0.44691344121202425,0.19269846876198785,0.24321338202305523
96,19452.8125,8294.0,[1],1,0.23663738292082123,0.42155525004708744,0.5039800068701742
96,17005.375,8267.0,[2],1,0.24534947930789178,0.19194048158781835,0.28525085421455787
96,59535.75,35244.0,[3],1,0.26855036278598665,0.5674669645997508,0.5769949024283381
96,8200.4375,4902.0,[6],1,0.3817172847125567,0.17251322191416896,0.7286614617345076
96,40959.875,15649.0,[7],1,0.2054663269901308,0.15711271842729815,0.14208185442987814
96,10036.8125,5403.0,[8],1,0.3762267848113298,0.40744314291656347,0.7818483311316875
120,18201.5625,13397.0,[0],1,0.5157228541582882,0.17776091513885053,0.2126749325720907
120,12490.40625,2764.0,[1],1,0.23697548542663854,0.42931921969568954,0.4982642914517071
120,15175.6875,6673.0,[2],1,0.26510793131329446,0.18623909550267254,0.2852622942941896
120,58738.875,28971.0,[3],1,0.2860066814229874,0.5797418311791459,0.5627379611745308
120,7280.875,5373.0,[4],1,0.4550022878161435,0.1670665684760955,0.47765824027259934
120,7999.25,5120.0,[5],1,0.5692972927939546,0.36937738931124614,0.6222886169102845
120,10040.21875,5940.0,[6],1,0.44430907673537434,0.1584326319540611,0.7189627542174265
120,33121.9375,12642.0,[7],1,0.21404023912408102,0.15637546648959852,0.14042991279787825
120,14138.40625,9120.0,[8],1,0.4315421618951098,0.4549312299785452,0.7749575625251197
144,20410.78125,11310.0,[0],1,0.5186683850592918,0.1774918520756977,0.21101223255558318
144,11312.203125,5067.0,[1],1,0.2519120489054991,0.4426691693197791,0.4870231801017272
144,15372.84375,7785.0,[2],1,0.2950237323179873,0.18618234024488073,0.2847141716449931
144,53844.4375,24475.0,[3],1,0.30957198711451195,0.5856666779074013,0.5472304808483892
144,11382.4375,7742.0,[4],1,0.48477783941861335,0.17443407825756793,0.46959331829474676
144,8850.625,4851.0,[5],1,0.6018814908646898,0.3733891533722886,0.62817631048227
144,12682.109375,7662.0,[6],1,0.4841763883877423,0.15610445374850115,0.69037163186291
144,28073.96875,11513.0,[7],1,0.22636072957996276,0.1587776910873287,0.14287576265296892
144,16664.203125,9595.0,[8],1,0.46517410826697453,0.48212973482405236,0.747075316755669
