time_in_hour,cumulative_size,size,pcore_ids,pcore_power,SCA-1,CD11b,Ly6C
-1,0,0,[],0,0.0,0.0,0.0
0,7490,7490,[0],1,NA,NA,NA
0,44189,44189,"[1,6,7]",3,NA,NA,NA
0,21809,21809,[2],1,186.70374615984352,NA,NA
0,7005,7005,[5],1,NA,NA,NA
24,11750.5,9878.0,[0],1,NA,NA,NA
24,47561.25,36514.0,"[1,6,7]",3,NA,NA,NA
24,33977.25,28525.0,[2],1,174.87891162469262,NA,NA
24,5787.0,4583.0,[4],1,NA,NA,NA
24,9102.25,7351.0,[5],1,NA,NA,NA
48,8273.625,5336.0,[0],1,259.56706552448134,NA,NA
48,60718.1875,47746.0,"[1,3,6,7]",4,NA,NA,NA
48,36881.3125,28387.0,[2],1,194.29791510267034,NA,NA
48,8435.5625,6160.0,[5],1,NA,NA,NA
72,48351.734375,37063.0,"[0,2]",2,NA,NA,NA
72,53685.578125,39778.0,"[1,6,7]",3,NA,148.9225149794361,NA
72,7097.96875,5826.0,[3],1,NA,NA,NA
72,6025.890625,3917.0,[5],1,NA,NA,NA
96,9476.1015625,7153.0,[0],1,NA,NA,NA
96,36827.4765625,25246.0,"[1,6]",2,NA,NA,NA
96,44822.83203125,35058.0,[2],1,NA,NA,531.7448753316419
96,17917.41015625,14303.0,"[3,7]",2,NA,NA,NA
96,6995.47265625,5489.0,[5],1,NA,NA,NA
120,20780.8935546875,16663.0,"[0,5]",2,NA,NA,NA
120,29958.869140625,20752.0,"[1,6]",2,NA,NA,NA
120,37715.7080078125,26510.0,[2],1,NA,NA,522.8403720681071
120,26999.3525390625,22520.0,"[3,7]",2,NA,NA,NA
144,22068.223388671875,16873.0,"[0,5]",2,NA,NA,NA
144,28805.71728515625,21316.0,"[1,6]",2,NA,NA,NA
144,34458.927001953125,25030.0,[2],1,NA,NA,NA
144,16354.65576171875,12140.0,[3],1,NA,NA,NA
144,7434.9755859375,6306.0,[4],1,NA,NA,NA
144,10870.182373046875,8335.0,[7],1,NA,NA,NA
