time_in_hour,cumulative_size,size,pcore_ids,pcore_power,SCA-1,CD11b,Ly6C
-1,0,0,[],0,0.0,0.0,0.0
0,8632,8632,"[0,5]",2,NA,NA,NA
0,31133,31133,"[2,8,9]",3,219.42443709247468,NA,NA
0,40933,40933,"[3,7]",2,200.61859624264216,142.8620672806781,NA
0,4633,4633,[6],1,NA,NA,NA
24,12757.0,11678.0,"[0,5]",2,NA,NA,NA
24,41140.625,37249.0,"[2,8,9]",3,197.8908834029641,NA,NA
24,40260.625,35144.0,"[3,7]",2,186.9506527779965,142.7881863483235,NA
48,6742.40625,5744.0,[0],1,284.66994118382866,389.7463558540386,737.977488563522
48,36287.578125,31145.0,"[2,8,9]",3,195.06240685840885,458.17555034544023,504.2092231975023
48,45512.578125,40480.0,"[3,7]",2,182.90850812189953,137.83494501005046,184.543418800777
48,5760.21875,5164.0,[5],1,365.89096008723163,356.51774563683045,580.134543501495
72,7951.412109375,6670.0,"[0,6]",2,NA,NA,726.0547391960392
72,46975.947265625,42440.0,"[2,8,9]",3,217.7781053177769,NA,NA
72,41978.072265625,36289.0,"[3,7]",2,NA,139.85689780467163,204.13066592198223
96,7586.603515625,6734.0,"[0,5]",2,377.86953176226996,NA,NA
96,52319.993408203125,46448.0,"[2,8,9]",3,250.50229835889039,NA,NA
96,32561.259033203125,27314.0,"[3,7]",2,NA,152.04394784958964,NA
96,4138.951416015625,3758.0,[6],1,NA,NA,NA
120,10012.371887207031,9284.0,[0],1,NA,NA,NA
120,11817.376373291016,11384.0,[1],1,NA,155.94903382273762,NA
120,40457.99917602539,33918.0,"[2,8,9]",3,NA,NA,NA
120,27200.15737915039,23130.0,"[3,7]",2,NA,148.42218521094688,NA
120,10736.892852783203,9872.0,"[4,6]",2,NA,NA,NA
144,11293.546485900879,10042.0,[0],1,441.6914663382897,419.0380722490585,NA
144,20026.673934936523,17391.0,"[1,3]",2,NA,NA,NA
144,36313.249897003174,31256.0,"[2,8,9]",3,NA,NA,NA
144,17855.105800628662,16184.0,"[4,5,6]",3,NA,NA,NA
144,17368.517784118652,15127.0,[7],1,NA,145.61853290934212,NA
