time_in_hour,cumulative_size,size,pcore_ids,pcore_power,SCA-1,CD11b,Ly6C
-1,0,0,[],0,0.0,0.0,0.0
0,27323,27323,"[0,2,5]",3,242.06437799655947,NA,NA
0,44947,44947,"[1,3,6]",3,205.61492424411185,153.1746946403543,NA
0,30346,30346,"[2,7]",2,221.68256112832063,NA,NA
24,35904.375,32489.0,"[0,2,5]",3,209.9163019826979,NA,NA
24,43944.375,38326.0,"[1,3,6]",3,191.50231969393363,155.80546713885414,NA
24,41523.25,37730.0,"[2,7]",2,202.83003799076573,NA,NA
48,13484.890625,11868.0,[05],2,305.15390257382626,353.7909245648764,700.2646156056604
48,45977.796875,40907.0,[16],2,183.80674197702413,138.45063463037036,186.9000604571696
48,34424.40625,29234.0,[27],2,195.84007485604945,461.33157661579156,510.3160502949843
72,12223.611328125,10538.0,"[0,5]",2,324.5240517319723,NA,710.0951376602244
72,44438.05078125,40135.0,"[2,7]",2,213.5124430595589,NA,558.116736510204
72,37199.3203125,33047.0,[6],1,191.1093470184841,133.96668312152036,188.12329605106575
96,36921.719482421875,31374.0,"[1,3,6]",3,NA,161.6056226048822,NA
96,52403.75634765625,46849.0,"[2,7]",2,254.14211740919043,NA,NA
120,9905.74185180664,9166.0,[0],1,425.96994505851353,NA,NA
120,13685.701629638672,12519.0,[1],1,NA,157.09234245605074,NA
120,41033.46954345703,34483.0,"[2,7]",2,NA,NA,NA
120,6466.197570800781,6136.0,[4],1,NA,NA,NA
120,21818.989379882812,18636.0,[6],1,NA,146.0230137771687,NA
144,10810.21773147583,9572.0,[0],1,444.76084186981615,NA,NA
144,19581.40319442749,17321.0,"[1,3]",2,NA,NA,NA
144,37122.18369293213,31993.0,"[2,7]",2,NA,NA,NA
144,15365.915580749512,13864.0,"[4,5]",2,NA,NA,NA
144,19977.37367248535,17250.0,[6],1,NA,152.49979167926338,NA
