time_in_hour,cumulative_size,size,pcore_ids,pcore_power,SCA-1,CD11b,Ly6C
-1,0,0,[],0,0.0,0.0,0.0
0,4050,4050,[0],1,301.3140740740725,445.54839506172914,789.0824691358013
0,13876,13876,"[1,13]",2,202.36047852407086,112.57199481118515,248.35363217065444
0,7893,7893,[2],1,212.84961358165575,532.9533764094767,605.9727606740133
0,3046,3046,[3],1,414.77413000656304,109.68253447143786,671.1808929743934
0,22828,22828,"[4,7,12]",3,159.69717014193333,134.27961275626436,264.855090240056
0,15438,15438,"[5,10]",2,177.17579997409172,393.41533877445323,539.0771472988722
0,4542,4542,[6],1,215.11316600616607,238.99295464553035,301.04931748128587
0,3292,3292,[8],1,396.9030984204107,125.69076549210214,213.5595382746055
0,3263,3263,[9],1,210.06497088568835,165.80263561140046,524.5939319644494
0,4462,4462,[11],1,368.27902285969935,334.55939040788877,662.372926938592
24,6460.0,4435.0,[0],1,281.4490712074281,436.226702786378,778.9667182662521
24,39850.5,25703.0,"[1,4,7,13]",4,194.3004102834356,126.43359556341802,269.2849650569
24,16718.5,12772.0,[2],1,192.55704758202083,545.5377276669537,592.6720997697128
24,25917.0,18198.0,"[5,10]",2,167.34417563761528,402.1067639001435,529.3365551568459
24,5484.0,3213.0,[6],1,200.3063457330435,262.10412107950395,295.2175419401899
24,3400.0,1754.0,[8],1,399.3189705882328,125.94235294117644,199.44794117647112
24,4540.5,2909.0,[9],1,198.71489924017277,166.17641228939527,524.3907058693947
24,6719.0,4488.0,[11],1,359.829215657085,336.9336210745642,644.6432504837018
24,26429.5,17358.0,"[4,12]",2,141.3018218278859,122.57212584422695,137.28833311262036
24,4686.0,3409.0,[14],1,106.104780196331,416.8731327358089,749.2628040973115
24,2710.5,1635.0,[15],1,380.31230400294686,186.30510975834707,408.75152185943585
24,4071.5,2766.0,[16],1,376.203487658106,383.6699005280614,486.3308363011172
48,7400.0,4170.0,[0],1,296.72466216215946,429.91422297297294,759.3903378378351
48,23234.5,13707.0,"[1,13]",2,204.70726721039856,121.4316318405817,243.77865889087371
48,18397.25,10038.0,[2],1,205.85236923996894,548.8690565165989,570.5344141108001
48,2965.5,1638.0,[3],1,392.05243635136935,116.12552689259834,652.8631765300977
48,34791.75,21577.0,"[4,12]",2,138.65848225513702,126.97765993374924,133.05602621311124
48,31648.5,18690.0,"[5,10]",2,173.98513357663398,414.8156310725628,501.3543690854222
48,6808.0,4066.0,[6],1,199.10693301997756,285.1993977673325,295.10392185663846
48,5463.25,2385.0,[7],1,235.88468402507536,193.9176772067905,733.6065528760337
48,4075.0,2375.0,[8],1,399.0969938650276,137.2115337423314,184.595705521473
48,4349.25,2079.0,[9],1,207.3921940564476,161.72420532275655,528.6191872161842
48,7628.5,4269.0,[11],1,354.23966048370556,337.83017631251226,648.9933800878322
48,3198.25,1843.0,[15],1,373.8242007347712,192.50558899398078,402.30078949425547
48,4867.75,2832.0,[16],1,374.57824456884066,386.5323814904211,487.2154486158914
72,7764.0,4064.0,[0],1,307.3315623389971,430.8195034775884,768.4501867593979
72,26331.25,14714.0,"[1,13]",2,204.39346783764628,124.02888677901693,244.29917398528295
72,27102.625,17904.0,[2],1,204.03115011922327,553.5823790131042,575.3073779753796
72,4559.75,3077.0,[3],1,455.7628707714242,124.4500520861886,648.7046164811678
72,32740.875,15345.0,"[4,12]",2,138.19339357913182,127.2972545785662,133.74190518732365
72,30382.25,14558.0,"[5,10]",2,175.0154531017315,420.96336676842543,508.04992635502515
72,5603.0,2199.0,[6],1,200.2211315366781,278.50058004640306,302.6808406210948
72,7122.625,4391.0,[7],1,242.58338744493665,191.51469788174953,747.1011038767315
72,5889.5,3852.0,[8],1,436.0850878682377,155.95491977247636,187.7254011376181
72,3927.625,1753.0,[9],1,211.509054454028,156.68616530345923,534.5109321791142
72,6417.25,2603.0,[11],1,364.84952666639873,350.6548365732975,649.9009700416856
72,3979.125,2380.0,[15],1,386.57785945402014,189.7094210410573,393.5672415417973
72,4269.875,1836.0,[16],1,408.0064697444267,400.33033753915385,473.5179601276391
96,9293.0,5411.0,[0],1,356.17573711395244,441.5605630582143,770.8227294737954
96,25244.625,12079.0,"[1,13]",2,216.83248414266473,125.33067187569598,245.03383641072082
96,34211.3125,20660.0,[2],1,225.68701142348613,555.5397154815373,566.6002455328104
96,3984.875,1705.0,[3],1,473.4119326202214,124.48409611342895,651.7522977508696
96,26228.4375,9858.0,"[4,12]",2,144.3620998200948,127.32282470124271,130.61260320977942
96,16103.5625,6692.0,[5],1,143.33295815755488,423.57212883795245,482.0627617336187
96,5977.5,3176.0,[6],1,203.84299456294562,280.52954830614794,316.1566499372643
96,7820.3125,4259.0,[7],1,298.1566593406559,180.1019700299702,744.2758201798197
96,7527.75,4583.0,[8],1,447.245533193849,157.25153598352796,184.79165421274598
96,3935.8125,1972.0,[9],1,231.97144808092236,149.91091420132418,538.0777793657589
96,15701.5625,9922.0,[10],1,241.3847905264196,440.58824559657603,532.8658931236937
96,7028.625,3820.0,[11],1,393.6362108520447,357.02244393462394,656.51183552971
96,5438.5625,3449.0,[15],1,411.6596642035417,176.60195134284066,409.2047530942225
96,4462.9375,2328.0,[16],1,427.72754771940765,424.4003529065771,471.7534695478034
120,11036.5,6390.0,[0],1,403.8201026140504,466.70367926878964,765.7084956734462
120,13899.84375,7812.0,[1],1,285.2766802684343,128.08980091952446,249.20459087894298
120,49218.4375,24262.0,"[2,10]",2,245.74119454726457,527.693739642791,546.8033314497159
120,4425.4375,2433.0,[3],1,511.66391740929873,123.40876608244922,647.1928975948688
120,31030.6875,11382.0,"[4,12,13]",3,162.19145160738415,122.89292857272298,165.42833706955446
120,11444.78125,3393.0,[5],1,144.0381942643113,440.37470135132946,478.4579789369045
120,4756.75,1768.0,[6],1,216.70315866925992,284.67896935933135,316.5197219740366
120,7324.15625,3414.0,[7],1,335.36997862381304,171.60609370533322,736.5422808941314
120,14181.875,10418.0,[8],1,484.2558040632873,148.3540170111488,192.49546956943283
120,4119.90625,2152.0,[9],1,266.60583902849424,139.82590623269616,541.4219376957892
120,9437.3125,5923.0,[11],1,436.4103293442889,343.6206480923468,678.4163129068809
120,8996.28125,6277.0,[15],1,471.5428840388938,158.39793525797086,438.7686092517391
120,6173.46875,3942.0,[16],1,448.78815596984913,462.06326467595784,482.0536469063696
144,21759.90625,11523.0,"[0,11]",2,440.3645171667473,425.2454578877143,716.2461134799264
144,15576.921875,8627.0,[1],1,300.75304211056994,128.82988856712134,251.08217585510636
144,28508.828125,11296.0,[2],1,260.6055459794512,567.3225897679762,550.6715304743789
144,8902.71875,6690.0,[3],1,533.9900627266317,128.21228241372887,638.4159737018543
144,11275.28125,4772.0,[4],1,210.93841478455502,120.4427328586589,95.60153432979827
144,9095.390625,3373.0,[5],1,150.98260966664455,451.9066010427691,469.7743757569485
144,4696.375,2318.0,[6],1,236.0625748582678,295.1206715285737,315.07718053818144
144,6421.078125,2759.0,[7],1,350.08701323034717,176.34218114656633,717.4238165806496
144,15506.9375,8416.0,[8],1,482.95529924106216,147.62386593097418,194.62349311396886
144,4627.953125,2568.0,[9],1,295.0160674434179,138.6476472792706,540.1631660865189
144,17158.390625,9762.0,[10],1,267.5100010290136,463.94732715499066,503.93378786071327
144,14363.0625,5351.0,"[12,13]",2,145.74685390912018,125.72961676870756,217.95848400193245
144,11647.140625,7149.0,[15],1,474.14042475554044,167.12721604149112,429.72958491689906
144,8018.734375,4932.0,[16],1,456.30216153967245,484.9530338133934,492.4587070512596
