time_in_hour,cumulative_size,size,pcore_ids,pcore_power,SCA-1,CD11b,Ly6C
-1,0,0,[],0,0.0,0.0,0.0
0,26065,26065,"[1,8,10,12]",4,0.2328320512461301,0.17309940429122134,0.2587400352980822
0,6319,6319,[2],1,0.2624881977129796,0.5779481403137415,0.6939797993184171
0,16114,16114,[3],1,0.20799772129197555,0.14532429291973442,0.10692565471018897
0,15045,15045,"[4,14,16,17]",4,0.23014656405315967,0.41409542112726627,0.5506475377135115
0,3879,3879,[6],1,0.2835411651908429,0.3788700381098377,0.8041478557086832
0,3627,3627,[9],1,0.38198127031037166,0.16005836068600668,0.7414638908999152
0,3578,3578,[13],1,0.38411798694895355,0.3931826976824182,0.6574917741555972
0,7994,7994,[15],1,0.22371005782426984,0.4972643509781655,0.6117298162931769
24,23870.25,17354.0,"[1,8,10,12]",4,0.2231467311162221,0.17348635280829397,0.2655145140292953
24,10949.75,9370.0,[2],1,0.2269763482876723,0.5944867023658764,0.6688489547131974
24,22726.5,18698.0,[3],1,0.19805709910991234,0.14890733434258016,0.11113996361399633
24,19096.25,15335.0,"[4,14,16,17]",4,0.22052458972988123,0.42274074800286815,0.5377407235326025
24,6620.75,5651.0,[6],1,0.2458433584911588,0.3988483263317732,0.7988794256970455
24,2738.5,2143.0,[7],1,0.23263483864085338,0.16267410322227785,0.6599835595137075
24,4061.5,3167.0,[13],1,0.368856983983606,0.40073894973381585,0.643225524487506
24,14827.5,12829.0,[15],1,0.2086119399309308,0.517178014741168,0.5771211358236661
48,7963.4375,5226.0,[2],1,0.2677678663942957,0.6199024706915791,0.6488159493551191
48,43010.8125,33435.0,"[3,8]",2,0.18150867211548988,0.14979432918165642,0.14159321251369775
48,12179.0,10595.0,[4],1,0.20669365139478743,0.46282034524415067,0.4469337394993825
48,6880.1875,5225.0,[6],1,0.3107832731319044,0.41914999102076106,0.7844106169171761
48,3221.625,2537.0,[7],1,0.2664857221454213,0.1569377999670988,0.6415755572659955
48,6206.5,4672.0,"[11,13]",2,0.4040906507041765,0.3904917023387763,0.6299898406494948
48,5920.0,5367.0,[12],1,0.38052510770953046,0.18558136579735787,0.23069856813940817
48,4769.0625,2782.0,"[14,17]",2,0.2138723293347455,0.37327113059314043,0.5039537876144392
48,17176.875,12267.0,"[15,16]",2,0.2101807818275423,0.5488048473568946,0.5365729590116317
72,5360.046875,4394.0,"[0,13,16]",3,0.335223074697583,0.4345276068777205,0.6255535588475796
72,4073.1875,3591.0,[1],1,0.32563598891696915,0.16561341739250357,0.26878224833835307
72,15019.859375,13029.0,[2],1,0.29637753125049526,0.6070881382247633,0.6510341070592485
72,40799.703125,30047.0,"[3,8]",2,0.19795285837965243,0.14913210870216642,0.15541915626844177
72,7038.75,3994.0,[4],1,0.2240392594964905,0.44312926191951435,0.4557350160323892
72,5430.046875,3710.0,[6],1,0.3175183134754577,0.3861244191487663,0.8061416094957502
72,5995.953125,4570.0,"[7,9]",2,0.3413663692701885,0.1772402261654584,0.7148659577829015
72,3080.78125,1783.0,[11],1,0.4613691658313403,0.3802249626330214,0.6263140419113079
72,4132.0,2652.0,[12],1,0.44037021870274984,0.19159528886671906,0.22493613456384712
72,3148.890625,2223.0,[14],1,0.24175789571869202,0.31092663667708365,0.5228694448314581
72,19762.46875,15769.0,[15],1,0.18906647899062617,0.5578236272865684,0.5488204766315785
96,6410.296875,5392.0,[1],1,0.3239587305371961,0.1843348890054979,0.28297660447438255
96,43729.58203125,35034.0,"[2,15]",2,0.2780103281889079,0.5701210560883955,0.5704941728435418
96,16956.7890625,11625.0,[3],1,0.21669553286264842,0.1548683675971523,0.11629570149218788
96,6034.6875,4275.0,[4],1,0.24384286492707674,0.4300053244042334,0.4585983916525644
96,5330.51171875,3973.0,[6],1,0.3940718274744888,0.3822724954308907,0.7965356187665031
96,3017.1015625,2122.0,[7],1,0.3417909438357578,0.16225937317705416,0.6674950981944461
96,12663.13671875,7795.0,[8],1,0.20411908200582826,0.1788270908083322,0.2439670425779276
96,3834.88671875,3231.0,[9],1,0.4484648870438715,0.18730197590643233,0.7514101331024942
96,2706.4140625,2116.0,[10],1,0.3068267360209124,0.24568998813608375,0.3698251803364319
96,5292.0,4259.0,[12],1,0.4595580286480194,0.18265884411991273,0.19244714597358353
96,20044.5546875,14948.0,"[15,16]",2,0.25234973359711926,0.5246174236603234,0.5403403100258806
120,8003.57421875,6401.0,[1],1,0.3639926346876816,0.17244935924755989,0.27996260386975347
120,38157.3955078125,27225.0,"[2,15]",2,0.30035077028080354,0.5853935784946572,0.5561924894015668
120,14192.197265625,9953.0,[3],1,0.2375721832958403,0.1531858342904359,0.11817845888626209
120,5638.0859375,5104.0,[5],1,0.582731767116376,0.17168201740326672,0.47797005743952986
120,6514.6279296875,5182.0,[6],1,0.42992348960871646,0.3841698115786485,0.78123178215935
120,3391.275390625,2637.0,[7],1,0.3775418302618416,0.16135569585846346,0.6608250453795034
120,8238.7841796875,5073.0,[8],1,0.20833365995212988,0.17310577766044424,0.24491683395689423
120,4574.7216796875,3616.0,[9],1,0.558633402110013,0.16049199557125596,0.7273803048501385
120,11260.0,9937.0,[12],1,0.5356184557040156,0.17053382044329202,0.18041281806051152
120,5182.177734375,4633.0,[13],1,0.5264590002666828,0.552454692827966,0.7451231806454078
120,3040.734375,2310.0,[16],1,0.3437273325936081,0.5023282681767268,0.5357344880424487
144,3271.460205078125,2818.0,[0],1,0.4484928515600436,0.45046504009070526,0.6350388567649892
144,9136.8935546875,7136.0,[1],1,0.38492409872674216,0.1741275553450048,0.2821750296037401
144,29871.348876953125,20332.0,"[2,15]",2,0.32919512637577397,0.5947428171089559,0.5428409079377473
144,12701.04931640625,9153.0,[3],1,0.2649010415998007,0.156253936150961,0.1255926336777427
144,3205.66796875,2535.0,[4],1,0.29837917053286417,0.45573976123185594,0.44533377935148477
144,6247.521484375,4838.0,[5],1,0.5542449471684646,0.16982367347200503,0.46487989785153083
144,6081.656982421875,4453.0,[6],1,0.46594248834335944,0.3869827686312184,0.7469972582252814
144,4573.81884765625,3726.0,[7],1,0.42916280411435265,0.16522045020705248,0.6339732143529169
144,6990.696044921875,4931.0,[8],1,0.2232274499355683,0.17627939187635822,0.2417968666044865
144,6029.680419921875,4886.0,[9],1,0.5882599383713539,0.15410318472832235,0.6831327433807671
144,3702.15087890625,3041.0,[10],1,0.4272585385107043,0.25367044689623086,0.3852654939488519
144,10709.0,7894.0,[12],1,0.5248258786842158,0.17056429793060196,0.18657465749523874
144,6231.54443359375,4936.0,[13],1,0.5457942170188196,0.5602438352868893,0.7332323245222553
144,4673.18359375,3913.0,[16],1,0.37588030546524076,0.5097438108815276,0.5295344710142604
144,13440.88818359375,9663.0,"[15,17]",2,0.2680634455186371,0.5439803433468132,0.5064268048688645
