time_in_hour,cumulative_size,size,pcore_ids,pcore_power,SCA-1,CD11b,Ly6C
-1,0,0,[],0,0.0,0.0,0.0
0,14499,14499,[1],1,0.24114875028188884,0.18177646203717066,0.28112498657844603
0,24913,24913,[2],1,0.2102137460835647,0.1512781220729595,0.14148188926864033
0,6343,6343,[3],1,0.3354696940978886,0.17329057649327378,0.7154155519982903
0,7974,7974,[4],1,0.24552633136344829,0.36358209429514776,0.5388871013421668
0,7453,7453,[5],1,0.31426527587865016,0.39860228168923234,0.7592557009822772
0,23459,23459,[7],1,0.24555392123288478,0.4954789708201796,0.6116666513182125
24,16486.5,9237.0,[1],1,0.23144765703774833,0.1812060546452867,0.28375028039746586
24,37782.5,25326.0,[2],1,0.20263175463939928,0.15309923164049444,0.14052317382768964
24,6836.5,3665.0,[3],1,0.30847368347526494,0.17374822659712177,0.7143903001982185
24,17149.0,13162.0,[4],1,0.23383864227678078,0.39562574918949805,0.5408708176897317
24,12012.5,8286.0,[5],1,0.2864989886471238,0.41055678238637133,0.7645867217936007
24,37840.5,26111.0,[7],1,0.22504507016366712,0.5259586842869498,0.6042632378331307
48,19393.25,11150.0,[1],1,0.24391528559471004,0.17647668379275272,0.2610084324049437
48,47006.25,28115.0,[2],1,0.18807732655680723,0.14875552675735582,0.12224110723085879
48,7376.25,3958.0,[3],1,0.3152714546572739,0.1753681981963332,0.7054263574668742
48,22485.5,13911.0,[4],1,0.22331170224806646,0.42480548802139034,0.4970489891060204
48,14166.25,8160.0,[5],1,0.3262445656861642,0.42062287166018536,0.7520884768587737
48,36811.25,17891.0,[7],1,0.2302681192127637,0.5543739932937192,0.5785219337708114
72,16047.625,6351.0,[1],1,0.2668974871058418,0.17364657398275254,0.2582464858003996
72,52803.125,29300.0,[2],1,0.20265004159371766,0.14916795586354106,0.13939273626016244
72,7521.125,3833.0,[3],1,0.33621686556648045,0.17868093482392627,0.716889761988513
72,20721.75,9479.0,[4],1,0.23678987352891542,0.4049126033060222,0.5047850384655737
72,14456.125,7373.0,[5],1,0.34535002804397735,0.3953145750859698,0.7581236180801343
72,48945.625,30540.0,[7],1,0.2363409521888321,0.5656901274402236,0.5895614158898541
96,17534.8125,9511.0,[1],1,0.30031978520417574,0.188204590812618,0.2657031935349946
96,45402.5625,19001.0,[2],1,0.21431092967965581,0.16169334047183662,0.15561946181592676
96,8609.5625,4849.0,[3],1,0.374224660536764,0.18344036360180832,0.7098615001121161
96,18164.875,7804.0,[4],1,0.24832867111185428,0.4186548681681684,0.5015089029769981
96,12025.0625,4797.0,[5],1,0.37933679477593424,0.3944670398863611,0.7539293658547594
96,63124.8125,38652.0,[7],1,0.27530328519275754,0.5544814485067873,0.5757690777325501
120,5557.03125,2997.0,[0],1,0.33989604095681325,0.23073945926552203,0.3878811498880467
120,21943.40625,13176.0,[1],1,0.38280316380136237,0.1769702313390761,0.2285331710435096
120,36667.28125,13966.0,[2],1,0.2201226156669624,0.16027191448286074,0.15322288828233444
120,10804.78125,6500.0,[3],1,0.4343347886490494,0.17417218485411384,0.7065944097984611
120,11680.4375,2598.0,[4],1,0.24795779075296615,0.4271227172458125,0.4983069608073822
120,16439.53125,10427.0,[5],1,0.450001564509531,0.44529417656653525,0.7541613081974317
120,12249.5625,10054.0,[6],1,0.5905417053131441,0.19402861326680143,0.4329988684087461
120,61844.40625,30282.0,[7],1,0.2927856446828214,0.5698206186736937,0.562932991966643
144,6827.515625,4049.0,[0],1,0.371840183510574,0.22756534563834116,0.3857393454137994
144,24093.703125,13122.0,[1],1,0.4207870090655005,0.1758645471245384,0.22160613223716683
144,31975.640625,13642.0,[2],1,0.2331800861906346,0.16330789212263974,0.15888834226840157
144,14979.390625,9577.0,[3],1,0.4883285542756893,0.17490082091060805,0.6775933098168767
144,10709.21875,4869.0,[4],1,0.262790777202056,0.44163532352257545,0.4894833679626573
144,19100.765625,10881.0,[5],1,0.48951279610837434,0.46869179552037016,0.7295101772237267
144,14103.78125,7979.0,[6],1,0.5801244879917958,0.19585465305913793,0.4406255664360548
144,56803.203125,25881.0,[7],1,0.3157878905938895,0.575883520630231,0.5489980099177159
