time_in_hour,cumulative_size,size,pcore_ids,pcore_power,SCA-1,CD11b,Ly6C
-1,0,0,[],0,0.0,0.0,0.0
0,22593,22593,[1],1,184.17912627805273,132.81777541716554,158.99526401982837
0,13371,13371,[2],1,196.34619699349574,151.57983696058704,276.8870690299899
0,7085,7085,[3],1,291.43867325335066,153.52858151023352,693.8788990825685
0,9051,9051,[4],1,201.89526019224402,325.04132140095123,522.2271572201952
0,7951,7951,[5],1,305.82870079234846,373.67802792101594,725.737265752739
0,21236,21236,[7],1,208.858400828781,450.52443963081606,593.1388208702213
24,32367.0,13308.0,"[0,2]",2,205.93227670158032,155.22899867148666,294.15484907467425
24,45181.0,22588.0,[1],1,178.49215378145925,134.08578827383118,156.83486421283192
24,11561.0,4476.0,[3],1,271.70720525905887,155.0372805120667,693.3016175071328
24,22202.0,13151.0,[4],1,193.72191694442162,342.6023331231415,521.0825150887309
24,16898.0,8947.0,[5],1,288.7284293999246,375.8650727896807,727.9908864954452
24,45961.0,24725.0,[7],1,195.49700833315282,471.667435434394,588.9686038162691
48,12452.0,3439.0,[0],1,262.12126566013336,171.73265338901444,337.4220205589461
48,74599.0,29418.0,[1],1,174.3881419322002,133.32594270700622,153.24201396801476
48,33617.0,10263.0,[2],1,195.59333075527516,152.73668084600044,279.18454948389217
48,13035.0,1474.0,[3],1,271.93555811277133,157.5415420023016,691.5337936325254
48,35830.0,13628.0,[4],1,205.4751604800468,343.16982975160465,510.2541724811617
48,22405.0,5507.0,[5],1,298.3017629993252,366.9636241910296,720.575362642267
48,71811.0,25850.0,[7],1,205.66338026207754,473.4895071785693,574.9231315536493
72,56277.0,10208.0,"[0,2]",2,220.15349076887523,164.33893064662288,300.82820690513137
72,105062.0,30463.0,[1],1,182.27116369381977,137.42837562582102,167.5175325046157
72,16029.0,2994.0,[3],1,275.2357601846623,165.25341568407276,689.8322415621664
72,41480.0,5650.0,[4],1,210.03864513018252,341.2609209257476,515.5551350048228
72,27975.0,5570.0,[5],1,299.68679177836884,361.09787310098505,715.8350312779264
72,7446.0,1229.0,[6],1,385.47408004297233,201.4850926672043,467.7970722535583
72,105697.0,33886.0,[7],1,211.26631787089616,473.97522162407273,576.7986413994402
96,22762.0,7900.0,[0],1,297.2508566909752,174.69352429487776,322.354845795625
96,120555.0,15493.0,[1],1,183.47808054415145,137.1993446974429,166.0795902285252
96,47740.0,6325.0,[2],1,201.54507750314247,160.57457059069955,286.3126728110628
96,21225.0,5196.0,[3],1,291.53540636042004,161.3482214369844,691.1075147232029
96,46551.0,5071.0,[4],1,209.9332989624285,343.1195677858691,511.92068913664605
96,34892.0,6917.0,[5],1,317.68691963773483,364.73013871374695,717.2574802246862
96,12065.0,4619.0,[6],1,427.4012432656413,193.2484044757569,473.7397430584346
96,144176.0,38479.0,[7],1,222.16592220619205,482.0548426922631,568.1780462767772
120,37157.0,14395.0,[0],1,344.2327959738385,165.2901203003468,290.87501682051845
120,133506.0,12951.0,[1],1,186.60456458885855,136.83038964541146,164.3096939463399
120,51502.0,3762.0,[2],1,201.1265970253595,159.14987767465414,286.4439633412321
120,25932.0,4707.0,[3],1,304.28759833410084,158.07353848526824,691.1640829862718
120,48398.0,1847.0,[4],1,210.55078722261283,343.95725029959925,510.12820777718105
120,46719.0,11827.0,[5],1,347.0055865921732,380.8593933945505,719.650763072839
120,23503.0,11438.0,[6],1,483.46581287495144,181.30123813981203,481.55384419010545
120,173249.0,29073.0,[7],1,228.90225051803714,490.4837661400696,562.3442559553239
144,53016.0,15859.0,[0],1,365.07135581710844,162.79149690659307,278.39176852270947
144,143892.0,10386.0,[1],1,188.61185472437757,137.3842604175372,163.9607066410922
144,56316.0,4814.0,[2],1,203.48011222387998,158.9250479437472,285.9748739257069
144,30818.0,4886.0,[3],1,316.0341683431716,157.08469076513578,685.1867090661341
144,50862.0,2464.0,[4],1,211.93425347017362,345.5282332586237,507.74200778577415
144,60086.0,13367.0,[5],1,370.60914356089125,393.9197483606832,712.7826948041126
144,36495.0,12992.0,[6],1,498.0338950541178,177.4137553089457,496.74264967804214
144,198481.0,25232.0,[7],1,236.00924521742002,494.7555685430898,555.5590258009842
