time_in_hour,cumulative_size,size,pcore_ids,pcore_power,SCA-1,CD11b,Ly6C
-1,0,0,[],0,0.0,0.0,0.0
0,16718,16718,"[0,8]",2,0.24870925638919833,0.5285073557154396,0.6991629256278186
0,43610,43610,"[1,6,7]",3,0.22739885450456146,0.15605845622605222,0.2539241576863967
0,15036,15036,[2],1,0.204065523642137,0.4296029649504858,0.5439322019136255
0,4542,4542,[3],1,0.4331433462465142,0.17621530372132593,0.28893333097965224
0,6501,6501,[5],1,0.4075974482750204,0.3969206617011925,0.6389219201842835
24,40959.0,24241.0,"[0,8]",2,0.2298410221676883,0.5388520349065581,0.6856860119394725
24,78696.0,35086.0,"[1,6,7]",3,0.21572408345926464,0.15461561058373646,0.2328010745530764
24,31978.0,16942.0,[2],1,0.19560596786695758,0.43690985657843634,0.532744602671571
24,7823.0,3281.0,[3],1,0.42980465265918033,0.17857917510901558,0.2839247926065763
24,7056.0,3436.0,[4],1,0.2151745904354267,0.17803675957562487,0.6289447386229927
24,13515.0,7014.0,[5],1,0.40223787967592245,0.395513615674222,0.6242784763609197
48,17735.0,4091.0,[0],1,0.2675390185724273,0.43914818079646845,0.8034597448328309
48,121926.0,43230.0,"[1,6,7]",3,0.21292845337944208,0.15981740612193876,0.22047635999008586
48,91733.0,32440.0,"[2,8]",2,0.21681102594155752,0.5078053472420162,0.5556317857405332
48,10708.0,2885.0,[3],1,0.4249581327412425,0.18229245018314216,0.28026180704558307
48,9138.0,2082.0,[4],1,0.22725032645503107,0.1791389493824705,0.6254256071589256
48,18787.0,5272.0,[5],1,0.3970362006240176,0.397072973585518,0.6234641591594812
72,21851.0,4116.0,[0],1,0.2725806907764977,0.43162287321930165,0.8034095874478472
72,160327.0,38401.0,"[1,6,7]",3,0.2179124574263726,0.16105149297954902,0.2263444311190111
72,128426.0,36693.0,"[2,8]",2,0.221182591575056,0.5170643985130605,0.5615339409968145
72,15628.0,4920.0,[3],1,0.44152371284039227,0.18840009867426627,0.2720713435937901
72,11227.0,2089.0,[4],1,0.2308656999628716,0.18039505200577002,0.630418675310058
72,22568.0,3781.0,[5],1,0.4050820690726378,0.3985751057437668,0.6271100298508873
96,26363.0,4512.0,[0],1,0.29610720165775034,0.4347031945052579,0.8063071709042062
96,190005.0,29678.0,"[1,6,7]",3,0.22627555336361874,0.16160572578406818,0.23766397777950785
96,168149.0,39723.0,"[2,8]",2,0.22996112129283866,0.5275464857189026,0.5575789440961278
96,24136.0,8508.0,[3],1,0.45402354820809443,0.18782859610022726,0.2626189621100351
96,12818.0,1591.0,[4],1,0.23701124296766748,0.17833165888749533,0.6258400544056746
96,28556.0,5988.0,[5],1,0.41981727998287177,0.4134425632828152,0.6292693823038603
120,31436.0,5073.0,[0],1,0.3138599415827501,0.4405791930052269,0.8069889797661337
120,187179.0,18253.0,"[1,6]",2,0.20552667515100728,0.16000107115508602,0.17539279213347866
120,197237.0,29088.0,"[2,8]",2,0.23782967881051906,0.5373259578818835,0.554836017262197
120,71664.0,26449.0,"[3,7]",2,0.4743079596167868,0.17454611906847198,0.447785144706477
120,14194.0,1376.0,[4],1,0.24313754981136274,0.17672298919242557,0.6226602852674983
120,38317.0,9761.0,[5],1,0.4485184649756445,0.4345855548681355,0.6392359994426949
144,34037.0,2601.0,[0],1,0.320655908820963,0.44367282237576045,0.8041292742281503
144,204121.0,16942.0,"[1,6]",2,0.20952420323063786,0.1598461217917048,0.17580798864344224
144,223337.0,26100.0,"[2,8]",2,0.24579017560653946,0.5431153622378141,0.5498104460532687
144,100730.0,29066.0,"[3,7]",2,0.4889851276691378,0.17358919031342468,0.43667954444802487
144,15764.0,1570.0,[4],1,0.2517264482578708,0.1760896871386897,0.6179034692674633
144,52038.0,13721.0,[5],1,0.4700643566002515,0.45204883344037267,0.6471546919070827
