time_in_hour,cumulative_size,size,pcore_ids,pcore_power,SCA-1,CD11b,Ly6C
-1,0,0,[],0,0.0,0.0,0.0
0,12765,12765,[1],1,0.22261573737880727,0.40817120484639785,0.5562492966482488
0,12614,12614,[2],1,0.2181308266363593,0.1754720030247223,0.27340887189014335
0,15624,15624,[3],1,0.2343305746848709,0.5315426522139048,0.6251005676835495
0,6601,6601,[6],1,0.3431427652262408,0.17142181940073573,0.7254436713881147
0,24044,24044,[7],1,0.20610552002976087,0.1495086120393163,0.13444815722029935
0,6891,6891,[8],1,0.3231321101126821,0.42314751157487,0.7788101325798888
24,15916.8125,15119.0,[1],1,0.21279089698322487,0.42476922710908316,0.5336568238219958
24,10157.375,9369.0,[2],1,0.21512307504468794,0.17749073976574212,0.2823600063927128
24,21669.5,20693.0,[3],1,0.2128301383319567,0.5612144682733263,0.6077148663684232
24,26035.75,24533.0,[7],1,0.19837292920592442,0.15194635026507894,0.13432064950011782
24,7676.6875,7246.0,[8],1,0.2505661978394194,0.4282690656361123,0.7887105431919801
48,16667.80078125,15673.0,[1],1,0.23258362846708777,0.44414935016524565,0.48247996863104414
48,12184.8359375,11550.0,[2],1,0.22504195655675302,0.18955724082905814,0.26246719931817336
48,17394.34375,16040.0,[3],1,0.2419198010213807,0.55953542459228,0.5514143207084117
48,30945.234375,29318.0,[7],1,0.19962044629576114,0.1612639503751284,0.131266849633679
48,6565.79296875,6086.0,[8],1,0.32817257087028334,0.42300597047694954,0.7432856422756924
72,10101.737548828125,9060.0,[1],1,0.2233243659143029,0.43658312443874703,0.5127952535660614
72,10814.55224609375,10053.0,[2],1,0.24155802498268272,0.19152489029863362,0.2885067937852456
72,29180.146484375,28093.0,[3],1,0.24154351996358625,0.5685705627961545,0.5851091460155272
72,26134.0771484375,24200.0,[7],1,0.19979791606464162,0.15708014618336247,0.14450423750699726
96,9723.358596801758,9092.0,[1],1,0.24971708544513777,0.43448867069003405,0.4886978476098718
96,8899.90951538086,8224.0,[2],1,0.28212362541996633,0.20082515048517782,0.3012187514159107
96,35949.75915527344,34126.0,[3],1,0.28355872215163036,0.5749593651564998,0.5666518613150247
96,18671.379821777344,17038.0,[7],1,0.21392663387610142,0.15959324348322035,0.14821435989282666
120,10553.091012954712,10223.0,[0],1,0.5508110616649176,0.1695198190998171,0.18418363513836075
120,8415.244344711304,7859.0,[2],1,0.34178294256276004,0.18393517461157968,0.3044402099204429
120,29672.85994720459,27426.0,[3],1,0.31401088475206607,0.5894348388848744,0.5550495225904619
120,6655.7914361953735,6336.0,[6],1,0.5625239006528365,0.1463066057064197,0.6786880250649262
120,15711.961238861084,14545.0,[7],1,0.2359570141574967,0.15355986747998193,0.1480894410590044
120,8066.118601799011,7710.0,[8],1,0.437991223378286,0.3759253540946374,0.7568456049241297
144,9613.56818830967,8954.0,[0],1,0.523748023944586,0.17215368997380695,0.19468615847952603
144,10346.356869518757,9977.0,[1],1,0.2846846697049123,0.494857909606726,0.4848783906316446
144,8041.9527715444565,7516.0,[2],1,0.3766961841135909,0.19104497908401755,0.3185152007102042
144,22531.553746700287,20677.0,[3],1,0.35296076988779473,0.5996482763266602,0.5454270080499765
144,7160.827263355255,6799.0,[4],1,0.5046035705747554,0.20226604142732335,0.4560713099362215
144,8486.98696476221,8071.0,[6],1,0.567819243762228,0.1491465799349167,0.6484935527888114
144,15587.997577428818,14606.0,[7],1,0.2601199830560286,0.1625051014846707,0.16081245667418578
144,8124.132412612438,7620.0,[8],1,0.46508267230213274,0.3739569908728397,0.6996016193197085
