time_in_hour,cumulative_size,size,pcore_ids,pcore_power,SCA-1,CD11b,Ly6C
-1,0,0,[],0,0.0,0.0,0.0
0,20672,20672,"[0,8]",2,0.18401126639301776,0.14298359071837854,0.22466737874671594
0,9320,9320,"[1,11]",2,0.22124089791194504,0.5927203697589952,0.6405176739917987
0,14027,14027,"[3,13]",2,0.19820682904478998,0.45366982938850764,0.5654190939109944
0,6913,6913,[4],1,0.40516873436628525,0.16262396311493968,0.25486970257450436
0,4025,4025,[5],1,0.239063437783516,0.3467238132711289,0.8264870173885388
0,4849,4849,[6],1,0.22370788834023564,0.3503992519799292,0.39996904282149426
0,5661,5661,[7],1,0.42780983230420744,0.39288503302344147,0.6078527761352323
0,25421,25421,"[8,9]",2,0.1689421158919778,0.137836525222938,0.13801953718533538
0,3709,3709,[10],1,0.3681091544709021,0.5266479115859806,0.8108570557021035
0,5271,5271,[12],1,0.26065134859171984,0.14836237896936263,0.6917414655726446
24,21369.0,18785.0,"[0,8]",2,0.18184247526475983,0.1444188363635823,0.22250079888012944
24,14848.0,13683.0,"[1,11]",2,0.20073861761732475,0.6115285724908313,0.6213954242635694
24,18423.375,16670.0,"[3,13]",2,0.18366033685071348,0.46641857108599594,0.5474982056768162
24,4152.125,3288.0,[4],1,0.41859914697800477,0.1626112916885359,0.23638950941011297
24,5584.125,5081.0,[5],1,0.21224777704251602,0.35676539616740327,0.81842173393923
24,5348.125,4742.0,[6],1,0.21283328059161905,0.36210453509259427,0.39103650015759733
24,7167.625,6460.0,[7],1,0.4151928860832284,0.38796566796037296,0.5945487723989641
24,25815.625,22638.0,"[8,9]",2,0.16356320547748102,0.1384446297025599,0.12832307008351432
24,4704.625,4241.0,[10],1,0.31972756906378885,0.5233895426626605,0.7950768189834526
24,4444.875,3786.0,[12],1,0.23890426134631096,0.15041574521676343,0.6807117704124965
48,24600.125,21929.0,"[0,8]",2,0.18012310701810627,0.15308738915261788,0.20982080750762147
48,11702.0,9846.0,"[1,11]",2,0.24059731248523664,0.6200268947915498,0.574954950010923
48,18382.921875,16080.0,"[3,13]",2,0.19807865261177127,0.4903708518682897,0.5037774979528069
48,4719.015625,4200.0,[4],1,0.422548358670035,0.1840247987598675,0.21322311514891135
48,4326.015625,3628.0,[5],1,0.300443448181959,0.33979010957608474,0.7739224374144212
48,6701.515625,6033.0,[6],1,0.21379069744960985,0.38979467029585774,0.37255854094228136
48,5627.953125,4732.0,[7],1,0.42447250149975235,0.39655913928244446,0.5770700987030061
48,29617.953125,26391.0,"[8,9]",2,0.1582595996424814,0.14540789420982372,0.1176329390588168
48,4925.078125,4337.0,[10],1,0.35247169445102866,0.5046259487379503,0.7649180373970234
48,3698.609375,3143.0,[12],1,0.2690963792713813,0.16168758853298268,0.6531731499074838
72,24407.015625,21332.0,"[0,8]",2,0.1920936638027634,0.15162039366517863,0.21672830496574078
72,19723.75,18261.0,"[1,11]",2,0.2272892649818665,0.6251058123174185,0.5974975217750513
72,15372.865234375,13075.0,"[3,13]",2,0.19898731914201087,0.4942658548656567,0.5254596200643386
72,6032.876953125,5443.0,[4],1,0.49451258230731815,0.20502775057779152,0.20794654785246172
72,5341.751953125,4801.0,[5],1,0.27705049903404205,0.32804011172067743,0.820212761519355
72,4021.689453125,3184.0,[6],1,0.21555234548969232,0.3589354426830511,0.3958572342085465
72,3766.494140625,3063.0,[7],1,0.46261014805518513,0.4220037809986611,0.5665663331074742
72,24197.244140625,20495.0,"[8,9]",2,0.15883078827207828,0.1441654583073179,0.12625879926751118
72,4553.634765625,3938.0,[10],1,0.37391947159679206,0.5178850062557917,0.7788150065693484
72,4164.326171875,3702.0,[12],1,0.2722199220947568,0.1501788718628393,0.6868935950483427
96,11367.56494140625,9833.0,[0],1,0.28792382543948386,0.15445834731172656,0.25180261743861354
96,35187.536865234375,31682.0,"[1,11,13]",3,0.267223812750025,0.5899899110135084,0.5635856340772059
96,5139.5400390625,4258.0,[3],1,0.14586125807976894,0.5048276463361921,0.4963339469357596
96,6650.109619140625,5896.0,[4],1,0.5068972552541398,0.19681134504067282,0.19892707802417722
96,4645.718994140625,3978.0,[5],1,0.38145587940132725,0.3117145403701079,0.8145020854986091
96,5081.711181640625,4579.0,[6],1,0.23265495640111492,0.35085954610427394,0.4002430244310161
96,3891.811767578125,3421.0,[7],1,0.4811594672657124,0.4519114969678273,0.5544609000085419
96,17023.655517578125,13999.0,"[8,9]",2,0.17629292310592642,0.14512198797228804,0.12351564636960913
96,6062.204345703125,5493.0,[10],1,0.4450742364220669,0.5300286729726525,0.7832080871906535
96,4473.540771484375,3953.0,[12],1,0.33837771675847456,0.13912598455544153,0.6787801227433187
120,10650.945617675781,9230.0,[0],1,0.32464864936313054,0.14658934549708674,0.25824776526461213
120,30917.442108154297,26519.0,"[1,11,13]",3,0.292012759006465,0.6042647127166623,0.5506174735566852
120,7322.326690673828,6906.0,[2],1,0.6292675969239291,0.15332348960822195,0.6074510069959845
120,12442.263702392578,11611.0,[4],1,0.5599042659536858,0.1711160046168953,0.19524498499655077
120,5626.714874267578,5046.0,[5],1,0.406884038909056,0.3425856057373056,0.7875453314690161
120,3982.4764709472656,3496.0,[7],1,0.5311162961757823,0.4663363385305882,0.5192389505884761
120,13822.956939697266,11695.0,"[8,9]",2,0.2065018529324459,0.13950839559444048,0.1207268876378032
120,7906.775543212891,7149.0,[10],1,0.5111593884209046,0.5537384077223734,0.7836534433541943
120,4370.192596435547,3811.0,[12],1,0.3760439774405597,0.13557149869892765,0.6587060682561194
144,10337.368202209473,9006.0,[0],1,0.35233262334731585,0.1448457543884267,0.26108502102026426
144,22547.74420928955,19550.0,"[1,13]",2,0.3447276787350132,0.598406696273101,0.5294628406445646
144,8944.290836334229,8029.0,[2],1,0.616201112759102,0.1558247287720906,0.6136118501117417
144,8508.116367340088,7263.0,"[3,11]",2,0.20968307789454924,0.5792627544993332,0.4971844069713727
144,10995.282962799072,9440.0,[4],1,0.5541149927003785,0.16958992713657853,0.20548938943598422
144,6260.339359283447,5557.0,[5],1,0.4360899083861128,0.37521607435789517,0.7339702301189711
144,3674.6517372131348,3326.0,[6],1,0.3526773961901348,0.31681819405413364,0.3585086063648501
144,4020.809558868408,3523.0,[7],1,0.5676268559335953,0.4462017815214829,0.48985828606144305
144,6005.8642501831055,5260.0,[8],1,0.16889259069993,0.15105079811130978,0.18971034919659477
144,7250.005367279053,6268.0,[9],1,0.28389943360250514,0.1389898751244777,0.07283255400566496
144,8370.346942901611,7382.0,[10],1,0.5430927487239591,0.5617258153282993,0.7585364220973111
144,5942.274074554443,5396.0,[12],1,0.4109659842900192,0.14370980375986656,0.6196146033904613
