time_in_hour,cumulative_size,size,pcore_ids,pcore_power,SCA-1,CD11b,Ly6C
-1,0,0,[],0,0.0,0.0,0.0
0,19965,19965,"[2,7]",2,NA,155.3643375907841,NA
0,17901,17901,[5],1,184.05910284341797,130.78671582593122,NA
0,6801,6801,[10],1,239.38788413468623,NA,NA
0,24099,24099,"[11,12]",2,216.72737457985818,NA,NA
24,6744.0,6265.0,[1],1,NA,NA,NA
24,14190.75,12016.0,[2],1,194.07224776703256,153.90057784120015,NA
24,13787.375,12346.0,"[3,11]",2,NA,NA,NA
24,23190.625,20953.0,[5],1,176.61719983829983,133.65157795445356,NA
24,12190.125,11340.0,[10],1,200.90414372289143,NA,NA
24,25925.375,22913.0,"[11,12]",2,196.67152837712206,NA,NA
48,6511.0,5668.0,[1],1,287.06152088772524,372.06252399784915,740.8079764053144
48,15153.84375,13380.0,[2],1,210.58075405786127,145.37173633752235,255.89180653423372
48,8561.578125,7941.0,[3],1,186.0966490917836,363.62351968551263,414.2021622765958
48,27276.828125,24378.0,[5],1,152.89695294254852,128.67383029437227,134.74851880344812
48,6047.765625,5497.0,[8],1,366.7609680227938,352.23878911891563,584.4616348496478
48,8461.765625,6938.0,[10],1,236.5546290021471,546.8354362361584,601.192067997037
48,4897.84375,3795.0,[11],1,203.78787859453595,384.72224065436944,522.0878575393491
48,15622.828125,13485.0,[12],1,180.28872113223915,478.8871013070823,499.81066768280516
72,5142.814453125,4764.0,[0],1,442.94834494882673,185.43123122712493,NA
72,6025.875,5212.0,[1],1,293.7996880639719,NA,762.3956839126043
72,18010.23046875,16116.0,[2],1,208.29902687686942,138.36516842966125,253.58354322922773
72,5655.197265625,4585.0,[3],1,186.54700719505664,343.1940222990414,436.0224596359607
72,19048.603515625,15639.0,[5],1,148.70234376802827,125.33542115999515,130.1790454824387
72,15708.720703125,14651.0,[10],1,245.50622558006214,551.398317266299,609.5233009630281
72,8012.23046875,7400.0,[11],1,NA,358.6169530371286,584.1407223624428
72,14805.853515625,12853.0,[12],1,155.97341014171022,493.7263057249986,530.0205767434936
96,4575.851806640625,3933.0,[0],1,NA,NA,236.6526028895856
96,5045.234375,4292.0,[1],1,365.4183110995781,NA,NA
96,12094.27880859375,9843.0,[2],1,NA,NA,NA
96,5105.899658203125,4399.0,[3],1,225.04477027450648,345.9519096155095,NA
96,18061.075439453125,15680.0,[5],1,NA,142.32065535823924,NA
96,45238.32177734375,41424.0,"[10,12]",2,256.40954545168387,NA,NA
120,11233.981475830078,10662.0,[0],1,NA,153.49417559217005,NA
120,7969.654296875,7339.0,[1],1,406.04403999312797,NA,NA
120,9233.784851074219,7722.0,[2],1,NA,NA,NA
120,15586.63442993164,13329.0,[5],1,NA,139.56925861106137,NA
120,5159.225524902344,4728.0,[6],1,NA,NA,NA
120,5380.463348388672,5070.0,[7],1,NA,177.35432465444094,NA
120,36919.79022216797,31265.0,"[10,12]",2,NA,NA,NA
144,10824.24768447876,9420.0,[0],1,NA,154.36988226463907,NA
144,6849.206787109375,5853.0,[1],1,433.43688120115223,NA,NA
144,8374.223106384277,7220.0,[2],1,NA,NA,NA
144,4689.113361358643,4213.0,[4],1,NA,NA,NA
144,15126.329303741455,13178.0,[5],1,NA,145.34318487364988,NA
144,7126.903190612793,6482.0,[6],1,NA,NA,NA
144,6759.557918548584,6087.0,[7],1,NA,187.9574183318757,NA
144,5069.269474029541,4677.0,[8],1,NA,NA,676.4546550373087
144,20061.64984512329,16916.0,[10],1,NA,NA,NA
144,11189.323932647705,9720.0,[12],1,NA,NA,NA
