time_in_hour,cumulative_size,size,pcore_ids,pcore_power,SCA-1,CD11b,Ly6C
-1,0,0,[],0,0.0,0.0,0.0
0,5676,5676,[0],1,0.2941169600367405,0.4365375846223996,0.7771747489919646
0,29699,29699,"[2,9]",2,0.2466975205535994,0.4669387225890407,0.5939606299312988
0,7689,7689,"[4,5]",2,0.32856349578633154,0.22637454693753642,0.7238754869493652
0,39748,39748,"[6,8]",2,0.22238702138076877,0.16199423449177852,0.19480259039521247
24,10101.0,7263.0,[0],1,0.26171115553138025,0.44242001934309616,0.77872325812192
24,50188.5,35339.0,"[2,9]",2,0.2264838860865342,0.49258830408455345,0.5824550021030909
24,4519.0,3319.0,[3],1,0.24862900959991774,0.3254877095100725,0.47985282137138435
24,5253.5,3114.0,[4],1,0.26328835885760576,0.18051238842280143,0.7348369726153493
24,5236.0,3531.0,[5],1,0.36297188436150285,0.32962409562755657,0.6796873537833826
24,54226.0,34352.0,"[6,8]",2,0.21154919879638517,0.1611350614396956,0.18487856276178655
48,19495.5,11827.0,"[0,5]",2,0.33820452371751275,0.4077188714276908,0.720934415280233
48,49379.25,24285.0,"[2,9]",2,0.22517843294160117,0.5206869415009034,0.5575202046548149
48,10250.5,7991.0,[3],1,0.2336129122777801,0.3895126735899211,0.4257277525383337
48,4319.75,1693.0,[4],1,0.2740822626153324,0.18330603753830904,0.7324913630884997
48,67688.0,40575.0,"[6,8]",2,0.2072116039023777,0.157814801282808,0.16688221195165284
48,4222.5,2978.0,[7],1,0.37149726252485865,0.15237924928134955,0.5675345910456896
72,13540.75,8130.0,[0],1,0.3260134774205267,0.4284101208493894,0.7811697714236929
72,58049.625,33360.0,"[2,9]",2,0.22383114040865965,0.5430659475245968,0.5610979192870715
72,7860.25,2735.0,[3],1,0.25169280860995696,0.3755400296554876,0.40989775171213616
72,7075.875,4916.0,[4],1,0.2996088346559746,0.17742471371439533,0.7353702861950959
72,7917.0,3580.0,[5],1,0.4457196893897763,0.33946496370431534,0.6367964555987762
72,68412.0,34568.0,"[6,8]",2,0.21607170689878585,0.1544599386092466,0.16669836736596724
96,9939.375,3169.0,[0],1,0.3522302060172335,0.4175726541251349,0.7693369826846977
96,20683.0625,12099.0,"[1,6]",2,0.32238765292707955,0.1943445846383181,0.2858204615190032
96,75322.8125,46298.0,"[2,9]",2,0.2703169098436192,0.5326212105201127,0.561613208486242
96,6635.125,2705.0,[3],1,0.25991736394389064,0.37427894498470404,0.42836588692098027
96,7158.9375,3621.0,[4],1,0.3409280671495005,0.1922191938588296,0.7251785817512393
96,5258.5,1300.0,[5],1,0.4584802641629969,0.3396708066276666,0.6402213522999044
96,61225.0,27019.0,"[6,8]",2,0.23399379590844588,0.166963811759902,0.18588885877695632
120,19182.9375,11584.0,"[0,5]",2,0.453303448102414,0.4323403385069516,0.7300310895658289
120,15714.1875,13025.0,[1],1,0.5208293644148886,0.18471262414229955,0.2368384645742758
120,69515.40625,31854.0,"[2,9]",2,0.28736081394777374,0.5541871910360382,0.5552717551894583
120,4539.5625,1222.0,[3],1,0.26550842723700807,0.372907123789076,0.4276793034340471
120,7615.46875,4036.0,[4],1,0.3720224880474291,0.19173253062136578,0.7233580522149449
120,51893.5,21281.0,"[6,8]",2,0.24871052822315587,0.16630420552304112,0.1903542548584861
120,8726.8125,6998.0,[7],1,0.5600489129258375,0.15438300798991883,0.585148711218041
144,21657.46875,12066.0,"[0,5]",2,0.4882529674586926,0.45489519146438334,0.7131342555560425
144,19805.09375,11948.0,[1],1,0.513042942345422,0.1842883167932447,0.23215254912497432
144,63994.703125,29237.0,"[2,9]",2,0.3094555740435279,0.5611498628908251,0.5411284925751643
144,3894.78125,1625.0,[3],1,0.2899910406616738,0.3761990089781423,0.4260161151626707
144,8353.734375,4546.0,[4],1,0.4110570839661979,0.19841843169026663,0.6999155719465551
144,15901.671875,8317.0,[6],1,0.3398243769483798,0.1893763854202861,0.2926378878682903
144,14222.40625,9859.0,[7],1,0.5591312450017533,0.16081684658940545,0.578128743545929
144,30764.078125,12402.0,[8],1,0.23645260118276637,0.16108152679363633,0.15360465543376553
