time_in_hour,cumulative_size,size,pcore_ids,pcore_power,SCA-1,CD11b,Ly6C
-1,0,0,[],0,0.0,0.0,0.0
0,12435,12435,"[1,3]",2,314.1372738238815,140.49416968234806,486.88652995576854
0,21646,21646,"[2,5,8]",3,183.12200868520932,407.3653792848572,543.4163817795431
0,34206,34206,"[4,10]",2,171.67768812489285,136.1410278898442,199.4368239490146
0,4683,4683,[7],1,232.24087123638685,365.70318172111945,784.1667734358324
0,5683,5683,[9],1,373.8178778813954,333.1411226464894,628.7881400668642
24,28475.875,27123.0,"[2,5,8]",3,169.5549368544448,432.93048721066555,529.8365524325427
24,33307.875,31170.0,"[4,10]",2,166.0012966152924,134.99646855285724,193.383396569129
24,6803.6875,6511.0,[7],1,202.02794440514836,366.48769509181557,770.8015414435183
24,6407.1875,6052.0,[9],1,351.9793103448216,336.0461298346574,607.5111252011873
24,5760.4375,5526.0,[11],1,225.8444996582296,548.5613831414713,671.9255915891805
48,9005.26171875,8520.0,"[1,3]",2,302.0110278409249,154.65543234922987,416.2423244743629
48,28295.7421875,26516.0,"[2,5,8]",3,194.4977812474563,434.8385552431015,482.9652947177609
48,38090.7421875,36009.0,"[4,10]",2,163.84369387246858,143.08016937350496,183.49971603582355
48,5925.23046875,5500.0,[7],1,293.2494266111719,358.76760331711677,727.5945338360405
48,4980.02734375,4620.0,[11],1,254.5265533337459,543.0988448387975,623.6456893826683
72,16864.4931640625,15889.0,"[0,5]",2,201.22125850812012,476.46174768190497,550.6907674749567
72,10406.828857421875,9844.0,"[1,3]",2,354.9405464753251,152.0897059006028,462.9527647568225
72,10041.91064453125,9057.0,"[2,8]",2,172.2363573116659,380.1677802450303,488.9779260339214
72,34202.67138671875,31822.0,"[4,10]",2,174.09575780121082,140.97854552690688,201.7906275624289
72,5508.326904296875,5138.0,[7],1,272.4657011865047,345.9960399975042,772.6354853737738
72,24702.824951171875,23608.0,"[5,11]",2,207.83800707533516,523.200911971466,572.0794895209976
96,36842.85905456543,35000.0,"[0,5,11]",3,249.9887701186361,511.5115334896868,549.4411854521898
96,11134.426803588867,10484.0,"[1,3]",2,393.42535744148455,145.80779504019154,443.25361098989276
96,5441.798767089844,5034.0,[2],1,169.07903769358836,403.8205109565006,480.1548293284786
96,26009.666961669922,23872.0,"[4,10]",2,198.65509071042857,143.8596728128545,210.564063191804
96,5494.270431518555,5150.0,[7],1,371.42690916970764,352.3443612983202,772.0301730367872
120,18551.297545433044,17070.0,"[0,11]",2,312.25251492037387,529.1110302723584,548.8130013180912
120,11053.2712059021,10700.0,[1],1,493.7298854334372,144.92812352211467,200.014853677472
120,14981.191278457642,13928.0,"[3,10]",2,320.61001112228644,139.39216488466454,418.2185306721771
120,12851.043375968933,11936.0,[4],1,189.82962022881912,130.39301062878388,156.6007106828561
120,13269.381145477295,12448.0,[5],1,225.46661879111915,513.0689575141869,519.6299020881875
120,7281.192481994629,7069.0,[6],1,555.4929388692515,148.97216850436945,536.0549254193173
120,7313.39190196991,6970.0,[7],1,387.5971684245464,357.45427503624563,737.1586237632282
120,4996.186633110046,4760.0,[9],1,503.55312414225966,509.0541679607928,717.0783549382123
144,4660.0036425590515,4367.0,[0],1,381.1052927379709,447.9849314356426,511.0600765116825
144,8817.829450368881,8127.0,[1],1,488.01682654507175,142.5510238081538,201.39368326718224
144,17552.593348026276,16532.0,"[2,5]",2,245.8417469022598,481.4891211602263,485.9733264968376
144,5437.289404332638,5125.0,[3],1,392.0002861626933,139.6718352035673,644.8220833945173
144,12693.190210998058,11890.0,[4],1,207.11643401100326,137.0769176855181,167.558676936314
144,7537.074530124664,7082.0,[6],1,548.7198874859913,139.7713974265759,583.7901596593942
144,8119.086993873119,7662.0,[7],1,417.0102656990685,372.1565863629214,692.2035228326314
144,5817.182893157005,5652.0,[8],1,423.1109392826038,202.58482919693967,411.6693262051677
144,4780.261664569378,4468.0,[9],1,530.8739384609377,519.267830094197,711.5794739755339
144,9817.035050570965,9193.0,[10],1,320.6272540780843,145.2451881675297,283.1823398531956
144,22799.788775622845,21104.0,"[5,11]",2,293.0068673774313,537.4335455497514,525.3320472226567
