time_in_hour,cumulative_size,size,pcore_ids,pcore_power,SCA-1,CD11b,Ly6C
-1,0,0,[],0,0.0,0.0,0.0
0,6209,6209,[0],1,0.2602159605212444,0.44746168348529164,0.831905944420791
0,38252,38252,"[1,3,7]",3,0.20760295121530126,0.14510482520536602,0.17470845083838538
0,20937,20937,"[2,9]",2,0.213765158503871,0.5291678742324828,0.5900018434771903
0,6370,6370,[4],1,0.20165329052969636,0.3220799562428524,0.5044800411170118
0,6854,6854,[5],1,0.427686448985741,0.3953199043528426,0.6482992715388004
0,3785,3785,[6],1,0.46529589004497,0.2229800893022584,0.3439394162280486
0,7617,7617,[8],1,0.33555869263459864,0.147374858690106,0.7204271128378
24,22499.625,20609.0,"[0,2]",2,0.22643067147249044,0.5415962123752814,0.7067408064818886
24,38292.5,33511.0,"[1,3,7]",3,0.20081670656016573,0.14574400815111813,0.16487009935392083
24,25134.875,22836.0,"[4,9]",2,0.1818654706174826,0.4407477484761574,0.5263230927054984
24,8164.75,7308.0,[5],1,0.41023268703397114,0.3899822712108476,0.6164652342273921
24,4662.125,3710.0,[8],1,0.3002260928297089,0.15007436333784982,0.7132910968734499
48,7121.640625,5986.0,[0],1,0.315598880952762,0.4314012069177834,0.7818798121931299
48,43775.5625,38989.0,"[1,3,7]",3,0.1976060011068037,0.15157356362092958,0.15007535757639048
48,29701.140625,25746.0,"[2,9]",2,0.21754203037768227,0.5505914152095496,0.5269954095889544
48,6867.53125,6004.0,[4],1,0.19981779235246036,0.3506205610327684,0.44049582199994475
48,6353.59375,5333.0,[5],1,0.41346343071455266,0.40946362124706076,0.6045872842490952
48,3373.390625,3061.0,[6],1,0.4391633640531727,0.2543991618091225,0.35134774580549627
48,5463.765625,4881.0,[8],1,0.3259384564596225,0.1712957295104693,0.6845992767356407
72,8234.205078125,7344.0,[0],1,0.3232731197998151,0.3601196583803453,0.7976391388821482
72,40320.9453125,34849.0,"[1,3,7]",3,0.21844172560104247,0.15213499743237094,0.16645593667386333
72,36223.642578125,32511.0,"[2,9]",2,0.2241128222622911,0.5715586870686061,0.5734541129114666
72,7003.44140625,6145.0,[4],1,0.25489689405744603,0.2962524937207612,0.5072481700388588
72,3927.19921875,3133.0,[5],1,0.4672759680842832,0.38603006127909706,0.6422937549840042
72,3435.673828125,3014.0,[6],1,0.5208635901663397,0.24384019286881178,0.32418353678818623
72,3686.970703125,3004.0,[8],1,0.3611916538605686,0.16056668695703416,0.710351028772543
96,6483.275634765625,5454.0,[0],1,0.4006405302826693,0.4001979140811154,0.8170224313611711
96,22728.668701171875,19133.0,"[1,7]",2,0.18994494209461993,0.15017286529880802,0.15596309713250903
96,43146.955322265625,38619.0,"[2,9]",2,0.2598545699636421,0.5757806036683367,0.5584967493266717
96,13831.90869140625,11958.0,"[3,6]",2,0.43282033061082203,0.18639383518544092,0.24119210632567561
96,5446.43017578125,4571.0,[4],1,0.2702334018094691,0.29376146617000637,0.4755639882685755
96,4837.89990234375,4347.0,[5],1,0.49911277330122256,0.46312817037779735,0.6526680046830077
96,6378.871337890625,5918.0,[8],1,0.44060046337223563,0.15046235372426273,0.7082046515728008
120,11651.146942138672,10236.0,"[0,5]",2,0.4749295097412309,0.4099868544174172,0.730636207149307
120,22039.083587646484,19198.0,"[1,7]",2,0.2615081519346749,0.16755311066547435,0.19143656138836312
120,41198.3694152832,35805.0,"[2,9]",2,0.3202079277962484,0.5614219248965873,0.5556249481412875
120,17877.98858642578,16149.0,"[3,6]",2,0.5018213933052894,0.18152622163866972,0.2600115698331078
120,3226.8037719726562,2546.0,[4],1,0.35551496896852686,0.24450200053375298,0.48496783726121306
120,6863.358917236328,6066.0,[8],1,0.5339795218488208,0.15965934985206548,0.6608157996690215
144,13468.393367767334,12012.0,"[0,5]",2,0.493988912816835,0.427388271205432,0.6951691811702143
144,32678.361221313477,28461.0,"[1,3,7]",3,0.3512168159474019,0.17800716265785632,0.20787809134771496
144,36886.7961769104,31737.0,"[2,9]",2,0.3482116539032631,0.5573376326948526,0.5362263945177895
144,9801.623271942139,8626.0,"[4,6]",2,0.49522493601210626,0.22407535654549224,0.4109080007922279
144,10021.919864654541,9164.0,[8],1,0.5331553036903753,0.16233746573350533,0.6218634369109761
