time_in_hour,cumulative_size,size,pcore_ids,pcore_power,SCA-1,CD11b,Ly6C
-1,0,0,[],0,0.0,0.0,0.0
0,7490,7490,[0],1,NA,NA,NA
0,44189,44189,"[1,6,7]",3,NA,NA,NA
0,21809,21809,[2],1,186.70374615984352,NA,NA
0,7005,7005,[5],1,NA,NA,NA
24,13821.0,10076.0,[0],1,NA,NA,NA
24,58328.5,36234.0,"[1,6,7]",3,NA,NA,NA
24,39468.5,28564.0,[2],1,176.22141707944743,NA,NA
24,5589.0,3232.0,[3],1,NA,NA,NA
24,7005.0,4597.0,[4],1,NA,NA,NA
24,10799.5,7297.0,[5],1,NA,NA,NA
48,11732.5,4822.0,[0],1,NA,NA,NA
48,72768.25,43604.0,"[1,6,7]",3,NA,NA,NA
48,48209.25,28475.0,[2],1,190.68646577161303,NA,517.5282596182212
48,6496.5,3702.0,[3],1,NA,NA,NA
48,6025.5,2523.0,[4],1,NA,NA,NA
48,12273.75,6874.0,[5],1,339.5429473469744,NA,NA
72,12788.25,6922.0,[0],1,NA,NA,NA
72,75914.125,39530.0,"[1,6,7]",3,NA,146.77362414438701,NA
72,54345.625,30241.0,[2],1,192.89999424976995,NA,534.9156739847799
72,9159.25,5911.0,[3],1,NA,NA,NA
72,6331.75,3319.0,[4],1,NA,NA,NA
72,10213.875,4077.0,[5],1,NA,NA,NA
96,12716.125,6322.0,[0],1,NA,NA,NA
96,58153.25,24602.0,"[1,6]",2,NA,144.86817159832037,NA
96,62836.8125,35664.0,[2],1,NA,NA,531.8034760674444
96,24059.4375,15074.0,"[3,7]",2,NA,NA,NA
96,11225.9375,6119.0,[5],1,NA,NA,NA
120,28762.03125,16791.0,"[0,5]",2,NA,NA,NA
120,48786.625,19710.0,"[1,6]",2,NA,NA,NA
120,57427.40625,26009.0,[2],1,NA,NA,525.5066461624947
120,37109.71875,25080.0,"[3,7]",2,NA,NA,NA
144,32217.015625,17836.0,"[0,5]",2,NA,NA,NA
144,43750.3125,19357.0,"[1,6]",2,NA,NA,NA
144,52726.703125,24013.0,[2],1,NA,NA,NA
144,26138.40625,14893.0,[3],1,NA,NA,NA
144,6202.21875,3651.0,[4],1,NA,NA,NA
144,17559.453125,10250.0,[7],1,NA,NA,NA
