time_in_hour,cumulative_size,size,pcore_ids,pcore_power,SCA-1,CD11b,Ly6C
-1,0,0,[],0,0.0,0.0,0.0
0,26479,26479,"[0,2,5]",3,0.27004503462782176,0.47339191699594885,0.6594108993040751
0,44163,44163,"[1,3,7]",3,0.2285463427491689,0.16824217524897253,0.21536757911456392
0,28916,28916,"[2,8]",2,0.24284657924309277,0.4677406987567046,0.5874124759190354
24,16518.5,11685.0,"[0,5]",2,0.291924716346294,0.4121410493130072,0.7282146298410228
24,59652.5,37571.0,"[1,3,7]",3,0.21720356992676518,0.16851134995461003,0.20579417410916026
24,50582.0,36124.0,"[2,8]",2,0.22453545227929134,0.4900944857067377,0.5764627354519852
24,5780.0,3238.0,[4],1,0.2695013801951714,0.1905144710266323,0.7418156264208812
48,19103.25,10844.0,"[0,5]",2,0.33672036804137784,0.421404258106089,0.7106574205808178
48,73679.25,43853.0,"[1,3,7]",3,0.21335251608542222,0.16752504054929102,0.18577411769894417
48,54936.0,29645.0,"[2,8]",2,0.22135613269291626,0.5116504346975204,0.5404727586634073
48,6303.0,3413.0,[4],1,0.287695265496899,0.19508841046029204,0.7345250361566438
72,12762.875,7522.0,[0],1,0.31972547659793077,0.42144469897600784,0.7883106466990292
72,73636.625,36797.0,"[1,3,7]",3,0.22280789033196316,0.16155232901060826,0.18084660266887193
72,62888.0,35420.0,"[2,8]",2,0.22303056557475628,0.5319884294049164,0.5509207614186713
72,8239.5,5088.0,[4],1,0.311153896242476,0.18072746295229966,0.7330919482999975
72,8461.75,4151.0,[5],1,0.4424279714763978,0.3778773846161879,0.6020644584108128
96,15586.3125,4974.0,"[0,5]",2,0.38587143565219967,0.40048203242631375,0.7129651234719973
96,68124.3125,31306.0,"[1,3,7]",3,0.24669294003080705,0.17389724872021087,0.20150224192307697
96,79008.0,47564.0,"[2,8]",2,0.26766046536746607,0.5258809814379312,0.553048430761356
96,8191.75,4072.0,[4],1,0.34902982001280125,0.19386930614028275,0.722953812105082
120,19400.15625,11607.0,"[0,5]",2,0.4469519305714758,0.44327189070416106,0.722184632428808
120,28805.0,18989.0,"[1,3]",2,0.41563315489274116,0.19205676814608355,0.26524441452953856
120,71600.0,32096.0,"[2,8]",2,0.28387115578510547,0.548768052544937,0.5488916779295194
120,8462.875,4367.0,[4],1,0.3796079522474782,0.19022997487094798,0.7205686942251089
120,9606.96875,7874.0,[6],1,0.5957219725103771,0.16306257713828706,0.5656689146351291
120,39313.15625,15067.0,[7],1,0.22344727208382079,0.15901093824945084,0.15966173558180038
144,22042.078125,12342.0,"[0,5]",2,0.4836924942069827,0.46510216924191766,0.7071020680184844
144,33072.5,18670.0,"[1,3]",2,0.44549987801314755,0.19286896029017553,0.26827758098686694
144,65395.0,29595.0,"[2,8]",2,0.305520519051897,0.5562163710417666,0.535574040616788
144,8738.4375,4507.0,[4],1,0.4158453968265415,0.19542184096534887,0.7012675176798638
144,14601.484375,9798.0,[6],1,0.5772341908394829,0.16482893015583,0.575823496298771
144,34744.578125,15088.0,[7],1,0.23874392848569023,0.16320838276239572,0.1658112686396311
