time_in_hour,cumulative_size,size,pcore_ids,pcore_power,SCA-1,CD11b,Ly6C
-1,0,0,[],0,0.0,0.0,0.0
0,20577,20577,"[1,4,8]",3,216.45706371191258,153.5434222675809,286.8326286630695
0,19253,19253,"[2,5]",2,209.220537059161,450.1207604009776,589.7394172336784
0,4069,4069,[7],1,240.7535020889646,180.9518309166872,729.9036618333749
0,17297,17297,"[5,9,15]",3,202.08677805399935,379.9417818118751,546.2901081112334
0,4267,4267,[10],1,323.779470353875,332.7457229903917,652.0911647527548
0,34886,34886,"[4,12]",2,188.42627415009045,137.77601330046505,200.4103651894733
0,3842,3842,[13],1,248.19338885996825,404.66710046850665,769.5848516397693
24,24267.5,13979.0,"[1,4,8]",3,208.66733285258175,152.62703203873545,286.8251983104965
24,35950.5,26324.0,"[2,5]",2,192.49202375488662,468.3977830628217,578.2789251888001
24,5020.5,2986.0,[7],1,223.35404840155445,186.18195398864654,731.2313514590192
24,28724.5,20076.0,"[5,9,15]",3,192.71348500409206,391.3504673710602,538.6391059896591
24,5812.5,3679.0,[10],1,321.3702365591353,334.6675268817201,642.8900645161282
24,2905.5,2071.0,[11],1,343.00086043709734,302.4224746171053,488.4226467045254
24,49014.0,31571.0,"[4,12]",2,180.71819276125564,137.80256661362108,194.46503039947697
24,7603.0,5682.0,[13],1,222.1123898461131,398.0685913455213,763.2324740234096
48,22892.75,12255.0,"[1,4]",2,184.73847615511673,147.40681001627172,270.44953096504184
48,38176.25,20201.0,"[2,5]",2,197.31896794473184,488.61164336465845,550.6061556596026
48,4859.75,3536.0,[6],1,198.2512474921562,311.5302227480842,371.45583620556505
48,4944.25,2434.0,[7],1,244.89548465388987,192.7184608383476,724.0921272184864
48,5533.0,4037.0,[8],1,348.45897343213,158.78673414061095,269.8785017169705
48,32521.25,18159.0,"[5,9,15]",3,185.07232194334702,412.56871276473254,505.58402582926595
48,7621.25,4715.0,[10],1,342.3278661636809,344.33505002460277,646.7830408397609
48,3736.75,2284.0,[11],1,369.6807386097488,323.6420017394791,482.25088646551177
48,57897.0,33390.0,"[4,12]",2,167.47798245159925,133.32372143634385,176.3349309981507
48,7241.5,3440.0,[13],1,254.89031968514647,403.5466063660841,758.9570185734974
48,3215.0,1989.0,[14],1,240.5437013996884,141.9445567651636,540.5876360808717
72,4701.0,3481.0,[0],1,323.3434907466457,461.7607158051463,639.2651829397995
72,8065.25,5580.0,[1],1,276.0708130560112,162.4890114999535,306.03711912215846
72,26093.5,16134.0,[2],1,205.15854044110702,548.3753329373221,581.2319878513786
72,55537.5,26589.0,"[4,12]",2,162.13911996399244,130.0576682421787,175.93202340760604
72,31640.625,15380.0,"[5,9,15]",3,178.04040296296503,422.0535822222219,510.0046617283952
72,4186.875,1757.0,[6],1,203.75214211076437,312.22606359158107,367.22716823406415
72,7652.125,5180.0,[7],1,259.9307055229748,178.68097097211557,730.4700655046797
72,7517.5,4751.0,[8],1,397.9249418024575,163.99847023611622,242.67121715996066
72,6681.625,2871.0,[10],1,385.1796718612563,331.42682356462683,646.3353787439451
72,3240.375,1372.0,[11],1,407.1489410947761,321.0704393781579,466.48443467191424
72,7882.75,4262.0,[13],1,259.06924931020114,395.2859566775539,780.044860613361
72,2996.5,1389.0,[14],1,263.470048389787,132.39174870682498,549.4365509761403
96,5560.5,3210.0,[0],1,361.0060021580746,439.97222596888724,649.2595652369394
96,27880.1875,13544.0,"[1,4]",2,223.52290268851397,154.7376004017181,277.94118583312843
96,41751.75,28705.0,[2],1,250.25947864460704,521.5273341836,570.4770323998246
96,2987.5,1710.0,[3],1,450.0834309623404,141.5091631799166,643.8968619246867
96,32747.3125,16927.0,"[5,9,15]",3,210.19202148268027,404.8713176844646,511.52072784598886
96,3355.4375,1262.0,[6],1,223.52863821781887,285.433941177566,363.3466947305667
96,5374.0625,1548.0,[7],1,277.44506599988136,186.5576670349481,718.3563877420477
96,6675.75,2917.0,[8],1,405.73993558775845,160.90195858143395,236.98677114930908
96,5251.8125,1911.0,[10],1,391.72115579144855,319.34610670125795,661.7839674398118
96,31573.1875,14108.0,[12],1,182.27812166573565,135.56619243780864,153.9576559224492
96,6221.375,2280.0,[13],1,291.43140583873816,374.5603162484175,756.2185710554313
96,2703.25,1205.0,[14],1,283.9533894386368,142.23802367520574,550.7505086469997
120,8613.25,5833.0,[0],1,427.4560633326539,479.8319776216866,681.5580537253634
120,10306.3125,6097.0,[1],1,316.2033492822929,162.72377972237877,309.34201429948735
120,60541.03125,29559.0,"[2,5]",2,250.37454711757988,504.83815108864883,542.1656701833815
120,7307.75,5814.0,[3],1,532.0912900687671,129.92977489651386,626.1152800109476
120,15161.78125,5431.0,[4],1,199.7071213186126,149.7085661521465,264.81886610453387
120,5074.03125,2387.0,[7],1,308.28792441906563,182.78371487168152,716.8316242632507
120,14729.875,11392.0,[8],1,469.4010090038118,150.44157706701472,217.98923743412607
120,24302.65625,7929.0,"[5,9,15]",3,213.7821007220159,421.6469868905786,506.78055253733936
120,5786.90625,3161.0,[10],1,416.7693283868186,328.82283819614344,678.2269293286017
120,4254.59375,3108.0,[11],1,473.98398789543734,277.34696320888384,450.4765290458113
120,25725.59375,9939.0,[12],1,190.61688930892123,134.68452623178075,152.4436328607569
120,6312.6875,3202.0,[13],1,325.9285417264791,375.7355474589856,754.4816144074933
120,3343.625,1992.0,[14],1,317.3907061946203,136.2528599199969,533.0370948446664
144,10853.625,6547.0,[0],1,456.38917585138347,488.4731498116994,681.5658319800974
144,12675.15625,7522.0,[1],1,339.09327671009436,162.6922005399354,310.076314394547
144,55023.515625,24753.0,"[2,5]",2,268.26320479453875,509.7399143264051,528.3022006215997
144,10698.875,7045.0,[3],1,526.0220408687879,131.14866341087213,618.0372206189913
144,34291.6875,13848.0,"[4,12]",2,206.39827573008833,142.05605859291697,194.7385745816673
144,4620.015625,2083.0,[7],1,338.3625528863826,185.62104768314558,699.044612267951
144,16479.9375,9115.0,[8],1,465.03138095942074,148.91080821756697,216.72855915715644
144,18621.75,7737.0,"[5,9]",2,216.9390321465498,438.17727925678435,489.763351323049
144,7108.453125,4215.0,[10],1,438.6414963698565,335.46095427758775,669.7566607538115
144,6302.296875,4175.0,[11],1,483.3841878085142,264.9215613355252,441.3853183487184
144,5324.34375,2168.0,[13],1,349.69727783353056,380.98827613731805,737.13898132986
144,4995.8125,3324.0,[14],1,364.4299600915726,133.81171418563025,511.4035160697091
144,4350.578125,3084.0,[15],1,327.11170570002827,405.5636032567514,525.1520667152721
