time_in_hour,cumulative_size,size,pcore_ids,pcore_power,SCA-1,CD11b,Ly6C
-1,0,0,[],0,0.0,0.0,0.0
0,8800,8800,[0],1,NA,NA,NA
0,45370,45370,"[1,5,6]",3,NA,NA,NA
0,27263,27263,"[2,7]",2,NA,NA,NA
24,18477.0,9677.0,[0],1,NA,NA,NA
24,82897.0,37527.0,"[1,5,6]",3,NA,NA,NA
24,61911.0,34648.0,"[2,7]",2,NA,NA,NA
24,6948.0,2918.0,[3],1,NA,NA,NA
24,9781.0,5230.0,[4],1,NA,NA,NA
48,25360.0,6883.0,[0],1,NA,NA,NA
48,110310.0,40244.0,"[1,6]",2,NA,NA,NA
48,94543.0,32632.0,"[2,7]",2,NA,NA,NA
48,26292.0,6513.0,"[3,5]",2,NA,NA,NA
48,13509.0,3728.0,[4],1,NA,NA,NA
72,31327.0,5967.0,[0],1,NA,NA,NA
72,143922.0,33612.0,"[1,6]",2,NA,141.89957754895,NA
72,131113.0,36570.0,"[2,7]",2,NA,NA,NA
72,36430.0,10138.0,"[3,5]",2,NA,NA,NA
72,17222.0,3713.0,[4],1,NA,NA,NA
96,40045.0,8718.0,[0],1,NA,NA,NA
96,166535.0,22613.0,"[1,6]",2,NA,142.3173687212897,NA
96,171234.0,40121.0,"[2,7]",2,NA,NA,NA
96,49671.0,13241.0,"[3,5]",2,NA,NA,NA
96,22529.0,5307.0,[4],1,NA,NA,NA
120,51675.0,11630.0,[0],1,NA,NA,NA
120,184117.0,17582.0,"[1,6]",2,NA,NA,NA
120,201448.0,30214.0,"[2,7]",2,NA,NA,NA
120,69779.0,20108.0,"[3,5]",2,NA,NA,NA
120,32995.0,10466.0,[4],1,NA,NA,NA
144,64364.0,12689.0,[0],1,NA,NA,NA
144,200359.0,16242.0,"[1,6]",2,NA,NA,NA
144,229010.0,27562.0,"[2,7]",2,NA,NA,NA
144,89011.0,19232.0,"[3,5]",2,NA,NA,NA
144,47270.0,14275.0,[4],1,NA,NA,NA
