time_in_hour,cumulative_size,size,pcore_ids,pcore_power,SCA-1,CD11b,Ly6C
-1,0,0,[],0,0.0,0.0,0.0
0,26479,26479,"[0,2,5]",3,240.34008081876135,418.47845462441876,635.1509875750595
0,44163,44163,"[1,3,7]",3,203.40624504676032,148.72608292009173,236.4000860448784
0,7275,7275,"[4,6]",2,292.89264604810825,158.9976632302406,670.1742955326454
0,28916,28916,"[2,8]",2,216.13345552635258,413.4827777009269,570.4964033752939
24,12793.1875,12189.0,"[0,5]",2,246.1871699293074,373.1956412348361,690.7140372561564
24,40889.1875,38129.0,"[1,3,7]",3,189.04071828280138,152.021506296744,228.80764169011624
24,36659.25,34852.0,"[2,8]",2,195.29669012595912,440.69482463498105,556.4090270531972
48,6840.28515625,6348.0,[0],1,294.05663369525246,395.58954619147806,733.6292249557853
48,42210.27734375,39842.0,"[1,7]",2,182.84931940912526,135.21557944039682,180.9396775685271
48,30465.203125,28174.0,"[2,8]",2,192.43470534775273,471.1601724918737,506.6721215751764
48,4687.296875,4500.0,[3],1,223.38143486217783,291.1448046082,382.65635510872136
48,4673.609375,4445.0,[4],1,276.21329874193657,169.7709236704771,675.8651629328224
48,5437.2890625,5130.0,[5],1,368.13045333654765,360.1072685290954,572.4249719457506
72,9928.618408203125,9209.0,"[0,4]",2,290.9597689523056,266.9125409622552,716.2684561263134
72,41500.098388671875,38569.0,"[1,3,7]",3,210.11688677107875,151.5444257200471,222.45402969706626
72,40838.0751953125,38934.0,"[2,8]",2,215.42318307352,465.3158677674935,554.6594620465222
96,7840.584274291992,7385.0,"[0,5]",2,366.94763283669033,353.6111634545234,698.4264342257575
96,34041.75614929199,31448.0,"[1,3,7]",3,245.08629726807186,159.56081296984598,233.21321827947602
96,47099.37969970703,44547.0,"[2,8]",2,252.5958268490123,476.90895120177265,538.6946858524216
96,4909.881286621094,4627.0,[4],1,354.6147610319483,158.15602838675807,686.3053740858717
120,11753.03651714325,11263.0,"[0,5]",2,423.9491413730697,418.2884462063413,690.2762911929349
120,12411.180833816528,11924.0,[1],1,470.6043963466206,155.9146018027138,227.56305801520244
120,35356.71123123169,32413.0,"[2,8]",2,273.547562419049,503.61554046912397,533.1886632118698
120,6187.449047088623,5909.0,[3],1,332.147158745717,182.74418960764882,373.54052205696655
120,5496.867580413818,5190.0,[4],1,387.03329534031036,170.2718764945115,686.1527614399591
120,6381.769209861755,6250.0,[6],1,540.8351023295962,143.863405100479,560.5876077690629
120,18412.979878425598,17051.0,[7],1,223.87653383874363,140.4701726990503,192.51932773773942
144,12319.564782321453,11585.0,"[0,5]",2,446.54711476840185,423.0056055968202,660.1631467738623
144,18660.414367556572,17498.0,"[1,3]",2,421.8750767135767,170.97866797711964,296.096068226503
144,32374.79445195198,30165.0,"[2,8]",2,299.9777465828197,499.27050042694606,516.9713857071331
144,14689.414799392223,13947.0,"[4,6]",2,468.7182449139946,161.82231187499667,599.4334761130644
144,17955.8112424016,16805.0,[7],1,246.74533343217186,148.81882070880886,202.44573512535877
