time_in_hour,cumulative_size,size,pcore_ids,pcore_power,SCA-1,CD11b,Ly6C
-1,0,0,[],0,0.0,0.0,0.0
0,5676,5676,[0],1,0.2941169600367405,0.4365375846223996,0.7771747489919646
0,29699,29699,"[2,9]",2,0.2466975205535994,0.4669387225890407,0.5939606299312988
0,7689,7689,"[4,5]",2,0.32856349578633154,0.22637454693753642,0.7238754869493652
0,39748,39748,"[6,8]",2,0.22238702138076877,0.16199423449177852,0.19480259039521247
24,12651.0,6975.0,[0],1,0.270644324426101,0.4409254754600632,0.7806364594539816
24,31281.0,12266.0,"[1,3,6]",3,0.24772915604798848,0.20892154620625392,0.33226766441898986
24,65512.0,35813.0,"[2,9]",2,0.22968877131696358,0.4877403552608128,0.585878501390173
24,7345.0,3066.0,[4],1,0.26807856754958304,0.1771787376520492,0.7351702065402115
24,7113.0,3703.0,[5],1,0.3735819997251379,0.32057723001603616,0.6871838538990529
24,3673.0,1525.0,[7],1,0.37375962459122913,0.15594228644147745,0.5539611575955754
24,73937.0,34189.0,"[6,8]",2,0.21408923448797246,0.160561498578005,0.18603864368608708
48,18144.0,5493.0,[0],1,0.28810093533876086,0.44810046525732994,0.7753764243881154
48,37501.0,11585.0,"[1,6]",2,0.2537273163352367,0.18724119091364172,0.2921956231130058
48,88241.0,22729.0,"[2,9]",2,0.2293874321969878,0.5056030735653482,0.5735350361225943
48,15279.0,9914.0,[3],1,0.23363557677388064,0.3801823784989847,0.4410524015742221
48,8961.0,1616.0,[4],1,0.27177043091849873,0.17756217111757797,0.7333504577743323
48,12927.0,5814.0,[5],1,0.38522272432144355,0.33574567874528116,0.6783346366946973
48,6862.0,3189.0,[7],1,0.37580290739752054,0.1564668229913312,0.561394568973184
48,114119.0,40182.0,"[6,8]",2,0.20999407182981195,0.15853491665582453,0.17442607822869632
72,24008.0,5864.0,[0],1,0.2939202381977518,0.4502032976187426,0.7853784261964601
72,48295.0,10794.0,"[1,6]",2,0.26818280907019504,0.18490454357856254,0.2862853366616793
72,119182.0,30941.0,"[2,9]",2,0.226767606299044,0.5232761430842516,0.5736879221869893
72,19996.0,4717.0,[3],1,0.24084125813927057,0.38067472091703586,0.4313411680108843
72,14167.0,5206.0,[4],1,0.2754689446831251,0.17556661695796102,0.7379633776729175
72,18675.0,5748.0,[5],1,0.4241283937247066,0.3300931629989016,0.6660726350092244
72,7939.0,1077.0,[7],1,0.3892075955565669,0.15511459266043856,0.5590820428933186
72,149410.0,35291.0,"[6,8]",2,0.21407938641052085,0.15695566967629168,0.17317056591859556
96,29887.0,5879.0,[0],1,0.3233355376412176,0.4450138129639745,0.7835398262929826
96,51840.0,3545.0,"[1,6]",2,0.27238165834374195,0.18495226349086588,0.2896177462261834
96,164538.0,45356.0,"[2,9]",2,0.24334087095211412,0.5274352239472149,0.5709641379340304
96,21975.0,1979.0,[3],1,0.24696935997239208,0.37794928420305024,0.42807077287158246
96,16693.0,2526.0,[4],1,0.29552984935487236,0.17351482847146757,0.7315180989537675
96,21821.0,3146.0,[5],1,0.43080436379963577,0.3250875956802772,0.6687624118039154
96,9093.0,1154.0,[7],1,0.3937832163770853,0.1559911582327012,0.560438448822693
96,177056.0,27646.0,"[6,8]",2,0.22267472793474535,0.15676216635808318,0.17294174188519376
120,36253.0,6366.0,[0],1,0.34684085036588647,0.4497417782744286,0.7733747800734826
120,72481.0,20641.0,"[1,6]",2,0.3216608180462366,0.19155630175759564,0.28317544796088107
120,196054.0,31516.0,"[2,9]",2,0.2590861804526878,0.5269677871093569,0.5648336273790857
120,24344.0,2369.0,[3],1,0.25352609784105845,0.38068756756475497,0.42963262465902596
120,19164.0,2471.0,[4],1,0.30868382665062527,0.18313850394451792,0.7264521706670715
120,27077.0,5256.0,[5],1,0.45678591183777095,0.3306876467764029,0.6714825401418538
120,15202.0,6109.0,[7],1,0.460227512938125,0.15824558092796895,0.566873160810804
120,201032.0,23976.0,"[6,8]",2,0.2279182899385284,0.1662926144983297,0.1828181505480712
144,43031.0,6778.0,[0],1,0.3679049517215024,0.461679026306513,0.767135559131515
144,35594.0,14708.0,[1],1,0.47141258500201205,0.19902459538022665,0.2833803224762105
144,224896.0,28842.0,"[2,9]",2,0.2672153680622562,0.5324393783141586,0.5578980857115517
144,25569.0,1225.0,[3],1,0.2560416164061038,0.37916601852250076,0.42815971734982056
144,21040.0,1876.0,[4],1,0.31479877814329105,0.1827572023983609,0.7229627837949998
144,35451.0,8374.0,[5],1,0.48127378857159003,0.3444230459709155,0.6727384748068798
144,218515.0,17483.0,"[6,8]",2,0.23095344031868176,0.16621344113904224,0.18333579052815732
144,25916.0,10714.0,[7],1,0.49592117836189914,0.15599048160468437,0.5714347037250013
