time_in_hour,cumulative_size,size,pcore_ids,pcore_power,SCA-1,CD11b,Ly6C
-1,0,0,[],0,0.0,0.0,0.0
0,11548,11548,"[0,10]",2,221.00251125736028,120.81806373398004,228.13231728437864
0,6449,6449,[1],1,241.39510001550613,543.5791595596205,624.4347960924165
0,14812,14812,"[2,5]",2,178.5759519308686,390.8360113421557,540.7876721577088
0,4752,4752,[3],1,372.23653198652806,125.01704545454542,693.9263468013473
0,5219,5219,[4],1,239.35159992335699,110.86836558727734,100.82736156351821
0,5255,5255,[6],1,222.14157944814463,185.71113225499568,354.7263558515703
0,5334,5334,[7],1,250.53318335208073,385.8755155605546,796.7559055118123
0,3823,3823,[8],1,416.45932513732396,145.13575725869765,295.20272037666786
0,4299,4299,[9],1,194.9155617585489,154.02372644801164,647.1446848104215
0,5845,5845,[11],1,382.7934987168459,349.9977758768175,634.5100085543173
0,15289,15289,"[10,12]",2,164.96428805023405,130.57564261887632,159.0590620707705
0,3747,3747,[13],1,108.77021617293943,478.2991726714705,634.0712570056031
0,8397,8397,[14],1,113.01833988329557,123.55793735858063,239.05621055138826
24,21190.0,9642.0,"[0,10]",2,219.63501651722459,122.67527135441263,227.14119867862223
24,15507.0,9058.0,[1],1,229.3386212678137,552.2126781453502,612.6134648868223
24,31882.0,17070.0,"[2,5]",2,174.16379148108936,394.24430713255185,530.8949877673915
24,6588.0,1836.0,[3],1,369.65088038858,125.81952034001213,688.1697024893755
24,9652.0,4433.0,[4],1,240.47865727310386,110.62940323249052,99.95192706174905
24,9162.0,3907.0,[6],1,218.32001746343582,187.84643091028255,362.1759441170053
24,12267.0,6933.0,[7],1,233.394228417706,383.6043042308646,789.1191000244563
24,5822.0,1999.0,[8],1,416.659910683611,147.09189282033685,292.69168670559964
24,8143.0,3844.0,[9],1,189.552253469239,155.61083138892312,655.9033525727623
24,11850.0,6005.0,[11],1,374.9506329113841,347.53088607594884,619.4695358649774
24,29332.0,14043.0,"[10,12]",2,160.74437474430923,130.8585162961954,153.05635483431098
24,10677.0,6930.0,[13],1,107.61328088414821,493.89407136836047,614.1427367237999
24,16231.0,7834.0,[14],1,112.05125993469746,124.71782391719604,238.01996180148998
24,5352.0,2487.0,[15],1,294.71599402092323,403.37798953662104,379.0018684603879
48,32735.0,11545.0,"[0,10]",2,219.12524820528512,127.14180540705665,224.28196120360428
48,23756.0,8249.0,[1],1,233.4918336420268,553.5572907896955,597.3140680249144
48,48878.0,16996.0,"[2,5]",2,175.62087237612286,402.7314742829081,515.5922091738627
48,9240.0,2652.0,[3],1,365.9244588744529,132.30735930735895,683.5706709956709
48,15417.0,5765.0,[4],1,242.199195693066,113.63105662580277,98.47006551209769
48,12970.0,3808.0,[6],1,220.16692367000798,193.56700077100987,361.12976098689325
48,17060.0,4793.0,[7],1,250.2603165298931,383.65504103165455,777.7977725674099
48,8421.0,2599.0,[8],1,415.2745517159445,153.45956537228386,289.06329414558866
48,10600.0,2457.0,[9],1,197.92443396226534,157.61103773584935,650.1910377358477
48,17286.0,5436.0,[11],1,373.89147286820986,349.5680319333545,614.6679393729002
48,25901.0,10221.0,[12],1,118.89262962820465,125.20987606656124,105.18748310875995
48,13150.0,2473.0,[13],1,109.35733840304644,498.4536121672984,600.5127756653981
48,46146.0,16263.0,"[10,14]",2,154.12993542235796,135.45759112382476,220.53657955185642
48,9882.0,4530.0,[15],1,277.2186804290607,411.5534304796601,378.3252378061124
72,43911.0,11176.0,"[0,10]",2,218.5538931019565,127.80298786181068,224.56131720981097
72,37170.0,13414.0,[1],1,234.49451170298425,556.8093085821912,593.2033360236617
72,61600.0,12722.0,"[2,5]",2,177.40448051948323,406.0866883116894,514.8603084415579
72,13519.0,4279.0,[3],1,386.80176048523873,132.31829277313386,679.8204009172238
72,19623.0,4206.0,[4],1,243.80110074912034,114.61407531977767,98.118075727463
72,16536.0,3566.0,[6],1,222.59373488147077,193.9994557329456,360.93813497822947
72,22512.0,5452.0,[7],1,253.82529317697046,380.1172263681607,781.3891702203232
72,13399.0,4978.0,[8],1,431.72468094633854,162.51167997611725,279.1310545563101
72,13842.0,3242.0,[9],1,199.46264990608412,157.9772431729517,658.5390117035107
72,21244.0,3958.0,[11],1,381.2859160233421,356.3477687817713,615.8683863679117
72,32655.0,6754.0,[12],1,119.10610932476415,125.25175317715588,104.77409278823998
72,20102.0,6952.0,[13],1,112.55228335489464,505.24435379563914,590.0400457665911
72,60835.0,14689.0,"[10,14]",2,153.7251089011296,136.17905810799718,219.94060984630488
72,11498.0,1616.0,[15],1,284.7912680466145,412.3079666028874,376.8061401982957
96,53398.0,9487.0,"[0,10]",2,221.54951496310736,127.91716918236547,225.92758155736223
96,56542.0,19372.0,[1],1,244.4388596087824,556.8531710940593,584.0669590746497
96,75074.0,13474.0,"[2,5]",2,182.49544449476687,410.3856994432167,512.959466659559
96,19609.0,6090.0,[3],1,398.94176143607234,134.37987658728073,682.055025753478
96,24167.0,4544.0,[4],1,248.65829436835386,115.31526461703956,97.96995903504762
96,20566.0,4030.0,[6],1,226.60011669746146,195.9211319653795,361.74005640377334
96,27357.0,4845.0,[7],1,273.91402566070474,381.88098110173024,783.088569653091
96,19420.0,6021.0,[8],1,439.4112770339866,164.30463439752816,274.0487641606593
96,15388.0,1546.0,[9],1,203.95009097998533,157.03535222251094,655.321289316351
96,26767.0,5523.0,[11],1,391.0700115814223,368.46553592109444,619.2214667314188
96,36412.0,3757.0,[12],1,119.18897616171049,125.3609524332647,104.12611227067927
96,24449.0,4347.0,[13],1,115.24454987934544,508.56910303079417,581.8955376498034
96,69786.0,8951.0,"[10,14]",2,154.8433926575564,137.38162382139646,219.60904765998802
96,14384.0,2886.0,[15],1,288.3507369299204,414.04505005561623,377.53399610678645
120,62433.0,9035.0,"[0,10]",2,225.65620745439094,126.99722902951899,227.28236669709977
120,74899.0,18357.0,[1],1,253.6422916193778,557.2053431954989,575.5300070761626
120,81238.0,6164.0,"[2,5]",2,185.5622738127487,414.054383416628,512.1756320933507
120,24678.0,5069.0,[3],1,NA,133.45032012318617,675.4609773887657
120,28995.0,4828.0,[4],1,255.60137954819785,115.16640800137938,98.01031212277951
120,23408.0,2842.0,[6],1,232.22137730690315,194.57510252904987,363.37901572112156
120,32271.0,4914.0,[7],1,287.1560844101465,385.2210963403701,782.6386229121912
120,34139.0,14719.0,[8],1,464.595008641143,158.6808049444911,272.1921263071569
120,17890.0,2502.0,[9],1,220.87400782560184,153.23079932923392,655.4520402459474
120,37498.0,10731.0,[11],1,420.6338204704224,374.6714224758635,631.8551389407374
120,38853.0,2441.0,[12],1,119.63042750882033,125.1962010655556,103.7336627802221
120,27391.0,2942.0,[13],1,117.23894709941705,511.0580847723649,576.7104888467024
120,75919.0,6133.0,"[10,14]",2,156.59041873576078,137.75816330562841,219.053991754369
120,17579.0,3195.0,[15],1,293.60014790374714,422.1606462256102,379.42078616531205
144,71750.0,9317.0,"[0,10]",2,230.31782578397178,126.7972961672466,228.44204878048905
144,89440.0,14541.0,[1],1,262.25642889087266,559.3940071556286,569.4159324686569
144,46921.0,5301.0,[2],1,230.13294686813674,435.0783444513106,538.9433729033766
144,32022.0,7344.0,[3],1,432.1784085940878,133.13993504465546,663.5965273874216
144,33881.0,4886.0,[4],1,262.17611640742325,115.96779906142103,98.51716301171683
144,41268.0,1650.0,[5],1,142.87527866628304,396.4702190559274,478.95471067171366
144,26585.0,3177.0,[6],1,239.17679142373458,194.20925333834978,364.5835621591129
144,34723.0,2452.0,[7],1,292.27578262246385,388.293667021862,779.924430492734
144,48302.0,14163.0,[8],1,469.28249347853165,158.3785143472306,276.94813879342615
144,20472.0,2582.0,[9],1,237.7769148104737,150.2140484564284,651.3860394685402
144,51639.0,14141.0,[11],1,439.64271190378986,380.89697709095583,640.0576114951817
144,40614.0,1761.0,[12],1,120.12734525041157,125.1748165657169,103.5743093514546
144,28596.0,1205.0,[13],1,118.15456707232298,512.0364736326712,574.1011330255985
144,81390.0,5471.0,"[10,14]",2,158.5519965597768,138.5758569848872,218.5926280869881
144,23332.0,5753.0,[15],1,298.1990399451385,430.49069946854,385.9814417966755
