time_in_hour,cumulative_size,size,pcore_ids,pcore_power,SCA-1,CD11b,Ly6C
-1,0,0,[],0,0.0,0.0,0.0
0,3749,3749,[0],1,0.3535717389805805,0.5136338015929444,0.830025051966343
0,28333,28333,"[1,4,7,13]",4,0.22444558832219003,0.13978587397807576,0.26281228881744206
0,9638,9638,[2],1,0.23195100853130737,0.5881966790579182,0.6264104687689915
0,13068,13068,[5],1,0.1825546923095461,0.438866157114822,0.5406255986332923
0,5648,5648,[6],1,0.2933680411878895,0.2262619691589863,0.29599653305740786
0,5122,5122,[10],1,0.38021160098100265,0.40110047863797593,0.6775127860167364
0,17593,17593,"[4,12]",2,0.16706204012449077,0.1406412155389861,0.10096898986828767
24,5733.5,3859.0,[0],1,0.32800728617439273,0.5074735410327569,0.8187412198420432
24,39474.5,25308.0,"[1,4,7,13]",4,0.21924731383266866,0.14158809722457258,0.25048094960009226
24,19702.0,14883.0,[2],1,0.21210149200617462,0.6041680829426334,0.6106402716737719
24,22125.0,15591.0,[5],1,0.17567508411096708,0.4460172047958711,0.5322302668830935
24,6563.0,3739.0,[6],1,0.2793826302372674,0.23812846321383585,0.3002556682922791
24,4636.0,2915.0,[9],1,0.23267527702106736,0.1831425027036098,0.5325128124813803
24,7337.0,4776.0,[10],1,0.38059251783709175,0.4062034182415161,0.6661158183815548
24,25063.5,16267.0,"[4,12]",2,0.1634217850704197,0.14032294623240665,0.09573123020312363
24,5314.0,4016.0,[14],1,0.14504340876125735,0.4343375179028504,0.8101422221253625
48,6672.75,3806.0,[0],1,0.3416660246962814,0.49710640172064596,0.7986740773876784
48,32205.0,19374.0,"[1,4,7]",3,0.24654679729053122,0.14756646827696646,0.21954895368582947
48,21294.0,11443.0,[2],1,0.22681994611553885,0.6087667106745608,0.5865011877411176
48,24938.5,13876.0,[5],1,0.1777662487922584,0.4568779355585812,0.505047941320952
48,8108.5,4827.0,[6],1,0.2744727928037771,0.25080853369613565,0.29824740542143235
48,4427.0,2109.0,[9],1,0.2423133199493412,0.1778127481814079,0.5381802444304331
48,8461.5,4793.0,[10],1,0.37868936431834976,0.4096080115872179,0.6701927912184988
48,4202.0,2484.0,[11],1,0.4485160891817098,0.33118070526639976,0.536936952813858
48,48088.0,28650.0,"[4,12,13]",3,0.16311459772253148,0.14422311217142622,0.13598380697007198
48,6704.25,5042.0,[15],1,0.3095486973088063,0.489171242257521,0.4144770963935787
72,7053.375,3717.0,[0],1,0.35302027896040317,0.4965915598153597,0.8096569811723902
72,33718.5,17616.0,"[1,4,7]",3,0.2502684611338459,0.15029378937016247,0.252093796163065
72,31202.0,20555.0,[2],1,0.22743674058635022,0.61393045872306,0.5910366652800026
72,4202.0,2935.0,[3],1,0.5231769983795843,0.13558326297970552,0.6675450310542562
72,22773.25,10304.0,[5],1,0.17520864280325346,0.46072361506338194,0.5093693498142293
72,8194.25,4140.0,[6],1,0.27977337835896743,0.24170008298225934,0.3043182135226686
72,5955.0,4267.0,[8],1,0.5140056038264492,0.18840625961680896,0.2018685520019303
72,4052.5,1839.0,[9],1,0.25055497022922435,0.171013158739507,0.5441817377433417
72,7519.75,3289.0,[10],1,0.3918818459703977,0.4264975534260518,0.6670347890865884
72,3902.0,1801.0,[11],1,0.47954311819348816,0.34067505264732517,0.511042785151582
72,46846.0,22802.0,"[4,12,13]",3,0.16233168913010695,0.1445240245645548,0.1404027288579633
72,5435.125,2083.0,[15],1,0.3125549348817974,0.49550922070190195,0.42187873678434795
96,8833.6875,5307.0,[0],1,0.40764429547860814,0.49820218191755333,0.8159819862246235
96,33019.25,16160.0,"[1,4,7]",3,0.27312591020917004,0.1515052412522146,0.2729126061697189
96,39626.0,24025.0,[2],1,0.2515326200253251,0.6159793535764144,0.5815989239787162
96,5240.0,3139.0,[3],1,0.5520697395788685,0.13742025858346818,0.6679928838895606
96,19643.625,8257.0,[5],1,0.17627986493317022,0.4639989870120412,0.5050349489577635
96,9210.125,5113.0,[6],1,0.2897430679383267,0.2413653550302249,0.30869594077811363
96,7822.5,4845.0,[8],1,0.5205863236630145,0.18701188270868538,0.19299022863207177
96,4144.25,2118.0,[9],1,0.27429840519522886,0.16317588399344066,0.5443362237613403
96,8291.875,4532.0,[10],1,0.41340601797311644,0.45913239634147957,0.6579686389677292
96,3910.0,1959.0,[11],1,0.5019592157820586,0.34145329081366893,0.48622085381552793
96,37525.0,14102.0,"[4,12,13]",3,0.1667616252086668,0.14546241042924607,0.13891913186309307
96,8375.5625,5658.0,[15],1,0.30893594183385614,0.5074887504178927,0.45069787304947995
120,10700.84375,6284.0,[0],1,0.46250842343072096,0.5168956776162353,0.8119760514950642
120,32058.625,15549.0,"[1,4,7]",3,0.2952803733731993,0.15085557538473784,0.28166052508149925
120,37894.0,18081.0,[2],1,0.26684388274387955,0.6213866417638096,0.5742895195327221
120,8226.0,5606.0,[3],1,0.6006060830348883,0.1363385260755815,0.6567850399786224
120,13131.8125,3310.0,[5],1,0.17529359426656463,0.476261392249996,0.5017389372645157
120,8527.0625,3922.0,[6],1,0.309351707143242,0.2333672275052689,0.31034580113292815
120,15039.25,11128.0,[8],1,0.5516856734242054,0.16885544664914046,0.1891399066651614
120,4253.125,2181.0,[9],1,0.31033300861065033,0.15089857737024537,0.5396125441629597
120,10324.9375,6179.0,[10],1,0.45041885472685567,0.4904073871800131,0.6636147716344704
120,6188.0,4233.0,[11],1,0.5567352065069758,0.3048325189042718,0.46442652651046745
120,18754.34375,6703.0,"[4,12]",2,0.17917081606432006,0.1430438826166655,0.08151857959884434
120,10340.15625,3629.0,[13],1,0.17297004475400268,0.14504309948426353,0.2326049667771917
120,11404.78125,7217.0,[15],1,0.32113477625885734,0.5418408647004471,0.46065828338014053
144,23411.890625,12899.0,"[0,10]",2,0.4886123548525416,0.5160648853898053,0.7276503889017796
144,23624.890625,11416.0,"[1,4]",2,0.29037240653059465,0.13156786218691707,0.13494164813872075
144,30154.0,11207.0,[2],1,0.2846332285000668,0.6319195635903543,0.5688932317767534
144,11571.0,7458.0,[3],1,0.6051694141761869,0.14146422346336235,0.6511921910557463
144,10408.90625,3843.0,[5],1,0.18224923860411155,0.48717802285327383,0.49031293569834056
144,9281.53125,5018.0,[6],1,0.33307237767280895,0.2318247924263437,0.307211349268015
144,7203.421875,3383.0,[7],1,0.39234775256404375,0.22193904239221285,0.751063168478086
144,16619.625,9100.0,[8],1,0.5473395681783723,0.163966868885619,0.19043479829279106
144,5562.5625,3436.0,[9],1,0.35921562994683537,0.1440720822141351,0.5358397852390192
144,8399.0,5305.0,[11],1,0.5658218365682927,0.29658362732325316,0.4451064455354612
144,5513.40625,1684.0,[12],1,0.1091153547395821,0.15287143054661909,0.12456205371344968
144,8424.078125,3254.0,[13],1,0.17976935803560834,0.14756996845350387,0.23122924209193918
144,17211.390625,11509.0,[15],1,0.33487367064376816,0.5505478657804308,0.4675206049539716
