time_in_hour,cumulative_size,size,pcore_ids,pcore_power,SCA-1,CD11b,Ly6C
-1,0,0,[],0,0.0,0.0,0.0
0,5536,5536,[0],1,0.28324653341559985,0.5070862785420974,0.7987803259008468
0,39608,39608,"[1,6]",2,0.21057004713609365,0.15821695717579864,0.1894725323763067
0,26803,26803,"[2,7]",2,0.22042597948326345,0.4723676420364252,0.5788212468653798
0,7605,7605,[4],1,0.3185899282701344,0.16754858824124458,0.7288428226067406
0,6453,6453,[5],1,0.40954838529940196,0.37114450257447945,0.6669388074882371
24,12906.0,7370.0,[0],1,0.2621331947339184,0.4883441915191871,0.7972659597562926
24,86271.0,39058.0,"[1,4,6]",3,0.2172563749011976,0.15922414798238355,0.26181099084386716
24,61320.0,34517.0,"[2,7]",2,0.20974458907774637,0.49152797578462615,0.5726809558677121
24,6832.0,2825.0,[3],1,0.4218433413151542,0.18652789772907968,0.33457106737324194
24,12683.0,6230.0,[5],1,0.4012050989247662,0.37460768913245757,0.6506584142672418
48,15892.0,2986.0,[0],1,0.2730870878429388,0.4838088374810535,0.7894716115516949
48,116496.0,42809.0,"[1,6]",2,0.204559147712457,0.16258349576875475,0.17854561243239297
48,94811.0,33491.0,"[2,7]",2,0.22121782436708426,0.4952640000962166,0.5562908544883971
48,8421.0,1589.0,[3],1,0.41285630226199654,0.19297976240179573,0.3393078974004164
48,15483.0,2899.0,[4],1,0.30285532446967744,0.17474076808223127,0.7227038434423435
48,18909.0,6226.0,[5],1,0.3895910098098393,0.3694425121126685,0.6551343493588587
72,19699.0,3807.0,[0],1,0.28067049545091777,0.47258072222238906,0.7874316933094755
72,152186.0,35690.0,"[1,6]",2,0.20780377116884238,0.16326655944294738,0.18100413375883856
72,132982.0,38171.0,"[2,7]",2,0.2269263272768711,0.5054189452102208,0.5625443003338042
72,12231.0,3810.0,[3],1,0.4302914219624262,0.1966676729369885,0.33062598432294077
72,20107.0,4624.0,[4],1,0.3090228513408296,0.1770828105832889,0.7233526690114374
72,22807.0,3898.0,[5],1,0.3999254122157385,0.3632195362739885,0.6568636909915948
96,24219.0,4520.0,[0],1,0.30641292401591724,0.47610627496194,0.7906210965989475
96,176629.0,24443.0,"[1,6]",2,0.21020020952951865,0.1634715583132045,0.18110171684585477
96,173717.0,40735.0,"[2,7]",2,0.23534760429480694,0.5174505815186916,0.5579255295710023
96,20216.0,7985.0,[3],1,0.45285906590841113,0.19367236560083215,0.31045950945820827
96,26099.0,5992.0,[4],1,0.32999908300761144,0.17268449112750126,0.7240370762313226
96,29132.0,6325.0,[5],1,0.42041571336666395,0.3699566818034652,0.6612597692952396
120,30317.0,6098.0,[0],1,0.3337756507733036,0.48627851225743557,0.7921567155314083
120,195986.0,19357.0,"[1,6]",2,0.21377877598916195,0.16263935857824907,0.1804849725982687
120,203761.0,30044.0,"[2,7]",2,0.24312273428513595,0.5283141918929474,0.5547823021051245
120,37992.0,17776.0,[3],1,0.49385985458795245,0.18343091281898757,0.28775100232096645
120,32720.0,6621.0,[4],1,0.3571047155297896,0.16499802243635872,0.719130702021878
120,39236.0,10104.0,[5],1,0.45534592743879565,0.37745783261193633,0.6665841231213191
144,35437.0,5120.0,[0],1,0.3509503017381953,0.49508726020314964,0.7864795726133353
144,214597.0,18611.0,"[1,6]",2,0.21821372729327887,0.16284603928858546,0.18097504419456256
144,231050.0,27289.0,"[2,7]",2,0.2514166883475244,0.5347055494246726,0.5497122317068106
144,55532.0,17540.0,[3],1,0.502411323524767,0.18166051500858826,0.2839596327372878
144,41081.0,8361.0,[4],1,0.3845974067674978,0.1588444735767022,0.7064245502489003
144,52315.0,13079.0,[5],1,0.48175097481010776,0.3853728696207229,0.6678574431441098
