time_in_hour,cumulative_size,size,pcore_ids,pcore_power,SCA-1,CD11b,Ly6C
-1,0,0,[],0,0.0,0.0,0.0
0,40498,40498,"[1,5,11]",3,194.43456466986277,142.56099066620632,218.08422638154877
0,22948,22948,"[2,4]",2,207.31575736447704,436.7220237057712,576.2986316890359
0,4485,4485,[3],1,249.3884057971001,162.2443701226312,717.937792642141
0,15227,15227,"[4,6]",2,201.50876732120636,362.57884021803477,534.1275366125965
0,9353,9353,"[7,8,12]",3,286.10210627605926,366.30492889981844,706.8090452261305
24,35995.0,33633.0,"[1,11]",2,181.57661654396728,139.36402798999853,199.4882153771351
24,30244.25,28810.0,"[2,4]",2,188.7380783124083,463.0694615505392,565.68647966142
24,3358.3125,3078.0,[3],1,212.4047977965125,167.4910018052222,708.9736102581286
24,18706.6875,17755.0,"[4,6]",2,191.04063052317656,383.4865873501118,525.732655768156
24,11721.5625,11137.0,"[7,8,12]",3,251.72638566743908,374.37228398517726,706.0756671732124
48,44554.51171875,42208.0,"[1,11,13]",3,186.98627497653894,151.72956679208355,199.73656795945567
48,26215.265625,24325.0,"[2,4]",2,209.8913350820768,462.496373624148,516.3358594437746
48,2806.89453125,2597.0,[3],1,289.5850187526522,182.96998323046657,679.5174034360165
48,19959.5546875,18677.0,"[4,6,10]",3,209.83163823873662,394.11670710652,478.1885535710299
48,9882.59765625,9150.0,"[7,8,12]",3,295.5658281108849,366.741355246853,673.5264968210766
72,35949.73046875,33316.0,"[1,11]",2,187.93709166071054,146.19282852623732,207.31531152957575
72,33293.4541015625,31655.0,"[2,4]",2,211.4549093455969,487.36388332746765,555.7771671945883
72,3854.430908203125,3679.0,[3],1,263.8156415458586,164.70540151100676,701.0400288856893
72,11502.447998046875,10306.0,"[4,6]",2,200.35980380110746,396.3280862406437,503.5512320778695
72,6423.217041015625,5950.0,"[7,12]",2,289.45379069770655,352.7208701861533,744.9337532374731
72,3983.926513671875,3833.0,[13],1,393.6909580447232,175.65234027874314,263.4230961536536
96,43271.970947265625,40980.0,"[0,2,4,8]",4,255.378200972525,488.2404676483752,545.8737959597131
96,28469.191680908203,26126.0,"[1,5,11]",3,216.32534372084396,153.41861905896897,230.79346763691444
96,3735.9019317626953,3495.0,[3],1,341.8006470729574,140.7317052210962,683.1798435344087
96,10479.90299987793,9761.0,"[4,6]",2,221.97211787501024,392.27542947507743,477.58700547050006
96,3927.7677612304688,3714.0,[7],1,369.29767735921513,282.51063592712256,749.7367063847546
96,3652.683303833008,3465.0,[12],1,382.9067304208175,424.594981825993,735.1370377694624
96,5231.995407104492,4983.0,[13],1,408.440580331918,158.93928822020345,220.6229270576365
120,33527.81285095215,30961.0,"[0,2,4]",3,270.336524345074,512.2835363657688,534.5351965050772
120,7894.715353012085,7330.0,[1],1,288.42072518266093,154.48115843956853,285.7499892509969
120,3732.4938707351685,3499.0,[3],1,372.54672191355775,143.15013208099234,670.2299836817587
120,3985.395845413208,3812.0,[5],1,375.6379481805686,162.7270841941345,393.12816002153255
120,5161.485485076904,4916.0,[7],1,393.1833626834348,316.8317076988911,736.5800969583045
120,3245.685333251953,3108.0,[8],1,406.578688413624,404.91877350221176,623.8191480132803
120,5049.947305679321,4929.0,[9],1,557.0429107558391,127.02001220075252,597.4380263507393
120,2862.6719694137573,2793.0,[10],1,513.7555475477902,249.78079834687324,418.6559034820676
120,13765.21328163147,12724.0,[11],1,203.85754125574962,134.86677235128354,169.91616882515245
120,4807.292706489563,4579.0,[12],1,469.53783587459606,493.4862681359981,733.1489133655822
120,10270.99971294403,9944.0,[13],1,481.02308349759653,145.9972878524906,202.15458006488146
144,36653.36117219925,34249.0,"[0,2,4,6,8]",5,308.8558873239715,487.38423975891277,524.5056151667097
144,12696.50694990158,11954.0,"[1,5]",2,349.004817452142,160.71107562984326,335.3096959645248
144,10970.902573525906,10422.0,"[3,9]",2,475.98434325747917,140.21658196542472,611.1095414588591
144,4874.5928428173065,4552.0,[7],1,427.9879788915325,327.64759904709507,697.9935713921022
144,3453.91699808836,3275.0,[10],1,501.82549299181676,251.02601802539212,423.20665444247845
144,13466.325830101967,12606.0,[11],1,225.2150992532785,142.3796209943464,180.3744614260423
144,4940.455794155598,4640.0,[12],1,500.4668529346497,499.55548868938155,705.7907173513224
144,8943.937482059002,8302.0,[13],1,458.68452851576455,147.83412048706327,208.94618347481187
