time_in_hour,cumulative_size,size,pcore_ids,pcore_power,SCA-1,CD11b,Ly6C
-1,0,0,[],0,0.0,0.0,0.0
0,5387,5387,[0],1,NA,NA,NA
0,44727,44727,"[1,5,7]",3,NA,138.1290495673756,NA
0,16113,16113,[3],1,179.18395084714368,NA,542.3907403959522
0,4874,4874,[4],1,NA,NA,NA
0,6170,6170,[6],1,NA,NA,NA
0,9582,9582,[8],1,NA,NA,NA
24,7384.6875,7048.0,[0],1,NA,NA,NA
24,11225.75,10237.0,"[1,5]",2,NA,NA,NA
24,19055.0625,18048.0,[3],1,NA,NA,NA
24,4586.625,4282.0,[4],1,NA,NA,NA
24,7774.625,7389.0,[6],1,NA,NA,NA
24,33228.5,31044.0,"[5,7]",2,NA,NA,NA
24,15138.875,14540.0,[8],1,186.09572210616886,NA,NA
48,4732.54296875,4271.0,[0],1,NA,NA,NA
48,11848.609375,11147.0,"[1,5]",2,NA,NA,NA
48,18265.94140625,17075.0,[3],1,NA,NA,473.05987856070203
48,7025.9140625,6540.0,[6],1,296.52284845054305,NA,NA
48,33579.48046875,31785.0,[7],1,158.6541547240987,138.2878297025466,NA
48,14524.1796875,13578.0,[8],1,NA,NA,546.8122462811193
72,6442.394287109375,5956.0,[1],1,NA,NA,NA
72,12675.621337890625,11534.0,[3],1,NA,NA,NA
72,7398.10400390625,7132.0,[4],1,NA,NA,NA
72,32812.861328125,30460.0,"[5,7]",2,NA,140.51249607519168,NA
72,5515.11962890625,5076.0,[6],1,NA,NA,NA
72,24417.76123046875,23510.0,[8],1,NA,NA,NA
96,11719.846130371094,10980.0,"[1,5]",2,NA,NA,NA
96,12016.226333618164,11224.0,[3],1,196.7578150528638,NA,483.4366603069269
96,9106.38150024414,8644.0,[4],1,NA,NA,NA
96,6442.694976806641,6098.0,[6],1,NA,NA,NA
96,18774.607345581055,17061.0,[7],1,NA,136.36702667821197,NA
96,31034.110076904297,29508.0,[8],1,247.21032711632876,NA,552.185007637706
120,11448.103102684021,11068.0,[1],1,NA,NA,NA
120,7334.7378578186035,7150.0,[2],1,NA,NA,NA
120,32860.646025657654,30170.0,"[3,8]",2,NA,NA,NA
120,9151.148843765259,8582.0,[4],1,NA,NA,NA
120,5846.387280464172,5494.0,[5],1,NA,NA,NA
120,9569.668436050415,9167.0,[6],1,NA,NA,NA
120,15868.412959098816,14695.0,[7],1,NA,131.64800044481714,NA
144,9672.506443917751,8957.0,[1],1,NA,NA,NA
144,8846.421116113663,8388.0,[2],1,NA,NA,NA
144,11450.375884115696,10977.0,[3],1,NA,NA,NA
144,10154.946802735329,9583.0,[4],1,NA,NA,NA
144,6635.399205029011,6270.0,[5],1,NA,NA,NA
144,10663.104277253151,10065.0,[6],1,NA,NA,NA
144,16111.775809943676,15120.0,[7],1,NA,138.3690617698846,NA
144,18808.414492487907,17228.0,[8],1,NA,NA,NA
