time_in_hour,cumulative_size,size,pcore_ids,pcore_power,SCA-1,CD11b,Ly6C
-1,0,0,[],0,0.0,0.0,0.0
0,5531,5531,[0],1,NA,NA,NA
0,38999,38999,"[1,7]",2,NA,139.67191466447912,NA
0,14973,14973,[3],1,188.11340412743056,375.13978494623893,NA
0,11975,11975,[6],1,NA,NA,NA
0,5717,5717,[8],1,NA,NA,NA
24,11983.0,6452.0,[0],1,NA,NA,NA
24,72833.0,33834.0,"[1,7]",2,NA,139.1568931665589,NA
24,31817.0,16844.0,[3],1,NA,NA,NA
24,7068.0,2766.0,[4],1,NA,NA,NA
24,8818.0,4046.0,[5],1,202.34860512588017,NA,NA
24,29820.0,17845.0,[6],1,193.34721663313462,NA,NA
24,12566.0,6849.0,[8],1,NA,NA,NA
48,15933.0,3950.0,[0],1,334.50649595179357,336.830226573778,NA
48,115096.0,42263.0,"[1,7]",2,NA,142.87837109890813,NA
48,6334.0,1235.0,[2],1,NA,NA,NA
48,51784.0,19967.0,[3],1,191.67812451722835,384.4105322107137,NA
48,8629.0,1561.0,[4],1,NA,NA,NA
48,10865.0,2047.0,[5],1,NA,NA,NA
48,45058.0,15238.0,[6],1,206.78769585867454,NA,NA
48,16305.0,3739.0,[8],1,264.19509352959005,NA,NA
72,18418.0,2485.0,[0],1,NA,NA,NA
72,40116.0,8547.0,[1],1,NA,160.96206002592504,NA
72,8624.0,2290.0,[2],1,NA,NA,NA
72,62798.0,11014.0,[3],1,194.06062294977727,NA,509.8189114303008
72,11844.0,3215.0,[4],1,NA,NA,NA
72,14565.0,3700.0,[5],1,NA,NA,NA
72,72516.0,27458.0,[6],1,210.8891279165984,NA,NA
72,110278.0,26751.0,[7],1,NA,136.81592883439916,NA
72,20845.0,4540.0,[8],1,NA,NA,NA
96,22571.0,4153.0,[0],1,NA,NA,NA
96,174449.0,24055.0,"[1,7]",2,NA,143.93126357846674,NA
96,14188.0,5564.0,[2],1,NA,NA,NA
96,71971.0,9173.0,[3],1,NA,NA,NA
96,19857.0,8013.0,[4],1,NA,NA,NA
96,16500.0,1935.0,[5],1,NA,NA,NA
96,103878.0,31362.0,[6],1,221.41127091395614,NA,NA
96,26590.0,5745.0,[8],1,NA,NA,NA
120,28354.0,5783.0,[0],1,NA,NA,NA
120,193177.0,18728.0,"[1,7]",2,NA,143.3023703650024,NA
120,22960.0,8772.0,[2],1,NA,NA,NA
120,75240.0,3269.0,[3],1,NA,NA,NA
120,36824.0,16967.0,[4],1,NA,NA,NA
120,18248.0,1748.0,[5],1,NA,NA,NA
120,130193.0,26315.0,[6],1,NA,NA,NA
120,35008.0,8418.0,[8],1,NA,NA,NA
144,36509.0,8155.0,[0],1,NA,NA,NA
144,60632.0,6773.0,[1],1,NA,NA,NA
144,34534.0,11574.0,[2],1,NA,NA,NA
144,79927.0,4687.0,[3],1,NA,NA,NA
144,53554.0,16730.0,[4],1,NA,NA,NA
144,19788.0,1540.0,[5],1,NA,NA,NA
144,151448.0,21255.0,[6],1,NA,NA,560.0109344461431
144,150468.0,11150.0,[7],1,NA,136.9867347210038,NA
144,43144.0,8136.0,[8],1,NA,NA,NA
