time_in_hour,cumulative_size,size,pcore_ids,pcore_power,SCA-1,CD11b,Ly6C
-1,0,0,[],0,0.0,0.0,0.0
0,26065,26065,"[1,8,10,12]",4,0.2328320512461301,0.17309940429122134,0.2587400352980822
0,6319,6319,[2],1,0.2624881977129796,0.5779481403137415,0.6939797993184171
0,16114,16114,[3],1,0.20799772129197555,0.14532429291973442,0.10692565471018897
0,15045,15045,"[4,14,16,17]",4,0.23014656405315967,0.41409542112726627,0.5506475377135115
0,3879,3879,[6],1,0.2835411651908429,0.3788700381098377,0.8041478557086832
0,3627,3627,[9],1,0.38198127031037166,0.16005836068600668,0.7414638908999152
0,3578,3578,[13],1,0.38411798694895355,0.3931826976824182,0.6574917741555972
0,7994,7994,[15],1,0.22371005782426984,0.4972643509781655,0.6117298162931769
24,10784.9375,10390.0,[2],1,0.22038884469477532,0.5950978167635155,0.6538235506964745
24,32886.0625,30915.0,"[3,8]",2,0.20120853723059554,0.15503328125816748,0.1636025685006541
24,27605.9375,26166.0,"[4,14,15,16,17]",5,0.21425833398942992,0.4628189514078306,0.5489390649923668
24,5982.4375,5740.0,[6],1,0.24031061894536632,0.4095071906129458,0.7957494411479252
24,3101.625,2878.0,[13],1,0.36229198902169923,0.399240846418086,0.6449856956762632
48,2832.48828125,2727.0,[0],1,0.35228690796477496,0.5061075835619392,0.7143263460381348
48,3501.96875,3340.0,[1],1,0.23294054748698273,0.27875396441917405,0.24965798599169275
48,5934.05859375,5260.0,[2],1,0.26997191327430337,0.6329553138621217,0.6218398100337235
48,34226.37890625,32171.0,"[3,8]",2,0.1746523048590754,0.1442567863724787,0.136407674975094
48,7089.46875,6775.0,[4],1,0.21948662886530548,0.45430087056647167,0.4199725824736871
48,4107.90234375,3734.0,[6],1,0.3229573908375101,0.41272765075649176,0.7898796868076615
48,3147.60546875,3035.0,[9],1,0.3765535314536414,0.18335230366701447,0.7106846611132943
48,5372.46875,5260.0,[12],1,0.39002538741297377,0.17014102966358036,0.2163129737471152
48,4043.8515625,3850.0,[13],1,0.4325360958472301,0.4042634715135505,0.5787083764161068
48,13658.9453125,12650.0,"[15,16]",2,0.21663747876362532,0.5535922666826144,0.5181432802173882
48,4073.28125,3886.0,[17],1,0.13419349944680337,0.4510869040723639,0.5017222710570816
72,17698.669677734375,16610.0,"[1,8]",2,0.22764456273191333,0.17369123729978167,0.24757402947421764
72,16144.878662109375,15774.0,[2],1,0.2655837061015432,0.6004789788985454,0.6157878281524855
72,18472.35205078125,17203.0,[3],1,0.19995977221575167,0.15160435147696538,0.12201557987182021
72,3226.743896484375,2970.0,[6],1,0.3058171875653242,0.35843935533116994,0.7979275034781615
72,2906.779296875,2571.0,[12],1,0.45434685986458373,0.18380451420972416,0.21220066528553436
72,13420.04150390625,12735.0,[15],1,0.21052555265671524,0.5280539115017733,0.5428589648392765
72,4124.642578125,3956.0,[16],1,0.3065926393684955,0.4607500141677449,0.6037157962726855
72,4720.580078125,4466.0,[17],1,0.1790179587179517,0.413596583738929,0.5404471481041195
96,3569.314407348633,3431.0,[0],1,0.42299483751136463,0.48945386350300524,0.7120613719817169
96,12966.166854858398,11860.0,"[1,8]",2,0.259019266440161,0.18515898576921572,0.26270199638771635
96,36693.80751037598,34846.0,"[2,15]",2,0.2816081197459971,0.5691601241843612,0.5614367678395092
96,13430.522003173828,12276.0,[3],1,0.21420692100289557,0.15732593811952178,0.12615449150217758
96,7191.689163208008,6666.0,"[4,14,17]",3,0.24919134271625057,0.40454789316896544,0.472098956324071
96,3919.6714935302734,3718.0,[6],1,0.4165335313580146,0.36115078325580846,0.7964130637990942
96,7254.931671142578,6929.0,"[11,12]",2,0.4415105277907222,0.1897820211912683,0.4136713324241793
96,11688.542755126953,10592.0,"[15,16]",2,0.27292756663426415,0.5051688698090293,0.5356370059716196
120,4409.08215045929,4186.0,[0],1,0.531235871334632,0.5635743620655878,0.7542751498447134
120,6175.9174728393555,5846.0,[1],1,0.3662038080369217,0.1680136890570971,0.2659601898157197
120,31437.6623544693,28968.0,"[2,15,16]",3,0.3145825792112208,0.5827747763691395,0.5538408823090282
120,10471.407625198364,9632.0,[3],1,0.2404159526419296,0.15186166419999123,0.1192921505380344
120,3926.0455055236816,3838.0,[5],1,0.584786684315213,0.18739091811948863,0.38195097168783976
120,5890.979468345642,5646.0,[6],1,0.44958978379802106,0.395462834902054,0.7630646846267287
120,5934.467955589294,5454.0,[8],1,0.22743616412182174,0.17212290197211771,0.24812161088562779
120,4346.272364616394,4255.0,[9],1,0.6332741302809792,0.1466166267622339,0.6409154866244138
120,2928.1942920684814,2794.0,[10],1,0.4226510057290166,0.21923391609303666,0.36732430473506095
120,2899.078622817993,2716.0,[11],1,0.4399072102651536,0.2086105971173133,0.7541990224798961
120,8586.354606628418,8316.0,[12],1,0.5357148151471572,0.16594533014058485,0.16038316976705227
120,12558.04930305481,11786.0,"[15,17]",2,0.2602426505673046,0.5470951374073587,0.5181857054832307
144,4320.567634403706,4045.0,[0],1,0.5637899327331743,0.5719893541743251,0.7357571062139088
144,6686.99484205246,6301.0,[1],1,0.3859502248804649,0.1762788101585428,0.2844390312663998
144,21871.022685587406,20060.0,"[2,15]",2,0.3489546809160137,0.5961803530428319,0.5404683007876384
144,9543.462976574898,8889.0,[3],1,0.2714568969313365,0.15735841122952013,0.1269471580728969
144,3364.37784409523,3119.0,[5],1,0.5778824895009211,0.20149345969483126,0.37682191552316824
144,5871.186216771603,5503.0,[6],1,0.48012408839675463,0.416423380839302,0.7201240153640046
144,4205.896822810173,4063.0,[7],1,0.47083789519851665,0.14240936677551916,0.5274228698052951
144,6058.904247224331,5688.0,[8],1,0.24439613322171927,0.17637265888913328,0.24415286769614616
144,5496.642022788525,5225.0,[9],1,0.5984598155945312,0.14794250056734992,0.6410318749517461
144,2994.01214325428,2811.0,[10],1,0.44904899086823424,0.25760060740701096,0.3796690402629334
144,3478.1924139261246,3297.0,[11],1,0.4719237356232908,0.23490838889272742,0.7055703631065396
144,7880.647162914276,7344.0,[12],1,0.5077001270714647,0.16620930603423925,0.17578755921807623
144,2807.831211566925,2654.0,[16],1,0.40837253654987954,0.5093684528060717,0.5915155581108525
144,13887.878081440926,13103.0,"[15,17]",2,0.2956854170139161,0.5353634616084532,0.49987376297384806
