time_in_hour,cumulative_size,size,pcore_ids,pcore_power,SCA-1,CD11b,Ly6C
-1,0,0,[],0,0.0,0.0,0.0
0,43115,43115,"[1,3,4,12]",4,NA,142.89156905949213,NA
0,7659,7659,[2],1,219.468599033817,NA,NA
0,17419,17419,"[5,9,13]",3,NA,NA,NA
0,5148,5148,[11],1,NA,NA,NA
24,48148.75,37370.0,"[1,3,4,12]",4,NA,NA,NA
24,14111.75,12197.0,[2],1,192.82608464577535,NA,NA
24,26630.75,22276.0,"[5,9,13]",3,NA,NA,NA
24,6908.75,5853.0,[10],1,NA,403.9881309933041,NA
24,6330.0,5043.0,[11],1,NA,NA,NA
48,19910.5,15024.0,"[1,4]",2,NA,156.91296677632454,NA
48,12566.9375,9039.0,[2],1,217.91708401509982,NA,NA
48,30424.6875,23767.0,"[5,9,13]",3,197.90292217463394,NA,NA
48,7142.1875,5415.0,[10],1,286.2880070006537,NA,NA
48,5308.5,3726.0,[11],1,340.7189295469479,NA,NA
48,44784.0625,35528.0,"[4,12]",2,172.13573048448112,142.839651382677,NA
72,20956.625,15979.0,"[1,4]",2,NA,NA,NA
72,37448.375,29776.0,"[2,5]",2,NA,NA,NA
72,31494.921875,22623.0,"[3,12]",2,NA,143.58417502821646,NA
72,22022.171875,14416.0,"[5,9,13]",3,NA,NA,NA
72,6191.546875,4406.0,[10],1,NA,NA,NA
96,49396.19921875,38830.0,"[0,2,5,13]",4,NA,NA,NA
96,9165.00390625,7259.0,[1],1,NA,162.55252891753227,NA
96,5601.37890625,4268.0,[3],1,NA,NA,NA
96,9697.15234375,6364.0,[4],1,NA,156.00963153245326,NA
96,5056.88671875,4156.0,[8],1,NA,NA,NA
96,5956.1171875,4381.0,[9],1,197.07780800464002,NA,NA
96,6640.88671875,5093.0,[10],1,NA,NA,NA
96,18443.3515625,11903.0,[12],1,NA,136.12202313757163,NA
120,33740.759765625,24092.0,"[0,2,13]",3,NA,NA,NA
120,9558.2509765625,7267.0,[1],1,NA,NA,NA
120,5686.3447265625,4286.0,[3],1,NA,NA,NA
120,7264.2880859375,4840.0,[4],1,NA,NA,NA
120,35336.0234375,24978.0,"[2,5]",2,NA,NA,NA
120,5092.9443359375,4337.0,[6],1,NA,NA,NA
120,6823.134765625,6012.0,[7],1,NA,NA,NA
120,11467.2216796875,10203.0,[8],1,NA,NA,NA
120,9078.2216796875,7418.0,[10],1,409.1420155916975,NA,NA
120,4516.3828125,3602.0,[11],1,NA,NA,NA
120,14177.837890625,9567.0,[12],1,NA,132.9796966629114,NA
144,30342.18994140625,21907.0,"[0,2,13]",3,NA,NA,NA
144,11068.562744140625,8679.0,[1],1,NA,NA,NA
144,6158.586181640625,4737.0,[3],1,NA,NA,NA
144,6782.072021484375,4966.0,[4],1,NA,NA,NA
144,9713.822509765625,7227.0,[5],1,NA,NA,NA
144,8063.236083984375,6790.0,[6],1,NA,NA,NA
144,8625.78369140625,6920.0,[7],1,NA,NA,NA
144,10390.805419921875,7524.0,[8],1,NA,NA,NA
144,9851.555419921875,7582.0,[10],1,NA,NA,716.7749873977654
144,4501.095703125,3372.0,[11],1,NA,NA,NA
144,11871.45947265625,8327.0,[12],1,NA,NA,NA
