time_in_hour,cumulative_size,size,pcore_ids,pcore_power,SCA-1,CD11b,Ly6C
-1,0,0,[],0,0.0,0.0,0.0
0,13777,13777,[0],1,0.22011005151885749,0.554904774401038,0.6270966119091028
0,45085,45085,"[1,2,5,9]",4,0.2129727493511025,0.160488157863704,0.2563944916716328
0,6816,6816,[3],1,0.3396458102547836,0.4574799380749041,0.7928991917354175
0,11539,11539,[4],1,0.19756536455265233,0.40362949729012737,0.5333244804923195
0,5511,5511,[8],1,0.37059445970163424,0.41145762773096306,0.5828365540633641
24,18852.0625,17991.0,[0],1,0.20353302325838074,0.5858292957461536,0.6050359418103445
24,36213.375,33883.0,"[2,5,9]",3,0.19021161946535683,0.15601476711210502,0.22969698945427822
24,7955.0,7529.0,[3],1,0.2593028640738981,0.4596441273168348,0.7999668234039172
24,15968.1875,15247.0,[4],1,0.19243392508956103,0.42921544942538364,0.5214430253903259
24,7191.4375,6847.0,[8],1,0.38367686602951745,0.39392399748899976,0.5983588597450229
48,16135.25390625,14957.0,[0],1,0.23730486524164565,0.5818324744332585,0.5542111091677945
48,37538.01171875,35558.0,"[2,5]",2,0.1838867024419159,0.1598428319842738,0.15035467033630925
48,6863.1875,6366.0,[3],1,0.33407704199933014,0.44449616687141336,0.7528829297084031
48,16855.01171875,15857.0,[4],1,0.215635237698988,0.4496612974231393,0.4709462047588566
72,25387.453369140625,24379.0,[0],1,0.23394298051427476,0.5915040935763695,0.5885245205456318
72,32743.125732421875,30397.0,"[2,5]",2,0.1915311359481031,0.15799019530083971,0.16853304997050822
72,11681.438232421875,10628.0,[4],1,0.2010694940834075,0.45251038197358784,0.5104758044970196
96,31460.71583557129,29874.0,[0],1,0.27632495244289146,0.5941628546783488,0.5657981822217075
96,5617.105331420898,5323.0,[1],1,0.3584195365070565,0.21004365399884017,0.3602103128891848
96,23802.445358276367,21756.0,"[2,5]",2,0.2105831987987424,0.16064233045060933,0.17289592441855048
96,6220.934326171875,5897.0,[3],1,0.42996585006945104,0.4552287756862756,0.8003985267842024
96,11338.089889526367,10608.0,[4],1,0.2219474908908515,0.45079985054244837,0.48858216865683596
96,5516.337203979492,5181.0,[9],1,0.372665286205861,0.1813849863116743,0.742106894522215
120,25621.294739723206,23655.0,[0],1,0.3043159592018556,0.6045513632140533,0.5550432569774816
120,6604.069083213806,6253.0,[1],1,0.43264707041684786,0.1958534748797162,0.37234972276921957
120,20353.652834892273,18866.0,"[2,5]",2,0.24293193270384733,0.1526481383008773,0.17458371074108792
120,9285.808395385742,8897.0,[3],1,0.48827211433538664,0.5004541345593957,0.7813266483788752
120,7058.630618095398,6350.0,[4],1,0.22010000443549899,0.509318776569427,0.4874265440378853
120,6553.600987434387,6380.0,[6],1,0.6390118030248839,0.15446962801490516,0.6101423374913374
120,10700.01065158844,10371.0,[7],1,0.560982354341524,0.16177437668775096,0.17135790998779388
120,5773.771075248718,5429.0,[9],1,0.3978421295259643,0.1982581081463306,0.7305768132512637
144,18944.3309212327,17343.0,[0],1,0.342148450826417,0.6191918947507845,0.5447005365472871
144,8018.754317700863,7606.0,[1],1,0.4799055077159249,0.20031899728628405,0.3920809436493722
144,10532.207922279835,9908.0,[2],1,0.32215038062240975,0.16501335340117412,0.2531896175422793
144,10495.363024711609,9915.0,[3],1,0.5177194652581044,0.5120664135830861,0.7416099212631099
144,11132.164413630962,10691.0,[4],1,0.2652078480294081,0.5095157818741799,0.47720022165340037
144,10299.895379900932,9652.0,[5],1,0.22577026019675017,0.15351676595488944,0.12277187557447704
144,7665.600061714649,7256.0,[6],1,0.6118897617330911,0.14860601181377506,0.6275996221284791
144,8947.750665724277,8279.0,[7],1,0.5423705722331217,0.15979268889036685,0.1716530434693094
144,6399.860692203045,6039.0,[9],1,0.42937598446048686,0.21130842187947707,0.6814116055952942
