time_in_hour,cumulative_size,size,pcore_ids,pcore_power,SCA-1,CD11b,Ly6C
-1,0,0,[],0,0.0,0.0,0.0
0,3602,3602,[0],1,0.33962249436954295,0.4633546345544589,0.7774655629327435
0,16550,16550,"[1,3]",2,0.22621093723480218,0.17102889912646446,0.25798471258721933
0,10802,10802,[2],1,0.24132203982200565,0.5540985161956804,0.6391619303362516
0,17634,17634,"[4,12,14]",3,0.23213939363818442,0.42612905344826935,0.5611188322417238
0,31673,31673,"[3,7]",2,0.2149602486362586,0.15436292355722764,0.165791235141788
0,4124,4124,[8],1,0.36617797709216177,0.16067654958723007,0.7425788852909491
0,3921,3921,[10],1,0.377766219922109,0.35812962110275276,0.64612198947021
24,5187.5,4287.0,[0],1,0.2883486665764164,0.4761312217194569,0.7806324630370053
24,16742.5,12605.0,"[1,3]",2,0.21515369115468613,0.17005728573001838,0.26054339725296627
24,18906.5,16206.0,[2],1,0.21371327024146528,0.5723531511882766,0.6146836056488727
24,23671.5,19263.0,"[4,12,14]",3,0.2194228255805664,0.4409883995713205,0.5476559682179146
24,37636.25,29718.0,"[3,7]",2,0.20484124161613884,0.15464212306147357,0.16033833567288977
24,5482.25,4502.0,[10],1,0.362544237506022,0.3765267546910445,0.6346834961707227
24,4602.25,3827.0,[13],1,0.21287779975720394,0.3572840502714949,0.7923554265180414
48,5959.875,4663.0,[0],1,0.33912622828083744,0.47898027096555124,0.7742383513988833
48,44794.8125,34085.0,"[1,3,7]",3,0.18248696972884587,0.15078004434208273,0.148555146433549
48,15483.625,10757.0,[2],1,0.2345633403393465,0.6029439481551224,0.5837170531890111
48,17611.625,14372.0,[4],1,0.20019781128032998,0.49085108888350465,0.4857512391094582
48,4942.6875,4330.0,[9],1,0.21140815360110338,0.3590734444017042,0.3759008148722091
48,6223.5625,4853.0,[10],1,0.4023293926567742,0.39783783140239803,0.6137579444345799
48,6984.375,6348.0,[11],1,0.3695975768544304,0.1853204571451701,0.24100490774926084
72,5074.96875,3585.0,[0],1,0.37062493327745283,0.46061234119227984,0.7817698026901772
72,40248.484375,29771.0,"[1,7]",2,0.19710882493756757,0.14988347108001737,0.15717274788063135
72,22644.90625,18774.0,[2],1,0.238395637316619,0.6184523153383891,0.6037302486200223
72,4865.21875,4144.0,[3],1,0.3009182533696417,0.16078605199485527,0.2487194125132262
72,15340.90625,10938.0,[4],1,0.20076026012830736,0.4773982046086852,0.5055628168554425
72,4963.09375,3217.0,[11],1,0.4235495378068318,0.19021985498788732,0.23870712680153078
72,4150.640625,3383.0,[13],1,0.27667767713365216,0.28781549166967657,0.789390425943605
72,6295.78125,5801.0,[14],1,0.2919774645106615,0.47686247726354486,0.6173910625823967
96,5718.7421875,4450.0,[0],1,0.42297084168976185,0.4479169594531084,0.7723845508253391
96,11562.671875,7163.0,[1],1,0.19708898610511352,0.18230642389069077,0.25085677261301315
96,35273.2265625,29612.0,[2],1,0.282834417860826,0.5849622932056571,0.5737281944653088
96,8030.3046875,6814.0,[3],1,0.31321119356165855,0.1854963212499184,0.278573316535045
96,11954.2265625,8119.0,[4],1,0.23078437641815805,0.4768545126475947,0.5059525989445129
96,17240.44921875,11578.0,[7],1,0.21829661734504371,0.155286285850842,0.11739834419142109
96,3829.734375,3200.0,[8],1,0.4443046083309015,0.17897582945228893,0.750114061633485
96,5788.7734375,4548.0,[11],1,0.4537166210076388,0.18483671881491803,0.2023365716510973
96,5272.9453125,3699.0,[14],1,0.30870970096201666,0.48891597152385713,0.5843254534821504
120,8222.685546875,6793.0,[0],1,0.49053052040821393,0.5139737659225142,0.7665759136752678
120,7693.66796875,4803.0,[1],1,0.20173860331220037,0.1738124708549071,0.24531019297306794
120,35539.54296875,25403.0,"[2,14]",2,0.3120424483604439,0.5864012787624915,0.561156609349005
120,9397.576171875,7390.0,[3],1,0.3586216189160033,0.17853005645090858,0.2902440017136696
120,9002.556640625,6014.0,[4],1,0.22981434693149402,0.5149384795939933,0.504672037302283
120,6019.8564453125,5461.0,[5],1,0.59106762139882,0.17499177392624335,0.49694708226193857
120,14472.1123046875,10162.0,[7],1,0.24016169224368267,0.1539414458357482,0.12003395063716554
120,4621.43359375,3664.0,[8],1,0.5525013582586911,0.15895172617993444,0.729345312225851
120,11744.193359375,10297.0,[11],1,0.535821949390287,0.17162241871798778,0.18517784891789357
120,4298.9150390625,3623.0,[13],1,0.39904801377484306,0.32378064069867263,0.7680860066719463
144,8939.67138671875,6884.0,[0],1,0.5224126752512785,0.5317209666905885,0.7393344732891725
144,7151.4169921875,5228.0,[1],1,0.2183488760047288,0.17467893010726007,0.23760172693474063
144,24823.07666015625,16906.0,[2],1,0.3381367279835381,0.607155819028009,0.5458461509286253
144,10438.39404296875,8089.0,[3],1,0.3893117605877418,0.185537927207072,0.29813676395313743
144,9955.63916015625,7705.0,[4],1,0.25743728986609243,0.5182623568346448,0.48561452927119525
144,7225.964111328125,5721.0,[5],1,0.5560641515251895,0.1854600731615029,0.47008469577572
144,4541.511962890625,3784.0,[6],1,0.4267993913848692,0.1543370826470897,0.6039144908741285
144,12784.028076171875,9166.0,[7],1,0.2694625936997822,0.15568887811402018,0.12686504812613297
144,6113.3583984375,4958.0,[8],1,0.5892051868889933,0.15481160673720856,0.6852614389685642
144,11150.04833984375,8214.0,[11],1,0.5256295284060893,0.17178275851987557,0.19071173044538858
144,5108.728759765625,4034.0,[13],1,0.4503818068031984,0.3416577500454534,0.730780944236912
144,5049.80908203125,4082.0,[14],1,0.37809842954457873,0.5084631772308944,0.5574481170154795
