time_in_hour,cumulative_size,size,pcore_ids,pcore_power,SCA-1,CD11b,Ly6C
-1,0,0,[],0,0.0,0.0,0.0
0,6788,6788,[0],1,NA,NA,NA
0,30806,30806,"[2,8]",2,220.2720898526266,NA,NA
0,39699,39699,"[6,7]",2,197.8917101186453,142.78898712813978,NA
24,9176.5,8328.0,[0],1,237.51152400152424,375.99581812237756,NA
24,41745.75,37895.0,"[2,8]",2,200.53899498751534,NA,NA
24,39991.375,35029.0,"[6,7]",2,186.2542829547648,143.3589242680452,NA
48,10589.0625,9442.0,[0],1,312.26622399291375,387.602840489892,699.4340858787069
48,16493.6875,14062.0,"[1,2]",2,206.67413195957678,371.5406026548037,455.08993876445055
48,6387.015625,6060.0,[5],1,310.31632046461107,168.6211576709586,639.5341011671627
48,13899.96875,12498.0,[6],1,258.63363901447553,157.90228507708034,276.5018435293249
48,32387.953125,28791.0,[7],1,154.18693148349897,129.48907941754968,150.63563371604602
48,28111.21875,22893.0,"[2,8]",2,203.76680906977853,478.73752638793053,531.096157116985
72,6103.6328125,4780.0,[0],1,NA,NA,NA
72,43028.990234375,37243.0,"[6,7]",2,NA,148.07429475122683,NA
72,35925.783203125,33151.0,[8],1,217.09407773762985,NA,NA
96,6172.9541015625,5410.0,[0],1,377.24619999192777,NA,NA
96,11389.8388671875,10190.0,"[1,2]",2,NA,NA,NA
96,10975.81201171875,9857.0,[6],1,NA,NA,NA
96,23802.811767578125,19543.0,[7],1,NA,145.3351501575175,NA
96,46976.86279296875,41897.0,"[2,8]",2,254.07430379285557,NA,NA
120,9345.619262695312,8574.0,[0],1,NA,NA,NA
120,6700.823974609375,6425.0,[3],1,NA,NA,NA
120,15503.976501464844,14132.0,[6],1,NA,157.7624109739732,NA
120,20827.351470947266,17852.0,[7],1,NA,141.42058134036756,NA
120,34823.09036254883,29681.0,[8],1,NA,NA,NA
144,10115.202407836914,8947.0,[0],1,NA,NA,680.660078084062
144,35112.38848114014,30279.0,"[2,8]",2,NA,NA,NA
144,13996.218967437744,12625.0,"[3,5]",2,NA,NA,NA
144,5656.528949737549,5037.0,[4],1,433.74458903708916,NA,NA
144,15744.997062683105,13807.0,[6],1,NA,161.85941978417176,NA
144,19533.41893386841,16930.0,[7],1,NA,147.8057696338169,NA
