time_in_hour,cumulative_size,size,pcore_ids,pcore_power,SCA-1,CD11b,Ly6C
-1,0,0,[],0,0.0,0.0,0.0
0,4530,4530,[0],1,0.2826676091971135,0.532107468560528,0.7972241478487874
0,38520,38520,"[1,8]",2,0.2088129324325937,0.15649283677046266,0.18423232543994095
0,27432,27432,"[2,7,9]",3,0.21905422519750667,0.46492973493320894,0.5780043432766883
0,4230,4230,[3],1,0.40989720296437576,0.18130141309115017,0.3354362465578887
0,6870,6870,[4],1,0.3127259048460144,0.16060680906558195,0.7247810920596629
0,8433,8433,"[5,6]",2,0.39697909630037853,0.3641780057123139,0.673674875218445
24,6572.25,6006.0,[0],1,0.22972241134733712,0.4862194612305366,0.7921354049781234
24,38510.0,33695.0,"[1,8]",2,0.19913880533000688,0.15626294692217224,0.17379859756439553
24,38495.0,35066.0,"[2,7,9]",3,0.20542185910617544,0.4970011898471832,0.5675988131973266
24,5023.75,4165.0,[4],1,0.2700378818589232,0.16712521630850777,0.7223123071867404
24,9658.125,8604.0,"[5,6]",2,0.3708690141981763,0.37196438302334345,0.6553408229595388
48,9641.65625,8299.0,"[0,5]",2,0.3316215678420461,0.4146038530343118,0.7410066201853845
48,47834.84375,42647.0,"[1,3,8]",3,0.21106517784686882,0.16817066220924182,0.17370992952061348
48,37524.875,32713.0,"[2,7,9]",3,0.2315075938765876,0.4996090969686934,0.5149516494444715
48,3901.96875,3274.0,[4],1,0.31644528695584967,0.1716943580118566,0.6798839100036703
48,9046.265625,7839.0,"[5,6]",2,0.3571392740373745,0.3657298839930766,0.662345201298684
72,8920.20703125,7715.0,"[0,5]",2,0.3201245363090217,0.3907245762496673,0.7798233290052116
72,38954.84375,33415.0,"[1,8]",2,0.20501925306144045,0.16331656674754855,0.18023925145942693
72,41151.609375,36461.0,"[2,7,9]",3,0.22925411371387167,0.532891565640397,0.5584597163557191
72,5236.51171875,4797.0,[3],1,0.46668971276801147,0.19719602405699885,0.25328525476444314
72,5563.74609375,5076.0,[4],1,0.4028370664439983,0.1557105115112896,0.6844972809738706
96,5641.19580078125,5141.0,[0],1,0.43900336222842357,0.4894647514155696,0.7698499068048771
96,29641.35546875,24772.0,"[1,8]",2,0.22836645927043225,0.16610505554666483,0.19090419171332493
96,48250.951171875,43107.0,"[2,7,9]",3,0.2661936241764267,0.5424676003294552,0.5434229437009725
96,11014.39404296875,9745.0,"[3,5]",2,0.44497575831037717,0.2300588671240275,0.45272522161218975
96,5615.46826171875,4920.0,[4],1,0.4446267424693098,0.1420016880162537,0.6765252456258144
120,8588.149475097656,7883.0,[0],1,0.5045419975664536,0.5317396256832386,0.7606219218403574
120,10399.460021972656,8944.0,[1],1,0.3275568940850833,0.17168374569664666,0.29092502365705925
120,36605.119567871094,31190.0,"[2,9]",2,0.2956682223599499,0.5823049460833115,0.5465478358424937
120,12535.320495605469,11729.0,[3],1,0.5496187133157283,0.16609774265140823,0.19512625684999302
120,7859.933532714844,7158.0,[4],1,0.5618055905278181,0.13134391979976645,0.6401482567262232
120,5942.478759765625,5372.0,[5],1,0.40469172421479843,0.28954416644700864,0.7619344390652355
120,3700.330352783203,3364.0,[6],1,0.5727122804375843,0.3406513487587214,0.5023229997136328
120,15229.709411621094,12980.0,[8],1,0.22168204060974703,0.150571287400047,0.13402341055669803
144,9936.518684387207,8863.0,[0],1,0.5312038805110987,0.5283959403263625,0.7288321316873706
144,10568.932502746582,9269.0,[1],1,0.3750301313992339,0.17491874700355814,0.30606916248762567
144,33800.63994598389,29225.0,"[2,9]",2,0.32385011080863085,0.578613918093677,0.5282689772710699
144,17010.724906921387,14701.0,"[3,5]",2,0.4985470911923513,0.21116031484218387,0.38173489406321753
144,9496.491691589355,8514.0,[4],1,0.5701621490696753,0.13319876938311004,0.6283120268522503
144,4739.5412940979,4277.0,[6],1,0.5720286991724932,0.29985258990155994,0.4620368865438901
144,15242.713676452637,13339.0,[8],1,0.24476200165225873,0.1587783956978903,0.14820792561282442
