time_in_hour,cumulative_size,size,pcore_ids,pcore_power,SCA-1,CD11b,Ly6C
-1,0,0,[],0,0.0,0.0,0.0
0,3856,3856,[0],1,278.90586099584954,394.30783195020786,755.0363070539402
0,17059,17059,"[1,4]",2,208.11688844598243,153.8305293393522,285.25810422650784
0,11260,11260,"[2,13]",2,220.1889875666084,475.7878330373007,631.3261989342803
0,18221,18221,"[5,9,14]",3,203.32896108885484,381.9394654519517,540.2454310959884
0,4175,4175,[10],1,325.1767664670622,325.4203592814374,619.5808383233547
0,34770,34770,"[4,12]",2,188.32116767328324,137.96997411561748,201.00437158469876
24,5296.0,5055.0,[0],1,231.12638075906278,406.66449915030233,751.5630192598198
24,26278.5625,25136.0,"[2,5]",2,187.9025370014068,474.7340917144904,572.6644960126699
24,34570.125,32397.0,"[4,12]",2,180.45981718319186,138.39756147829945,195.5494990255314
24,21146.8125,20008.0,"[5,9,14]",3,191.6842343260959,397.09111893340855,528.5762688821287
24,4792.9375,4532.0,[10],1,313.6652235711366,330.3177592029937,604.7952586487928
48,7341.27734375,6799.0,"[0,7]",2,291.99997126691875,352.8309989480501,711.0310428990191
48,21966.41015625,20324.0,"[2,5]",2,211.13236082577163,475.2584067897726,524.8737004528034
48,41404.6328125,39244.0,"[4,12]",2,182.25152331421546,147.74813582341787,190.00527548906112
48,20486.67578125,19165.0,"[5,9,14]",3,207.75993409588534,409.7488926205663,487.1028154923098
72,3695.5625,3433.0,[0],1,304.0435290979227,381.42846909669896,751.3589162572545
72,15447.856201171875,14502.0,"[1,4]",2,223.06401470079157,165.01311322985018,291.07855561660745
72,32941.1552734375,31405.0,"[2,5,14]",3,212.64406497612637,487.96184603475945,558.5585889083774
72,4094.267333984375,3898.0,[7],1,261.9886163598473,236.31960566290587,745.0210676501478
72,22843.209228515625,21029.0,[12],1,176.88705899277548,138.10585715707938,163.54767559530362
96,4843.97265625,4613.0,[0],1,380.86254247347136,385.96409999638695,746.1975162104436
96,4067.2047424316406,3815.0,[1],1,317.19950556808595,192.53001364893188,355.58785520059286
96,40723.08280944824,38559.0,"[2,5,13,14]",4,253.43569067343518,495.9640983403134,547.4559039655289
96,8960.286270141602,8247.0,[4],1,231.76011407119856,162.53171486939252,282.486523540245
96,8703.562789916992,8274.0,"[7,8]",2,395.7858642258463,180.9562069934939,460.81838710561465
96,9785.135162353516,9144.0,"[5,9]",2,221.47241335434748,422.6873216190713,495.89414059334877
96,15686.700576782227,14259.0,[12],1,187.84018613261244,139.49082544221133,164.44784536761756
120,7206.748291015625,6904.0,[0],1,448.2657577860859,448.0327106321417,732.0839870833464
120,5253.2002964019775,4999.0,[1],1,401.56211248575084,180.3078377164846,366.033356753202
120,33525.192675590515,30980.0,"[2,5,13,14]",4,280.0482835247374,513.9596767477237,541.0428787837628
120,5451.991640090942,5326.0,[3],1,560.9341876311069,133.51184012583536,602.4535929520316
120,8188.01789188385,7628.0,[4],1,279.3750380995557,150.6488730988378,281.2209911853073
120,4643.9932317733765,4388.0,[7],1,381.96239876647013,232.02094575717155,730.2238613117052
120,10201.979442596436,9914.0,[8],1,492.33817110094105,148.01730768355628,204.56490356252965
120,13116.41878604889,12136.0,[12],1,203.2397783833172,135.08103504818982,164.7426627778937
144,7338.421768188477,6888.0,[0],1,473.3710823625607,456.8687643796777,700.4655396351585
144,5691.325018525124,5363.0,[1],1,432.1165774254423,194.83416788694444,379.7628674520706
144,25452.067155838013,23492.0,"[2,5,13]",3,311.6564533741874,522.6233468155395,530.0622809105523
144,6357.749477505684,6017.0,[3],1,533.7940797066225,135.41082309230262,618.3347992758848
144,8423.75111824274,7912.0,[4],1,320.9111297581212,158.5465561034932,293.92881175588695
144,4673.249576985836,4383.0,[7],1,414.9205799355346,259.9854686428945,686.9239731298899
144,8524.623715162277,7887.0,[8],1,470.2814608277746,148.69669184094565,209.82420967390527
144,12720.723184227943,12067.0,"[5,9]",2,258.5797714264692,464.8680440351841,485.78161112374863
144,4727.223795413971,4556.0,[11],1,411.81368427341204,130.66316653691905,530.254256127319
144,13355.776174128056,12536.0,[12],1,224.33193615191212,142.24940500195981,178.10002794263062
