time_in_hour,cumulative_size,size,pcore_ids,pcore_power,SCA-1,CD11b,Ly6C
-1,0,0,[],0,0.0,0.0,0.0
0,4530,4530,[0],1,0.2826676091971135,0.532107468560528,0.7972241478487874
0,38520,38520,"[1,8]",2,0.2088129324325937,0.15649283677046266,0.18423232543994095
0,27432,27432,"[2,7,9]",3,0.21905422519750667,0.46492973493320894,0.5780043432766883
0,4230,4230,[3],1,0.40989720296437576,0.18130141309115017,0.3354362465578887
0,6870,6870,[4],1,0.3127259048460144,0.16060680906558195,0.7247810920596629
0,8433,8433,"[5,6]",2,0.39697909630037853,0.3641780057123139,0.673674875218445
24,7327.5,6195.0,[0],1,0.23830969987617878,0.4925029448044074,0.7926422034940208
24,43391.0,33761.0,"[1,8]",2,0.19993640269729634,0.1562199962020608,0.17516693392279659
24,41879.0,35021.0,"[2,7,9]",3,0.2059166107493761,0.49416835606653425,0.568672162472954
24,3490.5,2433.0,[3],1,0.4053940953696095,0.1848375130687626,0.33636191648410013
24,5941.5,4224.0,[4],1,0.2746289430562214,0.16679242143325793,0.724860588585779
24,10474.25,8366.0,"[5,6]",2,0.3766402786072698,0.37108457208731027,0.6535006067749237
48,11042.375,8048.0,"[0,5]",2,0.3267770886692711,0.417417856417885,0.745551978835529
48,50914.75,40067.0,"[1,8]",2,0.19936114846302974,0.16495506007191113,0.1648494263485171
48,43302.75,32833.0,"[2,7,9]",3,0.2292844477726378,0.4987926640410929,0.5249034774701372
48,3719.625,2847.0,[3],1,0.38738765272111914,0.20029896764090824,0.32680180883119186
48,4538.375,3053.0,[4],1,0.30606708150190837,0.16995423143038538,0.6930844414340128
48,10398.5625,7780.0,"[5,6]",2,0.36048888698895304,0.3651894866581285,0.6613184404918906
72,9959.59375,7199.0,"[0,5]",2,0.33224234559000576,0.4026525193064104,0.7739623906153161
72,46375.6875,33647.0,"[1,8]",2,0.20508549958048577,0.16352756530892867,0.1776088910207375
72,47319.6875,36494.0,"[2,7,9]",3,0.2293921562982261,0.528482063356545,0.5566926751175213
72,5715.90625,4786.0,[3],1,0.4632295877958817,0.19818794990135416,0.27381795523547303
72,6474.59375,5340.0,[4],1,0.3643591581463908,0.16020639386977353,0.6953675328517404
72,3686.015625,2534.0,[6],1,0.4414224017523665,0.3815516801043748,0.5838643382030303
96,5470.2421875,4230.0,[0],1,0.4126762482577129,0.4974328715970071,0.7794190607724052
96,36202.921875,24609.0,"[1,8]",2,0.22246755730707693,0.16567171765027086,0.18656013899062202
96,54670.921875,42841.0,"[2,7,9]",3,0.2608909882829274,0.5412478958925371,0.5451986706328305
96,12933.6328125,10255.0,"[3,5]",2,0.4493301948768844,0.2413923132585441,0.45994274256029016
96,6870.6484375,5252.0,[4],1,0.4198481349795074,0.14622352132252267,0.6870162474802123
96,3734.50390625,2813.0,[6],1,0.4888637218190103,0.39760761751285323,0.5868967579063148
120,8589.560546875,7222.0,[0],1,0.49531267164346054,0.5396420042872501,0.7660760805342923
120,12353.916015625,8909.0,[1],1,0.30219360106186005,0.1731868004914803,0.28445240352421686
120,45597.73046875,31930.0,"[2,7,9]",3,0.2854627602712017,0.5660734929476793,0.5415138417564208
120,14872.994140625,12957.0,[3],1,0.5435370726310228,0.16956925651013455,0.2110238321218428
120,9531.662109375,7814.0,[4],1,0.5242851520748048,0.13516130854816116,0.6518564667933237
120,6418.4140625,5101.0,[5],1,0.4111793811949746,0.3230933600063553,0.7706807972985328
120,4617.6259765625,3684.0,[6],1,0.5606135107689693,0.3738977510030408,0.5503888699146426
120,17988.814453125,12383.0,[8],1,0.21579717060858156,0.15197099307219433,0.13058617095510114
144,10291.39013671875,8144.0,[0],1,0.5272326128820802,0.5427858567384167,0.7352860346107185
144,12749.47900390625,9661.0,[1],1,0.3474303278815415,0.17647152448169298,0.2974582178188875
144,41478.4326171875,30079.0,"[2,7,9]",3,0.3136209546613633,0.5657853221041375,0.5252546883179103
144,14465.24853515625,10747.0,[3],1,0.5338642429165721,0.1691635449696664,0.20750375566375154
144,12375.91552734375,9993.0,[4],1,0.544508959976925,0.13839580672883822,0.6292171660533098
144,6951.603515625,5347.0,[5],1,0.4385177063221032,0.3288135980177834,0.7274492693866541
144,4999.406494140625,3845.0,[6],1,0.5773061743364734,0.34863593391060926,0.5160707219383294
144,16681.20361328125,12184.0,[8],1,0.23541288885918024,0.15610689098756392,0.1391246082807599
