time_in_hour,cumulative_size,size,pcore_ids,pcore_power,SCA-1,CD11b,Ly6C
-1,0,0,[],0,0.0,0.0,0.0
0,21193,21193,[2],1,186.19077053744192,131.85216816873537,NA
0,19489,19489,[3],1,217.61886192211014,NA,NA
0,9821,9821,[5],1,215.36829243457973,NA,NA
0,16587,16587,[7],1,NA,155.7536625067829,NA
24,8148.5,7452.0,[1],1,NA,NA,NA
24,25405.125,22756.0,[2],1,177.22934348876882,134.65062167574436,NA
24,23691.125,21255.0,[3],1,192.5163431453785,NA,NA
24,15130.625,13903.0,[5],1,202.5609318848378,NA,NA
24,13301.375,11228.0,[7],1,198.65999755664393,NA,NA
48,6438.5625,5420.0,[1],1,284.7439548812298,399.30518263975745,737.5374719706456
48,29242.640625,26067.0,[2],1,153.032305136606,128.4824798333344,141.15253196717677
48,18562.390625,15601.0,[3],1,207.1502087975279,517.9205660302716,545.833708616127
48,15518.328125,13627.0,[5],1,187.11810731866726,401.4047381473318,474.4858257322748
48,14586.671875,12924.0,[7],1,226.4248773762862,150.05310070087546,258.5405480388246
72,32677.330078125,29022.0,[2],1,185.97739085051546,140.5347640724501,NA
72,34029.298828125,31709.0,[3],1,218.78230357674926,490.35772281709666,572.0529069016245
72,9514.791015625,7575.0,[5],1,209.80471564318358,NA,514.0007104481465
72,8903.333984375,7080.0,[7],1,255.8927001757366,160.47504457051352,NA
96,21184.666259765625,17100.0,[2],1,NA,144.46909720468236,NA
96,40405.662353515625,36152.0,[3],1,254.94867422816708,NA,554.0976588485049
96,8907.348876953125,7718.0,[5],1,238.1383094152775,NA,NA
96,8854.916748046875,7742.0,[7],1,NA,NA,NA
120,12334.60092163086,11690.0,[0],1,NA,156.30933490574813,NA
120,8474.325317382812,7748.0,[1],1,420.02539137885316,NA,NA
120,17476.083282470703,14828.0,[2],1,NA,140.4333660736818,NA
120,38400.126403808594,32236.0,"[3,5]",2,NA,NA,NA
120,6885.2142333984375,6617.0,[4],1,NA,NA,NA
120,8307.86459350586,7201.0,[7],1,NA,165.83731054911937,NA
144,11643.825115203857,10102.0,[0],1,NA,157.4067490849979,NA
144,13068.952457427979,11546.0,"[1,9]",2,NA,NA,NA
144,17236.510410308838,15052.0,[2],1,NA,147.7725531160477,NA
144,24896.08847427368,20826.0,[3],1,NA,NA,532.576465143801
144,9005.651779174805,8145.0,[4],1,NA,NA,NA
144,9897.927326202393,9168.0,[5],1,266.45053971947414,NA,NA
144,6488.161373138428,5797.0,[6],1,NA,NA,NA
144,8259.483074188232,7221.0,[7],1,NA,NA,341.48338467917773
