time_in_hour,cumulative_size,size,pcore_ids,pcore_power,SCA-1,CD11b,Ly6C
-1,0,0,[],0,0.0,0.0,0.0
0,12435,12435,"[1,3]",2,0.3529632290155972,0.15893005620175119,0.49430571264562195
0,21646,21646,"[2,5,8]",3,0.20575506593843745,0.46082056480187467,0.5572565498658609
0,34206,34206,"[4,10]",2,0.19289627879201443,0.15400568765819478,0.17420581731516105
0,5683,5683,[9],1,0.4200200875071859,0.3768564735820016,0.6523253230143254
24,28475.875,27123.0,"[2,5,8]",3,0.19051116500499415,0.4897403701478117,0.5421342454705376
24,33307.875,31170.0,"[4,10]",2,0.18651831080369932,0.1527109372769878,0.1674648068698541
24,6803.6875,6511.0,[7],1,0.22699769034286332,0.41457884060160133,0.8104694225428934
24,6407.1875,6052.0,[9],1,0.39548237117395685,0.38014268080843594,0.6286315425402976
24,5760.4375,5526.0,[11],1,0.25375786478452766,0.6205445510650128,0.7003625741527623
48,28295.7421875,26516.0,"[2,5,8]",3,0.21853683286231043,0.4918988181483049,0.489939080977462
48,38090.7421875,36009.0,"[4,10]",2,0.18409403805895347,0.16185539521889702,0.15645848110893493
48,5925.23046875,5500.0,[7],1,0.32949373776536167,0.4058457051098606,0.762354714739466
72,22123.48388671875,20355.0,"[2,5,8]",3,0.19874707647721376,0.49942834748001413,0.5311155049944091
72,5457.400146484375,5208.0,[3],1,0.35125134295131344,0.16368839388802972,0.7242305979123858
72,34202.67138671875,31822.0,"[4,10]",2,0.19561321101259643,0.1594779926774965,0.17682697946818365
72,5508.326904296875,5138.0,[7],1,0.3061412372882075,0.39139823529129436,0.8125116763627771
72,24702.824951171875,23608.0,"[5,11]",2,0.233525850646444,0.5918562352618394,0.5891753780857435
96,36842.85905456543,35000.0,"[0,5,11]",3,0.2808862585602653,0.5786329564362973,0.5639656853587859
96,11134.426803588867,10484.0,"[1,3]",2,0.44205096341739836,0.1649409446156013,0.44571671602437946
96,5441.798767089844,5034.0,[2],1,0.1899764468467285,0.45681053275622235,0.48680938678004304
96,26009.666961669922,23872.0,"[4,10]",2,0.22320796709036916,0.16273718643988067,0.18659695232940313
96,5494.270431518555,5150.0,[7],1,0.41733360580866025,0.398579594228869,0.8118376091723688
120,11053.2712059021,10700.0,[1],1,0.554752680262289,0.16394584108836502,0.17484950298159466
120,22835.60418510437,21210.0,"[4,10]",2,0.2621707545901859,0.15350839226402171,0.18949147789862805
120,27132.620409965515,25238.0,"[5,11]",2,0.29746104888203395,0.6031679173241326,0.5540213070907778
120,7281.192481994629,7069.0,[6],1,0.6241493695160129,0.16852055260675278,0.5490589369925583
120,7313.39190196991,6970.0,[7],1,0.4355024364320746,0.40436003963376205,0.7730051489568243
144,8817.829450368881,8127.0,[1],1,0.5483335129719907,0.1612568142626174,0.17638494795900025
144,17552.593348026276,16532.0,"[2,5]",2,0.2762266819126515,0.5446709515387176,0.493288782290465
144,5437.289404332638,5125.0,[3],1,0.4404497597333633,0.15799981357869602,0.6701804937578144
144,12693.190210998058,11890.0,[4],1,0.2327150943943857,0.15506438652207932,0.13870676718965924
144,7537.074530124664,7082.0,[6],1,0.6165391994224622,0.1581124405278008,0.6022162134291695
144,8119.086993873119,7662.0,[7],1,0.468550860336032,0.4209916135327165,0.7229437893459147
144,5817.182893157005,5652.0,[8],1,0.4754055497557346,0.2291683588200675,0.4105449066872691
144,9817.035050570965,9193.0,[10],1,0.3602553416607689,0.16430451150173042,0.26746363012605295
144,22799.788775622845,21104.0,"[5,11]",2,0.3292211993004846,0.6079564994906691,0.5371180926755642
