time_in_hour,cumulative_size,size,pcore_ids,pcore_power,SCA-1,CD11b,Ly6C
-1,0,0,[],0,0.0,0.0,0.0
0,21498,21498,"[0,8]",2,0.23920840297660412,0.5090858183587743,0.6222274574254685
0,43592,43592,"[1,3,7]",3,0.2282643346578409,0.1635271665522094,0.20715877864841759
0,11868,11868,"[2,6]",2,0.2764664114245459,0.3906319819675566,0.5562970702973979
0,3915,3915,[5],1,0.4164346291273801,0.16109839750813418,0.7142738084063646
0,5697,5697,[9],1,0.30736066488768876,0.37714399973948337,0.7836236631400185
24,38789.0,28040.0,"[0,8]",2,0.2197516758052292,0.5304349503620294,0.6102583384573759
24,58595.0,36799.0,"[1,3,7]",3,0.2176172757003692,0.16253121260713183,0.19622754892735833
24,20554.0,14620.0,"[2,6]",2,0.2667046956605394,0.3953852163839928,0.5489730132349504
24,8056.5,4371.0,"[4,5]",2,0.2996455510485291,0.17381169416336503,0.7005065284335821
24,9018.5,6170.0,[9],1,0.2780684896775838,0.3897814246582617,0.7890888847263081
48,42982.5,23588.0,"[0,8]",2,0.2233757205865738,0.547785291183167,0.5689403428157481
48,71881.5,42584.0,"[1,3,7]",3,0.21287861646826015,0.1616501500411224,0.17733129725523947
48,23422.0,13145.0,"[2,6]",2,0.2822827429124057,0.4023123974404695,0.5228653785040951
48,8834.25,4806.0,"[4,5]",2,0.3188223312420714,0.17117980499846558,0.6841757439173163
48,10386.25,5877.0,[9],1,0.31065937706642527,0.4012288643018597,0.7805310258739486
72,56409.25,34918.0,"[0,8]",2,0.23508539593748484,0.545139247003009,0.5755444524081469
72,71921.75,35981.0,"[1,3,7]",3,0.22381479825355197,0.15930453742092474,0.17913690425570236
72,13632.75,6450.0,[2],1,0.2291383892761566,0.3934183603149546,0.4917929541231919
72,9353.125,4936.0,"[4,5]",2,0.3360491333711233,0.1757190155611962,0.6903260242719265
72,6713.25,2185.0,[6],1,0.42895077527796577,0.3793756960343653,0.5635884084569325
72,10723.125,5530.0,[9],1,0.32882800154292124,0.38119020322562686,0.7849349249749429
96,67282.625,39078.0,"[0,8]",2,0.2660880788191196,0.5545855697719863,0.5688944259904729
96,67922.875,31962.0,"[1,3,7]",3,0.25134572554169676,0.16970600068318417,0.1948201871024401
96,12088.375,5272.0,[2],1,0.23745981577853342,0.3990739368677504,0.4816215055312625
96,10906.5625,6230.0,"[4,5]",2,0.3937198412588532,0.17292161629514136,0.6925344415182901
96,5471.625,2115.0,[6],1,0.4350257341437423,0.38870714431394293,0.5712174502013
96,10704.5625,5343.0,[9],1,0.37501539201131695,0.3852017774380633,0.7850625937098765
120,64852.3125,31211.0,"[0,8]",2,0.2853161098218255,0.5705914728320414,0.5604176017002952
120,51106.46875,21030.0,"[1,7]",2,0.24016452682091252,0.16448891047357567,0.18818374061106125
120,7362.1875,1318.0,[2],1,0.24075342756483922,0.4004728188917808,0.4772787715550135
120,17946.96875,14062.0,[3],1,0.5273277053159547,0.17830132205977606,0.23613168633536713
120,5372.75,2943.0,[4],1,0.33256310846609605,0.18090959785123176,0.6826363141187484
120,10252.53125,7229.0,[5],1,0.5603463641771984,0.15793398319400237,0.6675454909150479
120,6374.8125,3639.0,[6],1,0.4916370144396182,0.4205315771642136,0.5750149415940949
120,13920.28125,8568.0,[9],1,0.4316655476089342,0.4324832565858173,0.7808833844438934
144,59954.15625,27528.0,"[0,8]",2,0.3074929819534305,0.5763514736689882,0.545851000225472
144,46326.234375,20773.0,"[1,7]",2,0.2630505431960873,0.16797672943880995,0.19837938364327287
144,6071.09375,2390.0,[2],1,0.2597912174188398,0.4091863239064355,0.46699467983729215
144,21796.484375,12823.0,[3],1,0.5225384772913868,0.17851149637852518,0.23301860388091053
144,21380.640625,13568.0,"[4,5]",2,0.5116052355229314,0.16895230202426575,0.6469324585250024
144,23065.546875,12918.0,"[6,9]",2,0.4858107583073685,0.45372781808997986,0.6987576536742766
