time_in_hour,cumulative_size,size,pcore_ids,pcore_power,SCA-1,CD11b,Ly6C
-1,0,0,[],0,0.0,0.0,0.0
0,21498,21498,"[0,8]",2,0.23920840297660412,0.5090858183587743,0.6222274574254685
0,43592,43592,"[1,3,7]",3,0.2282643346578409,0.1635271665522094,0.20715877864841759
0,11868,11868,"[2,6]",2,0.2764664114245459,0.3906319819675566,0.5562970702973979
0,3915,3915,[5],1,0.4164346291273801,0.16109839750813418,0.7142738084063646
0,5697,5697,[9],1,0.30736066488768876,0.37714399973948337,0.7836236631400185
24,49551.0,28053.0,"[0,8]",2,0.2224345635038624,0.5274905529482821,0.6132407100393956
24,80234.0,36642.0,"[1,3,7]",3,0.22035989954103516,0.1624319566625085,0.1980602894662284
24,26532.0,14664.0,"[2,6]",2,0.2717083208404695,0.3927198728010852,0.5501164790879891
24,11922.0,4551.0,"[4,5]",2,0.30799880873618496,0.1728727300606281,0.7017505022437979
24,11787.0,6090.0,[9],1,0.2866296233805459,0.3867546960049172,0.7887326511805748
48,71076.0,21525.0,"[0,8]",2,0.22509587774694245,0.5412609445653618,0.5937534037720559
48,122887.0,42653.0,"[1,3,7]",3,0.21690926797369434,0.16190965381984415,0.18650108652700698
48,42303.0,15771.0,"[2,6]",2,0.2743987397499104,0.40072941779746185,0.5300561275856612
48,16585.0,4663.0,"[4,5]",2,0.31554105002150784,0.17174319323054016,0.6942178814274576
48,17175.0,5388.0,[9],1,0.3018830610208823,0.3923588031114364,0.7844114204945144
72,99736.0,28660.0,"[0,8]",2,0.22507455637940413,0.5556811157927513,0.5917390507822421
72,160465.0,37578.0,"[1,3,7]",3,0.22138249896631237,0.16078663775935112,0.18477063145478348
72,34230.0,6094.0,[2],1,0.21211923964457555,0.410043979838282,0.5028334136884876
72,23168.0,6583.0,"[4,5]",2,0.32603862747532375,0.16762725463113443,0.696960335813778
72,19103.0,4936.0,[6],1,0.4193659211124507,0.38151916628195304,0.569903548306347
72,23324.0,6149.0,[9],1,0.3058705504673739,0.3941362905860467,0.7943827706074442
96,143968.0,44232.0,"[0,8]",2,0.24877489161136923,0.5479762769680314,0.5827866629357193
96,187346.0,26881.0,"[1,3,7]",3,0.22854000115390738,0.16079339831114636,0.18494633168879987
96,43424.0,9194.0,[2],1,0.23100636110720293,0.402769638409191,0.49807915177919365
96,27593.0,4425.0,"[4,5]",2,0.3412929594177309,0.17470391779146563,0.6950054793439179
96,19531.0,428.0,[6],1,0.41979969613273466,0.3811607304410594,0.569656439041169
96,28164.0,4840.0,[9],1,0.3256571860802429,0.3809450593517877,0.7817008571178167
120,172961.0,28993.0,"[0,8]",2,0.2636231886788265,0.5550688381323847,0.5814351804452185
120,198664.0,23246.0,"[1,7]",2,0.22083331825131333,0.16429888533230141,0.1804107395082891
120,46284.0,2860.0,[2],1,0.23207808847962802,0.40813719037804086,0.49726947254473536
120,27899.0,15971.0,[3],1,0.47800348045176083,0.18908035108542115,0.2957474028772736
120,15327.0,1248.0,[4],1,0.25686183521332495,0.18208831780901794,0.6846212842149545
120,21603.0,8089.0,[5],1,0.4835546665127105,0.16684234823259617,0.6936234006928212
120,23567.0,4036.0,[6],1,0.4385182479976928,0.3897673466637043,0.5744376337642491
120,33721.0,5557.0,[9],1,0.34427131561067836,0.3872302005504062,0.781839995947345
144,201213.0,28252.0,"[0,8]",2,0.27420223311905195,0.5597857028794453,0.5761276344493829
144,217236.0,18572.0,"[1,7]",2,0.22473152483055425,0.16477473588579733,0.18116725127406397
144,48308.0,2024.0,[2],1,0.23351772288862002,0.40930038568507154,0.49495454003108785
144,44118.0,16219.0,[3],1,0.491831075089223,0.18666322464292157,0.2841406236827328
144,16508.0,1181.0,[4],1,0.2616902802318536,0.18163824587448021,0.6804295602375132
144,32727.0,11124.0,[5],1,0.5091735408656454,0.16640804837275056,0.6779322332016767
144,30887.0,7320.0,[6],1,0.46260002480953066,0.40543038432165474,0.5813568721620025
144,39029.0,5308.0,[9],1,0.35912129298265516,0.394765280115995,0.7776307732112295
