time_in_hour,cumulative_size,size,pcore_ids,pcore_power,SCA-1,CD11b,Ly6C
-1,0,0,[],0,0.0,0.0,0.0
0,29672,29672,[13],2,218.29960905904588,NA,NA
0,9180,9180,[59],2,NA,NA,NA
0,39546,39546,[78],2,197.50465280938863,142.87121327062226,NA
24,37149.5,35295.0,"[1,3]",2,195.72475066959342,NA,NA
24,7753.1875,7411.0,[5],1,219.3728869577838,375.32015058322645,NA
24,11401.5,10495.0,[7],1,202.94636122440016,NA,NA
24,26058.125,24493.0,[8],1,177.58344086537718,135.42305183124282,NA
48,14725.5859375,13449.0,[1],1,212.60056237151065,530.4389614695912,547.9726804164702
48,15130.2578125,14085.0,[3],1,175.91566981106578,416.1985237053455,478.99257850964017
48,6594.57421875,6110.0,[5],1,293.3867117321204,394.3627567881022,733.2770080280243
48,12959.59375,12247.0,[7],1,243.9909282336676,145.57252349249043,254.92930219407958
48,28460.6328125,26832.0,[8],1,148.19365565539016,128.51205557786685,145.29192640272538
72,32894.34912109375,31974.0,[1],1,220.76465820890655,491.0309662161639,576.8220889537841
72,8803.64111328125,7858.0,[3],1,NA,NA,NA
72,39424.76416015625,36836.0,"[7,8]",2,NA,144.14663145166583,NA
96,47021.12438964844,44415.0,"[1,3]",2,254.13548340288048,NA,NA
96,5493.822555541992,5234.0,[5],1,373.6271989561873,NA,NA
96,8506.935913085938,8057.0,[7],1,NA,176.77629681886265,NA
96,20005.111846923828,17991.0,[8],1,NA,144.14698495145433,NA
120,35900.82027435303,32962.0,"[1,3]",2,NA,NA,NA
120,11239.72250175476,10989.0,[4],1,NA,154.64676145050976,NA
120,9298.363909721375,8955.0,[5],1,433.8062195645657,NA,NA
120,7735.683494567871,7204.0,[7],1,NA,169.49388378804952,NA
120,16823.31949043274,15573.0,[8],1,NA,139.95780001152187,NA
120,5702.619576454163,5622.0,[9],1,NA,NA,NA
144,32384.801267147064,30141.0,"[1,3]",2,NA,NA,NA
144,10636.482656359673,9934.0,[4],1,NA,NA,NA
144,9782.147744357586,9201.0,[5],1,454.4242861750131,NA,NA
144,11393.075591385365,10842.0,"[6,9]",2,NA,NA,NA
144,7728.480218410492,7245.0,[7],1,NA,180.48800029664545,NA
144,16908.457468152046,15857.0,[8],1,NA,148.08947999926085,NA
