time_in_hour,cumulative_size,size,pcore_ids,pcore_power,SCA-1,CD11b,Ly6C
-1,0,0,[],0,0.0,0.0,0.0
0,12435,12435,"[1,3]",2,NA,NA,NA
0,21646,21646,"[2,5,8]",3,NA,NA,NA
0,34206,34206,"[4,10]",2,NA,136.1410278898442,NA
0,5683,5683,[9],1,NA,NA,NA
24,30595.75,27890.0,"[2,5,8]",3,NA,NA,NA
24,35325.75,31050.0,"[4,10]",2,NA,NA,NA
24,7013.375,6428.0,[7],1,NA,365.3479957937511,NA
24,6632.375,5922.0,[9],1,NA,NA,NA
24,5690.875,5222.0,[11],1,NA,NA,NA
48,31163.46875,27339.0,"[2,5,8]",3,NA,NA,NA
48,40850.71875,36435.0,"[4,10]",2,NA,NA,NA
48,5941.671875,5065.0,[7],1,283.23029871116637,NA,NA
72,11005.693359375,9869.0,"[1,3]",2,NA,NA,NA
72,25960.43359375,22065.0,"[2,5,8]",3,NA,NA,NA
72,36801.33984375,31695.0,"[4,10]",2,NA,141.16584282820014,NA
72,5861.708984375,5119.0,[7],1,NA,NA,NA
72,25716.349609375,23365.0,"[5,11]",2,NA,NA,NA
96,38714.901123046875,34909.0,"[0,5,11]",3,NA,NA,NA
96,12152.711669921875,10777.0,"[1,3]",2,NA,NA,NA
96,6076.6787109375,5150.0,[2],1,NA,NA,NA
96,28031.16748046875,23431.0,"[4,10]",2,NA,143.60784374522012,NA
96,6050.713623046875,5318.0,[7],1,363.5470083328425,NA,NA
120,19618.529754638672,16647.0,"[0,11]",2,NA,NA,NA
120,18804.088958740234,17285.0,"[1,3]",2,NA,NA,NA
120,24052.895935058594,20549.0,"[4,10]",2,NA,136.72802430196788,NA
120,14400.832885742188,12533.0,[5],1,NA,NA,521.3344541847996
120,7227.575439453125,6759.0,[6],1,NA,NA,NA
120,7887.339202880859,7131.0,[7],1,383.6756321303924,NA,NA
144,6228.677459716797,5552.0,[0],1,NA,NA,NA
144,9937.78205871582,8500.0,[1],1,NA,NA,NA
144,17514.802215576172,15265.0,"[2,5]",2,NA,NA,NA
144,9661.729061126709,8749.0,[3],1,NA,NA,NA
144,12581.88367843628,10965.0,[4],1,NA,NA,NA
144,7524.446929931641,6621.0,[6],1,NA,NA,NA
144,8817.917400360107,7832.0,[7],1,NA,NA,NA
144,11282.728313446045,9893.0,[10],1,NA,NA,NA
144,23203.74287033081,19628.0,"[5,11]",2,NA,NA,NA
