time_in_hour,cumulative_size,size,pcore_ids,pcore_power,SCA-1,CD11b,Ly6C
-1,0,0,[],0,0.0,0.0,0.0
0,6342,6342,[0],1,251.32481866918909,472.84247871334065,747.1729738252923
0,19814,19814,"[1,3]",2,196.28227515897993,149.81417179771964,277.0098919955582
0,19737,19737,[2],1,181.45847899883623,131.0585195318439,147.0183918528648
0,7165,7165,[4],1,297.1235170969978,151.12519190509494,710.4379623168179
0,6714,6714,[6],1,350.29252308608227,334.67039022937126,628.3926124515931
0,22448,22448,[8],1,193.52499109052198,431.318246614399,567.8665805417002
24,15040.0,8698.0,[0],1,231.3755984042553,468.84634308510755,741.338763297873
24,34806.0,14992.0,"[1,3]",2,190.87467677986766,147.8654829627082,275.63491926679194
24,39113.0,19376.0,[2],1,176.36356198706628,132.0962339886988,144.30841408227377
24,11914.0,4749.0,[4],1,276.77362766492973,155.92546583850913,712.7544905153572
24,9822.0,5279.0,[5],1,196.63591936469186,236.03217267358963,497.1753207086121
24,13429.0,6715.0,[6],1,345.98004319010283,337.97229875642233,618.9805644500727
24,50528.0,28080.0,[8],1,183.31430098163543,448.90613125396277,560.7372941735152
48,18598.0,3558.0,[0],1,240.97569631142963,468.7976664157417,733.1523819765569
48,15279.0,4344.0,[1],1,245.8033902742326,165.26186268734855,313.52346357745876
48,101937.0,38953.0,"[2,3]",2,174.88393811864537,141.43753494805574,187.69108370856483
48,15042.0,3128.0,[4],1,279.7211142135335,159.7109426937901,705.9272038292751
48,13206.0,3384.0,[5],1,203.239436619718,245.2488262910798,489.3670301378129
48,20575.0,7146.0,[6],1,337.464981773991,335.49317132442076,624.9361846901561
48,6544.0,1223.0,[7],1,379.7525977995072,176.63569682151578,351.99067848410783
48,78792.0,28264.0,[8],1,192.54218702406402,452.83073154635736,543.6646867702214
72,22709.0,4111.0,[0],1,244.7636619842348,475.33198291426186,724.0493636884075
72,19636.0,4357.0,[1],1,254.10470564269673,168.7253513953958,315.1079649623129
72,85168.0,19845.0,[2],1,178.63622487319373,137.54188192748364,148.6007068382482
72,49270.0,12656.0,[3],1,175.9065760097462,151.49072457885097,265.91510046681765
72,20418.0,5376.0,[4],1,285.46914487216856,162.41923792731873,706.2623665393282
72,15763.0,2557.0,[5],1,205.99746241197778,247.9512783099666,492.84241578379437
72,24532.0,3957.0,[6],1,342.45369313549185,331.650334257297,630.6851866949269
72,9894.0,3350.0,[7],1,396.7612694562327,177.26905195067775,345.44097432787567
72,112583.0,33791.0,[8],1,199.12270058534742,460.04669443877424,550.5611770871002
96,27935.0,5226.0,[0],1,267.01267227492264,484.40465366028275,722.4926794344053
96,25944.0,6308.0,[1],1,262.00304502004286,167.54390225100167,311.09011717545417
96,98436.0,13268.0,[2],1,181.06763785607123,137.32787801210924,147.7014811654249
96,55748.0,6478.0,[3],1,174.70131663916538,151.21945181889868,265.24587429145777
96,26781.0,6363.0,[4],1,305.4481535416865,158.65897464620383,706.107090847989
96,19096.0,3333.0,[5],1,206.61997276916648,252.80147674905737,487.83431085044003
96,31079.0,6547.0,[6],1,358.5952572476559,338.15357636989523,638.3047073586591
96,16422.0,6528.0,[7],1,420.5423821702574,174.66246498599455,329.08610400682005
96,148532.0,35949.0,[8],1,206.9946072226878,470.33182748499246,546.2970740311952
120,34608.0,6673.0,[0],1,294.4015256588044,493.8658113730944,722.859165510866
120,32072.0,6128.0,[1],1,269.6962459466186,163.4291282115241,307.900193315042
120,169126.0,14942.0,"[2,3]",2,181.11664084765516,141.11918333077134,188.00737320104432
120,34099.0,7318.0,[4],1,332.61784803073124,151.98824012434332,700.5840933751709
120,20431.0,1335.0,[5],1,208.75786794576828,252.2072830502674,486.92677793549075
120,40876.0,9797.0,[6],1,383.78483706820276,345.0914962325082,645.60093942655
120,32652.0,16230.0,[7],1,458.7579015068005,164.80108416023475,307.66957613622384
120,176109.0,27577.0,[8],1,213.68766502563494,479.0334679090885,542.3688454309802
144,41125.0,6517.0,[0],1,315.1844133738569,501.7303586626164,718.5413009118537
144,40208.0,8136.0,[1],1,279.82901412654155,161.40549144448852,304.8057849184242
144,119473.0,9693.0,[2],1,188.6905158487715,136.11486277234124,146.26503896277433
144,62746.0,3400.0,[3],1,173.88230325439525,149.63729958881945,264.18229050457745
144,43181.0,9082.0,[4],1,358.82091660683705,146.66202728051542,687.9584307913215
144,21704.0,1273.0,[5],1,212.13163472170967,251.09597309251862,486.5941301142648
144,52626.0,11750.0,[6],1,404.32219815299925,351.2805077338207,647.0382890586309
144,47828.0,15176.0,[7],1,466.3102157731894,163.62204148197648,305.17562933846375
144,201082.0,24973.0,[8],1,220.8825056444577,483.5869297102742,536.371669269279
