time_in_hour,cumulative_size,size,pcore_ids,pcore_power,SCA-1,CD11b,Ly6C
-1,0,0,[],0,0.0,0.0,0.0
0,38927,38927,"[1,4,7,9]",4,NA,134.97318056875704,NA
0,14114,14114,"[2,16,17]",3,NA,NA,NA
0,6601,6601,[5],1,NA,NA,618.628238145734
0,5101,5101,"[11,15]",2,NA,NA,NA
0,4871,4871,[18],1,NA,NA,NA
0,3288,3288,[19],1,NA,NA,NA
24,3336.0,2561.0,[0],1,NA,NA,NA
24,52872.5,33409.0,"[1,4,7,9]",4,NA,NA,NA
24,25098.0,18041.0,"[2,16,17]",3,NA,NA,NA
24,13059.5,9759.0,[5],1,NA,NA,NA
24,3384.5,2056.0,[10],1,NA,NA,NA
24,7448.5,4898.0,"[11,15]",2,NA,NA,NA
24,3134.5,1976.0,[12],1,NA,NA,NA
24,2841.5,1605.0,[13],1,NA,129.54055956361086,NA
24,3086.0,2244.0,[14],1,NA,NA,NA
24,8403.5,5968.0,[18],1,NA,NA,NA
24,5444.0,3800.0,[19],1,250.746785451872,NA,NA
48,65694.25,39258.0,"[1,4,7,9]",4,NA,NA,NA
48,35661.25,21754.0,"[2,16,18]",3,NA,NA,NA
48,14979.75,8450.0,[5],1,NA,NA,584.9900866169301
48,2831.0,1509.0,[6],1,NA,NA,NA
48,4488.25,2796.0,[10],1,293.4498412521552,NA,NA
48,7717.25,3993.0,"[11,15]",2,NA,NA,NA
48,3281.25,1714.0,[12],1,NA,NA,NA
48,3348.75,1928.0,[13],1,NA,137.80567375886523,NA
48,3000.0,1457.0,[14],1,NA,NA,NA
48,4312.5,1469.0,[17],1,NA,NA,NA
48,6038.0,3316.0,[19],1,280.40108479628697,NA,NA
72,67255.125,34408.0,"[1,4,7,9]",4,NA,140.70188145513092,NA
72,38051.875,18065.0,"[2,16,17,18]",4,NA,NA,NA
72,3177.375,2329.0,[3],1,NA,NA,NA
72,24731.875,17242.0,[5],1,221.226933865711,NA,NA
72,3354.5,1939.0,[6],1,NA,NA,NA
72,5086.125,2842.0,[10],1,NA,NA,NA
72,4443.25,2155.0,[11],1,NA,NA,NA
72,2878.625,1238.0,[12],1,NA,NA,NA
72,5044.375,3370.0,[13],1,NA,NA,NA
72,5618.0,2599.0,[19],1,NA,NA,NA
96,40831.75,18266.0,"[1,7,9]",3,NA,138.17509811604953,NA
96,37595.9375,18570.0,"[2,16,17,18]",4,NA,NA,NA
96,4159.6875,2571.0,[3],1,NA,NA,NA
96,17234.8125,6173.0,[4],1,NA,NA,NA
96,34093.9375,21728.0,[5],1,NA,NA,566.4702943888418
96,4476.25,2799.0,[6],1,NA,179.56697849762574,NA
96,6170.0625,3627.0,[10],1,NA,NA,NA
96,5543.625,3322.0,[11],1,NA,NA,NA
96,3272.3125,1833.0,[12],1,NA,NA,NA
96,6968.1875,4446.0,[13],1,NA,NA,NA
96,6117.0,3308.0,[19],1,NA,NA,NA
120,17126.53125,9097.0,"[1,7]",2,NA,NA,NA
120,25890.75,10830.0,"[2,16,17]",3,NA,NA,NA
120,8139.84375,6060.0,[3],1,NA,NA,NA
120,32396.75,11393.0,"[4,9]",2,NA,NA,NA
120,35404.96875,18358.0,[5],1,NA,NA,554.3609583400536
120,6988.125,4750.0,[6],1,NA,NA,NA
120,2737.3125,1462.0,[8],1,NA,NA,NA
120,6171.03125,3086.0,[10],1,NA,NA,NA
120,7764.8125,4993.0,[11],1,NA,NA,NA
120,13400.09375,9916.0,[13],1,NA,NA,NA
120,3457.5,2224.0,[14],1,NA,NA,NA
120,4410.21875,673.0,[18],1,NA,NA,NA
120,7789.5,4731.0,[19],1,NA,NA,NA
144,19204.265625,10641.0,"[1,7]",2,NA,NA,NA
144,17853.265625,10328.0,"[2,17]",2,NA,NA,NA
144,10957.921875,6888.0,[3],1,NA,NA,NA
144,26004.375,9806.0,"[4,9]",2,NA,NA,NA
144,31169.484375,13467.0,[5],1,NA,NA,NA
144,9672.0625,6178.0,[6],1,NA,NA,NA
144,3851.65625,2483.0,[8],1,NA,NA,NA
144,5318.515625,2233.0,[10],1,NA,NA,NA
144,9393.40625,5511.0,[11],1,NA,NA,NA
144,14225.046875,7525.0,[13],1,NA,NA,NA
144,4138.75,2410.0,[14],1,NA,NA,NA
144,3730.671875,2705.0,[15],1,NA,NA,NA
144,8449.109375,3029.0,[16],1,NA,NA,NA
144,3328.109375,1123.0,[18],1,NA,NA,NA
144,8226.75,4332.0,[19],1,396.10910862429944,NA,NA
