time_in_hour,cumulative_size,size,pcore_ids,pcore_power,SCA-1,CD11b,Ly6C
-1,0,0,[],0,0.0,0.0,0.0
0,26479,26479,"[0,2,5]",3,0.27004503462782176,0.47339191699594885,0.6594108993040751
0,44163,44163,"[1,3,7]",3,0.2285463427491689,0.16824217524897253,0.21536757911456392
0,28916,28916,"[2,8]",2,0.24284657924309277,0.4677406987567046,0.5874124759190354
24,14165.75,11749.0,"[0,5]",2,0.28613606921425827,0.4142917725126155,0.7250749920789435
24,48775.75,37735.0,"[1,3,7]",3,0.21492086548119896,0.16945346863194194,0.20507970622838181
24,43167.0,35938.0,"[2,8]",2,0.22201735850549734,0.49345750959626733,0.5752399406190787
48,15198.4375,11657.0,"[0,5]",2,0.35172061549976963,0.420650644960358,0.7000944126547846
48,55440.9375,43247.0,"[1,3,7]",3,0.2111986215718635,0.16485554888256773,0.17702136140560348
48,40707.75,29916.0,"[2,8]",2,0.219262576922832,0.5190158363398788,0.5249487256514292
72,7311.515625,5264.0,[0],1,0.33770100090060357,0.40567605945948626,0.7776458429366213
72,50732.234375,36872.0,"[1,3,7]",3,0.22971026896845348,0.1597288058577635,0.18276879096664098
72,50921.9375,40745.0,"[2,8]",2,0.2385959191999112,0.5193867256037696,0.5601402789930744
96,9506.90234375,6781.0,"[0,5]",2,0.41410589270861364,0.39656631104424656,0.7235349265631907
96,44404.05859375,31721.0,"[1,3,7]",3,0.26506478842623726,0.17628933126071905,0.20790863265963763
96,57709.484375,44979.0,"[2,8]",2,0.27598953107827895,0.5339479187561059,0.5521245598887975
120,13379.7255859375,11003.0,"[0,5]",2,0.4765731760882162,0.4592035872708832,0.7212818910112587
120,16182.193359375,13496.0,[1],1,0.49885234525096767,0.1766795681995006,0.21963861351660433
120,47219.37109375,32792.0,"[2,8]",2,0.2982418643936746,0.5611997144444609,0.5470817044789487
120,5999.8203125,4660.0,[4],1,0.41194431545548615,0.19822776919837037,0.725873612467217
120,7323.7919921875,6598.0,[6],1,0.5981229899587266,0.15741396972485824,0.5973901436413519
120,24486.1494140625,16940.0,[7],1,0.23917200963553412,0.16020044857028493,0.1669558900989026
144,15469.931396484375,12125.0,"[0,5]",2,0.500849317352532,0.4727572740012398,0.6897416088016649
144,23671.46630859375,18281.0,"[1,3]",2,0.46942185631798333,0.19045660388864177,0.27699897565574977
144,41923.8427734375,30119.0,"[2,8]",2,0.32580389160478274,0.5628036680838835,0.5299617505193075
144,16855.903076171875,13525.0,"[4,6]",2,0.5260518130330574,0.17922738088367396,0.6302428250756924
144,22071.537353515625,15950.0,[7],1,0.26281885254868315,0.1657592301081824,0.17326414303106397
