time_in_hour,cumulative_size,size,pcore_ids,pcore_power,SCA-1,CD11b,Ly6C
-1,0,0,[],0,0.0,0.0,0.0
0,29672,29672,[13],2,0.24528045961690548,0.46955651777686486,0.5945241845363816
0,9180,9180,[59],2,0.3101964456194448,0.3836450970534017,0.7316527650406854
0,39546,39546,[78],2,0.22191534023526813,0.16161901953690302,0.19425507348043825
24,43631.0,36213.0,"[1,3]",2,0.22253012302612563,0.49536947348760246,0.5780924241203003
24,8589.75,7221.0,[5],1,0.2515712645493666,0.41448814546538676,0.7829309301998024
24,13390.0,9764.0,[7],1,0.23002305510568963,0.18177516482551054,0.28674311098765415
24,31154.5,24894.0,[8],1,0.2008928679302416,0.15279317122538238,0.14076887118481646
24,5457.25,4531.0,[9],1,0.3369551689047775,0.38062996441489244,0.6389052955749059
48,20033.125,14086.0,[1],1,0.23293449017200224,0.5868109386983924,0.5744195043885036
48,19576.625,14616.0,[3],1,0.20484097457147388,0.45727890214322986,0.4903958997734887
48,7685.4375,5538.0,[5],1,0.3085034689584633,0.4334367087487356,0.7783825718320185
48,15489.5,12142.0,[7],1,0.263884083672484,0.17056235657522537,0.25578247974002943
48,35477.625,27689.0,[8],1,0.17862527612256732,0.14665897341356887,0.11755558761356899
48,7150.3125,5786.0,[9],1,0.3983782530915892,0.3988378391366224,0.6164847289194247
72,33896.28125,28888.0,[1],1,0.24178822461021093,0.5790105846579547,0.594522362099994
72,15475.15625,10581.0,[3],1,0.22570944345033217,0.4207246349962199,0.5106144293484993
72,7390.359375,5469.0,[5],1,0.325754630181613,0.3910377979107707,0.7858500279844957
72,48903.78125,36162.0,"[7,8]",2,0.224575034907355,0.15381749562591165,0.1700278269168237
96,44974.0703125,36500.0,[1],1,0.2835433338188988,0.5630355544488068,0.5711955711175702
96,11960.7890625,8092.0,[3],1,0.25114016892848084,0.43419159259318674,0.49877656649421714
96,6659.58984375,4812.0,[5],1,0.3960942119727485,0.3940131769808155,0.7769529531536535
96,39129.9453125,26904.0,"[7,8]",2,0.24721884979910663,0.17137694276519133,0.1901490679066563
120,46956.71484375,32723.0,"[1,3]",2,0.29973956650069666,0.5630275447947555,0.5505224722644301
120,7042.935546875,5936.0,[2],1,0.5748503277887231,0.16606737895380821,0.6887385660693409
120,13370.701171875,12397.0,[4],1,0.5432981884136309,0.17822506986992936,0.23548959057588964
120,9965.8974609375,8301.0,[5],1,0.4546015494679307,0.4476653992297253,0.7687922897240611
120,10380.3984375,7558.0,[7],1,0.345833343903842,0.18180309856626167,0.2811515395104959
120,21238.087890625,14278.0,[8],1,0.23549762465004956,0.15904612933472606,0.15114993427769788
144,41779.1787109375,30040.0,"[1,3]",2,0.3271558047332877,0.5649457548845956,0.5329458317354273
144,16480.21240234375,13482.0,"[2,6]",2,0.5227024758493495,0.17261540646125378,0.6220917308718276
144,13296.67529296875,9954.0,[4],1,0.5260908584016063,0.1785986983444327,0.22726425467328004
144,15441.6552734375,12009.0,"[5,9]",2,0.49732962803040187,0.4668681325487918,0.7000092049983854
144,10490.099609375,7895.0,[7],1,0.3708495176434094,0.1871654538332695,0.2972840610736774
144,19086.52197265625,13777.0,[8],1,0.2576901076854992,0.16426161375868478,0.1574554953907674
