time_in_hour,cumulative_size,size,pcore_ids,pcore_power,SCA-1,CD11b,Ly6C
-1,0,0,[],0,0.0,0.0,0.0
0,18485,18485,"[0,9]",2,0.19079022468871162,0.13644779856971004,0.22540939412139965
0,6599,6599,[1],1,0.27146333033094866,0.49902151635480246,0.814056493003089
0,10299,10299,"[2,6]",2,0.3647186210944417,0.14326326107310003,0.392517080063345
0,22267,22267,[3],1,0.20239433272293614,0.4991496151092658,0.5749552180196567
0,6258,6258,[7],1,0.26895407586154735,0.278465464657727,0.3296069672244914
0,10250,10250,[8],1,0.1522656070156246,0.1374770996578746,0.07498593079472023
0,7154,7154,[10],1,0.4166202297449616,0.41667083060832255,0.6461669239193987
24,19460.625,17150.0,"[0,9]",2,0.18746616348987874,0.1416469791871481,0.22584969521504722
24,10190.875,9366.0,[1],1,0.24355460650452476,0.4984235852908748,0.7982839548994938
24,29234.375,26451.0,[3],1,0.18834088602502205,0.5335531220752102,0.5659965122327759
24,6611.25,5829.0,[7],1,0.21670526702654147,0.34229214308874645,0.3885952102127331
24,11688.25,10407.0,[8],1,0.15616618485337128,0.1354704849680321,0.06970099271168635
24,8212.25,7318.0,[10],1,0.4015893973137482,0.403790107593651,0.6127257503643739
48,9992.328125,8974.0,[0],1,0.25601047404679267,0.1568699792726299,0.24039121626930593
48,7495.859375,6222.0,[1],1,0.3173452899968263,0.4851146798758193,0.7686744906935563
48,10111.546875,9148.0,"[2,6]",2,0.34676359494237485,0.16836523941484474,0.3333241391901251
48,23564.296875,19910.0,[3],1,0.2148045709416199,0.5615571455259647,0.5356293528477121
48,11157.40625,10331.0,[7],1,0.20165715994625458,0.4132505700481473,0.4166454057249803
48,14248.03125,12787.0,[8],1,0.1549934357923002,0.14224741516592562,0.06306104114245574
48,12570.25,11156.0,[9],1,0.12873333048045876,0.1525288329250245,0.20010290912289078
48,6512.53125,5486.0,[10],1,0.4081197123803347,0.41471749251861045,0.59819503631902
72,11024.041015625,9775.0,[0],1,0.2576557931820441,0.15902588263474499,0.25401238028296047
72,6843.982421875,5907.0,[1],1,0.3153572926315767,0.46626302744974063,0.8075469215331603
72,28035.537109375,25090.0,[3],1,0.21845413041392298,0.5943899736003373,0.5773299454916461
72,9291.67578125,7897.0,[7],1,0.19037074179824084,0.4237437431476294,0.4686235350998695
72,11077.00390625,9296.0,[8],1,0.16571147096759245,0.13868754911828185,0.06505704374069625
72,12023.28125,10452.0,[9],1,0.1328945937634808,0.15083702435661545,0.1990718643268229
96,10507.005126953125,9129.0,[0],1,0.2811315849096365,0.1665773413240949,0.2701399853332805
96,6851.497802734375,5996.0,[1],1,0.4133395963377304,0.4522756985368756,0.8215982596071277
96,10226.897216796875,8980.0,"[2,5]",2,0.3582180152681036,0.16134798065947778,0.37866407297967
96,31146.442138671875,27642.0,[3],1,0.25546497391589557,0.6049864700717376,0.5666378431890687
96,5461.886962890625,4814.0,[4],1,0.5263137501599795,0.24079629225523713,0.2944579929485421
96,11246.45947265625,10085.0,[7],1,0.2119544484783826,0.4393463614681957,0.46953989578685185
96,7898.62548828125,6514.0,[8],1,0.18382902736220613,0.13867995080594928,0.06414193125412457
96,7974.91015625,6472.0,[9],1,0.13821176237616303,0.15444406311624964,0.20247828691831238
96,6831.88330078125,6226.0,[10],1,0.4500219236363068,0.5216748430543096,0.6237144212419624
120,10100.37564086914,8787.0,[0],1,0.316633782074758,0.15720443751218274,0.27480588978128423
120,9164.437225341797,8308.0,[1],1,0.4484065631079224,0.46585430964795604,0.7978981650272452
120,7803.652984619141,7109.0,[2],1,0.48523931276537335,0.1409314527463157,0.11458465572559254
120,26759.305267333984,22866.0,[3],1,0.27897462579579196,0.6123044880374771,0.5518392382221592
120,9303.735870361328,8621.0,[4],1,0.5783802760765054,0.21297529343504945,0.300315127517965
120,7297.549255371094,6709.0,[6],1,0.6152637529818819,0.15379042696621165,0.6434647562347495
120,6481.807434082031,5076.0,[7],1,0.23063943398317902,0.4783673466322189,0.45312281586896014
120,7191.328186035156,6204.0,[8],1,0.2212369091519295,0.1348366393017833,0.07063344589044722
120,5817.86376953125,4821.0,[9],1,0.15535253269472887,0.14793401002125448,0.20181472443840254
120,7586.985412597656,6733.0,[10],1,0.5131504484849548,0.5769230518379385,0.6321387143418471
144,10454.546955108643,9192.0,[0],1,0.34369732752004206,0.16192931883492648,0.2770568968315484
144,9749.554653167725,8604.0,[1],1,0.46222751576269683,0.4646978506864838,0.7490417276086225
144,7928.456623077393,6953.0,[2],1,0.4992551953074883,0.14401239770545599,0.13337336853723938
144,20240.913158416748,16896.0,[3],1,0.3169121824643085,0.6230110397625629,0.5404648669032595
144,8996.966983795166,7834.0,[4],1,0.5655260485885414,0.2285416971197966,0.3363520801699938
144,6663.713645935059,5995.0,[5],1,0.40268086655161545,0.18347012338346577,0.6480665115849941
144,8793.193656921387,7881.0,[6],1,0.6118875030741767,0.15602750768577803,0.6357274651489767
144,10361.225929260254,9551.0,[7],1,0.2658160511976447,0.5024691598490258,0.44964952072976444
144,6843.9160232543945,5945.0,[8],1,0.2514913620030152,0.13727997308163692,0.0780797192777977
144,5589.232971191406,4862.0,[9],1,0.1720235560193101,0.1555038005690352,0.20283732675144123
144,7235.373176574707,6287.0,[10],1,0.5681530991702345,0.5961844329002733,0.6547565020585138
