time_in_hour,cumulative_size,size,pcore_ids,pcore_power,SCA-1,CD11b,Ly6C
-1,0,0,[],0,0.0,0.0,0.0
0,11771,11771,"[0,8]",2,221.16846487129325,128.95149095234038,227.45782006626493
0,7476,7476,[1],1,264.31474050294145,439.38884430176535,767.5480203317302
0,11925,11925,"[3,10]",2,239.66893081760958,137.5738364779879,NA
0,14692,14692,[4],1,186.13469915600416,485.4399673291605,578.0345766403477
0,5686,5686,[5],1,229.6683081252192,205.70436158987,349.5181146676044
0,9219,9219,[7],1,164.30241891745516,340.5578696170952,520.5539646382449
0,7373,7373,[9],1,117.74922012749575,122.34300827342989,109.44242506442454
0,15410,15410,"[8,11]",2,156.20188189487564,136.31005840363406,222.34399740428384
0,6537,6537,[12],1,370.054000305944,360.4001835704447,580.6926724797287
24,5753.0625,5435.0,[0],1,233.0408152179805,101.31350693652334,258.19927429955834
24,8753.25,8286.0,[1],1,218.81987404678213,421.5894025076405,767.5818481706762
24,10347.3125,9602.0,"[3,10]",2,220.71540315420097,141.83117596960554,NA
24,18637.25,17719.0,[4],1,176.93544849696428,524.1636641671882,574.0283169458986
24,13804.1875,13228.0,[7],1,157.34935504172438,377.65309892378644,511.52381750102916
24,4865.625,4448.0,[8],1,195.86435452793833,196.25496467565796,194.82991650610163
24,8180.8125,7720.0,[9],1,120.75968157197538,117.73136072975622,103.45505871207794
24,8895.5,8350.0,[11],1,114.685227081113,121.75016159856074,235.08310381653675
24,7820.5625,7412.0,[12],1,360.59275627551773,354.2637757833903,577.7171718786187
48,7694.56640625,7335.0,[0],1,231.63301924196588,115.61625264175345,247.03624412316202
48,6478.078125,5931.0,[1],1,294.9137891735798,409.32253188035537,735.1943194234392
48,11321.70703125,10675.0,"[3,10]",2,246.2443336000348,149.85772146081408,NA
48,14300.828125,13136.0,[4],1,210.57587437572002,534.2735057956638,545.5202495921867
48,16482.76171875,15620.0,[7],1,171.73620830664504,412.13249045463476,466.1618179693878
48,9982.30078125,9471.0,[9],1,116.81210024461716,125.71852564049848,97.2017046577363
48,10428.96875,9873.0,[11],1,110.38861367225783,129.33064787985438,223.7819400288267
48,5775.78515625,5287.0,[12],1,370.56873287654514,363.6558178981346,563.445226940872
72,8040.910400390625,7560.0,[0],1,233.74762737513265,115.45285448081951,252.54407746834588
72,5868.8798828125,5464.0,[1],1,286.5616086854416,407.3824147844834,772.7417293330682
72,11715.606689453125,11008.0,"[3,10]",2,240.29350014196433,148.10537534807494,NA
72,21754.8017578125,20861.0,[4],1,205.22522505021684,544.5770883376734,575.3793161324799
72,4587.796630859375,4417.0,[6],1,471.68453956724755,193.1527753202688,235.21261546705787
72,12948.172607421875,11918.0,[7],1,165.0078356443419,416.6796169524639,499.5403082432293
72,6924.893798828125,6301.0,[9],1,119.95986784826971,125.12220890543436,98.14050013106254
72,9900.810546875,9249.0,[11],1,115.26798308515674,129.18286581354272,225.4152241520639
96,7135.556900024414,6633.0,[0],1,259.0855218315715,113.89281033468748,257.34484279506455
96,6276.804992675781,5910.0,[1],1,379.58343959309633,412.9489297016227,778.719671882717
96,11063.22541809082,10331.0,"[3,10]",2,295.70996567206186,140.1881876012055,NA
96,26030.67510986328,24671.0,[4],1,241.67262677075752,544.7258610300782,558.8080552457042
96,4728.482513427734,4482.0,[5],1,296.266708464853,202.85114507817286,409.907107633802
96,4737.737289428711,4451.0,[6],1,481.1331669713173,182.4489308788157,225.75359553704428
96,13622.260787963867,12813.0,[7],1,183.68231309333066,425.2678439589131,488.4579356568865
96,4533.805862426758,4101.0,[9],1,128.51903053228526,125.28935794132406,94.8937375911226
96,6366.8006591796875,5748.0,[11],1,121.36345164212852,131.7249412090431,230.11056380131689
96,5379.124160766602,5113.0,[12],1,414.45291871160816,445.83661206240583,590.778601235691
120,7181.972306251526,6736.0,[0],1,287.99358720545183,114.23868044941659,259.4529181658471
120,9183.300312042236,8791.0,[1],1,428.76575610133426,446.73372911477014,758.9314008531101
120,6525.773239135742,6336.0,[2],1,570.3984263363766,136.27830040869935,599.6846891235198
120,10788.451588630676,10097.0,"[3,10]",2,327.0063453086876,150.22705823068196,NA
120,20944.917194366455,19318.0,[4],1,267.8931742642637,549.7691283603189,546.041998032144
120,5444.530157089233,5149.0,[5],1,379.8802995332563,178.393286977392,419.29126041088426
120,10055.108580589294,9759.0,[6],1,518.6330527761182,154.09437715507633,217.5117811218333
120,9426.391299247742,8575.0,[7],1,191.6273646880674,473.47613742203043,483.64455619730165
120,5115.9250411987305,4718.0,[11],1,146.2393507469027,123.6401330284731,229.58853894889867
120,5404.195260047913,5068.0,[12],1,451.75386700631816,484.2854541321673,564.5562047005177
144,7715.87326914072,7267.0,[0],1,311.88298965522375,119.84627762796758,266.1810799536275
144,10320.95626950264,9747.0,[1],1,458.2967576211131,461.6537944941146,725.4573355539336
144,7511.860827445984,7104.0,[2],1,555.1442272336858,136.83488072782927,618.4495426936925
144,11273.278224289417,10599.0,"[3,10]",2,356.70398422190397,161.19072002931466,NA
144,15096.057324647903,13787.0,[4],1,299.12197767168055,564.864594838456,536.8545642614215
144,7167.283134818077,6827.0,[5],1,423.70934732967885,170.57945164520098,430.40196493824465
144,7816.444286286831,7188.0,[6],1,514.5567257164346,158.9845312467993,231.63525123853842
144,11987.149456202984,11398.0,[7],1,228.34020445813272,470.98121446761326,470.09207217010095
144,5101.745315074921,4782.0,[11],1,166.2053463890865,129.66824340218537,231.17929000469684
144,5412.7622037529945,5075.0,[12],1,460.3507946361068,464.8205902133903,535.1372624191229
