time_in_hour,cumulative_size,size,pcore_ids,pcore_power,SCA-1,CD11b,Ly6C
-1,0,0,[],0,0.0,0.0,0.0
0,5094,5094,[0],1,0.29359524093116757,0.5015542639997018,0.8047075777170931
0,43428,43428,"[1,3,6]",3,0.22879191491431758,0.16063450004313662,0.20322429588292168
0,26509,26509,"[2,8]",2,0.22055867394622533,0.4759125603888667,0.5767718422478026
0,5973,5973,[4],1,0.2658560902337664,0.19129559639796898,0.751762478294121
0,6346,6346,[5],1,0.37921383725747326,0.3862098974235381,0.6540036794304933
24,9207.0,6660.0,[0],1,0.2631054412678187,0.4817101954198725,0.7996746689540666
24,66006.5,41306.0,"[1,3,4,6]",4,0.2211660887670528,0.16421395390478633,0.25552993979451577
24,47851.5,34597.0,"[2,8]",2,0.20756613948560987,0.4981120654997763,0.5706401278993986
24,9426.0,6253.0,[5],1,0.3759458657263969,0.3879611054626024,0.6392074331671337
48,18902.5,9586.0,"[0,5]",2,0.3343714715816939,0.4257466123193495,0.7052873009986488
48,72656.5,43377.0,"[1,3,6]",3,0.2140560357235882,0.16612360296495787,0.18117756084987072
48,56602.75,32677.0,"[2,8]",2,0.22472333425258012,0.5009332225695879,0.5389244429334137
48,7193.75,3470.0,[4],1,0.2770841964486176,0.2033558856945168,0.7273245884763702
72,16638.25,7187.0,"[0,5]",2,0.344656172481942,0.4269041725191216,0.7165579172176764
72,68293.0,34133.0,"[1,6]",2,0.20609973968740733,0.16346654707395006,0.17673546076210336
72,64714.375,36413.0,"[2,8]",2,0.22951692761418133,0.5225866814770759,0.5551085723248379
72,6726.25,4558.0,[3],1,0.44327258414437365,0.20913188771284255,0.3014855742944444
72,8488.875,4892.0,[4],1,0.2814729754525062,0.20423336878697507,0.7392153571625691
72,3892.125,2817.0,[7],1,0.513114965287513,0.160229489381113,0.6404742086359786
96,17430.125,9111.0,"[0,5]",2,0.39320813788667164,0.44278275496981856,0.7215759715985928
96,58880.5,24734.0,"[1,6]",2,0.2152686981506749,0.16506979216590276,0.1823733823758289
96,73804.1875,41447.0,"[2,8]",2,0.25076560154149874,0.5393346679280706,0.549015456411748
96,18992.5625,11385.0,"[3,4]",2,0.4018935857098682,0.19663800730760625,0.4837150420408742
96,5269.0625,3323.0,[7],1,0.5437770694821996,0.15642961440642789,0.6437148285291935
120,22166.0625,13451.0,"[0,5]",2,0.4516839074107109,0.47650237473088536,0.7196030264644229
120,49784.25,20344.0,"[1,6]",2,0.23058637839694007,0.16255189147392696,0.18638283743350273
120,66910.09375,30008.0,"[2,8]",2,0.2678665464784166,0.5597979588598535,0.5436295514457318
120,27987.28125,18491.0,"[3,4]",2,0.4694616084952428,0.18339198882524033,0.3832601045510005
120,10340.53125,7706.0,[7],1,0.5932932454999046,0.1554774457368633,0.6218624353013097
144,25618.03125,14535.0,"[0,5]",2,0.4867880978813152,0.4924682475038158,0.6985079906827727
144,45596.125,20704.0,"[1,6]",2,0.2537673169083668,0.16473989158811692,0.19627973159521242
144,60836.046875,27381.0,"[2,8]",2,0.28862033867892367,0.5672153083982325,0.5302521190834991
144,22339.53125,12683.0,[3],1,0.5256152151616296,0.17746939245846266,0.2247278821018681
144,9277.109375,4940.0,[4],1,0.3852662392511719,0.19674878950026004,0.704630386817606
144,14927.265625,9757.0,[7],1,0.590613558570321,0.15841770601030603,0.6109430750427582
