time_in_hour,cumulative_size,size,pcore_ids,pcore_power,SCA-1,CD11b,Ly6C
-1,0,0,[],0,0.0,0.0,0.0
0,39493,39493,"[1,8]",2,192.48000911554223,141.17947484364365,213.43263363127534
0,14220,14220,[2],1,212.91434599156136,472.4125175808735,597.15400843882
0,5189,5189,[3],1,312.6862593948709,137.78878396608232,693.616496434765
0,11538,11538,[4],1,199.1980412549849,359.7748309932397,524.3740682960636
0,4199,4199,[7],1,354.49940462014314,317.7358894975002,612.7277923315071
0,4123,4123,[9],1,282.8011156924552,328.6090225563915,759.1317002182877
24,37113.3125,34645.0,"[1,8]",2,182.62909872300173,140.68620424275002,203.76568212551706
24,20331.75,19443.0,[2],1,187.43510150380735,494.39475819838003,576.4218340772418
24,14095.125,13374.0,[4],1,189.37020335045239,373.2843536329045,516.9552770904822
24,5124.4375,4862.0,[7],1,325.5990413581938,326.02930809479085,600.8709736434482
24,4661.6875,4404.0,[9],1,224.64403984608606,320.92744043868214,753.1630444983706
24,4848.625,4658.0,[10],1,205.55474490190628,456.28919281239484,730.9444816829524
48,43502.58203125,41183.0,[18],2,184.56707167435835,150.1480115988084,195.1613632667812
48,31949.6796875,29798.0,[24],2,207.37663364191724,441.8538042854987,499.8065246154887
48,8466.39453125,7872.0,[910],2,287.05789433130803,381.9753972161075,698.5685442030239
72,38513.272705078125,36384.0,"[0,2,4]",3,210.58279589400763,470.0455661576442,549.4042524529189
72,10888.256103515625,10180.0,[1],1,221.29551590277188,167.97564566198562,300.5108858977284
72,4101.821533203125,3900.0,[3],1,394.0631597611603,145.58769175351435,667.8619046737591
72,3867.843505859375,3734.0,[5],1,416.10188543142704,184.54512198593565,275.2494554111932
72,26283.6552734375,24273.0,[8],1,177.4238480440831,139.1417688976363,173.3449140151882
72,5335.522216796875,5028.0,[9],1,266.92596037969383,284.3544640347421,751.865334870729
96,45490.07954406738,43083.0,"[0,2,4]",3,245.4490221216835,478.42703915245,534.3772967896043
96,9061.516006469727,8381.0,[1],1,254.1673092104473,174.6020328651898,310.95287653412777
96,3710.3638458251953,3454.0,[3],1,434.564537100213,126.1200895672997,668.5914776669518
96,10497.210357666016,9922.0,"[5,9]",2,392.2662552858206,217.42259352532326,485.0722551572274
96,18521.728454589844,16879.0,[8],1,191.27621984043034,140.6804526574514,174.4888783265956
96,4240.414215087891,4054.0,[10],1,375.3855888683524,452.06374652983607,699.4949918349355
120,35483.12997150421,32640.0,"[0,2,4]",3,268.0997273608678,505.4675071955592,532.0094400847347
120,8243.344750404358,7677.0,[1],1,308.22565332731915,162.86325337263997,311.55139169961967
120,5604.897740364075,5373.0,[3],1,553.4100135062289,126.60961834766225,629.876229047547
120,11066.483763694763,10733.0,[5],1,491.8452499263155,150.70335092438634,214.64003198301154
120,4422.53181552887,4271.0,[6],1,401.1498395006978,150.98263648681998,476.44527273383227
120,15619.608028411865,14462.0,[8],1,210.5322285776937,135.4507627584812,175.12063820320867
120,6164.591883659363,5842.0,[9],1,374.804838408917,262.0949631621565,725.2823462147513
120,6964.025888442993,6699.0,[10],1,452.9557973690672,477.15454383525594,720.3661160992772
144,32823.69562321901,30606.0,"[0,2,4]",3,295.43226037883085,500.1934963951182,516.4655498083298
144,8188.209046900272,7673.0,[1],1,335.80354743407975,171.11747068494964,319.68481515123904
144,7229.306108772755,6879.0,[3],1,522.2472048604667,128.84862097708336,621.3038185442977
144,9768.655235230923,9077.0,[5],1,468.4618539438942,152.30200327553322,220.9495421669638
144,6102.408238470554,5826.0,[6],1,424.6876018816903,154.46817186835978,459.16551123204704
144,15183.225501775742,14207.0,[8],1,230.52604534351877,142.76594183405237,185.58759023711062
144,5760.28699272871,5375.0,[9],1,403.0032586885124,263.5316230046005,676.5636606252064
144,8329.251618027687,7894.0,[10],1,469.0703226258214,467.8826461213768,692.02261883036
