time_in_hour,cumulative_size,size,pcore_ids,pcore_power,SCA-1,CD11b,Ly6C
-1,0,0,[],0,0.0,0.0,0.0
0,5718,5718,[0],1,NA,NA,NA
0,43432,43432,"[1,3,6]",3,NA,141.4547108123047,NA
0,27289,27289,"[2,7]",2,NA,NA,NA
0,7668,7668,[4],1,NA,NA,NA
0,5914,5914,[5],1,NA,NA,NA
24,13110.0,7392.0,[0],1,NA,404.66376811594284,NA
24,92641.0,41541.0,"[1,3,4,6]",4,NA,141.93039798793168,NA
24,61999.0,34710.0,"[2,7]",2,NA,NA,NA
24,12271.0,6357.0,[5],1,NA,NA,607.3747045880526
48,16632.0,3522.0,[0],1,NA,NA,NA
48,124258.0,44047.0,"[1,3,6]",3,NA,144.8392216195334,NA
48,96555.0,34556.0,"[2,7]",2,198.119289524107,NA,NA
48,15238.0,2808.0,[4],1,NA,NA,NA
48,17338.0,5067.0,[5],1,NA,NA,NA
72,20039.0,3407.0,[0],1,NA,NA,NA
72,163856.0,39598.0,"[1,3,6]",3,NA,146.23325358851622,NA
72,135240.0,38685.0,"[2,7]",2,NA,NA,NA
72,19998.0,4760.0,[4],1,NA,NA,NA
72,20888.0,3550.0,[5],1,NA,NA,NA
96,25036.0,4997.0,[0],1,NA,NA,NA
96,175955.0,24275.0,"[1,6]",2,NA,144.2646074280357,NA
96,176112.0,40872.0,"[2,7]",2,NA,NA,NA
96,20174.0,7998.0,[3],1,NA,NA,NA
96,26239.0,6241.0,[4],1,NA,NA,NA
96,26505.0,5617.0,[5],1,NA,NA,NA
120,31405.0,6369.0,[0],1,NA,NA,NA
120,195182.0,19227.0,"[1,6]",2,NA,143.58373722986846,NA
120,206136.0,30024.0,"[2,7]",2,NA,NA,NA
120,37851.0,17677.0,[3],1,NA,NA,NA
120,33290.0,7051.0,[4],1,NA,NA,NA
120,36157.0,9652.0,[5],1,NA,NA,NA
144,36007.0,4602.0,[0],1,NA,NA,NA
144,213640.0,18458.0,"[1,6]",2,NA,143.84609155588916,NA
144,233326.0,27190.0,"[2,7]",2,NA,NA,NA
144,55258.0,17407.0,[3],1,NA,NA,NA
144,42481.0,9191.0,[4],1,NA,NA,NA
144,49309.0,13152.0,[5],1,NA,NA,NA
