time_in_hour,cumulative_size,size,pcore_ids,pcore_power,SCA-1,CD11b,Ly6C
-1,0,0,[],0,0.0,0.0,0.0
0,39738,39738,"[1,8]",2,0.21705163200989305,0.15997914165840557,0.19017958496750492
0,13032,13032,[2],1,0.23718530359150536,0.5447076496698726,0.6252094382031708
0,5804,5804,[3],1,0.33869396541710595,0.16434445272569084,0.7338560765250584
0,11274,11274,[4],1,0.22032956409597193,0.4114738231641776,0.5384233506505097
0,4957,4957,[7],1,0.39776867578024433,0.3594352608907192,0.6554634893491581
0,5135,5135,[9],1,0.2816914105663926,0.4363264263086707,0.805286442012218
24,64322.0,35968.0,"[0,2,4]",3,0.22018939821383443,0.49367597780454525,0.5821472305713493
24,21025.0,8658.0,[1],1,0.23209277345054988,0.17914027149321193,0.2884339091494132
24,8953.0,3149.0,[3],1,0.32417016705215584,0.16483251146131128,0.7365090448834863
24,5595.0,2157.0,[5],1,0.3907742667510074,0.20441833569889115,0.3777452028238715
24,5000.0,2427.0,[6],1,0.22839842696629353,0.2241882352941176,0.5352191536748317
24,10242.0,5285.0,[7],1,0.38986131132217683,0.36770327751667614,0.6444024539332981
24,52935.0,25564.0,[8],1,0.20001496429265272,0.15098195216792326,0.14087969382124393
24,11927.0,6792.0,[9],1,0.26004128108917196,0.43439938358043173,0.802767783899936
48,96097.0,31775.0,"[0,2,4]",3,0.2214560007426974,0.5029284371744099,0.5586622490503667
48,32741.0,11716.0,[1],1,0.24313126276403915,0.1831035809502265,0.28108630678969565
48,9582.0,629.0,[3],1,0.3242288326192097,0.1649750285933935,0.7356912018126018
48,6821.0,1226.0,[5],1,0.3962488613320682,0.20793334531832433,0.3751646053113209
48,7743.0,2743.0,[6],1,0.24971928251251177,0.20441014303972152,0.5556204655861284
48,16560.0,6318.0,[7],1,0.40005448352602213,0.35816870505169707,0.6395243590157408
48,82420.0,29485.0,[8],1,0.19325052008212448,0.14928864243511503,0.1313392104863475
48,18035.0,6108.0,[9],1,0.28483005890543384,0.4299892617045551,0.7930310587616336
72,63973.0,14758.0,"[0,4]",2,0.22638787044464273,0.42963198982488954,0.5242497034784028
72,39450.0,6709.0,[1],1,0.25063895415901494,0.18214393040047167,0.27826893166338124
72,71312.0,24430.0,[2],1,0.22778830106914172,0.5842031117861199,0.5967475557079807
72,11860.0,2278.0,[3],1,0.32967334255451847,0.16616731398747023,0.7368335855958658
72,8808.0,1987.0,[5],1,0.4139814162814158,0.20969110763148308,0.3628160469627739
72,9833.0,2090.0,[6],1,0.26080625090700094,0.19420970478483937,0.5719906627766089
72,19570.0,3010.0,[7],1,0.41379559403580957,0.3553986501640465,0.6393870214056535
72,111117.0,28697.0,[8],1,0.19783319798657603,0.14901478434312607,0.13568706136970915
72,24076.0,6041.0,[9],1,0.2953218833245262,0.41707683399250967,0.7978753065182183
96,182011.0,46726.0,"[0,2,4]",3,0.24543889463650614,0.5124422642547641,0.5612407062354645
96,179923.0,29356.0,"[1,8]",2,0.21864112656931523,0.16470336870852967,0.1825788393740867
96,15717.0,3857.0,[3],1,0.3477342575455009,0.17300876331562431,0.7323870015486876
96,12475.0,3667.0,[5],1,0.4340702978991671,0.2078003971744395,0.34864990560185133
96,10535.0,702.0,[6],1,0.2632823706958611,0.2002176541457373,0.5711638900134542
96,22297.0,2727.0,[7],1,0.4254105328826893,0.35497592456587174,0.6414423205334967
96,27041.0,2965.0,[9],1,0.3067418638945671,0.4160349936187096,0.7878970224954882
120,213986.0,31975.0,"[0,2,4]",3,0.2528864799198735,0.5234861539764062,0.558125552913273
120,199472.0,19549.0,"[1,8]",2,0.22202597441515573,0.16325128316130214,0.1813123896530059
120,21744.0,6027.0,[3],1,0.3889232519780709,0.16316338579072254,0.7268309226127551
120,29206.0,16731.0,[5],1,0.49933552209912563,0.18887390026781248,0.3024590929007956
120,11797.0,1262.0,[6],1,0.26887477581902813,0.19627823547439216,0.5680456867502256
120,31270.0,8973.0,[7],1,0.4679851816185906,0.3722227005485718,0.6523056602349124
120,32524.0,5483.0,[9],1,0.326471169432008,0.4254886471584405,0.7903965178772063
144,242647.0,28661.0,"[0,2,4]",3,0.2606039948076375,0.5297019932144673,0.5532488362873647
144,218700.0,19228.0,"[1,8]",2,0.22659125681375883,0.1635847366275838,0.18177031110133518
144,30047.0,8303.0,[3],1,0.42541867927512445,0.15778884574046556,0.7096311546950642
144,45438.0,16232.0,[5],1,0.5095926490276165,0.18701035910102853,0.29424173873677784
144,13506.0,1709.0,[6],1,0.27876857060615473,0.1945827830500002,0.5623478569452076
144,43556.0,12286.0,[7],1,0.4965087692868036,0.3906097481413646,0.6598741583678676
144,36105.0,3581.0,[9],1,0.3361239767282958,0.4325592587231468,0.7869931766078051
