time_in_hour,cumulative_size,size,pcore_ids,pcore_power,SCA-1,CD11b,Ly6C
-1,0,0,[],0,0.0,0.0,0.0
0,5536,5536,[0],1,252.08941473988386,448.26427023121414,760.3047326589605
0,39608,39608,"[1,6]",2,187.40734195112336,139.863790143406,213.1463340739234
0,26803,26803,"[2,7]",2,196.17912174010448,417.57299556019984,562.7814796851111
0,7605,7605,[4],1,283.5450361604196,148.1129520052602,697.5008547008531
0,6453,6453,[5],1,364.49806291646775,328.0917402758398,641.9110491244369
24,8588.0,7204.0,[0],1,221.46678504890508,417.96433977643164,757.1300360968771
24,51105.25,39302.0,"[1,4,6]",3,188.2450922361234,141.15168206788928,268.6929718570979
24,41520.75,34820.0,"[2,7]",2,184.3325385500047,442.18645496528865,554.4258232329607
24,7855.25,6242.0,[5],1,346.9177301804459,333.1462397759456,619.8157919862498
48,14019.8125,9909.0,"[0,5]",2,303.1229242545111,365.47872430533545,675.4821569475334
48,51839.5,40749.0,"[1,6]",2,178.16872028086954,146.88668992756476,193.35926272437007
48,43186.1875,32806.0,"[2,7]",2,205.07638727081564,444.1322891144294,516.0434224484382
48,5508.8125,3823.0,[4],1,276.3618747234522,162.58448395185005,674.1303820015646
72,7066.5,5195.0,[0],1,282.6222736680085,378.0363842602396,752.4966103268924
72,47201.875,34242.0,"[1,6]",2,183.53498338254855,145.70792242098426,204.80084477576327
72,47198.546875,36402.0,"[2,7]",2,205.21434386056166,471.23614074453394,544.6539078434234
72,5625.859375,4733.0,[3],1,418.47955451250255,176.80682395745094,294.6133590701436
72,7451.203125,6074.0,[4],1,304.00921830996214,152.45589743267135,685.124453475424
72,4987.453125,3354.0,[5],1,402.81287731400613,319.9995363364943,609.8034254707898
96,7890.625,6124.0,[0],1,360.742472772272,388.8052628712879,754.2719777227692
96,37310.46875,25510.0,"[1,6]",2,199.7559421157788,148.47456949080131,214.32024942731366
96,54344.63671875,42545.0,"[2,7]",2,233.22411322069397,483.3233572885184,535.6112030086822
96,15608.265625,12339.0,"[3,4]",2,392.4647707694915,153.4220780455871,479.348755266891
96,4728.86328125,3482.0,[5],1,451.71185100806184,329.44506517075513,597.7181685939639
120,12082.65625,10110.0,[0],1,417.68405796983797,429.31620535310134,737.56425298077
120,11692.4033203125,8445.0,[1],1,275.6497304230883,158.4632687940661,312.80692600472213
120,45421.1591796875,31835.0,"[2,7]",2,254.38624058553356,504.7427120185742,530.9530293380219
120,14987.8662109375,13106.0,[3],1,485.9903566524367,148.99049765190853,235.45833898840718
120,10083.2001953125,8063.0,[4],1,421.07278146847943,128.84327059328788,659.7463566070461
120,6247.2158203125,5065.0,[5],1,528.0203199894219,291.9483207284994,568.5764630462735
120,19456.2138671875,13376.0,[6],1,194.8587819614814,135.1088918963326,164.95005265981146
144,14100.6640625,11080.0,[0],1,448.8656842922084,444.19610347404284,704.1488109180091
144,12600.100830078125,9677.0,[1],1,317.8027707724027,161.2984800643246,324.12932564074373
144,40972.289794921875,29617.0,"[2,7]",2,278.6047970183065,505.84521564656666,516.0045636074029
144,14370.966552734375,10624.0,[3],1,478.6132920210153,149.38810159351954,230.96216309267024
144,12724.800048828125,10204.0,[4],1,443.6841652852456,129.01853989870145,630.8071338762193
144,7158.803955078125,5597.0,[5],1,540.8213786012059,264.1572606064676,549.6096824887936
144,18065.053466796875,13201.0,[6],1,213.2298994307139,139.0590334338418,172.70310775567546
