time_in_hour,cumulative_size,size,pcore_ids,pcore_power,SCA-1,CD11b,Ly6C
-1,0,0,[],0,0.0,0.0,0.0
0,7182,7182,[0],1,NA,NA,NA
0,40444,40444,"[1,6]",2,NA,141.4060923746419,NA
0,22923,22923,[2],1,192.34951795140512,NA,NA
0,8290,8290,[4],1,NA,NA,NA
0,6992,6992,[5],1,NA,NA,NA
24,17139.0,9957.0,[0],1,NA,NA,NA
24,75390.0,34946.0,"[1,6]",2,NA,NA,NA
24,52099.0,29176.0,[2],1,182.73872819056166,NA,NA
24,7235.0,3049.0,[3],1,NA,NA,NA
24,14120.0,5830.0,[4],1,NA,NA,NA
24,14034.0,7042.0,[5],1,NA,NA,NA
48,22222.0,5083.0,[0],1,232.55778057780444,NA,NA
48,118589.0,43199.0,"[1,6]",2,NA,145.34391891322005,NA
48,80888.0,28789.0,[2],1,192.35878004153946,NA,NA
48,9401.0,2166.0,[3],1,NA,NA,NA
48,18135.0,4015.0,[4],1,NA,NA,NA
48,20782.0,6748.0,[5],1,333.2903474160262,NA,NA
72,142471.0,39361.0,"[0,2]",2,NA,NA,NA
72,155040.0,36451.0,"[1,6]",2,NA,145.98934468524095,NA
72,13598.0,4197.0,[3],1,NA,NA,NA
72,23669.0,5534.0,[4],1,NA,NA,NA
72,25239.0,4457.0,[5],1,NA,NA,NA
96,184526.0,42055.0,"[0,2]",2,NA,NA,NA
96,180946.0,25906.0,"[1,6]",2,NA,146.11644357985142,NA
96,21594.0,7996.0,[3],1,NA,NA,NA
96,29775.0,6106.0,[4],1,NA,NA,NA
96,33176.0,7937.0,[5],1,NA,NA,NA
120,216809.0,32283.0,"[0,2]",2,NA,NA,NA
120,201544.0,20598.0,"[1,6]",2,NA,145.32724864049493,NA
120,39859.0,18265.0,[3],1,NA,NA,NA
120,36349.0,6574.0,[4],1,NA,NA,NA
120,45456.0,12280.0,[5],1,NA,NA,NA
144,246409.0,29600.0,"[0,2]",2,NA,NA,NA
144,220746.0,19202.0,"[1,6]",2,NA,145.00920061971595,NA
144,58210.0,18351.0,[3],1,NA,NA,NA
144,44882.0,8533.0,[4],1,NA,NA,NA
144,59770.0,14314.0,[5],1,NA,NA,NA
