time_in_hour,cumulative_size,size,pcore_ids,pcore_power,SCA-1,CD11b,Ly6C
-1,0,0,[],0,0.0,0.0,0.0
0,21498,21498,"[0,8]",2,NA,NA,NA
0,43592,43592,"[1,3,7]",3,NA,144.5580152321531,NA
0,11868,11868,"[2,6]",2,NA,NA,NA
0,7371,7371,"[4,5]",2,NA,NA,NA
0,5697,5697,[9],1,NA,333.3952957697033,NA
24,28886.625,27543.0,"[0,8]",2,191.90870125880232,NA,NA
24,39716.5,36992.0,"[1,3,7]",3,NA,144.17353776138384,NA
24,15343.75,14602.0,"[2,6]",2,NA,NA,NA
24,4539.6875,4079.0,"[4,5]",2,NA,NA,NA
24,7140.0625,6784.0,[9],1,NA,358.6647263241742,NA
48,35412.8046875,32953.0,"[0,2,8]",3,212.62314346483626,NA,NA
48,45966.28125,43484.0,"[1,3,7]",3,NA,154.25224918605406,NA
48,14597.578125,13563.0,"[4,5,6,9]",4,296.7730774582663,NA,NA
72,39536.30029296875,37323.0,"[0,2,8]",3,NA,NA,NA
72,37462.281005859375,34734.0,"[1,7]",2,NA,147.4952922211081,NA
72,3744.611572265625,3600.0,[3],1,NA,NA,NA
72,9537.340087890625,8969.0,"[4,9]",2,NA,NA,NA
72,3144.158935546875,3010.0,[5],1,NA,NA,NA
96,43961.76565551758,41672.0,"[0,6,8]",3,NA,NA,NA
96,27777.39256286621,25436.0,"[1,7]",2,NA,151.9381047271627,NA
96,5664.118713378906,5322.0,[2],1,NA,NA,457.50623332983844
96,5596.038223266602,5362.0,[3],1,NA,NA,NA
96,4850.656982421875,4561.0,[4],1,NA,NA,NA
96,8982.292373657227,8515.0,"[6,9]",2,370.5519439642887,NA,NA
120,33523.30625343323,30986.0,"[0,8]",2,NA,NA,NA
120,8541.846977233887,7970.0,[1],1,NA,166.50455091856745,NA
120,11608.752388954163,11259.0,[3],1,NA,151.9975793111726,NA
120,5078.166061401367,4775.0,[4],1,NA,NA,NA
120,6733.28187084198,6575.0,[5],1,NA,NA,NA
120,12126.393273353577,11565.0,"[6,9]",2,NA,NA,NA
120,16300.240057945251,15136.0,[7],1,212.19506277733936,136.08133198786027,NA
144,30574.206640839577,28479.0,"[0,8]",2,NA,NA,NA
144,19193.412460386753,17934.0,"[1,3]",2,NA,NA,NA
144,2867.5004637241364,2737.0,[2],1,NA,NA,NA
144,14204.21549576521,13466.0,"[4,5]",2,NA,NA,NA
144,12554.899579584599,11797.0,"[6,9]",2,NA,NA,NA
144,16605.76500362158,15587.0,[7],1,NA,143.8010171861795,NA
