time_in_hour,cumulative_size,size,pcore_ids,pcore_power,SCA-1,CD11b,Ly6C
-1,0,0,[],0,0.0,0.0,0.0
0,3889,3889,[0],1,0.3326388748443453,0.49785623448896993,0.8373572081841255
0,20586,20586,"[1,3,8]",3,0.20885007482995532,0.1296944107777855,0.1238669132502317
0,5270,5270,[2],1,0.2631341278809453,0.6221627156190143,0.6528194638729121
0,6579,6579,[4],1,0.1901518450773768,0.5293665433481965,0.5519366980921621
0,5913,5913,[5],1,0.30370750412820835,0.18059008718423164,0.30171770554254207
0,4739,4739,[6],1,0.2463661560420218,0.21661738209657225,0.7893999984021133
0,3335,3335,[7],1,0.27901655913616136,0.15640132422476544,0.5534300778341331
0,3134,3134,[9],1,0.4708040842373939,0.12706103255204193,0.7054814428432757
0,17902,17902,"[8,10]",2,0.13825214432133445,0.1453177581715636,0.14926621031754425
0,5059,5059,[11],1,0.2658652618206288,0.4454513661866885,0.6109960374045077
0,2847,2847,[12],1,0.4840948287769882,0.1492394153089621,0.2175032054215631
0,4869,4869,[13],1,0.42475879272904565,0.38811127560176173,0.6699271469288203
0,2712,2712,[14],1,0.21191665838056434,0.3767898497043478,0.3451487573171448
0,5925,5925,[17],1,0.1579504100886575,0.39596082249842485,0.5408002781615028
24,8085.0,4196.0,[0],1,0.31619353359321123,0.48557912675559717,0.8298124189947284
24,40239.0,19653.0,"[1,3,8]",3,0.20681626718559057,0.1299341075085413,0.12136136362516844
24,12510.0,7240.0,[2],1,0.2517158408104979,0.6334508863497409,0.6497479076872126
24,18503.0,11924.0,[4],1,0.178201530635484,0.5459731612557381,0.5476676448182082
24,9519.0,3606.0,[5],1,0.30207816183127156,0.18322892200832988,0.30563676304640613
24,8743.0,4004.0,[6],1,0.23757021668699385,0.22389184780274096,0.7885535918394245
24,5997.0,2662.0,[7],1,0.26868509160947446,0.15515600937723767,0.5569202567133593
24,4181.0,1047.0,[9],1,0.46884111913444493,0.12758563031858175,0.6969443377587344
24,34755.0,16853.0,"[8,10]",2,0.1363376702729757,0.1446231246391194,0.14497829060502693
24,9572.0,4513.0,[11],1,0.2648033590481593,0.449037468824038,0.6027011783626518
24,4419.0,1572.0,[12],1,0.48171277756165054,0.1480052201568914,0.21257668974478017
24,9545.0,4676.0,[13],1,0.4161794221340574,0.38789409062573355,0.6601205635945536
24,5165.0,2453.0,[14],1,0.20394117711041407,0.38820397471670137,0.329696410437737
24,5845.0,3347.0,[15],1,0.11319018463875123,0.5030077530782004,0.7614647891617339
24,4851.0,2585.0,[16],1,0.4240555057569443,0.4183102145287014,0.45679902520500865
24,13471.0,7546.0,[17],1,0.15797097218411243,0.39707964922805544,0.5305753727507383
48,12084.0,3999.0,[0],1,0.32612154989976394,0.47898945690872907,0.8160707268865537
48,38869.0,14041.0,"[1,3]",2,0.24893001297067907,0.1280482218436711,0.1536865506952962
48,17770.0,5260.0,[2],1,0.2607313803721711,0.635874370093478,0.6399800469498258
48,31505.0,13002.0,[4],1,0.186463821508627,0.5511563200842176,0.5289335414995812
48,13822.0,4303.0,[5],1,0.3038232487208933,0.189612058551814,0.30426196705874403
48,11107.0,2364.0,[6],1,0.2503759649497271,0.22819533725215851,0.7817160389433163
48,8377.0,2380.0,[7],1,0.270521076301751,0.15624782249609356,0.5605261835554066
48,54819.0,20064.0,"[8,10]",2,0.1337041143161484,0.14729080869094602,0.13934323894252368
48,5682.0,1501.0,[9],1,0.4622438688703499,0.1311404912870843,0.6921315622577145
48,13335.0,3763.0,[11],1,0.26943702261936275,0.45427472018486154,0.5926309601054862
48,6463.0,2044.0,[12],1,0.47865637935560346,0.15422141910478238,0.2044941791324055
48,13761.0,4216.0,[13],1,0.4134983331006204,0.38979166317295616,0.6601784779910429
48,9722.0,4557.0,[14],1,0.20588021145138388,0.40175079890643095,0.3333741487746877
48,6119.0,274.0,[15],1,0.11509536514558946,0.5016190945937253,0.7605377532684169
48,7471.0,2620.0,[16],1,0.4243584556915912,0.4137900333779298,0.45894682900086997
48,19083.0,5612.0,[17],1,0.16203974712477495,0.403359117339993,0.5164174972605352
72,15920.0,3836.0,[0],1,0.33082032352774915,0.47609441437959,0.8200850438159659
72,24812.0,6901.0,[1],1,0.2346457948038933,0.12290629151126002,0.2210842461816198
72,29358.0,11588.0,[2],1,0.260819591696767,0.6398594708049434,0.6319365831921071
72,26587.0,5629.0,[3],1,0.2602417418667483,0.13498099894702467,0.09411853993985149
72,43775.0,12270.0,[4],1,0.18450996220458615,0.5555938041868741,0.5325087668643541
72,18282.0,4460.0,[5],1,0.3051020282736475,0.1911983129067435,0.3048291441994242
72,15394.0,4287.0,[6],1,0.25474590275212944,0.2272239669095969,0.7860260252381935
72,10257.0,1880.0,[7],1,0.2715652670196182,0.15513155787659905,0.5630720331576474
72,70302.0,15483.0,"[8,10]",2,0.13327776248794343,0.1479873644036834,0.14004979408278573
72,8913.0,3231.0,[9],1,0.49215638815667534,0.13620287718432533,0.6846690740009161
72,17624.0,4289.0,[11],1,0.2699294118847118,0.4617835253449102,0.5883172571923031
72,10708.0,4245.0,[12],1,0.4944801324642297,0.16655697436010114,0.20091715870489565
72,16602.0,2841.0,[13],1,0.41846271398192614,0.39712478080108965,0.6620739471376095
72,11211.0,1489.0,[14],1,0.20617070513611002,0.39966796912050284,0.33508104015722623
72,7262.0,1143.0,[15],1,0.11545199112511562,0.4997898625585857,0.7608083142010881
72,9488.0,2017.0,[16],1,0.44149463781571,0.41481487928547955,0.45068533409450484
72,23494.0,4411.0,[17],1,0.16184863838054087,0.4053747524639967,0.5130433719228555
96,20872.0,4952.0,[0],1,0.35530887033216463,0.4769328217326371,0.8224126844629854
96,30177.0,5365.0,[1],1,0.23674440650350329,0.12307798768562653,0.2206696895148618
96,44935.0,15577.0,[2],1,0.2754985165838767,0.6391586741431984,0.6189959860357452
96,32145.0,5558.0,[3],1,0.26366373577591706,0.13620648517851494,0.0926366848990566
96,56131.0,12356.0,[4],1,0.18845279471637472,0.5598207119076931,0.530702259933677
96,23606.0,5324.0,[5],1,0.30970515970515744,0.19190151441672573,0.305329493256687
96,17669.0,2275.0,[6],1,0.2671047050601522,0.22702926540821397,0.7860289957081412
96,12297.0,2040.0,[7],1,0.27706264339616854,0.1538310672102278,0.5636754252082765
96,78696.0,8394.0,"[8,10]",2,0.13301071510566656,0.1485197118000794,0.14008563697399007
96,13388.0,4475.0,[9],1,0.5040213775207035,0.13899493975154367,0.6880603279338675
96,23760.0,6136.0,[11],1,0.27601960617409865,0.4712303559730059,0.5788670858548315
96,15838.0,5130.0,[12],1,0.5015303827659553,0.1688325917562381,0.19767581337883428
96,20603.0,4001.0,[13],1,0.4266265903241888,0.4083551180768608,0.6654942027924853
96,13715.0,2504.0,[14],1,0.20824423353418817,0.3974642157825029,0.33750376540568394
96,7342.0,80.0,[15],1,0.11547736740134873,0.5002369679929884,0.759984656723773
96,11974.0,2486.0,[16],1,0.4516582745761825,0.4178906295465204,0.44578649062575676
96,26841.0,3347.0,[17],1,0.1636853145594411,0.40621387621861105,0.5093922728492182
120,27137.0,6265.0,[0],1,0.3820820116653152,0.48836972179207555,0.8217909078516202
120,72858.0,10536.0,"[1,3]",2,0.2544951685300727,0.12959932039128086,0.15345917105984166
120,60020.0,15085.0,[2],1,0.2888107335008167,0.6386920423207371,0.6075623270342523
120,65436.0,9305.0,[4],1,0.19214537439790383,0.563734272221769,0.5271283449266126
120,28863.0,5257.0,[5],1,0.31660046862220326,0.18914459837807523,0.3070146989614638
120,20490.0,2821.0,[6],1,0.28281200475978785,0.22274280136652053,0.7832336051808687
120,15212.0,2915.0,[7],1,0.3082816788638174,0.14639795267608433,0.5673785992420721
120,83656.0,4960.0,"[8,10]",2,0.1332327519977536,0.14840342717883298,0.13973162285341598
120,15737.0,2349.0,[9],1,0.5131539997700969,0.13882628684108236,0.6825677021497463
120,27292.0,3532.0,[11],1,0.28073880974298615,0.47695170978119655,0.5745538557355577
120,28624.0,12786.0,[12],1,0.5273097612752102,0.1638788305987569,0.2026427664856122
120,28556.0,7953.0,[13],1,0.4631656937442765,0.3978807379514359,0.6745836961313256
120,15044.0,1329.0,[14],1,0.21078798072470897,0.400556256699806,0.3364765507443913
120,7463.0,121.0,[15],1,0.1160029930428354,0.5002047809919579,0.7597109362386757
120,16184.0,4210.0,[16],1,0.47499632040522305,0.4140300151202339,0.4445396591756061
120,27417.0,576.0,[17],1,0.1639913807270427,0.40634691426546665,0.5089868323369751
144,32402.0,5265.0,[0],1,0.3992410303428298,0.4992286172492026,0.8150417314556961
144,83174.0,10316.0,"[1,3]",2,0.25867470738884035,0.12996923420747905,0.1525096742209414
144,72623.0,12603.0,[2],1,0.30085273384310046,0.6410521939903739,0.5983345450604103
144,71910.0,6474.0,[4],1,0.19554122740816982,0.5652585150744511,0.5229794016834182
144,35651.0,6788.0,[5],1,0.32685746558632,0.18851178043148512,0.308979953457482
144,21705.0,1215.0,[6],1,0.2876948562051396,0.222017676349153,0.7792841241818741
144,16882.0,1670.0,[7],1,0.31398471079495527,0.14657858030803075,0.5657956221212148
144,87391.0,3735.0,"[8,10]",2,0.1335419441927007,0.14862721556539193,0.13966969327288437
144,25500.0,9763.0,[9],1,0.5335799515311734,0.14169740928045518,0.6633270885191535
144,33364.0,6072.0,[11],1,0.29001396243545446,0.48304818616646417,0.564540044094842
144,40181.0,11557.0,[12],1,0.5314762497451848,0.16557061761592143,0.2071982575061643
144,37556.0,9000.0,[13],1,0.4810172314960873,0.4059766977241618,0.6767491800218356
144,17308.0,2264.0,[14],1,0.21714216716047666,0.40607101625383046,0.33638737291044685
144,7489.0,26.0,[15],1,0.11629971148696375,0.5002022574285416,0.7595438417325387
144,18813.0,2629.0,[16],1,0.48266044816009473,0.4144600838016839,0.44338932101280193
144,28040.0,623.0,[17],1,0.1644124765583706,0.40688960018332,0.5082741327216364
