time_in_hour,cumulative_size,size,pcore_ids,pcore_power,SCA-1,CD11b,Ly6C
-1,0,0,[],0,0.0,0.0,0.0
0,6788,6788,[0],1,NA,NA,NA
0,30806,30806,"[2,8]",2,220.2720898526266,NA,NA
0,4985,4985,[5],1,NA,NA,NA
0,39699,39699,"[6,7]",2,197.8917101186453,142.78898712813978,NA
24,14853.0,8065.0,[0],1,260.63650440988073,NA,NA
24,30264.0,11539.0,"[1,3,6]",3,NA,NA,NA
24,69393.0,38587.0,"[2,8]",2,206.02219244016078,NA,NA
24,12306.0,4860.0,"[4,5]",2,NA,NA,NA
24,74049.0,34350.0,"[6,7]",2,190.69433753325634,141.7932315088653,NA
48,22546.0,7693.0,[0],1,279.6969307194136,373.0461722700238,728.097445223095
48,46592.0,16328.0,"[1,3,6]",3,NA,182.89809409340614,NA
48,100598.0,31205.0,"[2,8]",2,205.1866538102161,NA,550.0486888407288
48,17391.0,5085.0,"[4,5]",2,NA,167.96682191938356,671.5218216318779
48,112880.0,38831.0,"[6,7]",2,185.74204464918662,138.74705882352825,NA
72,30836.0,8290.0,[0],1,290.1267025554513,376.21701906861944,732.5100531845816
72,60356.0,13764.0,"[1,3,6]",3,NA,179.75717410033778,326.82528663264804
72,135712.0,35114.0,"[2,8]",2,204.2307312544222,452.73263970761155,548.8217033128766
72,25457.0,8066.0,"[4,5]",2,NA,162.69686137408195,671.9907294653729
72,148696.0,35816.0,"[6,7]",2,190.04711626405688,138.026160757518,198.0455358583943
96,37142.0,6306.0,[0],1,NA,367.73318615044894,730.4462602983041
96,64814.0,4458.0,"[1,3,6]",3,NA,179.83358533650124,328.73170919863156
96,182271.0,46559.0,"[2,8]",2,217.11786844862814,459.3597445561744,546.7048844851688
96,31891.0,6434.0,"[4,5]",2,NA,168.92022827757052,676.1181838136163
96,176129.0,27433.0,"[6,7]",2,197.5504942400195,137.74868420305532,197.5831464437995
120,45674.0,8532.0,[0],1,NA,NA,NA
120,68358.0,14411.0,"[1,6]",2,NA,NA,NA
120,217762.0,35491.0,"[2,8]",2,NA,NA,NA
120,20253.0,9386.0,[3],1,NA,NA,NA
120,13897.0,1287.0,[4],1,NA,NA,NA
120,26057.0,6776.0,[5],1,NA,NA,NA
120,202754.0,26625.0,"[6,7]",2,NA,145.59378359983157,NA
144,57014.0,11340.0,[0],1,NA,NA,NA
144,81928.0,13570.0,"[1,6]",2,NA,NA,NA
144,247022.0,29260.0,"[2,8]",2,NA,NA,NA
144,33336.0,13083.0,[3],1,NA,NA,NA
144,15047.0,1150.0,[4],1,NA,NA,NA
144,36511.0,10454.0,[5],1,NA,NA,NA
144,225805.0,23051.0,"[6,7]",2,NA,145.90218994265018,NA
