time_in_hour,cumulative_size,size,pcore_ids,pcore_power,SCA-1,CD11b,Ly6C
-1,0,0,[],0,0.0,0.0,0.0
0,7444,7444,[1],1,0.28743532231674335,0.5312000797508272,0.7905642008212186
0,22782,22782,"[3,8]",2,0.16976950066039034,0.13773570346677635,0.12432894996421043
0,20705,20705,[4],1,0.20087076616678026,0.4992797988550651,0.5756709078480249
0,4521,4521,[5],1,0.2623711071180923,0.3297490043947752,0.3448741310656675
0,11779,11779,[9],1,0.24609603264617777,0.1416716189829361,0.2501921523923033
0,4986,4986,[10],1,0.2787017131113165,0.21603135839173215,0.7921679589264206
0,6535,6535,[11],1,0.41904386922619835,0.3965367478284344,0.6209884074616191
24,12828.0,9106.0,[1],1,0.2577580906233902,0.5346208696474197,0.782028785167188
24,32342.0,20951.0,"[3,8]",2,0.1637753010486978,0.13779350485241,0.12110499782461358
24,36120.5,25768.0,[4],1,0.18939619864781965,0.522136562628075,0.565462181477482
24,7037.5,4777.0,[5],1,0.24184549065000985,0.3595548250725362,0.36029605952837807
24,5775.0,3707.0,[7],1,0.2159279147818484,0.20172543143131327,0.5686420038758535
24,13567.5,7678.0,[9],1,0.233026337310535,0.1433022169194256,0.25418079937686644
24,7259.0,4766.0,[10],1,0.2481030135391789,0.24566016971286708,0.7964458374536052
24,10391.5,7124.0,[11],1,0.40981841792691637,0.3961506021171577,0.6093137947785173
48,6652.0,4777.0,[0],1,0.3397103262007829,0.15154923127259987,0.1693074290164416
48,12012.0,5598.0,[1],1,0.2908268463745981,0.5320913532169205,0.7662936080252337
48,41011.0,24840.0,"[3,8]",2,0.15774803772844045,0.1430523316721896,0.11538338565148887
48,39663.25,21603.0,[4],1,0.20211976997074727,0.5377539838857718,0.541574490206005
48,12025.75,8507.0,[5],1,0.22324936168105758,0.3938447550754343,0.3815581884955724
48,5237.5,2350.0,[7],1,0.2304165080046128,0.1931332411797097,0.5677666094370377
48,15322.75,8539.0,[9],1,0.2308862730547369,0.1508117273940781,0.2503306817864258
48,7237.5,3608.0,[10],1,0.28235477673633164,0.26467262951414056,0.7806339553257859
48,11125.75,5930.0,[11],1,0.4103683453230074,0.4041182388131226,0.6039599092115946
72,7669.0,4343.0,[0],1,0.34867987783883597,0.1525951021300415,0.15771020183360543
72,12357.0,6351.0,[1],1,0.3032888946173419,0.5502036281485514,0.7599848052364923
72,5083.0,3450.0,[2],1,0.5051761268559877,0.1428586371215202,0.6627449538112781
72,39070.5,18565.0,"[3,8]",2,0.15536228517478787,0.1433263282159453,0.1183421421484407
72,45980.625,26149.0,[4],1,0.20552123734334343,0.5602020241532732,0.5554535579691814
72,10842.875,4830.0,[5],1,0.2137747993005841,0.393581030414751,0.40491278450046936
72,6482.125,4509.0,[6],1,0.5069328509927795,0.22030905648381946,0.27076889920813246
72,4764.75,2146.0,[7],1,0.23945934298638602,0.18021049306523446,0.5757627440098942
72,17562.375,9901.0,[9],1,0.23195031737200708,0.15271765351931296,0.2514544127801804
72,9255.75,5637.0,[10],1,0.27869908987641173,0.2673760612059285,0.7994373659376368
72,9681.875,4119.0,[11],1,0.4257742407878662,0.42177768670817684,0.6065399422237994
96,9615.5,5781.0,[0],1,0.36408625849298304,0.15027035116754991,0.14650625139046203
96,13146.5,6968.0,[1],1,0.35843040100816853,0.5649407120729444,0.7549755911559239
96,4818.5,2277.0,[2],1,0.5216515845413224,0.14022160536056125,0.6688227970426719
96,30847.25,11312.0,"[3,8]",2,0.15789485222628355,0.14369884822194745,0.11707242179977144
96,52496.3125,29506.0,[4],1,0.23071289290262925,0.5772755634349911,0.5539189080649654
96,12352.4375,6931.0,[5],1,0.21639066028398152,0.40069903605730584,0.42131933172662106
96,8473.0625,5232.0,[6],1,0.5192207442605015,0.22288085154346504,0.27827818544755634
96,5162.375,2780.0,[7],1,0.28544629722785986,0.16126842169329256,0.5785911273055607
96,17206.1875,8425.0,[9],1,0.24297800254848623,0.1563415689915695,0.25521762121186287
96,9837.875,5210.0,[10],1,0.3435131679088767,0.2633862769954261,0.8008965834652199
96,10418.9375,5578.0,[11],1,0.45295636113124327,0.4380160079853727,0.6091607419337598
120,12352.75,7545.0,[0],1,0.4356661500566521,0.15442873211590905,0.17232442774998663
120,12884.25,6311.0,[1],1,0.4068023862206089,0.5506834774594583,0.7344295758192718
120,6773.25,4364.0,[2],1,0.5626766698724387,0.16340928422679496,0.6467360537904694
120,15214.5,7427.0,[3],1,0.23844598782356377,0.14936184665244814,0.0978876394763493
120,56148.15625,29900.0,[4],1,0.2819119128103785,0.5670001914300595,0.5565684869559834
120,9757.21875,3581.0,[5],1,0.24874509685802892,0.4104497386644514,0.44552291993794607
120,10038.53125,5802.0,[6],1,0.5439819995546,0.20545300824976126,0.2954790699036555
120,14174.125,6538.0,[8],1,0.1624750680664508,0.17332862547118655,0.20420973869442635
120,17127.09375,8524.0,[9],1,0.29992630278554266,0.16361276823777648,0.2698528319918359
120,8576.9375,3658.0,[10],1,0.38281017023784286,0.263197695262383,0.7668695366593583
120,10004.46875,4795.0,[11],1,0.4848187609420412,0.4317105119158947,0.6266996380591542
144,15153.375,8977.0,[0],1,0.4470315288812287,0.16598349957096004,0.17837842493503236
144,13144.125,6702.0,[1],1,0.44883041345745467,0.553634083526555,0.7211995149416068
144,12590.625,9204.0,[2],1,0.5625309665040839,0.1626660894038579,0.6281194289618535
144,14559.25,6952.0,[3],1,0.25776170594469566,0.15510438354874906,0.1089174214415993
144,52928.078125,24854.0,[4],1,0.3060931599353102,0.5710608773388349,0.5431651248004995
144,8299.609375,3421.0,[5],1,0.26160874423514213,0.42561300429530613,0.45233217989742686
144,12279.265625,7260.0,[6],1,0.5369693293354157,0.2102316432450868,0.32522656622997814
144,4722.09375,2654.0,[7],1,0.3719381191525604,0.1780459492504886,0.5448183276019847
144,10845.0625,3758.0,[8],1,0.17235484368728585,0.17541757434864907,0.20756800050477991
144,15944.546875,7381.0,[9],1,0.3233095304996167,0.1789316806426168,0.2810845618963736
144,7513.46875,3225.0,[10],1,0.41373981060883513,0.2794816782741837,0.7471265920474537
144,10614.234375,5612.0,[11],1,0.505764391577258,0.4386123357183094,0.6300058618611011
