time_in_hour,cumulative_size,size,pcore_ids,pcore_power,SCA-1,CD11b,Ly6C
-1,0,0,[],0,0.0,0.0,0.0
0,5387,5387,[0],1,0.38557325896925737,0.39289407128103776,0.592792059412184
0,44727,44727,"[1,5,7]",3,0.2288907512065099,0.1562545809585697,0.2528296510834363
0,16113,16113,[3],1,0.20133028185072324,0.4468093411547933,0.5561144102404812
0,4874,4874,[4],1,0.2236957854794769,0.21900860972525812,0.40631805690482614
0,6170,6170,[6],1,0.3424640795440026,0.4418860051189148,0.7986081080593309
0,9582,9582,[8],1,0.2335856791409002,0.5803101308921073,0.6598350005741086
24,9462.5,6769.0,[0],1,0.38733783563147783,0.38945958385386487,0.5897061133945063
24,18197.0,10287.0,"[1,5]",2,0.2969251012483214,0.171965905075597,0.45497838369549365
24,26779.5,18723.0,[3],1,0.19204160234088657,0.45775010752720996,0.5423987184625938
24,6828.0,4391.0,[4],1,0.21208465801755,0.22194212280018225,0.4058171971040236
24,10312.0,7227.0,[6],1,0.2903670099633002,0.44392685760823397,0.8017821691509945
24,48924.0,31448.0,"[5,7]",2,0.19090430560034422,0.15483562602037296,0.23453457833512512
24,18931.0,14140.0,[8],1,0.21404164977603551,0.5989856351393759,0.6365246360037534
48,9752.25,5021.0,[0],1,0.38592672794321353,0.39159422428215546,0.5876862349337347
48,18980.5,9882.0,"[1,5]",2,0.3123382987092884,0.17965571595806662,0.4242540506787855
48,33475.75,20086.0,[3],1,0.20791355170987302,0.46881691187073005,0.5092223125915046
48,7152.0,3738.0,[4],1,0.2178265135233659,0.23396028197030116,0.39408089938864815
48,10777.0,5621.0,[6],1,0.3143867297501003,0.43686938876449183,0.7803257080729341
48,61111.0,36649.0,"[5,7]",2,0.19128116290140407,0.1600888878415797,0.2051616141630486
48,20126.5,10661.0,[8],1,0.2346366535036684,0.5981875890647776,0.6076982628305776
72,7932.125,3056.0,[0],1,0.40766935337792437,0.4011710427490812,0.5892598193477061
72,22197.25,12707.0,"[1,5]",2,0.3375129599640385,0.18530495731682559,0.42645528006752353
72,4743.5,3254.0,[2],1,0.5213473967333185,0.15899033900641343,0.6195753631214511
72,29169.875,12432.0,[3],1,0.2060848090016712,0.46723760192455394,0.5141888305744834
72,7202.0,3626.0,[4],1,0.22253640140535416,0.2306200923323217,0.3820977561912079
72,10511.5,5123.0,[6],1,0.3246801256195037,0.4320613191800469,0.7902910874896046
72,62234.5,31679.0,"[5,7]",2,0.19623949503784574,0.15934869379422475,0.22372945841865072
72,32916.25,22853.0,[8],1,0.23716985181578906,0.5968654079417568,0.5993780953670468
96,8122.0625,4156.0,[0],1,0.43476772976780814,0.43356313680131975,0.5899938177066149
96,25348.625,14250.0,"[1,5]",2,0.3785348816373623,0.17947991837536031,0.40137113673651614
96,5933.75,3562.0,[2],1,0.5512992593784851,0.1566118801395877,0.6206544937771041
96,26106.9375,11522.0,[3],1,0.211886092742097,0.4684416516903583,0.5051485175818152
96,8324.0,4723.0,[4],1,0.23769372539941433,0.228306098758212,0.3698482277879525
96,11461.75,6206.0,[6],1,0.38204310110104295,0.4421331495362236,0.7980272138816693
96,52786.25,21669.0,"[5,7]",2,0.21064190671462285,0.15881560960070173,0.24101726924166395
96,44798.125,28340.0,[8],1,0.2642145655612022,0.5981969610148393,0.5794113893703804
120,9268.03125,5207.0,[0],1,0.4767901986383719,0.4692934237874354,0.5794477309786915
120,32610.3125,19936.0,"[1,5]",2,0.4437063954380428,0.17231507284294692,0.34487094589874556
120,11138.875,8172.0,[2],1,0.5967748120983871,0.15499178067660904,0.6056184987772927
120,17870.46875,4817.0,[3],1,0.21241460105340432,0.4796523309412491,0.49962661271598435
120,8416.0,4254.0,[4],1,0.26792604025371636,0.20819636065434524,0.35985251803225654
120,14915.875,9185.0,[6],1,0.4419868785641689,0.47502585863621877,0.7915662418758557
120,36087.15625,13947.0,[7],1,0.20163710144587038,0.15179865437720041,0.14349407048803647
120,46881.0625,24482.0,[8],1,0.2822627030125085,0.6029887811734471,0.5643165785302129
144,10559.015625,5925.0,[0],1,0.499155567125534,0.48111266818138404,0.5642162787237243
144,35027.15625,18722.0,"[1,5]",2,0.46485835262990594,0.1728736184730359,0.33571384095176515
144,15623.4375,10054.0,[2],1,0.5942890030576141,0.15713440009159266,0.6007217403254781
144,16277.234375,7342.0,[3],1,0.22968393172777646,0.4877586925181271,0.4850842410000916
144,10346.0,6138.0,[4],1,0.3103223057355896,0.1982008274450619,0.35146857887472116
144,17318.9375,9861.0,[6],1,0.4811923856893796,0.4958445340488972,0.7665343610382049
144,30954.578125,12911.0,[7],1,0.21601229299837774,0.1533036976825118,0.1453178345318201
144,42487.53125,19047.0,[8],1,0.30419785335401694,0.609025618911537,0.5500759795653883
