time_in_hour,cumulative_size,size,pcore_ids,pcore_power,SCA-1,CD11b,Ly6C
-1,0,0,[],0,0.0,0.0,0.0
0,20834,20834,"[0,8]",2,164.05063837957437,127.1730824613615,245.53369492176228
0,6918,6918,[1],1,226.30572419774583,544.7168256721582,628.8130962705968
0,15660,15660,"[3,11]",2,175.78856960408842,417.59782886334693,557.2734993614297
0,7015,7015,[4],1,360.7647897362758,147.25987170349308,276.1312900926585
0,5750,5750,[5],1,237.3067826086957,394.5139130434771,794.4133913043488
0,5593,5593,[6],1,193.29805113534832,316.6922939388517,420.6123726086178
0,6319,6319,[7],1,383.09305269820453,359.2576357018507,617.1322994144628
0,25599,25599,"[8,9]",2,150.85222078987746,121.99339817961643,167.29489433180953
0,6155,6155,[10],1,229.05264012997432,147.98277822908202,686.4796100731113
24,21516.25,18912.0,"[0,8]",2,162.0570440945825,128.26503224307191,243.8209783303316
24,11174.75,10310.0,[1],1,204.94864538356666,558.0406608648932,613.3396384706613
24,20926.5,18969.0,"[3,11]",2,161.73316727594428,434.6581965450501,541.0902384536346
24,8383.75,7665.0,[5],1,209.86924109139707,390.75877441478997,780.1271060086464
24,6584.125,5885.0,[6],1,180.05634765439757,323.3326372145125,419.45233800998574
24,7529.875,6740.0,[7],1,368.7216089244439,349.9738873487264,591.5684357310031
24,26061.875,22862.0,"[8,9]",2,146.31991174848667,122.90453488093203,158.33579702151138
24,5326.375,4557.0,[10],1,206.9214756752965,154.95008331182075,686.5144211588535
48,24737.53125,22048.0,"[0,8]",2,160.32875084796805,135.97710210067925,232.29335549096106
48,8793.84375,7397.0,[1],1,233.08752038890788,559.9931894827014,582.4295707579515
48,20029.8125,17414.0,"[3,11]",2,180.31559909135686,454.41126040246286,500.1766047173417
48,4757.109375,4230.0,[4],1,376.22226273176244,169.90660688771789,238.3697196630044
48,6966.96875,5919.0,[5],1,285.2542443584205,387.67189595546705,744.9189187370764
48,8117.015625,7294.0,[6],1,179.12373890496414,348.93265497440694,400.5986902513812
48,6100.234375,5159.0,[7],1,374.4010988307254,357.78501594457214,575.5625654752
48,29917.734375,26660.0,"[8,9]",2,141.7085716822476,128.86621960741235,148.78566381248638
48,4677.796875,4012.0,[10],1,252.04635929707672,171.13168926344233,672.1350328513337
72,24652.19140625,21560.0,"[0,8]",2,171.4501204333247,135.17849880549093,239.31343142510346
72,14435.23046875,13336.0,[1],1,227.9024856180027,565.5518000800458,592.499672838182
72,19616.7265625,17113.0,"[3,11]",2,171.3611057567684,467.3135710874954,529.7092467525124
72,6130.638671875,5536.0,[4],1,439.8367692115051,186.7562419418091,232.25098227492762
72,6474.87109375,5604.0,[5],1,278.15977333042713,383.0306753814476,779.2226718437321
72,5279.626953125,4265.0,[6],1,174.6037706114588,332.76526772835945,428.12877663216784
72,4569.529296875,3807.0,[7],1,409.48699200161457,393.46690650833744,586.3147261560639
72,24460.716796875,20721.0,"[8,9]",2,142.1478346139706,127.50461042965334,156.6538821373913
72,5777.724609375,5193.0,[10],1,240.8104925469745,163.5221430635908,706.7358122098129
96,11624.58447265625,10077.0,[0],1,257.4328824295569,140.15225596731494,275.15971015681
96,30601.952880859375,27561.0,"[1,11]",2,252.8684628488619,521.5439859360347,550.0913433665901
96,8291.541748046875,7076.0,[3],1,133.5076582743394,505.5005190041704,528.5021303565684
96,6760.329833984375,5994.0,[4],1,452.3084100066603,181.76004870440107,225.09091923886234
96,6656.35888671875,5847.0,[5],1,366.33663027665614,391.6135420833423,783.4149094025211
96,6392.953369140625,5733.0,[6],1,192.34714781675225,331.64946420613757,427.2573051681158
96,5496.191162109375,4925.0,[7],1,426.39935215255946,439.35477285206105,602.4287897082868
96,8066.939453125,6533.0,[8],1,117.28628507123383,135.08568474166242,216.64334790944844
96,9315.650146484375,7792.0,[9],1,194.0874068841505,122.54557792596523,100.98527697596434
96,5902.215576171875,5180.0,[10],1,311.67178915822257,149.88612790441576,696.3711438141362
120,11001.073059082031,9548.0,[0],1,291.2611132361256,133.62691615815334,283.5080855316054
120,26026.244110107422,22201.0,"[1,11]",2,277.4424756640256,532.9663397330884,534.8636788443865
120,8194.161071777344,7726.0,[2],1,548.6520149603998,141.97366485706215,575.7141151266213
120,7193.442718505859,6157.0,[3],1,153.45170365275342,521.317466319064,521.1766231317978
120,12563.041229248047,11718.0,[4],1,500.0379398712934,157.50746167883034,219.46852332754906
120,8499.044860839844,7667.0,[5],1,388.7333888284199,403.70995697823395,759.4664406367026
120,6301.023895263672,5614.0,[7],1,497.46336404309164,493.1190992281565,638.338949444035
120,6150.367431640625,5142.0,[8],1,133.9010521236915,129.40771650159041,214.35111169639643
120,8071.456268310547,6907.0,[9],1,225.4950329957429,118.84843756582954,105.40525903881499
120,5636.776947021484,4899.0,[10],1,338.47946778983686,154.79014657609218,682.4097551899083
144,11169.134132385254,9794.0,[0],1,320.73194356762826,135.11360106588515,293.6924748455124
144,24166.280513763428,20913.0,"[1,11]",2,302.3045766437747,531.3241729620983,517.3461665639354
144,10571.270133972168,9547.0,[2],1,536.5560430283269,146.12315882076808,576.240290582897
144,5949.180339813232,5050.0,[3],1,171.93675373900686,512.0788482621425,494.1569435063808
144,11159.380153656006,9589.0,[4],1,497.4092270734589,160.49507832981172,230.12452107785185
144,9608.38060760498,8546.0,[5],1,405.7872989267124,411.73427562387525,711.8304007696942
144,5729.627986907959,4942.0,[7],1,546.0516939547667,509.5841143792267,659.3383777005483
144,6351.795928955078,5583.0,[8],1,153.04468131982733,134.11248332751944,213.42503399069352
144,7649.932033538818,6641.0,[9],1,258.2153872129902,121.76748652305206,112.4184814423625
144,6445.597118377686,5741.0,[10],1,362.54370459673765,158.6620560436416,640.9465052167984
