time_in_hour,cumulative_size,size,pcore_ids,pcore_power,SCA-1,CD11b,Ly6C
-1,0,0,[],0,0.0,0.0,0.0
0,5536,5536,[0],1,252.08941473988386,448.26427023121414,760.3047326589605
0,39608,39608,"[1,6]",2,187.40734195112336,139.863790143406,213.1463340739234
0,26803,26803,"[2,7]",2,196.17912174010448,417.57299556019984,562.7814796851111
0,7605,7605,[4],1,283.5450361604196,148.1129520052602,697.5008547008531
0,6453,6453,[5],1,364.49806291646775,328.0917402758398,641.9110491244369
24,7597.0,7251.0,[0],1,214.86006811899438,408.01453698828436,758.0115094774242
24,42046.8125,39096.0,"[1,4,6]",3,184.9701538017923,141.0864319382118,261.8196712295362
24,36508.1875,34833.0,"[2,7]",2,183.53219568898314,446.23480863025526,553.7283520306217
24,6685.3125,6282.0,[5],1,343.00649745243203,331.1192259150185,612.338278876265
48,11077.64453125,10185.0,[05],2,307.103133528002,365.05753634589905,665.2455642469677
48,42402.65625,40096.0,[16],2,177.13130571124535,147.36374978351105,189.34594567704667
48,34606.76171875,32325.0,[27],2,207.90231102100347,446.60663801815195,504.21346261924174
72,5976.55078125,5560.0,[0],1,280.518231040647,355.801789439782,759.6483741062897
72,36840.166015625,34190.0,"[1,6]",2,184.372713299351,145.2198505115926,208.7978970335589
72,38629.922607421875,36467.0,"[2,7]",2,204.85173343635518,477.5900221568029,550.8666665870346
72,6504.829345703125,6214.0,[4],1,333.72937362005746,147.75139005233535,675.377235911076
96,6269.534423828125,5896.0,[0],1,376.47759087728565,359.06226271916285,759.6429807663056
96,10183.199783325195,9391.0,[1],1,255.32349157351013,168.85045986020666,316.6144601175108
96,10434.459899902344,9775.0,[2],1,207.94196854393596,383.6876485067031,479.7050134892321
96,12637.381042480469,11931.0,"[3,4]",2,410.9157253403387,149.24701150346885,468.49905631515605
96,18108.310592651367,16598.0,[6],1,182.86056804732036,138.58566394130028,168.2816299811111
96,34801.91026306152,33047.0,[7],1,249.63835936278687,516.1037018205778,552.0322066037427
120,9107.845901489258,8716.0,[0],1,394.45827694562934,365.05515266593534,734.0970698148395
120,9375.449986457825,8739.0,[1],1,318.6133611793579,160.19944376652626,333.1814764481853
120,34821.27313518524,31994.0,"[2,7]",2,263.1021081279089,510.75075391932137,531.1678095719683
120,11844.864325523376,11481.0,[3],1,500.8708030533902,148.7516339383955,219.6641256002963
120,10066.971989631653,9641.0,[4],1,484.3430040910646,134.89376833592263,620.467287463058
120,16107.76941204071,14976.0,[6],1,206.37500528778827,133.94213439530364,172.16623422408665
144,9486.240368843079,8917.0,[0],1,418.05282397090906,357.4126311291354,681.4778495409805
144,9921.965624153614,9336.0,[1],1,369.8238449964509,173.09779454131282,366.4204281209163
144,32257.329570949078,30081.0,"[2,7]",2,289.90483783008915,505.90241617012765,511.85976739927236
144,10162.304020345211,9422.0,[3],1,484.9659741833383,150.12574211351824,217.63187077258775
144,12129.185749351978,11500.0,[4],1,488.9947963975514,138.4018079534344,605.3565611857438
144,17055.735588252544,16049.0,[6],1,229.7471159817899,140.54212444013666,188.27952969091461
