time_in_hour,cumulative_size,size,pcore_ids,pcore_power,SCA-1,CD11b,Ly6C
-1,0,0,[],0,0.0,0.0,0.0
0,16718,16718,"[0,8]",2,0.24870925638919833,0.5285073557154396,0.6991629256278186
0,43610,43610,"[1,6,7]",3,0.22739885450456146,0.15605845622605222,0.2539241576863967
0,15036,15036,[2],1,0.204065523642137,0.4296029649504858,0.5439322019136255
0,4542,4542,[3],1,0.4331433462465142,0.17621530372132593,0.28893333097965224
0,6501,6501,[5],1,0.4075974482750204,0.3969206617011925,0.6389219201842835
24,28665.5,24486.0,"[0,8]",2,0.22115707348162997,0.5422339283880662,0.6768405670210548
24,46427.5,35525.0,"[1,6,7]",3,0.20896880420663436,0.15457230791646867,0.21917764831749598
24,20492.0,16733.0,[2],1,0.19358616516832378,0.4393840676595568,0.5276820912675111
24,8666.25,7041.0,[5],1,0.3944182925821235,0.3929896886358292,0.6165294159786442
48,14839.75,10372.0,"[0,5]",2,0.3465925720302872,0.4179789834673413,0.6935934366521695
48,58514.25,45882.0,"[1,3,6,7]",4,0.22250754797892763,0.16621608367161717,0.2096727173504725
48,41635.1875,31647.0,"[2,8]",2,0.22316856452465825,0.5130347821670672,0.5257942498051706
72,7345.296875,5458.0,[0],1,0.3051491520636163,0.41539970366692214,0.8024352435719444
72,45182.671875,32804.0,"[1,6]",2,0.19776763022207586,0.16117947745588704,0.1754024742355661
72,45546.796875,35138.0,"[2,8]",2,0.2242976576501174,0.5410395354791281,0.5562185544477729
72,12237.890625,9988.0,"[3,7]",2,0.46163029192538124,0.18413787465648823,0.45143203167248575
72,5292.640625,3470.0,[5],1,0.4321754346660202,0.4245070062215125,0.6110827498532916
96,7489.32421875,5653.0,[0],1,0.3904002005710748,0.4207506084375998,0.8087497320956254
96,35601.66796875,24306.0,"[1,6]",2,0.21529888754524487,0.1642834080137783,0.18415414059853408
96,52104.69921875,40718.0,"[2,8]",2,0.25461247816917465,0.5531640691633922,0.5468747632556922
96,15046.47265625,11987.0,"[3,7]",2,0.4891327656435937,0.1760127865398246,0.43222135259668687
96,5941.16015625,4618.0,[5],1,0.46592292348936265,0.4752512343716947,0.6230846042475868
120,9594.3310546875,7722.0,[0],1,0.4299226484396687,0.43457959393299334,0.7903667351794406
120,29540.4169921875,20640.0,"[1,6]",2,0.24365875876716694,0.15828711246849234,0.18815664327854498
120,43082.1748046875,30056.0,"[2,8]",2,0.27756949338829695,0.5762096327675873,0.540257007614496
120,16155.568359375,13969.0,[3],1,0.5410329397726502,0.1726778172466263,0.21592293630969175
120,4656.8984375,3732.0,[4],1,0.3547161311729642,0.16832524952320174,0.6458819072919726
120,7937.2900390625,6452.0,[5],1,0.5328567460157649,0.5402980638475054,0.6514920833173309
120,9004.0498046875,7429.0,[7],1,0.5877834611238165,0.15537842383326836,0.6542797718893791
144,18567.9052734375,14185.0,"[0,5]",2,0.5079251603240624,0.4976511870329972,0.7111469539109703
144,28685.104248046875,21300.0,"[1,6]",2,0.2759148969164052,0.1616963543637495,0.1992965994218542
144,38971.543701171875,28201.0,"[2,8]",2,0.3046877768400829,0.5761728248847796,0.5201711822159562
144,15853.89208984375,11815.0,[3],1,0.5409396210907509,0.17644878021086538,0.2213500507136838
144,17914.237060546875,14499.0,"[4,7]",2,0.5242170803707199,0.1655689625061658,0.6246591738316267
