time_in_hour,cumulative_size,size,pcore_ids,pcore_power,SCA-1,CD11b,Ly6C
-1,0,0,[],0,0.0,0.0,0.0
0,20918,20918,"[0,7]",2,161.47160340376976,136.17731140644457,249.7578162348216
0,10618,10618,[1],1,218.75174232435546,520.7200037671906,623.5835373893372
0,15696,15696,[3],1,169.74917176350846,388.23687563710655,523.2721712538244
0,7606,7606,[4],1,353.1014988167202,153.4797528267156,274.25006573757537
0,5985,5985,[5],1,232.13216374269032,375.3398496240593,789.2071846282371
0,26393,26393,"[7,8]",2,152.9311559883327,120.49615428333283,169.15818588262022
0,7374,7374,[9],1,382.820992676968,339.43300786547206,610.1036072687826
24,29693.0,19234.0,"[0,7]",2,159.8430438150432,137.93020240460754,252.150102717811
24,20857.0,15548.0,[1],1,197.00992472551383,534.0268255262041,605.0466510044582
24,25050.0,16048.0,"[2,8]",2,190.9719361277459,124.49237524950064,NA
24,25933.0,18085.0,[3],1,162.50096402267778,392.957814367794,514.4384375120512
24,7839.0,4036.0,[4],1,359.3398392652078,151.81292256665392,268.7551983671384
24,11279.5,8287.0,[5],1,210.83696085819423,370.3510350636107,779.4241322753652
24,11487.0,7800.0,[9],1,370.71515626359525,336.02703055628035,592.3787760076613
48,36227.5,21381.0,"[0,7]",2,157.7785867089951,144.3118832378716,244.4208819267115
48,22171.5,11743.0,[1],1,210.05737094919246,538.1929842365224,579.9470942426043
48,31473.0,18948.0,"[2,8]",2,189.36451879388736,130.79509420773434,NA
48,31754.5,18788.0,[3],1,170.99972444850607,407.06616385079315,485.05575587712326
48,8966.5,5047.0,[4],1,361.569452963805,158.68262421234553,252.31015446383734
48,11041.75,5402.0,[5],1,251.06253537709085,377.65936106142516,761.2188511784815
48,11792.5,6049.0,[9],1,371.39703201186563,347.47875768496846,584.9141827432691
72,38870.75,20757.0,"[0,7]",2,162.68852221786648,141.85482335689397,245.64091894290536
72,32519.75,21434.0,[1],1,207.51354177077044,541.9596668178583,579.0034824990877
72,32524.5,16788.0,"[2,8]",2,204.02483512429203,130.74171778198,NA
72,28077.25,12200.0,[3],1,168.88845506593753,408.8680070163596,490.10506726976456
72,11182.25,6699.0,[4],1,401.8335531757886,170.16091350130753,246.16392049900566
72,11297.875,5777.0,[5],1,257.91149884380866,377.6145624730304,773.037772589978
72,11248.25,5352.0,[9],1,402.5381503789427,350.14910097126125,589.698508656902
96,16828.375,9170.0,[0],1,231.35575330357267,166.0132514280198,293.80778001441126
96,42973.875,26714.0,[1],1,230.55915367185227,542.0858704852657,566.0297389983863
96,10101.1875,5554.0,[2],1,327.6467308917865,141.6200941720968,693.6009503833066
96,26397.625,12359.0,[3],1,177.9451631538843,410.7943659704249,484.82157959286377
96,13368.125,7777.0,[4],1,420.44240497451784,169.7549908831643,242.31881808406152
96,11792.9375,6144.0,[5],1,317.7333838579196,384.31451557340773,776.9185635470391
96,38350.0625,14858.0,"[7,8]",2,155.39181650616942,124.31843657360352,158.10392421133457
96,12114.125,6490.0,[9],1,428.81271862391384,362.2050550493743,594.6369320937345
120,34726.1875,17058.0,"[0,7]",2,NA,154.83899128719509,NA
120,52526.9375,31040.0,[1],1,NA,NA,560.3940002212987
120,8018.59375,2968.0,[2],1,NA,NA,NA
120,21374.8125,8176.0,[3],1,NA,NA,494.2154755743471
120,16620.0625,9936.0,[4],1,NA,160.7856149006651,NA
120,11307.46875,5411.0,[5],1,NA,NA,NA
120,37992.03125,18817.0,"[7,8]",2,NA,142.45776622564756,NA
120,9353.0625,3296.0,[9],1,NA,NA,NA
144,15433.09375,7694.0,[0],1,NA,175.86171356601793,323.0876748221675
144,52098.46875,25835.0,[1],1,NA,NA,547.2247264944683
144,8298.296875,4289.0,[2],1,NA,NA,NA
144,17408.40625,6721.0,[3],1,NA,NA,485.48853014617447
144,19774.03125,11464.0,[4],1,NA,164.50982823115518,NA
144,20613.265625,10283.0,"[5,9]",2,NA,NA,NA
144,11909.1875,9651.0,[6],1,NA,NA,NA
144,33059.015625,14063.0,"[7,8]",2,NA,146.43049291111487,NA
