time_in_hour,cumulative_size,size,pcore_ids,pcore_power,SCA-1,CD11b,Ly6C
-1,0,0,[],0,0.0,0.0,0.0
0,19965,19965,"[2,7]",2,207.2670172802424,155.3643375907841,275.89431505133933
0,17901,17901,[5],1,184.05910284341797,130.78671582593122,148.11351321155178
0,6801,6801,[10],1,239.38788413468623,483.8057638582568,679.3906778414914
0,24099,24099,"[11,12]",2,216.72737457985818,397.28532304244976,568.5073239553493
24,7640.0,5724.0,[1],1,228.28586387434558,330.9057591623029,745.3856675392676
24,19910.0,11211.0,[2],1,196.1837769964868,151.66325966850894,269.8116273229523
24,17840.5,12075.0,"[3,11]",2,207.48981250525568,353.2447521089658,523.9108489111826
24,30100.5,21150.0,[5],1,178.44667032109516,133.3985648078933,153.73485490274226
24,6034.5,4310.0,[8],1,306.44908443118385,336.3149391001752,619.4933300190548
24,13910.5,10510.0,[10],1,210.37212896732777,505.8393659465862,655.7453003127096
24,37153.5,25104.0,"[11,12]",2,199.2580376007645,414.74042822345365,552.1499185810204
48,8996.0,5176.0,[1],1,265.1905291240534,345.67196531791836,743.8100544686531
48,24289.0,14334.0,[2],1,204.65155008440323,148.31564700070038,261.57358269175234
48,7336.25,4913.0,[3],1,205.26174816834302,322.740262395638,432.6420514568056
48,39630.25,24580.0,[5],1,166.12640596514424,130.4961424669288,138.8492628736879
48,5613.5,3756.0,[6],1,315.5602119889505,143.9414358243523,674.5314420593205
48,8553.25,5536.0,[8],1,349.2775845438822,349.27030660859936,595.8259433548675
48,12896.25,5941.0,[10],1,231.21486866337102,526.7696617233687,641.1681302704256
48,40647.75,22071.0,"[11,12]",2,191.73675664704842,439.699251496086,518.3505360075259
72,12725.0,8227.0,[1],1,277.1012966601172,319.73151277013716,756.793369351671
72,21441.5,9297.0,[2],1,222.28345731409013,145.1535748431788,258.4411713266318
72,6523.125,2855.0,[3],1,222.15759317811774,308.8677014467746,415.40413912043505
72,43424.125,23609.0,[5],1,170.24111596952588,129.14234598854952,150.9075312398346
72,4594.75,1788.0,[6],1,340.11918493932933,138.59527177757192,677.1493824473569
72,8666.625,4390.0,[8],1,401.3108043788628,336.52986312434183,588.8629224179009
72,18803.125,12355.0,[10],1,235.9096892138934,550.1558716968606,622.6308791756686
72,14161.5,6608.0,[11],1,190.837958549592,385.27374395367974,495.20734032411633
72,27617.375,14847.0,[12],1,180.38144917828066,485.5834958970564,533.8275542117946
96,8650.5,2288.0,[1],1,298.38980405756627,312.7094098607011,742.218231605109
96,17614.75,6894.0,[2],1,234.79012617266986,154.5178437105273,264.34091812259487
96,4930.5625,1669.0,[3],1,231.25878132566118,309.8916832511493,425.4108050552033
96,38794.0625,17082.0,[5],1,189.19618820535013,139.4158883849813,174.19247468604212
96,6080.375,3783.0,[6],1,375.1160598647254,163.39786814135678,681.7661842402812
96,5215.3125,882.0,[8],1,402.29039487086914,335.00007190364886,592.4525256156802
96,34687.5625,25286.0,[10],1,276.6620654737526,513.3193435687498,596.3411561420559
96,44725.4375,23836.0,"[11,12]",2,216.1071076722293,433.8082285388487,512.998229475115
120,10778.84375,8569.0,[0],1,369.32252995595917,152.77571805881288,228.4143446508356
120,9748.25,5423.0,[1],1,342.33575257096976,334.46817377478055,743.5747345677461
120,13680.375,4873.0,[2],1,240.7963003572643,157.71962345695968,269.09931882349565
120,30538.03125,11141.0,[5],1,194.15129699954184,138.60328156386896,169.49658059571135
120,9622.1875,6582.0,[6],1,467.5431814491245,148.1754701049006,661.363856321652
120,7728.65625,5121.0,[8],1,457.7055762442532,392.08795594318315,640.6925565165365
120,10658.25,9158.0,[9],1,502.19015199493873,167.30524769544846,310.8739063636152
120,36869.78125,19526.0,[10],1,295.37729746497695,521.8251845812074,581.7969848275042
120,7618.875,1056.0,[11],1,223.99598858099324,382.435796787583,497.38789355383574
120,28508.84375,12709.0,[12],1,224.28240469240384,472.5460980857883,514.854445385913
144,15428.421875,10039.0,[0],1,378.728554949819,152.59498449999472,222.1654485076754
144,9095.125,4221.0,[1],1,372.072868707131,337.99784912246974,721.6189115735107
144,12035.1875,5195.0,[2],1,256.6693575609014,159.80422381246711,274.1620599492105
144,5618.953125,3760.0,[4],1,355.8565012944415,150.4271870038069,577.2476217489359
144,24656.015625,9387.0,[5],1,203.42825312027827,141.2016736534246,170.75877147121116
144,12648.09375,7837.0,[6],1,496.3950459431894,147.5622425810211,636.2658812222193
144,6964.234375,4755.0,[7],1,366.2818552829029,191.71235172567012,382.31318275743763
144,11639.328125,7775.0,[8],1,469.36356399437557,421.39730600858815,654.7739855581218
144,11120.125,5791.0,[9],1,500.3115606838998,169.28079298793912,316.34211901844674
144,35145.890625,16711.0,[10],1,314.3540816693959,527.363878778505,564.1428465365472
144,31474.859375,13411.0,"[11,12]",2,240.8834188595963,457.7378577445955,500.07459524987655
