time_in_hour,cumulative_size,size,pcore_ids,pcore_power,SCA-1,CD11b,Ly6C
-1,0,0,[],0,0.0,0.0,0.0
0,27554,27554,"[0,3,9]",3,0.21830970523254553,0.4788493479032712,0.5823549885359749
0,43558,43558,"[1,5,8]",3,0.20993873079469055,0.1584209299962877,0.2599636753943818
0,5128,5128,[4],1,0.40651983382705664,0.18258046498330496,0.29741621179323857
0,4956,4956,[6],1,0.3068621849806376,0.4940309565808073,0.8200426559963762
0,5715,5715,[7],1,0.40423899259783014,0.38598433114412656,0.6471838848651708
24,48417.0,34640.0,"[0,3,9]",3,0.20488508888024323,0.500840081131521,0.571144483340326
24,59160.0,37381.0,"[1,5,8]",3,0.20012513199778556,0.15761657740799576,0.24747921344253812
24,5868.0,3304.0,[4],1,0.40852136516470344,0.18490086966043248,0.2868326835518755
24,9433.0,6955.0,[6],1,0.2665668100393428,0.4779364995229523,0.8100885934017792
24,9168.5,6311.0,[7],1,0.39695470507532,0.3863134818531964,0.6256241563997375
48,66345.75,37553.0,"[0,3,7,9]",4,0.2450984197653368,0.48788533120312483,0.5508048346010676
48,71937.0,42357.0,"[1,5,8]",3,0.20013389134344353,0.16364337256008984,0.2210747932961505
48,6715.0,3781.0,[4],1,0.40206154258033217,0.19158890745713425,0.2740913869988241
48,9326.5,4610.0,[6],1,0.3008560842398446,0.46723838655628575,0.7889013237539362
72,64628.75,36233.0,"[0,3,9]",3,0.22443092972459308,0.5265596673237153,0.5550352585589526
72,73599.5,37631.0,"[1,5,8]",3,0.20506632235456876,0.16474167400556838,0.23772418649474242
72,4867.0,3278.0,[2],1,0.5023253659707779,0.1552928369748429,0.6282932233491058
72,8858.5,5501.0,[4],1,0.44290771955837077,0.19628904429291416,0.250778620637032
72,9017.25,4354.0,[6],1,0.314735676719494,0.45522312438113416,0.7984163735665987
72,7780.125,3003.0,[7],1,0.41470732919464715,0.39763574824207193,0.62520814540534
96,73550.375,41236.0,"[0,3,9]",3,0.24639005823933988,0.5421316190446431,0.5480266738536225
96,64627.75,27828.0,"[1,5,8]",3,0.21999007474917423,0.16559365954495042,0.25314449987132454
96,6202.5,3769.0,[2],1,0.5327074190816499,0.15306084158153963,0.6319641749456227
96,12105.25,7676.0,[4],1,0.46253676497034535,0.18900304302170212,0.23393672512004893
96,10164.625,5656.0,[6],1,0.37921419474595547,0.45743001510706766,0.8050538719032786
96,7725.0625,3835.0,[7],1,0.44490986718862385,0.4321173249744158,0.6227890433923553
120,55299.71875,27724.0,"[0,9]",2,0.27755023808935764,0.5881094099022262,0.5573141579269235
120,55486.875,23173.0,"[1,5,8]",3,0.2390094586595604,0.16334220265493327,0.26398336579175025
120,11228.25,8127.0,[2],1,0.5845855201454453,0.15240607079166504,0.6152234086618423
120,11786.46875,2587.0,[3],1,0.20734655941607358,0.43836198044082364,0.47552819687258735
120,21064.625,15012.0,[4],1,0.5124651545508088,0.17611352911559403,0.21766959419200427
120,13313.3125,8231.0,[6],1,0.43709849538643997,0.48414160848381754,0.7981931987232839
120,9008.53125,5146.0,[7],1,0.4946646392501585,0.469794359554189,0.6182268707070433
144,51737.859375,24088.0,"[0,9]",2,0.30297208831631334,0.5912982479879212,0.5430214247667315
144,51287.4375,23544.0,"[1,5,8]",3,0.2645726006452028,0.16528275009560295,0.276647210144996
144,15928.125,10314.0,[2],1,0.5841900357778252,0.1548774432125364,0.6050151077995571
144,10358.234375,4465.0,[3],1,0.22089197612434042,0.45238103241945576,0.46113838942577107
144,24354.3125,13822.0,[4],1,0.5157148802840195,0.17511427191791473,0.22103523019745555
144,14839.65625,8183.0,[6],1,0.469501308474402,0.499079568731546,0.7751595081801025
144,10088.265625,5584.0,[7],1,0.5320661375808221,0.48532243283721477,0.6142217319213973
