time_in_hour,cumulative_size,size,pcore_ids,pcore_power,SCA-1,CD11b,Ly6C
-1,0,0,[],0,0.0,0.0,0.0
0,12435,12435,"[1,3]",2,314.1372738238815,140.49416968234806,486.88652995576854
0,21646,21646,"[2,5,8]",3,183.12200868520932,407.3653792848572,543.4163817795431
0,34206,34206,"[4,10]",2,171.67768812489285,136.1410278898442,199.4368239490146
0,5683,5683,[9],1,373.8178778813954,333.1411226464894,628.7881400668642
24,23959.0,12787.0,"[0,2]",2,172.21724612880553,404.6261947493637,564.9286280729572
24,19842.0,7407.0,"[1,3]",2,305.5636528575716,139.24674931962502,479.9632597520389
24,64803.0,30597.0,"[4,10]",2,167.4452880267924,134.79996296467675,194.88452695091252
24,39145.0,23361.0,"[2,5]",2,169.86687955039255,457.2766125942024,551.782449865883
24,6247.0,2655.0,[6],1,328.9750280134422,169.2582039378909,446.31407075396135
24,11252.0,6569.0,[7],1,213.3744223249204,364.7764841805899,778.1586384642686
24,11694.0,5832.0,[8],1,190.1164699846091,317.39250897896306,486.5760218915694
24,11441.0,5758.0,[9],1,366.6497683768828,335.66585088716,617.0915129796338
24,8431.0,4680.0,[11],1,257.4279444905706,548.42379314435,686.1315383702998
48,8557.0,1408.0,[0],1,235.09594484048128,410.9072104709589,616.1498188617511
48,26447.0,6605.0,"[1,3]",2,307.7408023594322,144.58127575906508,468.30324800544355
48,80718.0,29879.0,"[2,5,8]",3,185.51700983671734,429.33265194875986,522.0091553309039
48,103274.0,38471.0,"[4,10]",2,168.33889459109204,139.49700795940907,192.0704339911308
48,8076.0,1829.0,[6],1,330.3319712729037,170.8392768697379,447.5144873699854
48,14292.0,3040.0,[7],1,226.68129023229773,362.38175202910725,768.8970752868696
48,16364.0,4923.0,[9],1,359.81245416768013,332.9860669762888,617.2987044732332
48,12276.0,3845.0,[11],1,265.2293906810032,541.0186542847852,677.7019387422605
72,10676.0,2119.0,[0],1,240.26348819782618,411.15586361933094,613.9022105657547
72,36032.0,9585.0,"[1,3]",2,320.17831372113267,148.6938832149198,463.3630939165177
72,111380.0,30662.0,"[2,5,8]",3,188.55089782725918,438.26326988687384,527.9828155862731
72,135427.0,32153.0,"[4,10]",2,170.772253686492,140.54684811743587,195.27682810665672
72,10578.0,2502.0,[6],1,342.97655511438546,171.37237663074387,451.60710909434596
72,18038.0,3746.0,[7],1,231.66759064197706,356.2208116199132,768.479432309567
72,19908.0,3544.0,[9],1,370.9860357645129,331.94986939923535,620.4958810528411
72,17965.0,5689.0,[11],1,269.0498747564704,543.3844698023944,666.4118007236259
96,12834.0,2158.0,[0],1,247.0392706872361,414.70414523920596,607.8584229390675
96,49951.0,13919.0,"[1,3]",2,337.47622670216515,148.1628596024101,448.0151948909933
96,62736.0,8902.0,"[2,8]",2,177.2872991583795,374.66829252741815,500.1316469012998
96,155767.0,20340.0,"[4,10]",2,171.98779587461152,140.83689741729648,195.32259079265958
96,81763.0,24217.0,[5],1,208.91008157724175,503.1292516174674,543.1373114978395
96,14427.0,3849.0,[6],1,357.9934844388972,169.19609066334044,451.44770222499534
96,21388.0,3350.0,[7],1,251.04577333083708,356.60702262951213,771.1183841406364
96,24907.0,4999.0,[9],1,386.69402176094883,337.9331914722767,624.7990524752066
96,26231.0,8266.0,[11],1,288.2429186839966,547.512752087225,657.5879303114629
120,13942.0,1108.0,[0],1,249.79099124946023,416.31272414287474,605.7131688423485
120,70840.0,20889.0,"[1,3]",2,367.8167843026507,145.40335968379347,415.14970355731356
120,65627.0,2891.0,"[2,8]",2,177.73622137230257,375.73012631996136,497.98019107989086
120,171189.0,15422.0,"[4,10]",2,174.25515073982933,140.0894566823809,194.70895326218405
120,101903.0,20140.0,[5],1,215.16179111507913,507.7599972522664,537.1337055827343
120,22427.0,8000.0,[6],1,396.74615418914357,163.04298390333182,454.5576760155184
120,24462.0,3074.0,[7],1,262.01340855203637,358.18056577549066,771.352914724873
120,33379.0,8472.0,[9],1,412.90425117588586,345.04002516552276,635.0270828964296
120,36235.0,10004.0,[11],1,312.78617358906854,551.1927418242058,652.173478680826
144,15782.0,1840.0,[0],1,255.88512229121562,417.6099987327309,601.4526675959934
144,91685.0,20845.0,"[1,3]",2,382.1593826689179,144.35115885913538,399.28672083765343
144,69449.0,3822.0,"[2,8]",2,179.7779377672841,376.9460179412253,494.33836340336086
144,185197.0,14008.0,"[4,10]",2,176.85388532212022,139.8582644427294,194.8754947434352
144,118916.0,17013.0,[5],1,222.1149214571598,509.26932456521774,530.2461064953177
144,32883.0,10456.0,[6],1,419.08654928078204,161.1668339263455,458.5013228720026
144,25451.0,989.0,[7],1,264.9259754037137,358.8841695807651,769.9302188519043
144,44643.0,11264.0,[9],1,432.7118697220133,352.4968752099998,641.9288354277272
144,45998.0,9763.0,[11],1,330.42730118700547,554.0309796078124,646.4408669942059
