time_in_hour,cumulative_size,size,pcore_ids,pcore_power,SCA-1,CD11b,Ly6C
-1,0,0,[],0,0.0,0.0,0.0
0,7321,7321,[0],1,0.3391375280284936,0.40672450355111794,0.7711077052345694
0,44298,44298,"[1,3,6]",3,0.2326498621948103,0.16433757261852003,0.2114156038355731
0,24793,24793,"[2,7]",2,0.23119750636393033,0.49359593360628035,0.6068323670998081
0,6691,6691,[4],1,0.2487211565426641,0.36568741288865797,0.5440366493035386
0,6917,6917,[5],1,0.34389624650551426,0.17246821883522637,0.7153559240282394
24,11874.5,8214.0,[0],1,0.3076690632982273,0.4119110802283838,0.7732375274785911
24,55830.0,35436.0,"[1,6]",2,0.20879768438297214,0.16046608036840895,0.1853533355912201
24,45805.5,33409.0,"[2,7]",2,0.21380398237344547,0.5111562113087756,0.5941932771370687
24,9769.5,6424.0,[4],1,0.25555848832441724,0.37066440271794454,0.5397142440605603
24,7625.5,4167.0,[5],1,0.31462236036833696,0.17482133802664393,0.7121439625193801
48,11370.25,5433.0,[0],1,0.3252307853458468,0.4002654233516622,0.7496086253301714
48,74224.5,44257.0,"[1,3,6]",3,0.21723027338636927,0.16860602582436957,0.18936253346612106
48,59461.75,36559.0,"[2,7]",2,0.23733299326642118,0.5003121707180597,0.5599173714104532
48,6376.75,1492.0,[4],1,0.2666227336580438,0.3652655370799646,0.5420976625220909
72,11213.125,5528.0,[0],1,0.3389155465260943,0.39199731094454476,0.7593933170455168
72,72138.0,36646.0,"[1,6]",2,0.2164449299111809,0.1666190894300263,0.1846872670767559
72,67787.875,38057.0,"[2,7]",2,0.24056203954309216,0.5189498427283047,0.5692680014472721
72,8225.875,5190.0,[5],1,0.34400220051041186,0.18492450534254665,0.7104170246373754
96,12495.5625,6889.0,[0],1,0.3934674618478264,0.41329419115731575,0.7678208447740584
96,63356.0,27287.0,"[1,6]",2,0.22849594759167485,0.16963306749849144,0.18940532669458882
96,75891.9375,41998.0,"[2,7]",2,0.2608508546196751,0.5375136092213405,0.5587060586870265
96,7700.125,5347.0,[3],1,0.5088115908668488,0.20756204301496245,0.3421966872157269
96,10270.9375,6158.0,[5],1,0.3945620808139552,0.17483482380035242,0.710986914054571
120,17140.78125,10893.0,[0],1,0.45635077123322165,0.4569960300563599,0.7612286740376224
120,53772.0,22094.0,"[1,6]",2,0.2452742670206789,0.166397651236005,0.19119580498113103
120,69612.96875,31667.0,"[2,7]",2,0.2788284719383087,0.558357816142534,0.551762574259758
120,18211.0625,14361.0,[3],1,0.5501245770133032,0.18409960773401704,0.27226529620244816
120,14383.46875,9248.0,[5],1,0.48038141867520934,0.16627852314548944,0.6893576021900077
144,19793.390625,11223.0,[0],1,0.49247320322857757,0.4803272711714541,0.7377146648014469
144,48910.0,22024.0,"[1,6]",2,0.26860633976588383,0.168368909419924,0.20010182765183043
144,63769.484375,28963.0,"[2,7]",2,0.3004744837529452,0.5655798443432717,0.5375131000822639
144,21418.53125,12313.0,[3],1,0.5410981769714442,0.18278120952280177,0.2586336182193333
144,19536.734375,12345.0,[5],1,0.519233629309253,0.166879479608642,0.6583022106546181
