time_in_hour,cumulative_size,size,pcore_ids,pcore_power,SCA-1,CD11b,Ly6C
-1,0,0,[],0,0.0,0.0,0.0
0,18427,18427,[0],1,202.7954631790324,389.4904216638642,552.1898844087498
0,22578,22578,[2],1,184.45730356984885,132.70506687926348,159.25095225440623
0,13194,13194,[3],1,196.4661209640773,152.12225253903352,274.7739881764435
0,6241,6241,[4],1,292.083480211502,152.0879666720081,702.1898734177181
0,7409,7409,[6],1,322.3590228100908,338.6933459306241,698.3737346470515
0,10633,10633,[8],1,219.28242264647787,490.7984576319015,657.3622684096683
24,39365.0,20938.0,[0],1,193.34972691477367,401.9007493966753,543.070544900279
24,31073.0,12763.0,"[1,3]",2,203.99642776687372,154.42451646123635,290.28671193640776
24,45092.0,22514.0,[2],1,178.56823826843146,134.1421981726241,156.95382772997306
24,10080.0,3839.0,[4],1,271.79523809523585,153.38095238095246,703.4495039682496
24,7985.0,4419.0,[5],1,200.9730745147166,262.57570444583604,492.67889793362383
24,15444.0,8035.0,[6],1,309.72999222998726,345.6748899248901,703.2277259777267
24,25833.0,15200.0,[8],1,200.24549994193558,504.9552510354998,646.5607169124755
48,66002.0,26637.0,[0],1,200.14055634678016,403.2276143147169,522.2145995575871
48,44328.0,13255.0,"[1,3]",2,210.01660350117461,156.7557751308427,290.64160350117373
48,74567.0,29475.0,[2],1,175.31104912360905,133.29574744860258,153.58886638861603
48,11413.0,1333.0,[4],1,271.9532988697074,155.12056426881645,699.9921142556708
48,9228.0,1243.0,[5],1,209.1964672735166,259.0890767230166,497.0428045080172
48,21393.0,5949.0,[6],1,315.85172720048223,336.6308138176039,696.305660730145
48,37748.0,11915.0,[8],1,216.57610999258335,507.5726661015145,638.3101356363205
72,81834.0,15832.0,[0],1,204.3941026957016,398.9393894958085,522.6450741745427
72,52706.0,8378.0,"[1,3]",2,217.07107350206746,156.68699958259023,290.9587712973871
72,103508.0,28941.0,[2],1,181.06163774780748,133.2933976117789,160.54534915175606
72,14035.0,2622.0,[4],1,275.6889205557515,157.46334164588518,701.6822230138928
72,10624.0,1396.0,[5],1,214.27306099397717,252.3806475903608,503.7563064759014
72,25999.0,4606.0,[6],1,319.54732874340925,329.582945497904,701.1895842147738
72,6640.0,1348.0,[7],1,387.20783132529743,194.63524096385575,428.282530120482
72,64625.0,26877.0,[8],1,221.51458413926468,506.5944448742695,625.9581740812112
96,93081.0,11247.0,[0],1,205.8567699100799,401.1718180939198,518.5473404883916
96,18666.0,6174.0,[1],1,286.9570341797911,172.4597664202299,320.3145826636652
96,120372.0,16864.0,[2],1,182.50262519522894,139.14076363273935,168.06799754095675
96,48885.0,8671.0,[3],1,206.25165183594044,160.32805564078947,279.871371586378
96,18766.0,4731.0,[4],1,296.66753703506,158.21485665565336,697.5039965895763
96,12020.0,1396.0,[5],1,215.1825291181381,257.2450083194675,500.80374376039657
96,32664.0,6665.0,[6],1,336.13678667645945,334.76429708547613,703.9941831986173
96,11125.0,4485.0,[7],1,427.4568988764015,189.0045842696625,422.8293932584294
96,94392.0,29767.0,[8],1,236.07398932112753,507.4009979659181,606.2332189168148
120,100185.0,7104.0,[0],1,206.77554524130548,405.53826421120806,515.5528572141562
120,28442.0,9776.0,[1],1,316.6369805217622,164.57787778637257,294.836439068983
120,133453.0,13081.0,[2],1,186.0461885457809,138.39236285433958,165.88458858174926
120,52374.0,3489.0,[3],1,205.5697101615303,158.89628441593186,279.7698476343237
120,24226.0,5460.0,[4],1,323.52934863369654,151.78457029637505,695.2654173202343
120,12940.0,920.0,[5],1,217.23261205564236,254.85131375579604,499.398763523955
120,44567.0,11903.0,[6],1,364.8792604393325,354.82852783449465,710.1240155271722
120,24873.0,13748.0,[7],1,484.93687934708356,176.06565351988067,400.4381457805653
120,118911.0,24519.0,[8],1,244.61121342852928,513.9630984517734,594.8696251818358
144,108799.0,8614.0,[0],1,209.22892673646115,409.06705943988334,511.0574545722001
144,41231.0,12789.0,[1],1,336.4794693313251,161.72496422594637,279.2213625670005
144,143696.0,10243.0,[2],1,188.0693895445947,138.6086947444614,165.1672976283279
144,56551.0,4177.0,[3],1,206.92792346731255,158.49562341956886,279.12284486569786
144,31916.0,7690.0,[4],1,352.86339140242706,148.40406065922886,683.9209174082029
144,13992.0,1052.0,[5],1,221.563178959406,252.01307890222975,498.34741280731686
144,58126.0,13559.0,[6],1,388.3495337714561,370.37645803942996,704.8593056463408
144,37132.0,12259.0,[7],1,495.7221264677379,175.38260799310572,405.06498438004985
144,138528.0,19617.0,[8],1,253.0499754562223,517.9579290829225,586.0152893277856
