time_in_hour,cumulative_size,size,pcore_ids,pcore_power,SCA-1,CD11b,Ly6C
-1,0,0,[],0,0.0,0.0,0.0
0,6788,6788,[0],1,NA,NA,NA
0,30806,30806,"[2,8]",2,220.2720898526266,NA,NA
0,39699,39699,"[6,7]",2,197.8917101186453,142.78898712813978,NA
24,8597.25,8173.0,[0],1,233.08549245398066,377.1999549274469,NA
24,39239.375,37314.0,"[2,8]",2,200.49099597024818,NA,NA
24,37840.1875,35359.0,"[6,7]",2,185.85886863008065,143.7419740586643,NA
48,8895.328125,8358.0,[0],1,310.38027510929743,391.38524128712106,708.4833857660552
48,29153.4609375,26701.0,"[2,8]",2,201.73931831099765,473.59344677398167,519.2458528321157
48,13109.8671875,12450.0,[6],1,259.1726794524391,151.8386559384245,263.14521415465356
48,29629.14453125,27924.0,[7],1,149.4286138239405,128.49408580893456,148.64295145418023
72,40310.09130859375,38488.0,[28],2,218.81105133135108,NA,NA
72,39639.188232421875,36968.0,[67],2,NA,147.37412429001728,NA
96,46452.38070678711,43933.0,"[2,8]",2,254.2371383654486,NA,NA
96,9542.960418701172,9013.0,[6],1,NA,168.82633511592317,NA
96,21434.488845825195,19487.0,[7],1,NA,145.05990343653403,NA
120,8292.355304718018,7973.0,[0],1,NA,NA,NA
120,13378.435026168823,12782.0,[6],1,NA,155.11791443046926,NA
120,18773.655552864075,17434.0,[7],1,NA,140.87428512201515,NA
120,30042.668305397034,27707.0,[8],1,NA,NA,541.4872458350508
144,8780.272206544876,8262.0,[0],1,NA,NA,NA
144,6785.211573064327,6511.0,[1],1,NA,NA,NA
144,33305.51711213589,31041.0,"[2,8]",2,NA,NA,NA
144,12483.304868280888,11865.0,"[3,5]",2,NA,NA,NA
144,11485.152189135551,10649.0,[6],1,NA,NA,239.91806764962607
144,17760.353472054005,16587.0,[7],1,NA,149.0164222089085,NA
