time_in_hour,cumulative_size,size,pcore_ids,pcore_power,SCA-1,CD11b,Ly6C
-1,0,0,[],0,0.0,0.0,0.0
0,17143,17143,"[0,4,12,17]",4,0.23349491750490228,0.4882413781544286,0.5939182875035056
0,42537,42537,"[1,3,6,8,13]",5,0.2198139465100192,0.1614664028984297,0.2343755440370443
0,4506,4506,[2],1,0.28799677832802184,0.6009872708686064,0.7129820471986374
0,4080,4080,[10],1,0.38665482485128416,0.3753232854227665,0.7155091379536227
0,12108,12108,"[4,14,18]",3,0.21738139515892668,0.4163698470926076,0.5348001063921364
24,26452.75,22167.0,"[0,4,12,17]",4,0.21472284853033205,0.5114117607716072,0.5761482648633136
24,47226.25,36592.0,"[1,3,6,8,13]",5,0.2086874354834461,0.16063039419488445,0.22010135896898245
24,7368.5,6242.0,[2],1,0.24467441500526482,0.6126864401081158,0.6875678280793462
24,3849.0,2829.0,[10],1,0.3704695660042977,0.38600420982590467,0.7251887222608946
24,17820.0,14793.0,"[4,14,18]",3,0.206815785823279,0.42974546559105414,0.5262966993618439
24,4149.75,3566.0,[15],1,0.37162621817612734,0.38237004682449643,0.5840281923227447
24,5019.5,4410.0,[16],1,0.20241541135638622,0.43291936335170633,0.8084300848073377
48,4848.5625,3788.0,[1],1,0.2584250399711594,0.1970486832612429,0.29359234519289223
48,6311.125,4469.0,[2],1,0.28777567746984856,0.6212405009325539,0.6673491604005916
48,41051.4375,32268.0,"[3,8]",2,0.1769091298466419,0.1497300907867339,0.13766200185181673
48,13949.4375,10613.0,"[4,18]",2,0.19485961009160632,0.4669487982524796,0.4872085848868803
48,3685.5625,2816.0,[6],1,0.301911268937533,0.1971209621682505,0.7377126844156269
48,5544.25,4582.0,[10],1,0.3829614065184388,0.4097766641767577,0.7458916408811751
48,5950.0,4857.0,[13],1,0.3624920923425507,0.16743095032130528,0.20711688907188672
48,5826.5625,4708.0,[14],1,0.23417594860808585,0.39571584584078084,0.43247845544552116
48,4190.4375,3153.0,[15],1,0.4176031973545909,0.3883288092563148,0.5579198788949127
48,14956.5625,11293.0,[17],1,0.2088922345115049,0.5724647241573724,0.5379831694314826
72,3465.75,2963.0,[0],1,0.29444565175104287,0.47667779324370996,0.6033356945720992
72,6147.140625,4935.0,[1],1,0.28791065191341453,0.18927757528806347,0.28065141532245863
72,13081.78125,11504.0,[2],1,0.27362944562798136,0.612038414480902,0.6314518999467317
72,38649.859375,28387.0,"[3,8]",2,0.19120787723988034,0.15697013899101472,0.16233939669142267
72,11066.359375,7579.0,"[4,18]",2,0.20768301917396165,0.44648817362059,0.5074343755283275
72,3754.390625,2833.0,[6],1,0.31749601321186927,0.20397200009091937,0.7594098785730372
72,3850.0625,2464.0,[10],1,0.40517524522164444,0.4075020066004985,0.7486001993430744
72,4491.5,3004.0,[13],1,0.40471107566476605,0.17821756029992342,0.1972995669622924
72,3071.640625,1615.0,[14],1,0.24451818737527609,0.38009834093619216,0.4326102272018551
72,3368.96875,2701.0,[16],1,0.25304307333235804,0.3894627484334234,0.8040542032725619
72,18439.140625,14700.0,[17],1,0.21348553492359829,0.5539885341899838,0.5568510159277725
96,4750.4375,3884.0,[0],1,0.3208550581828408,0.5012534698518784,0.5803373340540112
96,7317.78515625,5781.0,[1],1,0.3054305019881499,0.1850365475664292,0.27740713693836655
96,38022.23046875,30142.0,"[2,17]",2,0.27189913207964517,0.5849070528165615,0.571879750624628
96,27213.46484375,17551.0,"[3,8]",2,0.1989086002736761,0.16105362077078106,0.16231454005972565
96,9429.58984375,6663.0,"[4,18]",2,0.2249869231724328,0.4596025884158031,0.4940116412433341
96,10095.47265625,8034.0,"[6,13]",2,0.4103243733201299,0.18071194582927255,0.4320744394770576
96,6428.515625,5466.0,[10],1,0.4390242142785406,0.4392944110209607,0.7785802204652104
96,3518.91015625,2751.0,[14],1,0.25540099863487176,0.38176224252308855,0.43566485283490625
120,24676.470703125,17976.0,"[0,2]",2,0.3297402239466008,0.5996320146787122,0.5741111482864182
120,8064.4462890625,6235.0,[1],1,0.33689226760550856,0.16887974899807648,0.26638030941806884
120,20128.3662109375,13325.0,"[3,8]",2,0.2123557854455333,0.1561492436571045,0.15724388691403712
120,17921.7646484375,12445.0,"[4,17]",2,0.2525297981741466,0.5557568432172194,0.5211348386949096
120,6106.3154296875,5574.0,[5],1,0.5996325969396297,0.18570202815930795,0.3008644405595953
120,12700.8681640625,10177.0,"[6,13]",2,0.47102062926876986,0.16854090001781286,0.33069745688081925
120,5794.064453125,5215.0,[9],1,0.6306965888686585,0.14715703016424866,0.6370639456526564
120,8134.12890625,6527.0,[10],1,0.5030864000399516,0.5111684402899068,0.772970870622575
120,3454.76953125,2904.0,[11],1,0.4084634235215773,0.21352707402595014,0.3963826755641526
120,2839.060546875,2543.0,[16],1,0.3713660168908423,0.3841453206553364,0.7878501256456661
144,4570.40234375,3558.0,[0],1,0.38124891471930283,0.5229201945910245,0.5687063106189082
144,9397.111572265625,7381.0,[1],1,0.36242382483559665,0.16846549084653725,0.26952579909856067
144,16521.71533203125,11365.0,[2],1,0.35544649220729174,0.6299114480121625,0.5601006995352206
144,17136.091552734375,12104.0,"[3,8]",2,0.2329109662768089,0.15787175231643275,0.15822909268627935
144,16661.441162109375,12181.0,"[4,17]",2,0.28632475775833915,0.5498907566827905,0.5047238869378916
144,5246.578857421875,3720.0,[5],1,0.5966871565384779,0.18593803509576698,0.30759324670839666
144,12569.217041015625,9394.0,"[6,13]",2,0.4781618198973029,0.17181314044699622,0.3157662765512173
144,3895.5546875,3286.0,[7],1,0.4293462617923109,0.1405887716353571,0.5570337719140493
144,7512.51611328125,6064.0,[9],1,0.6113460704804662,0.1488690382780513,0.635640652230574
144,8054.5322265625,6021.0,[10],1,0.5370951596827062,0.5410079206654358,0.748029700245433
144,5171.6923828125,4308.0,[11],1,0.4557413683606705,0.22359358255055134,0.39760987255697866
144,3031.7509765625,2558.0,[12],1,0.4790426089446115,0.3657665948751573,0.6445523205040082
144,3870.76513671875,3161.0,[16],1,0.4301575457863976,0.40668594085744664,0.7460442436582406
