time_in_hour,cumulative_size,size,pcore_ids,pcore_power,SCA-1,CD11b,Ly6C
-1,0,0,[],0,0.0,0.0,0.0
0,20672,20672,"[0,8]",2,0.18401126639301776,0.14298359071837854,0.22466737874671594
0,9320,9320,"[1,11]",2,0.22124089791194504,0.5927203697589952,0.6405176739917987
0,14027,14027,"[3,13]",2,0.19820682904478998,0.45366982938850764,0.5654190939109944
0,6913,6913,[4],1,0.40516873436628525,0.16262396311493968,0.25486970257450436
0,4025,4025,[5],1,0.239063437783516,0.3467238132711289,0.8264870173885388
0,4849,4849,[6],1,0.22370788834023564,0.3503992519799292,0.39996904282149426
0,5661,5661,[7],1,0.42780983230420744,0.39288503302344147,0.6078527761352323
0,25421,25421,"[8,9]",2,0.1689421158919778,0.137836525222938,0.13801953718533538
0,3709,3709,[10],1,0.3681091544709021,0.5266479115859806,0.8108570557021035
0,5271,5271,[12],1,0.26065134859171984,0.14836237896936263,0.6917414655726446
24,28873.0,18537.0,"[0,8]",2,0.18218447544594074,0.14392231120433385,0.2232175550758836
24,18732.0,14072.0,"[1,11]",2,0.20553961016058736,0.6066889070219309,0.6277045711470248
24,23691.5,16678.0,"[3,13]",2,0.18693140549389034,0.4637188261670118,0.5516874362249282
24,6854.5,3398.0,[4],1,0.41286475463916017,0.16324117755980913,0.2468725128307269
24,7174.5,5162.0,[5],1,0.21952271661259826,0.35583840960112406,0.8204602386483529
24,7292.5,4868.0,[6],1,0.21647837357913746,0.3577994189157952,0.3959122966283956
24,9201.5,6371.0,[7],1,0.41869468033728385,0.38859073488657514,0.5979569395761561
24,35619.5,22909.0,"[8,9]",2,0.16547114468766758,0.1384317077070057,0.13138651718855562
24,5630.5,3776.0,[10],1,0.337051911289733,0.5234427393466657,0.8015397565241313
24,6434.5,3799.0,[12],1,0.24685338252974465,0.1494543518764972,0.6840779131010274
48,35540.5,21104.0,"[0,8]",2,0.18011224415760238,0.14988550917724952,0.21567199332710071
48,15565.25,9490.0,[1],1,0.2527667598650045,0.6221100256612031,0.5734695086482857
48,27473.75,15628.0,"[3,13]",2,0.19358016410966708,0.4801774379863642,0.5234668727620229
48,7809.25,4382.0,[4],1,0.41737204474813805,0.1759217264246175,0.23351843542860398
48,6454.25,2867.0,[5],1,0.25857446077904317,0.34973000883174027,0.7985185776917239
48,10236.25,6590.0,[6],1,0.2170765661252914,0.381007576105016,0.38404122429430865
48,9588.75,4988.0,[7],1,0.42195146172875747,0.39270626694767996,0.5891734380402984
48,45104.75,27295.0,"[8,9]",2,0.16234105117731612,0.14340687322639845,0.12322014934525441
48,7010.25,4195.0,[10],1,0.3502019715112152,0.5062209327937865,0.7820867852664659
48,4033.75,743.0,[11],1,0.13675581383203317,0.5814326798632029,0.6786142534834505
48,6474.25,3257.0,[12],1,0.2632682281102352,0.15805242732390762,0.6704965267150069
72,38337.25,20567.0,"[0,8]",2,0.185204660207779,0.15047734474542696,0.21706649073228276
72,28356.5,18557.0,"[1,11]",2,0.22852998549566717,0.6205994192557859,0.5971452272268252
72,4754.625,3277.0,[2],1,0.5259383161221199,0.15084428391169938,0.6525953542011887
72,26649.875,12913.0,"[3,13]",2,0.19470399312010886,0.48640981417760404,0.52707507883592
72,10018.625,6114.0,[4],1,0.4605714413085365,0.1931852151611968,0.2228856688715714
72,7659.125,4432.0,[5],1,0.26307202780262967,0.33758999206355667,0.8147881162900978
72,8184.125,3066.0,[6],1,0.21657689926905435,0.37237556319198295,0.3898886284990662
72,8024.375,3230.0,[7],1,0.4408226339865038,0.4059874836955691,0.5834710014083969
72,43390.375,20838.0,"[8,9]",2,0.16118007517783786,0.14372141263630495,0.12583498720282352
72,7366.125,3861.0,[10],1,0.3645339726095781,0.5126488206645468,0.7852208128909486
72,6898.125,3661.0,[12],1,0.2671207267078141,0.15400124714196597,0.6841770735527614
96,34382.625,15214.0,"[0,8]",2,0.20080555369352648,0.15156918668522068,0.2220914710402887
96,50417.9375,30508.0,"[1,11,13]",3,0.25853177421765067,0.5847816102784326,0.5711435402359435
96,6123.3125,3746.0,[2],1,0.5476540372221336,0.15039898331948753,0.6579155358856767
96,12893.25,5300.0,[3],1,0.15276159221891003,0.5090316285407728,0.5053263149771421
96,12185.3125,7176.0,[4],1,0.4776549118438707,0.19338892825989276,0.21589617164453603
96,6940.5625,3111.0,[5],1,0.3194965255240563,0.32404978862822253,0.8147913837509982
96,8420.0625,4328.0,[6],1,0.2226015830135519,0.36646288705053326,0.39090099081118485
96,7791.1875,3779.0,[7],1,0.4585458884646234,0.42713035187139653,0.5761730026237644
96,34961.1875,13266.0,"[8,9]",2,0.1673820332583539,0.14411461849027266,0.12311161744025961
96,9535.0625,5852.0,[10],1,0.41552107099690455,0.5202270104494344,0.7872978086139675
96,6876.0625,3427.0,[12],1,0.2979114361590475,0.14896856540928638,0.6784247334280203
120,18374.0,9258.0,[0],1,0.28306659737195633,0.1487863123464835,0.24956234645316805
120,44619.5,22618.0,"[1,13]",2,0.29364941636340175,0.5942925439268525,0.5552347683185271
120,10798.65625,7737.0,[2],1,0.5942274178217393,0.15095889779733504,0.6314593585400365
120,15333.09375,5679.0,"[3,11]",2,0.15789766439087402,0.5562838408689639,0.5359731370052209
120,20036.65625,13944.0,[4],1,0.5241293463593462,0.17860037393427372,0.20931293218546457
120,6947.28125,3477.0,[5],1,0.3548920574933847,0.3243743946434976,0.8049534326474859
120,6039.03125,1829.0,[6],1,0.2365345263062541,0.36874884813813413,0.3809934287325243
120,8407.59375,4512.0,[7],1,0.49004222081036075,0.44586132617566937,0.5619168873469829
120,27509.59375,10029.0,"[8,9]",2,0.18035420942206684,0.14174663546906258,0.11857335870752014
120,12711.53125,7944.0,[10],1,0.47145405471415236,0.5356393089526189,0.7874526208849879
120,6411.03125,2973.0,[12],1,0.3239335213614445,0.1442584193812045,0.6677521585090667
144,18968.0,9781.0,[0],1,0.3027933040833959,0.14860694582242356,0.25015392766911987
144,43627.75,21318.0,"[1,13]",2,0.3127716326146392,0.5975598106153454,0.540846250315814
144,14943.328125,9544.0,[2],1,0.5954586039763542,0.15411217469614702,0.6207734766716527
144,11680.546875,4014.0,"[3,11]",2,0.16714841544484096,0.5604450281673926,0.5191484104550553
144,22703.328125,12685.0,[4],1,0.5276353474477686,0.17710406984459393,0.21662832300037943
144,6525.640625,3052.0,[5],1,0.3859854448940804,0.332141053487222,0.7764443998319155
144,5589.515625,2570.0,[6],1,0.26010224110078106,0.3752457132512498,0.36604588157933104
144,9627.796875,5424.0,[7],1,0.5116780507984202,0.45066864752139574,0.547940466465047
144,22720.796875,8966.0,"[8,9]",2,0.1961345499225919,0.14243441133324622,0.11586557764402071
144,14965.765625,8610.0,[10],1,0.504934866503194,0.5430101030590692,0.7699619652770021
144,7241.515625,4036.0,[12],1,0.3592740395318721,0.14687395474324233,0.6402133116065559
