time_in_hour,cumulative_size,size,pcore_ids,pcore_power,SCA-1,CD11b,Ly6C
-1,0,0,[],0,0.0,0.0,0.0
0,4628,4628,[0],1,266.21218668971335,117.87013828867732,282.5105877268794
0,5522,5522,[1],1,260.11264034769886,501.2468308583855,750.1477725461783
0,9514,9514,"[2,5]",2,235.6362203069157,120.70433046037411,NA
0,11820,11820,[3],1,188.06023688663402,492.7347715736072,575.2390862944154
0,4183,4183,[4],1,234.81902940473321,272.99139373655265,315.28998326559883
0,7684,7684,[6],1,123.84968766267943,123.48204060385201,105.82717334721534
0,16389,16389,"[8,13]",2,151.764476173045,122.73201537616693,231.8789431936061
0,4720,4720,[9],1,256.6235169491518,304.2730932203398,768.2241525423717
0,10426,10426,[12],1,162.79647036255747,362.5094954920396,530.640705927487
0,6273,6273,[14],1,374.31866730431335,363.89988841064826,584.5008767734723
24,4916.25,4627.0,[0],1,254.62799389778655,133.50174167302347,291.4931477243846
24,6142.125,5797.0,[1],1,238.03966461118793,509.6781346032523,727.8413822577681
24,16460.4375,15305.0,"[2,5,8]",3,208.5951960572129,121.68614139204982,NA
24,16250.75,15512.0,[3],1,170.80888574373728,522.087153669826,562.7826331092409
24,8497.25,8017.0,[6],1,123.46039159728566,120.24622672040918,101.57339139133268
24,6087.0,5792.0,[9],1,198.79331977986016,339.195591013635,775.913278298012
24,13603.625,12952.0,[12],1,157.48436538055356,379.470857951465,519.1451359472196
24,7191.5,6728.0,[13],1,102.62994507405014,132.09450392824843,242.54083814225092
24,7572.0625,7180.0,[14],1,361.9583584393225,352.098321956533,580.0136851749419
48,6012.265625,5705.0,[0],1,259.9606416570274,163.71590303676047,291.04532856010496
48,4324.8828125,3941.0,[1],1,293.1566913843374,513.0406468744633,689.8685874797918
48,9132.9140625,8607.0,"[2,5]",2,256.3745668354402,135.7958880696794,NA
48,13805.671875,12790.0,[3],1,199.5573128345135,526.3449185287309,526.552822492565
48,10360.078125,9829.0,[6],1,119.39129206917033,127.54258459078912,95.45549698738425
48,9766.86328125,9264.0,[8],1,188.0369441154873,117.28399758910562,205.22967007783527
48,5357.4375,4977.0,[9],1,286.460725597589,344.1389139222349,735.7105907091782
48,14297.2265625,13447.0,[12],1,170.42056233590185,402.47079935193017,476.3935127278285
48,8163.46875,7714.0,[13],1,96.50235423820756,142.21091390378638,231.67180340388347
48,5568.25390625,5095.0,[14],1,370.4786530505964,360.3303549067571,559.6603162599355
72,6165.7666015625,5790.0,[0],1,270.58801194853214,157.5721287049128,299.68684081317855
72,6002.30517578125,5732.0,[1],1,288.0391316942746,555.5641448707725,651.1006913766265
72,8842.80712890625,8272.0,"[2,5]",2,252.56679218063587,141.39200852851505,NA
72,19033.8544921875,18171.0,[3],1,184.2920951858665,532.3897522465477,558.3411637734088
72,7413.5048828125,6766.0,[6],1,124.09156790507078,125.13763205847006,96.96383987784142
72,9700.428955078125,9090.0,[8],1,190.64148646173132,115.86287094111773,210.40792551634263
72,5571.83984375,5237.0,[9],1,268.402629389485,358.2295033847658,784.3151170506565
72,4010.36669921875,3872.0,[11],1,484.6879749881622,191.98698989471987,233.2883000003285
72,10826.57666015625,9933.0,[12],1,165.5384608793067,404.39444989180345,499.92969097448076
72,7662.216796875,7152.0,[13],1,102.17671240908341,141.94095857692514,235.1516399527918
72,4020.015869140625,3672.0,[14],1,403.3303606799065,388.6506253953227,577.2538584238966
96,6406.360412597656,6021.0,[0],1,297.49963866857036,153.8967521391514,299.90670534984656
96,9442.144073486328,9067.0,[1],1,306.6274090560695,565.3406212450242,604.0172148641003
96,9279.67544555664,8727.0,"[2,5]",2,314.942314690608,139.8320338814185,NA
96,20680.61590576172,19491.0,[3],1,211.47570399587684,528.6902656651922,538.7898784079241
96,5091.344055175781,4628.0,[6],1,135.9012635539472,124.67489350828288,93.88672491863471
96,7076.276809692383,6470.0,[8],1,202.86565249126295,115.51794732455026,216.8323098545866
96,5979.239990234375,5631.0,[9],1,375.0332036680044,390.4611359593308,783.9797192215805
96,4132.647918701172,3882.0,[11],1,495.08791273787153,186.09210234307014,230.7005691285835
96,9904.661041259766,9228.0,[12],1,185.72835755247368,412.0589238280857,492.4374418199277
96,4648.8885498046875,4170.0,[13],1,103.94748173726575,150.6017819765126,242.05708865368763
96,4712.250991821289,4461.0,[14],1,419.97660069196485,426.22196028787164,591.7538368184239
120,6488.3975257873535,6088.0,[0],1,332.24769454672065,144.33423276875806,302.172746814122
120,11645.134004592896,11055.0,[1],1,323.9822108819122,555.0360968130674,564.1259340819779
120,9583.97971534729,9004.0,"[2,5]",2,355.72374475768527,146.0073773910604,NA
120,15423.538494110107,14131.0,[3],1,220.80260565914875,536.0744891965601,522.1687397580438
120,4258.209003448486,3940.0,[6],1,163.53471731400498,121.46906673660985,91.53980015018692
120,5936.911170005798,5767.0,[7],1,579.7660253065118,138.78531474099117,604.8305014961682
120,6770.267300605774,6328.0,[8],1,225.0331895133034,115.15524810445646,217.53673451441574
120,8455.702499389648,8082.0,[9],1,401.5631871875702,422.54257439644084,754.7375491278904
120,3972.154232978821,3807.0,[10],1,381.1270695003198,150.6832140594587,492.6687369028546
120,9005.290494918823,8747.0,[11],1,531.2560993683487,158.75887868596408,231.794273083813
120,4798.041315078735,4179.0,[12],1,190.61143217598473,438.7420532375962,488.7167424359161
120,4182.515686988831,3888.0,[14],1,517.1396496612375,485.516661601785,636.2729961916264
144,7182.52484536171,6777.0,[0],1,350.63724096675446,152.09430401475134,302.947585044482
144,11361.820875287056,10634.0,[1],1,345.3706108707049,560.3228503316399,543.4055596268729
144,10471.998732209206,9873.0,"[2,5]",2,382.1509316858243,151.738008625142,NA
144,9307.971155881882,8344.0,[3],1,230.45702517497185,545.9980762594095,509.8325428985832
144,4190.13806271553,3924.0,[6],1,189.38989622179426,122.51256030653508,95.02675547050828
144,6593.056948125362,6222.0,[7],1,563.9587586201975,139.22619849255338,627.4320990348074
144,6727.141706287861,6304.0,[8],1,246.32020553888938,116.19184228575443,221.74779871641533
144,9287.481406211853,8759.0,[9],1,409.9084037251984,423.8760457994955,706.5903525679994
144,6235.259639561176,5987.0,[10],1,428.00791357085717,155.45023245873014,478.98097844996175
144,6361.830655932426,5799.0,[11],1,534.4444709016391,163.40443813236874,255.69054109358888
144,8151.877582192421,7852.0,[12],1,233.89790587438594,445.0916821981018,464.02526987915167
144,4042.407230436802,3781.0,[14],1,576.747692813494,513.8311029628263,676.591992301735
