time_in_hour,cumulative_size,size,pcore_ids,pcore_power,SCA-1,CD11b,Ly6C
-1,0,0,[],0,0.0,0.0,0.0
0,6788,6788,[0],1,274.5698291101925,359.2511785503818,733.8031820860319
0,30806,30806,"[2,8]",2,220.2720898526266,412.1689605920925,575.4162176199453
0,4985,4985,[5],1,325.009428284852,160.3687061183553,694.0876629889672
0,39699,39699,"[6,7]",2,197.8917101186453,142.78898712813978,217.74566109977454
24,8597.25,8173.0,[0],1,233.08549245398066,377.1999549274469,733.6284276949024
24,39239.375,37314.0,"[2,8]",2,200.49099597024818,438.54033894525435,564.1748116528339
24,37840.1875,35359.0,"[6,7]",2,185.85886863008065,143.7419740586643,210.46546908627172
48,8895.328125,8358.0,[0],1,310.38027510929743,391.38524128712106,708.4833857660552
48,19033.734375,17847.0,"[1,2]",2,189.99419020834108,389.61579687052404,457.1553251669108
48,5240.09765625,5096.0,[5],1,288.19354064399477,164.19442177022913,660.9098403610961
48,13109.8671875,12450.0,[6],1,259.1726794524391,151.8386559384245,263.14521415465356
48,29629.14453125,27924.0,[7],1,149.4286138239405,128.49408580893456,148.64295145418023
48,29153.4609375,26701.0,"[2,8]",2,201.73931831099765,473.59344677398167,519.2458528321157
72,7645.914306640625,7080.0,[04],2,304.21053999395957,307.27473734073084,726.0526474754748
72,40310.09130859375,38488.0,[28],2,218.81105133135108,467.95943374983915,559.9399957364176
72,39639.188232421875,36968.0,[67],2,208.03157065920465,147.37412429001728,213.61094970338397
96,5109.684875488281,4808.0,[0],1,376.91894351494824,382.1854297331712,718.9071029319389
96,46452.38070678711,43933.0,"[2,8]",2,254.2371383654486,478.85862103292243,540.3974702753752
96,9542.960418701172,9013.0,[6],1,337.4944016449114,168.82633511592317,280.11989695121076
96,21434.488845825195,19487.0,[7],1,201.76632045693128,145.05990343653403,190.19754706841962
120,8292.355304718018,7973.0,[0],1,444.9213677519396,442.11901319343065,706.2877290832564
120,36232.273794174194,33329.0,"[2,8]",2,275.9791747580028,502.3094545196771,534.6334851610432
120,6055.137634277344,5927.0,[3],1,544.3574343348364,154.35424447212196,537.1222025344002
120,5043.011548042297,4776.0,[4],1,401.0374511498026,262.1847699276389,725.524758518148
120,13378.435026168823,12782.0,[6],1,460.4031390987616,155.11791443046926,233.9592270655026
120,18773.655552864075,17434.0,[7],1,224.27424215412054,140.87428512201515,194.47268486367562
144,8780.272206544876,8262.0,[0],1,461.39951970782363,444.79099333755227,676.5516102541311
144,6785.211573064327,6511.0,[1],1,368.47114232917755,200.21949929571505,377.8993784574355
144,33305.51711213589,31041.0,"[2,8]",2,301.70951947691134,496.9121572148501,517.6735619452531
144,12483.304868280888,11865.0,"[3,5]",2,476.97562617346455,145.69196496039163,569.2145626178742
144,5400.188221752644,5085.0,[4],1,433.89992808873524,284.16982675208897,674.1616604788045
144,11485.152189135551,10649.0,[6],1,447.88985012391663,156.81892186234404,239.91806764962607
144,17760.353472054005,16587.0,[7],1,245.47039379501817,149.0164222089085,202.01457170601648
