time_in_hour,cumulative_size,size,pcore_ids,pcore_power,SCA-1,CD11b,Ly6C
-1,0,0,[],0,0.0,0.0,0.0
0,27323,27323,"[0,2,5]",3,242.06437799655947,392.6936280789074,646.6660322804973
0,44947,44947,"[1,3,6]",3,205.61492424411185,153.1746946403543,244.19358355396304
0,30346,30346,"[2,7]",2,221.68256112832063,402.25766163580084,571.0958281157327
24,35904.375,32489.0,"[0,2,5]",3,209.9163019826979,427.3472522498979,629.517906940309
24,43944.375,38326.0,"[1,3,6]",3,191.50231969393363,155.80546713885414,234.6541081765289
24,41523.25,37730.0,"[2,7]",2,202.83003799076573,428.27064054475363,557.6359328809752
48,13484.890625,11868.0,[05],2,305.15390257382626,353.7909245648764,700.2646156056604
48,45977.796875,40907.0,[16],2,183.80674197702413,138.45063463037036,186.9000604571696
48,34424.40625,29234.0,[27],2,195.84007485604945,461.33157661579156,510.3160502949843
72,12223.611328125,10538.0,"[0,5]",2,324.5240517319723,288.66010997223026,710.0951376602244
72,44438.05078125,40135.0,"[2,7]",2,213.5124430595589,465.2214450840577,558.116736510204
72,37199.3203125,33047.0,[6],1,191.1093470184841,133.96668312152036,188.12329605106575
96,36921.719482421875,31374.0,"[1,3,6]",3,245.51999953872075,161.6056226048822,237.37582380316096
96,52403.75634765625,46849.0,"[2,7]",2,254.14211740919043,466.0629977194137,539.2296173846034
120,9905.74185180664,9166.0,[0],1,425.96994505851353,401.7686767338956,707.5218363444445
120,13685.701629638672,12519.0,[1],1,447.090358442435,157.09234245605074,247.9284981549379
120,41033.46954345703,34483.0,"[2,7]",2,280.44728675968133,493.564782535498,535.5000790838889
120,6466.197570800781,6136.0,[4],1,519.6621483750671,141.97646201941,557.2717820393003
120,21818.989379882812,18636.0,[6],1,231.43057592789248,146.0230137771687,202.26975072490362
144,10810.21773147583,9572.0,[0],1,444.76084186981615,410.27389176165923,671.7479021744576
144,19581.40319442749,17321.0,"[1,3]",2,419.48293770091084,180.24901494475137,304.4115597262752
144,37122.18369293213,31993.0,"[2,7]",2,308.01180082926453,491.59964793400167,522.7140847561559
144,15365.915580749512,13864.0,"[4,5]",2,462.98381865892844,164.23437237461135,593.3803873296685
144,19977.37367248535,17250.0,[6],1,253.93181020489493,152.49979167926338,208.3199353976707
