time_in_hour,cumulative_size,size,pcore_ids,pcore_power,SCA-1,CD11b,Ly6C
-1,0,0,[],0,0.0,0.0,0.0
0,26065,26065,"[1,8,10,12]",4,207.22052560905578,153.01987339343967,275.3485516976778
0,6319,6319,[2],1,233.61449596455185,510.9061560373475,666.1938597879385
0,16114,16114,[3],1,185.11797194985823,128.46667494104523,139.0192379297497
0,15045,15045,"[4,14,16,17]",4,204.83044200731212,366.0603522765034,537.4814888667333
0,3879,3879,[6],1,252.35163701985016,334.92111368909656,765.1247744263975
0,3627,3627,[9],1,339.96333057623076,141.49159084642992,708.8345740281238
0,3578,3578,[13],1,341.8650083845687,347.5735047512577,633.4276131917263
0,7994,7994,[15],1,199.10195146360016,439.5816862646983,592.3333750312729
24,20521.125,17263.0,"[1,8,10,12]",4,197.2184456261546,154.5806029152888,284.04344303735706
24,10662.875,9873.0,[2],1,198.60471495727177,525.8386692144467,635.5618794180749
24,20882.25,18868.0,[3],1,176.01771241126065,131.54291323971236,144.22820816722327
24,16471.625,14591.0,"[4,14,16,17]",4,195.99579580035476,371.9101940458206,523.6755405128526
24,6154.875,5670.0,[6],1,215.6498710371861,357.8400658014989,760.4253335770416
24,3549.25,3102.0,[13],1,323.96819750651116,351.90991054448136,621.4660843840236
24,13772.25,12773.0,[15],1,185.5920147397876,454.67036976528993,554.8919838806285
48,4174.0,3798.0,[1],1,247.33264704120685,204.09406070316194,296.02538781744136
48,6771.859375,5439.0,[2],1,239.35289652260312,555.4642811820061,609.3315559103734
48,37986.140625,33668.0,"[3,8]",2,159.97087301166468,131.30349309143642,169.84394925287282
48,9137.0,8407.0,[4],1,190.39561159297455,406.4604578225888,424.892996880814
48,4391.359375,3622.0,[6],1,283.0406586798614,401.07457827338516,751.556426505176
48,2861.34375,2567.0,[7],1,243.14087022050475,133.80147002610215,604.7064917051654
48,3316.28125,3080.0,[11],1,304.06082208045143,280.9640363358808,706.5089237756894
48,3696.125,3470.0,[12],1,347.12260729141605,136.88077040143398,220.3159558997606
48,4571.65625,4128.0,[13],1,373.62531700080757,374.04409643660404,592.882571278189
48,11984.53125,10263.0,[15],1,182.30996336423453,499.1786599913974,510.6730303385855
48,3365.0,2958.0,[17],1,129.6386329866291,385.2800334323917,510.3122028231794
72,4081.75,3560.0,[1],1,310.99719693605556,176.90012278357878,310.3421929549216
72,11745.482421875,10899.0,[2],1,264.4260072065582,535.1533912556454,623.1907884464249
72,36728.267578125,31980.0,"[3,8]",2,182.65670972625298,134.82223490687736,194.0816702670629
72,3820.125,2678.0,[4],1,220.00394958034863,362.87703946614954,435.08835811982493
72,3205.53515625,2791.0,[11],1,314.2548283791311,225.13447381665242,722.9272724060087
72,20346.06640625,18848.0,[15],1,184.34317261878851,480.8849821823291,545.8833117696056
72,4314.78125,3979.0,[16],1,278.21850262180044,399.47042506500145,562.2363966887067
72,3795.625,3375.0,[17],1,141.5114111641697,355.7620718755144,556.8814280421557
96,4812.21875,4302.0,[1],1,299.8931835910838,174.43092326621303,313.99516195345745
96,38628.443603515625,34617.0,"[2,15]",2,249.91681726772546,504.4652398222092,551.5101006651374
96,15983.05126953125,13356.0,[3],1,189.35753848322662,139.22399793066862,160.19383735010538
96,6855.96875,5904.0,"[4,17]",2,210.49787526180484,371.30301725144864,468.19767418672615
96,3893.614990234375,3581.0,[6],1,374.9559755376207,363.61456045921625,760.4980960603368
96,9726.982177734375,7763.0,[8],1,208.7353282623181,160.38911807495086,272.8928742507313
96,3081.69189453125,2681.0,[11],1,364.813356112558,237.76016029965308,735.3947688314861
96,4300.251953125,3970.0,[12],1,420.12067623898906,158.21331848742506,202.88007220688854
96,16132.60595703125,13050.0,"[15,16]",2,236.02174449751666,456.2507247595825,529.5467557741415
120,3532.3783264160156,3282.0,[0],1,472.4776902426599,518.0232776320194,707.1522352600059
120,5864.52734375,5263.0,[1],1,334.17287281008754,154.17013459810164,301.3705235092438
120,32216.555450439453,27388.0,"[2,15]",2,272.013754656535,518.82633477108,537.9822225005324
120,12630.881408691406,10633.0,[3],1,206.16565237793722,134.97965675904518,157.19578271572226
120,4068.7904052734375,3869.0,[5],1,525.6910785316214,154.09679246356865,444.39850257703426
120,5687.701873779297,5201.0,[6],1,407.5617582147611,386.7792188705515,738.866231321257
120,2846.7760620117188,2554.0,[7],1,356.3517735002024,127.85987987242032,616.4139807638159
120,6751.872772216797,5536.0,[8],1,223.80984553678928,154.02922962450023,272.0303058865869
120,3958.9185485839844,3708.0,[9],1,557.1741547827158,124.76511929854983,656.6201744628476
120,2842.6858520507812,2649.0,[10],1,403.98412081787257,214.73982049000358,379.72069752020207
120,3342.2114868164062,2957.0,[11],1,378.685579985295,252.85950580576213,729.4985735989463
120,9759.531494140625,9222.0,[12],1,479.25498243704413,147.4510986868034,195.52695019124556
144,3825.547290802002,3384.0,[0],1,508.87418089737474,521.2296759747458,697.1138901029105
144,6761.06591796875,6028.0,[1],1,352.9283359632789,156.55961413263879,299.4735569851287
144,24905.06943130493,20878.0,"[2,15]",2,303.410889783485,525.6980996991571,527.8711147174067
144,11352.860176086426,9774.0,[3],1,221.81324346095295,140.21347748047492,163.60874108984945
144,4299.59880065918,3791.0,[5],1,497.587786965246,153.4690733775522,439.34483960126926
144,6403.962734222412,5693.0,[6],1,429.0239240935311,395.0387777039118,696.8173521994437
144,4235.847007751465,3880.0,[7],1,407.89001801651926,128.7739039360666,583.49087350607
144,6357.9840965271,5514.0,[8],1,253.43189379152045,155.67893929524868,272.76008017839285
144,5232.864818572998,4738.0,[9],1,536.1632651128241,132.51400373744286,635.0724390417524
144,3547.3357315063477,3192.0,[10],1,423.6413203690792,232.23365183073116,373.9582132131963
144,3432.776435852051,3015.0,[11],1,413.33303768226074,262.63835118731305,689.6806006097158
144,8574.941436767578,7355.0,[12],1,464.2018888647694,147.03583860978668,201.20830460079318
144,12234.196968078613,10526.0,"[15,16]",2,293.05755416555814,474.48787675020526,511.7525109538016
144,4753.210205078125,4492.0,[17],1,213.72078265978723,453.520530317606,467.4858970241847
