time_in_hour,cumulative_size,size,pcore_ids,pcore_power,SCA-1,CD11b,Ly6C
-1,0,0,[],0,0.0,0.0,0.0
0,7945,7945,[0],1,0.24038339426252273,0.5762456253256979,0.6309072254825414
0,5640,5640,[1],1,0.37758387122479564,0.16298437951285238,0.23621207095357682
0,12896,12896,"[2,5]",2,0.20495084269663066,0.4665752753668748,0.5707521573996805
0,5640,5640,[3],1,0.35835982946848,0.14473921729084435,0.721511356995055
0,34625,34625,"[4,10]",2,0.19402487324058232,0.15397389613996207,0.17582726154390407
0,3767,3767,[7],1,0.2392578363851669,0.3241131906398389,0.8119527037932861
0,11819,11819,"[5,8]",2,0.2200945725365086,0.4145820882779821,0.5248175383300937
0,4367,4367,[12],1,0.37233464466645505,0.39807943575168264,0.6897484321314516
24,16278.5,12306.0,[0],1,0.21582969609394004,0.5994585618512116,0.6162659178594605
24,5996.0,3176.0,[1],1,0.37925901912135856,0.15837245569444444,0.22107741463871228
24,22482.0,16034.0,"[2,5]",2,0.1964010409326233,0.4783190554454644,0.5556908035708438
24,5818.0,2998.0,[3],1,0.33146038447128345,0.1441478427846795,0.7161685644964825
24,48367.5,31055.0,"[4,10]",2,0.18835877931311654,0.1526692669505515,0.16898521815217807
24,3788.5,2176.0,[6],1,0.3481732860979299,0.17804507210138748,0.44663606571640485
24,6525.5,4642.0,[7],1,0.20869320789056775,0.33631635168817375,0.808619568357747
24,8759.5,5926.0,[8],1,0.192458268422537,0.35786440268213005,0.5005680119999512
24,5094.0,3608.0,[9],1,0.41960171252365,0.3670561320478172,0.5610761557988206
24,5820.5,4189.0,[11],1,0.2888975328386963,0.5417869863149474,0.7973486308759322
24,6073.5,3890.0,[12],1,0.3703587051132924,0.39950975735773747,0.685997972498364
48,18576.25,10437.0,[0],1,0.23451496980635006,0.5974264991332938,0.5886183758657951
48,6953.0,3955.0,[1],1,0.3750644374669684,0.16648917944856578,0.21244542981398737
48,27554.0,16313.0,"[2,5]",2,0.2136920208978842,0.48296847046868524,0.5180076947101905
48,5888.0,2979.0,[3],1,0.3330970723161916,0.15847099284686694,0.7073000481898175
48,61636.75,37453.0,"[4,10]",2,0.18799227514703107,0.15990792426809003,0.16214748755693234
48,3800.25,1906.0,[6],1,0.349835721925445,0.18570119672407756,0.4411924751756329
48,4172.75,910.0,[7],1,0.22125205065772588,0.33466419570413614,0.7991131611544239
48,29803.75,19510.0,"[5,8]",2,0.22078783163456672,0.44975872520521304,0.4898467209446503
48,5171.0,2624.0,[9],1,0.4107863321592486,0.3663525307777183,0.5547633409553632
48,6466.25,3556.0,[11],1,0.31770180952525384,0.5168850531781348,0.7757279208430606
48,7705.75,4669.0,[12],1,0.3616787332675424,0.3872316582654156,0.690042007938569
72,29627.125,20339.0,[0],1,0.24063110155707376,0.5986248824162667,0.5906194008449395
72,8608.5,5132.0,[1],1,0.42230696339455054,0.1762143271264299,0.20487387317114122
72,25265.0,11488.0,"[2,5]",2,0.20987497137088743,0.487900528157191,0.5299507900001628
72,7375.0,4431.0,[3],1,0.37246141687297524,0.15557069177084112,0.7106804008908693
72,62214.375,31396.0,"[4,10]",2,0.19205925912882887,0.15983763446007135,0.16960967523587095
72,4380.125,2480.0,[6],1,0.37461070482763037,0.18546063880436855,0.43720420031031015
72,5451.375,3365.0,[7],1,0.2321735908809739,0.3190659482211667,0.8036786963342993
72,24172.875,9271.0,"[5,8]",2,0.22397650421498896,0.44871952812184784,0.49667189406963635
72,4568.5,1983.0,[9],1,0.4567711170656857,0.36405524105905224,0.5517690925050095
72,6314.125,3081.0,[11],1,0.3382446659075602,0.5108388163684917,0.7797635017504342
72,6357.875,2505.0,[12],1,0.3791245573314653,0.38913126406548626,0.6939244672585928
96,40065.5625,25252.0,[0],1,0.269676450787885,0.6006830369924844,0.5758306017217196
96,20055.75,12064.0,"[1,3]",2,0.4318278493922879,0.16379424368148465,0.4288535788616173
96,24673.5,12041.0,"[2,5]",2,0.22103656051402376,0.4958069411399773,0.5232999008250397
96,52700.1875,21593.0,"[4,10]",2,0.19947275281931937,0.16092489882752317,0.17268020728057
96,5663.0625,3473.0,[6],1,0.3906310494988846,0.18294360498485077,0.4244980285713781
96,8412.4375,4118.0,[8],1,0.20869634322040986,0.3799113919042039,0.46391750197662945
96,4644.25,2360.0,[9],1,0.501078399470648,0.3686581677776506,0.5485102306381927
96,7747.0625,4590.0,[11],1,0.4018182680151378,0.5209262556932512,0.7838111891573509
96,6891.9375,3713.0,[12],1,0.408563509368487,0.3844749551813757,0.7229877823371748
120,41554.78125,21522.0,[0],1,0.29245428505996585,0.6060459385896311,0.5634915474706993
120,29116.875,19089.0,"[1,3]",2,0.4973854149407077,0.1548682574819626,0.3768940423413562
120,20684.75,8348.0,"[2,5]",2,0.22787823147949812,0.5138191634775409,0.515772713150544
120,43676.09375,17326.0,"[4,10]",2,0.21285449099146508,0.1576520821768945,0.17305039471586423
120,8593.53125,5762.0,[6],1,0.43829816383068493,0.16863525098697343,0.4179476826043035
120,5190.21875,984.0,[8],1,0.21294376448028077,0.3769907825389551,0.45711110860499404
120,6565.125,4243.0,[9],1,0.5771503865013647,0.3515532700946779,0.5343223565383489
120,10566.53125,6693.0,[11],1,0.4719642769143233,0.5509432837281355,0.778341618291315
120,8356.96875,4911.0,[12],1,0.43262466352279755,0.3862465345672399,0.7384435210778223
144,50929.140625,24131.0,"[0,5]",2,0.3105864960915787,0.584267706940474,0.5343661205252478
144,20035.0625,10895.0,[1],1,0.5109849817712485,0.16352950206877795,0.18111812421221002
144,7413.625,3092.0,[2],1,0.1796174756810733,0.5408059186571678,0.5226986741065166
144,13667.375,8249.0,[3],1,0.520566267153257,0.13842343956085956,0.6800365393190531
144,38603.046875,16765.0,"[4,10]",2,0.23114399067449343,0.1580727448374479,0.17759896129905786
144,11574.765625,7278.0,[6],1,0.4561490562736593,0.16939038650359212,0.41457229361503384
144,4036.109375,1441.0,[8],1,0.22442543891108896,0.3816216460178805,0.43983030365694514
144,7583.5625,4301.0,[9],1,0.5998757360987291,0.3473788057173096,0.5212215259299265
144,12509.265625,7226.0,[11],1,0.5111768878846619,0.5635972801789618,0.7555818931844828
144,10056.484375,5878.0,[12],1,0.4513700938003982,0.39119182503606786,0.7230354774855672
