time_in_hour,cumulative_size,size,pcore_ids,pcore_power,SCA-1,CD11b,Ly6C
-1,0,0,[],0,0.0,0.0,0.0
0,6342,6342,[0],1,0.28238743670695404,0.5348896818024216,0.784156986442419
0,19814,19814,"[1,3]",2,0.22054188220110105,0.16947304502004484,0.2605900801732274
0,19737,19737,[2],1,0.20388593145936654,0.14825624381430305,0.11583339849984944
0,7165,7165,[4],1,0.333846648423593,0.17095609944015264,0.7432494012436724
0,6714,6714,[6],1,0.3935871045911037,0.3785864142866191,0.6518848690997696
0,22448,22448,[8],1,0.21744381021406964,0.48791656856832466,0.5844839426967707
24,8528.75,7736.0,[0],1,0.24496229705539913,0.5195889700991386,0.7761529929391819
24,34600.75,30457.0,"[2,3]",2,0.19300788034162292,0.1539082062243111,0.15973023857397642
24,6948.875,6381.0,[5],1,0.21107333072061954,0.3136083545213988,0.5090293372783605
24,7652.25,6813.0,[6],1,0.3754203159017934,0.381865494710765,0.6351295501614179
24,30270.0,27464.0,[8],1,0.20296819727323312,0.5286415473409031,0.5773760588629534
48,6427.09375,5361.0,[0],1,0.31624284876780107,0.49014479860219506,0.7449207794037862
48,27244.640625,24521.0,[2],1,0.19323972031841216,0.15859453340065888,0.11237857903881904
48,13818.453125,12217.0,[3],1,0.19498199394437216,0.1716773361347026,0.2314453458065151
48,9893.609375,9025.0,[5],1,0.23069753399399448,0.3957463875907536,0.469392852427433
48,26393.75,22610.0,[8],1,0.23137380968851748,0.5395778450909345,0.5334554785887187
72,21157.580078125,17752.0,[2],1,0.19586642794930514,0.15363021080477277,0.11533227713994093
72,14173.306640625,12446.0,[3],1,0.19877406869182676,0.17238293767852375,0.24395083575187018
72,7497.697265625,6856.0,[4],1,0.3588087030548346,0.18164043534383648,0.7237454286964868
72,8676.701171875,7440.0,[5],1,0.21417598145646036,0.41336936627063886,0.5035609786858327
72,31800.21875,28501.0,[8],1,0.23320933499437385,0.5704231956716392,0.5775508208405484
96,6594.04833984375,5876.0,[0],1,0.4213332154776186,0.44670606118678274,0.7899988053968863
96,7265.203369140625,6481.0,[1],1,0.34528951927591806,0.19780408567057825,0.3285530555951714
96,15314.697509765625,12670.0,[2],1,0.21417192462793125,0.1554565714764341,0.1165379084859165
96,10267.663330078125,8496.0,[3],1,0.20937020253149607,0.17682712255248434,0.25022993240528973
96,7522.212158203125,6585.0,[4],1,0.42100917413724775,0.16635487524569606,0.7152043461402481
96,10279.587646484375,9195.0,[5],1,0.23392452718310303,0.4286590475032984,0.488193378047302
96,37370.02734375,33395.0,[8],1,0.2764817441077096,0.5814245584193207,0.5652004852393888
120,10657.256042480469,9833.0,[0],1,0.47386440691615633,0.48709117554029946,0.7721117156034165
120,8182.150421142578,7274.0,[1],1,0.4122111578437621,0.18573347273045315,0.3500874312969864
120,12889.337188720703,10975.0,[2],1,0.242346348087051,0.15065428300446,0.11715346330065358
120,8264.457916259766,6981.0,[3],1,0.23040668879775628,0.1676599646734851,0.25499826065065817
120,21244.132293701172,19699.0,"[4,7]",2,0.5424062375821066,0.15934295066832957,0.41944105750924543
120,32400.25341796875,27729.0,[8],1,0.30219358935657753,0.5944163190920684,0.5532913995128858
144,11964.157005310059,10632.0,[0],1,0.5058212382119993,0.50359834433827,0.7325732946433365
144,9411.768802642822,8389.0,[1],1,0.4468591401660932,0.19010121087512322,0.3778811001710816
144,11818.167148590088,10207.0,[2],1,0.26157498368787463,0.1540206406056163,0.12385737619366355
144,8772.05723953247,7739.0,[3],1,0.2650148627181256,0.17395281609266386,0.25919226707166376
144,12423.534564971924,11173.0,[4],1,0.5322525643205611,0.15850367559769787,0.6531291403932576
144,9483.118556976318,8818.0,[5],1,0.2684843697212363,0.48891189046280703,0.48164440617983006
144,10446.981971740723,9042.0,[7],1,0.5412770637755064,0.16580481487683887,0.18878459453430776
144,24892.031677246094,20842.0,[8],1,0.3399285691257203,0.6052716514362446,0.5417782020285188
