time_in_hour,cumulative_size,size,pcore_ids,pcore_power,SCA-1,CD11b,Ly6C
-1,0,0,[],0,0.0,0.0,0.0
0,5517,5517,[0],1,0.36825134976059337,0.38395063550998665,0.654560332448842
0,39820,39820,"[1,7]",2,0.21689194069944226,0.15996358613761955,0.1906637217143056
0,13953,13953,[2],1,0.24053326697895192,0.5407760312334915,0.6294192865421424
0,14030,14030,[4],1,0.2260296955961158,0.41435885610343964,0.544801546796792
24,11189.0,5672.0,[0],1,0.3696768796801776,0.38547959797296044,0.6439498425613293
24,74383.0,34563.0,"[1,7]",2,0.208984428754488,0.15937746503771563,0.18384017206795822
24,34093.0,20140.0,[2],1,0.22213848636759703,0.5575668523401471,0.6166627808371807
24,5517.0,1410.0,[3],1,0.4031453342375817,0.1606642405989876,0.7348311535957113
24,29724.0,15694.0,[4],1,0.21603954886831794,0.4204412114835098,0.5370368788548775
24,6309.0,2426.0,[5],1,0.3755099278540869,0.21188021278228591,0.38394544365333755
24,6930.0,3334.0,[6],1,0.23364333544108973,0.18177117000646403,0.6720433736023947
24,11857.0,6761.0,[8],1,0.25868869951188017,0.4254241819083145,0.8033968450689166
48,19216.0,8027.0,[0],1,0.38079017719315594,0.3949098201536419,0.6504285357970067
48,115001.0,40618.0,"[1,7]",2,0.20595530727676337,0.15905054494706058,0.17411179091325235
48,48932.0,14839.0,[2],1,0.2273634266126737,0.569859021273591,0.6005552999599136
48,7275.0,1758.0,[3],1,0.4050276844665766,0.16386963349971223,0.7281157823035549
48,46045.0,16321.0,[4],1,0.2115204349433475,0.4336412981791824,0.5112052918117127
48,8663.0,2354.0,[5],1,0.38788026567851785,0.2165317418490144,0.37360628245923216
48,10292.0,3362.0,[6],1,0.2486456154447452,0.18074608315029217,0.6675631688331009
48,14578.0,2721.0,[8],1,0.2703661512422141,0.42799065287121574,0.8003690156415308
72,25045.0,5829.0,[0],1,0.4058730689253683,0.396134966110776,0.6425377749894271
72,42430.0,9122.0,[1],1,0.24543467495703444,0.18171974495122672,0.2784767207301252
72,72749.0,23817.0,[2],1,0.22683541269573787,0.5820647252447743,0.5973055875280655
72,9448.0,2173.0,[3],1,0.4225109172382918,0.1617867364492855,0.723126139751711
72,56236.0,10191.0,[4],1,0.20852424893167132,0.4356927326950157,0.5076714366800754
72,11087.0,2424.0,[5],1,0.4054931223226285,0.21727588913190493,0.3573025291162453
72,15021.0,4729.0,[6],1,0.26279852401394715,0.17368301271131406,0.6756005586240136
72,107794.0,26101.0,[7],1,0.19577187698633758,0.1485335339226306,0.13198032434463025
72,20192.0,5614.0,[8],1,0.27637132961769156,0.42487784687811553,0.8097868480405502
96,26887.0,1842.0,[0],1,0.4100766712788366,0.3933202003289462,0.6428537466421975
96,49555.0,7125.0,[1],1,0.25167348956272517,0.18906888958792167,0.28037790230602794
96,109832.0,37083.0,[2],1,0.25305243513893494,0.5698215481052085,0.5888249593912595
96,13003.0,3555.0,[3],1,0.42999817673881136,0.17813727636121618,0.7251168010397457
96,70366.0,14130.0,[4],1,0.2254199151978084,0.4234761607795197,0.5003341421914514
96,12540.0,1453.0,[5],1,0.41147339748758743,0.2149443049210851,0.35260751341808755
96,16431.0,1410.0,[6],1,0.26889546274204984,0.18172476923242145,0.6697072552439376
96,127962.0,20168.0,[7],1,0.20509786174231276,0.15118417331333053,0.14012934797701587
96,23426.0,3234.0,[8],1,0.29363124809944025,0.4191880526452213,0.7959616283051741
120,35289.0,8402.0,[0],1,0.43869500028814606,0.41741799355778486,0.6548591360892051
120,199335.0,21818.0,"[1,7]",2,0.2220903605612265,0.16521119940998547,0.18156750370929958
120,135966.0,26134.0,[2],1,0.2621614177503348,0.5756675394560565,0.5819388490512986
120,21243.0,8240.0,[3],1,0.4804102025412683,0.17167454469430843,0.7117636654736641
120,72904.0,2538.0,[4],1,0.2257105234280693,0.42497106465677353,0.49897852061362474
120,29413.0,16873.0,[5],1,0.48470759508999756,0.19571293390293035,0.30230568623467713
120,17917.0,1486.0,[6],1,0.2720988101815313,0.180479458195495,0.667550433308352
120,27935.0,4509.0,[8],1,0.31063323163925544,0.4255758965342154,0.7970941531067692
144,47733.0,12444.0,[0],1,0.46204983384872067,0.43872490957193544,0.6641884933718841
144,218731.0,19396.0,"[1,7]",2,0.22641491968560845,0.1659126860735647,0.18233596953897435
144,158951.0,22985.0,[2],1,0.2712507967440097,0.5790453835470054,0.5739761671590746
144,32176.0,10933.0,[3],1,0.5069772850446104,0.1706510684448196,0.6916404721138446
144,76991.0,4087.0,[4],1,0.22731187462594032,0.42737680275375556,0.4964959025812864
144,45976.0,16563.0,[5],1,0.4975214229993951,0.19264903211354723,0.2922844561489072
144,19692.0,1775.0,[6],1,0.2786536253814373,0.18043871089897512,0.6629597471438761
144,29752.0,1817.0,[8],1,0.3154479275871511,0.4278003973115944,0.7948443585009378
