time_in_hour,cumulative_size,size,pcore_ids,pcore_power,SCA-1,CD11b,Ly6C
-1,0,0,[],0,0.0,0.0,0.0
0,4522,4522,[0],1,0.3196972106406115,0.4693609522875606,0.8353754818068363
0,39728,39728,"[1,3,5,9,12]",5,0.2019336544683644,0.1526399026957975,0.23054140090252906
0,8255,8255,[2],1,0.2625903265981134,0.5952039213859153,0.6254327875796385
0,11940,11940,[4],1,0.18356934485160067,0.4419349765418364,0.5243703670542751
0,3212,3212,[6],1,0.23285852211510233,0.16118641632340244,0.5994884162120335
0,3672,3672,[8],1,0.4398738708966673,0.4105669417088113,0.5795228200163991
0,3963,3963,[13],1,0.1288355490534654,0.5209580017880322,0.7035998914232812
0,3808,3808,[14],1,0.2792471201963931,0.38747463068937976,0.6424421801014399
0,4173,4173,[15],1,0.4317196961741713,0.13797679111461042,0.20061381977790238
24,6407.5,5277.0,[0],1,0.28798533144532856,0.46885110597556967,0.8236877893128778
24,39979.0,31575.0,"[1,3,9,12]",4,0.18737260516827797,0.142200072175901,0.2160329885884968
24,14619.75,12556.0,[2],1,0.23048000905347757,0.6142338174689108,0.6054159468129542
24,17552.0,14567.0,[4],1,0.17295775378202455,0.4538390708204633,0.5177379705838728
24,5766.0,4238.0,[5],1,0.23320818085094086,0.26058583002559865,0.3031199327599701
24,3405.0,2602.0,[6],1,0.21933277236054124,0.1595492720978598,0.5811542373491108
24,2987.0,2377.0,[7],1,0.4133923970162772,0.3540851798214588,0.7063471218636365
24,4790.0,3872.0,[8],1,0.4208014707607075,0.416176942914632,0.5678138265967976
24,5393.75,4403.0,[13],1,0.10977311963753632,0.5262956224472134,0.7115848015546326
24,4224.0,3272.0,[14],1,0.27253588376744897,0.40050933097233604,0.6236879645213286
24,3409.25,2366.0,[15],1,0.4311767473323117,0.139811854029014,0.18455252340636916
48,9242.625,6894.0,"[0,7]",2,0.35020261371463407,0.42753450210180405,0.7688937583384134
48,45875.75,35881.0,"[1,3,9,12]",4,0.18607986967975074,0.1461933436402072,0.1836768123815416
48,14723.9375,11069.0,[2],1,0.24506711940594775,0.6153411927352298,0.5737147317047411
48,20715.0,16327.0,[4],1,0.18758818177134096,0.47254924486922867,0.4811610280468838
48,5954.5,4513.0,[5],1,0.22702496506749303,0.29618249002902614,0.2907270913559217
48,2881.25,2030.0,[6],1,0.24079602232567268,0.15938109166576708,0.5690985994424826
48,4836.5,3639.0,[8],1,0.42460542608464585,0.42998511741176354,0.5713523619921556
48,3325.0,2269.0,[14],1,0.27816511785080544,0.4077226082740787,0.6136181698678792
48,4030.3125,3178.0,[15],1,0.42534818218329207,0.1564965825648886,0.16113612512915057
72,5275.21875,3918.0,[0],1,0.32492345989432586,0.4898927855359302,0.814577019290212
72,44456.9375,32988.0,"[1,3,9,12]",4,0.1935211966339314,0.1490364680554066,0.22338753688533394
72,25349.09375,21194.0,"[2,13]",2,0.22091102751593,0.6125592386295509,0.5933710631466094
72,18080.0,12070.0,"[4,14]",2,0.20299576010490472,0.4666015106862292,0.511074556929301
72,4611.625,3123.0,[5],1,0.23135523333953664,0.2760348334605417,0.3047135437779883
72,2731.3125,2011.0,[6],1,0.260277411182064,0.15423191233392755,0.5719176588182829
72,3151.4375,2198.0,[7],1,0.3847847825374785,0.3507602773298075,0.7618912651529348
72,3911.125,2702.0,[8],1,0.45302001080179316,0.46392048424923243,0.5963919834282891
72,3488.40625,2992.0,[10],1,0.546371412285541,0.14613341344950445,0.6523257241649237
72,3458.828125,2794.0,[11],1,0.48769865317258615,0.3059719707005061,0.34846148695653656
72,5017.578125,4010.0,[15],1,0.4715726120861927,0.16381759897419473,0.16253322594823824
96,5035.8046875,3717.0,[0],1,0.408413894519066,0.5239321917218591,0.8153746621920416
96,34523.234375,23409.0,"[1,3,9,12]",4,0.21968144730713318,0.145136461668616,0.22907227858935786
96,38514.3359375,31061.0,"[2,13,14]",3,0.2585692811493337,0.5908454557740889,0.5697676362099788
96,10160.9375,6757.0,[4],1,0.18926351623365187,0.4679809744962834,0.47393071708894474
96,5144.90625,3992.0,[5],1,0.2457992389180609,0.2784327477807551,0.31728852879046904
96,3068.828125,2386.0,[6],1,0.3043225174763536,0.15012712385214744,0.5595594706837588
96,4475.859375,3688.0,[7],1,0.4089310996354229,0.3392880119207249,0.8007533502523886
96,5269.78125,4292.0,[8],1,0.47009615638960695,0.5048385583537007,0.6212512233343628
96,3734.1015625,2862.0,[10],1,0.582483964965234,0.14832923712725726,0.6503280379230272
96,3809.70703125,2945.0,[11],1,0.506202079910606,0.30410388335958494,0.34308788135289264
96,6145.39453125,4891.0,[15],1,0.48233249856843585,0.15885324810506882,0.1574735571969534
120,4376.951171875,3118.0,[0],1,0.47556911930193063,0.5532681485565394,0.8112131835778852
120,23331.013671875,16901.0,"[1,3,12]",3,0.2840394268818133,0.13871303555768172,0.24980179705008515
120,35638.583984375,26010.0,"[2,13,14]",3,0.2799442198450333,0.6010403767101721,0.5542532367265453
120,5315.234375,2775.0,[4],1,0.20098040540931372,0.490588421932815,0.45207551244012856
120,3607.2265625,2321.0,[5],1,0.27041211936673626,0.2750768372047675,0.31228614951123074
120,3521.20703125,2754.0,[6],1,0.3579361077139124,0.14540721326488695,0.525291429689659
120,6573.96484375,5455.0,[7],1,0.42141650323105656,0.38298423348742655,0.7898756980882442
120,7243.4453125,5926.0,[8],1,0.5203973572326838,0.547254157696531,0.651302783389173
120,6000.794921875,3800.0,[9],1,0.13422691453240837,0.14603402602614327,0.19278551334195798
120,7260.525390625,6327.0,[10],1,0.6294989051772628,0.14926102377123462,0.629633913261393
120,5552.4267578125,4600.0,[11],1,0.5509086548552892,0.28439132723562244,0.3464469494582857
120,11549.3486328125,10013.0,[15],1,0.5395370647613831,0.14892504184833472,0.1647078480792431
144,5686.23779296875,4592.0,[0],1,0.5206827889977252,0.5700999110319257,0.7870040539684343
144,11297.421142578125,8395.0,[1],1,0.3204255912784724,0.13317125960894882,0.22409277030870584
144,27038.394287109375,19702.0,"[2,14]",2,0.3319901746753726,0.6006810174406148,0.5365384778928266
144,4228.98291015625,3305.0,[3],1,0.4096826249471678,0.1651135922797769,0.713219132259887
144,10057.060302734375,7155.0,"[4,13]",2,0.20596314548161926,0.5470325003141837,0.47596632348966195
144,3934.806640625,3033.0,[5],1,0.3033131371061263,0.2763017463940726,0.29867053647074726
144,5327.3017578125,4447.0,[6],1,0.41322027327391386,0.1442825797680983,0.5016311221258802
144,6854.4912109375,5211.0,[7],1,0.44069538363268373,0.39535531067324303,0.7464341901678726
144,6675.861328125,4865.0,[8],1,0.5493356763322278,0.5508707083546388,0.6400547564052258
144,12103.548095703125,8597.0,"[9,12]",2,0.203882923990459,0.1430339239012775,0.11529883789588304
144,8781.13134765625,6966.0,[10],1,0.6244242420373028,0.15445456577252772,0.6380214059182964
144,6955.106689453125,5567.0,[11],1,0.562881984927971,0.28073755135434253,0.35793138714526423
144,11052.337158203125,8165.0,[15],1,0.5317533717999903,0.14707707757929692,0.16751601543524217
