time_in_hour,cumulative_size,size,pcore_ids,pcore_power,SCA-1,CD11b,Ly6C
-1,0,0,[],0,0.0,0.0,0.0
0,7916,7916,[1],1,0.30654456058274604,0.42153142498496554,0.7402040748572706
0,16352,16352,[5],1,0.24616327041052163,0.18759989506867034,0.28904053746311686
0,23999,23999,[6],1,0.2091251461320276,0.15133129604382162,0.14446639434029762
0,29538,29538,"[7,8]",2,0.24765828211384186,0.4561856282068143,0.5882041493943623
24,10562.0,8583.0,[1],1,0.270496522407017,0.4277640977516079,0.752396576330071
24,14025.0,9937.0,[5],1,0.23437991948567125,0.1888656326372598,0.2936811651163785
24,31021.75,25022.0,[6],1,0.20144307052419191,0.1543212529291315,0.14563998608419307
24,45449.5,38065.0,"[7,8]",2,0.2283476499599339,0.48369679385090464,0.5778970374397522
48,10990.5,8350.0,[1],1,0.3347606129706467,0.4438717037297318,0.7387363431102536
48,14786.25,11280.0,[5],1,0.27002760783106805,0.17376083932080483,0.25780943308516074
48,36228.4375,28473.0,[6],1,0.17881397875276683,0.1467943133282853,0.1210335369789008
48,38635.375,27273.0,"[7,8]",2,0.22637226239401248,0.520939595396061,0.5403047150026724
72,12730.625,9983.0,[1],1,0.3591148258451749,0.40311876672896113,0.7566602735761309
72,11450.5625,7754.0,[5],1,0.319122912120809,0.17289375072442206,0.25111426194876874
72,36905.109375,27848.0,[6],1,0.19276307205700835,0.1470896045352127,0.1425521060352192
72,28719.5625,23326.0,[7],1,0.22784696619579572,0.6032264190665434,0.5873680166196262
72,16208.28125,11943.0,[8],1,0.2197318233923172,0.43821409236635306,0.5088616683095336
96,7464.65625,4282.0,[1],1,0.39718886864837083,0.3906681428965907,0.7429145281204147
96,40627.91796875,28539.0,"[5,6]",2,0.2602816014458648,0.17106167320377466,0.19634932978108144
96,48194.890625,41015.0,[7],1,0.2869270889088213,0.5515220845796325,0.5703640127665416
96,11233.0703125,7181.0,[8],1,0.2647698006246716,0.41496897482033773,0.5064383427648725
120,11092.1640625,9226.0,[1],1,0.4660539214764909,0.4449189688545986,0.7450322138220992
120,7471.5146484375,6904.0,[3],1,0.5459291814991069,0.20711213373526627,0.32769503100797065
120,6476.806640625,6016.0,[4],1,0.5876373115534814,0.1689836819913116,0.5803472119135752
120,13267.41015625,10712.0,[5],1,0.4223736202298286,0.17221227905394712,0.21623298265258306
120,23346.5693359375,15745.0,[6],1,0.2461836108217913,0.16316622718088983,0.1684705047843606
120,43944.72265625,31896.0,[7],1,0.31455885281540286,0.5684243093816493,0.5578315686062726
144,12727.041015625,9954.0,[1],1,0.4945350243545566,0.4610104504299977,0.7077233625808527
144,16751.339599609375,13567.0,"[2,4]",2,0.5172771245822456,0.18421336984724024,0.6170907007043877
144,7537.878662109375,5670.0,[3],1,0.5344695408866285,0.21647465151400969,0.34531152583600966
144,15070.8525390625,11754.0,[5],1,0.42898689300729353,0.17784495776073814,0.22475131899826079
144,19864.642333984375,14028.0,[6],1,0.2684871039672733,0.16904436276827514,0.1717978563994713
144,44059.74755859375,31748.0,"[7,8]",2,0.3383563718751561,0.5555095688856511,0.5361861496320345
