time_in_hour,cumulative_size,size,pcore_ids,pcore_power,SCA-1,CD11b,Ly6C
-1,0,0,[],0,0.0,0.0,0.0
0,23992,23992,[1],1,0.21024695497750429,0.15242481845381411,0.14265663721611613
0,15695,15695,[2],1,0.24367962315344335,0.18773336177904892,0.2859441993854172
0,8659,8659,[4],1,0.3206503332896454,0.2260336197161535,0.7374844099281569
0,30045,30045,[6],1,0.2561071501362195,0.4765517636064777,0.6288722076499174
24,26611.5,25112.0,[1],1,0.2000518963352665,0.15574854547794878,0.145134703326471
24,10889.9375,9909.0,[2],1,0.22926945044037747,0.19109402415193036,0.2936848281929399
24,7602.1875,7061.0,[4],1,0.2673528880612156,0.27040244653027795,0.7558390903157536
24,18144.6875,17756.0,[5],1,0.23838528355581284,0.42752587433699507,0.5516232061426855
24,25785.8125,23908.0,[6],1,0.22829115403125264,0.5316693166479036,0.6344708426763284
48,30081.21875,28418.0,[1],1,0.16871697020021506,0.14544943141865238,0.11906392138866757
48,13376.62109375,12696.0,[2],1,0.2909696358044379,0.18606433970097244,0.24567965011968132
48,10016.13671875,9541.0,[4],1,0.34714016281109633,0.3343223536886258,0.737562039702013
48,19858.04296875,18724.0,[5],1,0.19759943299797855,0.48108481095196853,0.47212040848867237
48,14699.61328125,13088.0,[6],1,0.2672334446236301,0.5866394882296213,0.6065790250799679
72,36551.076171875,34671.0,[1],1,0.2220494933804679,0.1660147005368695,0.18391351154101074
72,9842.127685546875,8601.0,[5],1,0.23924762538509417,0.40712896721130815,0.53173873769623
72,35304.725830078125,34386.0,[6],1,0.2559010848152799,0.5409492169370171,0.6094242163940885
96,23952.442260742188,21668.0,[1],1,0.24307435341308184,0.17018866850211145,0.1749720231348183
96,8786.189926147461,8443.0,[2],1,0.3610187564395023,0.2072524323653243,0.30122153934644985
96,6614.563034057617,6237.0,[4],1,0.4266303384884082,0.3246195001519104,0.7649475347454707
96,10337.13298034668,9722.0,[5],1,0.27503708745413474,0.43219539829457193,0.49819074460679724
96,40347.54536437988,38141.0,[6],1,0.2947166197227291,0.551618109064787,0.5702283596055711
120,7470.879133224487,7202.0,[0],1,0.5173851651030378,0.1560569190971204,0.6622947387590354
120,20702.027641296387,19205.0,[1],1,0.26590367383840524,0.16332815471743528,0.1804377811458048
120,12875.136870384216,12326.0,[2],1,0.4928264704679337,0.17685143432645328,0.2269237747961838
120,10005.410189628601,9592.0,[4],1,0.47592220952394004,0.42092811742430325,0.7464744194248664
120,34173.72158527374,31652.0,[6],1,0.32700157193413465,0.5744376101569851,0.5601505611714764
144,11192.92994582653,10726.0,[0],1,0.5275625145643164,0.17237620600140915,0.6304850186063184
144,18887.876727581024,17594.0,[1],1,0.2887946295154173,0.17258494413886633,0.18537160636468375
144,12819.696054399014,12015.0,[2],1,0.47438408525021375,0.18490853009470012,0.24477299175702688
144,7228.734250545502,6870.0,[3],1,0.49114681358981593,0.2249541950256038,0.43296430607987085
144,10761.338136851788,10136.0,[4],1,0.4988882886071663,0.44865566337818913,0.7009059983591328
144,8295.56692570448,7981.0,[5],1,0.32081493869317323,0.4724721961088261,0.4929218417291034
144,26813.85759907961,24678.0,[6],1,0.35919145658243495,0.5805795148866543,0.5462233892147592
