time_in_hour,cumulative_size,size,pcore_ids,pcore_power,SCA-1,CD11b,Ly6C
-1,0,0,[],0,0.0,0.0,0.0
0,41923,41923,"[1,3,7,8]",4,185.23595639625185,141.37456765975753,262.9403191565487
0,20031,20031,"[2,4,13,15]",4,187.11272527582346,403.01512655384124,543.508062503121
0,4035,4035,[6],1,275.1893432465916,418.9888475836436,786.6912019826532
0,5266,5266,[12],1,354.59077098366413,340.8611849601219,641.2377516141266
0,5288,5288,[14],1,217.2772314674739,536.4897881996958,644.1197049924347
24,41296.375,36056.0,"[1,3,7,8]",4,174.92815955395804,141.2465803596558,250.5527149780094
24,22381.5,20443.0,"[2,4,15]",3,184.24996090521378,417.11107387798006,517.4430668185773
24,6209.375,5705.0,[6],1,231.8715853044784,402.2415299446389,772.769783593356
24,5935.25,5277.0,[12],1,343.14281201296683,341.0934459374063,623.4506971062701
24,5861.375,5296.0,[13],1,127.72077797445452,444.2624810731275,585.1813354375033
24,8341.0,7680.0,[14],1,199.09953842465117,554.5928246013654,630.7156366143149
48,5485.484375,4786.0,[1],1,236.46327096228308,178.0339304585108,304.6164137738524
48,26468.6875,23671.0,"[2,4,15]",3,199.33156158574317,427.97556310640664,480.67124597696784
48,37462.90625,33484.0,"[3,8]",2,161.25838308393716,140.14219648936094,174.9281251537979
48,5801.171875,5025.0,[6],1,294.02476600902025,385.93539559625515,733.3527196821768
48,4344.90625,3603.0,[12],1,339.4148715809407,339.28772556945296,606.293626876298
48,6885.625,5843.0,[14],1,231.8453526368333,549.0427294181711,593.4235295452484
72,5784.685546875,5099.0,[1],1,262.69853995547726,170.2711901947457,311.94350283058213
72,16622.5859375,13314.0,"[2,4,15]",3,200.91715056368773,426.15023657100693,502.75565765893634
72,32720.86328125,28038.0,"[3,8]",2,165.3486008126782,138.6098131675116,187.87962411931065
72,4583.146484375,3858.0,[6],1,299.85732074588515,384.06119056273957,765.8112518223418
72,4381.45703125,4065.0,[7],1,243.6718548428073,199.3584299244065,746.7246095717662
72,4223.419921875,3784.0,[11],1,410.16729444397157,152.38927696239955,195.48093383666495
72,7580.208984375,7239.0,[13],1,145.63118312567528,469.2210940960317,551.2016056409238
72,14505.703125,13645.0,[14],1,228.0472715472893,549.2289290850033,590.1016595035371
96,7447.085693359375,6724.0,[1],1,288.08135749280007,163.43355128925066,302.6002354239931
96,14576.480712890625,13055.0,"[2,15]",2,239.29102548996303,459.66454275012586,511.00651106732244
96,22417.10791015625,18327.0,"[3,8]",2,176.28561346786577,139.81228559111972,186.4864528253253
96,4590.342529296875,4034.0,[4],1,186.23388165850008,342.92768227367685,446.80453033747386
96,5325.893310546875,4753.0,[6],1,376.62381430014614,395.0122475694204,771.1309453340951
96,4461.68212890625,3914.0,[7],1,338.1959262491704,182.19721303088116,740.0015573692004
96,4855.927490234375,4328.0,[11],1,429.97688794386113,145.26956795463647,182.97735305478753
96,6661.526123046875,5714.0,[13],1,164.62028821711453,482.9707464494755,526.5155244645252
96,18460.212890625,16647.0,[14],1,260.6060548134069,549.8005919138358,568.461317210502
120,3768.451446533203,3358.0,[0],1,340.277240751368,460.7366560646171,573.434996911399
120,8482.885711669922,7552.0,[1],1,324.1340167657641,149.2128976771824,291.53702166491956
120,17293.13848876953,14491.0,"[3,8]",2,195.0785685724716,133.36430446997545,181.18960124738476
120,5357.317687988281,5069.0,[5],1,517.7680790262831,211.68962201153818,376.4831747206436
120,7333.736663818359,6668.0,[6],1,402.4156329755817,406.519387391259,747.4316837632219
120,4371.710266113281,3814.0,[7],1,362.0970383826921,189.08715487668383,726.1905003386973
120,5243.553985595703,4931.0,[9],1,573.610886610066,127.4154211222078,629.0349462859184
120,8928.990936279297,8322.0,[11],1,486.2204592628486,132.66037780964157,176.47353503813036
120,4103.079895019531,3654.0,[12],1,503.8237133357556,503.3784112026667,676.4235634641192
120,16734.07601928711,14682.0,"[13,15]",2,229.05212431551595,504.3521691271311,512.1419078534786
120,14251.526611328125,11944.0,[14],1,289.22104410055346,556.4756473500407,561.0522882943768
144,4105.05643081665,3634.0,[0],1,383.6604463444967,441.5873436340484,571.7013352928639
144,9808.36071395874,8748.0,[1],1,344.45093078886373,152.3922843279638,291.7969157032429
144,12088.382511138916,10757.0,"[2,15]",2,296.5156587409913,471.29535708899544,487.6948024852856
144,15681.642311096191,13520.0,"[3,8]",2,214.1291084951182,136.5081463321921,183.25606791538377
144,5354.664710998535,4685.0,[5],1,515.307896932891,225.65074281194796,383.4655589504149
144,7827.717082977295,6911.0,[6],1,425.22950815945734,404.18722769929946,707.3071668500253
144,4437.46378326416,3891.0,[7],1,390.01375606276326,198.2207235894431,681.7529011944367
144,6559.444248199463,5904.0,[9],1,551.6982566513241,130.6189476557636,627.0550037205691
144,4923.351867675781,4549.0,[10],1,399.0286728842942,125.7217252686465,512.0151171908715
144,7791.123867034912,6675.0,[11],1,476.71662299439885,132.92927073913376,183.50989520337365
144,3807.8849868774414,3295.0,[12],1,548.6934678444924,531.4788227056305,703.0216247854981
144,7277.836345672607,6216.0,[13],1,207.92762468805336,505.223030640279,497.3748934370781
144,11399.440826416016,9618.0,[14],1,320.1441396460782,573.5485219542295,547.3988195685542
