time_in_hour,cumulative_size,size,pcore_ids,pcore_power,SCA-1,CD11b,Ly6C
-1,0,0,[],0,0.0,0.0,0.0
0,7747,7747,[0],1,NA,NA,NA
0,40769,40769,"[1,6]",2,NA,142.06720792759216,NA
0,31835,31835,"[2,4,7]",3,NA,NA,NA
0,6197,6197,[5],1,NA,NA,NA
24,12469.5,8596.0,[0],1,NA,NA,NA
24,55607.5,35223.0,"[1,6]",2,NA,141.7233646540477,NA
24,51561.5,37306.0,"[2,7]",2,NA,NA,NA
24,4510.0,2780.0,[3],1,NA,NA,NA
24,4701.0,3039.0,[4],1,NA,NA,NA
24,6154.5,3056.0,[5],1,NA,NA,NA
48,14943.75,8709.0,[0],1,298.7594479297324,369.90158092848094,712.9788874947708
48,69451.75,41648.0,"[1,6]",2,184.26324750636624,141.74626269316374,NA
48,58581.75,32801.0,"[2,7]",2,201.9464039568647,NA,532.3253146244347
48,7424.25,4347.0,[5],1,320.1125029464226,158.83540424958755,667.0191938579665
72,13750.875,6279.0,[0],1,NA,NA,NA
72,71271.875,36546.0,"[1,6]",2,NA,144.51843732187473,NA
72,69074.875,39784.0,"[2,7]",2,211.90160496128377,NA,NA
72,7663.125,3951.0,[5],1,NA,NA,NA
96,14015.4375,7140.0,[0],1,NA,NA,NA
96,62601.9375,26966.0,"[1,6]",2,NA,147.87595032501952,NA
96,78147.4375,43610.0,"[2,7]",2,NA,NA,NA
96,7121.75,5127.0,[3],1,NA,NA,NA
96,9539.5625,5708.0,[5],1,NA,NA,NA
120,18242.71875,11235.0,[0],1,NA,NA,NA
120,16286.375,8166.0,[1],1,NA,165.3148682564411,NA
120,71221.71875,32148.0,"[2,7]",2,NA,NA,NA
120,17469.875,13909.0,[3],1,NA,NA,NA
120,13449.78125,8680.0,[5],1,NA,NA,NA
120,37202.59375,14022.0,[6],1,NA,137.656438605171,NA
144,20913.359375,11792.0,[0],1,NA,NA,NA
144,17215.1875,9072.0,[1],1,NA,NA,NA
144,65293.859375,29683.0,"[2,7]",2,NA,NA,NA
144,20877.9375,12143.0,[3],1,NA,NA,NA
144,5483.34375,3826.0,[4],1,NA,NA,NA
144,17300.890625,10576.0,[5],1,NA,NA,NA
144,31509.296875,12908.0,[6],1,NA,140.04892901152607,NA
