time_in_hour,cumulative_size,size,pcore_ids,pcore_power,SCA-1,CD11b,Ly6C
-1,0,0,[],0,0.0,0.0,0.0
0,9881,9881,[1],1,0.26263490594251376,0.535225175058308,0.6960702065041712
0,17630,17630,[3],1,0.20903637186358975,0.1481942801118004,0.11550221264371346
0,23146,23146,"[4,6]",2,0.2421787636274676,0.43188883041468473,0.5787899682792123
0,22080,22080,"[7,8]",2,0.2326090518645191,0.17895876368942207,0.2638965716890998
24,15726.25,13256.0,[1],1,0.228104534303111,0.5680451668662149,0.6675457157884155
24,6262.0,5326.0,[2],1,0.2645128095629423,0.3589895184052052,0.7839028352867612
24,25505.5,21098.0,[3],1,0.19956791650358208,0.15219457146630846,0.12376666956718588
24,32418.5,26632.0,"[4,6]",2,0.2233032775535828,0.44983393615608375,0.5554437987081062
24,16561.0,12033.0,[7],1,0.21799910307755888,0.17425312453807842,0.25796683490030525
48,11875.5625,7944.0,[1],1,0.2569443694594956,0.6043116164371243,0.6337674650764702
48,7558.5,5993.0,[2],1,0.3186593819146951,0.38757994019199205,0.7770368851245397
48,30876.375,24500.0,[3],1,0.1785307996336835,0.14648101021606266,0.10332587868213723
48,31789.625,23685.0,"[4,6]",2,0.2098386367575518,0.48142674335769087,0.49742192137965685
48,18219.25,14079.0,[7],1,0.23627626847946115,0.1662973772147052,0.23671103488188094
48,6695.375,5446.0,[10],1,0.4038227587507434,0.39740874132824344,0.6070558649854166
72,21663.890625,18695.0,[1],1,0.2830196167393013,0.5943654197875634,0.6460483814783462
72,6770.625,4881.0,[2],1,0.3261427940220091,0.34730907748779855,0.7849370386657758
72,46868.90625,34595.0,"[3,7]",2,0.21885883779123877,0.15236010621048932,0.16425507810447423
72,23982.25,19123.0,[4],1,0.20629840892978224,0.49812063175588567,0.5381084618807114
72,7190.15625,4102.0,[6],1,0.23820079926495347,0.3717813439396837,0.4860180194856805
96,53492.53515625,42081.0,"[1,4]",2,0.28251562104108885,0.546010678212925,0.5682781650078408
96,6653.65625,4961.0,[2],1,0.3997491914478622,0.3551009872678497,0.7812737248962787
96,25004.2734375,16055.0,[3],1,0.2170983326961741,0.16036233212493803,0.15093919622117846
96,22745.1015625,14952.0,"[4,6]",2,0.2526920537052152,0.4608665484996178,0.5138968692548758
96,10315.953125,7548.0,[7],1,0.2780345069676959,0.18978501189657238,0.26716670737933956
96,5400.875,4313.0,[9],1,0.4005589835305464,0.1667813662161645,0.7006543234431157
120,12580.3359375,11289.0,[0],1,0.5141503849309449,0.17377261562154359,0.1939154084657311
120,45707.1337890625,32334.0,"[1,4]",2,0.30476321201486145,0.5682088627672035,0.5571355876462009
120,8083.4140625,6420.0,[2],1,0.43691227261684124,0.3833499194419286,0.7715604114172908
120,19326.068359375,13075.0,[3],1,0.23055003475199254,0.15841527830370747,0.14848898598815394
120,6391.685546875,5845.0,[5],1,0.586743596989743,0.18189553674244657,0.48766938911330376
120,8949.98828125,6371.0,[7],1,0.3074133062079853,0.1823105519542325,0.27785876885179484
120,6694.21875,5344.0,[9],1,0.47322631222516714,0.15655099061178132,0.6956045184034695
120,5434.052734375,4828.0,[10],1,0.5307822397170243,0.5012384455278643,0.6953390820937282
144,12944.083984375,9799.0,[0],1,0.5038785401176041,0.17512412066038793,0.2036927702918162
144,40013.783447265625,28587.0,"[1,4]",2,0.3314975197344493,0.5706622058469956,0.5388673595308012
144,7725.853515625,5705.0,[2],1,0.4674567006698034,0.37634253998032113,0.7268771266910679
144,17400.51708984375,12569.0,[3],1,0.25220086917148904,0.16304869475320413,0.1554412956834691
144,7784.92138671875,6187.0,[5],1,0.5624538371916321,0.1819638736473393,0.49599382510144546
144,9042.4970703125,6805.0,[7],1,0.34308813445486414,0.18752949805332664,0.2878182529525807
144,8494.5546875,6821.0,[9],1,0.5135245352323531,0.15803883125566695,0.6656017866775963
144,8152.51318359375,6794.0,[10],1,0.5338907128082326,0.5146385308345944,0.6947717950554012
