time_in_hour,cumulative_size,size,pcore_ids,pcore_power,SCA-1,CD11b,Ly6C
-1,0,0,[],0,0.0,0.0,0.0
0,4518,4518,[0],1,216.18415227976965,228.9034971226211,762.6308100929612
0,20706,20706,"[1,8]",2,163.44668212112754,135.00854824688537,246.50497440355457
0,6809,6809,[2],1,223.13012189748915,540.0707886620638,599.4082831546468
0,4206,4206,[3],1,372.45030908225965,112.58678078934872,682.681407513077
0,15800,15800,"[4,12]",2,184.67651898734334,392.56031645569703,527.298354430379
0,7293,7293,[5],1,356.7929521458891,145.686000274236,266.69134786781825
0,3725,3725,[6],1,214.9310067114094,161.35275167785207,525.5747651006708
0,5824,5824,[7],1,388.80820741757594,335.65058379120836,582.1892170329656
0,26905,26905,"[8,9]",2,153.5307191971784,120.14291023973259,171.06567552499524
0,4622,4622,[10],1,315.58978797057375,445.39441800086627,772.5064906966677
0,3740,3740,[11],1,109.93288770053601,461.4823529411764,668.5946524064161
24,14369.75,11597.0,"[0,1]",2,210.27914542702578,193.9435272012387,469.8680561596406
24,13046.25,11344.0,[2],1,196.66917696656213,552.6020503976213,581.7965124077807
24,22380.0,18430.0,"[4,12]",2,172.9918789097434,399.03102100089524,515.5469392314554
24,5507.25,3684.0,[5],1,364.09455717462777,141.4493622043669,253.88297244541346
24,4135.25,3204.0,[6],1,214.3475001511399,150.09848255849104,537.6123571730838
24,8207.0,6751.0,[7],1,374.28935664675834,336.2100950408177,570.5820031680247
24,39445.5,31076.0,"[1,8,9]",3,164.23231420567865,130.32882711589386,189.89361270613873
24,6403.5,5248.0,[10],1,280.2117591941889,436.2199187944089,765.2724681814623
24,5499.0,4564.0,[11],1,98.0995180942017,464.9201673031457,677.563920712856
48,4267.125,2859.0,[0],1,247.914931013268,249.482819228403,733.7191024401683
48,27737.875,21749.0,"[1,8]",2,161.20776870975422,144.56473999900837,237.5921911826341
48,23391.5,17644.0,"[2,12]",2,215.3421862642422,500.2953423252043,543.1848882072541
48,15533.0625,12424.0,[4],1,155.65466404323362,401.3092838260352,446.32193426119164
48,5965.8125,4589.0,[5],1,368.0869852178504,151.2922590175272,233.6584078027923
48,7161.75,5110.0,[7],1,378.2787988270965,345.38696024016326,558.3550982650883
48,35983.0625,28306.0,"[8,9]",2,145.59557708575082,124.88149980285849,154.6055904774646
48,6801.875,5201.0,[10],1,305.3593310667986,423.6663511899289,740.0669025084986
72,6756.78125,5690.0,[0],1,252.5504285046961,220.86856722644384,752.5671755689898
72,28194.46875,21260.0,"[1,8]",2,169.62700296933508,140.15347148099724,241.5954237477873
72,34583.8125,28226.0,"[2,11,12]",3,201.29540419018304,512.819780207866,562.9765176446354
72,9665.265625,5782.0,[4],1,151.46251153858324,388.1026856801978,453.71765196572164
72,7342.453125,5851.0,[5],1,427.85666192114604,173.67210805312374,233.78992460370742
72,5364.4375,3574.0,[7],1,432.8967476785735,320.99260465332975,565.8596835642127
72,31202.765625,22207.0,"[8,9]",2,145.57234259583794,124.53536169920861,160.4313449779343
72,6991.46875,5291.0,[10],1,322.56340987006166,430.15616577346344,746.8726282478193
96,5069.1953125,3380.0,[0],1,319.24534373521095,196.62078239118944,732.1365061947373
96,14530.64453125,11479.0,[1],1,279.6887706342589,154.7655566293769,281.5614629104174
96,36757.71875,29644.0,"[2,12]",2,257.44567722595485,517.310800367608,552.5137718735929
96,8671.31640625,6255.0,[4],1,169.40857451628887,367.5009349701357,444.8893599903072
96,6434.61328125,4599.0,[5],1,452.9559499071482,177.00486079619458,241.83798195914258
96,23169.69140625,15369.0,"[8,9]",2,159.9862448265131,126.39930650915993,158.70795815047302
96,9917.8671875,8170.0,[10],1,389.89179093601894,408.0151277642066,735.3761673022227
96,7312.234375,5780.0,[11],1,128.01843923818168,511.7275627533477,549.4255987931188
120,4740.298828125,3473.0,[0],1,359.3470183553289,213.13957700616422,718.7236205688171
120,12004.6611328125,8372.0,[1],1,319.9642608709996,162.02846550570865,302.47887405062954
120,45803.48828125,34786.0,"[2,11,12]",3,279.8055265688761,502.1564526719225,545.8528069300451
120,5118.013671875,4435.0,[3],1,527.000061822082,129.3357843371086,630.8591601432283
120,3695.8291015625,1528.0,[4],1,204.6728398699041,348.756716357571,440.1632372218578
120,11356.6533203125,9748.0,[5],1,479.57782448391305,156.74428080386943,231.70633094432108
120,21478.4228515625,15686.0,"[8,9]",2,209.53116583890122,141.3430237604462,185.44399796216302
120,9777.466796875,7298.0,[10],1,424.9954345360794,408.1623640173932,714.9353646767943
144,4957.07470703125,3772.0,[0],1,402.5075635172185,234.8282788892021,685.0530574544787
144,10795.165283203125,7794.0,[1],1,343.22342774656994,170.82852899304885,315.9487609708098
144,40850.8720703125,29400.0,"[2,11,12]",3,301.3484331036562,503.06588959610013,529.5409024351698
144,7733.50341796875,6454.0,[3],1,511.8650844807974,132.1135484017614,617.8103497774221
144,11154.163330078125,8315.0,[5],1,465.970384275963,155.99050890405317,236.42948736932192
144,5215.214111328125,4464.0,[6],1,410.29715792188114,141.0316098337023,490.75841598702965
144,4172.7568359375,3425.0,[7],1,476.79040707219735,277.88429090246115,478.7669456807238
144,20595.605712890625,15226.0,"[8,9]",2,237.5134197706793,145.85816750129007,192.6262430046344
144,11291.36669921875,8847.0,[10],1,446.1825412019019,424.4707144981947,688.3714261133283
