time_in_hour,cumulative_size,size,pcore_ids,pcore_power,SCA-1,CD11b,Ly6C
-1,0,0,[],0,0.0,0.0,0.0
0,8301,8301,[0],1,224.40043368269045,521.2776773882671,627.5592097337671
0,47037,47037,"[1,2,3,8]",4,205.7655250122254,137.7012989774012,285.1679316282922
0,12601,12601,[4],1,179.12522815649672,418.3349734148107,558.7089913498938
0,6941,6941,[7],1,187.4428756663312,313.2038611151132,503.97579599481213
0,6330,6330,[9],1,368.65150078988296,352.16540284360076,629.1366508688764
24,15970.5,11820.0,[0],1,203.34635734635788,537.9025703641037,615.7067405528916
24,62056.5,38538.0,"[1,2,3,8]",4,193.3919976150787,135.96807747778286,264.61890374094503
24,22473.5,16173.0,[4],1,169.1756735710979,432.80109907224244,544.1907135070228
24,10250.0,7506.0,[6],1,214.6187804878046,378.12048780487663,773.1670731707289
24,10805.5,7335.0,[7],1,180.67803433436785,318.58821896256575,491.4225163111384
24,9779.0,6614.0,[9],1,357.46640760813233,348.9591471520586,611.2573371510366
48,16851.25,8866.0,[0],1,220.53132556932084,535.5376307395595,596.1413099918345
48,75952.25,44924.0,"[1,2,3,8]",4,190.31626120358715,142.5892781319839,244.7821163954975
48,27689.75,16453.0,[4],1,185.47407434158947,440.9060663241835,513.657833674919
48,9388.0,4263.0,[6],1,247.79401896037402,379.65003195568664,755.6095281210062
48,13065.75,7663.0,[7],1,189.6689627461126,339.3216998641482,466.9808468706346
48,10495.5,5606.0,[9],1,351.56752894096843,346.56964889714476,612.0586680005711
72,27645.625,19220.0,[0],1,220.34615784595303,534.8552347794634,587.7931544322088
72,12540.25,6839.0,[1],1,264.55884053348103,158.80062199716872,286.3024261876757
72,9968.875,6054.0,[2],1,313.75128838509886,147.27041667189164,681.8382340033344
72,56443.0,28083.0,"[3,8]",2,166.4168763177044,139.40305042254965,182.89906852931105
72,26426.875,12582.0,[4],1,183.45556843175856,442.48483314807623,523.0468036799638
72,9588.0,4894.0,[6],1,254.7447981852307,368.23615456820966,763.3391870045891
72,10885.875,4353.0,[7],1,187.03775534810282,338.2747137919531,469.52160483195064
72,9118.75,3871.0,[9],1,376.67098012336623,354.3318848526384,615.8318711446211
96,38623.8125,24801.0,[0],1,245.91833405881184,534.7807553953891,570.2482778596649
96,14621.125,8351.0,[1],1,279.98317502927915,156.84913096632516,285.09324692867375
96,11634.4375,6650.0,[2],1,353.11407943013796,142.4863202453929,681.6857336248522
96,46299.5,18078.0,"[3,8]",2,171.19538817914105,140.13708976338813,181.57850651734785
96,24895.4375,11682.0,[4],1,189.86879372977566,448.4815214635205,515.2271073766016
96,8300.25,5234.0,[5],1,460.18380470467696,176.7578762687875,289.09204542031887
96,9749.0,4955.0,[6],1,311.3282964919437,372.5170914965637,769.6856151913021
96,10693.9375,5251.0,[7],1,194.88273729858858,338.9792697965537,460.08776000420755
96,9557.375,4998.0,[9],1,408.3910331027045,381.71537032919593,621.0223453092511
120,41043.90625,21732.0,[0],1,265.9383282384306,537.9669439358004,556.4263582063284
120,16304.5625,8994.0,[1],1,299.7397507599443,149.1955625917586,285.3560161457865
120,32223.34375,22256.0,"[2,5]",2,461.3223032215604,149.1816433544393,447.51079429024253
120,36872.75,13723.0,"[3,8]",2,180.82604192798445,136.72076516533232,177.20907801153896
120,20265.71875,7818.0,[4],1,191.8213901863226,462.9404443772794,508.3462497474945
120,10838.5,5964.0,[6],1,342.6830079116054,381.6547089080589,764.4986419938202
120,6960.96875,1614.0,[7],1,204.03969005750986,337.3524069476663,454.06264393874835
120,12677.6875,7899.0,[9],1,463.4558254413506,420.6048988626675,643.0353894391205
144,38719.953125,18198.0,[0],1,288.0893959307933,541.4934088004578,542.9478587630567
144,18884.28125,10732.0,[1],1,320.83872665261697,149.4436113368097,289.9070093017175
144,39397.671875,23286.0,"[2,5]",2,475.15413188676115,150.0790124416453,449.65723188751167
144,31208.375,12772.0,"[3,8]",2,194.5590476514732,136.82094299607098,175.99884696415555
144,18440.859375,8308.0,[4],1,205.6892303520978,466.72469253483575,493.90339556775547
144,10468.25,5049.0,[6],1,362.5358479807911,384.18554020490615,740.5393705371024
144,15415.84375,9077.0,[9],1,487.78816031396354,442.98929368527115,652.8123288337702
