time_in_hour,cumulative_size,size,pcore_ids,pcore_power,SCA-1,CD11b,Ly6C
-1,0,0,[],0,0.0,0.0,0.0
0,5718,5718,[0],1,258.411157747464,413.26267925848146,767.7336481287166
0,43432,43432,"[1,3,6]",3,203.9198747467325,141.4547108123047,224.70986829987035
0,27289,27289,"[2,7]",2,197.08490600608437,422.15830554435854,566.4279379969947
0,7668,7668,[4],1,289.7854720918085,147.53142931664115,694.388367240479
0,5914,5914,[5],1,363.16181941156094,328.9501183632052,616.0094690564755
24,10210.0,7351.0,[0],1,227.78986287953015,400.65377081292837,762.6704701273251
24,66936.0,41386.0,"[1,3,4,6]",4,203.10646737182057,142.0591460499579,275.3331167084971
24,48586.5,34942.0,"[2,7]",2,185.678614429937,441.5091846500586,558.5674209914267
24,9278.0,6321.0,[5],1,350.44777969389304,332.4737551196369,605.978120284542
48,19267.0,9523.0,"[0,5]",2,299.406679815225,361.36696164426166,677.2860979913853
48,73018.0,43766.0,"[1,3,6]",3,190.98077871210276,147.48363074858182,206.78189282094803
48,57586.25,33293.0,"[2,7]",2,201.67812628882854,443.094002474548,530.5480909071149
48,7634.0,3418.0,[4],1,274.9340778097958,155.66017160073352,679.0227272727273
72,9734.5,4802.0,[0],1,268.35914787611046,378.3982998613166,752.298975294057
72,68524.625,34350.0,"[1,6]",2,183.15866923752122,145.473588874073,203.17328624563842
72,65692.125,36899.0,"[2,7]",2,205.09287072080602,461.94986080904056,544.2956442648122
72,7132.375,4798.0,[3],1,403.31896808566273,177.818994374244,314.29711351408275
72,9478.0,5661.0,[4],1,295.5413985017928,153.14031177463605,684.0104188647397
72,8191.0,3490.0,[5],1,377.6447472835995,323.8454858991581,613.939476254427
96,10211.25,5344.0,[0],1,323.29186558941956,384.63010160362285,759.1264720284007
96,59138.3125,24876.0,"[1,6]",2,191.58986930004386,146.69190235179647,207.59627906190326
96,74955.0625,42109.0,"[2,7]",2,224.30873498371085,476.424337582268,537.7567492522458
96,10468.1875,6902.0,[3],1,425.7812598885895,170.2770298105578,284.5786281053912
96,11076.0,6337.0,[4],1,336.7330884344508,145.8497596153853,683.9232010653647
96,8527.5,4432.0,[5],1,417.9742084432673,342.56642480211127,613.0123863969507
120,13074.625,7969.0,[0],1,369.6046373222901,409.00546382783375,752.739913668654
120,50107.15625,20538.0,"[1,6]",2,205.535806699268,144.2550590016772,210.49368197781064
120,68540.53125,31063.0,"[2,7]",2,240.73463283814314,494.5270831994085,532.9620840223497
120,20357.09375,15123.0,[3],1,471.9035609515746,155.28051186088302,259.96260977822385
120,14163.0,8625.0,[4],1,403.95677778366246,135.2291159182386,663.2953249664656
120,10945.75,6682.0,[5],1,481.7938954617092,366.643454651349,615.8916074732192
144,26861.1875,14851.0,"[0,5]",2,448.354108739605,407.23498646978976,677.5000110521919
144,45876.578125,20823.0,"[1,6]",2,226.01571029061952,145.88728419083674,218.69782613064092
144,63018.265625,28748.0,"[2,7]",2,260.5026756875295,500.71421653791765,520.4583918997595
144,23553.546875,13375.0,[3],1,473.11275769904597,155.846377967225,258.74912350647696
144,19284.5,12203.0,[4],1,442.306200413545,137.37592285903196,632.4781997848027
