time_in_hour,cumulative_size,size,pcore_ids,pcore_power,SCA-1,CD11b,Ly6C
-1,0,0,[],0,0.0,0.0,0.0
0,5387,5387,[0],1,NA,NA,NA
0,44727,44727,"[1,5,7]",3,NA,138.1290495673756,NA
0,16113,16113,[3],1,179.18395084714368,NA,542.3907403959522
0,4874,4874,[4],1,NA,NA,NA
0,6170,6170,[6],1,NA,NA,NA
0,9582,9582,[8],1,NA,NA,NA
24,12202.0,6815.0,[0],1,NA,NA,NA
24,26395.0,10575.0,"[1,5]",2,NA,NA,NA
24,4535.0,1379.0,[2],1,NA,NA,NA
24,34741.0,18628.0,[3],1,NA,NA,NA
24,9312.0,4438.0,[4],1,NA,NA,NA
24,13210.0,7040.0,[6],1,NA,NA,NA
24,66376.0,31424.0,"[5,7]",2,NA,NA,NA
24,23793.0,14211.0,[8],1,NA,NA,NA
48,17009.0,4807.0,[0],1,NA,NA,NA
48,35521.0,9126.0,"[1,5]",2,NA,NA,NA
48,5840.0,1305.0,[2],1,NA,NA,NA
48,56004.0,21263.0,[3],1,NA,409.2601599885688,NA
48,12882.0,3570.0,[4],1,195.09571495109586,NA,NA
48,18574.0,5364.0,[6],1,NA,NA,NA
48,103631.0,37255.0,"[5,7]",2,NA,139.56433885613285,NA
48,34022.0,10229.0,[8],1,205.2024572335561,NA,NA
72,20162.0,3153.0,[0],1,NA,NA,NA
72,47708.0,12187.0,"[1,5]",2,NA,NA,NA
72,8785.0,2945.0,[2],1,NA,NA,NA
72,69401.0,13397.0,[3],1,NA,NA,NA
72,16049.0,3167.0,[4],1,NA,NA,NA
72,23339.0,4765.0,[6],1,NA,NA,NA
72,135692.0,32061.0,"[5,7]",2,NA,140.27856469062155,NA
72,56555.0,22533.0,[8],1,NA,NA,NA
96,24962.0,4800.0,[0],1,NA,NA,NA
96,62975.0,15267.0,"[1,5]",2,NA,NA,NA
96,13011.0,4226.0,[2],1,NA,NA,NA
96,81020.0,11619.0,[3],1,NA,411.1279807454925,511.6633917551173
96,19707.0,3658.0,[4],1,NA,NA,NA
96,29930.0,6591.0,[6],1,NA,NA,NA
96,156223.0,20531.0,"[5,7]",2,NA,140.28865147897523,NA
96,83591.0,27036.0,[8],1,221.1902597169527,NA,584.1268437989337
120,30879.0,5917.0,[0],1,NA,NA,NA
120,84330.0,21355.0,"[1,5]",2,NA,NA,NA
120,22381.0,9370.0,[2],1,NA,NA,NA
120,85993.0,4973.0,[3],1,NA,NA,NA
120,22043.0,2336.0,[4],1,NA,NA,NA
120,39155.0,9225.0,[6],1,NA,NA,NA
120,172411.0,16188.0,"[5,7]",2,NA,140.4048871591728,NA
120,107084.0,23493.0,[8],1,NA,NA,NA
144,39139.0,8260.0,[0],1,NA,NA,NA
144,105326.0,20996.0,"[1,5]",2,NA,NA,NA
144,34689.0,12308.0,[2],1,NA,NA,NA
144,92482.0,6489.0,[3],1,NA,NA,NA
144,24571.0,2528.0,[4],1,NA,NA,NA
144,48651.0,9496.0,[6],1,NA,NA,NA
144,186606.0,14195.0,"[5,7]",2,NA,NA,NA
144,125156.0,18072.0,[8],1,NA,NA,NA
