time_in_hour,cumulative_size,size,pcore_ids,pcore_power,SCA-1,CD11b,Ly6C
-1,0,0,[],0,0.0,0.0,0.0
0,32340,32340,"[1,5,8]",3,225.03008658008693,400.5099257884984,579.5846629560923
0,6673,6673,[3],1,270.4028173235421,340.8567361007037,725.6283530645889
0,40459,40459,"[6,7]",2,199.83190390271872,146.7512790726419,225.33456091351718
24,73455.0,41115.0,"[1,5,8]",3,213.3716152746592,416.27423592675905,572.3773875161618
24,14100.0,7427.0,[3],1,248.37503546099188,351.04716312056786,731.9446808510634
24,8657.0,3038.0,[4],1,280.21393092294994,154.95726002079203,679.8177197643521
24,75413.0,34954.0,"[6,7]",2,192.76945619455697,145.4361051808034,217.58415657777834
48,11927.0,3545.0,"[0,2]",2,255.5754171208182,246.05776808920933,416.8484111679383
48,105458.0,32003.0,"[1,5,8]",3,212.03600485501462,430.10074152743096,553.5188036943584
48,22043.0,7943.0,[3],1,272.534183187403,358.58413101664837,725.7662296420621
48,13885.0,5228.0,[4],1,290.3578682030936,156.2724522866389,666.3852358660428
48,116694.0,41281.0,"[6,7]",2,189.49573242840472,142.9718408829926,206.15422386754975
72,12730.0,803.0,"[0,2]",2,260.73802042419504,247.0454045561668,414.9767478397488
72,141408.0,35950.0,"[1,5,8]",3,210.07432394206893,444.71292996152425,551.5845284566436
72,33011.0,10968.0,[3],1,287.766956469053,346.5530883644834,729.0978158795468
72,18550.0,4665.0,[4],1,304.49541778975373,152.62366576819286,666.5797304582204
72,154308.0,37614.0,"[6,7]",2,194.94800658423617,141.9318246623633,205.76494413769797
96,136903.0,17937.0,"[0,1,2,6]",4,235.7299620899489,278.6195116250177,418.9140486329795
96,44950.0,6057.0,"[3,5]",2,300.02493882090954,334.94669632925405,708.1735706340299
96,21209.0,2659.0,[4],1,310.8178603423033,153.68282332971734,667.292375878166
96,183159.0,28851.0,"[6,7]",2,202.5724152239348,141.30602918775503,205.1457313044951
96,186209.0,50683.0,"[1,8]",2,223.90339349870257,453.5751172069991,551.1142050061828
120,84034.0,18374.0,"[0,2,6]",3,279.16977651903227,181.62274793536034,320.8374229478555
120,233969.0,40419.0,"[1,5,8]",3,243.25749137706242,446.54843162982996,550.2071556488158
120,43066.0,5457.0,[3],1,319.0053406399444,344.35928574745446,717.3138206473704
120,27902.0,6693.0,[4],1,349.3486130026488,165.8414450577007,656.8668912622759
120,214840.0,31681.0,"[6,7]",2,216.6427853286206,147.97614503816982,215.43738130701976
144,88303.0,13505.0,"[0,6]",2,280.7538022490782,180.80156959559727,302.8239470912669
144,265514.0,31545.0,"[1,5,8]",3,250.56301739267934,451.30758453414836,545.7029196200564
144,21385.0,12149.0,[2],1,438.576432078559,186.37535655833668,406.18302548515334
144,51905.0,8839.0,[3],1,342.98817069646066,355.4405548598368,712.6502263750986
144,38425.0,10523.0,[4],1,383.4137150292742,163.48640208197565,649.1954977228412
144,241100.0,26260.0,"[6,7]",2,224.30545002074194,151.21832849440173,217.9493488179177
