time_in_hour,cumulative_size,size,pcore_ids,pcore_power,SCA-1,CD11b,Ly6C
-1,0,0,[],0,0.0,0.0,0.0
0,18485,18485,"[0,9]",2,0.19079022468871162,0.13644779856971004,0.22540939412139965
0,6599,6599,[1],1,0.27146333033094866,0.49902151635480246,0.814056493003089
0,22267,22267,[3],1,0.20239433272293614,0.4991496151092658,0.5749552180196567
0,10250,10250,[8],1,0.1522656070156246,0.1374770996578746,0.07498593079472023
0,7154,7154,[10],1,0.4166202297449616,0.41667083060832255,0.6461669239193987
24,34987.0,16502.0,"[0,9]",2,0.18868969951279155,0.13803743782273692,0.22492127683696453
24,15926.0,9327.0,[1],1,0.2533834857000138,0.4985011987000978,0.8048544814869025
24,16465.0,6166.0,"[2,6]",2,0.3575298641653868,0.14338525571175925,0.3555674214791859
24,50312.0,28045.0,[3],1,0.19404589518706994,0.5157573978195117,0.5674441595800638
24,30757.0,15373.0,"[5,8]",2,0.17303147945128713,0.15593772053803134,0.27282448893702443
24,11505.0,5247.0,[7],1,0.2505342572110807,0.3002338153193272,0.3450891400949909
24,14236.0,7082.0,[10],1,0.41018307755933636,0.4098011192070571,0.6298794079566173
48,21385.0,7647.0,[0],1,0.2611172905507117,0.13406011529627632,0.23466888984587775
48,21214.0,5288.0,[1],1,0.27150058843904995,0.49660009589842413,0.7959951227736956
48,25035.0,8570.0,"[2,6]",2,0.3534161387540557,0.1499746056877838,0.3382839970589057
48,75338.0,25026.0,[3],1,0.20063338524420998,0.5244915253117565,0.5507950775779152
48,8600.0,2797.0,[4],1,0.45112790697674093,0.18686704198674076,0.35807116589838
48,47121.0,16364.0,"[5,8]",2,0.17185576983377257,0.15546384819825956,0.2377297484006592
48,18577.0,7072.0,[7],1,0.24134404449624572,0.32462604587923977,0.351379492782283
48,31957.0,10708.0,[9],1,0.13827414858379486,0.1474226820910509,0.21337298804845972
48,20764.0,6528.0,[10],1,0.4086355165270834,0.4117214488006104,0.6267544177669137
72,29777.0,8392.0,[0],1,0.2604564340247526,0.13672381748067905,0.23567897765371454
72,27490.0,6276.0,[1],1,0.277927336191707,0.49580299870458866,0.7974920623089446
72,34223.0,9188.0,"[2,6]",2,0.3692067264048358,0.1523515978444811,0.3575936538855886
72,104786.0,29448.0,[3],1,0.20339415141872125,0.5376131707518876,0.5546343216338325
72,13631.0,5031.0,[4],1,0.4731973302757503,0.19938208123551118,0.34058682235354065
72,60252.0,13131.0,"[5,8]",2,0.17327290921202382,0.1558326258973247,0.24256140172670282
72,22530.0,3953.0,[7],1,0.23857149269139363,0.3270005502969403,0.35759418029116286
72,41904.0,9947.0,[9],1,0.1376187036393575,0.14845522258158725,0.21189524512917965
72,25398.0,4634.0,[10],1,0.41528037684998037,0.41993904996260517,0.6273452252610556
96,37560.0,7783.0,[0],1,0.26334045302796316,0.13817755844043197,0.23737470677947273
96,32952.0,5462.0,[1],1,0.29920551786595606,0.4989780486960885,0.7987115699369038
96,25876.0,5779.0,[2],1,0.33600651160851674,0.14561327640560734,0.09883176781780183
96,137928.0,33142.0,[3],1,0.21453204863765724,0.5484548171372003,0.5536093909878902
96,19706.0,6075.0,[4],1,0.48356765805657764,0.20320406812726197,0.3318263439147916
96,67532.0,7280.0,"[5,8]",2,0.17501966608256606,0.15506262089123896,0.2379308557111308
96,20838.0,6712.0,[6],1,0.4418286708271696,0.16805922351221328,0.7289864264168783
96,27905.0,5375.0,[7],1,0.23731239015198022,0.33229051216919636,0.36331727636201533
96,47237.0,5333.0,[9],1,0.1372193241205709,0.1492318459233724,0.2116228063454668
96,32457.0,7059.0,[10],1,0.42357726194691764,0.4356250602084479,0.6284768890386563
120,45013.0,7453.0,[0],1,0.2671795438870691,0.13788138429189842,0.238564662116665
120,38407.0,5455.0,[1],1,0.3159825148915043,0.500780930889412,0.8006043928865569
120,33636.0,7760.0,[2],1,0.35307338579184117,0.14443100986930166,0.09751069421059848
120,163484.0,25556.0,[3],1,0.2236325019883069,0.5570548520336256,0.5510397508506336
120,34268.0,14562.0,[4],1,0.5164525032690132,0.194653587611516,0.327931894359229
120,74300.0,6768.0,"[5,8]",2,0.18194672372858606,0.1544281925421582,0.2456980818747798
120,26038.0,5200.0,[6],1,0.46131897977976477,0.1669906652268397,0.723610310166861
120,30210.0,2305.0,[7],1,0.23950094655761722,0.33471922035944474,0.3628518706102598
120,50331.0,3094.0,[9],1,0.13749213911769792,0.14905079504899296,0.21140201089278957
120,44304.0,11847.0,[10],1,0.44874582050064343,0.4505950710353342,0.6375437501658855
144,53585.0,8572.0,[0],1,0.27479700947669655,0.138424763464145,0.24131337655781843
144,41589.0,3182.0,[1],1,0.32376276570538154,0.5034233947825355,0.79869403963195
144,99452.0,18595.0,"[2,5,6]",3,0.3784319531707897,0.1620060852021109,0.4404254916049083
144,185796.0,22312.0,[3],1,0.2326115437470232,0.5620840996338259,0.5466956993951121
144,45099.0,10831.0,[4],1,0.523319234513037,0.1924683995862677,0.33437632457295074
144,33845.0,3635.0,[7],1,0.2458196238303841,0.33906961400422014,0.36237027770713187
144,56321.0,3204.0,[8],1,0.15841286174814098,0.1393667729283842,0.06887573612108557
144,52785.0,2454.0,[9],1,0.1378318448912482,0.14931080876620229,0.21118136289730985
144,61519.0,17215.0,[10],1,0.47285097451394426,0.4553865527620186,0.6427395219417251
