time_in_hour,cumulative_size,size,pcore_ids,pcore_power,SCA-1,CD11b,Ly6C
-1,0,0,[],0,0.0,0.0,0.0
0,6342,6342,[0],1,0.28238743670695404,0.5348896818024216,0.784156986442419
0,19814,19814,"[1,3]",2,0.22054188220110105,0.16947304502004484,0.2605900801732274
0,19737,19737,[2],1,0.20388593145936654,0.14825624381430305,0.11583339849984944
0,7165,7165,[4],1,0.333846648423593,0.17095609944015264,0.7432494012436724
0,6714,6714,[6],1,0.3935871045911037,0.3785864142866191,0.6518848690997696
0,22448,22448,[8],1,0.21744381021406964,0.48791656856832466,0.5844839426967707
24,9496.5,7911.0,[0],1,0.24891198827243782,0.5261214062432625,0.775022171455264
24,38595.5,30308.0,"[2,3]",2,0.19342325959581963,0.15376528844153478,0.16006700499576407
24,6598.25,4807.0,[4],1,0.2856355766786984,0.18344779132956018,0.7470036387626255
24,7120.75,5985.0,[5],1,0.21414066423220526,0.2965522579714535,0.5064009970547018
24,8481.5,6803.0,[6],1,0.37881827400945367,0.3825210272664238,0.6368856388206117
24,33457.0,27845.0,[8],1,0.20338167589255435,0.5222848683871573,0.5766383859533625
48,7202.125,4828.0,[0],1,0.3006411185213139,0.5125451108454738,0.7494149794861087
48,46728.875,37080.0,"[2,3]",2,0.1944507580920677,0.16272458804944842,0.15426481616018342
48,8265.1875,6485.0,[5],1,0.22948728961419224,0.3581396912847573,0.4719608686896781
48,7753.375,5633.0,[6],1,0.36485854384181143,0.3790255422266466,0.6436122203122807
48,33624.25,25260.0,[8],1,0.22766358223770716,0.5288527773180828,0.5362233698657752
72,6950.078125,5399.0,[1],1,0.30737566480653017,0.19496333260276094,0.2939105294482425
72,26153.265625,18382.0,[2],1,0.19727284470411752,0.154638371095548,0.1172818549046918
72,15915.953125,12005.0,[3],1,0.19755089467784784,0.17259897787196,0.24383555155747708
72,8320.890625,6905.0,[4],1,0.34073466815925973,0.18672551267591092,0.733157997620945
72,7845.296875,5779.0,[5],1,0.21719476469243032,0.3865070745228717,0.49419629047592223
72,38473.0625,30067.0,[8],1,0.23116218581799763,0.5583649480642007,0.5710013259284322
96,7242.3828125,5681.0,[0],1,0.41038821359495176,0.4873158461584852,0.7809592838022841
96,9591.51953125,7854.0,[1],1,0.33562026216970253,0.1904279653031256,0.2927609869281242
96,18887.31640625,12349.0,[2],1,0.21066439511272667,0.1551567914793694,0.11445547833609436
96,11524.98828125,7546.0,[3],1,0.20027726605735735,0.17493898593173018,0.24554348958993516
96,8930.22265625,6850.0,[4],1,0.40003903842639554,0.17430687385102417,0.7271608967256483
96,9668.32421875,7707.0,[5],1,0.23094314194299806,0.4072193841783704,0.48499302393200033
96,44022.265625,34404.0,[8],1,0.2669236495034455,0.5745585710805761,0.5610801924026839
120,11483.595703125,9673.0,[0],1,0.47456820356851215,0.5093077062511367,0.7705727433327033
120,10456.8798828125,8059.0,[1],1,0.37876408665428263,0.18053401237312072,0.30780356663361313
120,15151.8291015625,10430.0,[2],1,0.23546287103058675,0.1516817666598765,0.11258083540390428
120,8670.2470703125,5789.0,[3],1,0.2081320332179966,0.16778756400732356,0.24687227515126833
120,23526.6435546875,19972.0,"[4,7]",2,0.5266995761939064,0.1617023227730653,0.4356929376915695
120,39802.56640625,28797.0,[8],1,0.2901495162482181,0.5881216462381773,0.5500390072990002
144,13449.89892578125,10579.0,[0],1,0.5067159116124782,0.5173996489764223,0.7369584812030437
144,12386.219970703125,9772.0,[1],1,0.4124440881397034,0.18519501990492537,0.33001491071418626
144,13566.957275390625,9779.0,[2],1,0.2631273785037741,0.15354410178150837,0.11865289405190851
144,8308.561767578125,6141.0,[3],1,0.2266911281093898,0.17009887540400376,0.2466337989211663
144,25353.660888671875,19472.0,"[4,7]",2,0.5298520677026403,0.15959350417657772,0.4436207882590674
144,7293.520263671875,6029.0,[5],1,0.26492568299896224,0.4567258173197631,0.477431067503837
144,6313.20849609375,4858.0,[6],1,0.5915522313177937,0.33542652241255094,0.5772939806157742
144,33320.6416015625,23370.0,[8],1,0.3213957335322677,0.5957904437711429,0.5360054696596347
