time_in_hour,cumulative_size,size,pcore_ids,pcore_power,SCA-1,CD11b,Ly6C
-1,0,0,[],0,0.0,0.0,0.0
0,16750,16750,"[0,8]",2,NA,NA,NA
0,44420,44420,"[1,5,7]",3,NA,137.8064385411983,NA
0,14598,14598,[2],1,NA,NA,NA
0,4410,4410,[3],1,NA,NA,NA
0,3401,3401,[4],1,NA,NA,NA
0,6446,6446,[6],1,NA,NA,NA
24,40835.0,24085.0,"[0,8]",2,NA,NA,NA
24,80439.0,36019.0,"[1,5,7]",3,NA,NA,NA
24,31182.0,16584.0,[2],1,NA,NA,NA
24,7583.0,3173.0,[3],1,NA,NA,NA
24,6623.0,3222.0,[4],1,NA,NA,NA
24,13363.0,6917.0,[6],1,NA,NA,NA
48,17536.0,3935.0,[0],1,NA,NA,NA
48,124266.0,43827.0,"[1,5,7]",3,NA,NA,NA
48,90352.0,31936.0,"[2,8]",2,NA,NA,NA
48,10394.0,2811.0,[3],1,NA,NA,NA
48,8550.0,1927.0,[4],1,NA,NA,NA
48,18927.0,5564.0,[6],1,NA,NA,NA
72,21522.0,3986.0,[0],1,NA,NA,NA
72,163239.0,38973.0,"[1,5,7]",3,NA,142.08138373795498,NA
72,126595.0,36243.0,"[2,8]",2,NA,NA,NA
72,15238.0,4844.0,[3],1,NA,NA,NA
72,10129.0,1579.0,[4],1,NA,NA,NA
72,23302.0,4375.0,[6],1,NA,NA,NA
96,25778.0,4256.0,[0],1,NA,NA,NA
96,192526.0,29287.0,"[1,5,7]",3,NA,142.28567050684043,NA
96,166198.0,39603.0,"[2,8]",2,NA,NA,NA
96,23584.0,8346.0,[3],1,NA,NA,NA
96,12146.0,2017.0,[4],1,NA,NA,NA
96,29793.0,6491.0,[6],1,NA,NA,NA
120,30308.0,4530.0,[0],1,NA,NA,NA
120,218483.0,25957.0,"[1,5,7]",3,NA,NA,NA
120,195530.0,29332.0,"[2,8]",2,NA,NA,NA
120,41138.0,17554.0,[3],1,NA,NA,NA
120,13972.0,1826.0,[4],1,NA,NA,NA
120,40594.0,10801.0,[6],1,NA,NA,NA
144,32536.0,2228.0,[0],1,NA,NA,NA
144,201257.0,16626.0,"[1,7]",2,NA,NA,NA
144,222082.0,26552.0,"[2,8]",2,NA,NA,NA
144,102851.0,27861.0,"[3,5]",2,NA,NA,NA
144,16310.0,2338.0,[4],1,NA,NA,NA
144,54989.0,14395.0,[6],1,NA,NA,NA
