time_in_hour,cumulative_size,size,pcore_ids,pcore_power,SCA-1,CD11b,Ly6C
-1,0,0,[],0,0.0,0.0,0.0
0,7714,7714,[0],1,NA,NA,NA
0,40469,40469,"[1,7]",2,NA,140.56418493167652,NA
0,21475,21475,[3],1,194.75678696158505,NA,547.5972991851025
0,7183,7183,[6],1,NA,NA,NA
24,13600.5,11672.0,[0],1,200.4744310870938,NA,NA
24,45369.25,35252.0,"[1,7]",2,NA,NA,NA
24,31595.75,26227.0,[3],1,NA,NA,537.0565028524377
24,9217.75,7422.0,[6],1,NA,NA,NA
48,10742.125,7342.0,[0],1,231.44835169950093,NA,NA
48,53136.3125,41794.0,"[1,7]",2,NA,NA,NA
48,34302.9375,26404.0,[3],1,NA,NA,500.1539226779078
48,9708.4375,7404.0,[6],1,313.7990214697225,NA,NA
72,48002.265625,36741.0,"[0,3]",2,NA,NA,NA
72,14378.734375,10890.0,[1],1,NA,NA,NA
72,7951.109375,5524.0,[6],1,NA,NA,NA
72,33671.34375,23876.0,[7],1,NA,137.9078082902469,NA
96,36386.3828125,30227.0,[0],1,NA,NA,557.7360714226551
96,13428.68359375,9834.0,[1],1,NA,168.1985354926194,NA
96,18356.18359375,12515.0,[3],1,206.63372037224548,NA,NA
96,7282.484375,5910.0,[4],1,NA,174.5164081625652,NA
96,9381.77734375,7394.0,[6],1,386.75426348035387,NA,NA
96,24670.8359375,16253.0,[7],1,NA,138.48413216896043,NA
120,45867.6416015625,32182.0,"[0,3]",2,NA,NA,NA
120,11835.1708984375,8478.0,[1],1,NA,NA,NA
120,9502.171875,8009.0,[2],1,NA,NA,NA
120,14704.62109375,12884.0,[4],1,NA,NA,NA
120,12515.4443359375,10170.0,[6],1,NA,NA,NA
120,19805.708984375,13638.0,[7],1,NA,135.15642526524562,NA
144,41492.910400390625,30026.0,"[0,3]",2,NA,NA,NA
144,12791.792724609375,9833.0,[1],1,NA,NA,NA
144,12238.54296875,9863.0,[2],1,NA,NA,NA
144,21305.14111328125,16194.0,"[4,5]",2,NA,NA,NA
144,13899.861083984375,10771.0,[6],1,NA,NA,NA
144,18264.42724609375,13313.0,[7],1,NA,138.9284302405743,NA
