time_in_hour,cumulative_size,size,pcore_ids,pcore_power,SCA-1,CD11b,Ly6C
-1,0,0,[],0,0.0,0.0,0.0
0,27323,27323,"[0,2,5]",3,242.06437799655947,392.6936280789074,646.6660322804973
0,44947,44947,"[1,3,6]",3,205.61492424411185,153.1746946403543,244.19358355396304
0,30346,30346,"[2,7]",2,221.68256112832063,402.25766163580084,571.0958281157327
24,47446.5,33785.0,"[0,2,5]",3,215.9478043691333,421.54042974719016,630.9604501912632
24,60253.5,37780.0,"[1,3,6]",3,195.17720962268078,152.51101595757862,233.64524052544581
24,54322.0,39149.0,"[2,7]",2,207.095734693128,422.02821140606204,562.275173962664
48,18880.25,10746.0,"[0,5]",2,285.2133843566668,344.4428569536944,715.5816792680167
48,73219.75,43093.0,"[1,3,6]",3,190.8646369319793,148.18900979585342,209.59744809289847
48,59444.0,32283.0,"[2,7]",2,206.69082245474922,441.4380467330592,529.0205571630397
72,22772.125,13332.0,"[0,5]",2,308.4929930781589,314.8359068378545,719.1368614040182
72,73895.875,37286.0,"[1,3,6]",3,200.59944482692936,142.93902230672595,206.76224992261118
72,67758.0,38036.0,"[2,7]",2,209.37497601759338,458.0749966793604,538.4521680096723
96,18492.0625,7106.0,"[0,5]",2,335.3190862295626,301.5696227773387,705.2397886931207
96,67883.9375,30936.0,"[1,3,6]",3,224.0204282493221,150.3878596096461,222.82644826694082
96,83706.0,49827.0,"[2,7]",2,242.56756758774515,455.6274557678021,541.2263995412335
120,14047.65625,8373.0,[0],1,391.2053389689085,391.0503598242579,710.8776686502391
120,70346.96875,36405.0,"[1,3,6]",3,282.01671980358293,156.54405906793272,235.89170420011786
120,76180.0,34327.0,"[2,7]",2,261.10811769821316,475.04192578432173,538.7708650564259
120,16613.375,10895.0,"[4,5]",2,421.76603188695776,172.5104132965153,645.3950807707639
144,17134.828125,10111.0,[0],1,425.94480722285914,408.3967732022397,688.000514303374
144,70397.484375,35224.0,"[1,3,6]",3,312.820989031257,161.43304148607893,248.34218618873768
144,69603.0,31513.0,"[2,7]",2,281.02317720679804,481.69892035005677,527.6735952473146
144,21458.6875,13152.0,"[4,5]",2,448.36552212245056,168.49730878228223,620.8344405966135
