time_in_hour,cumulative_size,size,pcore_ids,pcore_power,SCA-1,CD11b,Ly6C
-1,0,0,[],0,0.0,0.0,0.0
0,18485,18485,"[0,9]",2,0.19079022468871162,0.13644779856971004,0.22540939412139965
0,6599,6599,[1],1,0.27146333033094866,0.49902151635480246,0.814056493003089
0,10299,10299,"[2,6]",2,0.3647186210944417,0.14326326107310003,0.392517080063345
0,22267,22267,[3],1,0.20239433272293614,0.4991496151092658,0.5749552180196567
0,6258,6258,[7],1,0.26895407586154735,0.278465464657727,0.3296069672244914
0,10250,10250,[8],1,0.1522656070156246,0.1374770996578746,0.07498593079472023
0,7154,7154,[10],1,0.4166202297449616,0.41667083060832255,0.6461669239193987
24,25921.5,16679.0,"[0,9]",2,0.1881619678428435,0.1389668668097542,0.224907504055309
24,12681.5,9382.0,[1],1,0.24864043747704606,0.4985337782279154,0.8018031193748272
24,11356.5,6207.0,"[2,6]",2,0.3543088475292792,0.1436009596832241,0.34044389676271286
24,38771.5,27638.0,[3],1,0.19154211936342547,0.5217204986192768,0.5658197203436681
24,22977.0,15285.0,"[5,8]",2,0.17204894195612702,0.15604693322084606,0.2706932263918803
24,8481.0,5352.0,[7],1,0.2401636705444694,0.3124158686358279,0.3553565562114585
24,10736.0,7159.0,[10],1,0.407331942095472,0.40731963462044196,0.623268683263687
48,13353.75,8171.0,[0],1,0.2600064998785216,0.14127039492270646,0.23544880226207093
48,11996.75,5656.0,[1],1,0.2860051282615613,0.49413618526209224,0.7852241487266204
48,20893.25,11544.0,"[2,5,6]",3,0.3114379852532859,0.17033905059185497,0.4345514371935796
48,43144.75,23759.0,[3],1,0.20422946507937242,0.5360596415428721,0.5405159208517588
48,11872.5,7632.0,[7],1,0.22496435677765544,0.3570612865390095,0.3699587206496622
48,27539.5,16051.0,"[5,8]",2,0.17056970875949595,0.1547689645124297,0.21104035988639244
48,18579.0,10801.0,[9],1,0.13414880035512344,0.15005597656966294,0.20874474689494701
48,11601.0,6233.0,[10],1,0.4063512056786979,0.4118622897230342,0.6172481914910563
72,15814.875,9138.0,[0],1,0.25879337215505416,0.14547607518681785,0.23966616914022365
72,12303.375,6305.0,[1],1,0.29624855151305163,0.4910546516615866,0.794273962843093
72,8903.625,4323.0,[2],1,0.33843269555812905,0.14947353856902407,0.09933061660247604
72,49926.375,28354.0,[3],1,0.208683736239816,0.5602094191162562,0.5566738782322271
72,7528.125,5033.0,[4],1,0.4901391318137485,0.21903651277543296,0.3197613071250087
72,27155.75,13386.0,"[5,8]",2,0.17687159805479558,0.15620259065322198,0.24104419144312897
72,7114.5,4485.0,[6],1,0.4508214944791487,0.1685941320526656,0.7171594532074059
72,10543.25,4607.0,[7],1,0.21640596504979587,0.3622924314231191,0.39252965447181953
72,19302.5,10013.0,[9],1,0.1339140153295686,0.15098420391938025,0.2063344798511776
72,10156.5,4356.0,[10],1,0.42270066161205644,0.431386624552005,0.6196192861231749
96,16607.4375,8700.0,[0],1,0.2680686884273404,0.14901191676663134,0.2463052697689221
96,12000.6875,5849.0,[1],1,0.35490048878870645,0.4926867288499743,0.8025303429221914
96,9774.8125,5323.0,[2],1,0.3586304746067899,0.15006022062949922,0.09971218098057939
96,56425.1875,31462.0,[3],1,0.23341725465334956,0.5779251257808374,0.5563809217028539
96,9491.0625,5727.0,[4],1,0.5036684941547243,0.22118057036095287,0.30951885442923394
96,21719.875,8142.0,"[5,8]",2,0.1875812624627802,0.15346995991405302,0.23636226126935647
96,9789.25,6232.0,[6],1,0.47273897817859345,0.17200181899135134,0.725562804876696
96,11905.625,6634.0,[7],1,0.21802628466739843,0.37781134934459326,0.4118181852194317
96,15189.25,5538.0,[9],1,0.13368572872632112,0.15287966651068963,0.20627011348614682
96,11471.25,6393.0,[10],1,0.43920048043899873,0.4707707876320738,0.6200379725822747
120,18618.71875,10315.0,[0],1,0.30627770533652615,0.14699275953848748,0.26692921479015763
120,13077.34375,7077.0,[1],1,0.4127656935193369,0.4785793385214956,0.7955872839271773
120,24371.03125,14589.0,"[2,6]",2,0.46791088586492086,0.1630749363280998,0.3620068477427873
120,56494.59375,28282.0,[3],1,0.26482318212771616,0.5893554928787115,0.556873162382254
120,13186.53125,8441.0,[4],1,0.5481341472419278,0.200626903185795,0.32234192981412724
120,5673.875,2692.0,[5],1,0.3190609421409313,0.18203364536653954,0.6883231343163844
120,9607.8125,3655.0,[7],1,0.2589686676010175,0.37244523812502356,0.43075513029985446
120,12771.0625,4893.0,[8],1,0.17631423535685212,0.137697452684243,0.06579890792006117
120,11203.625,3609.0,[9],1,0.13785764313592447,0.15135881084767214,0.20569033196755193
120,12182.625,6447.0,[10],1,0.4843520294894041,0.4822187924943724,0.6290914886884452
144,18903.359375,9594.0,[0],1,0.32303216198854795,0.15008321641787253,0.2651218057442524
144,13243.671875,6705.0,[1],1,0.43656695802418805,0.4862818110939865,0.7818136225106784
144,14349.203125,7218.0,[2],1,0.4536918273500086,0.15083646395553738,0.12247744361012528
144,50295.296875,22048.0,[3],1,0.2848924039422465,0.59675479852215,0.5432089922547608
144,15947.265625,9354.0,[4],1,0.5535245494265059,0.2047878157791918,0.33152312289540425
144,6362.9375,3526.0,[5],1,0.34707554435176113,0.18413771353008634,0.6615723858736788
144,14819.3125,9765.0,[6],1,0.5531004668549321,0.17007767958791833,0.6690409051907097
144,9507.90625,4704.0,[7],1,0.26723347884967125,0.40807735540942613,0.4202572001584923
144,11347.53125,4962.0,[8],1,0.1979867808944396,0.13769992416548713,0.06871814078502785
144,9228.8125,3627.0,[9],1,0.14817552412225754,0.15371103597297378,0.2065587663484116
144,14588.3125,8497.0,[10],1,0.5221968635716673,0.5151083390765225,0.6335246252432097
