time_in_hour,cumulative_size,size,pcore_ids,pcore_power,SCA-1,CD11b,Ly6C
-1,0,0,[],0,0.0,0.0,0.0
0,41923,41923,"[1,3,7,8]",4,185.23595639625185,141.37456765975753,262.9403191565487
0,20031,20031,"[2,4,13,15]",4,187.11272527582346,403.01512655384124,543.508062503121
0,4035,4035,[6],1,275.1893432465916,418.9888475836436,786.6912019826532
0,5266,5266,[12],1,354.59077098366413,340.8611849601219,641.2377516141266
0,5288,5288,[14],1,217.2772314674739,536.4897881996958,644.1197049924347
24,38548.1875,35928.0,"[1,3,7,8]",4,174.22388374291472,141.32723814835649,249.14242563285256
24,21324.25,20355.0,"[2,4,15]",3,182.0121340727123,418.6211590091097,517.9173945156339
24,6055.1875,5803.0,[6],1,226.6619014687817,399.7053353013423,771.1128164899928
24,5584.125,5255.0,[12],1,340.45525261343033,338.4934859982544,621.045799476192
24,5500.6875,5218.0,[13],1,128.33308336458205,449.3860994648398,582.6762791014758
24,7793.5,7463.0,[14],1,200.47130621672022,554.788461538462,632.7496712003591
48,5192.77734375,4871.0,[1],1,235.01721140616658,182.5859129755797,303.06224089800236
48,26495.55859375,24819.0,"[2,4,13,15]",4,194.81036827664167,428.4837261197821,481.6232298956936
48,34915.5078125,33048.0,"[3,8]",2,160.1336767218218,140.43279635996302,174.1537758002857
48,5453.44921875,5075.0,[6],1,297.19228226401657,385.4854217120317,727.6904732741549
48,3716.58984375,3574.0,[11],1,325.83052340277106,141.22702052768037,194.99015289343575
48,3657.0078125,3308.0,[12],1,340.23704809045483,341.1075215179763,600.6218604263634
48,6637.09375,6150.0,[14],1,233.40054829156185,547.1280245495238,586.8227204348672
72,5847.548583984375,5523.0,[1],1,260.8801759000309,168.24024381878414,312.1212923551243
72,29988.21923828125,27806.0,"[3,8]",2,165.48057590910102,138.38081270944366,187.8746675554051
72,3967.914794921875,3607.0,[4],1,169.8199486370766,352.9876805398088,467.4511268642341
72,4075.840576171875,3735.0,[6],1,300.6612171940393,385.1870660546616,770.6551278155547
72,4248.12353515625,4079.0,[7],1,244.75773103864594,206.35787480616736,750.8758224133188
72,3874.286865234375,3642.0,[11],1,411.7795626324611,151.673379469596,195.49059677628398
72,13287.586669921875,12445.0,"[13,15]",2,177.81932787399165,469.4628871647739,538.8896294240501
72,14979.818359375,14565.0,[14],1,222.22003983354114,547.5084912747853,587.8726715416734
96,7228.471786499023,6863.0,[1],1,289.8437464833868,162.87579134893556,303.81767975123637
96,4060.0294342041016,3839.0,[2],1,243.46401045822262,399.7290199607528,484.7650490191234
96,20339.263702392578,18465.0,"[3,8]",2,178.43144619097376,140.48788472282638,186.45289846711978
96,3951.994674682617,3704.0,[4],1,187.078805458221,340.0779038525329,444.24614268431725
96,4875.740036010742,4621.0,[6],1,383.6999994826828,397.4577300604396,770.7133044948339
96,4313.507720947266,4048.0,[7],1,351.2406063387209,182.1484183797322,742.012889598
96,4255.142929077148,4013.0,[11],1,428.3819697274545,142.33120871903307,176.5857641527945
96,3632.035186767578,3455.0,[12],1,397.55158623952036,427.60759940074195,631.1729863754708
96,14561.474166870117,13731.0,"[13,15]",2,208.09399676467422,479.71583920998364,520.2288469711403
96,18777.238647460938,17841.0,[14],1,260.6413584776072,547.2388566959985,565.5502022561427
120,8037.779486656189,7586.0,[1],1,332.05345623472107,147.48425773216874,296.30019078638145
120,16247.203981399536,14976.0,"[3,8]",2,200.4506602202658,133.0899618711985,181.63246243805042
120,4925.0589237213135,4797.0,[5],1,528.6245025114852,211.17028455391443,365.0817992371978
120,7348.733752250671,7044.0,[6],1,404.7077280041672,399.02762629606406,739.1901163278035
120,3988.594232559204,3719.0,[7],1,367.31498775935,189.01049319856267,726.0992787581645
120,4937.577675819397,4806.0,[9],1,578.0897570415236,127.0571002678667,625.5389375506182
120,8098.946433067322,7833.0,[11],1,489.31384959642406,131.6566896799633,172.8748752294981
120,16307.092135429382,15397.0,"[13,15]",2,231.2843809652198,505.9541912184486,511.74183066772633
120,13072.577415466309,11899.0,[14],1,293.29968299208343,555.3836043452528,561.3806452580427
144,8985.361217916012,8483.0,[1],1,350.98030031325544,153.23316870026838,297.0923104782356
144,15069.450248837471,14054.0,"[3,8]",2,219.3532357330234,136.76127535301865,185.53581471197836
144,4477.816182732582,4170.0,[5],1,524.3804302455994,230.86133702502454,374.4287432547492
144,7756.295859515667,7297.0,[6],1,426.93247443929545,401.32400735736354,700.6593170575101
144,4293.28713953495,4044.0,[7],1,391.8745352748683,193.85167079267657,674.1082341241943
144,5986.598604738712,5678.0,[9],1,552.4966530775366,129.4308663439495,628.2120602441845
144,4958.879873752594,4767.0,[10],1,412.60824084048375,128.8724491909704,502.1303822106635
144,7015.184152066708,6509.0,[11],1,474.9359166959159,132.66544536188397,182.58672821216402
144,15666.193258464336,14647.0,"[13,15]",2,260.2400860633495,496.5563728494537,498.6883344918325
144,10408.036088466644,9591.0,[14],1,327.6649309007851,575.5709719656877,548.4003127993954
