time_in_hour,cumulative_size,size,pcore_ids,pcore_power,SCA-1,CD11b,Ly6C
-1,0,0,[],0,0.0,0.0,0.0
0,8874,8874,"[0,6]",2,292.7156862745072,334.1286905566827,690.1725264818573
0,42608,42608,"[1,3,8]",3,200.20219207660796,143.32306139692116,224.96906684190654
0,25118,25118,"[2,9]",2,203.28171032725612,407.55179552512277,557.9005095947131
0,3452,3452,[4],1,218.51332560834322,157.5188296639624,661.426709154114
0,3435,3435,[5],1,369.91004366811876,140.62620087336265,694.4841339155765
0,18927,18927,"[9,10]",2,214.80578010249965,460.8575579859476,612.7201352565125
24,6144.5,5876.0,[0],1,217.5562393197167,349.679815281959,756.9345451216527
24,38953.0,36290.0,"[1,3,8]",3,186.77486811028973,142.3465281878163,213.44845390598857
24,29677.875,28108.0,"[2,9]",2,189.18011734330926,417.7798233532561,537.734560257431
24,4340.4375,3910.0,"[4,5]",2,251.77031405244253,150.74894523881525,671.6815701182205
24,6876.0,6461.0,"[6,7]",2,314.02562354566305,321.9891561227461,580.9372182228034
24,27765.9375,26583.0,"[9,10]",2,191.44607714038338,477.6144399050091,586.2591754735464
48,9795.9765625,9116.0,"[0,6]",2,298.7162582692958,358.96293599492697,661.8509540348606
48,45582.5625,43148.0,"[1,3,8]",3,187.95060259817265,153.31447238253116,203.6761667701871
48,26978.671875,24990.0,"[2,7,9]",3,209.15149047135182,412.0802330834268,486.7738155429467
48,2856.35546875,2767.0,[5],1,304.9080203548263,189.66600932405478,681.5415965220117
48,22644.37109375,20909.0,"[9,10]",2,215.3101081101325,476.3511535962223,533.30574634045
72,5415.064453125,5043.0,[0],1,276.84168861426247,328.2777174534432,756.0249523176286
72,36997.390869140625,34295.0,"[1,8]",2,189.71901216139304,147.16431498122193,210.45130716268721
72,15728.86669921875,14108.0,"[2,9]",2,202.86748470379197,409.4538049706402,514.584869923586
72,3761.519287109375,3615.0,[3],1,409.55842966231774,177.83810823821588,270.69456577493696
72,3878.522216796875,3700.0,[5],1,383.58007832724064,155.98714216859386,697.4922832553866
72,2757.18408203125,2517.0,[6],1,345.70053215029327,377.0279757444732,623.6574639086509
72,32895.273193359375,31480.0,"[9,10]",2,214.61854360561424,491.25945613283045,564.0342981071738
96,9494.765533447266,8984.0,"[0,6]",2,373.280226034734,364.7531654187398,707.0147618359837
96,27450.33692932129,25138.0,"[1,8]",2,211.47326143798665,152.23581739521686,220.37162403331487
96,15470.054168701172,14487.0,"[2,9]",2,230.72981436313125,409.3027212973597,495.4922405531872
96,4974.094955444336,4739.0,[3],1,414.0492168367382,158.14089782737145,219.19825348056446
96,3474.4076385498047,3232.0,[5],1,420.26897615028145,139.61645415323022,704.0585653074583
96,39412.95457458496,37357.0,"[9,10]",2,250.67742530745673,498.539054943493,546.291952171993
120,7198.2775955200195,6868.0,[0],1,394.58008462052214,332.70723711267465,727.9484929534558
120,8395.652627944946,7801.0,[1],1,308.02998826480797,161.0405808883631,312.97807610895904
120,10263.880934715271,9953.0,[3],1,478.4426123786284,147.86784840810267,202.4991882846361
120,3552.2013969421387,3396.0,[4],1,351.2899005076891,141.73506239312286,606.7774454709825
120,4551.150477409363,4334.0,[5],1,550.6264012254449,127.21393910120469,656.9096470047879
120,5572.145250320435,5309.0,[6],1,470.1971886171648,489.8312387889764,701.1178296681759
120,5295.481641769409,5154.0,[7],1,506.0195942154132,184.91379237821096,426.4984269763413
120,15283.993430137634,14163.0,[8],1,208.62790222266912,136.2778656895272,175.47884413664772
120,33541.30966091156,31078.0,"[9,10]",2,272.8263510293573,513.0265110201525,536.0503935365662
144,7356.892349720001,6907.0,[0],1,420.3910312131069,343.6264009992867,676.1812218387686
144,8283.72828924656,7759.0,[1],1,338.4775491029312,166.502509540215,319.77997804286656
144,15276.929899096489,14481.0,"[2,9]",2,264.5229485630813,452.3946715927956,486.35333850940265
144,9129.492558419704,8488.0,[3],1,458.6799702914299,147.98162282714878,209.81502642269473
144,11284.459492146969,10778.0,"[4,5]",2,469.88220915214566,139.7976199251474,607.9516835709118
144,6136.259078145027,5788.0,[6],1,490.07341462565495,488.64432506551043,690.4610113548322
144,5877.967602610588,5547.0,[7],1,481.4191372396612,199.88702796375154,419.6566447215531
144,15002.249589383602,14047.0,[8],1,228.8122656192396,143.79585957352649,187.50528559381246
144,29049.331853806973,26953.0,"[9,10]",2,297.83606086922225,512.9308616076247,520.771892150552
