time_in_hour,cumulative_size,size,pcore_ids,pcore_power,SCA-1,CD11b,Ly6C
-1,0,0,[],0,0.0,0.0,0.0
0,7747,7747,[0],1,295.2975345294917,363.0931973667218,734.4457209242306
0,40769,40769,"[1,6]",2,194.89862395447773,142.06720792759216,216.57656552772843
0,31835,31835,"[2,4,7]",3,207.0268572326063,404.9791738652443,575.6282707711642
0,6197,6197,[5],1,331.5305793125681,152.234791027917,689.8655801194119
24,8604.1875,8120.0,[0],1,243.2751930382719,368.13449119977906,743.3433357304184
24,38201.0625,35653.0,"[1,6]",2,184.24102405529007,142.04005778635076,207.49147029614602
24,39075.9375,37294.0,"[2,7]",2,193.43723838999605,445.4015274745475,565.4437561478836
48,9671.76171875,9134.0,[0],1,316.02743893203603,373.70985160973083,699.4634262679191
48,5837.34375,5237.0,[1],1,255.05471238523307,166.74361064268325,295.92319253727305
48,19130.96875,17990.0,[2],1,194.517198064004,390.99099219034645,459.6871936209467
48,5574.08203125,5358.0,[5],1,303.3674511988703,163.0131355709499,632.877017305959
48,37407.22265625,35620.0,[6],1,171.41079163668712,133.05246803837173,167.54027218799294
48,16490.27734375,15189.0,[7],1,211.3092963633174,524.800432830804,549.752334649842
72,6383.485107421875,5779.0,[0],1,315.75743445027587,357.6370903004975,730.2857523620055
72,39273.785400390625,36571.0,"[1,6]",2,200.85952116808437,146.70100890853405,210.81361955808634
72,40572.327880859375,38346.0,"[2,7]",2,212.2701397373666,469.72852721817975,549.2795835682466
96,6934.967819213867,6536.0,[0],1,382.56083145370775,369.4729026554645,734.6454441947708
96,9696.614624023438,9131.0,[1],1,279.85266192404225,175.24023712153297,317.5127270408276
96,47508.77049255371,44973.0,"[2,7]",2,248.63014206287608,479.0380071485463,536.3610275742262
96,20082.996963500977,18194.0,[6],1,193.3619619121971,141.5743853143894,178.55044282257788
120,10051.435488700867,9618.0,[0],1,442.9596594380944,438.1075392738129,717.3629493252
120,8789.038414001465,8183.0,[1],1,333.45359586978924,167.64533797316184,340.4886596870216
120,36081.29815578461,33112.0,"[2,7]",2,269.4031955372232,505.9590038128946,532.2815361877929
120,17012.713119506836,16444.0,"[3,4]",2,449.9408248642947,161.4923936181458,379.1075276855413
120,7059.321797370911,6892.0,[5],1,545.4389265162142,143.6691801089296,573.5584100090548
120,17006.18731021881,15751.0,[6],1,214.20700680406333,137.26494535879743,181.535707783824
144,10794.214718043804,10166.0,[0],1,468.07979177148616,442.3242198690515,684.9317116683437
144,9137.314900875092,8588.0,[1],1,368.92840681662017,178.71826679132002,364.928705042849
144,33070.08113473654,30815.0,"[2,7]",2,295.57209200876406,501.5727217864528,516.0437611596908
144,10376.412975549698,9680.0,[3],1,470.56062156841386,154.19129431699795,224.1581534500789
144,15423.089206755161,14615.0,"[4,5]",2,470.04708367558317,163.4616995521021,607.5949905093318
144,17198.886706888676,16136.0,[6],1,236.67728321182827,145.30941033193074,194.49618731945074
