time_in_hour,cumulative_size,size,pcore_ids,pcore_power,SCA-1,CD11b,Ly6C
-1,0,0,[],0,0.0,0.0,0.0
0,8800,8800,[0],1,NA,NA,NA
0,45370,45370,"[1,5,6]",3,NA,NA,NA
0,27263,27263,"[2,7]",2,NA,NA,NA
0,4551,4551,[4],1,NA,NA,NA
24,11458.0,9258.0,[0],1,NA,NA,NA
24,49163.5,37821.0,"[1,5,6]",3,NA,NA,NA
24,41351.75,34536.0,"[2,7]",2,NA,NA,NA
24,6761.75,5624.0,[4],1,NA,NA,NA
48,10060.5,7196.0,[0],1,295.9592714079788,NA,NA
48,49150.625,38580.0,"[1,6]",2,NA,NA,NA
48,42273.9375,31936.0,"[2,7]",2,NA,NA,NA
48,10806.375,8144.0,"[3,5]",2,NA,NA,NA
48,5834.4375,4144.0,[4],1,NA,NA,NA
72,8892.125,6377.0,[0],1,NA,NA,NA
72,45099.65625,32812.0,"[1,6]",2,NA,143.14125488761348,NA
72,46337.484375,35769.0,"[2,7]",2,NA,NA,NA
72,13418.59375,10717.0,"[3,5]",2,NA,NA,NA
72,5783.609375,4325.0,[4],1,NA,NA,NA
96,10125.03125,7902.0,[0],1,NA,NA,NA
96,13630.0,9956.0,[1],1,NA,NA,NA
96,53299.37109375,41715.0,"[2,7]",2,NA,NA,NA
96,15078.6484375,11724.0,"[3,5]",2,NA,NA,NA
96,5598.90234375,4153.0,[4],1,NA,NA,NA
96,22150.9140625,14550.0,[6],1,NA,135.10666831962595,NA
120,13537.2578125,11006.0,[0],1,NA,NA,NA
120,12218.5,8811.0,[1],1,NA,NA,NA
120,44782.8427734375,31458.0,"[2,7]",2,NA,NA,NA
120,21671.662109375,17902.0,"[3,5]",2,NA,NA,NA
120,10107.7255859375,8708.0,[4],1,NA,NA,NA
120,17652.728515625,12115.0,[6],1,NA,131.77271987986123,NA
144,14981.314453125,11597.0,[0],1,NA,NA,NA
144,13189.625,10135.0,[1],1,NA,NA,NA
144,40515.710693359375,29320.0,"[2,7]",2,NA,NA,NA
144,22330.91552734375,16913.0,"[3,5]",2,NA,NA,NA
144,12748.931396484375,10222.0,[4],1,NA,NA,NA
144,16226.18212890625,11813.0,[6],1,NA,NA,NA
