time_in_hour,cumulative_size,size,pcore_ids,pcore_power,SCA-1,CD11b,Ly6C
-1,0,0,[],0,0.0,0.0,0.0
0,12765,12765,[1],1,0.22261573737880727,0.40817120484639785,0.5562492966482488
0,12614,12614,[2],1,0.2181308266363593,0.1754720030247223,0.27340887189014335
0,15624,15624,[3],1,0.2343305746848709,0.5315426522139048,0.6251005676835495
0,6601,6601,[6],1,0.3431427652262408,0.17142181940073573,0.7254436713881147
0,24044,24044,[7],1,0.20610552002976087,0.1495086120393163,0.13444815722029935
0,6891,6891,[8],1,0.3231321101126821,0.42314751157487,0.7788101325798888
24,18380.25,15189.0,[1],1,0.2126683058834086,0.4214868950238675,0.5383408173699035
24,12394.5,9241.0,[2],1,0.21333322908267138,0.17619178719067694,0.2813679751085793
24,24991.0,21085.0,[3],1,0.21443934423134156,0.5573632186320134,0.6127722349756379
24,30400.0,24389.0,[7],1,0.1983590423565981,0.15202386356870645,0.13313707910854436
24,8909.75,7187.0,[8],1,0.26852245882635084,0.4263825066316709,0.7857761801074875
48,20966.0625,16371.0,[1],1,0.23011047850102212,0.440919281088243,0.4930133272369441
48,12897.625,9799.0,[2],1,0.22021581688728703,0.18600804451133526,0.2661721507445075
48,22542.75,16295.0,[3],1,0.23844804422159774,0.5566187535537669,0.5688592348875146
48,38084.0,30484.0,[7],1,0.19996222314304896,0.16122455449159434,0.13487083462380156
48,8451.4375,6224.0,[8],1,0.3171854698277402,0.41976948217228305,0.7523034663173809
72,13932.515625,8691.0,[1],1,0.22748350990489696,0.43479156540069075,0.5068832879748238
72,13052.40625,9828.0,[2],1,0.23129809624140363,0.18856656424750046,0.27693840936635
72,34499.6875,28864.0,[3],1,0.24208604264958955,0.564718261862901,0.5837983149035493
72,33468.0,23947.0,[7],1,0.20114484305736802,0.1575408352940765,0.14260683556832304
72,7286.859375,5174.0,[8],1,0.3242043098831763,0.40036674211103856,0.7772427233059032
96,7268.8203125,5951.0,[0],1,0.4599747506234427,0.19248622579446614,0.23210834444887576
96,12963.12890625,9480.0,[1],1,0.24169036661345317,0.43790739433521986,0.4929592057754828
96,11785.1015625,8522.0,[2],1,0.25506463787801364,0.19540332659108614,0.2873737967639108
96,42534.921875,33910.0,[3],1,0.2773323604119633,0.5735699426368814,0.5695264949433476
96,6737.56640625,5167.0,[6],1,0.4176658571816671,0.17130105234037626,0.7247253039011614
96,24295.0,15928.0,[7],1,0.20964817852918952,0.1594699226472724,0.1421034817072504
96,7058.71484375,5237.0,[8],1,0.39823924101610564,0.4065016065163732,0.7873598530315842
120,13539.205078125,11722.0,[0],1,0.5356658503293183,0.1746253243496888,0.19911720587499784
120,7114.7822265625,3874.0,[1],1,0.2412223510833792,0.4566368545098346,0.4913553554795512
120,10442.275390625,7496.0,[2],1,0.2956761934668298,0.1856259039578583,0.2948225020101145
120,38785.73046875,28152.0,[3],1,0.3007309534910608,0.5865680678294086,0.5557288782318366
120,7021.48046875,6183.0,[4],1,0.5090617979497125,0.18144911148025708,0.47308366611578895
120,8555.3916015625,6871.0,[6],1,0.5048570704769434,0.15956909122680013,0.704766070792697
120,19488.75,13415.0,[7],1,0.22563158697370697,0.1562828253873191,0.141597807642347
120,9515.6787109375,7751.0,[8],1,0.43981585130048617,0.43256577625353526,0.7761324622836485
144,13147.80126953125,9763.0,[0],1,0.5242834139580966,0.17426426533864706,0.20070509827043737
144,9295.695556640625,7517.0,[1],1,0.27300015121093635,0.47348043061941647,0.4781473419564625
144,10754.56884765625,8144.0,[2],1,0.3412134262524966,0.18755028571401428,0.3015198221784964
144,32258.4326171875,22562.0,[3],1,0.33278160347836994,0.5930101207374769,0.542146243562876
144,9447.3701171875,7692.0,[4],1,0.5135068871606687,0.1952469607894355,0.46439154461319476
144,10822.847900390625,8684.0,[6],1,0.5362248415879405,0.16039554151099897,0.6688380645265801
144,17760.1875,12888.0,[7],1,0.24525105891572926,0.16038352583609938,0.1493978751941316
144,10492.919677734375,8114.0,[8],1,0.466488671085374,0.4255166986254362,0.7297156667096779
