time_in_hour,cumulative_size,size,pcore_ids,pcore_power,SCA-1,CD11b,Ly6C
-1,0,0,[],0,0.0,0.0,0.0
0,8172,8172,"[0,6]",2,0.3042756301319372,0.3797668564771446,0.7271510519379001
0,29951,29951,"[2,10,11]",3,0.2469120162182508,0.4707034309885641,0.6016892550334063
0,4653,4653,[5],1,0.36296264099275927,0.17557105667243367,0.732204047775295
0,39392,39392,"[7,9]",2,0.22210703821685351,0.16144126583802362,0.19332580162795088
24,8552.75,7074.0,[0],1,0.25907877057743683,0.41071294181662754,0.7807338240692703
24,50353.5,41911.0,"[2,6,8,10,11]",5,0.23438043035737535,0.47870932035396585,0.5828322932811539
24,3101.25,1938.0,[5],1,0.34009899958787576,0.17872737784538084,0.7414702743074552
24,44147.0,34299.0,"[7,9]",2,0.20942146042728396,0.16092732071492538,0.18305262843517783
48,8418.1875,6280.0,[0],1,0.315058945990316,0.426110664359256,0.7752304999553604
48,6549.25,5143.0,"[4,5]",2,0.3215956197060025,0.17177731569899285,0.6717081143703606
48,6593.0625,5531.0,[6],1,0.4077976605686836,0.3993798714360606,0.5949874316369157
48,51332.75,40296.0,"[7,9]",2,0.20582242680891702,0.1553413957413115,0.1599999643142319
48,25276.125,20396.0,"[8,10]",2,0.20948497996927626,0.4600787134157548,0.47721834388180584
48,35627.5625,26257.0,"[10,11]",2,0.21836184501532957,0.5360893505945418,0.5363766023644243
72,7117.546875,5013.0,[0],1,0.3293192339206963,0.38492476993005886,0.783657713160828
72,6455.3125,4818.0,"[4,5]",2,0.3555529398582389,0.18770673532817966,0.7072686550814653
72,3284.265625,1636.0,[6],1,0.45817380676945146,0.3769299139922099,0.583348046540788
72,48225.1875,35392.0,"[7,9]",2,0.22335364228682555,0.15331029645030594,0.1681474910991923
72,21614.03125,15295.0,"[8,10]",2,0.22969710183419445,0.42464060037148077,0.5082865888812665
72,47824.890625,38918.0,"[10,11]",2,0.23870885894419697,0.5361252705142505,0.575805643892634
96,6408.38671875,4629.0,[0],1,0.39802946239847503,0.3923727630333167,0.7764926008850885
96,14885.2890625,12435.0,"[1,7]",2,0.34178566811728495,0.19521204387083885,0.2712635629404455
96,7325.828125,5712.0,"[4,5]",2,0.4036077334030315,0.18580852190036568,0.7048485534975922
96,15596.5078125,10193.0,"[8,10]",2,0.2523849610551367,0.42473085077879236,0.490172078227854
96,37340.296875,25284.0,"[7,9]",2,0.2406477758502354,0.1708092538807416,0.18999921087464922
96,54030.22265625,42074.0,"[10,11]",2,0.2770801733284296,0.5416713491974233,0.5594018885375291
120,12742.86328125,10619.0,"[0,6]",2,0.4728777737719199,0.45041508853480894,0.7359434699011559
120,12374.712890625,11120.0,[1],1,0.5180532582510112,0.17649079018858058,0.1995827983564208
120,46992.5732421875,32982.0,"[2,10,11]",3,0.30278977587058065,0.5634515980968331,0.5526276675247564
120,6224.32421875,5757.0,[3],1,0.5676096983546961,0.1810191608645476,0.4724293488954901
120,3850.9833984375,3033.0,[4],1,0.3842948758195047,0.1717063655134779,0.6475039847782493
120,5192.4736328125,4179.0,[5],1,0.5476782984971302,0.17407674027792394,0.7252141966498955
120,9757.609375,7291.0,[7],1,0.33259464908122127,0.18697113128917753,0.2961561669417366
120,20814.46484375,13946.0,[9],1,0.23339447650839942,0.15924909177903432,0.15318608278354662
144,14253.7158203125,11068.0,"[0,6]",2,0.5008759160786841,0.4683967715799751,0.7122206480936062
144,22494.08056640625,16961.0,"[1,7]",2,0.44383311093153316,0.18429023985216308,0.24856261313369027
144,42499.143310546875,30751.0,"[2,10,11]",3,0.3320160709044362,0.5617452053751685,0.5348860978783169
144,7946.0810546875,6390.0,[3],1,0.5351886403846161,0.1937055143199156,0.45187243239556374
144,12295.8642578125,10035.0,"[4,5]",2,0.5144020956314684,0.17313570108421497,0.6536303827382045
144,18654.6162109375,13451.0,[9],1,0.2559870528198136,0.16417377461632118,0.16043338060891207
