time_in_hour,cumulative_size,size,pcore_ids,pcore_power,AF700 CD48_[R 730_B-A],APCCy7 Ly6G_[R 780_A-A],BV421 CD117_[V 440_F-A],BV510 SCA-1_[V 525_E-A],BV605 CD11b_[V 610_D-A],BV650 CD150_[V 660_C-A],BV711 CD11c_[V 715_B-A],BV785 B220_[V 780_A-A],FITC Ly6C_[B 525_B-A],PE CD115_[YG 582_D-A],PECF594 CD135_[YG 610_C-A],PECy5 CD3-CD19-NK11_[YG 670_B-A],PECy7 CD16-32_[YG 780_A-A],PerCPCy5-5 CD45_[B 695_A-A],_FSC-A,_SSC-A
-1,0,0,[],0,0.0,0.0,0.0,0.0,0.0,0.0,0.0,0.0,0.0,0.0,0.0,0.0,0.0,0.0,0.0,0.0
0,26722,26722,[0],1,0.24574821588953344,0.11391119830101948,NA,0.4607067448170037,0.3859901952698115,NA,0.15641974998128916,NA,NA,0.348222410822545,0.12646364924033016,1.0943098345932143,0.666922167502432,NA,69332.5230147444,13132.293690591978
0,27612,27612,[10],1,1.9894066174851488,0.27185697841518897,NA,NA,NA,NA,NA,NA,5.722183993807044,NA,0.41904881033608365,0.1715853557873389,2.461721771983192,NA,NA,26596.250905403336
0,53494,53494,[13],1,0.46561937252775887,NA,NA,0.6341496725801141,NA,1.3257216467641297,NA,NA,4.022498425412152,NA,0.1872216578120658,0.06909525690731577,2.255005657849486,NA,NA,19069.415784947745
0,63082,63082,[18],1,0.012546166180530616,NA,NA,0.6065094890618576,2.970441193509991,NA,0.648710299800265,NA,NA,NA,-0.011125296439588261,0.10943823207888348,2.1904522543039033,NA,66813.26781015142,17477.251323673972
24,49338.0,22616.0,[0],1,0.22928179247233915,0.10382904949531602,NA,0.513690307146625,0.34425740836678287,NA,0.14221451747131608,NA,NA,0.3235456376018533,0.12221651864687022,1.1004800971462259,0.6257596350075038,NA,70725.59601118788,13724.59102517322
24,43626.0,23799.0,[5],1,0.2085373001421018,0.16222614720580397,NA,0.44514575484802776,0.3058500245037292,NA,0.07895995495805375,NA,NA,0.3078330596891786,0.14831226811995135,0.1989437648879071,0.3658981450052776,NA,NA,11439.959657085144
24,50492.0,22880.0,[10],1,1.9982448455002728,0.3236754035886862,NA,NA,NA,NA,NA,NA,NA,NA,0.3976561971203125,0.1899374325833757,2.47764859787688,NA,NA,30460.762734690466
24,91847.0,38353.0,[13],1,0.4890484615828563,NA,NA,0.6650331624876058,2.9794569882630966,NA,-0.5998770427667885,0.8315191638377333,NA,NA,0.1676271208966944,0.07176612112534697,2.2348753828649617,NA,67344.20712707,20194.358356832745
24,37771.0,20429.0,[14],1,1.2713182471737652,0.5918580600990131,2.8782422429906522,2.217000883217253,NA,NA,NA,1.0671966072383667,NA,3.244120509517873,1.3773907409652875,0.4956121888750633,2.387495670990986,NA,NA,NA
24,50028.0,25544.0,[15],1,0.3101017609138914,0.11863793815462342,NA,0.4551809297393383,0.10991631394419699,NA,-0.06341839571838603,NA,NA,0.2786863089070163,0.1448228570600194,0.8788138746901739,0.5265843845246637,NA,71022.22179579473,14009.497401455195
24,107429.0,44347.0,[18],1,0.028539084893285382,NA,2.051512958791372,0.6446976950078613,2.9929762585335005,NA,0.6759279432369358,NA,3.996124818047283,NA,-0.04043775693715412,0.11511136814082046,2.1669995432332176,NA,66944.1024676758,18716.733842817415
24,40062.0,20739.0,[19],1,0.3056687706804495,0.15377415141530149,NA,0.37810001862112497,0.249567759073424,NA,0.10398045828964397,NA,NA,0.3159577603215049,0.15356421364384643,0.8480768760920565,0.5089187252258921,0.5967688936648097,NA,15626.097948180075
24,61052.0,38572.0,[20],1,0.2543426623042644,NA,1.7250321300694282,0.6138373358448819,NA,NA,0.2369063821659818,0.481833564354996,NA,NA,0.16143100928715803,0.1252460353796776,1.5345404204284825,NA,NA,19437.724169560403
24,26990.0,13863.0,[21],1,0.7485392975176102,NA,NA,0.9587321855502102,NA,NA,0.41304824868469714,NA,NA,NA,0.18038752097072486,0.14528077751018809,2.219585452278635,NA,NA,32234.680103742015
48,63412.0,14074.0,[0],1,NA,0.10180403029394292,NA,NA,0.32460855137829236,NA,NA,NA,NA,NA,0.1153468623604228,NA,0.6293932706427875,NA,NA,13748.187472402788
48,68352.0,24726.0,[5],1,0.17866195975244503,0.1710343220388677,NA,NA,0.2885359548659814,NA,0.06631776174801818,NA,NA,0.28848427330583126,0.14900512198619564,0.1834600764132711,NA,NA,NA,12255.996254681506
48,30143.0,15970.0,[8],1,0.3913838142520629,0.6926193444912507,NA,NA,NA,NA,NA,NA,NA,NA,0.33477678771189545,0.16231243097899428,NA,NA,NA,19349.1854161827
48,76311.0,25819.0,[10],1,NA,0.31804169594161236,NA,NA,NA,NA,NA,NA,NA,NA,NA,0.1850774704040029,NA,NA,NA,NA
48,125423.0,33576.0,[13],1,NA,NA,NA,NA,NA,NA,NA,NA,NA,NA,NA,0.061882480940498086,2.2735651510647896,NA,NA,19962.324230803126
48,48811.0,11040.0,[14],1,NA,0.5877240439450153,NA,2.188761923336927,NA,NA,NA,NA,NA,NA,1.3447370892011863,0.4809968062117087,NA,NA,NA,NA
48,79987.0,29959.0,[15],1,0.302118237876152,0.1165589033093144,NA,NA,0.10892628493381107,NA,NA,NA,NA,0.274896683761109,0.13444325102827648,NA,0.53990957243051,NA,NA,14244.622751197177
48,140614.0,33185.0,[18],1,NA,NA,NA,NA,NA,NA,NA,NA,NA,NA,NA,0.1072362344076696,NA,NA,NA,18614.798298889134
48,61685.0,21623.0,[19],1,0.28532733763475737,0.15254317047904742,NA,NA,0.26047990334763327,NA,NA,NA,NA,0.3019248546324087,0.1343553739806791,NA,0.5333210047661471,NA,NA,15786.877976817588
48,100803.0,39751.0,[20],1,NA,NA,NA,NA,NA,NA,NA,NA,NA,NA,0.13637076238805257,0.11080013327977167,NA,NA,NA,18907.88615418209
48,43472.0,16482.0,[21],1,NA,NA,NA,NA,NA,NA,NA,NA,NA,NA,NA,0.13846049788369297,NA,NA,NA,34380.3680529995
48,27150.0,6366.0,[24],1,NA,0.0029840832412544316,NA,NA,0.19574213675874086,NA,NA,NA,NA,0.32577747554327674,0.18568966482504878,NA,NA,NA,NA,12824.54394106814
72,88134.0,24722.0,[0],1,0.21202654270769994,0.12285988660449565,NA,0.5567410861642368,0.3300540876506166,NA,0.100882245251539,NA,NA,0.29590798869902735,0.12008528996756462,1.0576377683981255,0.6456362362538991,1.3094010167812302,70570.6913563433,14494.528785712824
72,26639.0,5820.0,[1],1,0.4226452548519124,0.11199200161417178,NA,NA,0.06169268940275474,NA,NA,NA,NA,0.42072122722324434,0.2096374416081943,1.535551155336159,0.7261650544314694,NA,73891.52085288521,15580.695371447913
72,82320.0,13968.0,[5],1,0.18619163197277944,0.1872037523202228,NA,0.4759181075437491,0.3091175434523685,0.17782822370021445,0.06221806042275668,NA,NA,0.29239549114431995,0.15149377453841328,0.20287045234451306,0.34874840529640383,NA,NA,12712.013216715199
72,54897.0,24754.0,[8],1,0.3749837779842169,0.899072629688312,NA,0.7794683304187973,NA,NA,-0.22911643973259554,0.744459008925817,NA,0.47574674158878594,0.33051087232453247,0.15791353675063857,0.9370846495254807,NA,NA,20456.273238974667
72,88883.0,12572.0,[10],1,2.032769096351352,0.3324337148498606,NA,NA,NA,NA,NA,NA,5.766764996602336,NA,0.39748993403687916,0.18956866086877622,2.5202444733638663,NA,NA,31514.798015368935
72,154373.0,28950.0,[13],1,0.5112172648325726,NA,NA,0.718960328950013,2.9756239890720217,NA,NA,0.8527094159341484,NA,0.5969466348713851,0.21086439442776816,0.06971182721071278,2.251027229159217,NA,NA,21307.33845944566
72,64409.0,15598.0,[14],1,1.2735896779176967,0.6271666993432792,2.7061569524290623,2.233050741014447,NA,NA,NA,1.0768508668820131,NA,3.102251506202545,1.3606004953344777,0.47420673626356014,2.3758141424335175,NA,NA,NA
72,201483.0,59811.0,"[15,19]",2,0.28133350853917904,0.15361932876222495,NA,0.4480001786701484,0.19446726576931184,NA,-0.0017021796132010714,NA,NA,0.28561314565000506,0.14032768199302303,0.7661963638172911,0.5459912994892818,NA,69667.04478293439,15647.225105840129
72,175964.0,35350.0,[18],1,0.025431945125165667,NA,NA,0.7037060259655239,3.0010594856049395,NA,0.6936449954535866,NA,NA,0.4407430277840767,-0.0038663742186124672,0.1121107918381008,2.184414945892342,NA,NA,19691.14337023457
72,161314.0,60511.0,[20],1,0.24491635672662038,1.3644133826016027,NA,0.6951117978353212,2.0622948939707446,NA,0.2158369878187325,0.538907325613442,NA,0.4542442949650971,0.17782667628349103,0.12465826012002068,1.5238279091523328,NA,64188.13732223976,20964.41692599546
72,53419.0,9947.0,[21],1,0.8265819918568502,0.7306886085100577,NA,1.0536356401654845,NA,NA,NA,0.8139250376645055,NA,NA,0.21696456146689558,0.14308943241169036,2.253773542952887,NA,NA,34785.26217263506
72,30762.0,13331.0,[22],1,0.33331392012874383,0.5658689563097297,NA,0.9233119757167771,0.8897250861452735,NA,0.30691512873026605,NA,NA,0.5038751452116167,0.34243330089069923,0.2562735951498556,0.7399613873285366,NA,NA,23895.095507444086
72,34066.0,6916.0,[24],1,0.08800170927023543,0.02841582205131621,NA,NA,0.20876886737508693,NA,NA,NA,NA,0.3341341733399851,0.18895593497915542,1.939997537838317,0.73548252034286,NA,73684.58310338814,13507.905829859714
72,33170.0,9106.0,[26],1,0.43754827024418264,0.17872668863430885,NA,0.5904211969550928,0.19110511600844005,NA,-0.32652715501958474,NA,NA,0.4208228220982745,0.2057984921615832,1.0261176183599465,0.6792778690081348,NA,73183.88037383204,18430.078263491072
96,526920.0,91907.0,"[0,1,3,4,11,15,19,24,26]",9,0.28773748439041746,0.14457205036058518,NA,NA,0.2621093933557197,NA,0.00438009784216753,NA,NA,0.3393070745786826,0.16397830797275637,NA,0.644056382348365,NA,71377.43347756764,15391.457071282139
96,12173.0,1640.0,[17],1,0.6069932420110016,0.36752995301076785,NA,NA,NA,NA,NA,NA,NA,0.4894392614803277,0.4280126019880006,0.2665729730551215,0.5381318246939971,NA,57074.482871929664,19837.187217612678
96,192138.0,24159.0,"[5,8,22]",3,0.28765995536020483,0.5005511012917747,NA,0.6907751089477516,0.6910282986291083,NA,0.0344270511299305,NA,NA,0.40637566074904485,0.25875563540269253,0.20564683925095462,0.6275702067368235,NA,NA,17284.618014135638
96,204989.0,20904.0,"[6,20]",2,0.3548869159369439,NA,NA,0.7608965642546841,NA,NA,0.24585206069101728,NA,NA,NA,0.20735354942944761,0.13609664553708267,1.5330636318095103,NA,63979.34531121084,21172.47532306617
96,14653.0,3012.0,[9],1,0.826701667098894,0.5408025078140843,NA,NA,NA,NA,NA,NA,NA,1.0056974607247682,0.723342243772608,0.34846552207738446,0.8731779531836535,NA,NA,41208.88500648361
96,108360.0,19477.0,[10],1,2.0796391878552765,0.33886499065155196,NA,NA,NA,NA,NA,NA,NA,NA,0.43232431841083097,0.20082603166296709,2.5263117331210663,NA,NA,31354.697379106787
96,259532.0,51740.0,"[13,21]",2,0.6030958920133336,NA,NA,0.859489588582536,NA,NA,NA,NA,NA,NA,0.21559392314630088,0.08893464587796507,2.318131277572735,NA,NA,24207.81603809919
96,75326.0,10917.0,[14],1,1.3213253651594574,0.6392234692669163,2.7178764363699472,2.270646109723048,NA,NA,NA,NA,NA,3.1090425516687388,1.3973001772030518,0.4920092803812717,2.422746568488984,NA,NA,NA
96,17605.0,4069.0,[11],1,0.3401029627946561,0.21518608185173793,NA,NA,0.5482957854586745,NA,NA,NA,NA,0.4403332816245382,0.1814675756887172,NA,0.7386695836978227,NA,73881.73814257274,18863.79005964216
96,225569.0,49605.0,[18],1,0.03468369173956298,NA,2.000551298520693,0.7764838421946298,NA,NA,NA,NA,NA,NA,-0.006204712575740068,0.11643457003400148,2.2689603084599255,NA,67605.48947771935,19501.500436673006
96,39587.0,7398.0,"[9,23]",2,NA,0.3729051531058247,NA,NA,0.49701782612979617,NA,NA,NA,NA,0.9441210645413957,0.6466556643847685,0.269909631318361,0.845447154874078,NA,NA,36243.81094803862
96,25959.0,4999.0,[25],1,1.1483921831734512,0.25054166266037736,NA,NA,NA,NA,NA,NA,NA,NA,0.3019774941638729,1.130055129434888,0.5428237295350266,NA,81735.84005547209,20556.620516969
120,1511036.0,238582.0,"[0,1,2,3,4,5,6,7,8,9,11,12,15,16,17,18,19,20,22,23,24,25,26]",23,0.3240665087906618,NA,NA,NA,NA,NA,NA,NA,NA,0.456219676096404,0.19645832352570958,NA,NA,NA,68301.48936226507,18218.934505862013
120,272475.0,71327.0,"[13,27]",2,0.5719959963923336,NA,NA,0.9267453289622987,NA,NA,NA,NA,NA,NA,0.25009497156807514,0.08558396166254323,2.4290257380897398,NA,NA,20980.60930360547
120,20674.0,3800.0,[2],1,NA,0.12659225858566492,NA,NA,0.2914971359195171,NA,NA,NA,NA,0.48315327744993886,0.2001811241656215,NA,0.36849881043823207,NA,81025.91003192417,16852.688400889994
120,80250.0,14594.0,[21],1,0.8565780513021852,0.7804003930591814,NA,1.1917872327850736,NA,NA,NA,NA,NA,NA,0.24835393018070873,0.1490193628909725,2.322970722043627,NA,NA,33422.864747663334
120,219183.0,35497.0,"[10,14]",2,1.8229309539334622,0.4783156240538857,NA,NA,NA,NA,NA,NA,NA,NA,0.8512919437547439,0.33169372671237374,2.506626840694781,NA,NA,NA
120,7335.0,1895.0,[7],1,NA,0.7166627931833585,NA,NA,NA,NA,NA,NA,NA,1.4446706269938683,1.273616641581468,0.6094468158145907,NA,NA,NA,37993.10483980915
120,17487.0,2834.0,[9],1,NA,0.5635029304054293,NA,NA,NA,NA,NA,NA,NA,1.0084691873391676,0.7402631837364879,0.35096592480127786,0.878448491222053,NA,NA,40715.58346200054
120,45537.0,10511.0,"[11,12]",2,NA,0.2489925883127988,NA,NA,0.5068497053604761,NA,NA,NA,NA,0.5152327935085711,0.4082695428552694,NA,0.6929664840898643,NA,NA,19615.10261984757
120,21733.0,4176.0,"[16,17]",2,0.7618070521787079,0.41135625767266903,NA,NA,NA,NA,NA,NA,NA,NA,0.5416523659411925,0.3230426423871505,NA,NA,NA,21086.025491188495
144,2405289.0,322345.0,"[0,1,2,3,4,5,6,7,8,9,10,11,12,13,14,15,16,17,18,19,20,21,22,23,24,25,26,27]",28,NA,NA,NA,NA,NA,NA,NA,NA,NA,NA,0.27615296550434687,NA,NA,NA,NA,23010.21813844373
144,10345.0,3010.0,[7],1,NA,0.7040546416626272,NA,NA,NA,NA,NA,NA,NA,NA,1.2626704751087394,0.6909819008216542,NA,NA,NA,37150.04195263397
144,19631.0,2144.0,[9],1,0.8338657740308622,0.5665174285568657,NA,1.5132028280271088,NA,NA,NA,NA,NA,NA,0.7469941957618076,0.36963483694156896,0.8894488581325449,NA,NA,40592.167082675434
144,26704.0,4971.0,"[16,17]",2,0.7619554989889119,0.39977357485770826,NA,NA,NA,NA,NA,NA,NA,NA,0.5422362235620137,0.424657845116834,NA,NA,NA,20534.715398442142
168,2765289.0,360000.0,"[0,1,2,3,4,5,6,7,8,9,10,11,12,13,14,15,16,17,18,19,20,21,22,23,24,25,26,27]",28,NA,NA,NA,NA,NA,NA,NA,NA,NA,NA,0.28624325526084027,NA,NA,NA,NA,NA
168,14405.0,4060.0,[7],1,NA,0.6652809110725375,NA,NA,NA,NA,NA,NA,NA,NA,NA,NA,1.7665763659840366,NA,NA,37943.811732037335
168,22305.0,2674.0,[9],1,NA,0.5547582011656478,NA,NA,NA,NA,NA,NA,NA,NA,0.7602450721362999,0.3637465864155982,NA,NA,NA,41136.70369872235
168,10628.0,2526.0,[16],1,NA,0.4838987302408846,NA,NA,NA,NA,NA,NA,NA,NA,NA,0.5384911094279234,NA,NA,NA,24197.991719984897
