Day,Population,Freq of sample,CD48,Ly6G,CD117,SCA-1,CD11b,CD150,CD11c,B220,Ly6C,CD115,CD135,CD3 CD19 NK1.1,CD16-32,CD45
0,B cells (immature),58500,0.1702434867,0.2358955311,0.3178668308,0.268151966,0.2534723794,0.2204481154,0.2444816317,0.5435665082,0.1583301437,0.0950421883,0.2463516582,0.2370997166,0.1488903776,0.2520420544
0,B cells (mature),21276,0.1464658162,0.2254299899,0.2692840002,0.3273623217,0.2597608333,0.2354367425,0.2487195501,0.6639726216,0.1717759075,0.1028480448,0.2502971195,0.3663488075,0.1727098921,0.4545402466
0,Eosinophils,14355,0.2557548307,0.2692230591,0.5896825519,0.4666808057,0.4643976038,0.3976213741,0.1941294152,0.3385184736,0.5937167818,0.4493079868,0.3778670352,0.1391728289,0.3674505175,0.5228300351
0,Stem and progenitors,6327,0.2552031446,0.2480508627,0.7470198677,0.3512072161,0.2830805165,0.2734847958,0.27170487,0.3294582116,0.2473282947,0.1676966995,0.29580144,0.0977699167,0.1636971028,0.2491966465
0,Immature myeloid cells,20511,0.1832081098,0.280431869,0.5941940162,0.3070003894,0.5844022657,0.2408172753,0.2731414525,0.3144372509,0.6449387392,0.0905388095,0.2356200035,0.0844849823,0.3400902644,0.3146410271
0,Immature monocytes,11412,0.3600235018,0.241499936,0.4515189593,0.3136983935,0.2998497269,0.268104263,0.2477857715,0.3087149802,0.7825977497,0.4595156454,0.2855432406,0.0952497395,0.3487811683,0.3189091389
0,Mature Ly6C(hi) monocytes,18090,0.3448521343,0.2487981167,0.438266533,0.3153059145,0.4801187386,0.2423545703,0.2565968108,0.3318424911,0.8069281795,0.4418023555,0.2673941185,0.0981299421,0.3870855227,0.4535917773
0,Monocyte progenitors,2907,0.3718847528,0.244115325,0.7447641356,0.3453129725,0.2718137033,0.2938539557,0.2406986311,0.3165831024,0.7310556551,0.494642,0.2863323328,0.0984899674,0.3812915868,0.2989912839
0,Ly6C(lo) monocytes and cDC,4689,0.2780981174,0.2336786776,0.4188108434,0.329505683,0.4560129987,0.2558059024,0.3748993794,0.3025158536,0.2127534735,0.4775291606,0.2702874568,0.0938096382,0.2531812249,0.4559629505
0,Neutrophils,115200,0.1485622233,0.4615164195,0.4909942715,0.2877101378,0.5333085778,0.2358210662,0.2592305453,0.305138561,0.5562607254,0.1136561539,0.2368299449,0.0848810102,0.348459283,0.3715491842
0,PDCs,4743,0.2157575891,0.2438164234,0.3316831901,0.4286361428,0.2778401383,0.2485037507,0.3830400135,0.6015044994,0.4602195552,0.1070511984,0.2792305025,0.0934496129,0.1392338176,0.3938382124
0,T and NK cells,10872,0.2350666023,0.2443145927,0.3903322254,0.3678182661,0.2686694763,0.2527313122,0.2479533727,0.304900133,0.4083573234,0.1334710206,0.2652898725,0.2759824515,0.1443839829,0.5038606494
24,B cells (immature),54810,0.1730019171,0.2353475448,0.3266077928,0.2767254112,0.2526863227,0.2273659433,0.2455830116,0.5340293903,0.1685745352,0.0998457923,0.2468777197,0.2198185012,0.1437402123,0.2449285347
24,B cells (mature),29448,0.1471554238,0.2254339752,0.2734853013,0.3359357669,0.2521622849,0.2404329515,0.2506702854,0.6584887788,0.1688946724,0.1016471438,0.2474037812,0.3537479212,0.1537186575,0.4445813191
24,Eosinophils,18081,0.2640301221,0.2689739744,0.608856275,0.4693600073,0.454964923,0.409535411,0.1986785931,0.3466250238,0.6225291328,0.4604163212,0.3765518814,0.1416930061,0.3635878936,0.5171392194
24,Stem and progenitors,7857,0.2598924764,0.2490472013,0.7416625039,0.3651390645,0.2788882139,0.281555595,0.2683528442,0.3373263339,0.2633351564,0.1628930954,0.2931711324,0.1020902206,0.1601563642,0.2463512387
24,Immature myeloid cells,24732,0.1768637197,0.2809300383,0.5659973646,0.3056607886,0.5597724879,0.2381270089,0.2664374009,0.3156293907,0.6308527009,0.0905388095,0.2286824358,0.0841969621,0.3198114885,0.3037336304
24,Immature monocytes,9549,0.372988125,0.2520362173,0.5017089991,0.3313811241,0.2982776134,0.2865518041,0.2466147173,0.3375647618,0.8082087285,0.4601160959,0.279756564,0.10137017,0.3542532189,0.3231772507
24,Mature Ly6C(hi) monocytes,15354,0.3448521343,0.2590105879,0.4799975773,0.3217359983,0.4887653627,0.2504253696,0.2680176416,0.3599769888,0.8299780604,0.4180845605,0.2584510729,0.0995700434,0.3912700321,0.4426843805
24,Monocyte progenitors,2340,0.3754707124,0.2532816406,0.7329215419,0.3629957032,0.2715516844,0.3103798779,0.2357903076,0.3382800456,0.7509041636,0.4547120414,0.2821238408,0.1042503726,0.3526437923,0.3065790382
24,Ly6C(lo) monocytes and cDC,2862,0.2689952969,0.2350984602,0.4484173276,0.3348640862,0.4704240388,0.2650296729,0.3861526089,0.309430264,0.2310012958,0.4523102393,0.2584510729,0.0934496129,0.2506061423,0.4445813191
24,Neutrophils,90000,0.1517620026,0.4537947949,0.5079122624,0.2941402217,0.5354047291,0.2381270089,0.2621755395,0.3110992597,0.569386352,0.1193604337,0.2324744187,0.0849890178,0.3355838697,0.3634871953
24,PDCs,4833,0.2129991587,0.2453109314,0.3426798842,0.4412283904,0.2699795709,0.258111845,0.3674770365,0.5924442374,0.4999165722,0.1109541267,0.2708135183,0.0941696635,0.135693079,0.3753430613
24,T and NK cells,13752,0.2309289566,0.2423219154,0.393433857,0.3680861863,0.2592367955,0.2550372548,0.2467562207,0.300370002,0.3977927946,0.1262656146,0.2600292574,0.270942097,0.1276459457,0.4905820794
48,B cells (immature),53460,0.1688642714,0.2368420528,0.3201225629,0.2788687725,0.2524243038,0.2289032383,0.2485998349,0.5416590847,0.1711356331,0.0965433145,0.2471407505,0.2180183745,0.1495341482,0.240660423
48,B cells (mature),20628,0.1520378457,0.2270281171,0.271688949,0.3412941701,0.2539964173,0.2442761892,0.2554145034,0.6587272068,0.1794592011,0.1016471438,0.2479298428,0.3494276173,0.1656284148,0.4284573413
48,Eosinophils,16101,0.2678919247,0.2719629904,0.5862989538,0.4656091251,0.4379336937,0.4045392019,0.1989180235,0.3449560282,0.6039611732,0.4375992019,0.3741846047,0.1366526516,0.3545751043,0.4920047833
48,Stem and progenitors,5625,0.2775464313,0.2453109314,0.7399707048,0.3597806613,0.2796742707,0.2757907385,0.2726625917,0.327550788,0.2534109022,0.1472813823,0.2929081017,0.0988499927,0.1720661214,0.2472997079
48,Immature myeloid cells,21456,0.1878974416,0.2779410223,0.5719186615,0.3067324693,0.562654696,0.241201599,0.2707950344,0.3170599583,0.6350144849,0.0908390347,0.2335157574,0.0848090051,0.3297899338,0.2804961329
48,Immature monocytes,11817,0.3478864078,0.247801778,0.4608238543,0.3198605572,0.3008978026,0.2788653286,0.2474026828,0.318728954,0.7938025529,0.4153825332,0.2779153487,0.0966898408,0.350390595,0.3046820997
48,Mature Ly6C(hi) monocytes,17892,0.3321633543,0.2542779793,0.4444697964,0.3198605572,0.4811668142,0.2485037507,0.2693105659,0.3416180369,0.8146114731,0.3946669907,0.2610813805,0.100290094,0.3848323254,0.4322512184
48,Monocyte progenitors,1971,0.3619544031,0.2482999474,0.7275641781,0.3487959346,0.275743987,0.2988501648,0.2433323657,0.3194442378,0.7291348317,0.4204863625,0.2834389945,0.0988499927,0.3742101095,0.2828673061
48,Ly6C(lo) monocytes and cDC,2394,0.2615475347,0.2378383915,0.4151452787,0.3420979306,0.4683278875,0.266566968,0.4012367251,0.3110992597,0.2281200607,0.4418023555,0.2613444112,0.0945296888,0.2531812249,0.4441070845
48,Neutrophils,95580,0.1531412178,0.4388497151,0.4873287068,0.2906572596,0.5112989892,0.2373583613,0.2606671278,0.3077612684,0.5482572946,0.1031482701,0.2383029172,0.0850610229,0.3285023924,0.3302907703
48,PDCs,4131,0.2014137508,0.2453109314,0.3330930227,0.4350662266,0.2699795709,0.2558059024,0.3641250106,0.5991202199,0.4877513573,0.1055500721,0.2702874568,0.0952497395,0.1363368497,0.3630129606
48,T and NK cells,9756,0.2303772705,0.2435673387,0.3810273303,0.3790709129,0.2579267009,0.2619550827,0.2513523269,0.3046617051,0.3897893638,0.123263362,0.2631856265,0.2731022489,0.1295772577,0.4720869283
72,B cells (immature),65880,0.166105841,0.2420728308,0.3094078354,0.2898534991,0.2566166064,0.2254443244,0.2459661003,0.5414206567,0.1666537118,0.0977442155,0.247666812,0.1996570831,0.1556499695,0.2539389929
72,B cells (mature),20556,0.1521757672,0.2350486432,0.2547063313,0.3793388331,0.2597608333,0.2327464761,0.2495096705,0.6625420539,0.1781786522,0.1034484953,0.2495080273,0.3245858701,0.1749630894,0.4569114198
72,Eosinophils,14760,0.2645818082,0.2829227156,0.554718704,0.4798088936,0.4518206961,0.3907035462,0.2039460623,0.3523472945,0.6007598009,0.3871613594,0.3831276503,0.1330523984,0.3664848615,0.5076545265
72,Stem and progenitors,4644,0.2750638439,0.2517871326,0.7396887383,0.3983611645,0.2883208948,0.2731004721,0.2738597438,0.3332730587,0.2492491181,0.1577892661,0.2960644707,0.1010101446,0.1704566948,0.2681660322
72,Immature myeloid cells,19872,0.1859665402,0.2819263769,0.5648694986,0.3404904096,0.5547941286,0.2377426851,0.2664374009,0.3220669452,0.5901952722,0.1007464681,0.2542425808,0.0872571773,0.3059704193,0.2914035297
72,Immature monocytes,11556,0.3578167575,0.2552743179,0.4137354462,0.4088100508,0.2967055,0.2742534434,0.2402915994,0.3213516614,0.7592277317,0.4267910928,0.2821238408,0.0977699167,0.3423434617,0.3393012285
72,Mature Ly6C(hi) monocytes,13077,0.3294049238,0.2644904505,0.3810273303,0.4238135799,0.4748783603,0.2346680949,0.2641149258,0.3473403076,0.7832380242,0.3952674413,0.2687092723,0.1024502459,0.3700256002,0.4649734087
72,Monocyte progenitors,1746,0.3677471071,0.2562706566,0.7224887808,0.405862929,0.2767920626,0.2988501648,0.2321988514,0.323020657,0.6996822062,0.4360980757,0.2873844559,0.099210018,0.3590814989,0.3127440886
72,Ly6C(lo) monocytes and cDC,1899,0.2659610234,0.2425710001,0.3830010959,0.4080062903,0.4738302847,0.2515783409,0.3899834956,0.3165831024,0.2149944341,0.4339964989,0.264763811,0.0930895875,0.2361213024,0.4701899898
72,Neutrophils,105030,0.1517620026,0.4341171065,0.4441878299,0.3110191919,0.4976740057,0.2315935047,0.2570543623,0.3113376876,0.4947943765,0.1064507479,0.2526643963,0.0874011874,0.3053266486,0.335981586
72,PDCs,2781,0.1829322667,0.2532816406,0.3123402871,0.4530168775,0.2812463841,0.2527313122,0.3653221627,0.6024582112,0.4512557127,0.1049496216,0.2663419955,0.0935216179,0.1421307856,0.3772399999
72,T and NK cells,9612,0.2381008758,0.2565197413,0.3784896317,0.4222060589,0.2804603274,0.2534999597,0.2559024626,0.3158678186,0.4317273414,0.1439789045,0.2784414102,0.2630215399,0.1530748869,0.4872624369
96,B cells (immature),60750,0.1890008137,0.2398310688,0.3198405964,0.2938723015,0.2584507388,0.2200637916,0.2602840392,0.5681245868,0.162812065,0.1070511984,0.2526643963,0.2669818184,0.1588688228,0.2828673061
96,B cells (mature),23985,0.1672092132,0.2336039522,0.2723292385,0.4066666895,0.2710276466,0.2400486277,0.2812820867,0.68042415,0.1794592011,0.122062461,0.2576619807,0.3962309093,0.1791475987,0.4825200905
96,Eosinophils,11547,0.2844425074,0.2756992604,0.5879907529,0.487042738,0.4722581712,0.3987743454,0.2326777122,0.3554468578,0.6193277605,0.448407311,0.4049592029,0.1546539177,0.396098312,0.5569749293
96,Stem and progenitors,6759,0.2838908213,0.2557724873,0.7611181935,0.4088100508,0.2998497269,0.2784810049,0.3090560149,0.3544931461,0.2582129607,0.1779043581,0.315002685,0.1089307017,0.192023012,0.3008882225
96,Immature myeloid cells,18612,0.1989311634,0.2829227156,0.598987447,0.3501355355,0.6087700245,0.2465821318,0.3148023449,0.3528241504,0.6247700934,0.1100534509,0.2440895937,0.0886972786,0.3606909256,0.355899441
96,Immature monocytes,11709,0.3892628646,0.2495453707,0.4419320977,0.3927348411,0.2969675189,0.271563177,0.2544658801,0.3354189103,0.7861192593,0.4270913181,0.3018511473,0.1028102713,0.3568283016,0.3786627038
96,Mature Ly6C(hi) monocytes,17685,0.3751948693,0.2602560112,0.4286796715,0.4125609331,0.4934817031,0.2465821318,0.2899015816,0.3711831024,0.8158920221,0.3847595574,0.2800195947,0.1096507524,0.396098312,0.524252739
96,Monocyte progenitors,2259,0.3922971381,0.253032556,0.7394067718,0.3999686855,0.2767920626,0.2877047754,0.2523349494,0.341141181,0.722732087,0.4165834342,0.3079008547,0.1067705498,0.392235688,0.33740429
96,Ly6C(lo) monocytes and cDC,2979,0.3007172471,0.2373402222,0.4174010109,0.4862389775,0.4767124927,0.2673356155,0.4139265372,0.3335114867,0.2181958064,0.4604163212,0.264763811,0.1031702966,0.2621940142,0.530892024
96,Neutrophils,116280,0.1553479622,0.4983809497,0.4946598362,0.3174492757,0.5747075659,0.2381270089,0.2958873421,0.3363726221,0.5412142754,0.1130557034,0.2405649816,0.0867891444,0.3825791281,0.4303542798
96,PDCs,7947,0.2193435487,0.2565197413,0.3243520607,0.5339287662,0.2930372352,0.2565745499,0.4275740709,0.6298774251,0.5280886488,0.1142566044,0.2837020253,0.1028102713,0.1553280842,0.440787442
96,T and NK cells,9522,0.2540997724,0.251538048,0.3897682923,0.4519451968,0.2718137033,0.2592648163,0.2649768753,0.3180136701,0.4234037733,0.1451798055,0.2763371642,0.3011842241,0.1511435749,0.54274789
120,B cells (immature),36783,0.184311482,0.2445636774,0.3359126878,0.3078041499,0.266835344,0.2223697342,0.2663416287,0.5745621414,0.1717759075,0.1139563792,0.2573989499,0.2723821983,0.1624095615,0.3132183232
120,B cells (mature),15858,0.1546307703,0.2313870987,0.2827340849,0.4254211008,0.2799362896,0.244660513,0.2863101254,0.6899612679,0.1804196128,0.1262656146,0.2584510729,0.404871517,0.1807570254,0.5180876886
120,Eosinophils,10260,0.3007172471,0.2893989169,0.6043448108,0.4929369815,0.487979306,0.3864759847,0.2367480293,0.3523472945,0.6161263881,0.4318949221,0.3986464648,0.1514136898,0.3993171653,0.5797381921
120,Stem and progenitors,6381,0.2896835253,0.2582633339,0.7582985283,0.4082742105,0.308496351,0.2746377672,0.3150417753,0.3506782989,0.2524504905,0.1586899419,0.3186851156,0.1085706764,0.1926667826,0.3170122004
120,Immature myeloid cells,22230,0.1928626164,0.2901461709,0.6147775718,0.3704974677,0.6184647243,0.2438918654,0.3231824095,0.3530625784,0.6231694073,0.1004462428,0.2414855893,0.0867531419,0.3729225682,0.3871989274
120,Immature monocytes,10260,0.3956072547,0.25004354,0.4554664905,0.4425679912,0.2951333865,0.2704102057,0.252143405,0.3606922727,0.7861192593,0.4421025807,0.3060596394,0.1067705498,0.3655192055,0.4056940784
120,Mature Ly6C(hi) monocytes,18864,0.3746431832,0.2644904505,0.4419320977,0.4631978436,0.5060586109,0.2469664556,0.2879861383,0.4009865958,0.8114101008,0.3889627109,0.2834389945,0.112530955,0.4051111013,0.5479644711
120,Monocyte progenitors,2169,0.3969864699,0.2487981167,0.7430723365,0.4307795041,0.2799362896,0.2877047754,0.2547177609,0.3492477312,0.7348973019,0.4369987514,0.3047444856,0.1096507524,0.4092956106,0.3615902567
120,Ly6C(lo) monocytes and cDC,1773,0.3009930901,0.2415995699,0.4613877873,0.4811484944,0.4905994951,0.2615707589,0.4244614755,0.3394721854,0.2252388256,0.4529106898,0.2860693021,0.1031702966,0.2660566382,0.5555522254
120,Neutrophils,142830,0.1499690228,0.5168132148,0.5248302533,0.3340603258,0.5972411924,0.2423545703,0.2999576591,0.3444791723,0.5485774318,0.1031482701,0.2406352109,0.0845209849,0.4012484773,0.4678188166
120,PDCs,6057,0.2179643335,0.2684758051,0.3491651141,0.5510756566,0.3200251832,0.2692572344,0.4361935659,0.6425141064,0.5284087861,0.1202611095,0.2894887019,0.1035303219,0.1714223508,0.4815716212
120,T and NK cells,9279,0.2593407903,0.2607541805,0.4140174127,0.4599828017,0.2841285922,0.2669512917,0.2582728237,0.3273123601,0.3923504617,0.1541865631,0.2834389945,0.3098248318,0.1611220202,0.5569749293
144,B cells (immature),48330,0.1934143025,0.2333050506,0.3280176254,0.3562976992,0.2592367955,0.2212167629,0.2705077179,0.5986433641,0.1743370054,0.1133559287,0.2529274271,0.2968639202,0.1691691534,0.3298165357
144,B cells (mature),27855,0.1541894214,0.220402465,0.2609377913,0.5116913928,0.2775781194,0.2500410458,0.2978027854,0.7035516609,0.2332422564,0.1301685429,0.2550316731,0.4225127579,0.1923448973,0.5313662586
144,Eosinophils,13410,0.2775464313,0.2821754616,0.5831973221,0.5122272332,0.5037004407,0.3799424806,0.2700288571,0.3654608316,0.6532623073,0.4318949221,0.3978573725,0.1618544242,0.3867636374,0.5896971196
144,Stem and progenitors,5580,0.2792014896,0.2567688259,0.7605542605,0.4524810371,0.3035179917,0.281555595,0.3334779174,0.3654608316,0.2546914511,0.1866108904,0.3100051007,0.1204515121,0.1987826039,0.3127440886
144,Immature myeloid cells,15399,0.2083098269,0.2931351868,0.6099841411,0.3932706815,0.6058878165,0.2458134843,0.3322807653,0.3490093033,0.5908355467,0.117258857,0.2343574558,0.0956097648,0.3722787975,0.3881473967
144,Immature monocytes,11835,0.4033308599,0.2450618467,0.4723844814,0.4607865622,0.2914651217,0.2769437098,0.264210698,0.33661105,0.7630693785,0.5156577677,0.310794193,0.1107308284,0.3481373977,0.4099621902
144,Mature Ly6C(hi) monocytes,21600,0.3785049859,0.2532816406,0.4636435194,0.4977595444,0.5212557078,0.2561902261,0.318872662,0.3704678185,0.7915615923,0.4616172222,0.2800195947,0.1200914868,0.3944888854,0.5764185496
144,Monocyte progenitors,1638,0.3922971381,0.2495453707,0.7323576089,0.4441755121,0.2670973629,0.2973128697,0.2576024185,0.3451944561,0.678873286,0.5216622728,0.3155287465,0.1161312082,0.3632660082,0.3369300553
144,Ly6C(lo) monocytes and cDC,2727,0.3180953589,0.2352230025,0.4794336443,0.5639358243,0.4785466251,0.2688729106,0.4335598313,0.3509167268,0.2358033543,0.4895381707,0.28186081,0.1204515121,0.300820254,0.5451190632
144,Neutrophils,123390,0.1520378457,0.5207985694,0.5220105882,0.3520109766,0.6069358921,0.2431232179,0.3145629145,0.3435254605,0.5319302956,0.1112543519,0.2263818373,0.0876532052,0.4096174959,0.4654476434
144,PDCs,8271,0.2430660506,0.2495453707,0.3130996229,0.6223424195,0.3006357837,0.2627237302,0.4505593909,0.6611114862,0.583152253,0.1190602085,0.2892256711,0.110370803,0.1614439055,0.499118303
144,T and NK cells,14472,0.2469278533,0.2445636774,0.3906141919,0.5266949219,0.2639531359,0.2619550827,0.2615530204,0.3251665085,0.3891490893,0.1373739489,0.2687092723,0.3195455156,0.1363368497,0.5645626836
168,B cells (immature),32724,0.1666575271,0.2353475448,0.3271717258,0.392466921,0.2676214007,0.2331307998,0.2764934783,0.5914905256,0.2124333362,0.117258857,0.2531904578,0.2468204004,0.1688472681,0.3208060775
168,B cells (mature),23742,0.13251533,0.2252347075,0.2743805449,0.513566834,0.2781021572,0.2561902261,0.304506837,0.6994983857,0.2687774894,0.1349721469,0.2550316731,0.3703090861,0.1878385027,0.5067060572
168,Eosinophils,14436,0.2554789877,0.275201091,0.5778399583,0.5183893969,0.4691139443,0.3872446322,0.2644740715,0.3585464212,0.6455790136,0.4258904171,0.3933858497,0.1467333606,0.3333306724,0.5166649847
168,Stem and progenitors,5238,0.2518930281,0.2562706566,0.74279037,0.4768617718,0.3134747104,0.2800183,0.3253372832,0.3499630151,0.2918273702,0.1839088631,0.3147396543,0.1110908537,0.1942762093,0.2847642447
168,Immature myeloid cells,19935,0.1881732846,0.2849153929,0.5502072397,0.392466921,0.5726114146,0.2392799802,0.3176755099,0.3342267705,0.5405740009,0.1277667408,0.2429322584,0.0906774179,0.3220646858,0.3179606696
168,Immature monocytes,16614,0.3443004482,0.247801778,0.4994532669,0.4875785783,0.2980155945,0.2927009844,0.2618403369,0.3172983863,0.7025634413,0.4363983009,0.315002685,0.1067705498,0.3272148511,0.3535282678
168,Mature Ly6C(hi) monocytes,29331,0.3252672781,0.2505417093,0.4904303384,0.5191931574,0.5133951405,0.2638767016,0.321745827,0.3437638884,0.7406597721,0.3922651887,0.279756564,0.1143310816,0.3877292934,0.5014894762
168,Monocyte progenitors,1890,0.3545066409,0.2532816406,0.716567484,0.4782013727,0.2867487813,0.3130701443,0.2521673481,0.3330346308,0.658384503,0.446005509,0.3200002693,0.1082106511,0.342665347,0.329342301
168,Ly6C(lo) monocytes and cDC,1492.2,0.2841666644,0.237066229,0.5076302959,0.5904599203,0.460991358,0.2819399188,0.4225460322,0.3523472945,0.2799822926,0.4526104646,0.2992208398,0.1211715627,0.3272148511,0.4948501912
168,Neutrophils,103770,0.153610151,0.4590255728,0.491840171,0.364335304,0.5540080719,0.2385113326,0.3021125329,0.3287429278,0.5008769839,0.1199608843,0.2376219305,0.0875812001,0.339768379,0.3658583685
168,PDCs,7425,0.1959244742,0.2482999474,0.3243520607,0.5947466429,0.2948713676,0.2707945294,0.4371512876,0.6527665081,0.5943570562,0.122062461,0.2960644707,0.0999300687,0.1566156255,0.4535917773
168,T and NK cells,17829,0.2163092752,0.2480508627,0.4007649864,0.5178535566,0.2801983085,0.2627237302,0.2781694913,0.3280276439,0.4208426755,0.1544867883,0.2768632257,0.3015442494,0.1508216896,0.5010152415
