time,power,power this day,pcore_ids,pcore_power,SCA-1,CD11b,Ly6C
-1,0,0,[],0,0.0,0.0,0.0
0,5802.0,5792.0,[0],1,235.99276111685626,408.1201309893138,793.2335401585663
0,34179.0,34133.0,[1 3 6],3,168.28128382925354,127.88329090962313,204.98010474267835
0,21862.0,21842.0,[2 4],2,183.91135303266103,449.4652822248676,577.551916567559
0,4498.0,4496.0,[5],1,208.14695420186777,369.691640729213,402.0168963983989
0,4853.0,4852.0,[11],1,344.80754172676416,118.84071708221728,184.09787760148433
0,4531.0,4528.0,[7],1,196.1569190024281,151.46170823217867,656.0975502096669
0,6472.0,6469.0,[8],1,373.52441285536986,366.9411310259571,631.4672435105057
0,4581.0,4580.0,[9],1,373.6791093647638,134.764025321982,707.2252783235111
1,13386.0,7584.0,[0],1,219.87188106977467,401.09151352159165,785.687061108621
1,64353.0,30174.0,[1 3 6],3,164.96688577067397,127.48538529672349,199.9317669727902
1,51106.0,29244.0,[2 4],2,176.2380738073835,462.78871365397754,570.186514303602
1,9363.0,4865.0,[5],1,201.2106162554739,370.28698066858885,398.87920538289
1,8334.0,3481.0,[11],1,341.371130309572,118.68382529397657,181.05975521958302
1,8632.0,4101.0,[7],1,190.55329008341218,154.63021316033374,659.222312326229
1,12913.0,6441.0,[8],1,366.23410516532806,362.4442809571745,619.12723611864
1,6331.0,1750.0,[9],1,369.3795608908497,136.2767335334069,704.6278628968586
1,5579.0,2360.0,[10],1,398.6144470335134,201.26976160602314,420.0322638465677
2,17816.0,4430.0,[0],1,236.86893803322792,399.50061742254354,776.549281544679
2,99748.0,35395.0,[1 3 6],3,162.9376228094829,130.13677467217434,193.80756506396094
2,72947.0,21841.0,[2 4],2,181.55188013215252,470.58461622822284,558.3335572401842
2,19143.0,9780.0,[5],1,198.15577495690457,383.0017761061486,402.228908739485
2,13031.0,4697.0,[11],1,339.514772465657,124.5815363364289,177.22400429744457
2,20178.0,5215.0,[7 9],2,271.78407176132254,150.92144910298336,673.5759738328871
2,19052.0,6139.0,[8],1,364.1704807894099,364.99832038630944,617.3602246483275
2,8082.0,2503.0,[10],1,396.5452858203376,206.45607522890404,419.8765157139328
3,23091.0,5275.0,[0],1,242.15646788792,394.8603351955321,779.9935039625778
3,129887.0,30139.0,[1 3 6],3,163.6020386951764,130.60657340611533,194.6020771901729
3,103281.0,30334.0,[2 4],2,184.27552986512583,481.4477687086696,558.80626639942
3,22660.0,3517.0,[5],1,197.68190644307322,381.0288614298336,404.2946160635471
3,18148.0,5117.0,[11],1,352.5595657923723,130.14414811549472,177.576757769451
3,14564.0,3322.0,[7],1,199.91204339467328,156.90407854984883,657.1198846470735
3,23358.0,4306.0,[8],1,369.8532408596555,372.73910437537427,619.0363044781179
3,13115.0,4179.0,[9],1,382.538772398013,143.39672131147483,700.3221502096818
3,11893.0,3811.0,[10],1,415.0549062473703,212.53451610190803,409.08130833263226
4,27291.0,4200.0,[0],1,260.9026418965926,396.179289875785,781.8935912938183
4,151258.0,21371.0,[1 3 6],3,166.69966547224277,131.26793293577916,196.24710097978297
4,136628.0,33347.0,[2 4],2,194.6609186989474,490.6588107854864,555.9168984395294
4,28265.0,5605.0,[5],1,200.480099062445,380.3890677516377,406.3778170882745
4,24753.0,6605.0,[11],1,361.5768997697232,132.84809922029677,176.24582878842955
4,16299.0,1735.0,[7],1,204.72654764096066,155.57684520522713,652.2535738388854
4,29951.0,6593.0,[8],1,378.38215752395007,386.8283195886621,622.7021468398345
4,19158.0,6043.0,[9],1,394.35979747363643,145.9081845704139,703.4067752374991
4,16394.0,4501.0,[10],1,425.42808344516163,212.6809198487247,403.9421739660858
5,31358.0,4067.0,[0],1,272.6222973403866,398.2223037183527,781.8026659863324
5,167872.0,16614.0,[1 3 6],3,170.53726053183658,130.88726529737005,197.4325081014101
5,162399.0,25771.0,[2 4],2,203.47949802646403,498.1240709610186,552.6774056490159
5,31313.0,3048.0,[5],1,203.89314342285945,384.8313799380467,405.298757704471
5,17689.0,1390.0,[7],1,208.87845553734095,155.13460342585776,649.7538017977274
5,40173.0,10222.0,[8],1,398.8481816145108,405.3253677843338,633.7267816692736
5,26856.0,7698.0,[9],1,420.87135090854645,144.08523235031203,696.7480265117655
5,25913.0,9519.0,[10],1,452.37004592289634,204.20449195384498,398.8321305908232
5,36424.0,11671.0,[11],1,385.2514825389839,131.7809685921374,175.40322314957186
6,32823.0,1465.0,[0],1,275.6940559973142,398.88922401974594,780.1349968010038
6,183337.0,15465.0,[1 3 6],3,174.78533520238912,131.05566252311368,198.8274161789483
6,182952.0,20553.0,[2 4],2,211.46364073636497,502.9742500765153,549.065858804471
6,36857.0,5544.0,[5],1,211.05638006348843,391.7469680115048,405.4448273055347
6,19036.0,1347.0,[7],1,214.0660853120419,154.9997898718218,645.7455347762115
6,54272.0,14099.0,[8],1,414.4672575176822,418.40965875589666,641.2174970518764
6,36639.0,9783.0,[9],1,438.86503452604666,143.74947460356248,684.4050601817759
6,36619.0,10706.0,[10],1,461.16737212922277,200.73035855703193,399.0152926076644
6,47462.0,11038.0,[11],1,393.39001727697774,131.9793308330876,177.10442037840724
