time,power,power this day,pcore_ids,pcore_power,SCA-1,CD11b,Ly6C
-1,0,0,[],0,0.0,0.0,0.0
0,4726.0,4714.0,[0],1,259.59648751586815,116.93207786711775,277.55649597968664
0,3952.0,3948.0,[1],1,260.93674089068713,564.5847672064784,654.7864372469634
0,7620.0,7608.0,[2],1,197.95616797900243,118.51141732283484,165.95761154855643
0,2943.0,2940.0,[4],1,182.69249065579422,479.1868841318383,494.0091743119274
0,2831.0,2826.0,[5],1,410.28046626633403,181.74320028258563,367.68138466972795
0,3823.0,3820.0,[6],1,263.6230708867376,410.09913680355834,812.3557415642169
0,4265.0,4260.0,[7],1,206.78007033997702,161.42438452520528,724.5080890973047
0,6975.0,6973.0,[8],1,145.92129032258384,117.38924731182803,80.93878136200729
0,3573.0,3571.0,[9],1,403.08592219423133,123.07948502658836,686.2202630842428
0,3638.0,3636.0,[10],1,201.37245739417324,219.17784496976336,274.68361737218254
0,6097.0,6096.0,[11],1,91.72117434804304,131.03378710841366,205.71034935214038
0,4204.0,4201.0,[13],1,233.54828734538472,362.7499999999999,544.3708372978126
0,3088.0,3087.0,[14],1,365.1454015544012,114.47700777202087,171.1198186528497
0,5273.0,5270.0,[15],1,384.35861938175026,354.5329034705108,637.0648587142026
0,5770.0,5769.0,[16],1,200.07296360485302,463.62564991334506,587.3883882149062
0,2854.0,2853.0,[17],1,163.7182901191312,303.50875963560014,445.8524877365111
0,5758.0,5757.0,[18],1,157.46352900312806,104.90170197985404,265.30844043070636
0,4074.0,4072.0,[21],1,116.90697103583861,375.1396661757492,547.0122729504169
1,8240.0,3514.0,[0],1,260.2627427184445,117.86735436893153,278.0638349514562
1,8769.0,4817.0,[1],1,248.4696088493555,570.3416581138084,650.764625384877
1,14327.0,6707.0,[2],1,199.563690933204,116.9126823480145,164.7376282543446
1,5428.0,3298.0,[3],1,206.01252763448826,349.4082535003691,723.9008843036115
1,9749.0,6806.0,[4],1,169.87496153451917,502.2852600266691,498.924094778951
1,4551.0,1720.0,[5],1,406.2935618545326,192.0661393100417,376.70533948582744
1,7602.0,3779.0,[6],1,259.2312549329107,413.4429097605899,804.9793475401196
1,7608.0,3343.0,[7],1,201.55993690851926,162.59713459516303,725.5529705573084
1,14092.0,7117.0,[8],1,144.71757025262926,117.41796764121464,80.05499574226533
1,4718.0,1145.0,[9],1,402.19987282746627,123.12123781263261,679.6439169139466
1,6493.0,2855.0,[10],1,196.03804096719685,225.72247035268765,270.5424303095644
1,12140.0,6043.0,[11],1,92.5841845140087,130.5456342668864,202.5807248764418
1,4489.0,2039.0,[12],1,238.10091334372922,130.95277344620166,507.77277790153545
1,8543.0,4339.0,[13],1,235.3267002224039,363.9171251316873,537.7331148308556
1,5160.0,2072.0,[14],1,366.0790697674383,116.42248062015537,167.3199612403103
1,10515.0,5242.0,[15],1,377.7035663338013,352.35863052781735,623.8124583927705
1,11813.0,6043.0,[16],1,200.87098958774348,468.33480064335896,584.4080250571435
1,6274.0,3420.0,[17],1,158.8159069174394,305.4134523430035,447.2529486770786
1,10763.0,5005.0,[18],1,155.53572424045592,107.05992752949903,266.89287373408905
1,6427.0,3971.0,[19],1,93.93231678855155,506.8759919091329,652.1372335459773
1,2722.0,1240.0,[20],1,326.75238795003423,430.29794268919863,350.92395297575246
1,9559.0,5485.0,[21],1,115.8130557589746,383.2896746521603,540.6399204937754
2,12128.0,3888.0,[0],1,261.93659300791296,121.06728232189934,276.5961411609498
2,12510.0,3741.0,[1],1,254.63357314148627,571.1470823341318,641.7749800159864
2,22549.0,8222.0,[2],1,201.2067053971369,118.77781719810194,163.47731606723016
2,7763.0,2335.0,[3],1,221.4663145691098,343.138735025119,721.7855210614476
2,20732.0,10983.0,[4],1,175.99864943083486,503.108479644994,489.891327416553
2,6529.0,1978.0,[5],1,403.91560729054567,198.4075662429159,378.52029407259926
2,10572.0,2970.0,[6],1,275.66316685584354,414.13233068482975,792.438895194854
2,9448.0,1840.0,[7],1,210.84229466553901,164.66098645215894,720.2079805249783
2,23226.0,9134.0,[8],1,143.4829070868887,120.28115043485843,78.6707569103597
2,6482.0,1764.0,[9],1,396.0709657513071,127.71783400185154,677.4541808083922
2,10182.0,3689.0,[10],1,196.53633863681188,229.19161264977376,266.98949125908484
2,19816.0,7676.0,[11],1,90.58008679855291,133.1305510698427,199.34532700847734
2,6374.0,1885.0,[12],1,239.39190461248825,132.85629118293014,513.9686225290232
2,12887.0,4344.0,[13],1,237.5695662295332,370.9367579731498,526.3304104911908
2,7895.0,2735.0,[14],1,366.63799873337194,122.72691576947408,163.04458518049415
2,15206.0,4691.0,[15],1,376.7577929764501,354.5756938050749,619.1630935157169
2,15535.0,3722.0,[16],1,207.16878017380185,471.4153846153852,579.7420019311227
2,10949.0,4675.0,[17],1,160.79724175724098,321.45364873504445,436.3877979724138
2,15278.0,4515.0,[18],1,155.2414583060637,108.7332111532919,265.0468647728763
2,6975.0,548.0,[19],1,94.57118279570248,508.85749103942624,648.1951254480285
2,4412.0,1690.0,[20],1,314.01541251133045,434.5407978241154,341.2425203989113
2,12534.0,2975.0,[21],1,115.13579064943787,389.2170097335251,530.7532312111056
3,16384.0,4256.0,[0],1,262.6380615234345,123.00579833984378,277.72760009765767
3,20004.0,7494.0,[1],1,253.91996600679738,576.305238952211,630.7497500499891
3,29597.0,7048.0,[2],1,201.6980437206493,118.97182146839191,163.77264587627025
3,10043.0,2280.0,[3],1,219.65667629194533,337.056058946529,731.2135815991272
3,27742.0,7010.0,[4],1,176.05064523106049,507.1270997044192,493.6642996179032
3,9595.0,3066.0,[5],1,419.38582595101275,201.65065138092757,372.86440854611845
3,13779.0,3207.0,[6],1,283.16038899774776,413.6694244865379,794.8434574352315
3,12829.0,3381.0,[7],1,215.36207030945616,164.1582352482649,724.7632707147874
3,29189.0,5963.0,[8],1,143.75466785433196,120.81119599849345,78.2157319538186
3,9713.0,3231.0,[9],1,421.970863790794,129.08442293833048,672.5847832801393
3,12867.0,2685.0,[10],1,197.5182249164553,226.99424885365607,267.0412683609237
3,25909.0,6093.0,[11],1,90.62943378749377,133.68231116600433,198.67536377320548
3,7848.0,1474.0,[12],1,240.8458205912332,132.77471967380217,516.2423547400604
3,15777.0,2890.0,[13],1,236.83330164162965,374.0133105153046,523.9833935475671
3,11355.0,3460.0,[14],1,382.1643328929965,128.85257595772782,164.08974020255437
3,18606.0,3400.0,[15],1,382.4344834999401,361.49032570138434,620.4090615930318
3,23383.0,7848.0,[16],1,210.38951374930593,476.5955608775607,577.0165077192836
3,13365.0,2416.0,[17],1,160.50991395436142,322.40658436214096,435.4712308267827
3,20422.0,5144.0,[18],1,155.28400744295698,110.02967388110837,264.47096268729734
3,10369.0,3394.0,[19],1,97.39454142154949,518.2910598900573,633.8331565242548
3,5378.0,966.0,[20],1,333.7562290814409,435.31405727036037,335.281703235403
3,15828.0,3294.0,[21],1,114.55951478393145,393.41748799595706,528.3128632802624
4,21277.0,4893.0,[0],1,265.7291441462588,123.63721389293583,278.3930065328769
4,30474.0,10470.0,[1],1,265.6890135853461,576.6270263175179,617.5866968563349
4,34830.0,5233.0,[2],1,204.05211024978723,118.91065173700807,163.12121734137185
4,10745.0,702.0,[3],1,224.26067938576173,334.38687761749514,731.5522568636609
4,37337.0,9595.0,[4],1,180.97471676889126,511.3648391675808,494.8654150038731
4,13305.0,3710.0,[5],1,428.04013528748396,200.869222096956,370.7683577602419
4,18464.0,4685.0,[6],1,309.22422010398225,412.88063258232336,794.6461221837153
4,14339.0,1510.0,[7],1,222.41969453936875,163.89971406653092,723.7914080479827
4,33058.0,3869.0,[8],1,144.9885958013219,121.05635549640098,77.46209692056428
4,14632.0,4919.0,[9],1,431.69915254237054,131.9291279387652,678.4229770366298
4,15618.0,2751.0,[10],1,199.42764758612063,227.92335766423355,267.39063900627553
4,29052.0,3143.0,[11],1,90.20666391299045,134.0540754509157,198.49759052732986
4,9547.0,1699.0,[12],1,245.68272755839462,132.1887503927938,517.6960301665431
4,19758.0,3981.0,[13],1,239.09651786617866,377.89892701690195,519.2923878935103
4,15975.0,4620.0,[14],1,391.142159624411,130.89990610328627,163.27098591549304
4,23135.0,4529.0,[15],1,389.7624810892547,372.05800734817285,622.2138750810418
4,32870.0,9487.0,[16],1,219.62220870094387,481.79811378156495,571.4004259202846
4,16232.0,2867.0,[17],1,162.1258624938432,323.64582306555127,432.55637013306665
4,23338.0,2916.0,[18],1,155.68540577599072,110.31810780701045,264.5410489330686
4,11722.0,1353.0,[19],1,98.352328954108,520.6712165159533,627.5282375021327
4,6613.0,1235.0,[20],1,345.733857553303,438.53833358536275,331.6490246484185
4,17661.0,1833.0,[21],1,114.43417700017434,395.6122529868081,525.927693788574
5,26659.0,5382.0,[0],1,270.41880790727083,123.19348062567936,278.3882741288128
5,41072.0,10598.0,[1],1,277.3598802103574,576.0915222049124,605.8357518504015
5,39821.0,4991.0,[2],1,207.15200522337744,118.35780116019265,162.16945832600817
5,11612.0,867.0,[3],1,228.59627971064464,332.25843954529654,732.1141922149536
5,46470.0,9133.0,[4],1,186.63780933936178,515.0924897783552,492.84417904023263
5,21455.0,8150.0,[5],1,454.5193661151266,192.9748776508975,369.97077604287966
5,24085.0,5621.0,[6],1,332.6990242889725,421.2342121652513,792.1875025949696
5,15569.0,1230.0,[7],1,228.00584494829482,164.01380949322262,723.0554948936999
5,35785.0,2727.0,[8],1,146.4292301243564,120.94497694564774,76.96942853150813
5,21935.0,7303.0,[9],1,459.2471392751292,131.79206747207755,672.1390471848645
5,17106.0,1488.0,[10],1,201.0157839354635,228.59914649830543,266.7251256868946
5,30686.0,1634.0,[11],1,90.18099459037386,133.98155510656383,198.27211106041787
5,11200.0,1653.0,[12],1,252.46821428571292,131.2383035714286,517.305982142856
5,21174.0,1416.0,[13],1,241.13818834419354,379.48658732407426,517.9391234532907
5,25206.0,9231.0,[14],1,416.84087122113687,129.98409108942298,163.73050067444186
5,29627.0,6492.0,[15],1,407.29726263205333,384.08492253687393,628.7184662638812
5,38905.0,6035.0,[16],1,225.21729854774526,484.485079038687,568.0960544916984
5,16955.0,723.0,[17],1,163.00188734886856,324.5003243880882,430.9468593335264
5,25477.0,2139.0,[18],1,156.34682262433068,110.02794677552357,264.4581779644367
5,12583.0,861.0,[19],1,99.39926885480894,522.1746801239767,624.4113486449965
5,8469.0,1856.0,[20],1,357.3424253158555,446.5220214901406,337.2075805880259
5,18131.0,470.0,[21],1,114.32496828636481,396.53538139098913,525.3751034140421
6,32729.0,6070.0,[0],1,275.641052277795,123.32512450731656,277.96837666901
6,50491.0,9419.0,[1],1,287.52064724405903,578.2452516290076,596.6384900279159
6,44569.0,4748.0,[2],1,210.32598891606457,118.27189301981261,161.20444703717834
6,12151.0,539.0,[3],1,232.06666118014968,331.3122376759097,730.5494198008433
6,53979.0,7509.0,[4],1,191.59141517998046,516.3408918283059,489.58435687952465
6,30484.0,9029.0,[5],1,462.495571447318,190.15165332633592,372.42035165988744
6,27871.0,3786.0,[6],1,342.9904560295607,427.3600875461982,786.8293925585591
6,16309.0,740.0,[7],1,231.68348764485899,164.22509044085982,721.1420074805316
6,37827.0,2042.0,[8],1,147.79231765670315,121.13157268617638,76.650011896265
6,31455.0,9520.0,[9],1,473.02225401366746,133.45283738674317,662.1353679860167
6,18913.0,1807.0,[10],1,203.49040342621657,229.94014698884445,266.01057473695505
6,31957.0,1271.0,[11],1,90.20784178740865,134.1139969333797,198.16725600024975
6,13315.0,2115.0,[12],1,262.34014269620525,131.29643259481773,517.8298159969944
6,24001.0,2827.0,[13],1,245.3651514520215,383.2487813007768,514.7322194908554
6,33591.0,8385.0,[14],1,423.5584531570915,130.49203655741113,165.83468786281924
6,39325.0,9698.0,[15],1,425.07448188174635,395.3350794659894,636.2578258105557
6,42974.0,4069.0,[16],1,229.6682645320421,485.05626657979656,565.2857076371591
6,17880.0,925.0,[17],1,164.22852348993638,326.48808724832435,428.7854586129719
6,27067.0,1590.0,[18],1,157.03410056526616,110.00982746517961,264.28444230982257
6,12782.0,199.0,[19],1,99.60608668440481,522.5995931779065,623.5898138006562
6,11775.0,3306.0,[20],1,363.039745222927,452.83549893842957,351.5343524416128
6,18537.0,406.0,[21],1,114.3961266655924,397.3082483681307,524.5586664508817
