time,power,power this day,pcore_ids,pcore_power,SCA-1,CD11b,Ly6C
-1,0.0,0.0,[],0,0.0,0.0,-0.04788418708240535
0,7583.0,7571.0,[0],1,0.2616602483082348,0.13051133071534723,0.2675880610919929
0,9214.0,9202.0,[1],1,0.2317759003763207,0.13642664075030492,0.14391240597850777
0,8108.0,8107.0,[4],1,0.16845326851549414,0.13225778907821323,0.04784957637594059
0,7333.0,7330.0,[5],1,0.35780747950238545,0.14888315573373484,0.7252243496388935
0,8860.0,8859.0,[7],1,0.12145306515839861,0.14141318447851461,0.21134650866988153
0,7414.0,7409.0,[8],1,0.2981013751693562,0.4309008760483697,0.8115342489950107
0,5905.0,5904.0,[9],1,0.428266846797128,0.4037913647840426,0.586094416230251
0,14303.0,14300.0,[10],1,0.19012370312820542,0.4736206181470665,0.5568265071868819
0,8024.0,8023.0,[11],1,0.24427980104630034,0.6060806550935431,0.6597626385875756
1,13412.0,5829.0,[0],1,0.25895391348348057,0.13438723409710804,0.2718051746366821
1,17018.0,7804.0,[1],1,0.23871947878056504,0.13495120152258291,0.14038051155582446
1,6971.0,2429.0,[2],1,0.45330574982390465,0.16273478814299225,0.2693497304614503
1,9639.0,4716.0,[3],1,0.19157099377412437,0.26958906572516783,0.534632181669171
1,16391.0,8283.0,[4],1,0.16343533276346198,0.13251436681260068,0.0484308230968736
1,11345.0,4012.0,[5],1,0.34207278363482124,0.1502372125580069,0.7225451789933247
1,6617.0,2866.0,[6],1,0.24008113252721636,0.3381375067784409,0.28210507927713974
1,17809.0,8949.0,[7],1,0.12273916546425426,0.14266866186170118,0.2086884950065903
1,15711.0,8297.0,[8],1,0.26737546655567085,0.42882757015792433,0.8131765878644049
1,12910.0,7005.0,[9],1,0.4191931174335628,0.3987145606022909,0.587268894298199
1,32093.0,17790.0,[10],1,0.18287074397896666,0.48139576820927865,0.5478103829231751
1,20044.0,12020.0,[11],1,0.2289720480112306,0.616962648237228,0.6450063201713463
2,19316.0,5904.0,[0],1,0.25935633497060234,0.13955168340971594,0.2704945667438874
2,26695.0,9677.0,[1],1,0.2445579801797676,0.13761025121215958,0.1367622207640456
2,10125.0,3154.0,[2],1,0.45239450686641397,0.16960683760683806,0.26528933982237585
2,12490.0,2851.0,[3],1,0.1966374897670964,0.2703620815204206,0.5291931540778269
2,27081.0,10690.0,[4],1,0.15932580950449055,0.13623788430251438,0.04805907280221597
2,15573.0,4228.0,[5],1,0.34394886857619184,0.15636588793749906,0.7161641336577489
2,11112.0,4495.0,[6],1,0.23770415220715072,0.35514905413901815,0.2887630459496416
2,28128.0,10319.0,[7],1,0.1213427221945318,0.14618659881910287,0.2044185615994078
2,21446.0,5735.0,[8],1,0.2847297681032124,0.4293372009167085,0.8034956809738327
2,18771.0,5861.0,[9],1,0.4194129241915634,0.4013423517696387,0.5860545913891941
2,50675.0,18582.0,[10],1,0.18888149310155936,0.48913239144847415,0.5270724945968834
2,28548.0,8504.0,[11],1,0.23871787787334092,0.6203629736564998,0.6295581419079891
3,25987.0,6671.0,[0],1,0.2592206215467295,0.1424774343315058,0.27139473454390345
3,34638.0,7943.0,[1],1,0.2461899349353928,0.13808772386354623,0.13637120605084949
3,15808.0,5683.0,[2],1,0.47167463210207766,0.18066708591331174,0.2563612740412789
3,14788.0,2298.0,[3],1,0.19677160041698202,0.27030041173166,0.5272333011838277
3,34098.0,7017.0,[4],1,0.15873493519340806,0.13688273804357984,0.04807847183821425
3,21866.0,6293.0,[5],1,0.3569750687794985,0.15566513105534158,0.7172894245309107
3,13114.0,2002.0,[6],1,0.24089274178209266,0.35453811925633744,0.2914633640988914
3,37513.0,9385.0,[7],1,0.12228809368558068,0.14722567368199316,0.20332057715166446
3,27604.0,6158.0,[8],1,0.2875492722924013,0.42640547045119576,0.8084818490848344
3,23492.0,4721.0,[9],1,0.4305889932408176,0.4060928992482679,0.5894752779413661
3,65076.0,14401.0,[10],1,0.18836618688192622,0.4923956298643064,0.5269425257238981
3,45976.0,17428.0,[11],1,0.23951446089117298,0.6234610798315386,0.6211022076784015
4,32454.0,6467.0,[0],1,0.2630675535226028,0.14391148683259794,0.27243047998174125
4,41647.0,7009.0,[1],1,0.25126905292556573,0.13828610362009364,0.13423247131220675
4,22764.0,6956.0,[2],1,0.48094092979453157,0.1829453467449992,0.2514287690602021
4,16953.0,2165.0,[3],1,0.20048256349179772,0.2708675809324322,0.5232815814507211
4,38413.0,4315.0,[4],1,0.1592334874926801,0.13721554837499125,0.04747406817604274
4,28587.0,6721.0,[5],1,0.3753519612709904,0.15503538693583815,0.7173058945680844
4,16173.0,3059.0,[6],1,0.24395701811244838,0.35619474164107395,0.29567433252676795
4,42491.0,4978.0,[7],1,0.12241151397824629,0.14790608839071728,0.20326704583425656
4,33230.0,5626.0,[8],1,0.30968469671712257,0.43001243901342956,0.811249863440788
4,30000.0,6508.0,[9],1,0.44208543071160494,0.41695248868778567,0.5937788418708216
4,78891.0,13815.0,[10],1,0.19245206620598385,0.495893397448372,0.5238117298601934
4,68357.0,22381.0,[11],1,0.25392775174221544,0.6235300174483206,0.6085582462020277
5,38512.0,6058.0,[0],1,0.2681073577533702,0.14343105375159507,0.27345617205015565
5,48765.0,7118.0,[1],1,0.25723279613187355,0.13753561382435803,0.1320646699536464
5,38331.0,15567.0,[2],1,0.5085403342089101,0.17843752873723825,0.24653328854703027
5,17896.0,943.0,[3],1,0.20379609026937376,0.2684732501714291,0.5228211029725828
5,41325.0,2912.0,[4],1,0.16010364539788363,0.13714589954367953,0.047080653788684354
5,37246.0,8659.0,[5],1,0.40730889132502834,0.1521542110993472,0.7098881606634603
5,17889.0,1716.0,[6],1,0.24766654041998257,0.3592645471609871,0.2960432441530965
5,45349.0,2858.0,[7],1,0.122914916300824,0.1476945916381646,0.2031247045617639
5,39736.0,6506.0,[8],1,0.3288490554513671,0.43693148535993437,0.8116212044033795
5,39693.0,9693.0,[9],1,0.4672065688428316,0.43052828649933866,0.6038050276405894
5,86475.0,7584.0,[10],1,0.19484568833624138,0.5001151301804272,0.5210295597617888
5,88743.0,20386.0,[11],1,0.2658904319973567,0.6242125119753151,0.598113500943731
6,44880.0,6368.0,[0],1,0.2739298553946599,0.1435578838693014,0.27384601947683446
6,55846.0,7081.0,[1],1,0.263242878590279,0.1376090324669508,0.13027178543093526
6,53424.0,15093.0,[2],1,0.514441958502006,0.17832741466203963,0.2496617595855437
6,18895.0,999.0,[3],1,0.2086046186643531,0.26609813221195144,0.5225083997781674
6,43545.0,2220.0,[4],1,0.1609863230727384,0.13733127793633174,0.04695595601508933
6,48593.0,11347.0,[5],1,0.4344950271424365,0.15150751653800193,0.6961204783681787
6,20393.0,2504.0,[6],1,0.253110590382139,0.3634569399090682,0.29742273676379155
6,47557.0,2208.0,[7],1,0.12343694958126401,0.14786699875367523,0.20307104923862632
6,44090.0,4354.0,[8],1,0.33891554812550906,0.441890713051974,0.8082147722743568
6,53044.0,13351.0,[9],1,0.4861351059836648,0.4433853641866883,0.613357818335962
6,94817.0,8342.0,[10],1,0.1996268151316438,0.5025504356880389,0.5169646215463299
6,104876.0,16133.0,[11],1,0.276640214168382,0.6261644758153411,0.5898943675640279
