time,power,power this day,pcore_ids,pcore_power,SCA-1,CD11b,Ly6C
-1,0.0,0.0,[],0,0.0,0.0,-0.04788418708240535
0,4726.0,4714.0,[0],1,0.2916814466470428,0.13227610618452237,0.26119877057871566
0,3952.0,3948.0,[1],1,0.2931873493153788,0.6386705511385501,0.6812766561770194
0,7620.0,7608.0,[2],1,0.22242266065056454,0.13406268927922493,0.13692384359527443
0,3823.0,3820.0,[6],1,0.2962056976255479,0.4639130506827583,0.8567435874879922
0,4265.0,4260.0,[7],1,0.23233715768536747,0.18260676982489285,0.7589176938722769
0,6975.0,6973.0,[8],1,0.1639565059804313,0.13279326618985074,0.042248086149228606
0,3638.0,3636.0,[10],1,0.22626118808334073,0.2479387386535785,0.2579995739111164
0,6097.0,6096.0,[11],1,0.10305749926746409,0.14822826595974395,0.18119192578189353
0,4204.0,4201.0,[13],1,0.26241380600605024,0.4103506787330315,0.5583194179262947
0,5273.0,5270.0,[15],1,0.43186361728286554,0.40105532066799865,0.6615421589245017
0,5770.0,5769.0,[16],1,0.22480108270208204,0.5244634048793496,0.6062231494598066
0,5758.0,5757.0,[18],1,0.17692531348666074,0.1186670836876177,0.24755951050190023
0,4074.0,4072.0,[21],1,0.1313561472312793,0.42436613820786107,0.5612608830182816
1,8240.0,3514.0,[0],1,0.2924300479982523,0.13333411127707184,0.26176373602612046
1,8769.0,4817.0,[1],1,0.2791793357857927,0.6451828711694665,0.6767980238138942
1,14327.0,6707.0,[2],1,0.22422886621708316,0.1322541655520526,0.135565287588357
1,5428.0,3298.0,[3],1,0.2314747501511104,0.3952582053171596,0.758241519269055
1,9749.0,6806.0,[4],1,0.19087074329721251,0.5681959955052819,0.5077105732505023
1,4551.0,1720.0,[5],1,0.4565096200612726,0.2172693883597757,0.3716095094496964
1,7602.0,3779.0,[6],1,0.2912710729583266,0.4676955992766854,0.848529340245122
1,7608.0,3343.0,[7],1,0.2264718392230554,0.18393341017552378,0.7600812589725037
1,14092.0,7117.0,[8],1,0.16260401151980813,0.1328257552502428,0.04126391508047365
1,4718.0,1145.0,[9],1,0.4519099694690632,0.13927741834008212,0.7089575912182033
1,6493.0,2855.0,[10],1,0.22026746176089534,0.25534216103245205,0.253388007026241
1,12140.0,6043.0,[11],1,0.10402717361124572,0.14767605686299365,0.17770682057510223
1,4489.0,2039.0,[12],1,0.2675291161165496,0.148136621545477,0.5175643406475895
1,8543.0,4339.0,[13],1,0.26441202272180214,0.41167095603132053,0.5509277448005073
1,5160.0,2072.0,[14],1,0.4113247974915037,0.131699638710583,0.13844093679321862
1,10515.0,5242.0,[15],1,0.4243860295885408,0.398595735891196,0.6467844748249115
1,11813.0,6043.0,[16],1,0.2256977411098241,0.5297904984653381,0.6029042595291131
1,6274.0,3420.0,[17],1,0.178444839233078,0.3454903307047551,0.45017032146667996
1,10763.0,5005.0,[18],1,0.1747592407196134,0.12110851530486318,0.24932391284419717
1,6427.0,3971.0,[19],1,0.10554192897590063,0.5733891311189285,0.6783265406970793
1,9559.0,5485.0,[21],1,0.13012702894266806,0.43358560481013614,0.5541647221534247
2,12128.0,3888.0,[0],1,0.29431077866057637,0.13695393927816668,0.2601293331413695
2,12510.0,3741.0,[1],1,0.28610513836122053,0.6460939845408731,0.6667872828685818
2,22549.0,8222.0,[2],1,0.2260749498844235,0.13436404660418771,0.13416182190114714
2,7763.0,2335.0,[3],1,0.24883855569562902,0.38816598984741973,0.7558858809147524
2,20732.0,10983.0,[4],1,0.1977512914953201,0.5691272394174139,0.4976518122678763
2,6529.0,1978.0,[5],1,0.4538377610006131,0.22444294823859268,0.37363061700734884
2,10572.0,2970.0,[6],1,0.3097338953436444,0.46847548720003357,0.8345644712637572
2,9448.0,1840.0,[7],1,0.2369014546803809,0.18626808422189925,0.7541291542594413
2,23226.0,9134.0,[8],1,0.16121674953583,0.13606464981318828,0.03972244644806204
2,6482.0,1764.0,[9],1,0.4450235570239406,0.14447718778489993,0.7065191323033322
2,10182.0,3689.0,[10],1,0.2208273467829347,0.2592665301468029,0.24943150474285616
2,19816.0,7676.0,[11],1,0.10177537842534035,0.15060017089348723,0.17410392762636673
2,6374.0,1885.0,[12],1,0.2689796681039194,0.1502899221526359,0.5244639449098255
2,12887.0,4344.0,[13],1,0.26693209688711594,0.4196117171641966,0.5382298557808362
2,7895.0,2735.0,[14],1,0.41195280756558644,0.13883135268040056,0.1336799389537797
2,15206.0,4691.0,[15],1,0.42332336289488776,0.4011037260238403,0.6416070083693951
2,15535.0,3722.0,[16],1,0.23277391030764252,0.5332753219631055,0.597708242684992
2,10949.0,4675.0,[17],1,0.1806710581542033,0.36363534924778784,0.43807104451271023
2,15278.0,4515.0,[18],1,0.1744286048382738,0.12300137008290941,0.2472682235778133
2,6975.0,548.0,[19],1,0.10625975595022749,0.5756306459722017,0.6739366653096086
2,4412.0,1690.0,[20],1,0.3528263061925061,0.49156198848881827,0.3321186195978968
2,12534.0,2975.0,[21],1,0.12936605690948075,0.4402907349926755,0.5431550458920998
3,16384.0,4256.0,[0],1,0.2950989455319489,0.13914683070118075,0.26138930968558766
3,20004.0,7494.0,[1],1,0.28530333259190716,0.6519290033396051,0.6545097439309455
3,29597.0,7048.0,[2],1,0.2266270154164599,0.13458350844840714,0.13449069696689336
3,10043.0,2280.0,[3],1,0.2468052542606127,0.38128513455489704,0.7663848347429034
3,27742.0,7010.0,[4],1,0.1978097137427646,0.5736731897108814,0.5018533403317408
3,9595.0,3066.0,[5],1,0.47122002915844136,0.22811159658475968,0.3673323035034727
3,13779.0,3207.0,[6],1,0.3181577404469076,0.46795183765445464,0.8372421575002578
3,12829.0,3381.0,[7],1,0.2419798542802878,0.18569936114057115,0.7592018604841732
3,29189.0,5963.0,[8],1,0.16152209871273257,0.13666424886707404,0.039215737142336976
3,9713.0,3231.0,[9],1,0.47412456605707193,0.14602310287141457,0.7010966406237631
3,12867.0,2685.0,[10],1,0.22193058979377,0.25678082449508605,0.24948916298543844
3,25909.0,6093.0,[11],1,0.10183082448033008,0.15122433389819495,0.17335786611715528
3,7848.0,1474.0,[12],1,0.27061328156318337,0.1501976466898214,0.5269959406904904
3,15777.0,2890.0,[13],1,0.26610483330520185,0.4230919802209328,0.5356162511665559
3,11355.0,3460.0,[14],1,0.4293981268460635,0.14576083253136632,0.13484380868881332
3,18606.0,3400.0,[15],1,0.42970166685386524,0.4089257078069958,0.6429945006603918
3,23383.0,7848.0,[16],1,0.23639271207787188,0.539135249861494,0.5946731711796032
3,13365.0,2416.0,[17],1,0.18034821792624875,0.3647133307264037,0.43705036840398964
3,20422.0,5144.0,[18],1,0.17447641285725504,0.12446795687908187,0.24662690722416186
3,10369.0,3394.0,[19],1,0.10943206901297696,0.5863021039480286,0.6579433814301278
3,5378.0,966.0,[20],1,0.3750069989679111,0.492436716369186,0.32548073856949106
3,15828.0,3294.0,[21],1,0.12871855593700163,0.44504240723524546,0.5404374869490672
4,21277.0,4893.0,[0],1,0.29857207207444814,0.13986110168884144,0.26213029680721256
4,30474.0,10470.0,[1],1,0.29852698155656865,0.6522930161962872,0.6398515555193038
4,34830.0,5233.0,[2],1,0.22927203398852503,0.1345143119196924,0.13376527543582611
4,10745.0,702.0,[3],1,0.2519782914446761,0.3782656986623249,0.7667619786900455
4,37337.0,9595.0,[4],1,0.2033423783920127,0.5784670126330099,0.5031908853049812
4,13305.0,3710.0,[5],1,0.48094397223312807,0.2272276268065113,0.3649981712252136
4,18464.0,4685.0,[6],1,0.3474429439370587,0.4670595391202753,0.8370224077769657
4,14339.0,1510.0,[7],1,0.24990976914535815,0.18540691636485399,0.7581196080712503
4,33058.0,3869.0,[8],1,0.16290853460822685,0.13694157861583822,0.03837649991154151
4,14632.0,4919.0,[9],1,0.48505522757569725,0.14924109495335428,0.7075979699739752
4,15618.0,2751.0,[10],1,0.22407600852373108,0.25783185256135016,0.24987821715620884
4,29052.0,3143.0,[11],1,0.10135580214942745,0.15164488173180507,0.17315990036450984
4,9547.0,1699.0,[12],1,0.2760480084925782,0.14953478551221017,0.5286147329248809
4,19758.0,3981.0,[13],1,0.2686477728833468,0.4274874740010204,0.5303924141353121
4,15975.0,4620.0,[14],1,0.4394855726116978,0.14807681685892116,0.13393205558518156
4,23135.0,4529.0,[15],1,0.4379353720103985,0.42088009881015037,0.645004315235013
4,32870.0,9487.0,[16],1,0.246766526630274,0.5450204907031277,0.5884191825392925
4,16232.0,2867.0,[17],1,0.18216389044252043,0.3661151844632933,0.43380442108359313
4,23338.0,2916.0,[18],1,0.1749274222202143,0.12479423960069054,0.24670495426845052
4,11722.0,1353.0,[19],1,0.11050823477989663,0.5889945888189517,0.6509223134767624
4,6613.0,1235.0,[20],1,0.3884650084868573,0.49608408776624746,0.3214354394748536
4,17661.0,1833.0,[21],1,0.12857772696648803,0.44752517306200007,0.5377813962010846
5,26659.0,5382.0,[0],1,0.3038413571991807,0.1393591409792753,0.26212502686950206
5,41072.0,10598.0,[1],1,0.31164031484309823,0.6516872423132493,0.6267658706574627
5,39821.0,4991.0,[2],1,0.23275506204873866,0.13388891533958444,0.13270541016259257
5,11612.0,867.0,[3],1,0.2568497524838703,0.37585796328653454,0.7673877418874762
5,46470.0,9133.0,[4],1,0.20970540375209185,0.5826838119664652,0.5009400657463615
5,21455.0,8150.0,[5],1,0.5106959169832884,0.2182973729082551,0.3641099955934073
5,24085.0,5621.0,[6],1,0.3738191284145759,0.4765092897796961,0.8342845240478504
5,15569.0,1230.0,[7],1,0.2561863426385335,0.18553598358961834,0.7573001056722716
5,35785.0,2727.0,[8],1,0.1645272248588274,0.1368155847801445,0.037827871415933315
5,21935.0,7303.0,[9],1,0.5160080216574485,0.14908604917655832,0.7006002752615417
5,17106.0,1488.0,[10],1,0.2258604313881612,0.2585963195682188,0.2491371110099049
5,30686.0,1634.0,[11],1,0.10132696021390321,0.15156284514317175,0.1729088096441179
5,11200.0,1653.0,[12],1,0.2836721508828235,0.14845961942469296,0.5281803810054075
5,21174.0,1416.0,[13],1,0.2709417846563973,0.4292834698236135,0.5288854381439763
5,25206.0,9231.0,[14],1,0.46836052946195156,0.14704082702423413,0.13444376467087069
5,29627.0,6492.0,[15],1,0.45763737374388,0.43448520648967637,0.6522477352604468
5,38905.0,6035.0,[16],1,0.25305314443566884,0.5480600441614106,0.5847394816165906
5,16955.0,723.0,[17],1,0.1831481880324366,0.36708181491865177,0.43201209279902714
5,25477.0,2139.0,[18],1,0.17567058721834908,0.12446600313973255,0.24661267033901635
5,12583.0,861.0,[19],1,0.11168457174697634,0.590695339506761,0.6474513904732699
5,8469.0,1856.0,[20],1,0.40150834305152305,0.5051154089254984,0.32762536813811344
5,18131.0,470.0,[21],1,0.1284550205464773,0.4485694359626574,0.5371660394365725
6,32729.0,6070.0,[0],1,0.30970904750314043,0.13950805939741695,0.26165743504344097
6,50491.0,9419.0,[1],1,0.32305690701579676,0.6541235878156195,0.6165239309887705
6,44569.0,4748.0,[2],1,0.23632133586074672,0.13379173418530838,0.13163078734652375
6,12151.0,539.0,[3],1,0.26074905750578614,0.37478759918089327,0.7656452336312285
6,53979.0,7509.0,[4],1,0.215271253011214,0.584096031479984,0.4973099742533683
6,30484.0,9029.0,[5],1,0.5196579454464246,0.21510368023341167,0.3668378080845071
6,27871.0,3786.0,[6],1,0.38538253486467494,0.4834390130613102,0.8283178090852551
6,16309.0,740.0,[7],1,0.26031852544366174,0.18577498918649302,0.7551692733636209
6,37827.0,2042.0,[8],1,0.16605878388393613,0.13702666593458865,0.03747217360385857
6,31455.0,9520.0,[9],1,0.5314856786670421,0.15096474817504885,0.6894603206971233
6,18913.0,1807.0,[10],1,0.228640902726086,0.26011328844891907,0.24834139725718826
6,31957.0,1271.0,[11],1,0.10135712560382994,0.15171266621423043,0.17279204454370792
6,13315.0,2115.0,[12],1,0.2947642052766351,0.14852537623848155,0.528763714918702
6,24001.0,2827.0,[13],1,0.2756911814067657,0.43353934536286975,0.5253142756022888
6,33591.0,8385.0,[14],1,0.4759083743338107,0.14761542596992208,0.13678695753097914
6,39325.0,9698.0,[15],1,0.4776117773952206,0.4472116283551916,0.6606434585863649
6,42974.0,4069.0,[16],1,0.25805422981128323,0.5487061839137971,0.5816099194177718
6,17880.0,925.0,[17],1,0.18452643088756895,0.3693304154392809,0.42960518776500206
6,27067.0,1590.0,[18],1,0.17644280962389455,0.12444550618232986,0.2464192007904483
6,12782.0,199.0,[19],1,0.1119169513307919,0.5911760103822472,0.6465365409806864
6,11775.0,3306.0,[20],1,0.40790982609317644,0.512257351740305,0.3435794570619296
6,18537.0,406.0,[21],1,0.1285349737815645,0.449443719873451,0.5362568668718058
