time,power,power this day,pcore_ids,pcore_power,SCA-1,CD11b,Ly6C
-1,0,0,[],0,0.0,0.0,0.0
0,11106.0,11095.0,[0],1,249.81172339275963,113.91004862236639,212.94201332613045
0,12978.0,12966.0,[1],1,127.76606564956492,139.3750963168446,247.96301433194574
0,11119.0,11118.0,[2],1,154.9240039571938,119.91914740534204,102.14947387355002
0,8312.0,8309.0,[3],1,339.2745428296433,199.13955726660262,346.6614533204992
0,9886.0,9884.0,[4],1,296.83916649807617,148.7638074044105,673.7348776046925
0,12618.0,12612.0,[5],1,298.81946425740614,410.83626565224085,720.0474718655923
0,23927.0,23926.0,[6],1,183.35591591089883,433.16408241735206,551.3618088352084
1,19583.0,8477.0,[0],1,254.40703671551816,114.44901189807483,211.4504417096467
1,25225.0,12247.0,[1],1,128.81982160555432,141.65498513379626,249.81062438057552
1,22897.0,11778.0,[2],1,152.53574704110062,120.361706773813,102.71236406516141
1,13838.0,5526.0,[3],1,337.24635062870243,212.71889001300627,363.0635930047686
1,16853.0,6967.0,[4],1,280.41873850352744,157.21871476888342,670.1797306117601
1,26312.0,13694.0,[5],1,280.5129218607448,411.1260641532369,719.7225600486489
1,55238.0,31311.0,[6],1,176.00840001448566,446.8674282197062,546.3482023244746
2,29959.0,10376.0,[0],1,258.63162989418964,118.52545145031587,208.14703428018333
2,38233.0,13008.0,[1],1,127.78000680041313,145.11191902283397,247.157429445768
2,38129.0,15232.0,[2],1,150.17220488342622,123.31611109654021,102.21660678223832
2,20312.0,6474.0,[3],1,335.42216423788847,224.27816069318618,365.87952934226007
2,22871.0,6018.0,[4],1,284.8014078964602,161.51803594071043,665.3048401906351
2,36472.0,10160.0,[5],1,291.3276211888542,410.4667141917111,711.2810649265203
2,83970.0,28732.0,[6],1,181.4676551149236,452.688305347158,529.3769441467141
3,40133.0,10174.0,[0],1,264.9518102309812,120.12941967956506,207.58819425410695
3,50429.0,12196.0,[1],1,128.92541989728673,144.3153542604458,246.6435780999051
3,48673.0,10544.0,[2],1,149.99235715900392,123.25981550346233,102.82986460665964
3,27485.0,7173.0,[3],1,351.7131526287061,226.27633254502513,361.5591049663467
3,31147.0,8276.0,[4],1,296.0562493980145,160.1460814845731,671.0570520435317
3,46702.0,10230.0,[5],1,295.6337630080043,413.8855509400028,713.1706993276501
3,115377.0,31407.0,[6],1,182.9947563205862,464.1428274266138,533.1909219341582
4,51289.0,11156.0,[0],1,273.2040593499572,121.09627795433649,206.0619431067111
4,58062.0,7633.0,[1],1,130.0218731700648,145.6643071199753,247.93150425407572
4,55395.0,6722.0,[2],1,151.21653578843413,123.33495802870323,102.36853506634066
4,36139.0,8654.0,[3],1,362.1930601289478,226.71792246603394,359.4909377680632
4,39234.0,8087.0,[4],1,313.8461538461517,158.18450833460793,673.0967783045265
4,58278.0,11576.0,[5],1,313.0122687806659,420.8063591749907,711.9404921239546
4,151549.0,36172.0,[6],1,192.36613900454847,473.17435944810836,532.1875169087323
5,65249.0,13960.0,[0],1,288.8221735198997,120.19998773927603,201.87510919707714
5,62859.0,4797.0,[1],1,131.60615027283828,145.46666348494324,248.46547033837788
5,60372.0,4977.0,[2],1,152.89985423706955,123.04379513681828,102.1192274564357
5,50647.0,14508.0,[3],1,394.37117697000747,217.20954844314565,354.36158114004957
5,49145.0,9911.0,[4],1,341.4639943025722,155.33893580221792,670.9472174178375
5,72493.0,14215.0,[5],1,334.619811568009,428.3321148248794,711.295187121522
5,179181.0,27632.0,[6],1,200.9654595074235,481.50149848478526,530.3270715087222
6,79199.0,13950.0,[0],1,297.53025922044304,120.46924834909558,200.37149458957833
6,67068.0,4209.0,[1],1,133.29061549472712,146.12096677998554,248.8449484105693
6,64340.0,3968.0,[2],1,154.5663506372454,123.0399285048182,102.0222723033871
6,66095.0,15448.0,[3],1,410.00167940086203,212.51339738255484,353.90106664649534
6,61404.0,12259.0,[4],1,365.53071461142366,153.84828349944615,663.8122272164411
6,87368.0,14875.0,[5],1,353.7271998901172,434.35134145224634,706.4735944510587
6,204472.0,25291.0,[6],1,209.60800011737055,486.14973688330093,526.3093284166296
