time,power,power this day,pcore_ids,pcore_power,SCA-1,CD11b,Ly6C
-1,0,0,[],0,0.0,0.0,0.0
0,9439.0,9427.0,[0],1,228.51371967369403,112.85665854433736,243.74870219302954
0,10473.0,10461.0,[1],1,123.30411534422299,122.75040580540455,187.79919793755386
0,8793.0,8792.0,[2],1,174.374502445129,116.94632093710916,89.01831001933377
0,8403.0,8401.0,[3],1,276.9024158038785,167.6619064619782,727.2000476020455
0,5139.0,5136.0,[4],1,377.2761237594827,161.2739832652268,239.5841603424795
0,6362.0,6361.0,[5],1,146.25966677145792,180.3134234517448,299.9952845017293
0,4952.0,4950.0,[6],1,311.7790791599318,161.6708400646203,481.6809369951528
0,10808.0,10802.0,[7],1,225.05431162102096,494.3433567727597,701.5710584752029
0,7225.0,7224.0,[8],1,379.94214532871393,362.1934948096878,619.8870588235301
0,18357.0,18356.0,[9],1,172.65468213760602,411.7425505256862,533.5621288881648
1,17016.0,7577.0,[0],1,228.02750352609226,112.62934884814369,241.87129760225724
1,20559.0,10086.0,[1],1,119.85159784036675,121.50002432024931,190.03779366700678
1,17962.0,9169.0,[2],1,172.87440151431014,118.38926622870504,88.65126377908956
1,14566.0,6163.0,[3],1,254.69504325140534,180.35033639983465,728.7870383083899
1,7825.0,2686.0,[4],1,379.5064536741171,159.3855591054315,235.22006389776348
1,11831.0,5469.0,[5],1,149.07759276477373,193.02552616008873,303.93263460400584
1,8926.0,3974.0,[6],1,307.1864216894436,170.76260362984536,482.56609903652327
1,24134.0,13326.0,[7],1,212.32738045910466,497.0434242148016,700.4662716499539
1,14289.0,7064.0,[8],1,371.4547554062485,359.1972146406323,610.1597032682505
1,42843.0,24486.0,[9],1,166.99652218565896,427.4948066195194,528.3103424129819
2,25758.0,8742.0,[0],1,228.21379765509766,115.4476279214233,238.71337060330717
2,32567.0,12008.0,[1],1,115.599011269081,124.0898148432455,189.8997451407878
2,29926.0,11964.0,[2],1,171.87956960502726,121.574149568937,87.98563122368508
2,19397.0,4831.0,[3],1,261.41934319740017,185.24617208846632,722.8355931329586
2,11635.0,3810.0,[4],1,379.5051138805301,165.56862913622746,229.72161581435336
2,17463.0,5632.0,[5],1,153.66786920918858,207.06447918456143,303.206035618163
2,12663.0,3737.0,[6],1,310.3616046750355,173.25341546237004,483.60767590618343
2,30930.0,6796.0,[7],1,223.68428709990286,500.23339799547637,693.6806336889705
2,21473.0,7184.0,[8],1,368.39118893493327,361.84836771759717,614.0460578400774
2,68139.0,25296.0,[9],1,173.6903241902614,437.48207340876814,512.3031450417488
3,34877.0,9119.0,[0],1,227.5658456862691,116.35708346474834,238.59179401898157
3,42531.0,9964.0,[1],1,114.76967388493682,124.73551056876158,191.32503350497464
3,38056.0,8130.0,[2],1,171.8535579146532,121.98517973512817,88.20301660710503
3,26734.0,7337.0,[3],1,264.04200643375117,188.53822847310556,728.7224508116942
3,17498.0,5863.0,[4],1,399.0486912790013,172.99954280489166,228.15996113841592
3,21806.0,4343.0,[5],1,156.10451251949357,207.3022562597456,305.0823626524787
3,16705.0,4042.0,[6],1,324.7428314875778,169.10733313379131,487.447410954804
3,44101.0,13171.0,[7],1,226.37872157093724,511.7343824403068,680.7016167433787
3,27020.0,5547.0,[8],1,379.36713545521275,364.37413027387225,618.0869726128777
3,90623.0,22484.0,[9],1,174.15329441753545,445.3119075731297,514.610838308143
4,43286.0,8409.0,[0],1,230.52037610312843,116.84285912304277,238.72834172711686
4,47601.0,5070.0,[1],1,114.1362366336899,124.99182790277506,191.8407386399458
4,44074.0,6018.0,[2],1,174.3577619458202,122.21847347642645,88.01449834369447
4,32675.0,5941.0,[3],1,278.8494261667905,186.56569242540232,730.3443611323571
4,24661.0,7163.0,[4],1,408.99626941324203,174.36827379262812,226.06333887514737
4,26045.0,4239.0,[5],1,159.560875407951,211.92697254751454,307.8233826070234
4,21648.0,4943.0,[6],1,338.39684959349484,165.4531134515885,490.22316149297797
4,57840.0,13739.0,[7],1,238.8318637620995,522.4578319502092,663.9294087136664
4,36298.0,9278.0,[8],1,390.9691994049214,374.2465976086855,631.5998126618464
4,115823.0,25200.0,[9],1,180.9345984821703,452.7534341192958,513.1986565707888
5,51674.0,8388.0,[0],1,234.4463172968997,116.47573247668169,238.56800325115043
5,50660.0,3059.0,[1],1,114.19032767469936,124.83857086458762,192.14769048559145
5,49024.0,4950.0,[2],1,177.7077961814642,121.94759709530075,87.93635770234957
5,37597.0,4922.0,[3],1,290.2789318296636,184.92329175200229,730.1048221932517
5,39019.0,14358.0,[4],1,435.1515671852124,168.27079115302715,224.36848714728745
5,28139.0,2094.0,[5],1,162.1737801627671,213.50833362948322,308.30836205977215
5,30522.0,8874.0,[6],1,374.67944433523365,157.02188585282636,497.4894829958727
5,70355.0,12515.0,[7],1,249.029834411199,529.0972212351658,652.3511761779231
5,49614.0,13316.0,[8],1,411.4151449187699,386.2614584593054,645.5990647800934
5,133347.0,17524.0,[9],1,186.99712029517215,460.0747973332622,510.72831784740754
6,60328.0,8654.0,[0],1,238.91730208195148,116.81346969897923,238.56855854661063
6,53000.0,2340.0,[1],1,114.31850943396755,124.90894339622649,192.36058490566097
6,53248.0,4224.0,[2],1,181.02276141827056,122.07949594350964,88.05036808894212
6,41181.0,3584.0,[3],1,297.8618780505526,183.64364634175996,726.860639615352
6,52634.0,13615.0,[4],1,441.73965497586914,166.53942318653188,225.984211726261
6,30457.0,2318.0,[5],1,165.79039301310442,216.37088354073097,308.3414650162493
6,43434.0,12912.0,[6],1,402.09768844683754,152.312796426761,506.9047290141412
6,80283.0,9928.0,[7],1,258.0199419553312,534.9651358319934,642.9777910640737
6,65064.0,15450.0,[8],1,426.05496126890074,395.6509436862161,650.6629318824398
6,150322.0,16975.0,[9],1,194.11172017402725,463.7455262702615,506.5809129734647
