time,power,power this day,pcore_ids,pcore_power,SCA-1,CD11b,Ly6C
-1,0.0,0.0,[],0,0.0,0.0,-0.04788418708240535
0,6871.0,6859.0,[0],1,0.2631470158735861,0.12796816049617654,0.23858157278954684
0,6114.0,6111.0,[1],1,0.26316080610718473,0.6165881805277396,0.6659898454968077
0,7882.0,7870.0,[2],1,0.22080419331202686,0.13241321942084683,0.13809042508402058
0,9952.0,9949.0,[3],1,0.18586055764298126,0.518103639551296,0.5802740683118599
0,7490.0,7488.0,[6],1,0.16238385262747718,0.13335488041370397,0.04563590355068846
0,8287.0,8286.0,[9],1,0.11872623019946399,0.1398447767778897,0.2038083638123742
0,5732.0,5727.0,[11],1,0.2725973639022403,0.4515607386333125,0.8323604676283044
0,6062.0,6061.0,[13],1,0.42073072631496317,0.40329006002827467,0.652262184597317
0,8652.0,8651.0,[14],1,0.19296038585610065,0.3912564092104369,0.5333926421996985
1,12291.0,5420.0,[0],1,0.2622116849910263,0.12988636058242234,0.239512261946245
1,14216.0,8102.0,[1],1,0.25049248196366797,0.6277926439395273,0.6606448488669224
1,14741.0,6859.0,[2],1,0.2242138223360827,0.1312321560728367,0.1340510664541979
1,24781.0,14829.0,[3],1,0.17788424350116383,0.5324377291681489,0.5690091077572254
1,5728.0,2259.0,[4],1,0.41054037725189213,0.2017486934073161,0.4107525568924118
1,8312.0,3951.0,[5],1,0.21509554346768384,0.1811877773616299,0.7192030305823452
1,15059.0,7569.0,[6],1,0.15934448099647444,0.13310413429650284,0.04521436174358624
1,5863.0,1520.0,[7],1,0.4264940868941909,0.1473883692733709,0.7246784124669963
1,16585.0,8298.0,[9],1,0.11990271431136725,0.14064547504491484,0.20222535860012442
1,6316.0,2820.0,[10],1,0.20790715215859998,0.17646020019543734,0.37021842219216194
1,12918.0,7186.0,[11],1,0.251327387444747,0.44665691493647136,0.8265489772562306
1,5147.0,1977.0,[12],1,0.44403743426409326,0.14125919680840313,0.161414762334796
1,12246.0,6184.0,[13],1,0.41271288767530634,0.4002390105403331,0.6409069713050223
1,18105.0,9453.0,[14],1,0.18808268868554315,0.3940896554912837,0.5252425685604061
2,18429.0,6138.0,[0],1,0.26311175412957527,0.1345155763503763,0.23897898163553374
2,19905.0,5689.0,[1],1,0.2604523170452901,0.6300332688869437,0.6497898425091537
2,23149.0,8408.0,[2],1,0.2274605984387429,0.1339319310334448,0.13043466548315133
2,37547.0,12766.0,[3],1,0.18353084358989455,0.5397268003288042,0.551402301839594
2,8173.0,2445.0,[4],1,0.41073815261816554,0.20862341680170823,0.41150801555559374
2,10746.0,2434.0,[5],1,0.22526396025069345,0.18373952467212926,0.7103800367837698
2,24878.0,9819.0,[6],1,0.15606027075047976,0.13663424116021075,0.0444365385038908
2,8232.0,2369.0,[7],1,0.41968899116628294,0.15443498828102642,0.7213531690117996
2,7104.0,2789.0,[8],1,0.2134848858690162,0.3291250101911868,0.22931871877445326
2,26234.0,9649.0,[9],1,0.11812220696532125,0.14399071772081215,0.19921779027301437
2,8331.0,2015.0,[10],1,0.20902099778949454,0.1808638998104992,0.37190248458878034
2,17324.0,4406.0,[11],1,0.27007282227162843,0.4448182026660387,0.816273200560109
2,7849.0,2702.0,[12],1,0.44188553326051333,0.14804837230324167,0.1577124857520891
2,18005.0,5759.0,[13],1,0.41074264639347174,0.40294890433903874,0.6397863374996623
2,26646.0,8541.0,[14],1,0.18942244846498055,0.4016726084887735,0.5087998599805748
2,7416.0,4071.0,[15],1,0.32579254693768633,0.49937871277463025,0.4033176025832302
3,24927.0,6498.0,[0],1,0.26276624372380836,0.13648137629752158,0.23944559539244384
3,31915.0,12010.0,[1],1,0.2616676318944091,0.634456662670857,0.6398947022069595
3,30127.0,6978.0,[2],1,0.22820867317121743,0.13442418798128636,0.12987155414757487
3,52252.0,14705.0,[3],1,0.1833209975511964,0.544597872890963,0.5522866357605163
3,11164.0,2991.0,[4],1,0.42217712229114873,0.21086402479851943,0.41012573025450055
3,14382.0,3636.0,[5],1,0.2283744193350316,0.18455903589894665,0.7174679962177414
3,31223.0,6345.0,[6],1,0.15569216297263244,0.13733581651651164,0.04412435952680973
3,12037.0,3805.0,[7],1,0.4447680513174208,0.15417038039198136,0.7176381546652845
3,8508.0,1404.0,[8],1,0.21654477213779114,0.32506576190202713,0.2305224586214146
3,34831.0,8597.0,[9],1,0.11874776408333788,0.1450598695628059,0.1986496489987695
3,10457.0,2126.0,[10],1,0.2100428399663479,0.18239162577883075,0.37054919787109897
3,22391.0,5067.0,[11],1,0.27570698299226176,0.4404472466009816,0.8205311671220076
3,12122.0,4273.0,[12],1,0.461673362017984,0.159793886587417,0.16108244723558443
3,21970.0,3965.0,[13],1,0.4174220719776135,0.41103762432111096,0.6423273080420393
3,32371.0,5725.0,[14],1,0.18881683876434419,0.40377091612220645,0.5062596584324897
3,9291.0,1875.0,[15],1,0.3362194173653605,0.502482819212482,0.4046011430943905
4,31134.0,6207.0,[0],1,0.26630909667021047,0.13727837370327672,0.24027756734557734
4,48325.0,16410.0,[1],1,0.27614171370111995,0.6339989419302314,0.625622403985622
4,35618.0,5491.0,[2],1,0.23174606829901304,0.13446185758433643,0.1278879350935021
4,65792.0,13540.0,[3],1,0.18766425616447516,0.548768857592606,0.5493783844936228
4,14988.0,3824.0,[4],1,0.4305248693336662,0.21107889328053606,0.4086032003033765
4,15925.0,1543.0,[5],1,0.23356357927786642,0.18330927637327193,0.7134366619699114
4,35142.0,3919.0,[6],1,0.15627505484970208,0.13764160068356213,0.04341536260331799
4,17877.0,5840.0,[7],1,0.45700331792843557,0.15747755464249524,0.7224347194071663
4,10367.0,1859.0,[8],1,0.21972030958215696,0.32440246134292433,0.23261739591297756
4,39276.0,4445.0,[9],1,0.11867916021563936,0.1455369622290149,0.19867885452752568
4,12422.0,1965.0,[10],1,0.21219456600196504,0.18489373691837102,0.3712460183617027
4,26738.0,4347.0,[11],1,0.29766804976462924,0.4413176088804102,0.8229563590002376
4,17487.0,5365.0,[12],1,0.4714196677724628,0.16321503989906452,0.16108173516871488
4,27646.0,5676.0,[13],1,0.42734528106956965,0.4246502648382913,0.6474415965643865
4,37687.0,5316.0,[14],1,0.1909112700323183,0.40491188014831175,0.5023877959015772
4,13544.0,4253.0,[15],1,0.33819378538197514,0.5101068279554061,0.41732727581276136
5,37232.0,6098.0,[0],1,0.27119814778153806,0.1367760144535812,0.2403989718832768
5,62751.0,14426.0,[1],1,0.28690041019982604,0.6345695776260257,0.6161220369729868
5,40898.0,5280.0,[2],1,0.23603659638860675,0.13387261411183243,0.1256777821210045
5,74117.0,8325.0,[3],1,0.18942901240416787,0.5523045317184258,0.5466002362543801
5,22276.0,7288.0,[4],1,0.4583235143985246,0.20614103688079344,0.4105294641311011
5,17230.0,1305.0,[5],1,0.23827874037314214,0.18312523143102566,0.7114246917442132
5,37735.0,2593.0,[6],1,0.1571425210999867,0.13753086989706165,0.042952685811823106
5,25570.0,7693.0,[7],1,0.48763996607681503,0.15620650083083093,0.7154934748317454
5,11502.0,1135.0,[8],1,0.2221202370276608,0.3249696491894789,0.2325286509676438
5,41815.0,2539.0,[9],1,0.11900522230746732,0.14524881467225575,0.1986840966426764
5,13673.0,1251.0,[10],1,0.21525938514106016,0.1839422113072203,0.372358786853678
5,30872.0,4134.0,[11],1,0.31097176161955614,0.443896503325954,0.8228703213671471
5,29011.0,11524.0,[12],1,0.4994700576573232,0.162058867981267,0.163310337934178
5,36516.0,8870.0,[13],1,0.4516838547609054,0.443261715313288,0.6625011191969709
5,38784.0,1097.0,[14],1,0.1916348859253933,0.4053074902371481,0.5016746854947246
5,19986.0,6442.0,[15],1,0.3432922146626227,0.5273207648068569,0.42922322908887145
6,43777.0,6545.0,[0],1,0.27681066426292655,0.1369336177998787,0.24042318038990293
6,73147.0,10396.0,[1],1,0.2952707515403389,0.6376430539952179,0.6102184687557017
6,45905.0,5007.0,[2],1,0.24028480900345123,0.13393788371715945,0.12370859349547553
6,79026.0,4909.0,[3],1,0.19080498894262612,0.5534292482696118,0.5442659845759984
6,31572.0,9296.0,[4],1,0.4731912930957163,0.204783485624756,0.4124134759535765
6,18322.0,1092.0,[5],1,0.24323641131371668,0.18307467075903688,0.7076807027174583
6,39661.0,1926.0,[6],1,0.15796926706648223,0.1377414253216827,0.04273475499962431
6,35236.0,9666.0,[7],1,0.506185419406347,0.156780793912436,0.7037014621865053
6,13053.0,1551.0,[8],1,0.22673439400473755,0.32625073967496976,0.23385300668151426
6,43764.0,1949.0,[9],1,0.11939046920716226,0.14536656608605372,0.19871737130659484
6,14725.0,1052.0,[10],1,0.21856355277465192,0.183078459541058,0.3734999867655344
6,32332.0,1460.0,[11],1,0.314312880271671,0.44488498989276304,0.8210260846060425
6,39263.0,10252.0,[12],1,0.5048465447785527,0.16223827874746138,0.1657390708889218
6,49094.0,12578.0,[13],1,0.4705776764866975,0.45796184326051204,0.6738666326486189
6,40283.0,1499.0,[14],1,0.19277061419669675,0.4063231708063664,0.5003373404875483
6,30808.0,10822.0,[15],1,0.34634886167024703,0.5370598487082747,0.4400728717673224
