time,power,power this day,pcore_ids,pcore_power,SCA-1,CD11b,Ly6C
-1,0.0,0.0,[],0,0.0,0.0,-0.04788418708240535
0,58940.0,58876.0,[0 2 3 4 5],5,0.28651077271496694,0.3696017078492277,0.5748331699671173
0,31060.0,31034.0,[1],1,0.18269196263846432,0.1398914449627488,0.15319956919361455
1,121054.0,62114.0,[0 2 3 4 5],5,0.26748371930959236,0.3957929249928266,0.5761309453348892
1,58946.0,27886.0,[1],1,0.1794458039485412,0.14062366383957742,0.1490389036751554
2,178138.0,57084.0,[0 2 3 4 5],5,0.27167647831670916,0.4025821990973603,0.5577637176812987
2,91862.0,32916.0,[1],1,0.1772252296373271,0.1435109825864102,0.1432767433322897
3,241489.0,63351.0,[0 2 3 4 5],5,0.2773414109959446,0.40824994998507147,0.5563061147698751
3,118511.0,26649.0,[1],1,0.17680215338660868,0.14367034146285018,0.14421366240442934
4,313833.0,72344.0,[0 2 3 4 5],5,0.2902698554663185,0.413900208447313,0.5508644437645158
4,136167.0,17656.0,[1],1,0.17883039027671593,0.1439065607719447,0.14402457430474452
5,390281.0,76448.0,[0 2 3 4 5],5,0.3141999358629767,0.40990883804673656,0.5420164201375535
5,149719.0,13552.0,[1],1,0.18195450938766522,0.14334745158645457,0.14364257223007887
6,468319.0,78038.0,[0 2 3 4 5],5,0.33378838024815694,0.4049131475810088,0.534284394627533
6,161681.0,11962.0,[1],1,0.18516022916258967,0.14334793828000605,0.1436668322479281
