time_in_hour,cumulative_size,size,pcore_ids,pcore_power,AF700 CD48_[R 730_B-A],APCCy7 Ly6G_[R 780_A-A],BV421 CD117_[V 440_F-A],BV510 SCA-1_[V 525_E-A],BV605 CD11b_[V 610_D-A],BV650 CD150_[V 660_C-A],BV711 CD11c_[V 715_B-A],BV785 B220_[V 780_A-A],FITC Ly6C_[B 525_B-A],PE CD115_[YG 582_D-A],PECF594 CD135_[YG 610_C-A],PECy5 CD3-CD19-NK11_[YG 670_B-A],PECy7 CD16-32_[YG 780_A-A],PerCPCy5-5 CD45_[B 695_A-A],_FSC-A,_SSC-A
-1,0,0,[],0,0.0,0.0,0.0,0.0,0.0,0.0,0.0,0.0,0.0,0.0,0.0,0.0,0.0,0.0,0.0,0.0
0,127970,127970,"[1,2,6,7,12,15]",6,0.3788855989997726,0.27844069010705663,NA,0.5628585068922405,0.4633286528405045,0.27184297232945664,0.045434628881776185,NA,NA,0.44118679667890837,0.22434597125889022,0.7356868022114578,0.6835322737125878,NA,68491.65723216365,15690.137876064646
0,136827,136827,"[4,5,8,9,11]",5,0.36447546099089334,NA,NA,0.7600073868680797,NA,NA,0.15522322155713741,0.7500772095785209,NA,NA,0.16949134176733516,0.18027164623210346,2.0739197327354923,NA,69253.81873460626,21963.98968039931
0,26741,26741,[13],1,1.9027003246699545,0.31827416102613926,NA,0.9033989689615258,1.6985986339703225,NA,0.002359506712533932,0.804288600127117,NA,3.1251044472158616,0.4565447547960151,0.20909427018436244,2.397961455704725,NA,74957.12262069483,29499.680041883206
0,107581,107581,"[2,6,12,14]",4,0.30819652398658137,0.13648965198316,NA,0.5578545448173977,0.3106667882525693,0.2340728693077816,-0.012592627880373186,NA,NA,0.3749252098883632,0.16631154205667897,1.1001669463009276,0.6544689590726981,NA,69735.62870767133,13898.356624310922
24,210270.0,146285.0,"[1,2,6,7,12,15]",6,0.37997693950636013,0.2818765810553132,NA,0.6359130679198177,0.4648275639415962,0.3008956322085863,0.03849303218243083,NA,NA,0.4316270354377699,0.21505106994341716,0.6796937571194173,0.6519451786964429,NA,70250.55694107595,17525.451276929554
24,215878.0,136859.0,"[3,4,5,8,9,11]",6,0.40170341457444514,1.641210240508523,2.025055921698811,0.8142041391850925,NA,NA,0.15379169302568219,0.8020779092033554,NA,0.6952139055786107,0.15874486057170056,0.1919608651089959,1.9616622942055164,NA,69514.44738231794,24565.813802240198
24,37227.5,23857.0,[13],1,1.8987745675374466,0.38381246436101346,1.9462533823114359,1.0342632841179462,1.6721313389429744,NA,0.03159409389567136,0.9869915712040345,5.693825556040627,NA,0.46306259106842695,0.24366803050164965,2.385101863528316,1.8303950451144921,76320.10701766159,36742.53452420897
24,166757.5,112967.0,"[2,6,12,14]",4,0.3009375167443973,0.12493502944096191,NA,0.6332208568789954,0.27011538680120317,0.2637725850201522,-0.017136334167884293,NA,NA,0.35837581779829875,0.16049152911264342,1.0882510141133053,0.5998266241338527,NA,71919.8387598761,14957.291348215173
48,282441.0,177306.0,"[1,2,6,7,12,15]",6,0.35978388758361324,0.3336079166985364,NA,0.6327521413631523,NA,NA,0.06770148135185305,NA,NA,0.4087484780494054,0.2069276992380673,NA,0.6598732756549165,NA,NA,17953.952747653435
48,207835.0,99896.0,"[3,4,5,8,9,11]",6,0.3451311900630387,NA,NA,0.7355604843433481,NA,NA,NA,NA,NA,NA,0.11740512960882254,0.1435742531094376,NA,NA,NA,22852.71281545462
48,22839.25,12580.0,[10],1,NA,0.5637992020425555,NA,2.0464649752618915,NA,NA,NA,NA,NA,NA,1.1947535216458642,0.455699420055396,2.2731378804689433,NA,NA,NA
48,46220.75,27607.0,[13],1,1.9912736136150866,0.3399088643412127,NA,NA,NA,NA,NA,NA,NA,NA,0.40083423087031944,0.2045065783820016,NA,NA,NA,NA
48,189024.75,105646.0,"[2,6,12,14]",4,0.28568914670832446,0.12258091391207016,NA,0.6206911001786657,0.2334206301992321,NA,-0.013602387811655348,NA,NA,0.3189819595224981,0.14828726659338942,NA,0.5978703709487806,NA,70909.41333343914,15170.578371350832
72,371785.875,208434.0,"[1,2,6,7,12,14,15]",7,0.3137746966738473,0.45555815116865794,NA,0.7590150110130645,0.6633420264564363,0.2863451583485306,0.033607510771147986,NA,NA,0.40536952136091753,0.2111510427413501,0.6379226214205227,0.7866117222191421,NA,68801.37687855956,18880.223999903017
72,214142.125,121212.0,"[4,5,8,9,11]",5,0.4329916737301247,1.6260795856823087,NA,0.9651201699356116,NA,NA,0.122151309696795,0.8123451715052519,NA,0.6621355944831041,0.24768375166609147,0.1814672880680288,1.966870594324329,NA,71190.58627068356,26705.447291139066
72,61747.0,27217.0,"[10,13]",2,1.6896511138476382,0.49001107434166036,NA,1.587766011709094,1.7820940653553787,NA,-0.14086637126903057,0.9770424345170761,NA,2.877894798000305,0.7108768342247278,0.3053569974432002,2.341511797712839,NA,NA,NA
96,276223.75,112285.0,"[1,2,6,7,12,15]",6,0.40449714153018346,0.476042620059125,NA,0.8051417274897248,0.6805545297336013,0.29398329546450297,0.1189589553817254,NA,NA,0.45447179091293866,0.2492186987546594,0.6508798945752705,0.8098426031154623,NA,68792.48121133682,18598.26719462011
96,222887.0625,115816.0,"[4,5,8,9,11]",5,0.46455371988196137,NA,1.9490140963248224,1.1051214713334376,NA,NA,NA,0.9727210953341436,NA,0.7027907654414668,0.22920584719839576,0.19057058288628725,2.2120407988746,NA,70844.34636487703,24811.073706891482
96,59177.5,28304.0,"[10,13]",2,1.831974864287537,0.4689585672542296,NA,1.8122597463478893,NA,NA,-0.013561012080190782,1.110244944904077,NA,NA,0.787162908089011,0.3505057352974159,2.371583443364244,NA,NA,NA
96,204233.6875,96539.0,"[2,6,12,14]",4,0.38147385183730353,0.19613126923904378,NA,0.8345805460699238,0.3408065273392462,0.24902110179821668,0.06897571819840653,NA,NA,0.39785396894825587,0.20092799323327526,1.1010007743470234,0.6941500965028237,NA,71216.31917849004,15832.011063306936
120,246660.21875,111266.0,"[1,2,7,12,15]",5,0.4162996259577523,0.47718120033047207,NA,0.8581938920620646,0.6704819657120842,0.28591451238692644,0.17521492103649106,NA,NA,0.4729382609979582,0.2909094082019865,0.6563453143133222,0.7961544511084148,NA,67895.49760747515,18039.083215561957
120,292749.53125,181306.0,"[4,5,8,9,11]",5,0.4370501776267637,NA,2.127002410124186,1.2242689145026193,NA,NA,NA,1.0933415125336872,NA,0.6374414912259093,0.2129210489929183,0.18376184648534666,2.4179152267648836,NA,69008.35261371578,22725.145688854267
120,41726.09375,21621.0,[13],1,2.11182362733902,0.3747957490494369,1.6261296602889792,1.9188964494302652,NA,NA,0.2119056693847754,1.245122403626278,5.54232246728633,NA,0.6362462457694811,0.29641296530648475,2.41314662066304,NA,73100.1310181354,33067.36528626045
120,180036.84375,77920.0,"[2,6,12,14]",4,0.3865054942887609,0.1857323242891522,NA,0.9158999239332934,0.3508682170745092,0.24760721401939545,0.10818712620766835,NA,NA,0.4153744506943837,0.2256516644416129,1.165028121943093,0.684164824860339,NA,70881.48723447007,15185.669949848661
144,215229.109375,91899.0,"[1,2,7,12,15]",5,0.4819876513422632,0.3908100985536289,NA,NA,0.5824286324663546,0.3011679296997076,0.2568176888808176,NA,NA,0.5151040441483056,0.30852226421692386,0.8068716803703879,0.8060986890314438,NA,67997.87982442844,17612.90140078192
144,298108.765625,151734.0,"[4,5,8,9,11]",5,0.44227918176124925,NA,2.1062863990339484,1.4150899686524303,NA,NA,NA,NA,NA,NA,0.16488923552419266,0.2220237300447857,2.437362674899803,NA,68023.12004977593,21373.632394342763
144,66856.875,36748.0,"[10,13]",2,1.9379200509049144,0.38375518846674117,NA,2.33802286918699,NA,NA,NA,1.3022912685010297,NA,NA,0.8635491648519182,0.44070420994312043,2.3252619802738583,NA,NA,NA
144,174659.59375,87636.0,"[2,12,14]",3,0.38940395170016906,0.13827955267700975,NA,NA,0.33645229666205534,NA,0.20657857779748579,NA,NA,0.4330327362902511,0.22769656866464105,NA,0.7387699104580548,NA,70668.58225759496,14634.668168635844
168,264109.5546875,156495.0,"[1,2,7,12,15]",5,0.4064416439953691,0.48958886665128754,NA,NA,0.8728394165817956,NA,0.34092089115565294,NA,NA,0.597400849789166,0.3134379910746783,0.6204814020261937,0.9444462470297111,NA,66403.7575533803,20145.642619009075
168,260078.3828125,111024.0,"[4,5,8,9,11]",5,0.4563049692130552,NA,2.0952439202808466,1.5393971400356237,NA,NA,NA,NA,NA,NA,0.1807664773445481,0.22228612965974104,2.3428869082314554,NA,68750.7144832203,22693.298109497347
168,71228.4375,37800.0,"[10,13]",2,1.8612088700902787,0.3762909600812274,NA,2.5984299458932907,NA,NA,NA,NA,NA,NA,0.8978372384825923,0.4446230236634181,2.3382635489892762,NA,NA,NA
168,155767.796875,68438.0,"[2,12,14]",3,0.3052717107339977,0.12713983319119349,NA,NA,0.350816775443493,NA,0.2868706913832906,NA,NA,0.44870547156509966,0.23024825663674076,NA,0.7616076266448325,NA,71106.88604582587,15084.78474781018
