time_in_hour,cumulative_size,size,pcore_ids,pcore_power,AF700 CD48_[R 730_B-A],APCCy7 Ly6G_[R 780_A-A],BV421 CD117_[V 440_F-A],BV510 SCA-1_[V 525_E-A],BV605 CD11b_[V 610_D-A],BV650 CD150_[V 660_C-A],BV711 CD11c_[V 715_B-A],BV785 B220_[V 780_A-A],FITC Ly6C_[B 525_B-A],PE CD115_[YG 582_D-A],PECF594 CD135_[YG 610_C-A],PECy5 CD3-CD19-NK11_[YG 670_B-A],PECy7 CD16-32_[YG 780_A-A],PerCPCy5-5 CD45_[B 695_A-A],_FSC-A,_SSC-A
-1,0,0,[],0,0.0,0.0,0.0,0.0,0.0,0.0,0.0,0.0,0.0,0.0,0.0,0.0,0.0,0.0,0.0,0.0
0,157963,157963,"[0,4,5,6,7,9,11,15,17]",9,0.16748971554362885,0.4107505323674641,0.50827279258095,0.29797751078716544,0.5205671615153896,0.23762637074295517,0.2660353428859382,0.31044446316750546,0.5691554704237667,0.1254628892375928,0.24291348751882452,0.09038430677857485,0.3354726651058542,0.3588082890047652,0.18648114704425486,0.07010113018390907
0,36449,36449,"[1,20]",2,0.18743791276108637,0.24608336150152552,0.46828124219003275,0.30190380105232395,0.2751591540165216,0.23781045999596057,0.26218029835623746,0.31593507394300063,0.209419813411324,0.1276409447936934,0.2655844352865683,0.10781193202721084,0.13719250350381765,0.17515499452666888,0.1824138627474677,0.06504555730685131
0,107453,107453,"[2,12,16,18]",4,0.1671134257603324,0.2310736677361376,0.30493549845462053,0.2855393107594269,0.2566431785241126,0.22351744830308296,0.24977245597658093,0.5356505693383607,0.155353391705451,0.10237346720950642,0.24631374211565368,0.24675923849004328,0.1476394036865088,0.30402646868414546,0.20420639171992822,0.04952001210567577
0,20146,20146,[21],1,0.35095753418224923,0.24809707259073835,0.4284345411312558,0.3110954902669679,0.4406457048405802,0.22130366085517003,0.2620845904182934,0.3269063233035613,0.8088106069890608,0.44207502622758554,0.26771653373432236,0.0973857961314072,0.37878548488787184,0.4316582513670847,0.2073433384587497,0.08590053003659162
24,223563.5,144582.0,"[0,4,5,6,7,9,11,15,17]",9,0.17172667176054787,0.3954849961466754,0.5147658952613001,0.30288249760681235,0.5136759803357752,0.23960384320979358,0.2670679958993152,0.3154617854749611,0.5760254463145399,0.12826004569976382,0.24076497474747646,0.09112223881349321,0.32253228296459396,0.34825589738465945,0.18488515876257725,0.0787059136634284
24,63276.5,45052.0,"[1,20]",2,0.18750591154801644,0.24410616558628673,0.4683025293901155,0.30546414003230377,0.27020662382576577,0.24152367888852358,0.26031182546295983,0.3215008376154884,0.21086813771730512,0.1229398884307026,0.26272251848244066,0.10955851542508122,0.13341853433575857,0.1710218452696333,0.19241517383042583,0.07269499660108625
24,165446.5,111720.0,"[2,12,16,18]",4,0.16513875546988427,0.22996440370000168,0.3055692280222916,0.29286898305118203,0.2520237207359259,0.22758366603483962,0.24888184574932015,0.5335464642516282,0.15458434407847135,0.09942909169398437,0.24514533117965231,0.2447180774592269,0.13994708719487367,0.30751771327503297,0.21377493261379754,0.052079682718221505
24,38253.0,23864.0,"[10,21]",2,0.36026937434453865,0.2538778082309607,0.49834050785719913,0.3266121812836763,0.39809097558312384,0.2606043326811659,0.25698747342628214,0.3417674390418133,0.8132165868055189,0.4520360640282835,0.2702532207842806,0.10199495015648186,0.38353654833831047,0.3934954509789249,0.20980350637201456,0.12010368767277907
24,16565.5,12365.0,[19],1,0.29330236557724504,0.2813761942760489,0.6208976188248754,0.48400587363299735,0.45367665406201646,0.46995990842788166,0.17000913938168682,0.35996333004026726,0.6390342064530465,0.4734278787180088,0.3950031642921531,0.15256733825577007,0.3831362517564413,0.5337671037407684,0.4670948052516308,0.4683261347304533
48,249530.75,137749.0,"[0,4,5,6,7,9,11,15,17]",9,0.16850001459464453,0.39223222464566887,0.5085333221861252,0.2976559797456822,0.5079720993230037,0.23897350252504698,0.26445747126653535,0.31223226126339937,0.5717675155532538,0.11514457023379997,0.2402774027987895,0.0882702439035774,0.3209180805773743,0.32665216030118693,0.1798753907327473,0.07833815012189971
48,84462.25,52824.0,"[1,20]",2,0.18222869825377508,0.2458168375314528,0.4499891261538364,0.3034851786999759,0.2705962067712752,0.24032336133915497,0.2591282295525456,0.3218548798015416,0.22213067792863905,0.11791979521897439,0.2609392354480977,0.10634881925752647,0.12975797065586767,0.16576617868807778,0.18106242375241238,0.07435991488601813
48,182426.25,99703.0,"[2,12,16,18]",4,0.16535424287645967,0.23054183401411726,0.3044273963153159,0.2908916856600926,0.2516358388762999,0.2286868779501071,0.2495085815597519,0.5344923991120122,0.15566112560276302,0.09796167395227319,0.24398997923137627,0.2355238512344901,0.14271157290967926,0.2942208102456114,0.20693427601597086,0.05393092928392949
48,12569.5,8223.0,[8],1,0.2099100631773455,0.24516122417035657,0.3340316891096446,0.43745922227379064,0.2615006003404511,0.24708175607665778,0.36378662811104484,0.5200316703942331,0.5759867914850604,0.120083314569815,0.2800772299867996,0.11015050764316581,0.13323722466522742,0.33393256750300926,0.13361279348921426,0.0757426266293909
48,49385.5,30259.0,"[10,21]",2,0.36149185698789466,0.2520728387808872,0.4849200744214499,0.323497951499711,0.40397036002169784,0.2637232623692346,0.2572194424391659,0.3327714276700941,0.808343202543283,0.4387581458494932,0.2691320272155305,0.10022520557916943,0.38783960265912415,0.3933027177900193,0.2066365243480575,0.11959665181424167
48,29034.25,13285.0,"[13,14,19]",3,0.26960788198468894,0.279147290513254,0.5833718577340093,0.4613156198703706,0.45848096237947,0.39727773841015496,0.21956542038921317,0.35055503385109366,0.6045355858373508,0.43935638633638907,0.36756600834853764,0.1441481682890884,0.3631867633811948,0.522406984193302,0.3855899239714924,0.35302471302552124
72,288692.375,163927.0,"[0,4,5,6,7,9,11,15,17]",9,0.17171151191382142,0.38359412326738995,0.4825719099537649,0.31662098811530687,0.4884151540802737,0.2369575611038851,0.2641517474726186,0.3176605765341216,0.5366169199112488,0.12117806912873133,0.25117553306758045,0.0920870352895734,0.30178860357518206,0.3241745506674694,0.18955522157378263,0.08568640533558335
72,76238.125,34007.0,"[1,20]",2,0.18200871374953276,0.25094834150057715,0.4511751667815002,0.3107140645084724,0.27703237708329953,0.2406499708327543,0.2583708211920835,0.33064971889235995,0.22587436471437428,0.11680303662959592,0.2613343173107759,0.10922202285392917,0.1332975943615187,0.17027508909464045,0.1784215468189559,0.07825321614298521
72,206449.125,115236.0,"[2,12,16,18]",4,0.1631103824601563,0.23474599482031552,0.297034993304147,0.29933215231791654,0.2549922549198341,0.22630045218812858,0.24855045208789076,0.529279072759528,0.1532977630438593,0.09800546951366268,0.2446605824772513,0.21847367362352293,0.1463290664090063,0.29039869685566927,0.20809799919238606,0.05807583145790595
72,56105.875,25781.0,"[10,13,21]",3,0.3408406320869821,0.2617238465576468,0.47229857471014486,0.38343096518603076,0.4074298439465657,0.29157904071859847,0.2446762834869006,0.33798503044299427,0.7520167909612864,0.4249685233503092,0.2891342321104929,0.10853015575785847,0.37444587795832496,0.4242606155324183,0.2377477671775426,0.15467582309506997
72,15190.375,9604.0,[19],1,0.29727608736159805,0.29266403368837635,0.5845896314451496,0.49034034122155495,0.44881596690290065,0.4609056884803056,0.17212968277937665,0.3651235273689616,0.633772714498856,0.42933029131312644,0.3962412245415612,0.1468550883636367,0.3863990080357541,0.5312718076281008,0.4697874616512571,0.4633706317645686
96,275467.1875,131121.0,"[0,4,5,6,7,9,11,15,17]",9,0.17516282731936592,0.41264508602161104,0.49946034159187935,0.32871543792407276,0.5207047293629494,0.2389101471552444,0.28279280120448524,0.3297536877567184,0.5417773676638906,0.12667104079055122,0.24934515976857385,0.09306077763415896,0.33387733960602944,0.3716249624902896,0.1899163386190571,0.08058938242018934
96,62613.0625,24494.0,"[1,20]",2,0.18891277553055774,0.25209373972978694,0.46769756134134394,0.32053224279920206,0.2765999142657385,0.24290395916159918,0.2628085942255885,0.33145663678114784,0.22328561942740374,0.12400317914030458,0.26772807211334027,0.11157648903996256,0.13875613485392593,0.17771460226205207,0.1830845112364458,0.07927452453334163
96,195589.5625,92365.0,"[2,12,16,18]",4,0.17398717927751522,0.2347944891824893,0.3028534902068484,0.31273402307106807,0.2570012867379085,0.22537195698437287,0.256698230526103,0.5469835483831762,0.15324888099473877,0.10513509276631129,0.24865712747378205,0.24816068315918616,0.1512389637910584,0.3111329955229098,0.21045821469050519,0.055169180049210724
96,22390.6875,12380.0,"[3,8]",2,0.24372974343441733,0.24866087915714763,0.33349883106799605,0.4689897717591261,0.26573696897951155,0.25549070624289755,0.32474504044833513,0.4563004160188115,0.6287696300547879,0.1351489830939458,0.2794813492582634,0.16637520656700766,0.1464053521174606,0.47026733796186104,0.19110941771424106,0.07698448896229979
96,54849.9375,26797.0,"[10,13,21]",3,0.3583506137632729,0.26098700474539105,0.47043216496055074,0.40673680735784556,0.4095131512371229,0.2847472915485629,0.2567641537627017,0.35051336597613575,0.7617533866015578,0.42184057033028854,0.29548076478221447,0.1122779789286319,0.3821629237111637,0.4526587367087503,0.2306399127690566,0.14306400730244218
96,28443.5625,12620.0,"[13,14,19]",3,0.29322870706640486,0.2888118031423203,0.5765937702961397,0.4873395719933341,0.4646164822868385,0.4037928966011878,0.23781332634869337,0.3648698651182574,0.617307168087762,0.4245657463515427,0.38759880806869274,0.1543792659085603,0.38674685505244655,0.5535315493107759,0.41047163518722973,0.3691896494656161
120,331195.59375,193462.0,"[0,4,5,6,7,9,11,15,17]",9,0.17325156432156008,0.43916592537203775,0.5210800869110427,0.34205326556779364,0.5512148033347297,0.2419816196261979,0.29659757201975684,0.341153422288474,0.5496514357643598,0.12144052845118623,0.2485726934299099,0.09226482287713775,0.3618028480743959,0.4168119369256603,0.184921382424462,0.07503593582429526
120,64440.53125,33134.0,"[1,20]",2,0.19019135725309885,0.25466458930747327,0.4737064347550338,0.3238920496080586,0.27668409623076706,0.24217008575910964,0.26584724512941754,0.3312393326566584,0.21861420231356887,0.12454440156405969,0.2721577513179366,0.11293868889089669,0.13998437273599906,0.17974069605395834,0.17961523495256862,0.07614028157711673
120,168863.75,74361.0,"[2,12,18]",3,0.17102758663642734,0.23536327795876716,0.30701010752375085,0.3183900448374493,0.2594291996260804,0.22411033453120371,0.26102190228861016,0.560934517962169,0.15246311357574294,0.10707213973442926,0.2510251884746205,0.2592968890617377,0.1515674221461299,0.31913567134084314,0.20876839968947306,0.05293150254765997
120,13634.1875,7208.0,[8],1,0.2305725822167397,0.24903661009999642,0.32000508188174037,0.5492714133863762,0.2782306363160674,0.2522699645509771,0.41944002556837695,0.581136836880504,0.602350691112219,0.13285532847916237,0.29632095000899406,0.11793865312230328,0.15048292676301545,0.4386009659802471,0.14204120572577908,0.07374815449209458
120,60342.96875,32918.0,"[10,13,21]",3,0.36807713195483066,0.262844304681071,0.47622639045378984,0.4365599683311501,0.4211358794197221,0.28022313423010364,0.2626553363865915,0.36845354006802905,0.7655449847566216,0.41969713298315603,0.30084523393939716,0.11572181153125113,0.3894147408333574,0.48332986334321504,0.22138691676898303,0.13568481128326354
120,12681.09375,5975.0,[19],1,0.3304762803078379,0.3026281848625181,0.6085887865816036,0.5062700199060056,0.4743385197623641,0.4692615498512439,0.19194882110779582,0.37505082538260415,0.6414559959592042,0.4510015375379736,0.4173931975527238,0.16507525876249834,0.4130438479979855,0.5792438428094745,0.47497786273265136,0.4573622666160787
144,308709.796875,143112.0,"[0,4,5,6,7,9,11,15,17]",9,0.17264393659565985,0.4529166749854836,0.525212073856401,0.35607425491989314,0.5642739963884419,0.24349889223479315,0.30777389317313053,0.3447942902784753,0.5421435543580894,0.12478529059278982,0.24337479823993588,0.09528276472591325,0.3742962626626887,0.4337452492969212,0.18292443601170624,0.0714774746342653
144,55778.265625,23558.0,"[1,20]",2,0.19461167629533407,0.25410464464000726,0.47977796808019657,0.34186071459400663,0.2763173724052999,0.24390541113990583,0.2721280672264547,0.33709381477083966,0.21780834846252323,0.12901607350975788,0.274228977802092,0.1192413063287756,0.14598164835859553,0.18680576780377628,0.1797396226351342,0.07470895005122354
144,131782.109375,61000.0,"[2,18]",2,0.1752471495628712,0.23345825231271058,0.3208141929653497,0.32885556643711417,0.2624813131094833,0.19944540131324048,0.27500786896439605,0.5619533854948889,0.15391171671273976,0.10694455837172123,0.2501331398624296,0.2624626310880444,0.15504459327140943,0.3085319991044673,0.20672954125179507,0.05212874516536881
144,13693.578125,8935.0,[3],1,0.2725342622633398,0.241050974044174,0.3715698476962407,0.4925407641801433,0.25015944427415787,0.26869319297517785,0.2184764985124185,0.32549748905253006,0.6326592277243751,0.13663953725977115,0.2685746287708062,0.25048495860386105,0.13259111183673583,0.5894669236596062,0.23422760375308363,0.07197140930242213
144,18430.09375,11613.0,[8],1,0.2372078767337235,0.23882494783563507,0.30969862066320725,0.6052613871571522,0.2813196933710658,0.24791958272830214,0.42957399263303453,0.6161104218184429,0.6087645391729524,0.13071234101947332,0.2950414125803547,0.15316713462658177,0.1589088685057059,0.4786708423469532,0.1450873267643748,0.0687492728708378
144,63727.484375,33556.0,"[10,13,21]",3,0.3718658368967481,0.257931908556421,0.4842946088440179,0.4657228075885598,0.4328883936443858,0.27966572849396937,0.2793848098294019,0.36514468395353633,0.7632839161998523,0.44666744489249327,0.3018951027734097,0.12147038483655058,0.3843365446196852,0.5081785138925944,0.2164351555114893,0.13399549775177247
144,35959.765625,22310.0,[12],1,0.1680719447117672,0.22268019428134433,0.2478540154572585,0.47789517383891905,0.2511167254816208,0.3209651095445679,0.2447885656221496,0.667194719624438,0.19683650942009834,0.12619405154251936,0.25775773727323437,0.39101018163277707,0.17525023344825597,0.5113043135796377,0.21438225173101466,0.050131141833707676
144,10568.015625,6898.0,[16],1,0.2476505366866072,0.23208717031457704,0.3915862913599957,0.48649295556088623,0.2619174340962637,0.26590822880040316,0.24844795853637697,0.31380276928010165,0.19857456908500787,0.1328310278611992,0.26461449268977283,0.25628691038740803,0.12368034782043696,0.5500387429724971,0.23473073238822184,0.0642403948465716
144,31736.390625,16975.0,"[13,14,19]",3,0.31630527723857693,0.2877999202146287,0.5768802734263858,0.5225659576538545,0.4990531859378658,0.402685195694092,0.2818221503565753,0.37836032355501026,0.6395276283868947,0.4288334582218926,0.3864383171769336,0.16623711400119737,0.39825984533367664,0.6020370543738217,0.38251637243796177,0.32021114437447973
168,330501.8984375,176147.0,"[0,4,5,6,7,9,11,15,17]",9,0.172968744026441,0.41739515559510443,0.508820780918078,0.3698429863447335,0.5336828776591304,0.2422039104825265,0.30423390818954,0.3367649029705489,0.5275264254777317,0.13477231874711204,0.2464514588772359,0.09534452281857712,0.3417853285689303,0.3853341945331464,0.18059655744776448,0.07862951065306781
168,60252.1328125,32363.0,"[1,20]",2,0.18888621566160932,0.2553748287228123,0.47316171775012433,0.3624383538410042,0.2899187333533402,0.24664174828835125,0.2768522299179191,0.33060778615551967,0.23801443334399186,0.1308850371694702,0.27447453621243195,0.11573233389874628,0.1522850162496655,0.1947546191274555,0.17430714812232195,0.07949902324590337
168,150201.9375,66331.0,"[2,12,18]",3,0.16486210273728633,0.23011212120955732,0.3030333358854058,0.387378708396375,0.26137622369719,0.23086606597648957,0.2741943039833473,0.5936937311327862,0.17736210844935735,0.11340782732602023,0.2518670087219966,0.286051653311264,0.1623364674796393,0.3596735054470995,0.21012650143872674,0.05358963961685676
168,16973.7890625,10127.0,[3],1,0.2519153226094121,0.24017754539359823,0.37347140438987403,0.5252826327048334,0.2521072065673034,0.272078489647572,0.22811125339635763,0.32407018884105826,0.6219069383263157,0.1414480846613029,0.2724664524933225,0.25246389474103315,0.13125864531621478,0.5636055329895375,0.25319868651882577,0.07928465677534911
168,23325.046875,14110.0,[8],1,0.21302860696419,0.23807108491006723,0.3111407898532548,0.6016177810455993,0.28255257873731476,0.24823674679774735,0.4180340728444326,0.6185113192704459,0.6043012902339345,0.13190139018140093,0.29748198032162987,0.15922867623986656,0.1645181925334808,0.46561501643245207,0.15984081615272946,0.07426001831264771
168,83150.3984375,46781.0,"[6,10,21,13]",4,0.34360779437140854,0.25684454069095974,0.5228366092101995,0.4883606897335071,0.4380838917043862,0.2800653005919367,0.2927231806540389,0.3504703082078974,0.7298732346905009,0.4053174036215905,0.3003500393093007,0.11928653684477218,0.3719019087698019,0.4719425325139151,0.20848963096392897,0.14454900946941623
168,12455.0078125,7171.0,[16],1,0.23002241782277913,0.23298706311080844,0.38689914033615663,0.5191370785976228,0.26349001377940195,0.26558948786669934,0.2513166851073344,0.31306455100676933,0.21235150525887705,0.1373224130064279,0.2647888348358252,0.26024239531033355,0.12321303192220932,0.526150725977886,0.24540584091729487,0.0693292678723059
168,30890.65625,19226.0,"[13,19]",2,0.3162071328590751,0.2798102393922338,0.5656154664880955,0.5337617039947758,0.49694104245817766,0.45191273280177485,0.24602630842776976,0.3797481177767081,0.6785858563136518,0.4387297152227994,0.37811426610176413,0.15492275080667114,0.38180607157622215,0.577220687133944,0.3859445809784244,0.32010352814414067
