time_in_hour,cumulative_size,size,pcore_ids,pcore_power,AF700 CD48_[R 730_B-A],APCCy7 Ly6G_[R 780_A-A],BV421 CD117_[V 440_F-A],BV510 SCA-1_[V 525_E-A],BV605 CD11b_[V 610_D-A],BV650 CD150_[V 660_C-A],BV711 CD11c_[V 715_B-A],BV785 B220_[V 780_A-A],FITC Ly6C_[B 525_B-A],PE CD115_[YG 582_D-A],PECF594 CD135_[YG 610_C-A],PECy5 CD3-CD19-NK11_[YG 670_B-A],PECy7 CD16-32_[YG 780_A-A],PerCPCy5-5 CD45_[B 695_A-A],_FSC-A,_SSC-A
-1,0,0,[],0,0.0,0.0,0.0,0.0,0.0,0.0,0.0,0.0,0.0,0.0,0.0,0.0,0.0,0.0,0.0,0.0
0,99989,99989,[0],1,0.28653498966886115,0.11075473699108418,0.1320925044454535,0.5636026220184109,0.2643839051095944,0.22689909385032836,-0.025389100020968502,3.0564016225484405,0.7321272328456095,0.3492371059516317,0.16057762158839095,1.1948637580633887,0.6474933313764578,1.2951708786666714,70120.89537849155,13857.293902329591
0,40640,40640,[1],1,1.7513031696112134,0.3202558718257884,1.9345869163877611,1.1841809284448654,1.6970179528789306,0.7120796381643781,-0.14143977266240126,0.8085211687007821,5.346942319685053,3.184339076968483,0.652382817470492,0.27175770413386147,2.345387801500973,1.9540992210876083,81255.66456692932,40343.70866141744
0,54895,54895,[2],1,0.4666108278531591,0.34985760847071967,1.5260240107113874,0.6948956205119008,0.5752573051643965,0.35071503067675347,0.10897750081064528,0.8661861028508753,1.4465132632298103,0.5997151591948268,0.33973053984878065,0.3361287837325806,0.6729479269150235,0.6886889283723492,67398.33412879086,18864.084816467795
0,85473,85473,[3],1,0.18717320898997092,1.8200771902940227,1.981379041287942,0.7302632093176045,2.717523251108505,-0.4139405867700936,0.5708901655727492,0.6234004765013461,3.9831152591812944,0.55728824091819,0.08556369108372319,0.17897426310061704,2.0480571109589842,1.6499594124811359,68792.5354673404,21223.12720976225
0,78736,78736,[4],1,0.5237094666099573,1.8593667464819221,2.0918910611791683,0.8045322778525779,2.7268647098658785,1.1852863219111873,-0.3302855344569178,0.8119973820488826,3.9899337221982445,0.7123769738112128,0.2888553252260535,0.15567483683448446,2.1269197033758527,1.7088541601300349,70517.30948994121,24308.742938427324
24,107590.625,95092.0,[0],1,0.26052542656249544,0.09271072691160809,0.14396200608905163,0.668229562758142,0.20784343067995348,0.26411184794098075,-0.04323367516690313,3.150536924045376,0.6887002703685862,0.3211803455493861,0.14935534580849996,1.2294837349827352,0.5839733115489941,1.3758486376984664,73120.64053908063,14845.580755758128
24,44694.0,39614.0,[1],1,1.714612740158061,0.4242420145181707,2.3221203783785582,1.4454899515930513,1.7728320668909654,0.9270252425353409,-0.1781897641545731,1.0335398389940385,5.393957267507967,3.1783904100997553,0.7368834858761724,0.3407971924419346,2.3418296511081387,2.0459409953265397,89055.72846467042,56060.67337897766
24,85194.875,78333.0,[2],1,0.43244887221651496,0.31755018281473335,1.4038298567548977,0.7266069571321321,0.5268295215395624,0.36408486604534906,0.08603413583710706,0.9931823966230411,1.4860118822302906,0.5104257379214335,0.28164691413804954,0.36062627855107765,0.6074782345768893,0.6715195216775063,69641.03228040478,20389.592120417954
24,87344.125,76660.0,[3],1,0.25723191244404275,1.6140147348519678,2.0553850294510343,0.8100768746639004,2.6250829974225804,-0.37262525767618104,0.5887428452714749,0.7022712704374645,4.1315944423107975,0.5933751872263983,0.053484424831079735,0.18661919823170603,1.9170922974455626,1.5966656331593343,68313.56792457416,23836.437218874522
24,80143.0,70301.0,[4],1,0.5814247628536,1.6852114641562421,2.167736722472641,0.8674273634206955,2.6288583801017675,1.1624587155241228,-0.2989012555822246,0.8777505500558407,4.13205902303228,0.7417417190553316,0.24747235869475892,0.16500430256074017,2.0098218631649214,1.665948508790524,70021.4670276877,26835.944249653978
48,105725.828125,92277.0,[0],1,0.2708138345738822,0.10776770003738445,0.13898698177181767,0.6197293514420248,0.21194452895305682,0.2665855084663935,-0.012978974559659573,3.1052320741229504,0.7071271724297868,0.3001672318981714,0.13660169200330374,1.1061742130408516,0.6208566760905562,1.2252888541980473,70626.76422048552,15154.95886308551
48,45980.75,40394.0,[1],1,1.8336646387689972,0.3756340825586446,2.028649001764997,1.2551724406640377,1.7842117897533911,0.7689453736125174,-0.08185924500778352,0.878423537752238,5.365480922043447,3.0644752263854538,0.6157757197026639,0.26998139201458904,2.4548794255275914,1.9547374969447049,82196.35762792017,47164.042670030656
48,98261.359375,87612.0,[2],1,0.3562517773131171,0.4043087066684481,1.2768430076579596,0.6992414933286226,0.5749119675175871,0.33995612300694344,0.09583332958089796,0.894111820662606,1.8296524337127509,0.42671775374445153,0.25515081612942847,0.26502546058796783,0.5848074188470923,0.6244481017253574,63192.29649879876,19413.871191419184
48,77867.015625,66949.0,[3],1,0.14114641310056086,1.7127919134899003,1.9920877716177947,0.7009357875468325,2.688217057115207,-0.45237576806871893,0.690691043249791,0.5654464180143761,4.060875006307441,0.38862162956595336,0.038820236408685815,0.14076917103138542,1.9969409614198161,1.4447483682887454,65213.41630010581,21528.28327302429
48,70071.875,60054.0,[4],1,0.568607064677167,1.7175085382756778,2.1090611608671845,0.7362316481231135,2.6615521558907402,1.2067870000593233,-0.4567426999743791,0.8376789238426605,4.096931942556984,0.5258840241363937,0.2141482744447596,0.11319111190496456,2.094145183919408,1.5175449069045088,67354.92047272896,24387.290892387544
72,120088.728515625,106873.0,[0],1,0.2496316814121402,0.18059054278873132,0.09419774329471275,0.7492019691682814,0.27986985463536174,0.2420348609845797,-0.05457087477898037,2.9591479970443357,0.6646964919981545,0.3192852308538099,0.154245010570512,0.9421668455488024,0.6666799245102298,1.2315974001428294,71556.82615756003,17050.43588444317
72,35492.59375,29745.0,[1],1,1.764450336244728,0.47523995960990106,1.545270566580935,1.8437085906164081,1.6078589030834798,0.779945902417081,-0.15513123492095637,0.9378595406383243,5.216642037728782,2.876267774743899,0.6979491304989605,0.31290937189845336,2.2941950755617886,2.0488025618113426,85945.12660475852,49102.81105829267
72,105392.669921875,93110.0,[2],1,0.34145511208221313,0.7510063930843143,1.2248386235380964,0.8476966934556582,1.0120607920382296,0.3816891776689413,0.07625562529835639,0.9614644237740873,2.1422068093009003,0.4626388806753843,0.2976898882253791,0.25957186406391897,0.8750316034779758,0.7499304954929138,66627.91054354381,23233.333680275104
72,81122.376953125,71389.0,[3],1,0.27980702376861855,1.615086220192571,1.7263745184733899,1.0477537561583583,2.5009973350504304,-0.37022375213964487,0.5116189954725039,0.7106336627394052,3.7810206823223447,0.6016274970086687,0.22873991912366032,0.19118183497001207,1.8696057199146576,1.5965302156001102,71638.26866917401,26941.76657955783
72,67641.984375,58883.0,[4],1,0.6308436771673449,1.6151401084570352,1.9280625650325178,1.1120396863473778,2.552027650012222,1.1392016146846375,-0.3415358889442994,0.883738438331501,3.8169342468863916,0.7578976822185065,0.4266870851361424,0.16178641782438696,1.9839032508858465,1.6480368275112003,74007.33030313368,30450.77069968801
96,106458.09106445312,91447.0,[0],1,0.4255759771403307,0.15381505827742714,0.210206158920474,0.9078467220996855,0.28927324313452374,0.22381392065903682,0.13019061901865037,3.2624764987148183,0.6945919076346924,0.41813951877957845,0.2115876580604361,1.341631055360246,0.7016963452917796,1.3935573435791486,71972.0611662624,14626.173193423881
96,36554.57421875,32118.0,[1],1,2.017827867496119,0.38796047016329727,1.6340135852012865,1.9933157347416963,1.5696834361532956,0.7103690001500418,0.11785850484387961,1.2140813827901131,5.397308418732337,2.8082793225367486,0.7411438032965583,0.36116846557053617,2.3313455925389426,2.2463913103635806,78789.05254611294,38827.34327900769
96,59462.083740234375,46288.0,[2],1,0.5259697195902391,0.6823182194251043,1.5450307842912445,1.0979905382079433,0.9217065132790707,0.4234716456011718,0.26068568062735853,1.0165661506435515,2.11646714542358,0.6335966139379247,0.4180241451626534,0.3201458298190465,0.9081141032572523,0.8778331297639914,67817.8444360321,22507.437467469368
96,77181.29711914062,67041.0,[3],1,0.2864104291084022,2.114583220891613,2.0727606278666593,1.201122436346727,3.0672733672012567,-0.4862962639682249,1.042759437155512,0.9515166143123217,3.8825594428374886,0.6122619794633358,0.1448270857856766,0.2072111389199739,2.3122393661394276,2.0068484369182356,70276.13574611855,23391.772896021073
96,67699.248046875,59244.0,[4],1,0.6614485940855068,2.2032871582736497,2.179676669245547,1.2098984876659187,3.100269654118082,1.315263471713979,-0.06303972156349724,1.1453749881381525,3.8754332794860056,0.7735292192026818,0.35294339341378267,0.16878722362482157,2.4203642354607227,2.0599222602802265,72068.31147698771,26499.83400468782
120,82930.26138305664,69623.0,[0],1,0.34037745381956475,0.14894866973939758,0.25146520883078205,0.9771548055229822,0.3094670325102973,0.22633379397755782,0.15625382179913183,3.3454746596296685,0.6745469383010886,0.4121410733786569,0.2284620885459967,1.4092119050788443,0.6700699579572952,1.5198056354738083,71289.300330418,13931.02978878083
120,40508.32177734375,35939.0,[1],1,2.0835719987809256,0.40304916542353375,1.7698118974514574,2.212189273242037,1.652765393006138,0.6903992838078397,0.13153628938557338,1.3860661554301528,5.409055068465027,2.847594871354276,0.7655676000601641,0.37207116621284686,2.379351216801324,2.328615550339526,74773.88192638829,36910.46263085147
120,77090.7604675293,69658.0,[2],1,0.49199543597527784,0.6711626916484921,1.54581874321751,1.0514280829186355,0.8862472215245512,0.37004949264392195,0.2742638757121325,1.0238443703688418,1.9844054384152132,0.5660114230267174,0.4228715646587884,0.32600053227272496,0.8509628239992356,0.8838802021378076,65204.88217565883,19557.419725657415
120,104985.66213989258,95338.0,[3],1,0.21161389789375384,2.3525365286523634,2.285816769329522,1.2906876864952657,3.3665919380066236,-0.5499588792584061,1.156577158060585,1.0213160242634323,3.9414937159434547,0.4981181716916713,0.111874206715179,0.18182239066595784,2.503740739395621,2.1999297483841462,67762.50894809127,21355.094210545572
120,97904.40600585938,89442.0,[4],1,0.6473985888782317,2.398736577603575,2.3464899211472487,1.314495141738572,3.3419517574133626,1.3895916988779804,0.0014983926936293912,1.238110396934804,3.9451110218115812,0.6845690963824133,0.3503846541809361,0.15424077276982961,2.5820635472565017,2.243225391009035,69831.82431509666,24555.696852822704
144,94246.28267288208,83880.0,[0],1,0.4121527595373866,0.06908016801969197,0.17478094808590683,1.8019927372592215,0.3092260934693014,0.2692056788049595,0.2827399657658325,3.7297588828703283,0.9688127717087011,0.4645612600521818,0.23171969637998746,1.7165255950470142,0.7815279245807804,1.8408961870607603,71318.12880202968,14133.246584781322
144,45271.54022216797,40208.0,[1],1,2.0310698996625867,0.34250173847721,1.8453998164504335,2.661094891976275,1.8871740561735453,0.7305189519645165,0.5045725288973695,1.3782132650537529,5.309252763889741,3.1042779899440283,0.7959327317308418,0.46166742620330203,2.2974013355748193,2.5444081957853317,76586.78696785608,38740.59657664045
144,58886.34505844116,49250.0,[2],1,0.600190491516488,0.4923888290282141,1.5192118571744246,1.3496360787422428,0.664426226009879,0.3840508606770223,0.35630521185525543,1.1826915675254308,1.8113495770294228,0.6722906864064194,0.4329548335212876,0.47794185428359715,0.8387332831396636,0.9599860107470044,66259.88643491713,19188.715275295006
144,90051.20776748657,76928.0,[3],1,0.23210184615751595,2.3447218065224575,2.18265612524397,1.5155024644220854,3.300676956085527,-0.540570940833714,1.257338301688343,0.9964535465571798,3.821793176568874,0.5584342944929,0.03643660920149383,0.23648217790120618,2.4473069046229847,2.2003500980967376,67006.43513135184,19991.01327843854
144,84317.05075073242,72079.0,[4],1,0.6383332322991384,2.4007031759302127,2.2231575448154426,1.4891639744775773,3.267090802133237,1.3687207439198217,0.12402056090340619,1.2254508598286682,3.8085210294005853,0.7275945796097251,0.2625343761795427,0.20403190895336087,2.5113986028039754,2.210194568550901,69332.42087969495,23419.11827706173
168,84671.78533411026,72891.0,[0],1,0.23866041819279293,0.08749847543722078,0.19151821854120765,1.957973094356022,0.32293340220677846,0.3274979592116274,0.3406479598752856,3.6372499174765958,1.1058647246419135,0.4786392457924633,0.23532344010595008,1.4702339240106361,0.7697517118945595,1.7248181499169604,72274.09722966854,15451.86693450168
168,56041.942527770996,50383.0,[1],1,1.7268700857240205,0.3492389323229377,2.054870427751242,2.886325753902726,2.0099503057904866,0.8261411504191265,0.5592415462149756,1.1950488074670886,5.045235939941756,2.82536484071468,0.8133817381195909,0.44889395458343084,2.256226296841593,2.3736266407828555,79604.45324726295,43771.78339782174
168,128009.79313230515,120649.0,[2],1,0.4317344382231092,0.6793783289318478,1.4161653819363824,1.5578905314174043,1.2156718546877157,0.43104622967947326,0.3067338239102435,0.8642927633320028,2.866621098766547,0.7454648132880485,0.383475862525978,0.28355285120362084,1.090683010533965,1.0249840362167018,64695.903730255515,24404.765847775892
168,75485.40097093582,64229.0,[3],1,0.2547085151848649,1.985866323134836,2.151288426565284,1.6732836231685044,3.1300874443814233,-0.5462104359111181,1.2159101052037848,0.9088709236555057,3.697691303182101,0.6890416335306956,0.0960940215047068,0.2413297495756832,2.2201805006891955,1.9380613244399496,69418.37444155771,23817.20383216408
168,62387.63134384155,51848.0,[4],1,0.6413460347041273,2.155229553486879,2.2264167825687173,1.601168835501669,3.1932925929236933,1.3724757923516961,0.08448093008897661,1.1630802967286002,3.630528994454447,0.8305916588221239,0.3055822702731885,0.179890656994095,2.3376950276120656,1.9741740046979264,70793.05248674066,26861.767644324707
