time_in_hour,cumulative_size,size,pcore_ids,pcore_power,AF700 CD48_[R 730_B-A],APCCy7 Ly6G_[R 780_A-A],BV421 CD117_[V 440_F-A],BV510 SCA-1_[V 525_E-A],BV605 CD11b_[V 610_D-A],BV650 CD150_[V 660_C-A],BV711 CD11c_[V 715_B-A],BV785 B220_[V 780_A-A],FITC Ly6C_[B 525_B-A],PE CD115_[YG 582_D-A],PECF594 CD135_[YG 610_C-A],PECy5 CD3-CD19-NK11_[YG 670_B-A],PECy7 CD16-32_[YG 780_A-A],PerCPCy5-5 CD45_[B 695_A-A],_FSC-A,_SSC-A
-1,0,0,[],0,0.0,0.0,0.0,0.0,0.0,0.0,0.0,0.0,0.0,0.0,0.0,0.0,0.0,0.0,0.0,0.0
0,171885,171885,"[0,3,4,5,7,9,10,12,13]",9,0.3523302784827107,NA,NA,0.7391199677400611,NA,NA,NA,0.7243432935567444,NA,NA,0.1702473409198002,0.16604325062687197,2.0223126014893666,NA,68056.35190970704,20876.337178927737
0,132401,132401,"[2,6,8,15,16,17]",6,0.30530423432603015,0.15298011957613822,NA,0.5609815973519896,0.3169772239560107,NA,0.0031109783838538796,NA,NA,0.37697087947220653,0.18102256893830448,NA,0.6229662502020347,NA,69655.68127128945,13853.859351515459
0,19496,19496,[18],1,1.8580650832991423,0.2755185334427548,NA,0.8467816731124205,NA,NA,0.2163344835350829,0.7311094151620745,NA,NA,0.4293673052934084,0.20244602662084576,2.330941390644229,NA,72844.94378334035,27359.46163315552
24,179963.25,146863.0,"[2,6,8,15,16,17]",6,0.2966249752449477,0.13943594059898645,NA,0.6370235289357669,0.2689466808320575,0.27084313116983494,-0.002827913669869897,NA,NA,0.35100461214859413,0.17208211975778553,NA,0.5562066144296137,NA,72255.4514435585,15110.40450758691
24,184947.0,146811.0,"[3,4,5,7,9,10,12,13]",8,0.3974846883025962,NA,NA,0.8138767032852634,NA,NA,0.17883625408630577,0.7941875636844662,NA,NA,0.14531165902528764,0.17649196173092607,1.8762605811408073,NA,67994.1685347695,23848.59377010705
24,19683.5,16243.0,[14],1,1.2729879842380731,0.5475595542459661,2.812560215802566,2.163861332219873,NA,NA,-0.6160324580613286,1.066189687911188,NA,3.1765176633601717,1.3024452105062418,0.5158252097442033,2.2449210538267987,2.4075681438514707,NA,NA
24,18044.0,13170.0,[18],1,1.87086859953447,0.3491366032476222,NA,0.9791324341470644,1.5955800385446546,NA,0.33149725563898214,0.9378297889325995,NA,NA,0.4032744566615163,0.23657893802649443,2.3325991721902075,1.7531844214974444,73272.13921525155,34604.34316116168
48,198448.0625,147938.0,"[0,3,4,5,7,9,10,12,13]",9,NA,NA,NA,0.7076006288292098,NA,NA,NA,NA,NA,NA,0.129532646542593,0.13640790416573034,NA,NA,NA,22141.236758106366
48,194563.8125,149573.0,"[2,6,8,15,16,17]",6,0.2822573843379197,0.16208590846384663,NA,NA,0.2776185242145779,NA,NA,NA,NA,0.33301370745812797,0.17084685857305848,NA,0.5597595346105922,NA,NA,15760.338207805242
48,20062.0,15551.0,[18],1,NA,0.3169347943001726,NA,NA,NA,NA,NA,NA,NA,NA,0.33517573676603485,0.20312177855834246,NA,NA,NA,31617.638121822205
72,199219.953125,150579.0,"[2,6,8,15,16,17]",6,0.2733658844332425,0.2520457459565155,NA,0.7366784667160071,0.3765563010642925,0.26468106992781415,-0.0029965809037073576,NA,NA,0.3456344226185444,0.18246722467904464,0.7566092261484356,0.6413187490065341,NA,69655.17074634152,17459.15551851162
72,204339.4375,159254.0,"[3,4,5,7,9,10,12,13]",8,0.3937558906425891,1.4788161332374834,NA,0.9703795337104513,NA,NA,0.12289260983104322,0.797279442672671,NA,0.5868331662479674,0.2708181814516948,0.180338699401287,1.7204685935651352,NA,69661.30159284608,25631.450644469907
96,161308.984375,112344.0,"[2,6,15,16,17]",5,0.3978265933122547,0.2189249706269618,NA,0.8651538442928084,0.35753723523796355,NA,0.10669919975088771,NA,NA,0.4174093425786316,0.22678896490498657,NA,0.6826529134518354,NA,71159.10007414912,15704.140859327019
96,190377.86328125,138453.0,"[3,4,5,7,8,9,10,12,13]",9,0.466708852133805,NA,NA,1.1620327796724839,NA,NA,NA,NA,NA,0.6589815195065042,0.23707039373873862,0.19762225405949918,NA,NA,69004.88484363546,23015.030044627692
96,16239.625,12223.0,[18],1,2.0440880796104164,0.3717301614848232,NA,1.8033128199251616,NA,NA,0.5917730860171861,1.0691382287455737,NA,NA,0.5686088020928723,0.28065350693688507,2.3549837022012134,NA,73418.58397284432,31921.76408014343
120,142675.330078125,103080.0,"[2,15,16,17]",4,0.34877525509494567,0.2316147117534748,NA,0.9069660143460476,0.3819589197464883,NA,0.15157007187934823,NA,NA,0.42641706570987903,0.2628065047093373,NA,0.6503197217261455,NA,70086.07313252402,15061.263565665631
120,92445.708984375,68325.0,"[3,4,7,10,12,13]",6,0.6066881244946396,NA,NA,1.2890274436731337,NA,NA,NA,NA,NA,0.6509760662364504,0.3172404310356223,0.22719542469677811,NA,NA,67003.46701580736,23824.198499275295
120,149573.505859375,127001.0,"[5,9]",2,0.3161279524632925,NA,2.167676282854631,1.185585088187603,3.4379100729754133,NA,NA,NA,3.831760986208511,0.5308601989105172,0.1525345114212162,0.15139608718797348,2.6320764435721777,NA,67376.74281516731,19582.97424974016
144,213481.43701171875,151090.0,"[0,3,4,5,7,9,10,13]",8,0.40420626486160294,NA,2.1808384103189336,1.3966528842554107,NA,NA,NA,NA,NA,NA,0.14442740407971488,0.20722327636317206,2.4407246551711896,NA,66588.07302200154,20060.43905258231
144,138479.83251953125,102811.0,"[2,15,16,17]",4,0.38014982245529216,0.15633921869120382,NA,NA,0.35361086608674297,NA,0.23696082939158813,NA,NA,0.4526713570543508,0.25017860558602,NA,0.7333387070068563,NA,70344.71792231307,14569.014209139012
144,50759.525634765625,39335.0,"[11,14,18]",3,2.001414654687646,0.4070555005160368,NA,2.4595716717781184,NA,NA,NA,1.253487286190293,NA,3.1981707609712196,0.8743853208743078,0.44134179758840775,2.432616384873181,NA,NA,NA
168,243829.3592529297,190459.0,"[0,3,4,5,7,9,10,13]",8,0.40849389826197213,NA,NA,1.5629157780464222,NA,NA,NA,NA,NA,NA,0.22320587506136924,0.20738325953445924,NA,NA,66480.48588082318,23672.924149467282
168,129965.95812988281,95346.0,"[2,15,16,17]",4,0.25529051342295905,0.1898155126167418,NA,NA,0.4548717064903629,NA,0.2765732483966068,NA,NA,0.4563383316618045,0.24170499940444312,NA,0.7502881685844999,NA,69673.86616793521,15892.638992818886
168,57134.881408691406,44445.0,"[11,14,18]",3,1.8054719209920556,0.39258507605639537,2.183334968113941,2.729735053958042,NA,NA,NA,NA,NA,3.1000704665245906,0.8975094403993094,0.4366910718274468,2.3955432084096318,NA,NA,NA
