time_in_hour,cumulative_size,size,pcore_ids,pcore_power,AF700 CD48_[R 730_B-A],APCCy7 Ly6G_[R 780_A-A],BV421 CD117_[V 440_F-A],BV510 SCA-1_[V 525_E-A],BV605 CD11b_[V 610_D-A],BV650 CD150_[V 660_C-A],BV711 CD11c_[V 715_B-A],BV785 B220_[V 780_A-A],FITC Ly6C_[B 525_B-A],PE CD115_[YG 582_D-A],PECF594 CD135_[YG 610_C-A],PECy5 CD3-CD19-NK11_[YG 670_B-A],PECy7 CD16-32_[YG 780_A-A],PerCPCy5-5 CD45_[B 695_A-A],_FSC-A,_SSC-A
-1,0,0,[],0,0.0,0.0,0.0,0.0,0.0,0.0,0.0,0.0,0.0,0.0,0.0,0.0,0.0,0.0,0.0,0.0
0,104000,104000,"[0,5,6,15]",4,0.3207556470000057,0.15210198106730521,NA,0.46859823735577244,0.2848469835384524,0.2358470925576841,0.004337533701924023,NA,NA,0.36804223389423196,0.16897798609616022,0.8815737234999981,0.590880874375003,NA,69493.46707692291,13850.710153846077
0,15863,15863,[1],1,0.6564948976864451,0.3639355939607771,NA,0.9117891915148348,0.5580661332660961,NA,0.1296899041795454,0.8721650858601819,NA,0.7559026252915547,0.48715705068397863,0.3281504494736147,0.7489165846308997,NA,66712.00554750042,25297.856899703762
0,45314,45314,"[2,12]",2,0.6032491832546285,NA,NA,0.8060384158979681,NA,NA,NA,0.8623875761133486,NA,NA,0.25316986266936725,0.13350219892306858,2.253517064902678,NA,71059.22231539938,23875.937679304385
0,27416,27416,[3],1,1.9250260936314525,0.27812980398308573,NA,0.8912998387437954,NA,NA,0.04941251572074856,0.7758957936606414,NA,NA,0.4590288990005935,0.2052657366501336,2.389789899255912,NA,74321.77414648395,28576.845053982954
0,79034,79034,"[4,11,14]",3,0.3539068483184429,NA,NA,0.7291247934053673,NA,NA,0.13767460913025076,0.7131887464635449,NA,NA,0.22794908579851203,0.175921797795887,1.8265368242401956,NA,66202.9453652858,19691.73935268362
0,19851,19851,[7],1,0.14604348576898407,0.03223352037681071,-0.28942977890282195,0.9051499166792709,0.33653221777240505,NA,-0.04248973819960389,NA,NA,0.3655855039544649,0.1800925377059035,NA,0.7834209914865674,NA,71507.74711601429,12924.888821721781
0,49720,49720,[8],1,0.12806502069589132,NA,NA,0.6921590292839803,2.829833478600094,NA,0.698703408608194,0.5888849718825271,NA,NA,0.01569427934429468,0.15948532590506925,2.073406236403863,NA,67386.83700724009,19690.901367658793
0,14513,14513,[13],1,1.2600594461517283,0.5220897965961635,2.671549744367114,2.0660309655481046,NA,NA,-0.6611385006545885,0.9804053347343653,NA,3.1193742811272656,1.282380082684484,0.4934458043133756,2.3063045171225802,NA,NA,NA
24,169136.0,117136.0,"[0,5,6,15]",4,0.3074244051059636,0.1441544214507795,NA,0.5299161053678678,0.25388961126548537,0.25848435831519967,-0.00333498304617752,NA,NA,0.3426510931055453,0.163107601019306,0.8293283590779039,0.5407642198615349,NA,71542.86217008793,14948.964525588777
24,23250.5,15319.0,[1],1,0.6942265733210016,0.38210507247156134,NA,1.0236933959054668,0.562651376916635,NA,0.11469259233133977,0.9070464463344878,NA,0.761103693017359,0.4916656889744311,0.3185325085051942,0.7743857776822024,NA,67910.31865981406,29326.24898389296
24,104981.5,66822.0,"[2,4,12]",3,0.5761344044284034,NA,NA,0.832902905478579,NA,NA,-0.2525953979129669,0.8611922699237433,NA,NA,0.24120261686106348,0.1618659527821561,2.030346836085413,NA,69711.80926163188,25374.073412934722
24,37079.0,23371.0,[3],1,1.9406573825480813,0.3440999265352298,1.8857116017826692,0.9990673395587857,NA,NA,0.08116696239114107,0.9644519328056171,NA,NA,0.4433860935165477,0.2330203004396053,2.40060278472992,NA,75032.9586019041,34766.45044364703
24,31139.5,21214.0,[7],1,0.1259575503139052,0.03765342293549523,-0.26546795126768696,0.993162569148502,0.27560102960869903,NA,-0.02436124248943594,NA,NA,0.35106871704747866,0.17238605318003808,1.7515013641997923,0.6998205579087621,NA,73640.63469227173,13471.041731562776
24,104693.5,65732.0,"[8,14]",2,0.20946377944667582,NA,2.0786682773142275,0.7598847181487023,NA,NA,0.5496999514152989,0.6762002700501717,NA,NA,0.030763945875319276,0.16923527615372702,2.0531788378218203,NA,68482.31991479851,22152.431163348236
24,78118.5,52703.0,"[4,11]",2,0.45345177148818694,1.1982207124816995,NA,0.8171413081856289,NA,NA,0.08289323583401487,0.791602525310898,NA,0.6457070225234779,0.26666957936339575,0.1967090915020102,1.4702694244513297,NA,64709.281412213444,22391.153952008844
24,24226.5,16970.0,[13],1,1.2879930085650135,0.5349685157988278,2.7739515929663647,2.1229376245640013,NA,NA,-0.6128297140321504,1.0495645073163415,NA,3.1738460940292903,1.2761276624770135,0.5060977585701596,2.262833137246409,2.399669690339095,NA,NA
48,207119.0,122551.0,"[0,5,6,15]",4,0.28783347257374103,0.15973038686093544,NA,0.5278721786883294,0.2714332264036492,NA,0.0280895891142392,NA,NA,0.3341083938448485,0.16091063193621835,NA,0.5497269568859035,NA,NA,15477.578319709899
48,23554.25,11929.0,[1],1,NA,0.3590815728265824,NA,NA,0.4996637310676495,NA,NA,NA,NA,NA,0.5191317578674641,0.2639118303703194,NA,NA,NA,31519.59684557983
48,27233.5,16429.0,[2],1,0.9220428263260565,NA,NA,NA,NA,NA,NA,NA,NA,NA,0.22495523983329946,0.12435288949271905,2.311244149319763,NA,NA,34777.22540253735
48,48373.5,29834.0,[3],1,1.9911362405397617,0.3268870244865254,NA,NA,NA,NA,NA,NA,NA,NA,0.3953500422286842,0.20095348688847858,NA,NA,NA,32410.090979565364
48,179643.5,100035.0,"[4,11,12,14]",4,0.3536113071346947,NA,NA,NA,NA,NA,NA,NA,NA,NA,0.18110969138043576,0.13363810961571276,NA,NA,NA,20398.031256349317
48,30603.75,15034.0,[7],1,NA,0.04600782230117906,NA,NA,0.24320088030879727,NA,NA,NA,NA,0.31914558540210913,0.16324213380713015,NA,0.7097483411183266,NA,72675.84554180464,13534.640950863779
48,65094.0,31857.0,[8],1,NA,NA,NA,0.7008534625925544,NA,NA,NA,NA,NA,NA,-0.03203209195549794,0.13906889034319225,NA,NA,NA,21561.13165575939
48,24331.25,12218.0,[13],1,NA,0.5613687378577041,NA,2.113146760924724,NA,NA,NA,NA,NA,NA,1.255902596804526,0.4771538431441116,NA,NA,NA,NA
72,234503.5,130944.0,"[0,5,6,15]",4,0.2817192802623283,0.22677916696816158,NA,0.6230631100170085,0.3399154519985661,0.25319790829987454,0.005871241537415806,NA,NA,0.33867221456129504,0.17259688472455093,0.6990998215580941,0.6069348770684678,NA,69397.54741400473,16957.308492197168
72,17837.125,6060.0,[1],1,0.7749117597006328,0.42939013475406806,NA,1.149791548126454,0.594140457991414,NA,0.10106884018583706,0.9172540429931759,NA,0.7462670399307566,0.5343805281890877,0.27489651691346306,0.7836887456638885,NA,65812.5234868289,32598.79560186941
72,59860.0,25908.0,"[2,12]",2,0.7187955865310747,NA,NA,0.9852639329184774,NA,NA,-0.4364692869173856,0.9425340954894708,NA,NA,0.3283418063335204,0.1364917826470099,2.211230743783405,NA,NA,29303.30932175063
72,41653.75,17467.0,[3],1,1.9156410848453074,0.4040993883503905,NA,1.3103144019296131,1.6886316689733376,NA,0.051810159484456886,0.8924620871980444,NA,NA,0.45825228799022755,0.21936235136092674,2.4099529195270653,NA,NA,35432.81342016063
72,183108.5,113622.0,"[4,11,14]",3,0.35780837398181564,1.4313755466007847,NA,0.8922056853327311,NA,NA,0.0888232958409847,0.7700063798171586,NA,0.571048932690868,0.2627432987416056,0.17079515949900614,1.5596811768917203,NA,67184.95270290588,23857.62600862318
72,31029.875,15728.0,[7],1,0.15177038821457778,0.10437395899516977,NA,1.1599992835292037,0.3058012063656226,NA,-0.045669014671345654,NA,NA,0.34900064704176403,0.17413919712052595,1.5894707083294803,0.7455778251523765,NA,73101.67095420155,15060.423156715797
72,68156.0,35609.0,[8],1,0.20274018915244918,1.6866448346678666,NA,0.9192791411908114,2.7929533691457933,NA,0.7175557724962078,0.6525808852228723,NA,NA,0.09832652068966752,0.17054833678620096,2.029323037355486,NA,69934.98902517676,24394.94254357644
72,23652.625,11487.0,[13],1,1.3136185792485848,0.6306910178679899,NA,2.190437292324844,1.962477544004091,NA,NA,1.0855958215049744,4.427661497909884,2.8724582549611193,1.2520246036222407,0.4696878993346487,2.25995935706396,NA,NA,NA
96,207942.75,90691.0,"[0,5,6,15]",4,0.36390501120379737,0.2235854059425324,NA,0.6970749806037468,0.33975700824323596,0.24427145074545886,0.07178456536683209,NA,NA,0.3811197600959292,0.2040678083775651,0.8590578809377736,0.6384988424713732,NA,70192.97321017447,16131.230966215306
96,18784.5625,9866.0,[1],1,0.8394228879631849,0.4537430984984523,NA,1.319315131983375,0.6129322285986087,NA,0.23112850858250988,1.0929670627044121,NA,0.8396072234481101,0.6226417184556468,0.3789756817666131,0.8513997017896976,NA,67140.44343593289,32353.099094003457
96,71670.0,41740.0,"[2,12]",2,0.7314268477867323,NA,NA,1.1095310311183315,NA,NA,NA,1.120453583619354,NA,NA,0.31216032527642845,0.13538080256209095,2.4191204939645483,NA,NA,26527.16662480808
96,42709.875,21883.0,[3],1,2.058604032297888,0.3811775797459038,NA,1.6279330423394724,NA,NA,NA,1.0634104539128462,NA,NA,0.5580065900552857,0.25667478173374536,2.416949601348055,NA,NA,33784.83481864592
96,148471.25,56917.0,"[4,11,14]",3,0.4004887879210617,NA,NA,1.0214895709261844,NA,NA,0.30427763093697235,NA,NA,0.6234470478817457,0.2756601467544333,0.18019602058015916,1.7310406745039009,NA,66931.71147949554,22804.4248027816
96,34750.9375,19236.0,[7],1,0.2765541724018237,0.10911907163475876,NA,NA,0.3595117469042979,NA,0.10510054900496524,NA,NA,0.45212173269606837,0.2232496496137606,1.7651414909831744,0.8038260142658084,NA,73430.49504779553,14330.777579741332
96,75960.0,41882.0,[8],1,0.21049245747680145,NA,2.060412671849488,1.0586756007570095,NA,NA,0.9993693588615749,NA,NA,0.5482540464561895,0.06464605947949265,0.17569944328593567,2.2599045373222775,NA,69302.37151132114,22666.72948920486
96,20265.3125,8439.0,[13],1,1.4223432592514753,0.6146592417585208,NA,2.299203001073255,NA,NA,NA,1.1651864424400964,NA,2.952298885416886,1.3592383220404147,0.525686097364656,2.370565275119117,NA,NA,NA
120,136510.65625,58836.0,"[0,5,15]",3,0.38954411764236463,0.20179536241650364,NA,0.7640322133542523,0.3308657938828481,NA,0.12983917902378384,NA,NA,0.3941934507583148,0.2201352689515379,1.0817386568161724,0.675270279301239,NA,70297.72764717738,15416.427609474542
120,21411.28125,12019.0,[1],1,0.8749089638172667,0.5119352713814713,NA,1.3944899829835604,0.6867129965511616,NA,0.35623608724956446,NA,NA,0.8536933694781254,0.6796430181271345,0.38030493219841655,0.9292936726229307,NA,NA,30953.01202491083
120,26142.9375,15689.0,[2],1,0.9002870998560757,NA,NA,1.442797629227051,NA,NA,NA,NA,NA,0.7402247542536634,0.3593713052234335,0.1562941706818518,2.4499296012092193,NA,NA,31016.184772656237
120,43602.9375,22248.0,[3],1,2.135708053178055,0.3729294225618496,1.5944055755826123,1.9285273314061757,NA,NA,NA,1.2629923294538186,NA,NA,0.6101477063378864,0.27580121444227135,2.4476629679924256,NA,72175.38442220824,32111.874205723056
120,82645.03125,30226.0,"[4,11]",2,0.4614163366060009,1.332606645948538,NA,1.0546552506230515,NA,NA,0.26862401643436584,NA,NA,0.6293874554172044,0.3313385461312235,0.18120650028982488,1.4805591198306405,NA,63974.05356417027,21623.171326467305
120,72462.25,37249.0,"[5,6]",2,0.34019437971105804,0.3485503296617085,NA,0.7761250010548784,0.464766495083234,NA,0.14321425209895144,NA,NA,0.43059419290950285,0.29399838941786083,0.4885667348903988,0.5660311301164566,NA,68709.57562040947,16760.0047472992
120,32884.46875,15509.0,[7],1,0.2462467624400968,0.086348479241241,NA,NA,0.3720173379596683,NA,NA,NA,NA,0.4723777807009948,0.24079887236469988,NA,0.7980551926146745,NA,73053.61744668626,13675.155813487088
120,161462.59375,101666.0,"[8,14]",2,0.23049349188792023,NA,2.1987226440377374,1.1964244629243659,NA,NA,1.0361888877062024,NA,NA,0.5339665184896668,0.11124162970777762,0.16269537563480307,2.480199968922161,NA,67781.53236498477,21029.745188272125
120,81872.0625,56491.0,[12],1,0.6406447064142753,NA,2.0833503399045834,1.1810880622446014,NA,NA,NA,NA,3.9085205249493993,0.6806220864607414,0.2899244463705952,0.12075722659440147,2.5995580505304523,NA,68813.6568686057,21617.775416369695
120,20779.65625,10647.0,[13],1,1.5786632041855666,0.6588507648496229,2.6446334935852245,2.4027688979620963,NA,NA,NA,1.22889839683492,NA,2.9773562788935886,1.4175238097147345,0.5549119104893858,2.474195452774567,NA,NA,NA
144,129700.328125,61445.0,"[0,5,15]",3,0.4362886178075569,0.17123940828768847,NA,NA,0.3312334580943128,NA,0.22525001366683384,NA,NA,0.4197642578495584,0.22728589321502568,1.2359297579956263,0.7266792852438339,NA,70285.9310750104,15129.52382902835
144,19411.640625,8706.0,[1],1,0.9506281811879946,0.5128991526790108,NA,1.607200948115858,0.7021909862187972,NA,NA,NA,NA,0.9899993769113916,0.6953933012738158,0.42942884803335024,1.0285203213310274,NA,NA,30842.787303043722
144,22082.46875,9011.0,[2],1,0.938681171089476,0.9918915559316845,2.9165988661325053,1.639464648761955,NA,NA,NA,NA,4.434638263805168,NA,0.34807206363077503,0.19682805270017634,2.424265311364083,1.9003135389392634,69931.41452990845,30030.312711299626
144,48143.46875,26342.0,[3],1,2.161953118749575,0.3321763614495965,1.704858846359938,2.2212194209245255,NA,NA,NA,1.214695934244999,NA,NA,0.6531337625025335,0.31871055113525426,2.3924690350281033,NA,71902.56501823022,33103.55317926723
144,51921.515625,10599.0,"[4,11]",2,0.5019868529123293,1.2695818063609807,NA,NA,NA,NA,0.3441882144857069,NA,NA,NA,0.34522035036747223,0.20197133175613047,1.4826745307078628,NA,63229.805302895846,21268.99628616134
144,45741.359375,17944.0,[6],1,0.3308353908268833,0.33701077459608175,NA,0.8862758161562048,0.4314849812802657,NA,0.1524327766490825,NA,NA,0.42209472401994497,0.30313239851003804,0.39084817375651093,0.5324995626031871,NA,68326.42513698831,15708.076384644986
144,43528.234375,27086.0,[7],1,0.22978678937341734,0.021321961410453394,NA,NA,0.3560926976445109,NA,NA,4.244998242728589,NA,0.5031458648229933,0.23704450825557988,2.0800770547554035,0.8415449054877074,NA,72358.42889618676,13275.842617955796
144,169963.296875,89232.0,"[8,14]",2,0.23076555265460574,NA,2.178524691168533,1.372516193160358,NA,NA,1.1617518095816033,NA,NA,NA,0.07081732125170603,0.18887685434916135,2.492384004424039,NA,66662.56155487946,19728.432241850813
144,15272.015625,11322.0,[10],1,1.1906663070863919,0.21305734958549793,NA,NA,0.22539764250176342,NA,NA,NA,NA,NA,0.44735946716369623,1.125648128420142,0.6235266031978423,NA,74020.63838577307,20241.643643551368
144,85054.03125,44118.0,[12],1,0.6403126626513929,NA,2.0725170092161895,1.3143424954363692,NA,NA,NA,NA,3.813391455406076,NA,0.2354287782657596,0.1457147377777187,2.5862078327263687,2.2416696325741983,67903.27215677995,20413.349966877446
144,22321.828125,11932.0,[13],1,1.5936490045324125,0.6035830210395332,2.54991570642107,2.6019758679116927,NA,NA,NA,NA,NA,3.0569510425165287,1.4021928527877159,0.5950104603047595,2.4887888060908754,NA,NA,NA
168,96674.78125,38966.0,"[0,15]",2,0.34596295741819527,0.13803455609642823,NA,NA,0.3216279181045185,NA,0.25957750335952356,NA,NA,0.4050854230422457,0.2051594621623587,1.2311152736778896,0.7313455220447499,NA,70935.80713429286,15009.822434948526
168,19179.8203125,9474.0,[1],1,0.9466009691851391,0.5320067002236635,NA,NA,0.8296855745789085,NA,NA,NA,NA,1.059406252129818,0.7134807204508187,0.37256746818209163,1.1124820050419197,NA,NA,32695.032866982037
168,20580.234375,9539.0,[2],1,0.9505232384603659,NA,2.8475468178349037,NA,NA,NA,NA,NA,NA,NA,0.375192986787221,0.21889678967455917,2.391842113846353,NA,70208.9723407242,31723.254317894753
168,52574.734375,28503.0,[3],1,2.009407085791703,0.31853299609690966,1.9197928412062706,2.5362490967428015,NA,NA,NA,NA,NA,NA,0.6709511804415347,0.33532422856749144,2.4175186601046397,NA,72748.15759827619,36800.36431948247
168,122246.7578125,96286.0,"[4,11]",2,0.42462214391921704,1.0127776390192067,NA,NA,NA,NA,0.3446402812809386,NA,NA,NA,0.34191355970310955,0.20170041509491599,1.4488758550237657,NA,63174.31457646675,24626.31683138335
168,16630.3828125,9489.0,[5],1,0.4402293946541769,0.3679180965251234,NA,NA,0.6099789522663785,NA,NA,NA,NA,0.5400231150539149,0.35835352080363947,NA,0.8301442421795803,NA,67831.14163506284,19127.664683755993
168,50759.6796875,27889.0,[6],1,0.28566515065029474,0.3814967074307991,NA,NA,0.6287266309461583,NA,0.18151656350753242,NA,NA,0.41981120844408515,0.2769023425828978,0.33736597891980724,0.6240623531324575,NA,66071.82890332327,16797.247357531225
168,44935.1171875,23171.0,[7],1,0.1464906423765473,0.023469758238371163,NA,NA,0.34535532332977015,NA,NA,NA,NA,0.5358550915743855,0.2457751778691315,2.002358116309884,0.8459558924028524,NA,72773.79178416074,14055.70008562684
168,142673.6484375,57692.0,"[8,14]",2,0.2204537837970557,NA,2.191036995154979,NA,NA,NA,1.1830904363494747,NA,NA,NA,0.06334505927952572,0.18821573430951588,2.4340484418560218,NA,67509.00379630561,20650.612171670175
168,20719.0078125,13083.0,[10],1,1.0313008912570176,0.19383691474466191,NA,NA,0.27594846706961285,NA,NA,NA,NA,0.7538792024239481,0.5355639399664542,NA,0.6660888714948069,NA,NA,22422.61063870619
168,66421.015625,23894.0,[12],1,0.6486342779625507,NA,2.0895866222915074,1.3597183828823023,NA,NA,NA,NA,3.693059678177675,NA,0.23046931884194155,0.1363499973772897,2.5306323216410793,NA,68682.23114436926,21146.20078876566
168,27875.9140625,16715.0,[13],1,1.5727894614711613,0.5587279843267483,2.517052913517682,2.816182204768261,NA,NA,NA,NA,NA,3.0611242539877646,1.3653379714000144,0.582045957214971,2.369198810357137,NA,NA,NA
