time_in_hour,cumulative_size,size,pcore_ids,pcore_power,AF700 CD48_[R 730_B-A],APCCy7 Ly6G_[R 780_A-A],BV421 CD117_[V 440_F-A],BV510 SCA-1_[V 525_E-A],BV605 CD11b_[V 610_D-A],BV650 CD150_[V 660_C-A],BV711 CD11c_[V 715_B-A],BV785 B220_[V 780_A-A],FITC Ly6C_[B 525_B-A],PE CD115_[YG 582_D-A],PECF594 CD135_[YG 610_C-A],PECy5 CD3-CD19-NK11_[YG 670_B-A],PECy7 CD16-32_[YG 780_A-A],PerCPCy5-5 CD45_[B 695_A-A],_FSC-A,_SSC-A
-1,0,0,[],0,0.0,0.0,0.0,0.0,0.0,0.0,0.0,0.0,0.0,0.0,0.0,0.0,0.0,0.0,0.0,0.0
0,91411,91411,"[0,6]",2,0.3443394466639733,0.13349585449235768,0.3080653103893245,0.46631393876011895,0.2623427238735063,0.2884916606425967,0.009730305422771313,2.71601552103136,0.6993376228790743,0.37773309681547484,0.16439243799977676,0.9710596352955327,0.6110915114373606,0.9950148290249552,70294.84259006,14271.278161271686
0,74201,74201,"[1,3]",2,0.5191607840056038,1.880853658414341,2.020461481880283,0.7105769743130192,2.705755885257567,1.2167352274901877,-0.4596298978854789,0.8024857690462395,4.063131772604137,0.6125044842522321,0.23362330765082184,0.12166404901551375,2.0990474937265104,1.6203570948909134,67692.27067020675,21038.85133623533
0,84316,84316,"[2,9]",2,0.12151969445894406,1.905096667975216,1.9554091133592464,0.672521021099215,2.7801839950305838,-0.46274847464301117,0.665101784097919,0.5374473473717987,4.034773884446608,0.46830504888751756,0.0448694577304245,0.1492321943403374,2.0682992679918355,1.6186915404430957,66743.61857773128,18778.73143887272
0,21484,21484,[5],1,0.08066726987525996,0.04593382456711348,-0.02158015709363781,0.9449763341556605,0.37500004919938457,0.020092460761500286,-0.05088092780673925,4.020554662027567,0.8158738337832853,0.3567025073077693,0.18256598571027283,1.924499180273691,0.7945157319865873,2.2553077353844486,74192.88177248205,13702.538819586624
0,26851,26851,[7],1,0.33031970403337274,0.36383495180809255,0.7760213073256055,0.6650649050687116,0.6090916972924689,0.17938461528434968,0.24155798312910148,0.37975589572083557,1.5989762789840385,0.4421959030203768,0.25228417686494753,0.2461379307660826,0.5762268941194041,0.7706117636587109,64124.064802055575,13321.927377006376
0,44476,44476,[8],1,1.7224882356326818,0.3633694553467044,2.0819230775474247,1.3402240427196754,1.8285704639356317,0.796201141559495,-0.21631516287435515,0.8344290480483916,5.2279160191788865,3.2899990969061585,0.7621340553332105,0.2926045846973686,2.4173763740668788,2.033017271629651,88161.85772101794,49119.95395269404
24,139606.0,69086.0,[0],1,0.27548045007377575,0.126314180028118,0.38491719271377933,0.4362109289213545,0.2578300153431963,0.1123170901179309,0.11047765183447478,2.576201969815111,0.6073681094866877,0.31335187465437053,0.13578430874030545,0.8815921027176452,0.5377606336547033,0.8136764581178522,71462.66011489491,14383.382719940377
24,82266.0,36717.0,[1],1,0.5229561844504507,2.2161963274742646,2.1790205405027243,0.7363559543553748,3.1248447732113624,1.3512340553448243,-0.6085538036977676,0.9301758799382585,4.173323893722806,0.6412470659932493,0.16780653933580414,0.09604336807429792,2.2979229168064643,1.8685791339921758,69947.74298008927,22376.222303260416
24,160370.0,76054.0,"[2,9]",2,0.14587942890815797,1.8058153848163139,1.9857404266758238,0.7125515315582733,2.739145029475574,-0.44816012743030953,0.6664126235517909,0.5826077872918747,4.087074880881711,0.481733031458501,0.02428972701873633,0.15523204776454536,1.9927781460559846,1.5940689708174847,66658.22565317678,20087.990122841056
24,61567.0,32915.0,[3],1,0.5858299425991162,1.108393375818216,1.892556241769165,0.7673491091981202,1.9267409759773586,1.0125102645573396,-0.20359715095747877,0.7178329852843359,4.072542061266586,0.6104367156431322,0.2832511862848506,0.18028385719622908,1.6155189391232279,1.1973950573034169,64221.43083145177,23371.80892361148
24,28256.0,15699.0,[4],1,0.6469710101571362,0.37579121510476154,2.920118260511018,1.0647017384272193,0.48013048984288886,0.6558420163858922,0.02122836296715569,0.955824513660807,1.514548987436295,0.7471237248725987,0.5289923437854189,0.2911997652533975,0.6760845058040784,0.6823784761820475,66639.8414496035,30657.127972819915
24,44417.0,22933.0,[5],1,0.0643338933516433,0.04969616790868869,-0.037395187833483945,1.022402637481167,0.3447392421595694,0.025051377738259717,-0.004518716279795942,4.083208653871266,0.8081821195713453,0.3456186406556059,0.172675064952589,1.9383293821509664,0.7345353493031864,2.2449682610937223,75553.96177139343,13949.190264988501
24,42564.0,21673.0,[6],1,0.4973867520909674,0.11848441485764338,0.08927748978011296,0.7240459855276882,0.08127179957241326,0.982986751292158,-0.46333236413402323,3.2624252066065056,0.9743223985997514,0.4485274286486265,0.22874453545249018,1.2398755537778399,0.6701996157081181,1.602298961845688,73667.18165585943,16913.878018983138
24,64666.0,37815.0,[7],1,0.33788447369560815,0.30886048575758096,0.812110995128823,0.6818489788142266,0.575885356106753,0.19884111734142307,0.22794748448952884,0.4279669318033825,1.5061522683481305,0.44617731469396804,0.22457600858258164,0.26447332083320063,0.5475625013299218,0.7567545630161117,66360.67225435324,14307.937030278543
24,86798.0,42322.0,[8],1,1.712068698080601,0.407637231952366,2.249106156132552,1.449528349293776,1.858353638102304,0.8791747367220439,-0.216096592905354,0.9523864585820472,5.291576381748453,3.2872919360814166,0.7835820836885361,0.3221424976497135,2.4136405018202916,2.065435968893338,91043.64174289712,55936.608308946685
48,209324.0,69718.0,[0],1,0.26554697270739,0.12626621396018756,0.36460280767135034,0.4128928148659625,0.24598644163592898,0.12293676610902238,0.09341036967571759,2.5979807424758405,0.60687886072785,0.29101722940991204,0.12564904262289867,0.8506612769152173,0.551465993799087,0.7888404996178335,70377.13630543926,14631.1104316752
48,112664.0,30398.0,[1],1,0.5249575472377936,2.2239057281740573,2.179442337729847,0.71286110084852,3.1752824664667627,1.3504434575551774,-0.6022106868387471,0.9236846282752054,4.1546546292072035,0.5749424866594547,0.15831670948129428,0.08014603210431559,2.362767294504022,1.8416746032539193,69450.57956401349,22122.674430164276
48,233138.0,72768.0,"[2,9]",2,0.12237638895419711,1.7840050040533426,1.9581046862244729,0.6898900336410025,2.713172449000138,-0.4443553584529355,0.6689217359289321,0.5626278715825066,4.041037337885713,0.42893125249851694,0.023300512816438967,0.14373072045312352,1.977700227736356,1.5197148627207822,65836.05232952152,20063.34033919837
48,102140.0,40573.0,[3],1,0.5920642298218086,1.0481125700607148,1.8058523601918686,0.7593800467985283,1.7929153820443098,0.9819224527315609,-0.23954764920696991,0.7602439006951189,4.105154544164844,0.591785020775408,0.2691093181711386,0.18132291817113366,1.5248621650479537,1.1380826451145314,63560.609986292824,22927.454239279356
48,40263.0,12007.0,[4],1,0.6253869049499583,0.3681805372923188,2.8657170344236644,1.058436013088917,0.4429052998286491,0.6441930933611648,5.5174850356998206e-05,0.9655937079949335,1.5000840816879224,0.6991998534634881,0.510813426421318,0.28587704569953154,0.637606316618227,0.6467086250155263,64614.47979534562,30356.126865857168
48,61482.0,17065.0,[5],1,0.0624191307699844,0.05754722985589078,-0.04465494003123904,1.051517034465383,0.34821591239714866,0.018440534237665673,0.050233231823957336,4.065012246885336,0.8213813351875493,0.3414860911648996,0.16452390800557914,1.8962479919000574,0.7277040331479051,2.194392215542751,74688.52464135809,14071.310107023259
48,60400.0,17836.0,[6],1,0.5023536117549516,0.11241053849339666,0.0777008130463579,0.7519876315562857,0.04006248980132421,0.9832227287416961,-0.4849483374338033,3.2726061204966967,0.997323283890731,0.4087761060430559,0.21947710970197631,1.240060427715242,0.6452355962748343,1.5909876586920604,73020.06357615898,16597.30225165543
48,105444.0,40778.0,[7],1,0.2788251906319781,0.31648612238722595,0.7886776240943338,0.6628865760783289,0.5407927596069553,0.20266741427680168,0.18768122520008035,0.4654372553487951,1.5378439571052098,0.4056400999108648,0.21295674577975277,0.2343443490667939,0.49242796863739857,0.6777403842229008,65238.47016425807,14909.918743598228
48,125620.0,38822.0,[8],1,1.7525193544499265,0.39984674271611675,2.1808090356869516,1.3944609320331258,1.868629246584939,0.8443839113358218,-0.1755011684285641,0.9207344117656531,5.305487702205071,3.242653138855239,0.7359583993551784,0.3028485303932489,2.4424386583346567,2.0442720113278368,88506.4487820414,53701.018818658995
48,16592.0,7321.0,[10],1,1.8225279966248753,0.36602135239873856,3.8086886717695294,1.591330942080523,0.8344693021938405,0.7132365744334697,0.5214652079917972,1.0891050022902582,2.2206136897902704,1.5010242503013544,0.9125847440332762,0.3438096857521683,1.3894949420202467,1.605955586186108,73043.01253616193,42831.76470588217
72,288728.0,79404.0,[0],1,0.25394522108350315,0.14469635532750535,0.33693255437299285,0.447092716047671,0.250313845636696,0.1337781255784043,0.07407284300104422,2.5803733876659773,0.5986962266215726,0.2851509018210876,0.12784978161793337,0.8074504628439281,0.5596736775650263,0.7904096648922265,70608.04832229656,15235.38322573472
72,137375.0,24711.0,[1],1,0.551788216356677,2.170142437867182,2.134614364913513,0.7894428283166302,3.151664031723517,1.3578466913775957,-0.6123810700491417,0.9384999428935243,4.096030825528659,0.6091281102893623,0.2142307494449196,0.09010039929390301,2.3370387595850466,1.8546505004694998,70832.83240764317,23764.621161055464
72,314839.0,81701.0,"[2,9]",2,0.15324126771463753,1.747101437293301,1.869230632084967,0.7730775611598228,2.656640173815766,-0.42825443642624117,0.6295984013892633,0.5757496128180053,3.9489430309968543,0.46508549613929917,0.07354626902002304,0.14987092434546367,1.9376870801075938,1.5185006299156023,67101.84758559093,21497.00681300597
72,148876.0,46736.0,[3],1,0.601210967355386,1.116670949427737,1.723321957441073,0.8673850095314637,1.8018081967543398,0.9835614574478082,-0.23690506904403597,0.7880804692159371,4.015928056301832,0.6354956975536651,0.30705157373248637,0.17970244993819884,1.5449333900024431,1.1764721282812367,65305.825089335296,24701.432709100056
72,52717.0,12454.0,[4],1,0.6460015041447786,0.3990447684807723,2.8433466720412883,1.107752141472373,0.49122583362104244,0.6520553939715945,0.010207233548959138,0.9907606872166532,1.5219990077963779,0.7057486436254047,0.5224134739647797,0.2884072585883105,0.6674662907980223,0.6780102939658965,64794.58846292465,31361.875675778414
72,80103.0,18621.0,[5],1,0.06914584132930113,0.08164388780695031,-0.08325803272037247,1.1316154238043459,0.3675623350186874,-0.0075065313783577725,0.04919308868582828,4.05915075671324,0.8277943808970941,0.3429000967254662,0.1659914473740023,1.8304217721433536,0.7476028161492031,2.2002382659076254,74857.5057613321,14725.897207345532
72,81206.0,20806.0,[6],1,0.48227881242763915,0.14648682322732975,0.05601008498140558,0.8019513773243085,0.09478311527474581,0.9574146052631443,-0.46345562895601633,3.2959909219515717,1.015651592259215,0.422812719946807,0.2268625520651284,1.2026154716031103,0.6893901077137149,1.6182781860453608,73644.1788045215,17691.945127207327
72,149110.0,43666.0,[7],1,0.27064940484204913,0.4256833288645656,0.7857668326604772,0.7122960989471112,0.6728320713968978,0.21155166314803608,0.1824385059418936,0.5385757804909175,1.6502023468110898,0.40365743237207097,0.21881328328749072,0.22794988403863103,0.5709507502448091,0.6916613060626324,64374.14483267401,15837.74190865806
72,153978.0,28358.0,[8],1,1.7501935576900316,0.4241816573342012,2.089182408694722,1.514519711049656,1.851526890094719,0.8543297527179805,-0.1960828741833005,0.9322836183415495,5.280379346497606,3.2002467206353455,0.757452052397086,0.3049067565496454,2.434180314389058,2.0640732905415167,89738.192832743,54632.051851562435
72,20135.0,3543.0,[10],1,1.81350718589521,0.3989316604420021,3.819866888750919,1.656828441072761,0.8481607484976594,0.727801684181774,0.5184243603675132,1.0946707785944856,2.278758384057626,1.491480197616093,0.9272261445244601,0.34636615038489993,1.4020523192947616,1.6255240436056564,75084.23104047657,44298.67673205858
96,347113.0,58385.0,[0],1,0.2868157400471769,0.14943046255543058,0.3528395476227968,0.512059962692287,0.2625463063814628,0.13476364651567785,0.11688573989161588,2.636472871474245,0.6114027116846515,0.3076138037555336,0.14341107641890583,0.8593368821824474,0.5724917160694077,0.8260440142691419,70798.15506765849,15129.04480097217
96,184865.0,47490.0,[1],1,0.5620397987396166,2.2796738603738476,2.142973937619329,0.8732959631352548,3.2276657015444274,1.372076634798357,-0.49099229947798184,1.0091317168690668,4.053052780786018,0.617373026376011,0.221716924512521,0.09365163304574142,2.407348688767464,1.9357590512589893,70657.30101425303,23343.12974332598
96,176849.0,47151.0,[2],1,0.11335885380182864,2.2004984993807364,2.2718665110404994,0.8881174523915476,3.3481599533669777,-0.6705318118621013,0.940276014769672,0.7251568618143369,4.165198549061688,0.4653434791997596,-0.01044815677210087,0.14047216938743046,2.408575272192622,1.9563751834842005,69864.39930109734,21961.379481930493
96,370536.0,36519.0,"[3,9]",2,0.38455411149524155,1.33534627129617,1.6292802286093706,0.8381057152962326,2.0254358524246103,0.2861742148914037,0.20358453907853535,0.668952541682855,3.868818068211992,0.5500280766781157,0.21891868170429873,0.17534387500810633,1.6058070194798977,1.2483432064090911,64882.75820972787,22197.331260660205
96,63649.0,10932.0,[4],1,0.666316828701158,0.42319258005625215,2.842864275950903,1.135758359989937,0.5231061997046376,0.6538929912645979,0.034078106537429154,1.00754378712944,1.5336568396832946,0.734591149004696,0.5432767233106817,0.2977182517557212,0.7051862064604325,0.7033887909943708,65162.175807946725,31354.55111627838
96,103654.0,23551.0,[5],1,0.13003550720667612,0.09275301381518153,-0.06684637051149611,1.2173027410905433,0.38191833324328783,-0.008216982798549877,0.10102583601210258,4.078887614419091,0.8328471921778181,0.3767412646689887,0.1845736384895873,1.8738633107549911,0.7699303804098244,2.2140262507380193,74992.71283307974,14636.430895093046
96,97329.0,16123.0,[6],1,0.5207315443392875,0.1522318114642065,0.0709735415035544,0.8186067444440797,0.09789141954610203,0.9627810391969331,-0.4581092342467632,3.325910460448565,1.0097392142218684,0.4390186102703171,0.2372260467178373,1.2412663874898646,0.7047570934151116,1.6327225375581624,73667.09712418665,17451.325545315405
96,166126.0,17016.0,[7],1,0.283853762764392,0.4288544641296066,0.7936435867173102,0.7429643386465785,0.6732027139219228,0.2119022731361011,0.19610332122000118,0.5343906492782611,1.646036783736443,0.41654987128443943,0.228680669220942,0.23136269747061333,0.5803485918098509,0.7029144545766355,64598.74514525158,15777.639237686832
96,186269.0,32291.0,[8],1,1.8068084410019372,0.4279024230065027,2.054743274769242,1.6061590094057485,1.849631631269848,0.8427146221110859,-0.14880722609232366,0.9791062307146885,5.30428342725315,3.17947641980142,0.7812982221142724,0.31655471166433113,2.4521453066801358,2.1147072448609574,89206.63547879673,53509.799440593975
96,26815.0,6680.0,[10],1,1.8162015587171345,0.43548589520789616,3.8341595942196265,1.7996686016035834,0.9030797425321775,0.7450366372925539,0.6769016386350732,1.1588872600037496,2.33304927148985,1.5055162624277396,0.9817389379451802,0.38297297333582014,1.4752487035987403,1.7070879605071811,74824.71631549459,43734.94596308025
120,395666.0,48553.0,[0],1,0.29206440399225264,0.15710284321117607,0.3723084621903223,0.5365846395722538,0.27214934947405167,0.1344327755809014,0.13886060387040322,2.644017174412297,0.615228966848287,0.3171777890467984,0.15414022579647035,0.8716229797531274,0.5716623827040942,0.8411867920240859,70842.65650321227,15009.713121672756
120,261545.0,76680.0,[1],1,0.5563736262096368,2.3995893779082644,2.1999208195683164,0.9651959514844468,3.3402742348047734,1.391003512244535,-0.3739515550326118,1.081515169894332,4.031230618696562,0.5909006935785378,0.22924902593438912,0.08990397873789335,2.496446255451226,2.0357499762755515,69694.869242387,22607.27366992279
120,250585.0,73736.0,[2],1,0.08584472360679163,2.340382069852395,2.3078163857174485,0.9901559761518248,3.4519840711375003,-0.6741598302412336,1.0534388580321745,0.8084188930502587,4.124120975214146,0.42879441097832216,-0.006065925522235283,0.13750720789751214,2.494472897447968,2.0574898460203515,68834.06582197608,21091.178610052044
120,411056.0,40520.0,"[3,9]",2,0.3971701632745923,1.3311466122766564,1.628507669920865,0.8722005029412316,2.0194465995095574,0.2759335917344483,0.23027875379512652,0.6875430744497031,3.8610464565606404,0.5530596453670654,0.2282633466875219,0.18094195868689433,1.6014543759512287,1.265924567044407,64558.42170409795,21891.13557276847
120,76631.0,12982.0,[4],1,0.666784741527594,0.44701504928812685,2.8369839970768953,1.1561133840351752,0.5372987715415434,0.6489643263561662,0.0475466887552054,1.0164514450940318,1.5333505942373375,0.7397093353995184,0.5584749880727293,0.30401817288042765,0.7104190697237546,0.711476258002645,64670.32673461151,30899.59186230157
120,127276.0,23622.0,[5],1,0.15205483852417423,0.09619933252144408,-0.027143677535441224,1.3169466988434526,0.40452161623558247,0.0033510386954407334,0.14650590249534812,4.084160749583554,0.8500318269744419,0.40133004109179016,0.20157586922907234,1.8997627400845287,0.7791357788271135,2.2438605094754425,74801.95505829854,14584.749489298536
120,110402.0,13073.0,[6],1,0.537719207423768,0.1556818756544236,0.09365163229831985,0.8516396388561542,0.09745691176793159,0.9753485317204127,-0.45796731788376555,3.3202652221336537,1.0147196316461664,0.446771377882645,0.24753297173060052,1.25130643323491,0.7011621002789702,1.6541477315356545,73474.10083150631,17271.756671074763
120,189896.0,23770.0,[7],1,0.2905589736908447,0.43591319089391733,0.8117959211041677,0.7561557476039429,0.6733335332234325,0.20903163847583928,0.20554599697722598,0.5267536790716871,1.6308355507488308,0.4209774611366123,0.24223672271136687,0.2317592452395164,0.5879212059495961,0.7068445068247804,64485.65598011629,15644.013312549749
120,225045.0,38776.0,[8],1,1.8615571466684189,0.44226920422137805,2.0466271910951295,1.7229821023350675,1.8681984269101632,0.8303538038748395,-0.10916131426156195,1.045108774365088,5.318552327076881,3.1589679509742363,0.8015809373103151,0.32925190656536296,2.471065966779991,2.172835223777466,88133.58565620182,52128.12754782432
120,35103.0,8288.0,[10],1,1.8291980569751944,0.4603449602597913,3.824347291798387,1.924629923824186,0.9443729813406132,0.7515774750021367,0.7945270271771436,1.211906155542271,2.376952773637594,1.4672161135800343,1.0303846737600804,0.4119490327037568,1.5144214317010052,1.782047890778567,73387.37589379793,42582.72808591832
144,430941.0,35275.0,[0],1,0.30146765973532164,0.15605315313466006,0.38368890959552227,0.5714373218677262,0.27465557150746456,0.13116379787717203,0.1626020800921335,2.6754627595634686,0.6129482603999091,0.32279371424623626,0.1582046375744932,0.8985159978605042,0.5796911517887614,0.8525202151269087,70826.6390433967,14912.572366054064
144,322085.0,60540.0,[1],1,0.5523536374590434,2.457776807317998,2.198694352683263,1.0349174378191925,3.3730335243894625,1.3974691275967548,-0.2963079042426555,1.1028300006675864,3.979538761624959,0.5926324271853692,0.21118559340235654,0.09669386007110525,2.5227949467686854,2.068550348746388,68981.74084480834,21913.1153577464
144,313318.0,62733.0,[2],1,0.07883002911742043,2.403033924555837,2.2940920779847205,1.0783275727471784,3.472596280998744,-0.6665561875283306,1.1197464702154805,0.836116822477448,4.06348075197093,0.43584229886571013,-0.01881549615407163,0.14764145900651648,2.515748870585139,2.0931272773125253,68395.00152560635,20598.73493383637
144,433663.0,22607.0,"[3,9]",2,0.4142201302048003,1.3122526450100476,1.6243442384270677,0.9206397357003127,2.0030600719798435,0.2748594155646089,0.24912764954585453,0.7056194907566669,3.8610405719003,0.5591458443192182,0.23387915336099097,0.19264032518107466,1.592796458148412,1.285138228470046,64521.676084885265,21821.789989000317
144,86625.0,9994.0,[4],1,0.6801247868283116,0.45302518636650735,2.8394253752496357,1.227398318037531,0.5427951107417059,0.6496835948051907,0.07320659258874729,1.0556096144184912,1.5400848283982742,0.763212331347774,0.5670998291717377,0.3265291424646447,0.7232230238845744,0.7291674114401174,64446.32953535349,30536.715082251652
144,168316.0,41040.0,[5],1,0.17773818619741544,0.07907236519402572,-0.02463918805702514,1.63355846147127,0.41931815246914983,0.021234991492204758,0.22430722214760923,4.122299020722947,0.9688794498799792,0.4289467736638227,0.20839671680650307,1.9552901484231877,0.8027181677083449,2.2839094144347514,74209.0954632956,14432.103424510755
144,130267.0,19865.0,[6],1,0.5724980261462851,0.14564594471354964,0.11075230326941288,0.9710344785709051,0.08934903371538505,0.9817200909286108,-0.4409290893856692,3.3283365726852914,1.030314987356748,0.45583168319681067,0.2548806215388524,1.281832706065226,0.7076884973016894,1.679765985529732,73304.5285759246,17016.74744946915
144,207920.0,18024.0,[7],1,0.30239514993745353,0.4349437680838468,0.8216381632502583,0.799511528304166,0.6722938763755071,0.20740109448829913,0.2249246683387116,0.5290861355329168,1.6218113076087128,0.4272220776067721,0.24827999581568427,0.2420573436177479,0.6028347358359215,0.723033025038472,64473.89272797314,15524.128357060054
144,268303.0,43258.0,[8],1,1.889962296295556,0.4334941435653219,2.029157570739106,1.8695928162487339,1.8969760562833655,0.8185469845026276,-0.02162447220118313,1.0797893836930204,5.324682107013394,3.168635660570316,0.8101935078400313,0.3505147918696422,2.451623344569403,2.2421653844086626,87177.09801232225,50767.53729924783
144,44112.0,9009.0,[10],1,1.8091688759067839,0.47000284215177723,3.712150250045316,2.1656796692283744,0.9765070498957171,0.7571888948585375,0.9692033725290203,1.3151627808532846,2.407412051142566,1.4749720569913007,1.0467902154969253,0.4883376189018873,1.5311993353962747,1.8580785757163636,72557.5799782371,41066.15741748244
168,462694.0,31753.0,[0],1,0.29582382068060276,0.15741066838776874,0.3898145836945859,0.6097596955893057,0.28254862606170583,0.13291530425071074,0.18013436867774502,2.6915468892011774,0.6244259602696313,0.3260409754934934,0.16024681678604313,0.8972035424189717,0.5877971800023295,0.8579248917016573,70855.56460209202,14961.792424365909
168,362418.0,40333.0,[1],1,0.5483729843716059,2.4640533199041945,2.2018024636552043,1.0747381452190377,3.3901432687834414,1.3995631502325498,-0.2634561999320919,1.1043853829914996,3.930649423237685,0.5980947471731369,0.2068426358348514,0.09450707631519584,2.515971339955463,2.050978558713899,68951.94494754742,21948.179439210042
168,348705.0,35387.0,[2],1,0.07011619968744887,2.4180766243586334,2.294975180668452,1.1192990261567912,3.4916941810181696,-0.6723610097618402,1.1500480574611025,0.8385040875410028,4.016219718392385,0.4413444008488949,-0.025756378924858936,0.14659070886280323,2.513617154850083,2.082276404381995,68349.03515578991,20589.7711819439
168,220479.0,36550.0,[3],1,0.6414919786147697,1.0149707823965013,1.6466037519899293,1.1075549987482383,1.6833645085472573,0.9952800084361406,-0.20553534467683532,0.8625654681623973,4.014091833081536,0.678312094943284,0.33730354687742814,0.21862682801081956,1.4830871015108138,1.234554864898675,64484.83006544691,24437.88442436694
168,97601.0,10976.0,[4],1,0.6685110020287064,0.46168934524235317,2.828709928228202,1.284703955113149,0.5806527950738105,0.6568370598866817,0.07977024519215448,1.0514335835493642,1.5791322211760201,0.7736725468899007,0.5686318123687424,0.3192627306482497,0.7333656842860409,0.7299202673128327,64085.49092734708,30533.043227016504
168,202216.0,33900.0,[5],1,0.15950805331430162,0.07787884151600855,-0.0175240570281594,1.8200091144964197,0.4321506264142849,0.044682758896422925,0.29649035779563215,4.14167254965484,1.0892748218637274,0.45377726284270736,0.21786566717769285,1.9398840936968664,0.8159566225916811,2.2913075797365208,74293.41963049478,14735.568303199732
168,146965.0,16698.0,[6],1,0.5661707022079983,0.14153139658420288,0.1181573641002589,1.0890664641649108,0.08559924407172748,0.9938355181437821,-0.43091662813596976,3.3293169962099256,1.0771034961793626,0.46249567618138787,0.26095132619333716,1.2757708832239105,0.7065402241349786,1.6904138795427543,73286.72551968147,17061.76071853835
168,243461.0,35541.0,[7],1,0.2980654814446375,0.4339388132431763,0.8316549706441738,0.8796028072463273,0.6924257567495267,0.21489992186432483,0.23362591711192104,0.5194339622855129,1.679150090507329,0.43937952552564497,0.2541142142232169,0.24777727104547498,0.6219868556730096,0.7366663260193427,64109.944902880736,15986.557847046695
168,322332.0,54029.0,[8],1,1.8660428081232328,0.42769514647939033,2.060367539384971,2.0296735032015953,1.9444065432163637,0.824069894282953,0.062498407393664746,1.0756383671648995,5.2856771479344475,3.1576360112710193,0.8254477834965024,0.3622538489104309,2.4420833764503973,2.261418937089712,87198.37663030736,51183.77821624897
168,301219.0,51485.0,[9],1,0.23042217472006787,1.4451856940962688,1.5651268447275455,0.9787185805643102,2.2047207677735776,-0.2609422648505292,0.6211312468503065,0.6134436454441419,3.7107860687274816,0.5009688104668132,0.16416870573236153,0.18313656101043918,1.627670554062032,1.315570448298443,64032.793894142866,20212.829389911425
168,57460.0,13348.0,[10],1,1.7583318077445271,0.4669502028715482,3.5614049772537117,2.4232736518796005,1.0204774154542524,0.7611359695788478,1.1140002695092388,1.3810049903933477,2.5275449011834294,1.4783730296032083,1.0761619100417845,0.5354872086842994,1.5249658474765138,1.904566634719796,72477.7723633832,40417.04476157313
