time_in_hour,cumulative_size,size,pcore_ids,pcore_power,AF700 CD48_[R 730_B-A],APCCy7 Ly6G_[R 780_A-A],BV421 CD117_[V 440_F-A],BV510 SCA-1_[V 525_E-A],BV605 CD11b_[V 610_D-A],BV650 CD150_[V 660_C-A],BV711 CD11c_[V 715_B-A],BV785 B220_[V 780_A-A],FITC Ly6C_[B 525_B-A],PE CD115_[YG 582_D-A],PECF594 CD135_[YG 610_C-A],PECy5 CD3-CD19-NK11_[YG 670_B-A],PECy7 CD16-32_[YG 780_A-A],PerCPCy5-5 CD45_[B 695_A-A],_FSC-A,_SSC-A
-1,0,0,[],0,0.0,0.0,0.0,0.0,0.0,0.0,0.0,0.0,0.0,0.0,0.0,0.0,0.0,0.0,0.0,0.0
0,101044,101044,"[0,5,10,11,15]",5,0.3333344442718049,0.18279128209492113,NA,0.497382595354511,0.3354267442005341,0.24261335277701113,0.008513240984124426,NA,NA,0.387531967806107,0.1796201903428245,0.8725663091029634,0.6238142792644773,NA,69232.50987688517,14360.809785835832
0,16644,16644,[1],1,0.4550253445085344,0.9590373710646514,NA,0.8337659814347682,1.3727755153208245,NA,0.18968698720260546,0.7693493089401371,NA,0.7092404319875122,0.39364316943042876,0.24764688656573308,1.2240688210766622,0.9362523022710849,65168.88440278791,22709.456380677777
0,164120,164120,"[2,4,8,14]",4,0.37270597056421817,1.7668823908481457,NA,0.7669818659456471,NA,NA,0.12587934065318507,0.7462433882646855,NA,NA,0.18856782737019717,0.1794150878990951,2.048472815141349,NA,69448.56816963205,22616.916012673642
0,26311,26311,[3],1,1.8713787361179535,0.32273429405952037,1.668160867127805,0.9121813617118293,1.7056551733495726,NA,0.07403568887536771,0.7884076822621484,NA,NA,0.4542580143666233,0.20994702033370227,2.3806228231918265,NA,74570.70518034295,29600.487704762083
0,34225,34225,"[5,6]",2,0.37499591386413633,0.22314239146821402,NA,0.4958043503579188,0.3721486249817394,0.2637669057121974,0.04703137107377353,NA,NA,0.42457360558071777,0.22188937346969073,0.7105544807888906,0.6037614231994167,NA,68595.51415631859,16450.819926953933
0,20943,20943,[7],1,0.19732989395025236,0.0529107331805414,NA,0.8841919347753509,0.34921161710355664,NA,-0.05993377586783799,NA,NA,0.41017452709736046,0.19240982982379684,1.6372947973069762,0.7864838516449321,NA,71292.4673637968,13412.478441483965
0,12021,12021,[12],1,1.387119509691382,0.5272949628150614,2.553935875967064,1.8034375563596838,2.0803528891107192,NA,-0.5697488249729687,0.9687619659762006,NA,3.081692345395559,1.0954650107312234,0.40862470692953623,2.3753789096580995,NA,NA,NA
24,124507.0,100748.0,"[0,5,11,15]",4,0.30932000061642784,0.14869207786509575,NA,0.5378886301955097,0.2653932106849486,0.2547462282241202,-0.00893884088243313,NA,NA,0.34495702744223555,0.1593259184021769,0.8140752074180564,0.5391689481695833,NA,71869.96329523627,15287.738938372899
24,58586.0,45799.0,"[1,2]",2,0.44083797353889453,1.2395810443706976,NA,0.8600632790299776,NA,NA,0.0849583165858685,0.8236784971580287,NA,0.683214391676337,0.2744951191282947,0.22499562390332162,1.488082779264674,NA,67162.47485747468,24863.305226504544
24,30148.75,23571.0,[3],1,1.890631902433782,0.39369571318049257,1.9841397217380492,1.0505964540486876,1.6644662831295007,NA,0.08488964101329266,1.0189567693187542,5.705310460939554,NA,0.44985556877151023,0.2506935548903416,2.3682327249471484,1.8192818179692367,75738.00386417327,37624.4268833697
24,101856.0,78456.0,"[2,4,14]",3,0.5479193892848742,1.6116251098389283,2.11179599448733,0.8668828805691269,NA,NA,-0.17397680291047157,0.8716473319563867,NA,NA,0.2399916162670852,0.18476651844024905,1.9916534637159296,NA,71062.95585925248,27306.82123782591
24,55640.25,45582.0,"[5,6,10]",3,0.39754227986035184,0.25037881591564837,NA,0.654350173413131,0.40565862896015314,0.3100581202456838,0.05993198599934013,NA,NA,0.44015027791482075,0.24158240120236574,0.6425432428233142,0.6144467614901054,NA,69945.34783722204,18986.237049617863
24,31753.75,26518.0,[7],1,0.18207321857260372,0.06591882250914027,-0.0611587459670373,0.9514933627524353,0.26498710597172526,NA,-0.043786965224585916,3.7742852767783193,NA,0.37055827236940697,0.17728947376294757,1.638996944707293,0.6821183171830082,NA,74023.79926780323,14274.924001102241
24,75369.0,57739.0,[8],1,0.22965634059429818,1.672692570071899,2.0242643145490598,0.7844274202192398,2.672489437693246,NA,0.5685423109534216,0.7103532695372086,NA,0.6098298818247606,0.041423865654295344,0.19153763761294185,1.9515263501704743,1.633883904270983,68385.57709403004,23165.854608658792
24,17594.25,14589.0,[12],1,1.3609414065106502,0.5438010482970466,2.726289274521507,1.977426058868669,NA,NA,-0.5269927650368826,1.0805798938999933,NA,3.108110895036725,1.139058879491892,0.46013617002713614,2.2784256456086394,2.318981589482361,106269.30320985551,NA
48,97449.5,75581.0,"[0,5]",2,0.2827163126824743,0.13326563854675122,NA,0.4719117576815388,0.21877851635783463,NA,0.007367042589362605,NA,NA,0.2971779575966249,0.1346597876945168,0.8762656161242599,0.583753083799816,NA,69551.9412618847,15578.990307800403
48,75179.5,60533.0,"[1,2]",2,0.2917222723939188,1.2456699052850415,NA,0.6583256052289856,NA,NA,0.06116074595966259,NA,NA,NA,0.201140569720621,0.14450105481547892,1.3593845616890277,NA,NA,20875.744691039406
48,34308.1875,26771.0,[3],1,2.0062757592229365,0.33159275645755004,NA,NA,NA,NA,NA,NA,5.790210739807018,NA,0.3773712623772463,0.19510905658452637,NA,NA,NA,32322.092445134214
48,56222.5,36765.0,"[2,4]",2,0.4519541242374072,NA,NA,0.6846035064809564,NA,NA,NA,NA,NA,0.5283282219396191,0.18135011396015877,0.10368724920628036,2.1706367175085477,NA,NA,21178.72851616335
48,24870.8125,19380.0,[6],1,0.47540734386441974,0.3784473958882746,NA,0.8468835636476726,0.5463358596799042,NA,0.08828788160317202,NA,NA,0.5600743281507116,0.3790257013919316,0.25504647492668375,0.630716329015191,NA,NA,24725.950388633282
48,27038.4375,19100.0,[7],1,0.1550694953827345,0.06803569738682658,NA,NA,0.23000133047860638,NA,NA,NA,NA,0.3206555874507345,0.16139423492480853,1.714857314711693,0.7066014432809836,NA,72328.33657640184,14047.8442957364
48,56073.25,37231.0,[8],1,0.06468356912722606,NA,NA,0.6745589678077017,NA,NA,NA,NA,NA,NA,-0.022188022655627915,0.12902572291265968,2.193030880170154,NA,65794.75232842698,20706.399718225643
48,13869.75,11846.0,[10],1,0.6583590889345425,0.3165503680356645,NA,NA,NA,NA,NA,NA,NA,0.5276589071540624,0.3546821455460707,0.4505738606905314,0.5857281154806347,NA,61597.274932857275,19805.022873519683
48,68290.4375,54594.0,"[5,11]",2,0.2548256173924415,0.18279035263171606,NA,0.46909221230094644,0.30628155804483637,NA,0.060614249992903435,NA,NA,0.32666701174121116,0.150043884853031,0.5018342437127405,0.4842364121724607,NA,NA,15402.534681374604
48,16477.5625,12079.0,[12],1,NA,0.5609017970649597,2.597349127461212,2.0141010642237043,NA,NA,NA,NA,NA,NA,1.1704460285084695,0.4382970253867934,2.303255187216717,NA,NA,NA
48,23039.5,17033.0,[14],1,0.8130286930624477,NA,NA,0.919747666255228,NA,NA,NA,NA,NA,NA,0.18821733125718954,0.13906125007324133,2.324044958351412,NA,NA,34248.66511860059
72,179817.046875,138738.0,"[0,5,7,11,15]",5,0.2719225871076807,0.23853711156139568,NA,0.7194865688784899,0.36843340922363854,0.24935884483691373,-0.01379014761055064,NA,NA,0.3474038561621302,0.17412292367997972,0.7845231729851145,0.6565683452516183,NA,70189.49144334279,17524.33118974823
72,197401.328125,154903.0,"[1,2,6,8,10]",5,0.33211722524235077,1.358277046559408,1.5187737723579056,0.9585360697286704,NA,NA,0.2220503221675938,0.8257885129280216,NA,0.5647348847041881,0.2644132464649913,0.20877885756728753,1.5317541183315235,NA,68626.24034333599,24742.176328759142
72,27165.046875,18588.0,[3],1,1.857021624043538,0.43604384030893417,1.4030296512504976,1.5356994400364288,1.6888050075228707,NA,0.03946596163497729,0.9097551275599614,NA,NA,0.47099106618742814,0.23522954097838034,2.3608386165867916,NA,76776.03523369621,36722.97664680528
72,81693.5,61878.0,"[2,4,14]",3,0.5921898112326816,1.5526975984715552,NA,1.0611728550858084,NA,NA,-0.2375099359413939,0.9001972525443698,NA,0.7422773946632492,0.3729380716263302,0.18217679082045157,1.957883191857562,NA,73376.69088728001,29859.078335485723
72,15400.390625,11281.0,[12],1,1.3633746797798307,0.6745778283383794,2.3581530398041592,2.1444598305937848,1.9418267580875104,NA,-0.4470198058054575,1.1233334163165516,NA,2.683229078803806,1.1745622076976665,0.4328039458637921,2.26413704296563,2.2464002625694444,NA,NA
96,122813.109375,84452.0,"[0,5,11,15]",4,0.4114596352074944,0.22933459095595676,NA,0.7477529132834713,0.35095417574984156,0.2422397227873192,0.10000433446937285,NA,NA,0.4054945836375279,0.21739302349599976,0.943352892368849,0.6691147002387329,NA,70548.40444023245,15858.967822424207
96,74110.39453125,41772.0,"[1,2,6]",3,0.4426255183023735,1.311071070213632,NA,1.0570088169131822,NA,NA,0.27959539472769457,1.0016965518269454,NA,0.6379977890763208,0.336783416030225,0.25196261482018456,1.4762502174416787,NA,67125.7395600873,23133.951540725644
96,28397.26171875,21606.0,[3],1,2.0613117420264633,0.4009564501731191,NA,1.839132369447495,NA,NA,0.27668295176704305,1.1669467387186399,NA,NA,0.6191295864299229,0.29175660198585895,2.3955491247614282,2.141408332907028,75074.60325276223,34136.95289007121
96,83876.375,63453.0,"[2,4,14]",3,0.6552376716206891,NA,NA,1.2081850247967698,NA,NA,NA,1.1272423917900949,NA,NA,0.3461918256076517,0.18779409123513724,2.3319686085563953,NA,72187.96732989477,26472.108481082887
96,28900.15234375,22307.0,[7],1,0.38660434322442705,0.14783262836835442,NA,NA,0.4033165119529962,NA,0.15052653177299913,NA,NA,0.49929152023622836,0.24490669516825436,1.6882909854497767,0.8300057165281794,NA,73422.20401682015,14954.538642543213
96,70601.328125,54868.0,[8],1,0.2529036016899924,NA,1.985332514583765,1.1422003387893325,NA,NA,0.959434306834742,0.9507120830552043,NA,0.6046893122777216,0.09909634495157293,0.19848318391080522,2.3142806674834664,NA,69286.65105405886,21799.65601744869
96,11382.09765625,7532.0,[12],1,1.5097419233417944,0.6094561142721124,2.4465128773814464,2.2894413097380393,NA,1.516508353080163,NA,1.241325864621217,NA,2.8559086551708632,1.306736177562986,0.5218890963674085,2.411448999163984,2.5103569294389483,106538.96103976297,NA
120,73784.0234375,50145.0,"[0,5]",2,0.4100037591489787,0.21395212921321027,NA,0.8115626267014102,0.35406432790080045,NA,0.13516245673884253,NA,NA,0.41351514808048107,0.23883301751213137,1.093370559226642,0.6769070631842394,NA,69687.44580651638,15057.153479724022
120,58416.5986328125,39889.0,"[1,2,6]",3,0.4897097459159183,1.2206637807042315,NA,1.1515454600659787,NA,NA,0.35922522591569006,1.0706703813972256,NA,0.6482297417665447,0.39266303783922574,0.26510046249361296,1.413778694142787,NA,64819.810826388864,21860.229435203855
120,30796.3154296875,23697.0,[3],1,2.1318636113616076,0.38836226157162335,1.7013763110340725,2.098592374084951,NA,NA,0.32027468708487383,1.3433153673938971,NA,2.863004294589312,0.6746413769969863,0.30689045664471637,2.456330493292429,NA,72500.85141996025,33116.50417088037
120,116632.09375,95663.0,"[2,4,14]",3,0.6336968512300614,NA,2.2361327783742273,1.2890233625537513,NA,NA,NA,1.2188317345492088,NA,0.7104790258796797,0.3295387128523575,0.16803845896666836,2.506293375050361,NA,69503.9350655794,24014.432138238135
120,25200.0380859375,17975.0,[7],1,0.3085614478227636,0.09469035158471817,NA,NA,0.4311327347799101,NA,0.21304419234192018,3.898573480675843,NA,0.5029743555334308,0.2630483163352948,1.7828076610761356,0.8094822927210367,NA,72285.61568688726,13999.778494258378
120,105804.33203125,88154.0,[8],1,0.18561568832480901,NA,2.1917876180754976,1.2447909078518005,NA,-0.5533763356526414,1.1105274441419568,1.0497349316589708,NA,0.49251839756483007,0.08555964529701576,0.18718527020043474,2.4772806269234113,2.1621312691887096,66850.26947997202,19876.371170264276
120,47541.1005859375,37113.0,"[5,11]",2,0.34861862432741053,0.3096155063623329,NA,0.7530974993665867,0.40854774272436334,0.26128592096686054,0.14161331900722196,NA,NA,0.42446361612610184,0.28816065555606674,0.5795619883078968,0.5498573702533952,NA,69179.15085242754,15933.030531250619
120,11773.5244140625,8928.0,[12],1,1.6841787915366175,0.5926537107382064,2.613786507390349,2.3672765151047774,2.1767045054010503,NA,NA,1.268445186281669,NA,NA,1.3126369628567045,0.5094018638958253,2.514254172525525,NA,NA,NA
144,73330.005859375,54884.0,"[0,5]",2,0.4855624189899821,0.15935259200034357,NA,1.1531569420647059,0.33451053626118954,NA,0.2315983244640769,NA,NA,0.4411950004678262,0.23361129278091797,1.3114921762503486,0.7604627239453422,NA,70058.98768812168,14758.822403314114
144,30963.149658203125,16359.0,"[1,2,6]",3,0.619717526616457,1.0767329181551824,NA,1.4612942536044873,NA,NA,0.5058089067539426,NA,NA,0.7901538210656541,0.4489780026356436,0.3296974010527064,1.4324371579262016,NA,63914.05835551676,22105.057069122922
144,32005.078857421875,24306.0,[3],1,2.095238118795968,0.3240883499551641,1.7740054081333274,2.381972260036655,NA,NA,0.5852490962558177,1.2566849213878912,NA,NA,0.7123970286576129,0.3728313167249243,2.348635450473742,2.35425036528363,73297.77298044383,35690.31097165571
144,98976.7900390625,72550.0,"[4,14]",2,0.6228329609879477,NA,2.167869980386143,1.4703547641108625,NA,NA,NA,1.2645973756684623,NA,NA,0.24454760805682607,0.20708705126766447,2.5237192535572177,2.18387186340002,68390.67302736221,22135.67420873681
144,30268.009521484375,23968.0,[7],1,0.22779969265412792,0.009071094462993923,NA,2.3451596855642145,0.38588195334898723,NA,NA,NA,NA,0.520357992742921,0.24307285106742604,2.076881318381179,0.840901106118311,NA,72232.35692264096,13643.120388190078
144,100205.0830078125,73754.0,[8],1,0.22968972581597602,NA,2.1470382336936056,1.4720858665967573,NA,-0.5319915400773763,1.2271061669782224,NA,3.8026892801320353,NA,0.035851859566734756,0.2275752154222881,2.4578934704459825,2.180974623782868,66265.50945116865,19202.729102761514
144,10934.8505859375,9475.0,[10],1,1.2390721322583766,0.2436384545303092,0.865802806460283,2.85637901832037,NA,NA,NA,NA,NA,0.7905670810179289,0.48174703722864143,0.9751327618185734,0.7414789603523367,NA,70931.43860151106,20690.59543441181
144,40151.275146484375,28266.0,"[5,11]",2,0.4152606627931663,0.292509059547585,NA,1.071395702307277,0.3958798761873359,0.3000368493315031,0.22303599218546122,NA,NA,0.47007614847776635,0.3033045365868423,0.6900581108918764,0.6169099547253735,NA,68945.0978625679,16019.209388361494
144,13899.381103515625,10956.0,[12],1,1.7160466341136205,0.4956028793521461,2.355224869558882,2.624922237661903,NA,NA,NA,1.410121118212178,NA,NA,1.2225461363852195,0.5624228312085984,2.4571043359771436,NA,99530.93489335,NA
168,55705.50146484375,37373.0,"[0,5]",2,0.35674716544735907,0.16470127053902672,NA,NA,0.3729884928892848,NA,0.287168639413264,NA,NA,0.44370768583704356,0.2334530516221558,1.1578266346627402,0.7694456760206679,NA,70634.7575544443,15841.079069812009
168,122669.78741455078,114929.0,"[1,2,6]",3,0.435290589215406,0.8982146580749797,NA,1.6558483442122882,NA,NA,0.36063419326772994,NA,NA,0.8477503679551378,0.3667175929407125,0.2515095974725641,1.406035884902423,NA,64382.9840174193,26028.457624765397
168,33366.26971435547,25365.0,[3],1,1.8717613000776543,0.3224591687767462,2.001251306809133,2.6645390378899694,NA,NA,NA,NA,NA,3.0308054308146475,0.7085711358025368,0.37789775836552353,2.3756370372991737,NA,NA,40282.447387133696
168,81382.755859375,55411.0,"[2,4,14]",3,0.6559549020200628,NA,2.1658626001388233,1.604352316970811,NA,NA,NA,NA,NA,NA,0.29763695357445696,0.20675162824188642,2.3537235879856926,NA,70108.63450936937,25062.173359005144
168,28862.002380371094,21295.0,[7],1,0.13806684959154558,0.03353220243140953,NA,2.4141279443383925,0.3694096765713497,NA,NA,NA,1.0765722979226484,0.552694293365437,0.24556780455574678,1.902433404179925,0.8349862548360051,NA,73348.11676868206,14619.702087617143
168,76357.27075195312,51306.0,[8],1,0.2337156797330906,NA,2.148402629776475,1.5887656365210492,3.227072887848228,NA,1.230699050881944,NA,NA,0.6676904554883042,0.054084281906565224,0.2297402126506609,2.328060145458436,NA,68044.29628784888,21465.085247140913
168,10895.712646484375,8162.0,[10],1,1.140759495972169,0.26044968029099724,NA,2.94465362721246,NA,NA,NA,NA,NA,NA,0.5189224984657383,1.12012958169585,0.7239701932266486,NA,81450.01832666968,24360.792085314988
168,44563.818786621094,34526.0,"[5,11]",2,0.33698215972546497,0.32221158238113645,NA,1.3056121937196452,0.5725813303526577,NA,0.2424791025695625,NA,NA,0.46960609526164165,0.2930098212170962,0.5625176401376208,0.6936338271682402,NA,67061.11172562985,17899.17916964474
168,18602.845275878906,15128.0,[12],1,1.6695625982552997,0.4594550350376565,2.3470192232492635,2.7903603200094946,NA,NA,NA,1.3296220998574015,4.867370601734684,3.03315515359372,1.1544894695441816,0.5152836206997191,2.3286801236465777,NA,NA,NA
168,11782.784484863281,9648.0,[15],1,0.2708017048175393,0.1462403206647127,NA,2.741165535744726,0.6104688924890458,NA,NA,NA,NA,0.5334931168690716,0.33793747318886735,NA,0.9382382171101905,NA,68786.48464330625,17352.82953829877
