time_in_hour,cumulative_size,size,pcore_ids,pcore_power,AF700 CD48_[R 730_B-A],APCCy7 Ly6G_[R 780_A-A],BV421 CD117_[V 440_F-A],BV510 SCA-1_[V 525_E-A],BV605 CD11b_[V 610_D-A],BV650 CD150_[V 660_C-A],BV711 CD11c_[V 715_B-A],BV785 B220_[V 780_A-A],FITC Ly6C_[B 525_B-A],PE CD115_[YG 582_D-A],PECF594 CD135_[YG 610_C-A],PECy5 CD3-CD19-NK11_[YG 670_B-A],PECy7 CD16-32_[YG 780_A-A],PerCPCy5-5 CD45_[B 695_A-A],_FSC-A,_SSC-A
-1,0,0,[],0,0.0,0.0,0.0,0.0,0.0,0.0,0.0,0.0,0.0,0.0,0.0,0.0,0.0,0.0,0.0,0.0
0,130552,130552,"[2,3,11,16]",4,0.16853395026176757,0.23395201016206385,0.3202086721444017,0.2857788877298039,0.2609063883035291,0.22417782490175234,0.251741283261776,0.4906625440919267,0.16730937822871186,0.10572659702593912,0.24798457901700546,0.21649496222157685,0.1452653867880933,0.27392980886204593,0.19995846728432898,0.049403878628777216
0,155556,155556,"[5,6,7,8,10,13,14,15]",8,0.1710616049308255,0.39981748828885716,0.48998448506060455,0.3050994333964211,0.4953544191590523,0.2262664476670023,0.27130778798019706,0.3189810681369695,0.5574069774640928,0.13584255893374855,0.24716505620628518,0.09916687129173248,0.3199842502839821,0.36589328475193283,0.18986211942440132,0.07457385678661975
0,27562,27562,[9],1,0.3491937974826744,0.24763471586313315,0.4608774590027005,0.32309019219295615,0.4037030804833912,0.253138595466249,0.255490475135667,0.3252195847615047,0.7889498763443529,0.4442738607188582,0.27784830444888137,0.10344159065966654,0.37418177790627627,0.4136682192120219,0.2196449521965929,0.1068083694368194
24,153013.5,144854.0,"[2,3,11,16]",4,0.16665464116829143,0.23299430533200835,0.32990523778509867,0.29509385036822583,0.25580982450668466,0.22993171207867807,0.25114437747963514,0.4824196945408542,0.1686058337596712,0.1019236025189646,0.2468409700413202,0.20994610981301676,0.13538496599274286,0.270671868275594,0.21238584726296664,0.055002167406560075
24,149429.0,140565.0,"[5,6,7,8,10,13,15]",7,0.1761132855850803,0.3791402775073955,0.5031147650372886,0.31424083064992897,0.4878843370033612,0.22775149026466898,0.27351114675337507,0.32574114409748034,0.5728051899955011,0.13893276277203312,0.2435020840336334,0.09955719484972658,0.30309558999770275,0.3516295281420885,0.1898302631976548,0.08842311878769155
24,25333.625,23611.0,[9],1,0.3521494265225996,0.2584026880149713,0.5089922866556609,0.3405366360565717,0.4099905848964575,0.27027779544756053,0.26051876594417384,0.35295331450083617,0.811617206132732,0.43659789025685203,0.2750639323679485,0.1092688513787323,0.37934963735276633,0.4157151041341387,0.22355226201653633,0.14273872828594536
48,153720.7578125,143668.0,"[0,4,5,6,7,10,13,15]",8,0.16867506875040086,0.38409153029119075,0.49441199951714376,0.2991413520239989,0.494755473939074,0.23901085069787265,0.26568396504415165,0.31375612758187416,0.5630764925958024,0.11374996644830251,0.24273311750213114,0.08881329409518626,0.31178525727488926,0.31164631708051754,0.17796404280548536,0.07972216396035155
48,110947.57421875,103761.0,"[2,3,11]",3,0.16420088377990982,0.231461770448369,0.30444964128716395,0.289794342832892,0.25053622429997524,0.22916855527975866,0.2502755373122666,0.5350653062918971,0.1582011385940675,0.0960404377269202,0.2439323470693598,0.22296253889363343,0.14249281540654765,0.2729823523798747,0.20145244013151364,0.05558043853850972
48,25684.3515625,24101.0,[9],1,0.36745602979763914,0.25057384196808397,0.4661181456502191,0.32349653374135134,0.4326667187398452,0.2580951656804522,0.2624941679009003,0.3265980249503988,0.8123526619647916,0.44692535436779907,0.2679595800269256,0.10005419870844522,0.4053192034903238,0.4247970184300411,0.20943833613975343,0.11807159940954051
48,112186.21875,105866.0,"[11,16]",2,0.16600344639393896,0.2373517009552163,0.34257477089887295,0.2814247454487618,0.2561292334917695,0.23220151071405895,0.2547427825467416,0.4300367037683852,0.173233477162632,0.0995831903672688,0.24670565945262163,0.1585813247209159,0.13135538357812573,0.18705501105898484,0.18983560420414444,0.0589152228937703
72,181967.46655273438,171811.0,"[0,4,5,6,7,8,10,13,15]",9,0.1792576834457566,0.3693356875848675,0.46074812733541237,0.3363321980377282,0.464272978036025,0.23878137161694918,0.26369848172338733,0.3286882557909537,0.5148369576572209,0.1343856480231568,0.26156263196410695,0.10005121144680112,0.28685075653277026,0.33200732021402884,0.20290177783361643,0.09802932178209761
72,156826.271484375,147359.0,"[2,3,11,16]",4,0.16491632179947674,0.24585794590051602,0.3232843263234567,0.3070861011978125,0.2696064939310265,0.22746488868342088,0.25035812475555874,0.4801035655069807,0.18070283066889734,0.10274220548497583,0.24859841227855914,0.18159893233266988,0.15007579978978153,0.2591579909657137,0.20055828869667172,0.06548116631055066
72,21391.27197265625,19786.0,[9],1,0.3454129535336402,0.2639393702072597,0.41105000001559533,0.4149149741549753,0.406464644740855,0.2573650868560155,0.25400342775513735,0.33625045587149116,0.763543100500079,0.40933804189568856,0.28037058596822945,0.10753910135865856,0.36875083469003883,0.4353176635425787,0.23368966136353098,0.13475368863730958
96,101176.70146179199,93747.0,"[2,3,11]",3,0.18512959292734654,0.23585547119951958,0.31150091272465175,0.3267518897511499,0.26174845619650905,0.22343070801286272,0.26680082170197805,0.5563933897185788,0.15848638324779304,0.11334366396283077,0.2530873427345089,0.266892982285926,0.15766278634931086,0.32651365666755283,0.20870407145040898,0.05290582259647393
96,92620.94917297363,85845.0,"[5,7,10,13]",4,0.16950374151009337,0.43226195764326225,0.5005382333907039,0.35279978095015196,0.5399749532078617,0.1564275554505085,0.34438209115041934,0.3452280237238827,0.5456998836252274,0.1368643692832034,0.24593388413960673,0.10041397481663943,0.35489038235485365,0.42641518390857563,0.19286437781951932,0.07809574888862922
96,40573.83834838867,37872.0,"[6,15]",2,0.20828357779258083,0.4583504738878202,0.4908257672217676,0.3473958938386625,0.5376805569929917,0.39611610554912885,0.22403911894520115,0.3610814128236983,0.5421707632170509,0.15117605556027322,0.26206837718923154,0.09558019096108547,0.3681143356037557,0.44286961550130655,0.19923417185874262,0.08274576814420889
96,22277.954498291016,20941.0,[9],1,0.3751462104433528,0.2562892000470794,0.4449002795868133,0.4316887519457617,0.4042137355294619,0.25914166127503085,0.2779164881743706,0.3675864148591307,0.7851498403959336,0.40537856687390056,0.29530381028426156,0.11352108791762851,0.38058478164762194,0.4763289009056911,0.21782377270020525,0.1207818909618777
96,101877.16194152832,91287.0,"[7,16,11]",3,0.1834976008386855,0.26091472649156994,0.35988871177424975,0.313403646936565,0.2897125158571301,0.2263559567547417,0.27094416575159774,0.4554217840464478,0.22594383752468886,0.11571514918352092,0.2565521506486553,0.18847140586947023,0.16496568456577532,0.23959041989626717,0.19749579031935083,0.05972158050811803
120,81484.543841362,75161.0,"[2,3,11]",3,0.17479358143243362,0.23548183620371704,0.3172532593760588,0.3353632267849018,0.26453944098485715,0.22345192392125263,0.267929623557017,0.5565503116319575,0.15709045984330824,0.11256663374744674,0.25518279042601955,0.2674720074096848,0.15222477548761879,0.3466546929764141,0.20510575588532198,0.05097045366732006
120,114236.25091552734,109562.0,"[5,10,13]",3,0.15896765351221476,0.47169210639159626,0.5353177337881612,0.3624018917181378,0.5910280330098486,0.1472702453347816,0.35831693100709044,0.3517696004503148,0.5667053722153816,0.11976650490001582,0.2415533565995957,0.09801749353558309,0.39796151384699985,0.48866939575696444,0.18770453574608237,0.07331022268926884
120,59564.86489677429,57029.0,"[6,15]",2,0.20921443162489864,0.47180267122622216,0.5135856039110887,0.3554187841137542,0.5590867458378848,0.4102560528130617,0.2143423526197004,0.369526014761856,0.5536430867540586,0.1405106139737557,0.2635475421036624,0.09313843290695488,0.3833880917267373,0.4708727182654434,0.19087661503593414,0.07916969924286087
120,52750.61718940735,50264.0,"[7,16]",2,0.17663477956039136,0.2915000753469813,0.43501286026942976,0.3286352865998173,0.3307940230006123,0.2204393278240674,0.2811674817071909,0.3456477852272274,0.32492288138893594,0.12267101845298618,0.26752636672128394,0.11794499354624176,0.1754414396658588,0.21613055563231248,0.18052736035337327,0.06571179149189164
120,23789.37215614319,22397.0,[9],1,0.3807445238502733,0.2579369457240699,0.4639129295697303,0.46159598006511404,0.4160824241940259,0.25222807116380525,0.27900940928680523,0.3828589441727881,0.786165221809397,0.4297836753176443,0.29941873639994737,0.11685901905762137,0.39039457799897925,0.49833378033727693,0.20824072468565163,0.12129986173315127
144,92374.78399008512,87282.0,"[2,3,11]",3,0.18032736964820525,0.2269537299012162,0.3050091885490759,0.41087080437480555,0.26193011396504495,0.22773449715727234,0.276522360526584,0.5953798206262689,0.18215976794154798,0.117134497373916,0.2536092864570502,0.3152438528404194,0.16677371469107832,0.3965632246461626,0.20660775723220562,0.051168776705218535
144,100309.76568222046,93170.0,"[5,10,13]",3,0.1609970976563217,0.4718753393991758,0.5271479971834854,0.3841179350971769,0.5855773558601411,0.161187092095211,0.3645789034009515,0.3476929223914195,0.5418473062259905,0.13059109050730242,0.2330617016112926,0.10625385436727153,0.3915820303329054,0.48107124732910206,0.1862370361864553,0.069806639156181
144,45661.80405604839,41939.0,"[6,15]",2,0.21061916479625217,0.4704299241655662,0.5110808795157054,0.373916493708639,0.5629230785042607,0.41549938529649394,0.2187924401249287,0.37084470910312556,0.5361161065518144,0.14488144729250663,0.253769781422999,0.10114122523815934,0.38314976662366135,0.4707878166104121,0.19170625271591296,0.07551816978399774
144,37209.44502335787,35063.0,"[9,12]",2,0.35448054766884907,0.25908994334010466,0.49988467835434386,0.5022689021107765,0.46201606668041273,0.30119686074110025,0.29380358863536654,0.3678149326733492,0.7439881882704914,0.44906525952644266,0.32052919215635783,0.14046384039278312,0.3780625860165157,0.560185901690046,0.25777405440369966,0.1761553204179847
144,73789.86026334763,68567.0,"[11,16]",2,0.18702957607546186,0.23977363874567392,0.3512538994714121,0.3410022498468247,0.2617675281331314,0.2336854793647206,0.2708675966432381,0.4879058353265026,0.17050150605159392,0.11194189355680748,0.2567361909800731,0.2219939479607956,0.15443459898765372,0.26184610474355685,0.19824969755148894,0.053441815865392504
168,72711.42399938032,66938.0,"[2,3,11]",3,0.1598327269617314,0.2285177058100236,0.3023260304393307,0.4287768350090212,0.2636065815143953,0.23703054038917665,0.28056733823565333,0.5917748577276134,0.1958160558381678,0.11807466725772146,0.25329892417370237,0.2826516505060428,0.16469212769594446,0.3814901799960979,0.2119202629383952,0.05631413140729336
168,76725.36035513878,70456.0,"[5,10,13]",3,0.16803411224041478,0.4321719529958811,0.5239997369906345,0.40354400306573984,0.564708377108607,0.15362104628726544,0.3590033411483833,0.3378228533126998,0.526431141940708,0.14918770608491042,0.24034859066677602,0.10757860776663525,0.3620452635344352,0.434381368364384,0.19812391555268258,0.08517677935917026
168,51878.862753503025,49025.0,"[6,15]",2,0.20627329802496222,0.38242355641488013,0.48317169942903776,0.40333788201493487,0.4830050704217566,0.3870241737430078,0.22829374894440724,0.3545657562959529,0.5409753679530009,0.166713427816891,0.2655813764901344,0.10470555996580173,0.31091636346897567,0.37802380601729363,0.19386741887391912,0.0993080355407888
168,88135.99459839612,86145.0,"[7,16]",2,0.16652732769392717,0.2895960060008047,0.4220353988777688,0.3786074348798904,0.36685909878864326,0.21280151941023695,0.2881548393786751,0.328938111595718,0.4059178321318073,0.13360123043701955,0.2589695240437795,0.11326533263802367,0.19998608473170681,0.239875785398723,0.17049211811465367,0.0792758230277118
168,34268.59031395987,31943.0,"[9,12]",2,0.32690285779271333,0.26025687161298316,0.5322750220907712,0.5343582320037887,0.48654003766090664,0.3127432358220397,0.3095468476168136,0.35738561432476146,0.7095600572267006,0.4344865446081451,0.32756833127979285,0.14413491692749028,0.37543884502669894,0.5526994241127857,0.2922936314064305,0.2110486834824899
