time_in_hour,cumulative_size,size,pcore_ids,pcore_power,AF700 CD48_[R 730_B-A],APCCy7 Ly6G_[R 780_A-A],BV421 CD117_[V 440_F-A],BV510 SCA-1_[V 525_E-A],BV605 CD11b_[V 610_D-A],BV650 CD150_[V 660_C-A],BV711 CD11c_[V 715_B-A],BV785 B220_[V 780_A-A],FITC Ly6C_[B 525_B-A],PE CD115_[YG 582_D-A],PECF594 CD135_[YG 610_C-A],PECy5 CD3-CD19-NK11_[YG 670_B-A],PECy7 CD16-32_[YG 780_A-A],PerCPCy5-5 CD45_[B 695_A-A],_FSC-A,_SSC-A
-1,0,0,[],0,0.0,0.0,0.0,0.0,0.0,0.0,0.0,0.0,0.0,0.0,0.0,0.0,0.0,0.0,0.0,0.0
0,133400,133400,"[2,12,14,15]",4,0.2817407957496241,0.13663765851574894,NA,0.5473894071139509,0.2937097483883022,NA,0.01743864402549633,NA,NA,0.3572772002698601,0.17231718587705736,NA,0.6054541294077974,NA,69769.64365817058,13498.145007496238
0,129819,129819,"[3,4,5,8,9,11]",6,0.22041500952865478,NA,NA,0.6545556968702715,NA,NA,NA,NA,NA,NA,0.11965423578212775,0.11765000117856161,2.0537390063241956,NA,NA,18259.639405633938
0,25627,25627,[10],1,1.9634679274202702,0.2709844609201255,NA,NA,NA,NA,NA,NA,NA,NA,0.4005170939633973,0.16894026561829723,2.4223223782729173,NA,71897.9776017482,24827.519725289723
24,224856.5,145497.0,"[0,3,4,5,8,9,11,13]",8,0.31558959354744154,NA,NA,0.7258848129518158,NA,NA,NA,NA,NA,NA,0.10873735988285826,0.12073172049506986,1.9764444089119069,NA,NA,21215.76141227839
24,78643.0,56142.0,"[1,7,15]",3,NA,0.2580797010668423,NA,NA,0.43157276602494266,NA,0.08079410054932357,NA,NA,NA,0.3431770123850959,0.2640537262947735,NA,NA,NA,23059.126025202415
24,163589.0,110376.0,"[2,12,14]",3,0.25834766830289646,0.102789630433616,NA,0.6117896871427648,0.21538080468736576,NA,-0.02476115327131101,NA,NA,0.31546337853094797,0.14920374729046237,NA,0.5792328391548393,NA,72652.77934335452,14406.06652036505
24,31064.5,18251.0,[10],1,1.9628721880925164,0.34326205353377803,NA,NA,NA,NA,NA,0.9778767559754287,NA,NA,0.3663879180575904,0.19288733932624347,2.472126312736434,NA,NA,29403.562780665776
24,28642.0,20127.0,[16],1,1.285324461106076,0.5886006731024458,2.8634377703372667,2.260816087336749,NA,NA,NA,NA,NA,3.277032886373172,1.4084717551148564,0.5172001868410072,2.360668400216467,2.4570423753578723,NA,NA
48,251342.25,138914.0,"[0,3,4,5,8,9,11,13]",8,NA,NA,NA,NA,NA,NA,NA,NA,NA,NA,NA,0.10139225546739583,NA,NA,NA,21011.64282566888
48,102242.5,62921.0,"[1,7,15]",3,NA,0.2654423753380546,NA,NA,NA,NA,NA,NA,NA,NA,0.3302907293982371,0.23959034519403133,NA,NA,NA,NA
48,199800.75,111393.0,"[2,6,12,14]",4,NA,0.11720820200876814,NA,NA,0.21294088785954024,NA,NA,NA,NA,0.3203082883134857,0.15609767337083014,NA,0.5905953890012984,NA,NA,15304.383151714917
48,37888.25,22356.0,[10],1,NA,0.32987673619129065,NA,NA,NA,NA,NA,NA,NA,NA,NA,0.18463933713618275,NA,NA,NA,29063.92815714597
48,26023.0,11702.0,[16],1,NA,0.5948229215501839,NA,2.2099631802539723,NA,NA,NA,NA,NA,NA,1.345404671175506,0.49247187160397643,NA,NA,NA,NA
72,290248.125,164577.0,"[0,3,4,5,8,9,11,13]",8,0.3233067349440155,NA,NA,0.8536083812595745,NA,NA,NA,NA,NA,0.5028467664765278,0.20975893048103655,0.1267096807597794,NA,NA,NA,23132.047450780196
72,96191.25,45070.0,"[1,7,15]",3,NA,0.3277188813873213,NA,NA,0.4775963687146749,NA,0.04669641735995311,NA,NA,NA,0.33745231947032295,0.24837347464817028,NA,NA,NA,24528.187584629457
72,205014.75,114146.0,"[2,12,14]",3,0.24118615798374998,0.14930305647887954,NA,0.6681538585175093,0.24426384023344871,NA,-0.03252149847817121,NA,NA,0.3020395830647459,0.14243325484325542,NA,0.6279180421487988,NA,71485.74525491506,15918.869720349197
72,33633.125,14689.0,[10],1,1.9732412800847443,0.3748601427907925,NA,NA,NA,NA,NA,NA,NA,NA,0.38521325824241837,0.19580046604724122,2.5007021821046735,NA,NA,30418.41065913415
72,28808.5,15797.0,[16],1,1.3062891336497942,0.6900227760469884,NA,2.3184034823012287,NA,NA,NA,1.1315909782789273,NA,2.938426647061613,1.4071905761147225,0.49709452159519096,2.354130601966434,NA,NA,NA
96,276687.0625,131563.0,"[0,3,4,5,8,9,11,13]",8,0.3515892379560983,NA,NA,0.9681901880628687,NA,NA,NA,NA,NA,0.5450123793195524,0.1919176245873948,0.135678415306957,NA,NA,NA,21818.678898295064
96,82103.625,34008.0,"[1,7,15]",3,NA,0.3332312767874033,NA,NA,0.4827701525001107,NA,0.09257898849397295,NA,NA,NA,0.410154950145313,0.265218878845184,NA,NA,NA,24740.238302510887
96,193838.375,91331.0,"[2,12,14]",3,0.3367126842930368,0.15046202067122127,NA,NA,0.2632004245586006,NA,0.054977998752511414,NA,NA,0.3602581432446642,0.17994141008296882,NA,0.6649701483300919,NA,72034.92216647,15163.765647539934
96,18212.3125,10836.0,[6],1,NA,0.26259498425856265,NA,NA,NA,NA,NA,NA,NA,0.6357101798302677,0.46621476410532514,NA,0.6297637038370302,NA,NA,20380.909014162935
96,34533.5625,17717.0,[10],1,2.112031951094705,0.38727485286236085,NA,NA,NA,NA,NA,NA,NA,NA,0.47121722984885617,0.2311090343723624,2.523770573807729,NA,NA,29242.919609003082
96,25087.25,10683.0,[16],1,1.4351076190246006,0.6987416303849394,NA,2.423783707418598,NA,NA,NA,NA,NA,3.039885848386625,1.5319140962441358,0.5692355069083923,2.489352553204335,NA,NA,NA
120,330798.53125,192455.0,"[0,3,4,5,8,9,11,13]",8,NA,NA,NA,1.080388458197604,NA,NA,NA,NA,NA,0.49582969562846346,0.179701852417252,0.13246318331701656,NA,NA,NA,20358.625234978317
120,86103.8125,45052.0,"[1,7,15]",3,NA,0.34934234864237323,NA,NA,0.48833398878861667,NA,0.12266708596782339,NA,NA,NA,0.462834714285302,0.27700952382117117,NA,NA,NA,23850.004644103075
120,173641.1875,76722.0,"[2,12,14]",3,0.3314934413739006,0.1562659167316558,NA,NA,0.2894496124249031,NA,NA,NA,NA,0.3836455128454591,0.20568340259043438,NA,0.6613766337028079,NA,71971.5985586655,14696.174120555203
120,20020.15625,10914.0,[6],1,NA,0.25915124219496155,NA,NA,NA,NA,NA,NA,NA,0.6413367109584788,0.5413589575755688,NA,0.6494542385861112,NA,65379.285938390145,19692.492759640787
120,39464.78125,22198.0,[10],1,2.174117834659569,0.4164820150625066,NA,1.941848465407889,NA,NA,NA,NA,NA,NA,0.5334236344723386,0.26350182704753644,2.5517377980430225,NA,NA,28128.33896044931
120,25202.625,12659.0,[16],1,1.6118348049335098,0.7851947092589335,2.7478369568051098,2.5183076896144168,NA,NA,NA,NA,NA,3.0589422846615797,1.6045095221430454,0.6238280355456556,2.573335704323967,NA,NA,NA
144,308851.265625,143452.0,"[0,3,4,5,8,9,11,13]",8,NA,NA,NA,NA,NA,NA,NA,NA,NA,NA,0.12728135279521258,0.15409416933641085,NA,NA,66052.51262842366,19379.330186288655
144,62161.390625,27063.0,"[1,15]",2,NA,0.3427128224611571,NA,NA,0.4658897829739579,NA,0.25382533667327056,NA,NA,0.5962155697570507,0.44431436645611777,0.3431345121429116,NA,NA,NA,20344.85971572471
144,174257.59375,87437.0,"[2,12,14]",3,0.3618729142948063,0.11383290606542396,NA,NA,0.2954958040698612,NA,NA,NA,NA,0.4177452549884403,0.2129490250431183,NA,0.7214761230424346,NA,71891.52809014947,14406.121495063919
144,29538.078125,19528.0,[6],1,NA,0.18931841787056713,NA,NA,NA,NA,NA,NA,NA,0.6364079791709515,0.5437418564617542,NA,0.6431088608903687,NA,65441.17406081251,19015.957796001738
144,59307.90625,31622.0,"[7,10]",2,2.201464776079866,0.35431560370086546,NA,NA,NA,NA,NA,NA,NA,NA,0.6020329433581191,0.3069392327498517,NA,NA,NA,31780.34638509943
144,25844.3125,13243.0,[16],1,1.6061632628975417,0.7188066239610222,2.6661788456841458,2.7255990665251635,NA,NA,NA,NA,NA,3.039616898669076,1.5699185804516604,0.6768169424190353,2.5539727403696166,NA,NA,NA
168,330327.6328125,175902.0,"[0,3,4,5,8,9,11,13]",8,NA,NA,NA,NA,NA,NA,NA,NA,NA,NA,0.15370763854458191,0.15724954932237245,NA,NA,NA,21057.982719382115
168,68751.6953125,37671.0,"[1,15]",2,NA,0.3571112577079667,NA,NA,0.5965592402543107,NA,NA,NA,NA,0.6087916428379022,0.44393070269846646,0.3390948355549561,NA,NA,NA,21504.21401654058
168,157844.796875,70716.0,"[2,12,14]",3,0.2841073453733811,0.10599607228431296,NA,NA,0.3116933477520907,NA,NA,NA,NA,0.44029898838807247,0.2152158126416457,NA,0.7434463498132075,NA,72575.57853536295,14971.15941915644
168,36292.0390625,21523.0,[6],1,NA,0.18229224666565624,NA,NA,NA,NA,NA,NA,NA,0.6429615504071674,0.5867796720742615,NA,0.663478152039401,NA,NA,20400.09089114544
168,67527.953125,37874.0,"[7,10]",2,2.0260818292381773,0.33774020551731576,NA,NA,NA,NA,NA,NA,NA,NA,0.6404757414901612,0.31853993264640834,NA,NA,NA,NA
168,29236.15625,16314.0,[16],1,NA,0.6712595730965445,2.6580073178523462,2.889977691253202,NA,NA,NA,NA,NA,NA,1.5629842940237468,0.6592880883781027,NA,NA,NA,NA
