time_in_hour,cumulative_size,size,pcore_ids,pcore_power,AF700 CD48_[R 730_B-A],APCCy7 Ly6G_[R 780_A-A],BV421 CD117_[V 440_F-A],BV510 SCA-1_[V 525_E-A],BV605 CD11b_[V 610_D-A],BV650 CD150_[V 660_C-A],BV711 CD11c_[V 715_B-A],BV785 B220_[V 780_A-A],FITC Ly6C_[B 525_B-A],PE CD115_[YG 582_D-A],PECF594 CD135_[YG 610_C-A],PECy5 CD3-CD19-NK11_[YG 670_B-A],PECy7 CD16-32_[YG 780_A-A],PerCPCy5-5 CD45_[B 695_A-A],_FSC-A,_SSC-A
-1,0,0,[],0,0.0,0.0,0.0,0.0,0.0,0.0,0.0,0.0,0.0,0.0,0.0,0.0,0.0,0.0,0.0,0.0
0,136662,136662,"[1,2,4]",3,0.3385523020005521,0.3692230536067176,NA,0.5284781001595018,0.5708072718092971,NA,0.1152530475114002,NA,NA,0.41459450381963847,0.20871457541232097,0.6427316134697212,0.7246162154293153,NA,67310.60514261434,15221.244822994015
0,147854,147854,"[4,6,7,11,12,13,14]",7,0.2958089684080245,NA,NA,0.7168655470734673,NA,NA,NA,NA,NA,NA,0.14140457851664223,0.1317799137257022,2.0656627420563543,NA,67463.80056001186,19990.399610426466
0,24216,24216,[8],1,1.9678948927568374,0.291297146845062,NA,0.8769127730013175,NA,NA,NA,0.8137476860340032,NA,NA,0.4239063596382522,0.1884075730921746,2.479655617608199,NA,NA,26955.308886686358
0,107537,107537,"[2,9]",2,0.2664512499976679,0.1126815945581674,NA,0.5405954987027535,0.2479397967490482,NA,-0.021686639110227723,NA,NA,0.32433226951653216,0.15437234558336366,NA,0.6197592408473441,NA,70128.00490993774,13458.466127937443
24,260031.0,170590.0,"[0,3,4,5,6,7,11,12,13,14]",10,0.45558681826013236,NA,NA,0.8070154903607611,NA,NA,NA,NA,NA,NA,0.16402500762986216,0.177789746032204,NA,NA,NA,23166.970215089663
24,174159.0,117797.0,"[1,2]",2,0.34602085727123955,0.16421058387739196,NA,0.5430952361347834,0.26527315672749996,NA,0.03470145033850036,NA,NA,0.3640161924591826,0.19205215569107237,0.6923120311985169,0.5241668336807276,NA,70555.35229301949,16060.999523424038
24,29658.0,17550.0,[8],1,1.9516730201126131,0.36161588812462364,NA,0.9807943079270243,2.016661772995515,NA,0.1615798703385254,1.0012995127283908,NA,NA,0.39617934535368926,0.21566268103041453,2.5024016952255854,NA,NA,32180.391395238687
24,166222.5,112454.0,"[2,9]",2,0.2506644736512891,0.1022243281565518,NA,0.6042800963287087,0.2057295582999128,NA,-0.0350750308291472,NA,NA,0.30500747893635816,0.14617139699198045,NA,0.5637797900735549,NA,72256.47916497444,14218.31215389022
24,25799.5,18120.0,[10],1,1.2970790332758477,0.5684931692474784,2.8952701979107878,2.222779056706482,NA,NA,NA,1.1013294042326,NA,3.2326046711951992,1.3680495459795625,0.5014328714703786,2.316757104188068,2.4186302814007967,NA,NA
48,366790.5,207622.0,"[0,1,3,4,5,6,7,11,12,13,14]",11,NA,NA,NA,NA,NA,NA,NA,NA,NA,NA,0.18532303217232338,0.17445717860740861,NA,NA,NA,22153.808192960205
48,261209.25,148945.0,"[1,2,9]",3,NA,0.14960969624352893,NA,NA,0.2604451730078585,NA,NA,NA,NA,0.34730326772980324,0.18067343592063478,NA,0.5590673356705579,NA,NA,16187.51170565356
48,59590.75,31862.0,"[8,10]",2,NA,0.43964069678599405,NA,NA,NA,NA,NA,NA,NA,NA,NA,0.3142847816775274,NA,NA,NA,NA
72,398786.25,215391.0,"[0,1,3,4,5,6,7,11,12,13,14]",11,0.4339541030903107,NA,NA,0.9019637421419358,NA,NA,0.11947024976381648,0.7871860817615328,NA,NA,0.25624822551179305,0.19378852033639604,NA,NA,NA,24223.755538211248
72,277464.625,146860.0,"[1,2,9]",3,0.2824215325922246,0.19707398992662783,NA,0.6959180181050031,0.3038156619091579,NA,-0.010088651580354657,NA,NA,0.34037710160754786,0.1811341813461116,0.7984293118929116,0.5992614204639707,NA,69764.13789685826,17155.620757060307
72,59406.375,29611.0,"[8,10]",2,1.6940927573324351,0.5054260526248253,NA,1.7588723330787341,2.02610396101428,NA,NA,0.9801764108776081,NA,3.0025992488810935,0.8169645887920263,0.3263136390644167,2.4194161611548175,NA,NA,NA
96,376540.125,177147.0,"[0,1,3,4,5,6,7,11,12,13,14]",11,0.4936423826776706,NA,NA,1.0520240536048435,NA,NA,NA,NA,NA,NA,0.2648586643096884,0.20519775663217688,NA,NA,68213.42680544345,23182.773830544633
96,253930.3125,115198.0,"[1,2,9]",3,0.36462742422415984,0.19327487785894348,NA,0.8101457327790524,0.3078285225218087,NA,0.06423107106305714,NA,NA,0.39329491205215183,0.21892569355201452,NA,0.6382619577527012,NA,70553.60297719503,16437.10948451642
96,34679.75,17415.0,[8],1,2.1019640519125193,0.3948095834024308,NA,1.6821280364856759,NA,NA,NA,NA,NA,NA,0.5076648666747126,0.25051145734903635,2.524279712847558,NA,NA,31598.28187919421
96,21886.4375,9448.0,[10],1,1.4150669792708273,0.6725035484417976,2.648698112683926,2.3822052054239964,NA,NA,NA,NA,NA,2.98394925251368,1.4810590158260126,0.5508467213057195,2.434698123332644,NA,NA,NA
120,422751.5625,242115.0,"[0,1,3,4,6,7,11,12,13,14]",10,0.42375019773026534,NA,NA,NA,NA,NA,NA,NA,NA,0.5468053833122265,0.2511012685015319,0.19482996662164687,NA,NA,66932.06564789443,21198.601701206087
120,236747.15625,109782.0,"[1,2,9]",3,0.36671804313026723,0.2084621082225051,NA,NA,0.3331234211105323,NA,0.10933955470323165,NA,NA,0.41731609688567317,0.2543001453052094,NA,0.6360087437988055,NA,70146.26318241138,16029.952131684624
120,36885.875,19546.0,[8],1,2.1638374940450005,0.41532652477405785,1.448348506977641,1.9799049033175735,NA,NA,NA,NA,NA,NA,0.5610852880142061,0.27539943868757355,2.5628630987285006,NA,73155.57009288807,30371.675065319196
120,21672.21875,10729.0,[10],1,1.5763448980996497,0.7415435159701698,2.759327184754088,2.4483683823255746,NA,NA,NA,NA,NA,3.00671515629458,1.5413277052606476,0.5869648396276397,2.523148010392031,NA,NA,NA
144,211223.515625,82284.0,"[1,2,4,14]",4,0.41523686418786876,0.4817175048533815,NA,NA,NA,NA,0.30101242255661864,NA,NA,0.46526886662751754,0.2762836172518073,NA,0.835259296499529,NA,67500.58881849483,17049.44086052204
144,25777.71875,18087.0,[3],1,1.1419205194402384,0.18507186599800862,NA,NA,0.36023270799091645,NA,NA,NA,NA,0.6690130685524206,0.5217688798786781,NA,0.6824529653170625,NA,67208.85252889208,19088.241778570922
144,254692.203125,133278.0,"[6,7,11,12,13]",5,NA,NA,NA,NA,NA,NA,NA,NA,NA,NA,0.1211374109763299,0.1683062363039125,2.5692352735665622,NA,67313.36737303177,20307.2985216654
144,60711.046875,31432.0,"[8,10]",2,1.9329336900741605,0.4855258411465928,NA,2.4191699533265827,NA,NA,NA,NA,NA,3.0918760061649593,0.9315164741661759,0.4469826794390075,2.50607899298933,NA,NA,NA
144,176341.328125,87812.0,"[2,9]",2,0.3565221414016615,0.11326799430206203,NA,NA,0.28670459473410004,NA,0.16495345807426176,NA,NA,0.41250686481970156,0.21124962062344244,NA,0.7018238167654206,NA,71513.02279554642,14248.538369966973
168,435371.15625,236806.0,"[0,1,4,5,6,7,11,12,13,14]",10,NA,NA,NA,NA,NA,NA,NA,NA,NA,NA,0.2553584731591947,0.21380838445594474,NA,NA,66227.22391476741,23016.663188743358
168,214020.2890625,99783.0,"[1,2,9]",3,0.3268604983742138,0.17662374445653883,NA,NA,0.384668537317971,NA,0.23323044726536812,NA,NA,0.4632203686647084,0.2581189107104067,NA,0.7183383333401004,NA,70324.3861805303,16261.500153771092
168,31644.859375,18756.0,[3],1,0.9161336734014889,0.17983493952933038,NA,NA,NA,NA,NA,NA,NA,0.6483599083021462,0.568365757037216,NA,0.7004553156755168,NA,NA,20435.930914924516
168,92614.6484375,52787.0,"[5,8,10]",3,1.8602821836466885,0.42163913156369937,NA,NA,NA,NA,NA,NA,NA,NA,0.9044824317815512,0.4186638956687545,2.3987088248960062,NA,NA,NA
