time_in_hour,cumulative_size,size,pcore_ids,pcore_power,AF700 CD48_[R 730_B-A],APCCy7 Ly6G_[R 780_A-A],BV421 CD117_[V 440_F-A],BV510 SCA-1_[V 525_E-A],BV605 CD11b_[V 610_D-A],BV650 CD150_[V 660_C-A],BV711 CD11c_[V 715_B-A],BV785 B220_[V 780_A-A],FITC Ly6C_[B 525_B-A],PE CD115_[YG 582_D-A],PECF594 CD135_[YG 610_C-A],PECy5 CD3-CD19-NK11_[YG 670_B-A],PECy7 CD16-32_[YG 780_A-A],PerCPCy5-5 CD45_[B 695_A-A],_FSC-A,_SSC-A
-1,0,0,[],0,0.0,0.0,0.0,0.0,0.0,0.0,0.0,0.0,0.0,0.0,0.0,0.0,0.0,0.0,0.0,0.0
0,133882,133882,"[2,11,13,14]",4,0.28471436751766577,0.1453147433486217,NA,0.5505759443091724,0.3009665736992231,NA,0.011382794655011352,NA,NA,0.3622589886989972,0.17509374708323833,NA,0.6121353696464068,NA,69673.63523102392,13598.851286954168
0,154507,154507,"[3,4,5,7,8,10]",6,0.28897061193991247,NA,NA,0.6936203700609043,NA,NA,NA,NA,NA,NA,0.1447520828247204,0.13290813860213457,2.04835887557198,NA,66928.01232306616,19549.475946073613
0,28894,28894,[12],1,1.9484439724856413,0.279362587872916,NA,0.8751860583166193,NA,NA,0.06539292586695566,0.7865298843012303,NA,3.244775679518222,0.4439122879836619,0.18536431854364888,2.4119323967259527,NA,72828.18135253005,27383.018204471435
24,162929.25,146194.0,"[2,11,13,14]",4,0.26996914137271233,0.12884554977467122,NA,0.6275413841345268,0.2475089837490696,NA,-0.003104072551437742,NA,NA,0.33075675723435416,0.16204705590233592,NA,0.537413334142736,NA,72475.7480440127,14844.349728486299
24,159426.375,140113.0,"[3,4,5,7,8,10]",6,0.33040340534854784,NA,NA,0.7679706651463691,NA,NA,NA,NA,NA,NA,0.1173629285281308,0.13983272712796024,1.8905797644492637,NA,66265.78905780183,22335.64894139999
24,27543.75,23932.0,[12],1,1.9724940927297527,0.37830593651010114,NA,1.0172066313455899,NA,NA,0.1266265363285637,1.0432574065123386,NA,NA,0.40963424483321864,0.22206464622646283,2.4502532036079168,NA,73646.23103244847,35404.80609938714
48,174985.359375,153567.0,"[2,6,11,13,14]",5,0.29835815940833554,0.1579010487702428,NA,NA,0.25399224802636367,NA,NA,NA,NA,0.33049952583604403,0.16791242800249284,NA,0.5453471974474097,NA,NA,15974.846221331209
48,134300.296875,117125.0,"[3,5,7,8,10]",5,0.19486649421463587,NA,NA,0.6400425516039765,NA,NA,NA,NA,NA,NA,0.0976044666326743,0.10530824479899736,NA,NA,NA,20358.634542296044
48,31374.96875,27932.0,[12],1,NA,0.31824914019534933,NA,NA,NA,NA,NA,NA,NA,NA,0.36927504349755225,0.18262758714102312,NA,NA,NA,31867.95132664472
72,168848.89453125,148432.0,"[2,11,13,14]",4,0.24766407124740897,0.23906554870060193,NA,0.7277422137376703,0.34941899565334067,NA,-0.019203638019519964,NA,NA,0.32863504595629645,0.17267110082869896,0.7673330291915179,0.6286979745141384,NA,69891.27863636025,17386.89630986376
72,176507.412109375,157624.0,"[3,4,5,7,8,10]",6,0.33079187883045824,1.597355184309961,NA,0.9554559488444458,NA,NA,0.16833361821444148,0.7527474487804224,NA,0.5612678283776283,0.2688732905042093,0.15329008522947818,1.7191473034072704,NA,NA,24215.099996630535
72,23963.87109375,20042.0,[12],1,1.9160691602150604,0.42836423841474325,NA,1.67701481009816,NA,NA,0.04982701794155231,0.8787985091063208,NA,NA,0.465941532486732,0.21941674445498716,2.399050451705612,NA,76357.05107248874,34766.124465687426
96,132193.11181640625,111087.0,"[2,11,13,14]",4,0.40512513086938684,0.19503531295287546,NA,NA,0.32382009637147924,NA,0.12573147021276787,NA,NA,0.4233750004877106,0.23155726237888752,NA,0.6751159889237665,NA,71540.48875878667,15197.085340167532
96,114412.44213867188,94199.0,"[3,5,7,8,10]",5,0.3017085063553362,NA,NA,1.0889883201301438,NA,NA,NA,NA,NA,NA,0.17946658456904618,0.1737614379154664,NA,NA,67592.88032733637,21161.856834371305
96,33307.984375,31458.0,[4],1,0.6277855323621604,NA,1.9598534407906052,1.084885041945801,NA,NA,NA,NA,3.807390702004707,NA,0.23497944965932094,0.10966746153637297,2.6116755330665105,NA,69316.96994996068,20283.539438507294
96,25547.48388671875,22552.0,[12],1,2.1926774484584035,0.37712001587078703,NA,1.835516583252093,NA,NA,NA,NA,NA,NA,0.5865955759544632,0.2639021254455607,2.4856939591034486,NA,73045.3226783378,31130.811674729288
120,121392.13897705078,104868.0,"[2,11,13,14]",4,0.33917524139982214,0.2148261837580594,NA,NA,0.3504411216779504,NA,0.14307692254166593,NA,NA,0.42600630091248104,0.26612996855423443,NA,0.6270084997348545,NA,70296.03249967923,14812.048666075061
120,150663.55526733398,136362.0,"[3,5,7,8,10]",5,NA,NA,NA,1.1708058035125064,NA,NA,NA,NA,NA,0.4918263654300853,0.16393799644531182,0.17375708464617223,NA,NA,65855.95684420274,19715.204860296904
120,54849.498046875,50686.0,[4],1,0.6160122197649152,NA,2.155048093528109,1.172466968945916,NA,NA,NA,NA,3.8995156458988522,NA,0.2536786850778747,0.09745417278649093,2.715380279373059,NA,67480.4039562734,19519.522529102396
120,28949.435485839844,25756.0,[12],1,2.245180493716374,0.39498637020730465,NA,2.1286242292685036,NA,NA,NA,NA,5.668824854617542,NA,0.6281985246304651,0.28497490533871783,2.543300895658307,NA,70384.68126648923,30235.464008727202
144,103938.79203414917,90427.0,"[2,13,14]",3,0.4084130595295776,0.16231058536985232,NA,NA,0.3579496168183165,NA,0.27433961725930844,NA,NA,0.4356530100097784,0.2397073158591243,NA,0.7084007375630829,NA,70414.83876011125,14638.269362660141
144,144129.3397102356,123664.0,"[4,7,8,10]",4,NA,NA,2.122147851485265,1.330877430688994,NA,NA,NA,NA,NA,NA,0.07718964045282206,0.18215477918065837,2.543540915654071,NA,66455.05488225368,18131.373366959913
144,19956.225337982178,18294.0,[11],1,0.30127995158878984,-0.018027522152767705,NA,NA,0.21263553393497592,NA,NA,NA,NA,0.5889811983058263,0.28735819639340177,2.2843582001098426,0.8776032178646053,NA,72165.66660006905,13821.528875278591
144,33005.67943572998,29387.0,[12],1,2.2100510044991886,0.3229138435103813,NA,2.417016062862522,NA,NA,NA,1.109221089920299,NA,NA,0.6492291790072771,0.3486119814334796,2.4118361047225596,NA,70630.76532718871,32988.73231676154
168,120085.87717151642,104599.0,"[2,11,13,14]",4,0.24974758935173202,0.19159225344671826,NA,NA,0.4613544341711142,NA,0.25668751709869975,NA,NA,0.47303796506250784,0.2438434516965584,NA,0.74968093271575,NA,70084.33456560568,16345.582542303751
168,167670.7430510521,152407.0,"[3,5,7,8,10]",5,0.30344264133112,NA,NA,NA,NA,NA,NA,NA,NA,NA,0.19539981887125624,0.21389880688468166,NA,NA,65763.42643998945,23295.167854373645
168,30374.273406982422,24729.0,[4],1,0.6673240534591904,NA,2.0879441682833186,NA,NA,NA,NA,NA,NA,0.704959681118508,0.18910360683373018,0.1083654578566624,2.4418262240425013,NA,NA,20973.88138852129
168,33711.70992946625,29586.0,[12],1,1.984753534866068,0.3063979232778311,2.0821877027490525,NA,NA,NA,NA,NA,5.185489611548126,NA,0.6671131324214512,0.35322357300312257,2.4516613917663514,NA,NA,38581.28843660103
