time_in_hour,cumulative_size,size,pcore_ids,pcore_power,AF700 CD48_[R 730_B-A],APCCy7 Ly6G_[R 780_A-A],BV421 CD117_[V 440_F-A],BV510 SCA-1_[V 525_E-A],BV605 CD11b_[V 610_D-A],BV650 CD150_[V 660_C-A],BV711 CD11c_[V 715_B-A],BV785 B220_[V 780_A-A],FITC Ly6C_[B 525_B-A],PE CD115_[YG 582_D-A],PECF594 CD135_[YG 610_C-A],PECy5 CD3-CD19-NK11_[YG 670_B-A],PECy7 CD16-32_[YG 780_A-A],PerCPCy5-5 CD45_[B 695_A-A],_FSC-A,_SSC-A
-1,0,0,[],0,0.0,0.0,0.0,0.0,0.0,0.0,0.0,0.0,0.0,0.0,0.0,0.0,0.0,0.0,0.0,0.0
0,74981,74981,"[0,5]",2,0.33164425125033037,0.14643921633481627,NA,0.43582622137607885,0.25380825139700036,NA,0.01804671432763616,NA,NA,0.34568404499806227,0.1616747734225945,0.9591182991424549,0.599328120737252,NA,69675.08376788774,14287.700190714942
0,24200,24200,[1],1,0.2814720469421568,0.22155349677686864,NA,0.49526558557854194,0.4083726590495864,NA,0.1027162260743566,NA,NA,0.42280883607438513,0.20682236615704896,0.25009227863636707,0.4750034017768623,NA,NA,12532.390082644726
0,73819,73819,"[2,3,4]",3,0.43602163879218203,NA,NA,0.7105779500399518,NA,NA,NA,NA,NA,NA,0.21720950079248258,0.1257687699372797,2.1821454314336437,NA,NA,20674.685920968757
0,30498,30498,"[7,9]",2,0.1754141337792634,0.05273063584497262,NA,0.8492711479113475,0.32972398403174674,NA,NA,NA,NA,0.37469875696767274,0.17668048160534555,NA,0.7815279915732117,NA,72307.39851793551,13353.14735392479
0,14466,14466,[8],1,0.5879687774091109,NA,NA,0.9312121009263392,NA,NA,0.6036023413521341,NA,NA,NA,0.12077898036777457,0.1443229789852064,2.290536531245671,NA,NA,29190.764551361983
0,27639,27639,[12],1,0.29821981048518853,1.2978384037049127,NA,0.6435320576359516,NA,NA,0.30650170538008314,0.5416821240276639,NA,NA,0.23853378439884576,0.15071550812258494,1.5131323831904337,NA,62625.13347081994,18052.117080936336
0,17899,17899,[14],1,1.333102489636292,0.5129015412034317,2.6747443982904167,1.9364366291971318,NA,NA,NA,0.9527508606067343,NA,NA,1.1973455934409856,0.4390485726018275,2.3910564741047104,NA,NA,NA
0,26715,26715,[15],1,1.9331489042485346,0.26434088530788324,NA,0.8685928341755642,NA,NA,NA,0.7646728686131308,NA,3.2152596306943497,0.43210088695489546,0.18564078959386676,2.383070505745837,NA,NA,26666.360022459165
0,72218,72218,"[3,16]",2,0.11399784008141278,NA,NA,0.6766012456035924,NA,NA,NA,NA,NA,NA,0.06037980506243468,0.15014307243346858,2.1528489252263863,NA,67736.68082749452,18750.68930183609
24,118048.625,105651.0,"[0,1,5]",3,0.3063071594470128,0.14533513047482538,NA,0.5049862705262309,0.24058162223299995,NA,0.003140571944421744,NA,NA,0.32393984530845543,0.15597107445237146,0.7217416407296082,0.4944996757988488,NA,72210.9626943981,15014.94510418904
24,72304.375,63077.0,"[2,3,4]",3,0.49056630226386577,NA,NA,0.7687787270099502,NA,NA,NA,0.8333390861739027,NA,NA,0.1824474366091291,0.1219388595710853,2.095390524852403,NA,NA,23735.23638092425
24,14470.75,13278.0,[6],1,0.6199100614342619,0.35814966182645414,NA,1.0148273627921958,0.502416761380708,NA,0.14235594107077798,0.9928703815195989,NA,0.6907763233332741,0.46183170947428476,0.3290129926230526,0.691995933711108,NA,65116.714475752706,28810.53380094331
24,39596.25,35784.0,"[7,9]",2,0.16251482310824916,0.05387992684913634,NA,0.9683137548284373,0.26098428500487714,NA,NA,NA,NA,0.35703692014395405,0.16287770033779925,NA,0.6682107824067917,NA,74703.05294061941,13904.34538624241
24,57573.0,49883.0,"[8,16]",2,0.18764536028606327,NA,NA,0.7781013297769865,NA,NA,0.7097577047574246,NA,NA,NA,-0.023573338683058775,0.1497846730303274,2.1091547115357745,NA,68540.77612769874,23213.982109669483
24,38211.875,34757.0,[12],1,0.3320315699962415,1.0680462359672132,NA,0.7323186246847309,1.788156868790761,NA,0.2769692394936101,0.6502697067665522,NA,0.5520322179198175,0.19826425964110816,0.15653453022456654,1.3722611342514592,0.9521859349449575,62222.083789397904,21644.57368291911
24,20934.375,18697.0,[14],1,1.3254019796506873,0.5574316746380168,2.8881937212897015,2.1693911934437833,NA,NA,NA,1.0903830701298562,NA,3.280692795629221,1.311526580235849,0.4835775973787184,2.3554149642752544,2.4014591515271135,NA,NA
24,27045.375,23706.0,[15],1,1.9735364831186353,0.3747411722290903,NA,1.0054051678567926,NA,NA,0.11615949067076059,1.036538723594119,NA,NA,0.40446652809860995,0.2217933864015612,2.454198483109424,NA,73527.14288487399,35290.67783308589
48,76699.03125,67536.0,[0],1,0.2736186536032241,0.12490229241874262,NA,0.42048929396699375,0.187774826757515,NA,-0.010768190066962724,NA,NA,0.27350762018710006,0.11865081469064398,0.8255286628980896,0.5724422228279323,NA,68879.30826375367,15283.513831864762
48,40408.625,36160.0,[1],1,0.2124565489484025,0.2345743353607963,NA,0.5333164101796757,0.3920856595114728,NA,0.09151819076953194,NA,NA,0.355797500357676,0.18410527457202663,0.2042951263216437,0.40235041275957606,NA,NA,15192.01749626465
48,44127.09375,38195.0,"[2,3]",2,NA,NA,NA,0.6267060023345215,NA,NA,NA,NA,NA,NA,NA,0.060795912289925313,2.359095560818642,NA,NA,19275.44679962063
48,20837.953125,17732.0,[4],1,0.7279744290316086,NA,NA,0.72578439387941,NA,NA,NA,NA,NA,NA,0.24050910627470312,0.08627348505244026,NA,NA,NA,27165.12239010999
48,13535.84375,11727.0,[6],1,NA,0.36990840119288837,NA,NA,0.43112222810039347,NA,NA,NA,NA,0.594326597269519,0.4341900319464269,0.27417832370996476,0.5709855577875419,NA,NA,29135.496632782793
48,32694.53125,27745.0,"[7,9]",2,NA,0.08091266430643707,NA,NA,0.2489856350330908,NA,NA,NA,NA,0.3218738879351972,0.14991457101101258,NA,0.7086312151090847,NA,72435.21104160209,14388.48559726631
48,14202.28125,12455.0,[8],1,NA,0.7158242440376092,NA,NA,NA,NA,NA,NA,NA,NA,NA,0.12904980950463474,2.4169370523892555,NA,NA,34763.32627900898
48,51429.484375,46653.0,[12],1,0.20408284293816203,NA,NA,0.5621013116433335,NA,NA,NA,NA,NA,0.42520833387979895,0.1594302534225207,0.11122201646155361,1.251073799749173,NA,NA,19212.93055934881
48,14353.796875,11737.0,[14],1,NA,0.5780177501793324,NA,2.106420657262935,NA,NA,NA,NA,NA,NA,1.2455883854522383,0.44785724318260434,NA,NA,NA,NA
48,31106.671875,27726.0,[15],1,NA,0.3180028940771753,NA,NA,NA,NA,NA,NA,NA,NA,0.3674943404057709,0.1822401246667842,NA,NA,NA,31718.016956772266
48,58515.53125,50053.0,"[3,16]",2,0.03607725446796506,NA,NA,0.6143729896397638,NA,NA,NA,NA,NA,NA,0.010046744776100791,0.09093498480291318,2.265094057338953,NA,NA,18536.280741704737
72,122869.45703125,108231.0,"[0,1]",2,0.248122456560256,0.25748124509624537,NA,0.5859783994173098,0.3460647107299346,0.25185295879731306,-0.007846816110101962,NA,NA,0.3053331484725714,0.16315590078633457,0.5896808103282634,0.5870501208800546,NA,68847.12064242702,17072.721667854785
72,60446.630859375,52326.0,"[2,3,4]",3,0.5456884957700419,NA,NA,1.0054855096150597,NA,NA,NA,0.8584684590349196,NA,NA,0.3744472585464398,0.1297526950192237,2.01918986131468,NA,NA,26567.67028275036
72,38037.81640625,33951.0,"[7,9]",2,0.20057424788037603,0.16185097801644144,NA,1.1212590945752443,0.3468623966018787,NA,-0.05696910885132134,NA,NA,0.36618727237634663,0.1709850186688211,1.3771411671619271,0.7814082564162365,NA,73491.3765558759,16824.658601981202
72,99433.083984375,89542.0,"[3,12]",2,0.3417407634162122,1.4794506436992974,NA,0.8999844059137567,NA,NA,0.057722854161949666,0.7188019484925507,NA,0.5652133998309058,0.2858537971865758,0.15305264973998123,1.5414568198409495,NA,67283.98005890402,23622.220621952118
72,16096.224609375,14302.0,[14],1,1.364540829042656,0.7340668967893045,2.475359283797602,2.3296828799913913,2.0680770286927976,NA,NA,1.1401050968417819,4.400426630689321,2.7890647416884082,1.3992136252380862,0.454369740090814,2.39150351832721,2.378628221464732,NA,NA
72,23470.333984375,19582.0,[15],1,1.9259442461252767,0.42777388829890484,NA,1.6705022734058868,NA,NA,0.0361068150417001,0.8757653651396398,NA,NA,0.4636540802576543,0.21582779663173057,2.411264522556017,NA,NA,34623.33019167903
72,45045.04296875,41193.0,[16],1,0.10798362004871542,1.9030031683231563,NA,0.9532241517070696,2.7043567998802946,NA,0.641399279493513,0.6629655476239682,NA,0.48990308838826613,0.1567192716831114,0.1616911465544788,1.9402802956959264,NA,70165.26049975549,22991.885479907283
96,65292.29736328125,54309.0,[0],1,0.41784845977798635,0.16624136445520854,NA,0.6369320043473103,0.22515514504875922,NA,0.0987068284273116,NA,NA,0.35914989932062613,0.1894995798934498,1.0888597681930103,0.6294429180805002,NA,70843.83037794483,14449.248178793305
96,19045.384765625,14670.0,[1],1,0.2843884827947487,0.36649969965961127,NA,0.7599397098631075,0.4981006313853915,0.22340458417663944,0.13396296979961386,NA,NA,0.4107140019293044,0.27314604173294077,0.28850405613717167,0.523281659333921,NA,68871.68824304038,15887.460197306269
96,53448.61083984375,47524.0,"[2,3]",2,0.5397672101409967,NA,1.945999150131652,1.060977859535062,NA,NA,NA,NA,NA,NA,0.2519106482207958,0.12361628764903498,2.484413807585521,NA,NA,20815.77145117527
96,11305.218017578125,9674.0,[4],1,0.8959572893524734,1.0112549114100933,NA,1.2556274245413,NA,NA,NA,NA,NA,NA,0.3804876128751964,0.14589225707727937,2.2993295304473116,NA,NA,30116.730667420874
96,10598.74755859375,9255.0,[6],1,0.7155534162436792,0.452736102884153,NA,1.3268573761881912,0.5615339640529582,NA,NA,NA,NA,0.8003790611279903,0.6256491694951141,0.42894981735579296,0.779197991537048,NA,NA,29607.459624020372
96,26493.3505859375,23792.0,[7],1,0.3886069410895012,0.15792098232175844,NA,NA,0.5029115377219884,NA,NA,NA,NA,0.470030813293872,0.20215005920119555,1.6137675944615064,0.8318702993328838,NA,73528.35087371373,14799.36699210813
96,11253.28564453125,10104.0,[8],1,0.5998289809304802,NA,2.9381442494180674,1.3646622029993911,NA,NA,1.242049072800167,NA,NA,NA,0.13326879474137865,0.17699091208279472,2.435524484578552,NA,NA,28916.791985882304
96,13946.37646484375,11893.0,[9],1,0.39438423783693355,0.10496636151582361,NA,NA,0.17835344067403724,NA,NA,NA,NA,0.5223630315871707,0.27983623129604496,2.0061009271822616,0.8039143111828203,NA,74644.53042913848,14021.397005599478
96,42753.135498046875,30324.0,"[3,12]",2,0.41064726484232295,NA,NA,0.9758284372180666,NA,NA,0.30383308890423066,NA,NA,NA,0.3084035922339643,0.1817472039520558,1.6908416133477226,NA,65914.00925737346,21201.99387285658
96,11785.028076171875,9773.0,[14],1,1.5510504019990747,0.6779488547238044,2.706137749565142,2.476215328423622,NA,NA,NA,NA,NA,3.124744121907935,1.6007096940806615,0.5944004564731655,2.623046982352167,2.6547103894999404,NA,NA
96,25079.791748046875,22146.0,[15],1,2.1909345087269223,0.37978570919604726,NA,1.8298532975412676,NA,NA,NA,NA,NA,2.952774566088868,0.5858574215933219,0.2647165851875306,2.4995010172090066,NA,NA,31183.038211118706
96,52128.63037109375,46498.0,[16],1,0.11524577708754213,NA,2.013541751476023,1.0601304313705056,NA,NA,1.0864533293305212,NA,NA,NA,0.046606039628896756,0.16107194976644268,2.456519419343702,NA,68302.80982674747,19415.01615268002
120,51943.537170410156,43782.0,[0],1,0.36571578403980376,0.18338502714998794,NA,0.6463455415706889,0.240068693695489,NA,0.11254826364643966,NA,NA,0.36249618390986604,0.2204551189209596,1.0500218631730105,0.5870773461483997,NA,70455.4892154822,13969.3494055898
120,25518.673095703125,23138.0,[1],1,0.27151435694688497,0.3516559293231496,NA,0.7221864679057699,0.43725710518901817,0.19214904362843832,0.16118729949618116,NA,NA,0.39682773847385433,0.30564757111391216,0.2962829610337435,0.468388152315956,NA,NA,14666.796492400847
120,80945.07635498047,74264.0,"[2,3]",2,NA,NA,2.1484910099544607,1.151177835756831,NA,NA,NA,NA,NA,0.596622457417148,0.26676250668664014,0.10488173812168133,2.622863616988662,NA,67060.06759444793,19669.178437375846
120,16322.152252197266,14909.0,[4],1,0.9083136051083731,NA,3.0619392349859766,1.4679904002663435,NA,NA,NA,NA,NA,NA,0.3538655507450219,0.1267539224423323,2.4941776166813425,NA,NA,28876.970542167954
120,13017.843444824219,11693.0,[6],1,0.7479526632195863,0.49715811782284325,NA,1.2745420689212565,0.5763747649235258,NA,0.17338950257555874,NA,NA,0.7733953691471817,0.6535547620483872,0.39049937312800653,0.7940082300972607,NA,NA,28583.632179777418
120,22240.668823242188,18929.0,[7],1,0.27664077722662506,0.1514646896846208,NA,NA,0.5505519422836125,NA,NA,NA,NA,0.45107225381029525,0.21830140187146352,NA,0.7948494254726718,NA,72309.91369882923,14337.277210757893
120,16259.660705566406,14853.0,[8],1,NA,0.9788693435153006,NA,1.4765140861218402,3.5661132808574094,NA,1.2513349130420517,NA,NA,NA,0.12540634166756748,0.17442780022453486,2.477252230122616,NA,NA,27001.546647727737
120,12790.297058105469,11047.0,[9],1,0.28215408838353095,0.06609858921882639,NA,NA,0.2531028195610596,NA,NA,4.328416864310444,NA,0.5581105698952661,0.2911982532422486,NA,0.8052083304138179,NA,73471.61758883923,13414.18384349892
120,29503.698211669922,26083.0,[12],1,0.4227935227010633,1.322664584144241,NA,1.024992656351507,NA,NA,0.4053733030598772,NA,NA,0.6072187974778981,0.3512270039864527,0.18957102508791301,1.402768087939346,NA,61819.266915454195,19038.043484780854
120,12804.128509521484,11331.0,[14],1,1.7455576680028873,0.7763999986800085,2.8415498600721674,2.50488254652902,2.404805131546404,NA,NA,NA,NA,3.095028065086429,1.5750930599314494,0.5966401980284932,2.647404270529642,NA,NA,NA
120,27955.97396850586,24821.0,[15],1,2.240814590474751,0.38929946447943387,NA,2.1326156939529457,NA,NA,NA,NA,NA,NA,0.6324658219695833,0.2834941897042558,2.546070401138271,NA,70501.9836542283,30456.340745272533
120,74123.07879638672,67607.0,[16],1,NA,NA,2.213758144830764,1.1483360172352222,3.532330903104216,-0.6711901591343634,NA,NA,3.8154409515873637,0.39756512340435635,0.024595032966947983,0.14218726600006237,2.6420820942457137,NA,66234.95789121292,17919.466550122965
144,47256.94214630127,40764.0,[0],1,0.4797377778818981,0.12253135839501361,NA,0.9199625043522195,0.19264652727884712,NA,0.16070507475939744,NA,NA,0.384206776629174,0.214248962018448,1.2771544579224907,0.6951474540025319,NA,70444.66408891426,13867.119533108817
144,18472.83413696289,15283.0,[1],1,0.31519158014926507,0.3239411013736446,NA,NA,0.4351481631980403,NA,0.20291420745654332,NA,NA,0.3927313486327014,0.2859589935714997,0.32493454414205347,0.5453435876116596,NA,NA,13993.270670585238
144,75932.13454437256,65814.0,"[2,3]",2,0.4857967598362749,NA,2.1330561252093694,1.2994961946318715,NA,NA,NA,NA,NA,NA,0.1639006954397786,0.1411466232823958,2.5912682068914004,NA,66526.51124305447,18500.7812336122
144,10066.230430603027,8439.0,[6],1,0.8435638116753139,0.45969665696054074,NA,1.697521009521393,0.5192278430290247,NA,0.3028113231613587,NA,NA,NA,0.6557877336884173,0.5047359651770769,0.8689540379058763,NA,NA,28794.25720465388
144,27554.083602905273,24774.0,[7],1,0.3165630463842719,0.0903938287734869,NA,NA,0.5317830611047722,NA,NA,NA,NA,0.4770465066803242,0.20288003736205829,1.808224487488082,0.834964413191717,NA,72498.19991077398,14596.083654240103
144,10581.4575881958,8549.0,[8],1,0.6718007798020098,NA,NA,1.6998256310625264,NA,NA,1.3605993370372165,NA,NA,NA,0.09898219947492004,0.24031151360426584,2.3871631234591257,NA,67026.71661099061,26117.91807260082
144,21369.787132263184,19771.0,[9],1,0.22206202801424468,-0.02245129041887317,NA,NA,0.28635356576927506,NA,NA,NA,NA,0.5847227626176871,0.27182688930259546,2.3134244823648222,0.9137781753555975,NA,71907.61551703209,13515.303579358086
144,10299.42554473877,9442.0,[11],1,NA,0.1434012419177857,NA,3.8849039944077446,0.5610668529327354,NA,NA,NA,NA,0.5858367774570007,0.6254868228285941,NA,0.7481487666346646,NA,57120.49301399997,18460.197430969172
144,12998.96227645874,9311.0,[12],1,0.5008189514668013,1.1144268610554366,NA,1.293116667990751,NA,NA,0.47483078289614555,NA,NA,NA,0.3710473153622873,0.2608060473699131,1.3527299237405535,NA,61250.466261021444,18588.08334470195
144,13507.516063690186,11907.0,[14],1,1.6219642220992354,0.6435215488732595,2.5753425420927223,2.7453061505555847,NA,NA,NA,1.3820979269591964,NA,3.1678254034260207,1.4813941749080342,0.6273628588136386,2.5896015191196256,NA,NA,NA
144,32049.496746063232,28555.0,[15],1,2.197709050442323,0.32541128999626556,NA,2.4072190838253804,NA,NA,NA,1.1310681310631843,NA,3.3986831069648304,0.6394623081994633,0.3429028845452671,2.4225559481074326,NA,70655.2920444489,33048.69564797315
144,64014.38484954834,54749.0,[16],1,0.03215719414698781,NA,2.1639293064714225,1.3226449174396482,3.4995916332826327,NA,1.2660886937764082,NA,3.6743309306492917,NA,-0.060476636044726195,0.18251379096518672,2.596126820883762,NA,65820.65829826458,17213.423584016127
168,38159.11776828766,32252.0,[0],1,0.29671155980587227,0.12047802840369615,NA,NA,0.21609422475014473,NA,0.17374869672891968,NA,NA,0.3679290689888757,0.19748862002357992,1.0542249999991664,0.6907200606462264,NA,70376.44463448496,14914.773859420171
168,32562.10426712036,30253.0,[1],1,0.23686898074554485,0.417989867694776,NA,NA,NA,NA,0.25382503128471345,NA,NA,0.4365765378165105,0.2554284416340864,0.2717891271956101,0.6986414284402328,NA,63737.51229996674,17633.863349433712
168,59913.51681804657,50422.0,"[2,3]",2,0.5023881298864399,NA,2.1385226320860826,1.4038235042814833,NA,NA,NA,NA,NA,0.7071757917911227,0.20050179921399192,0.1209099524518853,2.367579217517277,NA,NA,21618.576658743143
168,11033.283628940582,9868.0,[4],1,1.1136665804046462,0.7593511897436978,NA,2.10639140457875,NA,1.4146165753139506,NA,NA,NA,NA,0.4809902114854925,0.22128530731946616,2.2495237929284375,NA,NA,33142.282831470104
168,10986.278803825378,9728.0,[6],1,0.8213214438690006,0.46886256708225105,NA,NA,NA,NA,NA,NA,NA,1.0007140908796446,0.67374552933533,0.3267311921176397,NA,NA,NA,32619.04216264126
168,21196.26045036316,17752.0,[7],1,0.055014153625756235,0.09277004219712293,NA,NA,0.5797943074116954,NA,NA,NA,NA,0.4848669462715045,0.19078288518505238,NA,0.8132446376182133,NA,73224.36211377126,15652.40370759867
168,62909.48030471802,53585.0,"[8,16]",2,0.18210617306221666,NA,2.1987203452506985,NA,NA,NA,1.2308507101074957,NA,NA,NA,0.019717348282580094,0.1894967722877573,2.320448013416681,NA,67637.42067484965,21774.100165791737
168,20062.223391532898,17391.0,[9],1,0.17100054179690938,0.023921970685747862,NA,NA,0.2555961632495811,NA,NA,NA,NA,0.6122707858118107,0.28718444370348895,2.0395194212176238,0.9095051963374693,NA,73701.57991673506,15014.617930731429
168,11750.428193092346,10463.0,[11],1,NA,0.17519283399217,NA,3.57986068785017,NA,NA,NA,NA,NA,0.5931066892477558,0.6704633910063551,NA,0.7732211267955228,NA,61268.510838845876,20714.38679705037
168,67135.87028455734,65511.0,[12],1,0.348112118575705,0.8825947505214868,NA,NA,NA,NA,0.2500859424053812,NA,NA,0.7854107797286681,0.32261632047209465,0.18479123252323992,1.3299121739493467,NA,61997.51490374647,25001.36706591232
168,18364.439507961273,16676.0,[14],1,1.5460285920397256,0.5604858159640314,2.5750713496647593,2.8998392337517296,NA,NA,NA,NA,NA,3.173403394326477,1.4210148892083123,0.5697070621247606,2.3211150973205124,NA,NA,NA
168,31263.187093257904,27257.0,[15],1,1.9767109266970555,0.30596829809607407,2.0740467297040275,2.694128611904342,NA,NA,NA,NA,NA,NA,0.651513225794131,0.3374369140240725,2.4623707049242145,NA,NA,38432.02570389981
