time_in_hour,cumulative_size,size,pcore_ids,pcore_power,AF700 CD48_[R 730_B-A],APCCy7 Ly6G_[R 780_A-A],BV421 CD117_[V 440_F-A],BV510 SCA-1_[V 525_E-A],BV605 CD11b_[V 610_D-A],BV650 CD150_[V 660_C-A],BV711 CD11c_[V 715_B-A],BV785 B220_[V 780_A-A],FITC Ly6C_[B 525_B-A],PE CD115_[YG 582_D-A],PECF594 CD135_[YG 610_C-A],PECy5 CD3-CD19-NK11_[YG 670_B-A],PECy7 CD16-32_[YG 780_A-A],PerCPCy5-5 CD45_[B 695_A-A],_FSC-A,_SSC-A
-1,0,0,[],0,0.0,0.0,0.0,0.0,0.0,0.0,0.0,0.0,0.0,0.0,0.0,0.0,0.0,0.0,0.0,0.0
0,120024,120024,"[1,2,8]",3,0.2925278219189569,0.12449529123341652,NA,0.5427511484369809,0.28181382080248607,NA,-0.023501726554684854,NA,NA,0.3658410238285631,0.16640279164165728,NA,0.6201076332983401,NA,70218.25768179714,13811.334799706727
0,138324,138324,"[3,4,9,11]",4,0.3186255419666868,NA,NA,0.7557756779300733,NA,NA,0.25490540498395164,0.6858384640409327,NA,NA,0.1594713347430674,0.17152651568057675,2.0481253033963704,NA,69127.56762383957,22116.62543014954
0,26575,26575,[6],1,0.3684396561053671,0.6315311748259469,NA,0.7324740487300065,0.9706965709501474,NA,0.23220868229537794,NA,NA,NA,0.32325885396050147,0.24819668357479197,0.8891974018438514,NA,64302.18114769501,17593.018400752557
24,249604.0,129580.0,"[1,2,8]",3,0.28093834533101814,0.1162646376820975,NA,0.5867662067594921,0.2485182170077489,NA,-0.02957159414512356,NA,NA,0.34463108955784827,0.15902344294560855,NA,0.5736353043420818,NA,71851.67160782684,14427.25187096348
24,305952.0,144625.0,"[3,4,5,9,11]",5,0.3832198685349377,NA,NA,0.803738525651073,NA,NA,NA,0.7560797988834707,NA,NA,0.16321836027873537,0.1746743080254436,2.0127455844576936,NA,69487.33249660034,23976.868319213543
24,60036.0,33461.0,[6],1,0.36972993237390206,0.5890730630121781,NA,0.7776058727763404,0.9497845661269921,NA,0.21683918818707193,0.7608098552868232,NA,0.5510160569658257,0.29580858939636334,0.2664236140982126,0.8435617304450816,NA,65167.222866280325,19350.0465054299
24,81221.0,40250.0,"[7,10]",2,1.7026134035655607,0.39130112490610625,NA,1.325185462737465,NA,NA,-0.11367253664691779,0.9377488279755051,NA,NA,0.6906937615517963,0.3134805917558283,2.3551110006156266,NA,NA,NA
48,136268.0,53105.0,"[0,6]",2,NA,0.559242294045526,NA,NA,NA,NA,NA,NA,NA,NA,0.3486459189024731,0.24957338136613327,NA,NA,NA,22969.95872838813
48,379474.0,129870.0,"[1,2,8]",3,0.27623088601592216,0.12201251196128826,NA,NA,0.24562676927273364,NA,NA,NA,NA,0.3351093691478172,0.15483037220994067,NA,0.5718649074508476,NA,NA,14732.442317523526
48,365570.0,104637.0,"[3,4,9,11]",4,NA,NA,NA,NA,NA,NA,NA,NA,NA,NA,0.13234809647399848,0.165168950313208,NA,NA,NA,NA
48,106724.0,32633.0,"[4,5]",2,NA,NA,NA,NA,NA,NA,NA,NA,NA,NA,NA,0.1202536332315105,2.2823458861737014,NA,NA,NA
48,124150.0,42929.0,"[7,10]",2,NA,0.3919963732339724,NA,NA,NA,NA,NA,NA,NA,NA,NA,0.2962979906886799,NA,NA,NA,NA
72,201298.0,65030.0,"[0,6]",2,0.42069899641824615,0.736371330882553,NA,0.868037491147458,1.051307140065945,NA,0.17559551160960973,0.792509372840271,NA,0.5322498252242928,0.32802117194408664,0.236796500933942,0.9117604076493672,NA,63866.50828125429,22744.986000854646
72,512828.0,133354.0,"[1,2,8]",3,0.27603772725165543,0.14797240417253965,NA,0.6326247259880744,0.2689624151489678,0.2575647544946804,-0.01807054764168914,NA,NA,0.3377577248687609,0.16005806907188225,0.9334970240158569,0.5928565647507654,NA,70952.20248504369,15522.341463414336
72,565918.0,138584.0,"[3,4,5,9,11]",5,0.41187038952994603,NA,NA,0.8678400322626096,NA,NA,0.10853400329376406,0.768001035305462,NA,0.6343399332942276,0.2021740473655118,0.17021487472566776,1.9889429589039396,NA,69887.28300566503,25253.833551857435
72,147182.0,23032.0,"[7,10]",2,1.716890965009301,0.419878479290932,NA,1.405126107397629,NA,NA,-0.08808287576607388,0.9213915412618174,NA,3.0557980640363853,0.6787240676645174,0.3001577379706727,2.371337438613434,NA,NA,NA
96,235839.0,34541.0,"[0,6]",2,0.4462048844508366,0.7452146973146703,NA,0.9184562835196841,1.0576293530204994,NA,0.2086103187173829,0.8536918913071965,NA,0.5523698234261541,0.3471276220769215,0.2605955458723993,0.9325748163832254,NA,64246.451519892704,22840.105800991434
96,614583.0,101755.0,"[1,2,8]",3,0.3055951290826737,0.15108215905580602,NA,0.6827332098382444,0.27607366183737847,0.25403301849384397,0.009008694457858457,NA,NA,0.35488088015612196,0.1716079825784278,0.9912273521770083,0.6092953015068928,NA,71122.20322397462,15325.238582908592
96,582446.0,100954.0,"[3,4,9,11]",4,0.38974732505676,NA,NA,0.936685769851608,NA,NA,0.3373926554478719,0.7941520720221349,NA,NA,0.1892705673538746,0.18042527352922277,2.015805268488412,NA,69714.30415866841,24950.033424557627
96,176614.0,40537.0,"[4,5]",2,0.7095576341739596,NA,NA,0.9850951721210937,NA,NA,NA,1.0092156506335805,NA,NA,0.2936590711551945,0.13765865082609896,2.315711088481113,NA,NA,27836.505282707058
96,177469.0,30287.0,"[7,10]",2,1.770013382021628,0.41776078700504904,NA,1.5112045358062396,NA,NA,-0.05168503521180012,0.9687461252049339,NA,NA,0.705965991919685,0.316174806726803,2.375416031509721,NA,NA,NA
120,275942.0,40103.0,"[0,6]",2,0.46565949336818213,0.7558081291829275,NA,0.9631222483529265,1.0626072886657285,NA,0.2405629826702267,NA,NA,0.567256820868166,0.36907508380746323,0.2711014160512003,0.9448129586507418,NA,63965.2933442534,22737.66771278033
120,707347.0,92764.0,"[1,2,8]",3,0.3086402668294601,0.1546546659192658,NA,0.7161854811019137,0.2822767261768373,NA,0.025244959558736735,NA,NA,0.36184339191229953,0.1818343848987638,NA,0.6089740661825181,NA,71073.61183690594,15136.54943330448
120,644782.0,125923.0,"[3,9,11]",3,0.3222319372330851,NA,NA,0.9948859016272209,NA,NA,NA,NA,NA,NA,0.17602601307879784,0.18684527009903773,2.062883649051932,NA,68596.3123288177,23230.83976909985
120,243181.0,66567.0,"[4,5]",2,0.7137309956164395,NA,NA,1.069015590099538,NA,NA,NA,1.0904882983950084,NA,NA,0.29613517643652587,0.13174907021930193,2.409209137239364,NA,NA,26562.090689650595
120,212112.0,34643.0,"[7,10]",2,1.819163565012784,0.4231817812665013,NA,1.6350317213170324,NA,NA,NA,1.0326931879761143,NA,NA,0.7337865474607592,0.3277073371897814,2.391101923832693,NA,NA,NA
144,303344.0,27402.0,"[0,6]",2,0.4960363650311388,0.7472218715715564,NA,1.0439565388799892,1.052570213025474,NA,0.2770177001028111,NA,NA,0.5979181469223159,0.3863798326157699,0.28884270895419184,0.9611845129160302,NA,63884.22026478162,22804.230813861464
144,809442.0,102095.0,"[1,2,8]",3,0.3216420187104396,0.14858243447585906,NA,0.8331138152468034,0.28664761682122997,NA,0.05446655549005053,NA,NA,0.37405859041535316,0.1889466320378541,NA,0.6259498545195333,NA,71068.27168345585,15028.974923465214
144,744356.0,99574.0,"[3,9,11]",3,0.3250662520071388,NA,NA,1.0801150007469666,NA,NA,NA,NA,3.9054498421091304,NA,0.16341355371349087,0.19993935474557445,2.103774735055525,NA,68329.42267409671,22725.52724771421
144,298321.0,55140.0,"[4,5]",2,0.7125470660831767,NA,NA,1.1744213640742016,NA,NA,NA,1.150891838871548,NA,NA,0.27971507520092764,0.15217716936789527,2.4254614160619075,NA,70767.20606326728,25560.03467405861
144,250246.0,38134.0,"[7,10]",2,1.838189945197869,0.41180529657617226,NA,1.7685054725590073,NA,NA,NA,1.0739797957369577,NA,NA,0.7556538901520948,0.35373751451771784,2.3753060661229384,NA,NA,NA
168,373193.0,69849.0,"[0,6]",2,0.48661822727384996,0.736562461495823,NA,NA,NA,NA,0.31382199077682404,NA,NA,0.6273909504063729,0.3891360835706794,0.2829189616096788,0.9842297489770627,NA,63516.0763251189,23040.60794280683
168,902434.0,92992.0,"[1,2,8]",3,0.3110072213369748,0.14789347135082043,NA,NA,0.2973440173730162,NA,0.07959864182310694,NA,NA,0.383685603078993,0.1940321658392703,NA,0.6373345831761664,NA,71083.24858327559,15126.221928694385
168,857350.0,112994.0,"[3,9,11]",3,0.32562398255675395,NA,NA,1.158122423442037,NA,NA,NA,NA,NA,NA,0.16703318789522026,0.20438166832097981,2.0858817180532614,NA,68229.62029509529,22818.376961566748
168,331098.0,32777.0,"[4,5]",2,0.7180556187865841,NA,NA,1.2288848873142668,NA,NA,NA,NA,NA,NA,0.28058145523988554,0.1520395199246084,2.4179806579230663,NA,NA,25603.277337826665
168,301634.0,51388.0,"[7,10]",2,1.8152750906230468,0.40744369764021515,NA,NA,NA,NA,NA,1.0845542021920243,NA,NA,0.7798097487915929,0.36884855468879985,2.3640174953453803,NA,NA,NA
