time_in_hour,cumulative_size,size,pcore_ids,pcore_power,AF700 CD48_[R 730_B-A],APCCy7 Ly6G_[R 780_A-A],BV421 CD117_[V 440_F-A],BV510 SCA-1_[V 525_E-A],BV605 CD11b_[V 610_D-A],BV650 CD150_[V 660_C-A],BV711 CD11c_[V 715_B-A],BV785 B220_[V 780_A-A],FITC Ly6C_[B 525_B-A],PE CD115_[YG 582_D-A],PECF594 CD135_[YG 610_C-A],PECy5 CD3-CD19-NK11_[YG 670_B-A],PECy7 CD16-32_[YG 780_A-A],PerCPCy5-5 CD45_[B 695_A-A],_FSC-A,_SSC-A
-1,0,0,[],0,0.0,0.0,0.0,0.0,0.0,0.0,0.0,0.0,0.0,0.0,0.0,0.0,0.0,0.0,0.0,0.0
0,158981,158981,"[0,4,6,7,12,14,16,17]",8,0.28669416915857937,1.9070090681779597,2.040450442052822,0.6628748817405854,2.7638525917814003,0.3165615278681093,0.14914866768985124,0.6222330388474124,3.909109313785931,0.5323232513130521,0.128251700580571,0.11203792239953181,2.0835417664123406,1.5486335747542146,66552.63066655755,18979.42843484437
0,116421,116421,"[1,2,15]",3,0.36059361501790765,0.16836223122976923,0.7106185530874716,0.5065295392755536,0.29983891147646613,0.23964816551997248,0.051734105754140725,2.0644734453749782,0.7894083798970976,0.3891192035886921,0.20244370751839247,0.771826706169845,0.5662196243890784,0.8659341625308152,68750.76572096063,14799.45947896003
0,106156,106156,"[2,9]",2,0.25615610720072124,0.11157506139079265,0.17121247979385723,0.523842083772935,0.2548052909680183,0.2153358454161871,-0.021624360573085255,3.034977802187356,0.6887065356739105,0.3335382512717048,0.15315714359054633,1.1744567433117272,0.629271460143569,1.1944336876672028,70418.30121707643,13454.469271638076
0,16674,16674,[18],1,1.9235694340289984,0.28183222963896304,1.3313132813362127,0.7758548919875246,2.0916470477389804,-0.045053755127736794,0.293519968633817,0.7718076434568695,5.798341632961508,3.1784876088520977,0.3408134002638641,0.16885279015233046,2.4341824547798985,1.9634809366678547,71498.45939786494,22862.055895406054
24,166297.625,146425.0,"[0,4,6,7,12,14,16,17]",8,0.3395480204625594,1.6912254923213723,2.1137261192876333,0.7262740331423871,2.6561003437165644,0.3403083160072182,0.15966651857626646,0.6977083457783926,3.9741518074108044,0.5635165978535474,0.10263973815771621,0.12166302567835818,1.9357085785305133,1.4686659736270986,65982.1035928806,22040.879874261514
24,136701.625,122149.0,"[1,2,15]",3,0.3532575977114438,0.1542989038078466,0.7849231861225139,0.5634299619298586,0.2546769949159309,0.2688205463962221,0.029873106093298407,1.9091722455457072,0.7981149231144878,0.35604817163018243,0.18657320947814027,0.6936623180366432,0.5051453001848013,0.824102284051121,71590.61724394267,16400.558632715525
24,36212.25,31590.0,"[8,10,18]",3,1.855533194547421,0.4102633539340972,2.171936144654087,1.2100407077784454,1.7812246942609127,0.7339830941014429,-0.09805681682994027,1.0616278182003382,5.534944297879179,3.1915300337006074,0.5508142454694318,0.2580880630967408,2.4102510159338215,1.900707483444821,78951.49580597715,43227.43248486345
24,122041.5,108772.0,"[2,9]",2,0.22087693406342424,0.09621927564907073,0.1622777062116132,0.599515456231074,0.18494973415189575,0.24705830967130926,-0.042397149999170214,3.053848235289821,0.6664513160451567,0.28660539256113593,0.1368779084481635,1.1561460605808291,0.5470358624023345,1.1931655347607109,73118.71296239406,14235.762359525113
48,173100.65625,151501.0,"[0,4,5,6,7,12,14,16,17]",9,0.31189900618579447,1.5880762032823763,1.9071610828784462,0.7081827539926682,2.4383220559338628,0.3331851286292793,0.17080304552968473,0.7373684637161118,3.88876578988716,0.4047588024900951,0.12710024798009023,0.10050874254412401,1.8543539884388087,1.3007336756218966,63600.86037513224,21278.586400506454
48,139078.703125,121991.0,"[1,2,15]",3,0.3248912625086289,0.16817483642884534,0.7286994799793578,0.5318017238103816,0.2531869108474716,0.2730230370827684,0.010577097120486822,1.8984315967706111,0.8378925656581367,0.33137719844563795,0.17684769239279374,0.62102426718764,0.5158719209875168,0.7530870323356806,67948.76254710593,16958.412754828536
48,41037.53125,36511.0,"[8,10,18]",3,1.8910479256846429,0.36275037607952587,1.902734667226866,1.1017478768421638,1.786362857532843,0.7064666721983166,-0.0937121341736673,0.8782189337706088,5.47237784003781,3.0719770376991065,0.5189229375015763,0.22157524524235062,2.4680782446914105,1.8682213120683697,76445.23238712116,40877.728871665495
48,116039.1875,100784.0,"[2,9]",2,0.22957835270573734,0.11133771695138206,0.16596001758740897,0.543694132216781,0.20289184789029724,0.2487831188534535,-0.020128883112886076,3.0056053669360177,0.689213375644247,0.28382456880810936,0.12475101189400162,1.0269810490145694,0.5968176756078306,1.0656193715361397,69720.51130571788,14840.375885948186
72,226535.30859375,199174.0,"[0,1,4,5,6,7,12,14,16,17]",10,0.34792839841935885,1.3603618566527995,1.6281762716918933,0.9365286056354227,2.0043681331909258,0.3149240132843496,0.13686750629011968,0.7840484695780603,3.1325213628133053,0.4968882286355093,0.2698127717802947,0.15675586306361844,1.5120932239108753,1.223286452296055,67270.14735406448,23357.812998763544
72,166184.791015625,145138.0,"[1,2,15,9]",4,0.26583611170893784,0.20589551733781208,0.4273897895810834,0.7318855421965562,0.2944827480710721,0.25663893334838317,-0.03073198402539301,2.457004178351001,0.779403351360136,0.3246093222311852,0.17664609866356562,0.7817086761177621,0.6068003902482407,1.0307754089145493,70002.21198810637,17661.053113302118
72,35066.69140625,29937.0,"[8,10,18]",3,1.7768804576494979,0.4759875992981195,1.4514340764346008,1.7790491188618929,1.7206623452070722,0.6582075120455673,-0.11828384506765266,0.9243428820773163,5.270105063743112,2.919486914389521,0.6220433466420467,0.2523270679531616,2.3502836157521485,1.9759729617417146,81501.55629212313,43925.74060253266
96,179896.54711914062,152247.0,"[0,1,4,6,7,12,14,16,17]",9,0.38791029620601414,1.8970770694897627,2.030854035192743,1.0263366264697598,2.6251134503339837,0.3395456266920174,0.4187231984673456,0.9055837869242587,3.3318705239042457,0.5731948148212683,0.21486441333233852,0.15777254805614394,2.010560629101109,1.6338197961875505,67499.88776034518,20943.665936451325
96,134665.09887695312,113892.0,"[1,2,15,9]",4,0.43298420607013055,0.18514282465840237,0.5372685768127412,0.8993609572686929,0.29732269326754013,0.25348933452544054,0.10965541715190552,2.7800800065357283,0.7635228562285575,0.43135532075883887,0.24712928997418349,1.1522163445091522,0.6642540228774091,1.2272176552093856,71525.81846047124,15870.183710677005
96,34792.33642578125,30409.0,"[8,10,18]",3,2.0523692214978793,0.42117285677213623,1.6781337147163211,1.9034929584345792,1.8045881516796278,0.5785199261397405,0.12836427377794823,1.1286831599450227,5.4635261672378705,2.936386568414862,0.7103678660521613,0.2957043598988127,2.4929705118214325,2.209559352662382,78034.77096873822,38601.90733891887
120,246236.06838989258,223749.0,"[0,1,4,6,7,12,14,16,17]",9,0.3348373263269395,2.096983170365289,2.1860074907992693,1.0997871264159436,2.859256084255225,0.3550009039394706,0.4945379864031598,0.9832787780788226,3.422735579301094,0.4718503651124215,0.20759877127431015,0.14169234117619756,2.1661799893590192,1.8070831214745524,65523.236566748354,19463.894333543318
120,125286.13735961914,108453.0,"[1,2,15,9]",4,0.381635939577901,0.2105632126553778,0.700098189768013,0.9549180217056161,0.3400547164576846,0.2614119285221228,0.1354357836848239,2.5626155335699936,0.7990977507889202,0.4390817236565704,0.2837217423878844,1.085118573062005,0.6261265669529527,1.2489187759548686,70209.54713972565,15537.793784291724
120,40273.042053222656,35924.0,"[8,10,18]",3,2.1257774922960797,0.44690790556601945,1.8046080203274921,2.15969724142766,1.9573831649276747,0.5219981533956837,0.21385229011033058,1.3461237887051363,5.494828055048583,2.962546193577329,0.721117655014472,0.3118030078265821,2.557668223776825,2.3446613694846112,74015.14453805989,35519.5602175052
144,91637.70339202881,78094.0,"[1,2,4]",3,0.47582269510925856,0.22323410781047315,0.7848064442785261,1.0282479989931024,0.33865266802976857,0.2498384231202726,0.22855302808123623,2.4794623578125714,0.9666194826685307,0.4480751610724104,0.2817540712180233,0.9812090247590077,0.6953608141370363,1.036672393745166,68418.41011066051,15551.233793941567
144,146381.11055755615,124993.0,"[6,12,14,16,17]",5,0.26824580071536097,2.6927307188843415,2.2344623143884754,1.2867003440850797,3.459968639834853,0.3802358448471854,0.6927664257087982,1.0138727809827577,3.672785830565046,0.5129352752517314,0.05502358448485767,0.1455078829169707,2.58613326031825,2.129139237729565,65835.66504840349,18062.295645007427
144,38268.13025665283,33234.0,"[8,10,18]",3,2.1952991987706136,0.345338237162752,1.849150768117989,2.4450483432493937,2.0757495206501573,0.4778476783758496,0.5371522327126352,1.1829014256595647,5.499648321214657,3.3766520198189007,0.653627398411146,0.34932682399582726,2.4697542066969276,2.459097802076901,71085.64803990275,33038.4587988629
144,101944.87903213501,90338.0,"[2,9,15]",3,0.4073303784620885,0.08285312864007377,0.2679963123097968,1.6631490891727805,0.29529514226402753,0.2626480319960669,0.2104044879197131,3.4866565240520506,0.8437752972817895,0.448278792953152,0.22565324238975215,1.6562813956076536,0.7464327723630712,1.7342171868331098,72003.0464598244,14177.163882220257
168,231440.93856859207,206997.0,"[0,1,4,6,7,12,14,16,17]",9,0.33059132803643543,1.5483915007187377,1.8531195481092353,1.403790457888784,2.4164513516136075,0.3459728090249712,0.4769620094952747,0.8378389842863307,3.2290811140529043,0.6447370530073219,0.1995571196880328,0.16350793380586282,1.7826507950927866,1.4049964739469205,64667.217027683335,22205.01351894909
168,116559.47089624405,100880.0,"[1,2,15,9]",4,0.2619381032439194,0.1638606960336224,0.5674802200341,1.7051301711924753,0.40687720897775037,0.31806043532387074,0.2555601928605804,2.733817005722461,1.0926569955468208,0.47110418441973767,0.2503142151425446,1.1542059412213699,0.7223878182221978,1.4206450965089499,70719.85390784331,16638.86503976316
168,57431.19281864166,51248.0,"[8,10,11,18]",4,1.8203341930153882,0.4106457352194508,2.2669334856567542,2.7913358539043718,2.1833779146174686,0.8438951323536454,0.48334871105218236,1.066175321404427,5.057497470445314,3.1678727845182304,0.9174887959383753,0.4131669488792522,2.433231069155271,2.3668688591580356,86893.07317069959,53921.796216909774
