time_in_hour,cumulative_size,size,pcore_ids,pcore_power,AF700 CD48_[R 730_B-A],APCCy7 Ly6G_[R 780_A-A],BV421 CD117_[V 440_F-A],BV510 SCA-1_[V 525_E-A],BV605 CD11b_[V 610_D-A],BV650 CD150_[V 660_C-A],BV711 CD11c_[V 715_B-A],BV785 B220_[V 780_A-A],FITC Ly6C_[B 525_B-A],PE CD115_[YG 582_D-A],PECF594 CD135_[YG 610_C-A],PECy5 CD3-CD19-NK11_[YG 670_B-A],PECy7 CD16-32_[YG 780_A-A],PerCPCy5-5 CD45_[B 695_A-A],_FSC-A,_SSC-A
-1,0,0,[],0,0.0,0.0,0.0,0.0,0.0,0.0,0.0,0.0,0.0,0.0,0.0,0.0,0.0,0.0,0.0,0.0
0,133248,133248,"[0,1,10,11,15]",5,0.30782327489343664,0.16403712569044027,NA,0.5513396362797249,0.33458725318952975,0.23506561432816508,0.004388215710551702,NA,NA,0.38306241552593634,0.18163977583904023,0.9562384410122473,0.6343543006048887,NA,69357.10710854937,14140.244956772243
0,184466,184466,"[3,4,6,7,8,9,13,14]",8,0.39278714512159363,NA,NA,0.7716181938677034,NA,NA,0.14304756895579018,0.7541566750458051,NA,NA,0.20795571213122122,0.1895141443138595,1.95095292948836,NA,68652.57788427125,22142.22015981267
0,26789,26789,[12],1,1.9082068423606355,0.31677539217589334,NA,0.8998040584941429,1.704570944044209,NA,0.01721522945985665,0.8023360578595478,NA,3.1199317893911576,0.45861170088469194,0.20570412923214754,2.397705492776902,NA,74761.1022434581,29193.29336668026
24,163629.0,146973.0,"[0,1,10,11,15]",5,0.2951068731681099,0.15326491864828995,NA,0.6369954626311665,0.2871229649030762,0.2738550738637451,-0.0037537936131513128,NA,NA,0.35704782445044014,0.17376754627464974,0.9142881348935659,0.5652156802331806,NA,71992.3558293455,15635.20001955635
24,193598.25,170540.0,"[3,4,6,7,8,9,13,14]",8,0.44195641097995364,1.4791301806608508,2.0700377320727337,0.8596929891657155,NA,NA,0.1523491848396037,0.823893650647022,NA,0.7073035529698756,0.18587339621225762,0.19913946292451057,1.816952035312175,NA,69109.8900739029,25815.204011399936
24,16229.25,14653.0,[5],1,1.3025619388912009,0.5567565159511383,2.7849936891261415,2.0789739686291733,NA,NA,-0.532698896059594,1.0851592407535788,NA,3.1012362767456882,1.2117003335643943,0.49294545207726714,2.23299684061187,2.3548414067963748,109867.13101344799,NA
24,27046.625,23698.0,[12],1,1.9203818318736545,0.40034476714285727,2.0329068980833847,1.0658859822390063,1.6618286256233623,NA,0.04849640414468359,1.0581806514028673,5.744423319642494,NA,0.45375772185531504,0.25162808427114725,2.3906611335702843,1.8241205870556814,76208.27337976577,38377.478299048176
48,134691.390625,118196.0,"[0,10,11,15]",4,0.24293611824228778,0.1253441495540364,NA,0.5677240748398242,0.22345506610319754,NA,0.004218586096406796,NA,NA,0.29546785250182384,0.13766206241453638,NA,0.5689134030366224,NA,69738.20297951967,15002.734693162547
48,32175.234375,28217.0,[1],1,0.32353410282217987,0.40165448810493354,NA,0.7383535421065837,0.595849291039535,NA,0.11038889485362624,NA,NA,0.4646127648579579,0.29047822408442237,0.20865949835155106,0.5769237645656257,NA,NA,20031.537035229267
48,90599.109375,81438.0,"[3,6,14]",3,0.33054014085575467,NA,NA,0.6536120512273911,NA,NA,NA,NA,NA,0.5131594569174319,0.19314645930897978,0.11685525378595008,NA,NA,63186.492985323835,20734.04032289906
48,14094.65625,12066.0,[5],1,1.2802429076866548,0.5581784824878127,2.6555728898784614,2.0277520575960684,NA,NA,NA,NA,NA,NA,1.182944522454211,0.43191220128306396,2.3000230616435067,NA,NA,NA
48,17160.96875,13872.0,[7],1,0.7075782612377988,NA,NA,0.7431802687758,NA,NA,NA,NA,NA,NA,0.16357437325436042,0.04337888922627742,2.514967219077261,NA,NA,24631.73723802723
48,57541.140625,48210.0,"[6,8]",2,0.0883785959651584,NA,NA,0.6757315978928782,NA,NA,NA,NA,NA,NA,0.026156446407228806,0.11842321082633345,2.1477456612931545,NA,65546.7337114505,20667.4206156302
48,15903.40625,13985.0,[9],1,0.8385572812251343,0.7514397316170611,NA,0.9194397617747181,NA,NA,NA,NA,NA,NA,0.16827555321187093,0.13558245146872827,2.357017802956901,NA,NA,35338.15807541239
48,28392.828125,25012.0,[12],1,2.066897755995827,0.3119253906466213,NA,NA,NA,NA,NA,NA,NA,NA,0.36888257241844347,0.1834667731728039,2.586829829996684,NA,NA,31595.67951633908
72,180235.328125,159377.0,"[0,1,10,11,15]",5,0.27967111918954113,0.3300556783494595,NA,0.7572660756407701,0.48670737052470514,0.26005926223167086,0.0005433255623761291,NA,NA,0.3682877433975431,0.19487182780891477,0.7000454038275548,0.7047978328122352,NA,69443.88026105813,18398.048192029593
72,212075.08984375,189487.0,"[1,3,6,8,9,14]",6,0.3662628685460445,1.3512152156572297,NA,0.9822379086498434,NA,NA,0.136913972877438,0.8728301976293484,NA,0.5835441520681363,0.2912725707450634,0.21554500560891798,1.5533625831380613,NA,69632.53137428881,25584.478303168755
72,23051.103515625,19502.0,[12],1,1.8665948599847428,0.4474150325413251,1.306612756061905,1.6689877978085335,1.6846421996015386,NA,0.010982399344355187,0.9025834728084279,NA,NA,0.48559840439029944,0.24217299453294538,2.347489932630994,1.9245646998555779,77704.3096021792,36782.738174563536
96,118381.67797851562,100739.0,"[0,10,11,15]",4,0.4400875865810914,0.18629969809738123,NA,0.8998554020454979,0.3388897573730656,0.23700793148219357,0.133725537204187,NA,NA,0.435491331374095,0.22659826530208482,1.1945286083243871,0.7085560626607347,NA,71384.39223957047,15042.665388706102
96,45124.96435546875,34635.0,"[1,3,13]",3,0.5368478326274597,0.8801156638738163,NA,1.1284446842553546,NA,NA,0.31373281871455383,NA,NA,0.6735723173709521,0.4134446918348491,0.3225023393295443,1.1391598090292878,NA,66842.47897624839,23544.232467894817
96,159097.78833007812,136069.0,"[3,6,14,7,8,9]",6,0.47211568883266297,NA,NA,1.1845720455823097,NA,NA,NA,1.0705797201965837,NA,0.7117781265653528,0.23995475191020832,0.19610236009169535,2.2472592071454756,NA,69791.70675135456,23530.53486110119
96,24759.387939453125,21878.0,[12],1,2.085731529498606,0.3966373280595472,NA,1.9034880137970398,NA,NA,0.31316780047141934,1.218298339589973,NA,2.755021361083225,0.6416936480691948,0.2915717768291448,2.3949375721999555,NA,74633.97694038753,33427.788287020456
120,104402.70974731445,89605.0,"[0,10,11,15]",4,0.369371239318965,0.18512227465392384,NA,0.9433616957298967,0.36175399681056897,0.23502718596358907,0.16448797574235652,NA,NA,0.43029634432741226,0.2532992195144197,NA,0.6504150401872121,NA,70360.58062696562,14368.594453906257
120,48337.620544433594,42697.0,"[1,3,13]",3,0.5730851158982562,0.8375485285815771,NA,1.1913783085026046,NA,NA,0.3637252001997684,NA,NA,0.6627793756640262,0.4693571603487534,0.32583790526825607,1.1019105912596974,NA,63930.617381416756,22197.585840515454
120,101711.95770263672,93535.0,"[7,9,14]",3,0.6370966687491362,NA,2.285739016808575,1.306516691186268,NA,NA,NA,1.2342073074890503,NA,0.6998155284662096,0.3284090831971267,0.16134694324350207,2.5488773188509177,NA,69161.910251065,23823.426720254087
120,94899.30267333984,87219.0,[8],1,0.16602351598933018,NA,2.207901790283358,1.247202309596744,NA,NA,1.1283771946570655,1.057341876985089,3.880581905721091,0.47043404803954303,0.07998153783096651,0.18167863591051292,2.4955284248109195,NA,66478.38830537266,19442.87774999475
120,26951.92349243164,23857.0,[12],1,2.150275665030919,0.3828948066910569,1.7229400330007079,2.141267661236425,NA,NA,NA,1.3661119748773327,NA,NA,0.6839823703688528,0.3033480203791199,2.4715929987266096,2.2540989663842472,72017.46595605556,33022.68320550321
144,107017.07486343384,94582.0,"[0,10,11]",3,0.4012808997859565,0.11484432107018083,NA,NA,0.33003587630320785,NA,0.246974882954885,NA,NA,0.45629214085571124,0.23930471857747193,NA,0.7398690532536233,NA,70767.02048877144,14194.78773473519
144,27838.2025680542,21796.0,"[1,3,13]",3,0.7657021780369935,0.7172083665407811,NA,1.6420323874866294,NA,NA,0.5520412929730125,NA,NA,0.8741577642522181,0.5491706647805428,0.4373256474163273,1.1834708128779279,NA,63826.279881958624,23586.35980771443
144,86217.99471282959,73504.0,"[7,9,14]",3,0.6238755940705483,NA,2.1708679496898413,1.4948597303178426,NA,NA,NA,1.2527229641990512,NA,NA,0.24176806443760546,0.2128340364844783,2.5109109404432597,2.1721101346437237,68209.20116327083,22120.21172279728
144,85201.41283416748,73339.0,[8],1,0.22085377157383612,NA,2.139771871089611,1.4889592333296107,3.301186535122208,-0.5320801822744129,1.2397691653221345,1.0394362988794428,3.769277396743752,NA,0.023113524451711775,0.22918479784278234,2.4582077949946513,2.1768565313225783,66150.84716492199,18992.504052770528
144,27704.990436553955,24336.0,[12],1,2.091682919730756,0.31762309823208534,1.809115042927615,2.4283923785456696,NA,NA,0.6554060020405479,1.2234269415557222,NA,NA,0.713270083445734,0.3810246552071217,2.3339074913900753,NA,73210.70442943259,36141.175727950555
168,91872.13435792923,78495.0,"[0,10,11]",3,0.25988421641198634,0.14910196613952076,NA,NA,0.39997092912943577,NA,0.2849044198140378,NA,NA,0.4684202689145396,0.2441751447669671,NA,0.742650920950971,NA,70628.55193837805,15945.238422376957
168,130748.0984454155,126439.0,"[1,3,6,13,14]",5,0.46558960623008283,0.8430251324547462,NA,1.7040643678872933,NA,NA,0.38040991527415935,NA,NA,0.8759038692927444,0.39234664544996267,0.26750544401973786,1.380708306210114,NA,64618.31901460669,26816.29638960105
168,44089.4816737175,39026.0,"[5,12]",2,1.7987870488457716,0.3679269554105682,2.150810307001549,2.7506033595573416,NA,NA,NA,NA,NA,3.0352638862274053,0.8537097017888806,0.42481227613694306,2.3684622245441944,NA,NA,NA
168,55926.93629074097,45485.0,"[7,9]",2,0.6472076234345481,NA,2.1940626521225233,1.620652175161994,NA,NA,NA,NA,NA,NA,0.2865679225401827,0.20140282019756073,2.3889771035916514,NA,70853.91252609447,25525.21822016985
168,60721.176604270935,50071.0,[8],1,0.23355262269379118,NA,2.1544994197914504,1.6055083981304552,3.210822398243512,NA,1.226048744499673,NA,NA,0.6859927167642642,0.05505049596027245,0.23303713105330282,2.3050558825772844,NA,68657.4890338234,22008.953005455252
