time_in_hour,cumulative_size,size,pcore_ids,pcore_power,AF700 CD48_[R 730_B-A],APCCy7 Ly6G_[R 780_A-A],BV421 CD117_[V 440_F-A],BV510 SCA-1_[V 525_E-A],BV605 CD11b_[V 610_D-A],BV650 CD150_[V 660_C-A],BV711 CD11c_[V 715_B-A],BV785 B220_[V 780_A-A],FITC Ly6C_[B 525_B-A],PE CD115_[YG 582_D-A],PECF594 CD135_[YG 610_C-A],PECy5 CD3-CD19-NK11_[YG 670_B-A],PECy7 CD16-32_[YG 780_A-A],PerCPCy5-5 CD45_[B 695_A-A],_FSC-A,_SSC-A
-1,0,0,[],0,0.0,0.0,0.0,0.0,0.0,0.0,0.0,0.0,0.0,0.0,0.0,0.0,0.0,0.0,0.0,0.0
0,168115,168115,"[0,4,5,6,7,12,13,16,17]",9,0.1713924390072543,0.400846983704503,0.5034322762572072,0.3037328610306841,0.5076595476799839,0.23788352076954591,0.26870816510871853,0.3160193911970604,0.565662373998511,0.13199833610646253,0.24599267321615964,0.09319401374524652,0.32772385132217935,0.36004053589449597,0.1884362494579709,0.07361046030277285
0,121583,121583,"[1,2,9,14]",4,0.17700307770091742,0.23738405235456975,0.36483970337485316,0.2836397671841269,0.26189153832404544,0.2286372108183761,0.2559642489056764,0.45551771743330205,0.17295876050759354,0.11064233860996238,0.2520284435552852,0.18793283467639157,0.1423712037169166,0.2338669782010598,0.1961504784902667,0.055198317326626695
0,106755,106755,"[2,9,15]",3,0.16711432232018278,0.23145321413066275,0.3030177815966096,0.2869601172880283,0.2568844166776492,0.22364400869158804,0.25026803413724347,0.5368978912827042,0.15920993985726786,0.10231454705548411,0.2467412294911259,0.24388721039097264,0.147853337372699,0.3017682710425501,0.2020421550075582,0.04961218465795248
0,15997,15997,[18],1,0.3425430647944418,0.24941154369944582,0.4472095139258296,0.3202153513851986,0.44502514216770594,0.16498387778802248,0.2876845641484603,0.3251499968194097,0.7977117999663266,0.4424020944225873,0.2705377893188632,0.10187376138462902,0.3784038961142412,0.44282425816374055,0.21662576426731237,0.09779055656060213
24,340659.0,165275.0,"[0,4,5,6,7,12,13,14,16,17]",10,0.1786491277114318,0.3826075092330464,0.5174928668550108,0.31128936029998877,0.49034321097043915,0.24252688028611966,0.2694400373600512,0.3221122424997514,0.5561523858766504,0.13605569697646192,0.24732108452607174,0.09537519439416177,0.3102492476045891,0.34820506724407496,0.187999334739096,0.08323408646473877
24,233765.0,119451.0,"[1,2,9]",3,0.17075448461828377,0.23548556945364255,0.34512679644527994,0.2828051547165642,0.257553632754539,0.2272912024513759,0.25362100124981113,0.4556567442100577,0.16694196796211364,0.10322230011949317,0.24783591611252812,0.1877209653091984,0.13524216448596582,0.22936162698169557,0.2044494092914529,0.053827434411943195
24,67081.0,30529.0,"[8,10,18]",3,0.33313494961947127,0.25776957718856386,0.5017714586385154,0.3536876337029372,0.4206348341777819,0.28485469886512715,0.2523665204105479,0.34156890780764726,0.7645509330143003,0.4436139222044232,0.2908127337315076,0.1115010072258894,0.3747966555743733,0.43414320404294354,0.24387400974967152,0.1515788612630785
24,19835.0,11896.0,[11],1,0.2911023517955972,0.2796337328584178,0.6159570830082899,0.4805415772621088,0.4547801892959098,0.4660961136146184,0.16516896433453412,0.3577984777821087,0.6324136828170698,0.47335613863891046,0.3915302093014035,0.15049510803632116,0.3813422987454153,0.5347089493566588,0.4526688261048021,0.4567035832296481
24,216774.0,110019.0,"[2,9,15]",3,0.16619163758408187,0.23062463366061656,0.30550348631573776,0.2926653672021896,0.2541063382283152,0.22695205704323784,0.2499379739748925,0.5357505682745778,0.15793556597501704,0.10111114872350843,0.246075203773722,0.24258119628518499,0.14281133831812043,0.3051398012881891,0.2091348030736944,0.05200914475683534
48,497981.0,157322.0,"[0,4,5,6,7,12,13,14,16,17]",10,0.1779389261669264,0.3791952688238666,0.514146475272711,0.30925406503765274,0.485073899655031,0.242389093819138,0.26869450874971146,0.3216125212224272,0.555431401690381,0.12856307720484073,0.24691552631138647,0.09324889045911279,0.30735437655530623,0.3343590756007109,0.1832005094291834,0.08301084174491508
48,357987.0,124222.0,"[1,2,9]",3,0.16918165389239584,0.23609866600167054,0.3439255178663077,0.2824861765276893,0.2578215409913443,0.2276668438463941,0.25354612289870904,0.4510989465049916,0.1703288658198436,0.1019716856340574,0.24711478588861027,0.18082710844493957,0.13471598538357413,0.22274044470948337,0.19956213451191843,0.055522340655515784
48,16084.0,5077.0,[3],1,0.2548394489992285,0.24221530287770482,0.37976813496572276,0.3550477725690813,0.24754043549462762,0.26171450671156177,0.22451174758681877,0.3157051625542057,0.6629224631322392,0.120920743831251,0.257548730212026,0.23214029580193932,0.12663049003293014,0.5527497688502753,0.24796559468391038,0.07247091415536665
48,103624.0,36543.0,"[8,10,18]",3,0.3349347934011867,0.2578799957376522,0.4971406568864132,0.35267331492304127,0.42320222991270046,0.28438612543156944,0.2551286984839934,0.33752997943567287,0.7614305858073328,0.43964678160311116,0.28981909624896507,0.11062467574487321,0.378925203662946,0.4326551922729457,0.24070221108834436,0.15422830986617317
48,47187.0,12996.0,"[10,11]",2,0.2737793842626053,0.2782287783065497,0.5889967004628267,0.4620384629711543,0.45447564111119715,0.4250349837085889,0.1980548502490031,0.3522227496531587,0.6131797302378555,0.4448583797991985,0.3708309158486506,0.14455173326509602,0.36567555565057014,0.5224459123313738,0.3926416992965757,0.3637359635783166
48,315669.0,98895.0,"[2,9,15]",3,0.16597552167344437,0.2307834394626448,0.3041947062588978,0.2921469873734268,0.25328764126236836,0.22746478913380294,0.2500451211975925,0.5369737280836414,0.15779145331964847,0.09978561467766109,0.2452142986063351,0.2377604844210728,0.1438034216265092,0.2976743434946934,0.2062117987634292,0.053076575286664485
72,700296.0,186231.0,"[0,3,4,5,6,7,12,13,14,16,17]",11,0.18130985044528797,0.3713805100263247,0.496308494810191,0.3188077760275538,0.4711877835510443,0.242349382775686,0.2661210283003698,0.32426323747494384,0.5453497479717236,0.13095421640724764,0.25157151774156783,0.09913879698495641,0.2957849163932563,0.3390554554800127,0.1901536236287957,0.08734078461558381
72,480503.0,122516.0,"[1,2,9]",3,0.16826478025940672,0.23854110241619914,0.34128056845863375,0.28631947929756424,0.25999484638903253,0.22791909692004791,0.2527194209133587,0.45404712117602514,0.17121405204877602,0.10155158945666753,0.24739982085979936,0.17720664435731198,0.13741923179484325,0.22414022225101024,0.19937658134735456,0.05813615554058617
72,126778.0,23154.0,"[8,10,18]",3,0.33431535095343623,0.26027832268789536,0.4865078125488136,0.3667201735123426,0.42021040157351847,0.28272964277816576,0.25426822337346167,0.3379518161913574,0.7560131107296755,0.4332795611348942,0.290615335286093,0.11097715594117707,0.3764179634190785,0.434568638498607,0.24413117760302153,0.15626888683685744
72,59466.0,12279.0,"[10,11]",2,0.27608181348864475,0.28154571276358153,0.5801401474214222,0.46567344461856863,0.45252610940860966,0.4259915546724497,0.1972750195720414,0.35382448255170595,0.617622604477724,0.4330683082313953,0.37202991830075316,0.1436875297022255,0.3665635358618807,0.5207238836607143,0.3963279564615255,0.36465598323493326
72,428280.0,112611.0,"[2,9,15]",3,0.16534884044769552,0.23317912475307942,0.3029898431737597,0.2964593497266016,0.2553253695648805,0.22700351501153082,0.24963265993570066,0.5311452975566894,0.1573614172022784,0.09986670274484748,0.24552651742320444,0.2275672267624656,0.14569816975241814,0.2945703893683793,0.20605227597646047,0.05560634661715105
96,853660.0,153364.0,"[0,3,4,5,6,7,12,13,14,16,17]",11,0.18326355332964447,0.3795141871066552,0.4994803903312997,0.32607794717388056,0.47950869654783107,0.2428462981373023,0.2731642301428285,0.3296062049578793,0.5445899295370763,0.13282343542612932,0.2522282292757084,0.09987855976349405,0.3044174774988411,0.35407632391034,0.19058417753393825,0.08618980616978936
96,565389.0,84886.0,"[1,2,9]",3,0.17099162813576596,0.23883934205408783,0.342153300833502,0.2895297685071863,0.2602935386874327,0.22748905292033458,0.2547095221455936,0.46026550405719896,0.1702192331788198,0.1031267223780228,0.24851423805085016,0.18425034791721334,0.13920410298099714,0.2288780090448931,0.2004990827204516,0.05763869021528993
96,152088.0,25310.0,"[8,10,18]",3,0.3405370957898104,0.26037863196784833,0.4827094932889025,0.3779245206181528,0.41966952111873734,0.2796924153517942,0.26012498371790105,0.3427610288869878,0.7584522952884122,0.4305388677765123,0.29294697791435426,0.11225113681497503,0.3779718142664612,0.44432077014430593,0.24139528452418504,0.1522979115851735
96,70032.0,10566.0,"[10,11]",2,0.28118224200210773,0.28253645462331173,0.5798505637465052,0.4712839037829349,0.4540295413703267,0.4279297079841259,0.20370187422250585,0.3581381070833128,0.6196356327265097,0.4329398575145147,0.37621030226421986,0.14715910967292653,0.371382170408878,0.5306352824543209,0.3979802745644932,0.36383133787956207
96,520128.0,91848.0,"[2,9,15]",3,0.16910188605476015,0.23352448402477227,0.30402622314324207,0.30216715228958313,0.2562131739578573,0.22638730243303362,0.2526652930744877,0.5376260999581332,0.15723430766557486,0.10227493061013003,0.24692783300850782,0.23662271726487624,0.14786011031595364,0.30180101846790397,0.20691609246325307,0.05499028263925863
120,1072890.0,219230.0,"[0,3,4,5,6,7,12,13,14,16,17]",11,0.18361224746036678,0.3907825053839975,0.5061301584517083,0.3339712707344801,0.49268728587231253,0.24365344187294946,0.2801066380871794,0.33502146871664173,0.5458607473569242,0.13169889689753855,0.2526887413890517,0.0995249356240396,0.3162540367360475,0.37340940285248136,0.18890410938125474,0.08410985322879835
120,649130.0,83741.0,"[1,2,9]",3,0.17164389129641985,0.23954808871440442,0.3446693887287789,0.29237103760469846,0.2609141175843217,0.22722504095729978,0.2562435456565049,0.4610838753534997,0.1701741215376495,0.10409503278161496,0.24980965525963555,0.18644406756175427,0.1393241830293921,0.23205795456583106,0.2004665308975923,0.05724509807861704
120,181730.0,29642.0,"[8,10,18]",3,0.34571648517355,0.2608943524473291,0.4830653727358443,0.3918582191844688,0.4208261211760474,0.2778782337982689,0.2636990351433291,0.3490323654672578,0.7588554925501871,0.4298493390191515,0.2957012731405737,0.11384630273726334,0.38045694824742743,0.45547456513121004,0.2379425306274936,0.14946418279265136
120,82612.0,12580.0,"[10,11]",2,0.2880490035804407,0.28534709988266876,0.5814271410834239,0.4770601103426041,0.4589284848453417,0.42933360441896157,0.20982026791337394,0.36126295409459624,0.6201839957022528,0.43189949041288284,0.3796012510322424,0.15003227851491702,0.3760776406215246,0.5419545618850006,0.39612263290829286,0.35981591255813206
120,598173.0,78045.0,"[2,9,15]",3,0.16971494004185045,0.2338588852419453,0.30590389962481684,0.30643168470586096,0.25714019301288543,0.22623705866690194,0.2545092616606104,0.5406316891636322,0.1572162233988634,0.10349571449492834,0.24804684951538514,0.24117253657023383,0.14820410280853824,0.3079223958486934,0.20700692002860924,0.054514882393752725
144,1207556.0,165560.0,"[0,4,5,6,7,12,13,14,16,17]",10,0.18213120020087364,0.40090369716724655,0.5115766042578744,0.34152648752585313,0.505945194653062,0.24378354538239597,0.2880486396864511,0.3393617278245863,0.5411798149003553,0.13306260790942373,0.25149240630305447,0.09726145331070767,0.32736808430030245,0.37965789551822016,0.18634129991043324,0.08271827221170451
144,723879.0,74749.0,"[1,2,9]",3,0.17339712515451858,0.23938701874814594,0.34658458510561235,0.30014696297232274,0.26122564487296934,0.22747705524527523,0.25866591524659854,0.46522919730545553,0.17083860275091758,0.10529690741017537,0.2506245477421069,0.19204885160388332,0.1411064247951534,0.23771678887389244,0.2005347206158438,0.057027109974194856
144,40883.0,9989.0,[3],1,0.26482891329679836,0.2466139205733804,0.37586187579032365,0.42509227145734907,0.25715173481930215,0.2639006939547441,0.2290102448891072,0.33810151584439463,0.6453996156100564,0.1373694893252845,0.26657554852621357,0.23639150821345106,0.14367445410699972,0.5737976017772569,0.23754937451895738,0.07423684752969056
144,213864.0,32134.0,"[8,10,18]",3,0.3486389407368067,0.2600199764010128,0.4848636085029754,0.4064045711741179,0.42425519525715166,0.2775204773519873,0.27024240591686804,0.3510663955718183,0.7571785722668822,0.43465474794215514,0.29779196127386925,0.11677871442031033,0.3803805328554622,0.4679329952613571,0.23676114545370539,0.14852053076809815
144,96522.0,13910.0,"[10,11]",2,0.2909816719163285,0.28420189317702166,0.5780725286522054,0.48635079693747457,0.4649587430419706,0.42973572853026754,0.21999258245406234,0.3655884161750001,0.6273224141512934,0.4311462317778824,0.3798636815235864,0.15332522482059052,0.37774639310821206,0.55342669263507,0.39221368431646353,0.35140279574580474
144,686259.0,88086.0,"[2,9,15]",3,0.1712131104185268,0.23310076354064996,0.3064831007506294,0.31984218457104013,0.25781009139489686,0.2264491522591448,0.25742338490208705,0.5479781114236503,0.15997011363255603,0.10523165516126753,0.24878178245171767,0.25089472140590163,0.15057085073880427,0.31903618181829796,0.20703105029070618,0.054183257519656705
168,1637012.0,226492.0,"[0,1,4,5,6,7,12,13,14,16,17]",11,0.18000016482581307,0.3759707284889714,0.493599592293234,0.344766325985746,0.47078789363115553,0.24245934030245664,0.2869402135083332,0.3388735962915358,0.49169962849134935,0.13164154048637736,0.25297626432636133,0.10050721019861433,0.2964652132964222,0.3458278221612092,0.18567268242647278,0.08030468322476586
168,987749.0,98526.0,"[1,2,9,15]",4,0.16965377527261127,0.23691463395124568,0.32867987527520476,0.3255959434925906,0.2628401595437604,0.22884431951857986,0.26040874157153476,0.49958515614189003,0.17478600407509584,0.10744473393906429,0.2511425083452425,0.2216071853425131,0.14721979800751678,0.287794795646843,0.2032551085539149,0.05603449461759396
168,52044.0,11161.0,[3],1,0.25915828306541167,0.2454011917074781,0.37819900507476545,0.4510207207231638,0.25639975324638653,0.2654020085103468,0.2307561557642941,0.33575538349083783,0.6341002320121236,0.13932350081304162,0.2683747955338029,0.24269878114443114,0.14127816768952609,0.5726315117983327,0.2460307359299311,0.07689329224795649
168,254769.0,40905.0,"[8,10,18]",3,0.3470410325342164,0.25940851685240185,0.4908228287152216,0.42604669793027367,0.43084125506885607,0.27879172946636577,0.2788745392524017,0.3501234282286338,0.7507423310587329,0.4346031728530736,0.2995532849122742,0.1187323043076475,0.38097761530962065,0.47461249273684336,0.23604017970549,0.1506072809075065
168,120084.0,23562.0,"[10,11]",2,0.29456460964739495,0.28239636964196774,0.5760452191595714,0.5017061469569314,0.471158819255588,0.42824820415806514,0.23680228824562932,0.3684224122897311,0.6355251261365855,0.4319057587527269,0.3783874518888332,0.1543876212777413,0.376602337701207,0.5562359279953835,0.38642363523613454,0.3398626990984466
