time_in_hour,cumulative_size,size,pcore_ids,pcore_power,AF700 CD48_[R 730_B-A],APCCy7 Ly6G_[R 780_A-A],BV421 CD117_[V 440_F-A],BV510 SCA-1_[V 525_E-A],BV605 CD11b_[V 610_D-A],BV650 CD150_[V 660_C-A],BV711 CD11c_[V 715_B-A],BV785 B220_[V 780_A-A],FITC Ly6C_[B 525_B-A],PE CD115_[YG 582_D-A],PECF594 CD135_[YG 610_C-A],PECy5 CD3-CD19-NK11_[YG 670_B-A],PECy7 CD16-32_[YG 780_A-A],PerCPCy5-5 CD45_[B 695_A-A],_FSC-A,_SSC-A
-1,0,0,[],0,0.0,0.0,0.0,0.0,0.0,0.0,0.0,0.0,0.0,0.0,0.0,0.0,0.0,0.0,0.0,0.0
0,109199,109199,"[0,6,11,15,17]",5,0.1682197400189722,0.2315461847238806,0.3110483302350533,0.2864720753087428,0.257958286010186,0.22407087487857036,0.25082556216207974,0.5379146199330312,0.1573811005080734,0.10486900672024473,0.24748404841023117,0.24516769665493401,0.1488260033268729,0.3006949040569542,0.20394233084627766,0.05069434388122795
0,25447,25447,[1],1,0.16649783155003903,0.2428214451950954,0.37240286454532273,0.28504204321679666,0.2736245222899187,0.21697373048584712,0.2655108419448373,0.2921587368352469,0.18762013681323486,0.10943653213061114,0.2525083118108594,0.10517026761834394,0.12698157858696602,0.16470101844641485,0.18751530508094227,0.04453783477117656
0,99944,99944,"[3,4,7,10]",4,0.1526271802837827,0.4133914651746098,0.4795549048158852,0.2944100320365017,0.4935371803402584,0.17926024685131223,0.29175858492397844,0.2959778653187468,0.5462680156134014,0.12276537891397472,0.24179998622773358,0.09445924916246366,0.3167202304969157,0.34302415908842365,0.18041908847385243,0.06407154105447757
0,60336,60336,"[4,5,16]",3,0.17931841166560855,0.44578827925241865,0.49705013260791636,0.29564957832752137,0.5281117770582112,0.3524715376320055,0.21401004868521747,0.3198329623229572,0.5649620297612159,0.13366624697653873,0.24819059159751167,0.08935516712131125,0.35009649189140984,0.39585373126442197,0.18855182165530443,0.06728409622521805
0,28961,28961,[12],1,0.3549809364467522,0.24623424182652606,0.4635464805966382,0.31702844827579135,0.40118013078027837,0.24713109094987046,0.2547509056144647,0.3222343448488971,0.7970169737910286,0.4597127391501052,0.27396434590878527,0.09914232501574195,0.3792436202227108,0.40056079418197543,0.20931828371006989,0.09865334066843809
0,17423,17423,[14],1,0.2744075625387687,0.2769225294119399,0.5894450719685059,0.4640741330117738,0.4597376310071993,0.42287423878130315,0.19196404202017886,0.34714280917010826,0.6064976309001328,0.4484100602893821,0.37847732315020666,0.14804083105458085,0.3734223863951056,0.5315400195672698,0.40761065190461954,0.366229321598191
24,224346.0,115147.0,"[0,6,11,15,17]",5,0.16705038416833212,0.2308666107867375,0.3128200062041792,0.2922076559691157,0.2546368000319014,0.22731698990132942,0.25006941140015027,0.5352546309776124,0.1576566509847951,0.10243918666059543,0.24663614771073508,0.24295642331359382,0.14312517446381404,0.3029327210155012,0.2108682395811482,0.05303502087038889
24,56123.0,30676.0,[1],1,0.1656170365094149,0.24078394949189078,0.3722389251858214,0.2863726896352137,0.2700223147895023,0.21930833719454607,0.2637943691263208,0.297325103892993,0.18728791544346732,0.10661474532981423,0.25037855199957537,0.10632316716577046,0.12317315410009169,0.15936478279030505,0.19593248938486174,0.04781856069031278
24,16970.0,9652.0,[2],1,0.24130100017648634,0.24046495029634937,0.3446320114278206,0.4086939296258135,0.2531569210831779,0.26473967472548526,0.2989732289400115,0.4334131602858153,0.6297314392545041,0.12548532685407285,0.27140807547791795,0.16517247834503654,0.13122441921269354,0.4767442146920476,0.19279440765263736,0.06991205724320139
24,216713.0,105203.0,"[3,4,7,9,10]",5,0.15801695859375206,0.39025971702351747,0.49876647369315363,0.3010959345246389,0.49726534964788516,0.17440726863347986,0.29626337174989786,0.3030631936853961,0.5635887213512306,0.12261682276734184,0.2387727409387295,0.09443015933078261,0.310108352556384,0.3357095892122005,0.18196127083310526,0.07384278186439805
24,109262.0,48926.0,"[4,5,16]",3,0.18172036966366212,0.4396459891807153,0.5037857444948507,0.2992515587815954,0.528079408001438,0.3533882501928527,0.2159689312665591,0.32290164164563034,0.5720951311737723,0.1362667005999976,0.246360989593058,0.08949850106567162,0.3444533206083869,0.391811767963949,0.18778404299162274,0.07249934914086094
24,24880.0,12496.0,[8],1,0.23879081891015055,0.30051278390146124,0.6499842541647156,0.33259795464431563,0.5377516196892027,0.3741014754037805,0.2296809678710322,0.34084276550536413,0.6944585525829565,0.14435117906146844,0.2575048259326535,0.09198902005096828,0.35247934664068037,0.35187813864954653,0.21849682468084222,0.12567883175245137
24,52525.0,23564.0,[12],1,0.35649212711165007,0.25146495922561846,0.4825797688441121,0.3238228671510815,0.4040786458894703,0.2529342665589717,0.25750271551459447,0.3351684575250579,0.8083579853254516,0.4558645021424142,0.2718674739246964,0.10180806842480927,0.3812576908090537,0.4010091481905633,0.21111269839028698,0.11380148757167095
24,23030.0,12730.0,[13],1,0.24188682620747218,0.25346468642019193,0.6815714333043027,0.35536855912368875,0.27900566841216135,0.2881372906944063,0.2620999780515772,0.34013941822495225,0.27008998164318,0.1715962688856147,0.29361133219207164,0.11204810911202567,0.16482546990486754,0.23335949879899714,0.1829171000903944,0.12704752960965607
24,37877.0,20454.0,[14],1,0.2778586231756141,0.2776454348490182,0.6002606933627178,0.46798532411157634,0.45719256217631826,0.4281589837735923,0.1939960198413429,0.35260713413353784,0.6252280904660156,0.4555613151599537,0.37771537993131,0.14877172215057485,0.3709305180434888,0.5300959615175909,0.41729407809362623,0.3844979986810982
48,359324.0,118008.0,"[0,2,6,11,15,17]",6,0.17234046477320783,0.2319042992117118,0.31471391356557,0.3004487578865612,0.25402470456341253,0.23040985019502244,0.2545962480628221,0.5251131050104627,0.19569049937139563,0.10275737347759664,0.24763318368800324,0.23063137661524646,0.14257441101240623,0.30705597288936975,0.20580322180746968,0.05556999588059706
48,89884.0,33761.0,[1],1,0.16112375024301911,0.24210618764184952,0.37189127668637506,0.2870395448456954,0.2674011077039809,0.22024442309054418,0.26072171295044066,0.29758433055532524,0.19510277386892247,0.10314686835908078,0.25032433070152527,0.10311736582677285,0.11731718795393362,0.15210808686925126,0.1896417224914252,0.05177465755840763
48,289454.0,95566.0,"[3,4,7,10]",4,0.15327201076943217,0.39529829620578577,0.4803155579026968,0.2956024870672292,0.47953886793251255,0.18921419978567147,0.2875063119860444,0.29975456871070105,0.5450034455837688,0.1179667828100208,0.24058130153487256,0.0923799657572487,0.29787033043696753,0.313318759135509,0.17373154855387954,0.06963848731771605
48,149170.0,39908.0,"[4,5,16]",3,0.1796385693724167,0.4445100808922448,0.501195746772087,0.29635522640009915,0.5316387452197702,0.3542188630362849,0.21495539351552012,0.3223011375627244,0.5686272568559183,0.12863378353987034,0.24561339105456817,0.0871683520382817,0.3500083416765952,0.38641992241416584,0.18471203909019204,0.07092800493224902
48,38282.0,13402.0,[8],1,0.24562285689861088,0.2937322662534667,0.652541304208485,0.3326493245172754,0.5337379963314919,0.3737413551568125,0.22687531444552336,0.3406160979322297,0.69579379234701,0.14119466452093368,0.257940303706058,0.09116631204029778,0.35922199879093325,0.34519119148259386,0.2180206909206774,0.13279738190431636
48,32982.0,10157.0,[9],1,0.17848572782003458,0.312046872633794,0.6115441810517526,0.32149055184483183,0.5917690993097132,0.08329534578454942,0.34454361239286024,0.3216621795655296,0.6809685175982624,0.10249258259912551,0.22393303464751352,0.09287717192766655,0.3662367804842514,0.3630652544921818,0.21388501061235426,0.10997481304729519
48,81753.0,29228.0,[12],1,0.35883841296016733,0.2512783607682206,0.4784620150664342,0.32296159852019646,0.40773570256342356,0.256192327855332,0.2582736640337018,0.3322311850180522,0.8083327230940027,0.4483050841524892,0.27058145971378206,0.10095300124605286,0.3857635079290357,0.4006442147253841,0.2088975904622206,0.11518060548310498
48,34099.0,11069.0,[13],1,0.24799149567615741,0.2526076230115181,0.6784655963884166,0.35619228043402484,0.27774700885671905,0.2879874460477861,0.2629896752342875,0.33892572584316666,0.27291205579015315,0.16826511317689155,0.29399838031633263,0.11026851990890635,0.16792429415477025,0.2341790199810262,0.17684100616924597,0.12851838830417903
48,50058.0,12181.0,[14],1,0.27487079538042797,0.2780377562615765,0.5926024678330181,0.4648876403753596,0.4546643384128541,0.4201861721853835,0.20063939889235896,0.3514827067927414,0.6171935866036832,0.4495778447106101,0.37381079530927963,0.14657236090652845,0.36829115397997036,0.5259308006555996,0.4044422138187707,0.3721588715727685
72,451833.0,120850.0,"[0,6,11,15,17]",5,0.16602805573659807,0.2334582526173863,0.30992825465747736,0.2962515087745468,0.25598515575348035,0.2273801761315671,0.2501320684580435,0.529436507792372,0.15812051859306453,0.10100237970424873,0.24607583574956976,0.22706745796575134,0.14555141490595933,0.2925611512047047,0.20750481761709824,0.05672532176371014
72,115640.0,25756.0,[1],1,0.16083445475903219,0.24596666429371863,0.37095812914920945,0.2895572878995929,0.2720008132740017,0.22115328343106067,0.26039152384919184,0.307319098310437,0.20346972284587794,0.10272082914986555,0.25035934060092047,0.10510626721349045,0.12090592634304605,0.15146501228709738,0.18630141610383788,0.054826958961444065
72,33712.0,5371.0,[2],1,0.23952016418225044,0.24301397388320767,0.33987664780901644,0.4109637362774797,0.25883307195803934,0.2578968245822318,0.29324961261400456,0.42155983247610507,0.6358368122609561,0.12908866849099868,0.27005289442326363,0.16565541681372056,0.13784723433431828,0.4611073238445769,0.1939497554523076,0.07464628213083746
72,422510.0,133056.0,"[3,4,7,10]",4,0.1586839783684056,0.38830162586770933,0.4692754891483515,0.3068406971357197,0.47118035698067817,0.19521202384912498,0.2841056179038703,0.30543363217689284,0.533101516850771,0.122081927623261,0.24618475266853865,0.09371740005298256,0.29104603791289974,0.31272742743217297,0.18035234098789285,0.07631070816302392
72,193610.0,44440.0,"[4,5,16]",3,0.183193583055587,0.43527194389964746,0.4937136802974408,0.306314361428142,0.5260681581011757,0.3514339915092645,0.21635277130670946,0.3247222888266996,0.5598802351097447,0.13300571499522906,0.2516944097721814,0.08914934115688462,0.34467106667674846,0.38824161744375923,0.1906999696585353,0.07815919944169092
72,46117.0,7835.0,[8],1,0.24746728912597613,0.29422873546541,0.649735442373346,0.34157253456704356,0.5290366602114264,0.3732631797971865,0.22554310895932803,0.340584076959605,0.687628592307692,0.14617699555058647,0.26148194189062884,0.09199498287414018,0.35555362175120714,0.3464939210397159,0.22146755393712242,0.13728712091490766
72,38790.0,5808.0,[9],1,0.18197540261555734,0.311434567505775,0.609635395613374,0.3296066905600359,0.5874704923392937,0.0845773445074499,0.34169789554374275,0.32315196902883986,0.6754146932387899,0.10699765476654291,0.22823842265705777,0.09343277609794914,0.3634929023105616,0.36502587334617814,0.2166185697899311,0.11248089587332721
72,98354.0,16601.0,[12],1,0.35651826053572816,0.2533933529759144,0.46724340369463646,0.3388955531026605,0.4065643297400568,0.2548846934300016,0.25714916713065655,0.3324415928886365,0.8011215769847536,0.4441619204804488,0.2718473508478049,0.10149286942085381,0.38302285567257666,0.40597238453084594,0.21204743411738797,0.11792171756017623
72,40713.0,6614.0,[13],1,0.2476616071047205,0.2535673839799496,0.6781112871186499,0.3596604589104147,0.2785653459055582,0.28708229190819606,0.2633006186776437,0.33936779251527976,0.27171924313770385,0.1664581518476924,0.29372020525850195,0.11033592449709859,0.16713000645135323,0.2354754840839181,0.1771094300102886,0.1298151633905808
72,65124.0,15066.0,[14],1,0.27825227795743623,0.2820882059494321,0.5815123411200154,0.4695642496571682,0.4532142372379148,0.42150441928451393,0.19986176916094758,0.35415448524504045,0.6206883741543442,0.4367898959577071,0.37551383050357423,0.14605098002481473,0.3694782819816352,0.5266643018425631,0.4098358003082352,0.3745225855797371
96,548143.0,96310.0,"[0,6,11,15,17]",5,0.16986309396375024,0.2339081603108816,0.3110480676472799,0.3024124118150755,0.25708089501595927,0.22690490335482055,0.25328728250366217,0.5352366013210219,0.1582041927186288,0.10369015874993455,0.24761922441485923,0.23571605591338443,0.1478324535369878,0.2998175605286191,0.20856834856657563,0.05617290091022752
96,130462.0,14822.0,[1],1,0.16181802662717948,0.24657161910895642,0.3721168318849079,0.2919945627944166,0.27251069809515893,0.22129785080859118,0.26135307124088264,0.3065539980494248,0.20285116108650264,0.10402632226055074,0.25142697464951264,0.1051722711885297,0.12216898025974633,0.15207153449236177,0.18735390603941593,0.054699779352768416
96,43936.0,10224.0,[2],1,0.2449475218274848,0.24372043879538943,0.33753357672516954,0.43278011820702167,0.26008428435738645,0.2581385202144111,0.30364381979005073,0.4337001036739733,0.639084262502025,0.13273079505789384,0.2742612443726409,0.16480947868443066,0.1419140939955865,0.471992829081812,0.19232396983005104,0.074441272022746
96,495810.0,73300.0,"[3,4,7,10]",4,0.15910341678178092,0.396087113593233,0.47239708342816,0.31198937041954483,0.47914173770528096,0.18919083759823677,0.29224330226985906,0.3085779427204431,0.5320328839016208,0.12337314765784095,0.24609137422632055,0.09439348202342969,0.29903496893558384,0.32554374824089033,0.18087415849503954,0.07541082857217811
96,242111.0,48501.0,"[4,5,16]",3,0.18515832318610698,0.4466605726492714,0.49587994928388823,0.3125793682627531,0.5367125770104179,0.3578054143438046,0.22163033812630267,0.33106488651908816,0.5576059792452186,0.1339453961801981,0.25165945299895204,0.08898844120251122,0.35479410554887514,0.4045226281350329,0.19083885845288123,0.07647866780158726
96,55754.0,9637.0,[8],1,0.24924904848435495,0.2949193119755648,0.651093586886381,0.34820992692837194,0.5325248309929419,0.3753336667524126,0.2331939163819608,0.3455053250582861,0.6844275856798924,0.14858522340049043,0.2634904658244836,0.09287489140406034,0.35887078169692177,0.35329587933422446,0.21984957505563518,0.1349458587206412
96,48555.0,9765.0,[9],1,0.18273531740779453,0.31560373137785985,0.610093966435594,0.3372630215980436,0.5946570146382157,0.08383426116039769,0.3521813905287065,0.3309188663693788,0.6714377249904251,0.10918640956565277,0.2292138781490598,0.09437569106662344,0.3684929351291799,0.3753740224600574,0.2140697085613448,0.10997806564650854
96,119632.0,21278.0,[12],1,0.36204331075588275,0.2539268985191861,0.46487188569857335,0.3531840166717605,0.406231854548155,0.25427029733196577,0.2596974157527894,0.3372095010572757,0.8008004991450527,0.44120782608423254,0.2753459836746878,0.10296269083777405,0.3843980985910869,0.41750654068528004,0.21123270544223746,0.11695149886793671
96,49512.0,8799.0,[13],1,0.2491177022809161,0.2549298524242965,0.679600723855026,0.3642718475732757,0.27985251216521506,0.2877619842084645,0.2665118915041696,0.3439555605776835,0.27128098143823837,0.168993947808245,0.29597772126584887,0.11390177109637761,0.16998072588540417,0.24076328038551345,0.1777302838330331,0.12957640835951031
96,76813.0,11689.0,[14],1,0.2841206223603821,0.28321124093840194,0.583006227580785,0.47427545407525296,0.45529798868925203,0.4225732990274278,0.2067619411407638,0.357590376235147,0.6232487142609094,0.43752007765349626,0.3796614545263634,0.14918046584346714,0.37545040493400117,0.5351451880012348,0.41194701489192054,0.37353389254856084
120,631208.0,83065.0,"[0,6,11,15,17]",5,0.1706985859906218,0.23437983613962038,0.31333692076264485,0.3071932746005257,0.2583414986984929,0.22693416094400357,0.2554002123264036,0.5375940361570029,0.15877118309445928,0.10515034870690436,0.24885693854503654,0.23996518888877982,0.14837639574485584,0.3062917100621263,0.2085611696797879,0.0557447026231916
120,153464.0,23002.0,[1],1,0.16257403234666098,0.24804479549871633,0.37511194539931075,0.29457656978018026,0.27318536991609416,0.22139337255084598,0.2625102725826446,0.30615863451886194,0.20283349498585285,0.10521064615365228,0.2533432765432814,0.10523193488795601,0.12342891361485123,0.15290146854825795,0.18708918128678115,0.05457424231274703
120,55097.0,11161.0,[2],1,0.2477451777037011,0.244263603231885,0.3379555723562378,0.44966799975131627,0.2623009291111436,0.2585133250355424,0.31026099568204063,0.44364631328762516,0.6392524531851967,0.13499607273373573,0.2777084330069707,0.1630739350848754,0.14571576011298915,0.4795545190308217,0.18766399329430486,0.07370061480954002
120,398904.0,40460.0,"[3,4,7]",3,0.16829138011851,0.3676663470425882,0.463196943993156,0.3136978919403295,0.44798029759431524,0.22900825538186084,0.2793601753020681,0.3080323018639403,0.5189002963526086,0.12460456869845178,0.2537645113038121,0.0949014558913948,0.2722978115475234,0.28389505742944837,0.175580290161382,0.07649412193616854
120,319720.0,77609.0,"[4,5,16]",3,0.18622746476092494,0.4598864031380442,0.5030679816809824,0.32127108520076497,0.5511381836467014,0.3662559838718848,0.22787858313948076,0.33917631528799613,0.5579172009988158,0.13160540003540766,0.25233749323763266,0.08836419036072272,0.3675679904930415,0.42565223772517885,0.18892907004052661,0.07420272078955349
120,69053.0,13299.0,[8],1,0.2517607879148447,0.29386147730044265,0.6559004149797122,0.3579038761522033,0.5363417248677229,0.3768037848577426,0.240113975231849,0.35039266663603047,0.6824714691700884,0.14894441975989123,0.26490645135708635,0.09316430278125915,0.3634164094112753,0.36319333563986267,0.2153643582738252,0.13210605954258903
120,257987.0,72066.0,"[9,10]",2,0.14626611584196927,0.4462463059652741,0.5354051125155704,0.3306404765981207,0.5846247748125417,0.08133418319313908,0.3497334658610132,0.3238552906448488,0.5852384500139571,0.11385108892156164,0.22941177101499183,0.09389580086436622,0.38232488280659627,0.4438874138385208,0.1942854422157917,0.07755726120975705
120,144635.0,25003.0,[12],1,0.36653863377386103,0.2546823004984125,0.4652315167046608,0.370361208469759,0.40729695845177866,0.2530096464472582,0.2620408918337341,0.34451708395818625,0.7999664587256565,0.4397737087457483,0.27840773475920255,0.10450058794857546,0.38599035207722043,0.42957552282095196,0.20787496500971517,0.11520425970306777
120,59520.0,10008.0,[13],1,0.2507121361337346,0.2567369637197707,0.6803920898902344,0.3664532561349997,0.2813155389930372,0.2878585330378395,0.2685346822220478,0.34499592517632593,0.27063258900459225,0.16917094078716446,0.29805702103481974,0.11467458209011554,0.17161862008148293,0.24436615993354155,0.17456156506464607,0.12824416396099636
120,90975.0,14162.0,[14],1,0.29217472534498123,0.2865435557462885,0.5857361693395812,0.47917931405869213,0.4601468149657346,0.42290936498667187,0.21229107690051602,0.3600843478357707,0.6246996666181791,0.43734302561710175,0.3828285510738002,0.15208491030301377,0.38064220930559417,0.5451064198060809,0.4107644771513471,0.3692927850142903
144,725477.0,94269.0,"[0,6,11,15,17]",5,0.1722080052935408,0.2336305216559752,0.3136242073237822,0.3206392898124419,0.2589573241754683,0.2274526585074448,0.2582180954344546,0.543672292035699,0.16171096623405512,0.10688582096448203,0.24957159662979903,0.24925693559470208,0.15074462221894547,0.3176373842887013,0.2085736053373782,0.05528372899594438
144,168285.0,14821.0,[1],1,0.16403063996817888,0.2482557300227704,0.37666497726066706,0.3007360279330933,0.27356975519878746,0.22160481686890954,0.2640668783772057,0.30706854851598087,0.20251093296811307,0.106162097147612,0.25432289859119295,0.10687766640182662,0.12517881683243634,0.1556295614830623,0.18699361607990714,0.054296423688924546
144,72270.0,17173.0,[2],1,0.2516145030471587,0.2422075724647884,0.33707029472446376,0.48172577631982044,0.2632131460919866,0.25829275816635155,0.31883531640822155,0.45727258046841635,0.6373318382307449,0.1358125990592223,0.2795217673795109,0.1690883446939522,0.146249912520883,0.49224505000038293,0.18548959407336174,0.07248236406082652
144,424767.0,25863.0,"[3,4,7]",3,0.16933693888449727,0.36836879966264774,0.4653381043370069,0.3177978588680008,0.44974903151201984,0.2296015594555774,0.2825788652446191,0.30855879538708336,0.517182523953914,0.12551715030463712,0.254143029979771,0.09595990916592377,0.2745293761564121,0.28746436155043104,0.1751438205425637,0.0761260992077384
144,385434.0,65714.0,"[4,5,16]",3,0.18729099776097688,0.4651190390519517,0.5062765500878798,0.3300634135080834,0.5574272826195675,0.36992830572745833,0.23419020997616258,0.343005211281458,0.5540746183288089,0.13213973656890535,0.25103588466298693,0.08965576117841448,0.3730195781935135,0.43421388584757553,0.18797242002796588,0.07282101421303726
144,75727.0,6674.0,[8],1,0.2538103713766821,0.29321955524840343,0.6546022351527692,0.36541104481922343,0.5376501172145578,0.37701953062563204,0.2455481706453371,0.35264964812423044,0.6788547804315139,0.15131177800901016,0.2654366979261508,0.09476907546844054,0.3640327215121121,0.36784800157552716,0.21242684931059325,0.1303392455805078
144,316803.0,58816.0,"[9,10]",2,0.1452257242263751,0.45298315977282566,0.535246822309455,0.3400604355053474,0.5881843794600843,0.08120191840451658,0.35652547481403923,0.3266545806929487,0.5782063235651894,0.1146151622608295,0.22787061254599683,0.09577929417897572,0.3860072962268759,0.4521831939175273,0.19227932599614522,0.0754759266799864
144,170964.0,26329.0,[12],1,0.3696923783372891,0.2541025670704769,0.4675369358892968,0.3859764209839306,0.40993198824360566,0.2513607183373296,0.2672396304336169,0.3454366083165896,0.796053299373295,0.44637667450335544,0.2807515836298533,0.10668132640153455,0.38449354741908287,0.441586242338448,0.20637525026709713,0.115065968316785
144,67145.0,7625.0,[13],1,0.2519746435665054,0.25741852214110156,0.6808809794460287,0.37395803918225884,0.28200658486763874,0.28841205588962027,0.2719132195075233,0.3485589170306854,0.2716426059964431,0.17296323815328143,0.2990700230399202,0.11746837458348192,0.17381459571277777,0.24758637431242664,0.17366351239945033,0.12736146814607313
144,106636.0,15661.0,[14],1,0.29590310705569994,0.2858860859626586,0.5832181311663177,0.4883677632505175,0.46576427693745165,0.42265992469030145,0.2223152683332042,0.3638876512099102,0.6318095097600062,0.43721306254253745,0.3829130830239604,0.1554488787357955,0.3824697462500988,0.5555728904777,0.4066586925138259,0.36033193559798193
168,755661.0,68909.0,"[0,6,11,15]",4,0.1678741035546684,0.2331663921801895,0.3073181828850985,0.3281466007881919,0.2591659191539511,0.22713147442275552,0.2614729776957274,0.5569610260273188,0.16321321420111226,0.10681329419963524,0.2493448669743274,0.25179431507782957,0.15276871124769434,0.3136908164621037,0.20721085611023798,0.054671774766710576
168,192142.0,23857.0,[1],1,0.1639675504203334,0.24968174434087886,0.3786887972478416,0.306809939961844,0.2785297620631217,0.22147539171007136,0.26581432299351543,0.3050483782900695,0.20785524939275435,0.10733424671785172,0.25464113788513204,0.10667129285743186,0.1294044326748348,0.1592510131510148,0.1852347069565333,0.055614936858138835
168,98288.0,26018.0,[2],1,0.2427703876282934,0.24137710232243992,0.33899785702437746,0.5061395581930868,0.2662406931662061,0.25766157433520903,0.3246802227861167,0.4644094416277256,0.6295351806356483,0.13788310285122238,0.2830980434254007,0.17326652548087979,0.1490822694134871,0.48761537441617686,0.18848619330501423,0.07466560617419615
168,514098.0,89331.0,"[3,4,7]",3,0.1682188922902962,0.3649952932718863,0.4642075651811977,0.32623852043730783,0.4501916218160401,0.23029936034230986,0.28427300745440237,0.3082038796982767,0.5134133838945383,0.1274364062758838,0.25387689629102905,0.0956192870066888,0.2735266489179941,0.2852065281904716,0.17343015033989873,0.07681254549525761
168,434701.0,49267.0,"[4,5,16]",3,0.18688147806178967,0.46512215059264006,0.5070152145041782,0.3338944495456018,0.5591643022894627,0.37037324277325906,0.23635378991551625,0.34266004996643246,0.5483627866725341,0.1324874906962812,0.25051750589973704,0.08902175761482592,0.37201615946272953,0.43025081477649996,0.18743343667608142,0.07270168286100429
168,86000.0,10273.0,[8],1,0.2540283149434784,0.2929121143598272,0.65147869815367,0.37550173187206276,0.5368167883867603,0.3776904625329843,0.2509379059009541,0.3544201893353488,0.6732096913355006,0.15573046974614269,0.2669348318820958,0.0958873394961904,0.36282693612237565,0.36866733740135127,0.21127097181836302,0.13195295559618445
168,353503.0,36700.0,"[9,10]",2,0.144638205036508,0.4538928310344491,0.5356293500122671,0.34515330289799695,0.5902632739973194,0.08034413047080094,0.3596071315911698,0.3274214664281606,0.5734114089195256,0.11563047740362162,0.22729271550139374,0.09573707506785269,0.3857705511249222,0.4504282219982665,0.1922533111805761,0.0758697855327743
168,204377.0,33413.0,[12],1,0.3653347122571139,0.2534911650213359,0.47382832098454014,0.4051844609632218,0.4145708214740028,0.2514170030699746,0.27317768005408427,0.34276823811617774,0.786267364593625,0.44466915512812116,0.2827579192696786,0.10806378562215366,0.38340847004599665,0.445340188564425,0.20544754401462098,0.11942813181004779
168,77371.0,10226.0,[13],1,0.2516648798461732,0.2576306100829133,0.6799776466580836,0.3880839229319733,0.2851390925581726,0.289238010223814,0.2773325968299407,0.34993925225968975,0.2764638334493384,0.17642585313438802,0.30247186964881534,0.11813104947290587,0.17617657153068125,0.2511549948909091,0.1722329252145973,0.1288780406654506
168,129751.0,23115.0,[14],1,0.2978549395385365,0.2848939742023826,0.5821608344170981,0.5019029899167209,0.4687422802900865,0.42190048729199753,0.2352322053540127,0.36697570527820744,0.6369838565085594,0.43524061611039466,0.38217455816481705,0.15742198690961523,0.3789963186782187,0.5570172969871241,0.40443827473371075,0.35183393158191356
168,47523.0,8798.0,[17],1,0.22078675853082186,0.23622321245326022,0.41226327448283495,0.3856910929638454,0.2678909422128745,0.2539098577566644,0.2461230190099827,0.3860121542281394,0.2102644572121631,0.13027577865999107,0.2595947661293109,0.2550665487011529,0.1384075950661493,0.4870388290186542,0.24255768853895787,0.07028495102563792
