time_in_hour,cumulative_size,size,pcore_ids,pcore_power,AF700 CD48_[R 730_B-A],APCCy7 Ly6G_[R 780_A-A],BV421 CD117_[V 440_F-A],BV510 SCA-1_[V 525_E-A],BV605 CD11b_[V 610_D-A],BV650 CD150_[V 660_C-A],BV711 CD11c_[V 715_B-A],BV785 B220_[V 780_A-A],FITC Ly6C_[B 525_B-A],PE CD115_[YG 582_D-A],PECF594 CD135_[YG 610_C-A],PECy5 CD3-CD19-NK11_[YG 670_B-A],PECy7 CD16-32_[YG 780_A-A],PerCPCy5-5 CD45_[B 695_A-A],_FSC-A,_SSC-A
-1,0,0,[],0,0.0,0.0,0.0,0.0,0.0,0.0,0.0,0.0,0.0,0.0,0.0,0.0,0.0,0.0,0.0,0.0
0,130700,130700,"[1,2,7,14,15]",5,0.17689381310873914,0.2437062125204071,0.3694529029593019,0.2861931107834385,0.2722802459378752,0.227326712611617,0.2565761175622096,0.4466181755234934,0.19817579065240803,0.1145044261148723,0.2534538340830347,0.18212460821251017,0.15008353454928902,0.23406925891856992,0.19419741304684782,0.05731589350360642
0,152559,152559,"[3,4,8,9,11,13]",6,0.1716173323723439,0.40713997474127545,0.49953161345950015,0.30494268637145433,0.5085260733259743,0.2356808169266928,0.2671023982978051,0.3186693340609511,0.5711180584098201,0.13587629072109408,0.24634406125207947,0.09729464961274105,0.3308310833988151,0.37544358914322223,0.19310056073185322,0.076791249906211
0,27404,27404,[5],1,0.3479563938448019,0.24740403608666564,0.4600717806869794,0.3229988474040383,0.40511164479175243,0.2478614271980225,0.25767648723198,0.3252959724247992,0.788109843944001,0.44284762834068864,0.27743580436665116,0.10327025585901642,0.37350655602119565,0.41285482064398915,0.21902782167874016,0.10707546138942704
24,168803.375,152041.0,"[1,2,6,7,14,15]",6,0.17775755217619366,0.2443344619018382,0.38162705022067894,0.296866247429499,0.2725369798748922,0.23395881116072134,0.25556457376974895,0.4291981193458911,0.21562620016433132,0.11186689779126861,0.2519399645630082,0.17261362475976683,0.14425912941767963,0.23767044878111632,0.20439315649789694,0.06547938277275218
24,150809.875,131740.0,"[3,4,8,9,11,13]",6,0.17813893436280615,0.38903909327011316,0.5102698117556791,0.31394367816638014,0.5013274294213327,0.23856485274704287,0.26829016501387104,0.3257277249316552,0.5892570483279042,0.14004944916944198,0.24325820949924792,0.09919077792680521,0.31649035255159513,0.3700040000785037,0.1941464675187747,0.0890218395595404
24,26979.5,23554.0,[5],1,0.35106584631728566,0.2570900470222888,0.5054940478088207,0.33970548996871214,0.40799528763992915,0.2656326451700113,0.26155435080786404,0.3510157002615001,0.8075657382731934,0.4370088053548523,0.2756018066530265,0.10899364152034596,0.3770504279507986,0.4152814603379208,0.2232618983271104,0.1412354196336467
24,105345.375,94213.0,"[2,6,12]",3,0.16628630161772864,0.2299245093053821,0.3008224700744654,0.29644998069027767,0.25105484697322905,0.23412926421275035,0.24817569056243557,0.5147303278778272,0.15067606732532063,0.10009955398279893,0.24544983077566404,0.23245806025630578,0.13639786604347903,0.29597057615865363,0.21310075212783494,0.053277911736862825
48,211012.078125,187063.0,"[1,2,3,7,14,15]",6,0.17065783779590313,0.26261834226010194,0.3880540941063633,0.2934659712635918,0.29767116603228083,0.2216237967404418,0.263945315287547,0.4079335698345294,0.2893616871160239,0.1084331944886059,0.24979039972028563,0.14561337217422954,0.16155082420264566,0.2175873107305955,0.18171883868056235,0.06707145932771282
48,29809.4375,26437.0,[5],1,0.36357921274869787,0.2512189469779887,0.47336664622347757,0.3250126583271767,0.42254049552931394,0.25972350066761624,0.261553178032285,0.32903865138338123,0.8099236638012257,0.44144253073266154,0.2689052648895325,0.10084801799503333,0.3996759774039292,0.41519476183370113,0.20907427318663793,0.12089118459144248
48,134560.640625,117253.0,"[3,8,9,11,13]",5,0.1618591016399846,0.4004805879417496,0.487293717925113,0.2961853562389426,0.49208957991895136,0.22192972492704324,0.26977853687668013,0.30899953344213454,0.5619964544544963,0.11403426574994123,0.24060352528609152,0.0911643037161071,0.3111181667535167,0.3245753715925489,0.1756549178091982,0.07433569536013518
48,98187.0625,85698.0,"[2,12]",2,0.16291837928867878,0.2309442340149365,0.2891259364398166,0.2886506885140997,0.24816430507992965,0.23627412771669348,0.2491830374209181,0.5320113208501597,0.14780834080336572,0.09503602831259064,0.24376773606225166,0.21734724090442842,0.14110138410292686,0.2555634819236485,0.2000441563366715,0.054053524068474815
72,250254.92578125,220989.0,"[1,2,3,6,7,9,14,15]",8,0.17241128874309322,0.2855104126195805,0.38298542017242654,0.31275268535010986,0.32613303965662205,0.2341886955533385,0.2562218474338909,0.40518225441678263,0.30847457725908034,0.1144358505755007,0.2538696095116137,0.1406168218211227,0.18576441126531654,0.2505170837707181,0.19492046637037014,0.07772110738837079
72,37694.41015625,32226.0,"[5,10]",2,0.3223293547980404,0.2736929478694552,0.46843691230808,0.4326209141434997,0.41819379521176253,0.3208953156976442,0.23318902771341232,0.3452244650108799,0.7142778401702958,0.40159225479697147,0.3143268937977848,0.12154208319183023,0.3676394432450802,0.46546313318592003,0.2938605615912517,0.21914663037948637
72,149235.876953125,133365.0,"[3,4,8,11,13]",5,0.17465506737245856,0.3805539580750703,0.4616774745542093,0.3335087123314771,0.4794220247646584,0.22190865787700448,0.26874000003845905,0.3254168664980667,0.5190241616725702,0.13197902878005865,0.2591744152560249,0.09970695278417008,0.29691315711931804,0.34768528415559447,0.20398382516425587,0.09581875727425494
72,112961.896484375,99979.0,"[2,6,12]",3,0.16424799838152343,0.2387716965979401,0.29735898375597614,0.30473205105877227,0.25894282546312103,0.229215049786131,0.24781349073268302,0.5106763542939847,0.14778886677976807,0.09936586955710441,0.2459700493932995,0.19870463915678785,0.1481030861401009,0.2748132271858512,0.20475647746447673,0.0612580250342345
96,160981.30151367188,130019.0,"[1,2,3,7,9,14,15]",7,0.18984575332447384,0.2691783759733258,0.38727532933449865,0.3245908085938258,0.30332805576108496,0.23023464437949792,0.27292361128788917,0.4507133089410185,0.26856888191974226,0.12374379496771777,0.26047966950649826,0.18439372547130217,0.17939022931717463,0.270190398259836,0.19726849245316969,0.06724053481116117
96,24615.5224609375,21737.0,[5],1,0.3723019988695003,0.2558979956575773,0.4442466011298085,0.43079026985310226,0.3966982731942005,0.2585351148076323,0.2751448863023595,0.36523429762462606,0.7817321030958861,0.4014194845084263,0.2951090502146163,0.11695543637673618,0.3743251585978966,0.4770915905079523,0.2187538597473797,0.12137009116604244
96,142121.48461914062,123467.0,"[3,4,8,11,13]",5,0.18329219887221912,0.4375191211901495,0.500822774715738,0.35091369556846963,0.5433674445824199,0.2345099530387327,0.30236308872391826,0.3487381478984548,0.5506830547478563,0.14119779330046292,0.2509105102450624,0.09929143829620249,0.3609626505210298,0.4355891852251056,0.19752851213801823,0.08168087887811434
96,90948.6728515625,77148.0,"[2,12]",2,0.18089998042892982,0.23547294438301528,0.2993944700156435,0.3221257617383207,0.2575523402155729,0.22940909825530448,0.26289499734809896,0.5504435114158992,0.14529695049894767,0.10944699349334033,0.2516879344210418,0.2570476259298443,0.1535960036496117,0.3044550031134786,0.20619645749668147,0.05208730516751124
120,140564.4397277832,122199.0,"[1,2,3,7,14]",5,0.18249513755600744,0.26898690248001034,0.4031025954638891,0.3238181183048761,0.30496733954590954,0.2183650106277243,0.27839225507365123,0.4408618843607844,0.24678032028501617,0.1195706055457065,0.2629744747464635,0.18061470100321056,0.17204676813937209,0.2705056660789511,0.19125054465515257,0.06295436001617523
120,37515.225158691406,33078.0,"[5,10]",2,0.3630223354097251,0.26631137229101753,0.5052651153866945,0.4697371050985952,0.42616893339143463,0.30739072228941594,0.26025412181344615,0.37727336298245245,0.7394076853900337,0.4248081654696193,0.325340795142924,0.1300774838297873,0.3890020682206008,0.5218401800076803,0.2561519521797145,0.17969004544228076
120,195651.2200012207,178080.0,"[3,8,9,11,13]",5,0.17561084915876057,0.4634697127887976,0.5194564818500591,0.3567737354684749,0.5612161933620309,0.2307053417744173,0.309995288862985,0.3527218356916755,0.5554141007388157,0.12855614320619355,0.250520782765171,0.09706888297547474,0.3783656125527055,0.462975063983293,0.18606864240211013,0.07420727979995953
144,97368.64888000488,80858.0,"[1,2,3,7,9]",5,0.1965218393425873,0.2580928671420524,0.39963373753290954,0.353248769437513,0.28955433687735826,0.23954307005831602,0.27930168370263386,0.45086476490341765,0.23828687019187753,0.1267777492850598,0.2642883012567387,0.1943995034939426,0.1758126764691033,0.26865396615270537,0.1909946680938468,0.06284608163142479
144,43526.403144836426,38837.0,"[5,10]",2,0.35767790494159357,0.2590816513810986,0.5058895974782358,0.4967188560219787,0.44227302661989315,0.30489437204837944,0.2854805064374416,0.36646745570068756,0.739212648852967,0.45214319935462544,0.3223486155312441,0.1401973079654987,0.37626006575966886,0.5445154712437631,0.2566050909408819,0.17704001298756075
144,149476.13492584229,129270.0,"[8,11,13]",3,0.17289711524210677,0.4793486900963083,0.5219881979478086,0.377439688547367,0.5838342832388709,0.23671799012063371,0.3233012444286115,0.35288561499620036,0.5434346350326327,0.13329688962205352,0.2383788162315655,0.10291161439112308,0.3945294424943665,0.48132702514081793,0.1869091514825044,0.06987851892883347
144,97496.98476791382,86338.0,"[2,12,14]",3,0.17870349690338747,0.2282700345059996,0.3072107331060848,0.3988782941176443,0.26325702786012584,0.2244833399228383,0.2776571849496751,0.5915682871657993,0.17763545313499424,0.11653150505278001,0.2535126963598539,0.3080112353062805,0.16659840651858693,0.3832815535941904,0.20588790170194282,0.050995023265714395
168,172549.0811100006,160378.0,"[1,2,3,7,9]",5,0.17956049422210218,0.2795470441094885,0.4197001453762324,0.38907739215790194,0.3476256627802801,0.2434995075577936,0.28099991613162695,0.38026692206864127,0.3868960949287843,0.14429066139315097,0.2642535191284668,0.1373850213586176,0.2055657370555832,0.26584456344174384,0.17997706663570137,0.08391886523720113
168,47778.80039310455,42338.0,"[5,10]",2,0.33362377384542935,0.2585584437404039,0.5294241534578024,0.5248588925157853,0.4573870474341388,0.31295144787483486,0.29911706537567506,0.352589489699289,0.7095056624245029,0.4368560393554537,0.3251385337288477,0.139432838887867,0.37269659880757855,0.5251696539917078,0.2732931280011482,0.20038517458191385
168,180165.81539964676,159172.0,"[3,4,8,11,13]",5,0.17755609805977662,0.3971443480147481,0.4974189182788351,0.39334119211133567,0.5169608992146387,0.2289693804052618,0.3106939951535873,0.3396242048058921,0.5210227741085434,0.14976784241028473,0.24951239726461324,0.10360524565579769,0.3256269147440279,0.3805233582455752,0.18753274997635863,0.08645047449833869
