time_in_hour,cumulative_size,size,pcore_ids,pcore_power,AF700 CD48_[R 730_B-A],APCCy7 Ly6G_[R 780_A-A],BV421 CD117_[V 440_F-A],BV510 SCA-1_[V 525_E-A],BV605 CD11b_[V 610_D-A],BV650 CD150_[V 660_C-A],BV711 CD11c_[V 715_B-A],BV785 B220_[V 780_A-A],FITC Ly6C_[B 525_B-A],PE CD115_[YG 582_D-A],PECF594 CD135_[YG 610_C-A],PECy5 CD3-CD19-NK11_[YG 670_B-A],PECy7 CD16-32_[YG 780_A-A],PerCPCy5-5 CD45_[B 695_A-A],_FSC-A,_SSC-A
-1,0,0,[],0,0.0,0.0,0.0,0.0,0.0,0.0,0.0,0.0,0.0,0.0,0.0,0.0,0.0,0.0,0.0,0.0
0,137791,137791,"[0,1,8,10,13]",5,0.3360233725207038,0.18662191595241584,NA,0.5773927650862554,0.3827390748016901,0.24666656593681768,0.010833686938909182,NA,NA,0.42310800937652127,0.19931712518234113,0.9263621414823924,0.6642515567127009,NA,69538.97656595873,14999.266309120274
0,164710,164710,"[3,4,5,6,11]",5,0.4017570592920847,1.6757118887013496,1.9790734220023016,0.8146938238722723,NA,NA,0.1073850350009038,0.7877940652905182,NA,0.7425125565417984,0.22807889404407033,0.2094248007771219,1.9952511896788132,NA,70369.74658490694,24238.28469431105
0,34270,34270,"[9,12]",2,1.769282920776192,0.3728129937554656,NA,1.0474433151152582,1.8402797162532685,NA,-0.05715373166033233,0.8250056487014787,NA,NA,0.5480327662095088,0.23640096364166974,2.4021417175372073,1.8935858077910763,79152.18768602276,35702.05917712297
24,187838.75,153391.0,"[0,1,8,10,13]",5,0.322513510070475,0.1781641632264357,NA,0.6553484167909853,0.34260890584610193,0.28344327186882934,0.0017482175070413497,NA,NA,0.3938432685801039,0.18955116430981045,0.8863365771825569,0.6011933963612394,NA,71905.49264196013,16506.38224540995
24,216594.25,169997.0,"[2,3,5,6,7,11]",6,0.43461882472988744,1.484698724178965,2.0151851008925523,0.8929534617932151,NA,NA,0.11836813962857962,0.8504976794305432,NA,0.7548327725378235,0.2223801213374781,0.2312104101251532,1.8299892230010615,NA,70789.3933103026,27457.826604353573
24,42912.5,34345.0,"[9,12]",2,1.751139329699973,0.44048150932711794,2.1681468858782265,1.2202534442703281,1.8319038109175687,NA,-0.016581757180321066,1.0386493503815735,NA,NA,0.5538620642353602,0.2843962595048105,2.3585559191377876,1.9167178095951167,NA,NA
48,202452.6875,155493.0,"[0,1,8,10,13]",5,0.3036254889599259,0.18313996719263725,NA,0.6369126260876312,0.3124334021411701,NA,0.028865774690256973,NA,NA,0.3557266433496976,0.1835582352654539,NA,0.5822634712131828,NA,68397.61907334537,16672.282070841815
48,145310.0625,108505.0,"[2,3,6]",3,0.23781953886798113,NA,NA,0.711554376579651,NA,NA,NA,NA,NA,0.4721301062065195,0.1243969606642854,0.14078137097267573,NA,NA,65235.65033908078,22590.292203611203
48,45272.5625,31091.0,[5],1,0.584881513355928,NA,NA,0.7523365419425065,NA,NA,NA,NA,NA,0.5600400356452157,0.20038510023867895,0.09113392403097431,2.3457072953306373,NA,NA,25166.108766209138
48,49368.125,38640.0,"[9,12]",2,1.8039636256073546,0.3955208694324619,NA,NA,NA,NA,NA,NA,NA,NA,0.5788991694109376,0.25277667265062276,2.4797314101153254,NA,NA,NA
72,221029.96875,169728.0,"[0,1,7,8,10,13]",6,0.2914343147012377,0.2936957785805876,NA,0.7741065398792135,0.4379079150566869,0.26928094425593696,0.009960852155999067,NA,NA,0.36492953412510776,0.20108400520516545,0.7154737815197982,0.6668895960021805,NA,69286.34513504175,18417.428233925788
72,223373.796875,172073.0,"[2,3,4,5,6,11]",6,0.4921745621244611,1.480668897965311,1.696565498674206,1.0518372437223555,2.299824888278805,NA,0.07820844198042742,0.788666822927365,NA,0.7658401087879382,0.32518723566720276,0.18521035847093947,1.8300555798517486,1.503312369097128,72214.32756513832,28798.341766110494
96,115597.9296875,81546.0,"[1,8]",2,0.4110924363280344,0.35658868982840675,NA,0.7728304088998974,0.5127359485068923,0.2589360440684021,0.12866801767243397,NA,NA,0.43514623032318134,0.2502768699825366,0.7933725536831691,0.7281997636794982,NA,69522.79767012995,17171.820236021216
96,193089.86328125,138240.0,"[2,3,5,6,7]",5,0.4974517173156634,NA,1.916355358686411,1.188076294643213,NA,NA,0.41109793278431317,1.0489803460115792,NA,0.7537174751201566,0.27705212379440125,0.21896954159687643,2.147737869892925,NA,70973.36552327851,25325.76925530856
96,131277.38671875,95580.0,"[8,10]",2,0.4162801316749938,0.2073432876751844,NA,0.8820754824459103,0.3611571359252439,0.24119434580437749,0.10191626207896798,NA,NA,0.4219780357198669,0.2188144855152392,1.146836057131737,0.7171890861333653,NA,71376.41840650441,15555.335519246068
96,26283.06640625,21504.0,[12],1,1.949087417669401,0.468072498282591,NA,1.825068838804226,NA,NA,0.35262025580335843,1.165125113869082,NA,NA,0.6273980379358415,0.3093639111005252,2.3893620411130887,2.140193153782177,76117.28271455695,36150.27965397725
120,106698.482421875,77799.0,"[1,8]",2,0.3970909556886051,0.3930362991080205,NA,0.8213655934446944,0.5600524205270974,0.2576524418336865,0.1677471668267434,NA,NA,0.45034143367834,0.2956712049185959,0.7241875498158203,0.711564090751332,NA,68312.46690433848,16771.90772017571
120,248498.4658203125,200226.0,"[2,3,5,6,7]",5,0.4371723194940278,NA,2.1522786079955085,1.269550177067106,NA,NA,0.5381517455316356,1.139362801433779,NA,0.6376780148393025,0.24605574441463585,0.1998583011588415,2.3716285684095664,NA,68515.27930834948,22769.953126557702
120,109022.3466796875,76203.0,"[8,10]",2,0.3814912036107885,0.18956225328406218,NA,0.9368699619550123,0.37017962468141885,0.23619846029173708,0.13641890926420652,NA,NA,0.42511801447161024,0.2423952011903041,1.1612487904221536,0.6780780068961046,NA,70473.61696415397,14623.38272546123
120,28603.7666015625,22033.0,[12],1,2.0087478204849223,0.4410826479802088,1.7977198316635152,2.053986575228095,NA,NA,0.3962352987891933,1.3106233454515142,5.387705313396522,NA,0.6704443103834863,0.3111145993025337,2.42732601107836,2.227507423595189,73101.61295150135,34538.57892035552
144,94482.62060546875,67808.0,"[1,8]",2,0.47981539325795786,0.3181795371702876,NA,1.1709469914101582,0.49634370477042866,0.27713189329625454,0.24410480576160154,NA,NA,0.48541593462784993,0.2933317097637951,0.929904666048778,0.7726868667214027,NA,68379.07119738462,16276.296586725
144,194268.88012695312,143783.0,"[5,6]",2,0.4011547182182933,NA,2.0912287593977354,1.477372450402588,NA,NA,0.7075485269267259,1.1869220766451951,NA,0.6858084367626561,0.14866735518154295,0.2529613235221253,2.443597552388392,2.172797183979978,67829.70526290391,20837.146216713434
144,112628.58666992188,85373.0,"[8,10]",2,0.4151106798742372,0.11944072884581036,NA,NA,0.33814901169416656,0.24983793781634822,0.2291880644255575,NA,NA,0.4532538812902309,0.23519775005299604,1.4379731511355671,0.7509420300797504,NA,70643.27871242084,14354.76284559485
144,27386.941650390625,20236.0,[12],1,1.9643206640734932,0.3343856242369374,1.7959207128655037,2.410934829344153,1.8715057223965261,NA,0.7008902814525393,1.3350269444358553,NA,NA,0.7271357042199895,0.4056755201082657,2.2879431391275045,NA,74643.69387651092,36804.50922246353
168,141257.1854248047,130561.0,"[1,2]",2,0.40440442403537147,0.8003134364373223,NA,1.6323560211792003,NA,NA,0.32832350507230723,NA,NA,0.787018439612902,0.3564927410588674,0.3047562737804176,1.2759062364056462,NA,64970.536661176455,25345.3973961432
168,147482.22003173828,98915.0,"[5,6]",2,0.42915707928626223,NA,2.097237008405527,1.5929066869482749,3.0940325354287297,NA,0.7262857469282253,NA,3.5877217656419185,NA,0.17658574306810282,0.24829467182646336,2.307032386498151,NA,69484.25307122522,23248.27207240846
168,91724.14666748047,63567.0,"[8,10]",2,0.2885117290040522,0.11899320010846681,NA,NA,0.3577981652717104,0.29875853243464356,0.282534683341503,NA,NA,0.46703470773505307,0.2379186553265642,1.329059433764598,0.7613620896894199,NA,71363.28538990994,15441.221251747516
168,52103.58215332031,40790.0,"[9,12]",2,1.7313458302285387,0.3588606249293895,2.023149326594734,2.714306382566123,NA,NA,NA,1.221555338832082,NA,NA,0.8040359623754405,0.4280661840782639,2.2992787386520397,NA,NA,44476.16394979434
