time_in_hour,cumulative_size,size,pcore_ids,pcore_power,AF700 CD48_[R 730_B-A],APCCy7 Ly6G_[R 780_A-A],BV421 CD117_[V 440_F-A],BV510 SCA-1_[V 525_E-A],BV605 CD11b_[V 610_D-A],BV650 CD150_[V 660_C-A],BV711 CD11c_[V 715_B-A],BV785 B220_[V 780_A-A],FITC Ly6C_[B 525_B-A],PE CD115_[YG 582_D-A],PECF594 CD135_[YG 610_C-A],PECy5 CD3-CD19-NK11_[YG 670_B-A],PECy7 CD16-32_[YG 780_A-A],PerCPCy5-5 CD45_[B 695_A-A],_FSC-A,_SSC-A
-1,0,0,[],0,0.0,0.0,0.0,0.0,0.0,0.0,0.0,0.0,0.0,0.0,0.0,0.0,0.0,0.0,0.0,0.0
0,132996,132996,"[1,2,5,10,12,15,17,18]",8,0.3675133885530433,0.40419400530842786,NA,0.577396940208732,0.6355104933306222,0.27019895620920353,0.05359681867875654,NA,NA,0.4659446854943019,0.22160457565640446,0.7030362820310376,0.7949879178321163,NA,68603.52660230384,16139.772985653663
0,27552,27552,[3],1,0.2794204907447624,0.09106531631099113,0.1844829872604552,0.7702633388864668,0.38419997597270816,0.23303378491579507,-0.05066604217480508,NA,NA,0.44516654221109264,0.1924486367958833,1.4609690464939022,0.7858962052845543,NA,71240.87804878062,14175.442508710748
0,163624,163624,"[5,6,7,8,9,14,16]",7,0.35925880561530943,1.6983366614066284,1.8629200457023098,0.7733057938627512,NA,NA,0.1487034565711549,0.7734138848701839,NA,0.7058008677577826,0.2059234188749719,0.20731817953967502,1.9496106159059723,NA,69109.71573852247,22388.30020045962
0,26587,26587,[13],1,1.8671694160303616,0.32784911945688133,1.715956909730299,0.8974805395870287,1.7240407127543569,NA,0.028481613570554565,0.8148071329973083,NA,NA,0.43417996817995075,0.21210914943393533,2.384242087072646,1.815643257757548,74482.97468687725,29342.862602023557
24,214956.0,144735.0,"[1,2,5,8,10,12,15,17,18]",9,0.3736382130924454,0.3939791152398646,NA,0.6465585787207617,0.6244303273390868,0.3089160822819561,0.043056947891669584,NA,NA,0.4562262948184779,0.21560478644233827,0.6478370896229877,0.7538100567697553,NA,70281.75842497997,17884.323117289063
24,66971.5,47046.0,"[2,3]",2,0.2849281375585173,0.12100938105016379,NA,0.7904931676534064,0.313845786244908,0.2892169537564411,-0.022280265859355275,NA,NA,0.4050681704157695,0.18447394525282812,1.29682969429534,0.6687497987502097,NA,72897.07269510152,15525.687195299466
24,212023.0,136737.0,"[4,6,7,9,14,16]",6,0.4202247867236135,1.5661271049697283,2.015291607655746,0.8438096891846678,NA,NA,0.1296217272748703,0.8233793158100675,NA,0.7349327110667233,0.18493139918781099,0.2089147993684669,1.9201009158558193,1.6167162508949484,70206.5192549863,25881.17613655134
24,54244.0,36452.0,"[11,13]",2,1.7006480863966378,0.4466693767789818,2.196236585815965,1.3064481031358532,1.8213735394052812,NA,-0.10196828672293679,1.0234802202178797,NA,NA,0.6460722859763179,0.3074536810246282,2.34499784580785,NA,NA,NA
48,278539.0,149366.0,"[0,4,5,6,7,8,9,14,15,16]",10,0.3822239553455735,NA,NA,0.7629056272945629,NA,NA,NA,NA,NA,NA,0.16299334048642544,0.16711613674476344,NA,NA,NA,23661.94746157631
48,148904.0,92764.0,"[1,2,10,12,17]",5,0.37688706318836296,0.25404203273752657,NA,0.6560933476753519,0.39900349570023996,NA,0.08799060254259272,NA,NA,0.4210233364432878,0.23298928787003703,0.48231276613288143,0.5679337163189034,NA,NA,18299.728254445752
48,150329.75,83607.0,"[2,3,18]",3,0.2854332303968625,0.1267528260274604,NA,0.6755449453567888,0.25487015585571227,NA,-0.006501146489631182,NA,NA,0.334800166967948,0.15775114756891462,NA,0.6286581146878757,NA,70499.41888415304,15317.365830781931
48,20648.75,13004.0,[11],1,1.3273633046673516,0.5593897897572568,2.636487899061685,1.9636636644712406,NA,NA,NA,1.0351672127852716,NA,NA,1.133118897233501,0.4311317025606932,2.298488694025084,NA,NA,NA
48,44779.25,25302.0,[13],1,1.971126889373959,0.34452303990686417,NA,NA,NA,NA,NA,NA,NA,NA,0.3981505559382854,0.21181060304716526,2.492460566607322,NA,NA,33526.56813144503
72,324001.875,182426.0,"[0,4,5,6,7,8,9,14,15,16,17]",11,0.47490317557884554,1.4647695451924565,1.7549312487632398,0.9707834124455341,2.2878209300536096,NA,0.10704490122201982,0.7699936642519427,NA,0.7276188122885087,0.27256266787653605,0.17945793836918256,1.8136586311120908,1.4724315424324266,70190.82925986132,26985.158848231928
72,163123.625,90978.0,"[1,2,10,12]",4,0.33524222654135927,0.3167449549697299,NA,0.7343871652948915,0.4637972708704736,0.30461891886216397,0.04967117639304419,1.6120768332085103,NA,0.40442426447963,0.2296486677658005,0.48058017513558227,0.6090750062115485,NA,67725.3865097713,19009.83335798221
72,161904.875,86740.0,"[2,3,18]",3,0.28285749869251453,0.21201490245584909,0.2114677226604731,0.7828776045787658,0.33462792684979004,0.27485940675968346,-0.028352964932348623,2.975968466143259,NA,0.34505576958768513,0.1748642073323996,1.020076533914585,0.7006016962815272,NA,71232.80491708504,17004.64542528431
72,19131.375,8807.0,[11],1,1.3982255573697675,0.6333368683445211,2.4729188699126268,2.067736555154833,1.9917433876093562,NA,-0.361020586196763,1.0690236360689962,4.434390540153317,2.875094461179605,1.1551084736264396,0.42960776047853244,2.320641056399518,2.2727584005592916,106115.51548176716,NA
72,28943.625,6554.0,[13],1,1.8983207741773882,0.3925258938496756,1.6853666069773534,1.1465258313963913,1.7455539836924219,NA,0.07480508820165221,0.8834654162488431,5.565036460317228,2.947204498278945,0.43238275969233175,0.23213825332002858,2.4163640629197483,1.8347884322886243,74853.7544968882,33509.026460921974
96,307842.9375,145842.0,"[0,4,5,6,7,8,9,14,15,16,17]",11,0.49885564705378793,1.7086124462076735,1.8556069581479133,1.0993897056599868,NA,NA,0.3129084710853913,0.9518703333347318,NA,0.7405393619445148,0.2703153937598546,0.20868444347086712,2.007868810533056,NA,70158.78535787444,25480.288798244717
96,233729.0625,97727.0,"[1,2,10,12,18]",5,0.38487363825369636,0.28962804273564435,NA,0.7883480329775661,0.4352390636781478,0.27175090211396413,0.075921665502662,NA,NA,0.41895337232238805,0.2305145253714147,0.8093830201394994,0.6949687474501048,NA,69859.89426111685,17465.249500155667
96,54923.1875,28411.0,"[2,3]",2,0.41373666738774717,0.25804980778610354,NA,1.173263052521074,0.47466517712464285,0.3158107952595144,0.13723124532102693,NA,NA,0.500107095939674,0.26275860099274695,NA,0.7958505859000872,NA,71792.27185239374,16837.307120967696
96,68862.75,35932.0,"[4,11,13]",3,1.6351744133875086,0.6848538131301067,NA,1.6748388074140523,NA,NA,0.03193415304808678,1.1490271030155852,NA,NA,0.6650722695016582,0.30579140626463586,2.385854764185836,NA,NA,NA
120,363363.46875,209442.0,"[0,4,5,6,7,8,9,14,15,16,17]",11,0.4822288231465106,NA,2.0469490521860663,1.2259845154805857,NA,NA,0.4615433970198066,1.0815625993647302,NA,0.6812944914063684,0.25862798196951875,0.2077309542975725,2.22811496554872,NA,68697.720741912,23511.30638803387
120,217565.53125,100701.0,"[1,2,10,12,18]",5,0.39840134891771295,0.3289297969673357,NA,0.8448850711170994,0.4881144370677366,0.2662912679708507,0.1288124610303618,NA,NA,0.44231014152001025,0.26906099147469753,0.7988582738163386,0.7027232996456348,NA,69124.55779918008,17004.52492977317
120,36710.9375,18660.0,[3],1,0.37637448000937757,0.14067719268183643,NA,1.3802309003541557,0.4376556263579432,NA,0.16093473794765023,NA,NA,0.5119280863324106,0.2659980889610587,1.6681069001906765,0.8053699839608442,NA,72605.8594390296,14785.389340710752
120,57589.75,31197.0,"[11,13]",2,1.9283832650867796,0.4770679422293287,NA,2.005850846203662,NA,NA,0.1254479445723966,1.264860213995854,NA,NA,0.7824170908956356,0.3520442238196687,2.4255471607230534,NA,NA,42662.81444180586
144,350326.359375,168864.0,"[0,4,5,6,7,8,9,14,16,17]",10,0.4963637767211795,NA,2.0428056766012817,1.4468170626052492,NA,NA,0.600584346621253,1.1731006406902313,NA,0.7355540520746117,0.21841806237817796,0.2669362731009668,2.284507262350786,NA,68278.36810987887,22466.105299758878
144,200641.765625,91859.0,"[1,2,10,12,18]",5,0.45805360329498934,0.2994992734458388,NA,1.1347201200417776,0.4741010415922302,0.283498201670388,0.19997876417134908,NA,NA,0.47996704384828814,0.2825618767200502,0.9368045590042087,0.7473233426425422,NA,69046.07147393367,16633.06934926693
144,44052.46875,25697.0,[3],1,0.35799010651609686,0.08210632799342443,NA,1.8382537522425602,0.4061250282794524,NA,0.22735902975214772,NA,NA,0.517316735782745,0.2523350602566148,1.8249077118773083,0.8401002781888657,NA,72573.38611698101,14502.307501211211
144,78372.1875,39355.0,"[4,11,13]",3,1.7373693323460506,0.5609917120219641,NA,2.1774965190976077,NA,NA,0.2497247273907277,1.3170177038703428,NA,NA,0.7397786342017807,0.3938769960062378,2.331781754868194,NA,NA,40063.790614495796
168,238283.7109375,159879.0,"[1,2,5,7,8,10,12,16,17]",9,0.44177764813497644,0.7487990499509101,NA,1.511615828748106,NA,NA,0.3317744471939612,NA,NA,0.7194429689545455,0.34739438564339276,0.3979176742874607,1.1806180718734862,NA,66005.47851810703,23127.47240807183
168,124516.015625,53600.0,"[3,18]",2,0.33614824657839737,0.11711615321189583,NA,NA,0.3557195852758466,NA,0.247896534456868,NA,NA,0.4717977751615823,0.23211510568024618,1.4543126824327355,0.7828840283937976,NA,71768.86707018713,15118.57064772671
168,143943.53125,67932.0,"[4,6,9,11]",4,0.800984715142891,NA,2.167145468066496,1.7685979059168533,NA,NA,NA,1.2449806972707664,NA,NA,0.4193229451808702,0.2891830126328262,2.3454651869022287,NA,73809.92803731844,29976.264570763677
168,67275.4375,36341.0,"[11,13]",2,1.8310161239550566,0.381813039632771,NA,2.5701451831738757,NA,NA,NA,1.2406802505333632,NA,NA,0.8591924359852996,0.44292514954183326,2.313757947777186,NA,NA,NA
168,249020.0859375,98564.0,"[5,6,8,9,14]",5,0.46848479771915086,NA,2.044385535575858,1.5441718343968405,NA,NA,0.689276513625221,1.1256269129464749,NA,NA,0.1996002859256767,0.25783296892861907,2.2690903079572045,NA,68689.0332344235,22740.01706601779
