time_in_hour,cumulative_size,size,pcore_ids,pcore_power,AF700 CD48_[R 730_B-A],APCCy7 Ly6G_[R 780_A-A],BV421 CD117_[V 440_F-A],BV510 SCA-1_[V 525_E-A],BV605 CD11b_[V 610_D-A],BV650 CD150_[V 660_C-A],BV711 CD11c_[V 715_B-A],BV785 B220_[V 780_A-A],FITC Ly6C_[B 525_B-A],PE CD115_[YG 582_D-A],PECF594 CD135_[YG 610_C-A],PECy5 CD3-CD19-NK11_[YG 670_B-A],PECy7 CD16-32_[YG 780_A-A],PerCPCy5-5 CD45_[B 695_A-A],_FSC-A,_SSC-A
-1,0,0,[],0,0.0,0.0,0.0,0.0,0.0,0.0,0.0,0.0,0.0,0.0,0.0,0.0,0.0,0.0,0.0,0.0
0,162741,162741,"[0,4,5,6,7,9,10,14,16]",9,0.3094664187942817,1.8645573691079615,2.0299710657732235,0.7001314494810829,2.7187999240633833,0.3182919904265069,0.16252536048076793,0.6665087490060957,3.909973063481224,0.5684621788240202,0.1453243286510424,0.13197430184771985,2.0684899430198893,1.5800046112964787,67343.99950842132,19892.550150238654
0,52407,52407,"[1,17,19]",3,0.4540638807220432,0.23921951439692535,1.4936817541549705,0.6575041814452383,0.43058189455607154,0.29305818276184303,0.0753434130173356,1.34878429564752,1.1120050160665609,0.5488251793081081,0.30047781471941626,0.5315453103402212,0.6025451363749107,0.8765033509264,68295.35291087054,17403.75751330926
0,91315,91315,"[2,11,15]",3,0.263156210206432,0.1059674008760858,0.06137810076109851,0.5495077573345104,0.24226573412909502,0.2299009316979681,-0.016070408125726132,3.02395736673056,0.6741934896676366,0.3172682161638293,0.15239693817007183,1.1836576048622895,0.6302224011608158,1.213648800503748,69881.1223566774,13222.650210808715
0,22739,22739,[20],1,1.9032765959364768,0.2768582537050919,1.4938565038040315,0.8296029185540208,1.7203289901490968,0.17736725058269776,0.21868241136375133,0.7599720541360551,5.683881643959742,3.161943489731288,0.41564368195610735,0.18513818985004082,2.3750435111922146,1.793263060776636,71874.75825673963,26056.06086459379
24,190181.25,149496.0,"[0,4,5,6,7,9,10,14,16]",9,0.35385333753590165,1.6812779649807794,2.086713679270422,0.7651203515698772,2.6303335161089696,0.33705226862532944,0.17618941249202846,0.7363397458240497,3.9816731119602955,0.5967738508922412,0.12248011749448917,0.1396900512340199,1.9427123940412092,1.513239137347917,67052.44038515899,22780.88246869752
24,67829.75,54728.0,"[1,17,19]",3,0.4620344010887476,0.22624217125597168,1.5247139733597677,0.7379668110858484,0.3884020745764203,0.3297145151205745,0.06867234237925768,1.1159782988511617,1.1626324116077376,0.5057057474043477,0.28400294112834334,0.4524520475565672,0.547698991379156,0.805823658556897,70632.15252894184,19365.98970215864
24,124728.75,101900.0,"[2,11,15]",3,0.24570797233798425,0.09694152186043059,0.14761410814067366,0.6181453898740288,0.19860783074469657,0.2633330747602274,-0.030357882088122956,3.01424071603979,0.6593324397723105,0.30066847643987615,0.14325136503211544,1.1627251701712689,0.5639683454576482,1.2317195529378715,72472.9977330807,14298.623789623432
24,38008.75,29195.0,"[12,18,20]",3,1.835654831788731,0.3957723460058533,2.0670251070806143,1.1765355178478583,1.8036334172065582,0.5993034358535865,0.08473515898969586,1.0215938255335923,5.543238675706266,3.1511464831782128,0.5367582492189369,0.26231304873220107,2.4038347427894844,1.9200870748643368,78447.99778998242,40464.05777616982
24,16476.0,14045.0,[13],1,1.3658509929746356,0.5829496791393494,2.9712545177075627,2.3060098947863703,2.108665155863069,1.7669617956269692,-0.8481039578629577,1.119358731306146,4.513293384453132,3.390170862952179,1.4625281501881533,0.5141468164451344,2.3927622848537293,2.4463519175315773,124677.99660111673,110504.991502792
48,185974.3125,138429.0,"[0,4,5,6,7,9,10,14,16]",9,0.29862392916393876,1.6919870707002929,2.0165007242972712,0.6621503405611491,2.6053431205163284,0.3283918007527251,0.12995538525850892,0.6434714973895925,3.93325364903824,0.4292846351159394,0.1079661622048631,0.09944881030310326,1.9567194697456585,1.3492112057811094,64868.30718624112,21619.408024428023
48,73089.4375,56132.0,"[1,17,19]",3,0.4386260916060982,0.2502641430088617,1.4254070184576833,0.7219613465497394,0.39427852220780624,0.33709241386622724,0.05974716373859046,0.8173298405822815,1.231810301978491,0.46321834693282715,0.2778626742612289,0.3385886741184395,0.496748634618036,0.7242059921038528,66508.69573322422,19968.30067272015
48,127138.1875,95956.0,"[2,11,15]",3,0.24037487900075072,0.10962296809674044,0.1638551928285743,0.5756753039861588,0.20073582833048942,0.26117547298780996,-0.021043185009804954,3.0681177862842786,0.6829316484696021,0.28664209143053476,0.129709004637661,1.0754446429264266,0.6050158734261079,1.1155821416057758,70159.60969240707,14873.005358834538
48,53942.4375,44065.0,"[4,8]",2,0.24789984873459248,0.9637468844636627,1.3516634977412165,0.8008850572323154,1.4713200476747024,0.005245165944261165,0.4507573017058575,0.8375228274549578,3.623552704409478,0.42977738482108996,0.1934843950380003,0.14483969882362868,1.1180032405353537,0.8634840813795737,59167.16522126036,19485.912181851145
48,37508.5625,29461.0,"[12,20]",2,2.0267465448855786,0.32906123127552966,1.7596993504833018,0.9084787201905673,1.7814710577484658,0.4876090645002702,0.06771456430781697,0.8576419546336966,5.817101029223338,3.1047185980534584,0.37677209298710634,0.18659665818638194,2.543028173580364,1.800055535251113,71926.09516826988,32167.73140799509
48,18369.625,12796.0,"[13,18]",2,1.2207626949107573,0.5883770764407132,2.6785306001789464,2.1482165610586663,2.0771398096075733,1.3877321692025613,-0.3266446220527133,1.0382675360717806,4.118061441806096,3.0813273091108235,1.2801943566519434,0.4704393545765091,2.2762865130514367,2.3747443076035855,110104.30664752267,88679.50652231625
72,217438.171875,168297.0,"[0,4,5,6,7,8,9,10,14,16]",10,0.36407516309958887,1.5477376981188602,1.673408132608111,0.9492171566645027,2.3143693953005147,0.3187881206647629,0.14089367198506464,0.7831097726350116,3.6114032514149206,0.5559363847612445,0.2589953421930411,0.1499503654829153,1.7513950973007963,1.3835326998043163,68561.97144432526,24674.617413010325
72,193503.875,146862.0,"[2,11,15,17,19]",5,0.2520971325696857,0.2268361185964749,0.34340633487370953,0.7089677507816394,0.33769716757763213,0.2549080066634697,-0.018333059365821303,2.418192068832968,0.8477028280227427,0.3273663607096645,0.1699914974537906,0.7815002301413816,0.6197589979221175,1.0286090408845063,69895.80922862646,17033.02343170109
72,34233.796875,22901.0,"[12,18,20]",3,1.833688345349042,0.45313955308282283,1.4884554276649138,1.6208459364544252,1.7649993576673784,0.5042736259288689,0.10354041570623895,0.8932066386520376,5.340208857725608,2.934229314296047,0.5588511149133963,0.25040301510340424,2.393531124554821,1.9645670038585854,79223.22451999414,39618.4315444852
72,14603.75,11967.0,[13],1,1.391085190226178,0.7155189834695794,2.5332509495923525,2.350655402082072,2.0418884465805074,1.6466430457620123,-0.7706118878102795,1.176818516361379,4.411734850750017,2.85217842604641,1.429311255253361,0.45750189699456556,2.3882885855569933,2.3964111452077796,121737.49995720269,103084.92017461223
96,41575.33984375,26920.0,"[1,17,19]",3,0.5538228810469075,0.35886419124307967,1.694756786379426,1.0050045902038418,0.498701606807725,0.38852578254067494,0.14271668395055803,0.9812741095763018,1.3177254928772442,0.5732469988792043,0.40239243037756367,0.38343070695538295,0.6277194181400937,0.8002639980660107,68292.22005570268,21742.012329837402
96,126414.88671875,90313.0,"[2,11,15]",3,0.37702995377895565,0.15636238132888547,0.1943747057295715,0.8472062460421159,0.2766923328427442,0.22291575725880186,0.09209433564035585,3.2074268243571726,0.6790196065062767,0.3857746657448968,0.1948158813253067,1.2796263533387038,0.6875814634465406,1.3161933017380616,71799.89159776496,14715.719186924405
96,116982.19140625,78351.0,"[4,6,7,10,14]",5,0.27759996226595507,1.8613053942504934,1.903490142481378,1.0298896247021356,2.667339251921667,-0.16240592658898545,0.706551678431584,0.7931334608022196,3.607438583598975,0.5588695655630157,0.17034834318411907,0.1692104848839978,2.009372821323944,1.5981584541353888,67412.47471902546,21679.127017230006
96,61784.5546875,52345.0,"[5,9,16]",3,0.6228229751681176,2.388894232144941,2.208784759376067,1.125874112585914,3.3110645913354078,1.2702512224407452,-0.053550754170394566,1.1826481653769503,3.9424170757143533,0.6999777850846528,0.26367770509329524,0.12081697776743827,2.5384178073770887,2.0966715144938557,70112.41406384046,23117.99794017068
96,30803.28515625,23377.0,"[12,20]",2,2.154465840892307,0.38184905893356413,1.468842472062465,1.7935773016421797,1.7400292544720117,0.4218928402535729,0.19944979189897616,1.1163871613592296,5.656656733019306,2.934792880521938,0.5684440742622017,0.25406849054554015,2.4775127022779717,2.1346904004449323,73447.01481591686,31621.223071149143
96,15365.1015625,10582.0,"[13,18]",2,1.5244476777254452,0.6871750451406018,2.696419000925149,2.470082360143182,2.1684224337154547,1.5427944706787768,-0.08190128625849091,1.2769442687962727,4.282953488665481,2.9942998939200165,1.5603744280766598,0.5936973541922064,2.5362695935210784,2.609671706528796,117191.51736000803,92561.85871696868
120,85573.048828125,63529.0,"[1,4,10,19]",4,0.4663681012339833,0.8718608239121028,1.7013546165057103,0.9781886673181934,1.1620540706805107,0.3455422880720793,0.24140258692842131,0.8846125321516602,2.2511926489755085,0.5737618851535174,0.39368490346320284,0.2570750543787841,1.0224208273333164,0.883951581504945,64282.26484513269,20154.660058642818
120,95622.130859375,66932.0,"[2,15,17]",3,0.3676934454185561,0.1695274731957852,0.3892409360169067,0.7956018982544562,0.3200570410277095,0.1313222073851108,0.16171906078491327,2.9628686922924894,0.6704883045086688,0.38926260417074376,0.21849196152480754,1.204526659613723,0.6379236195821353,1.300051380639035,71304.91866040681,14340.053396781777
120,108886.498046875,91390.0,"[5,6,9,16]",4,0.5489738047469057,2.525429648998206,2.33663377615369,1.2089181849420894,3.441553060808984,1.2298761350103578,0.12269447724280802,1.1391950534217767,3.9582601344001414,0.5981791607190531,0.26326973366974427,0.11323757420149638,2.632689784793298,2.2025288899799804,67728.60907660656,21310.017650798003
120,123366.0390625,99017.0,"[4,6,7,14]",4,0.15361196192085447,2.2156278667080933,2.1930599587695325,1.1394668603188607,3.1285783986434903,-0.48565581934478685,1.0559669700976846,0.8357055646335132,3.739647274015605,0.44148575787722477,0.1057935193492141,0.15768745605186518,2.314833799426673,1.921257462982079,65871.8662000086,19711.4774230372
120,14862.76171875,11031.0,[11],1,0.29848704823959404,0.06763677606930862,-0.2991440260271907,1.9489544083808297,0.22701672609594103,0.8800163633371378,-0.11927476896262457,4.3129484445368425,0.8391247195190997,0.5420883318546353,0.2872418148930631,2.1168613118679254,0.8012835064573859,2.409888838505463,73625.4268356816,13537.015436281903
120,35165.8212890625,27465.0,"[12,20]",2,2.211408791760218,0.3962429309614217,1.6178368069803386,2.0820531838065652,1.829838278608427,0.36767854257250887,0.24444607534952612,1.3418736685586405,5.659151417329473,2.9862964808950787,0.616039065962549,0.27909195124999386,2.534266909624075,2.2650843457217356,70797.06931476793,30569.572056229867
120,15966.275390625,12125.0,"[13,18]",2,1.7281187001160692,0.7625321022646943,2.823954057409168,2.549297457047165,2.3700803134918957,1.5837033696573937,0.03335286612602317,1.304465315383215,4.264718120682294,2.996650597907119,1.5763342169652033,0.6241181857597673,2.6022667187601867,2.753079081155622,112388.63314850787,86109.28049050603
144,110693.57739257812,79886.0,"[2,15,19]",3,0.3929046543352239,0.1682421490429502,0.5502038918482763,1.0667379924823734,0.3340742120261089,0.13519769025116446,0.24455023758302108,2.7965514915795193,0.7932815647195207,0.4087479277520957,0.23371450108584524,1.1719851180724443,0.6885130961668188,1.1963053108600517,70218.77160295732,14430.8658827807
144,9953.354248046875,8429.0,[3],1,1.246678716817747,0.20567252609130238,0.889330927566431,2.6880120741799787,0.24025640290861316,0.5494825530157945,-0.35560715141897026,0.8479795173732905,4.404302528988215,0.6774709542817402,0.3884695338883666,1.2397105632047,0.5610213660194857,2.8039933376445427,77342.9379420444,20046.23335191521
144,117595.13696289062,82540.0,"[4,6,7,10,14]",5,0.20064458601682578,2.259537643387686,2.162968334022134,1.3167453262193467,3.1043275644239334,-0.350805298850299,1.0720100982859972,0.8232366636890784,3.6207435962055645,0.5185517142312365,0.07390617584382175,0.19693989087510833,2.333662569095154,1.943135407838399,65362.82250534291,18944.088745299374
144,86624.78466796875,62313.0,"[5,9,16]",3,0.5719922498397871,2.603438334103352,2.2595933562971413,1.3658223740787911,3.476426119402292,1.3422983167856655,0.14125015651899897,1.3312500338255289,3.8167912551933925,0.644509000884207,0.18658550093187642,0.15137354324041286,2.6265810676163164,2.202919715246609,67022.6313152306,20032.465640767867
144,11450.36865234375,9449.0,[8],1,1.0043909820471686,0.1492816008339619,0.22405816085370533,3.8253581584771656,0.5336617782694586,0.38708964289389325,2.047230141477581,3.9594722168319976,4.427894981914387,0.5805485611763664,0.6323937738191439,0.5167945179853577,0.7262961862403757,2.329189718789149,56363.25682643169,18327.818728202565
144,25360.6904296875,21645.0,[11],1,0.2296295200115046,-0.013249153661490709,-0.35289287708550754,2.8225088411364907,0.28323815727528423,0.7317951513455281,0.11314107194429912,4.453547626049087,1.2580747146096027,0.5676294004940085,0.2663272537997652,2.291405642586808,0.8870962085903934,2.4974104133105173,72185.88385637917,13471.30890029672
144,38202.455322265625,29411.0,"[12,20]",2,2.2067616327500836,0.33224001099514044,1.7769426519221647,2.352863538737743,1.9311520844933514,0.36743745873320344,0.47387072931376606,1.1726904252446477,5.531924083639119,3.3351226938434286,0.6401770238554816,0.3350907549849812,2.436890618792161,2.382264582861328,70847.38488655884,32668.34679669769
144,17254.56884765625,13263.0,"[13,18]",2,1.6466688603056598,0.6547093686013512,2.666758624224744,2.8217584056626532,2.5097412841271933,1.6057624160232924,0.36185097996562243,1.4435785168352613,4.486994531773952,3.0128941108822884,1.5017891636540472,0.6770411179020102,2.556444790151204,2.842628296686604,109409.96367826837,79109.14897681706
168,103613.39434814453,75940.0,"[2,15,19]",3,0.2570826935862971,0.20816888648557885,0.5936466418938804,1.2830031227955292,0.4559038903138739,0.18339244996097714,0.27599481066591514,2.5162864621859304,1.0029766131048192,0.40640157745613636,0.22287985051270764,0.9431617246725701,0.7073477349639442,1.1179872225977732,69055.62673846608,15799.069344828182
168,11378.338562011719,8890.0,[3],1,1.0234805892819254,0.19677605764821982,0.8894313206886992,2.906153297963455,0.2502525081855498,0.5994440685386004,-0.27352345413535106,0.8281920386283654,4.3269861362731605,0.7280415937735466,0.43358987082810385,1.2592044139019132,0.5581335195440015,2.6352666815341594,84159.30619058321,22682.596590536366
168,164108.78424072266,134710.0,"[4,6,7,10,14]",5,0.26411749815170604,1.6010602582085638,1.838972050659692,1.4671315944875354,2.502257989972532,-0.03585699973727041,0.7378729484630409,0.7583603530892788,3.5226442025239035,0.6743232401930185,0.17732330314508404,0.1868562972183605,1.8644012475936491,1.4846884572501053,64969.52380415901,22739.154317213954
168,61173.19616699219,39517.0,"[5,9,16]",3,0.6292329312899156,2.3832697097928586,2.2664632273605885,1.5096801293202584,3.428004899178084,1.3821628317265506,0.11459339628189857,1.293817818980446,3.7049566411771173,0.7460764990266592,0.21727534019661743,0.14436122658688422,2.4980205777160336,2.046505582343034,68248.98368876419,22583.49506299676
168,13406.592163085938,10544.0,[8],1,0.6944837283496088,0.16948453424998888,0.24136374889101253,3.603597656418375,0.5302882760756971,0.39022667084366036,1.8727353717193842,3.9062949214683087,4.349796002056662,0.5837137262265276,0.6626792641146491,0.5130359346686857,0.767917491602217,2.174792420077223,60675.64966413535,20358.880984635445
168,25038.172607421875,18698.0,[11],1,0.16371482827055006,0.017096692502128974,-0.3212281043732359,2.772284374507627,0.27486650096395815,0.7826676420465344,0.186036632031795,4.434542954409219,1.4573266083261154,0.6025465443794878,0.2794531066966539,2.0903867526700397,0.8992382387035204,2.3906040342264774,73626.63531292664,14757.991706081768
168,59515.769104003906,46518.0,"[12,13,20]",3,1.832749766474149,0.3971051120742297,2.2074314075792256,2.7153893216568457,2.138078259440618,0.8041382166209636,0.3977941967085612,1.0805271477862202,5.0928307461650215,3.1760874156450902,0.9132382667362173,0.41040810596342037,2.402109322829033,2.3838088271040423,86002.43041589585,52872.07064611872
