time_in_hour,cumulative_size,size,pcore_ids,pcore_power,AF700 CD48_[R 730_B-A],APCCy7 Ly6G_[R 780_A-A],BV421 CD117_[V 440_F-A],BV510 SCA-1_[V 525_E-A],BV605 CD11b_[V 610_D-A],BV650 CD150_[V 660_C-A],BV711 CD11c_[V 715_B-A],BV785 B220_[V 780_A-A],FITC Ly6C_[B 525_B-A],PE CD115_[YG 582_D-A],PECF594 CD135_[YG 610_C-A],PECy5 CD3-CD19-NK11_[YG 670_B-A],PECy7 CD16-32_[YG 780_A-A],PerCPCy5-5 CD45_[B 695_A-A],_FSC-A,_SSC-A
-1,0,0,[],0,0.0,0.0,0.0,0.0,0.0,0.0,0.0,0.0,0.0,0.0,0.0,0.0,0.0,0.0,0.0,0.0
0,108478,108478,"[0,10,11,15]",4,0.16885844623207913,0.23244048631829275,0.31025257169000986,0.28625688957869017,0.2596596389566581,0.22420426331502136,0.251273631906923,0.526681129781963,0.16241228526536763,0.10604233402446214,0.2475721691759357,0.23513749443279594,0.14964412969304203,0.2934592145669007,0.19961535180985146,0.05056822406123405
0,25763,25763,[1],1,0.1700505259071119,0.24927346543263157,0.3970446839222184,0.2889759327932857,0.27747249505282656,0.22720373282936962,0.26042319146454407,0.32545942714086445,0.22155361992022804,0.11324425094247684,0.2567397573990857,0.11617551761100178,0.13449325350678284,0.16154584919683734,0.19432251768081468,0.05267699515348381
0,157711,157711,"[3,4,6,8,9,14]",6,0.1708985470113067,0.4025674870546114,0.49297433785613975,0.3044332435865628,0.4994404505299382,0.2258343478923569,0.27155068588449527,0.31798215135857893,0.5642210196221643,0.13609345699462216,0.2464283874459514,0.0979697437265772,0.3245999319866107,0.36810512972868376,0.1899211029993572,0.07438912774371088
0,14520,14520,[5],1,0.27507277069331143,0.271891111629761,0.5805443904013404,0.45076924813856123,0.4449329809007754,0.42593155230007,0.18722595484830742,0.34401695403831556,0.6153891698208054,0.43728518723937276,0.3660913855759739,0.14545752714856366,0.3633442332786696,0.5234198680703185,0.37549186957408265,0.3295780792400708
0,27229,27229,[12],1,0.3488071303760732,0.24787592681557669,0.46129245530858803,0.32332649942270825,0.40305698038478277,0.253095432103283,0.2561152996397671,0.32573348432255467,0.7881707736408464,0.44497617199500966,0.2783493439721743,0.10386838595386284,0.3733274625523668,0.41359332981398644,0.21970747178005068,0.10726062835484942
24,222334.0,113856.0,"[0,10,11,15]",4,0.16751206204036706,0.23169553013000144,0.31394763925877917,0.2918637283617019,0.25644972922188536,0.22723849046486352,0.2510055763270912,0.52564415431808,0.16147072713071026,0.10396658675222953,0.24696938660713977,0.23314350173136025,0.14432251586767125,0.29419896377301596,0.2064834338147699,0.053275483853754815
24,57960.0,32197.0,[1],1,0.1699537906892883,0.2465595974376439,0.3964867925888912,0.2917084847289923,0.2732149630702437,0.23017763340325517,0.2584533959550875,0.3303443118859536,0.2235586586944138,0.10967303371354734,0.254772448804402,0.11789357161566773,0.13047483965874085,0.16187794158911767,0.20119757457271753,0.05685374593982054
24,301429.0,143718.0,"[3,4,6,8,9,14]",6,0.1744503290118364,0.3905977967063805,0.4979777298553421,0.3096552871031672,0.49251299440610546,0.22728277145885828,0.2723168836128604,0.32189293815958936,0.5716012562060334,0.1384470299082031,0.24527334010535282,0.09900195069216788,0.3141508730253343,0.3614069236984216,0.19055732717966206,0.08186697321692582
24,31572.0,17052.0,[5],1,0.27713258611950004,0.2729842996673039,0.5887926395619594,0.4543820247617622,0.44174844286613235,0.4278514368852226,0.19211031186792077,0.3490578718773664,0.6367303390996196,0.44070660446484217,0.36447062284573156,0.14753464662974433,0.35798700824224483,0.5218683477782502,0.3822512734522326,0.3429305874433112
24,113117.0,54541.0,"[4,6,7]",3,0.19319562893277847,0.3738245588804411,0.5142406779855379,0.3156956907669857,0.4901567968687285,0.3192627189776613,0.2428019028461466,0.3293702040702618,0.5854501688640278,0.14404650928165844,0.2541123526699923,0.09841683106389629,0.31609108740369424,0.3588631631440052,0.19755470106702583,0.09140794875579379
24,49960.0,22731.0,[12],1,0.35018877781930363,0.2527094919021511,0.48269113497886046,0.331390529878879,0.4034290082485826,0.2611389559430851,0.2580057602338984,0.3385612396015112,0.7982517464471155,0.4413540028138163,0.2771598026906028,0.10655063054146748,0.3742623262579861,0.4133763135305483,0.22180370301231134,0.12464770013306589
24,19503.0,10514.0,[13],1,0.23928084303535327,0.2550085430651565,0.6646147552175021,0.35431455349306906,0.2831569130394479,0.2824142921149661,0.26206302634353346,0.3428628938147485,0.2832273565574538,0.17711309979876586,0.2939545010276032,0.11793625428205595,0.17070900933182911,0.23551994772338383,0.1925043172575119,0.13046126642663644
48,326058.0,103724.0,"[0,10,11,15]",4,0.16671352466480716,0.23178741089718918,0.3112667525879155,0.29193989089256167,0.2550470603450073,0.22766753113363944,0.2520200601445418,0.5305376606090971,0.16291751379855438,0.10158611946462386,0.24620689049182093,0.22859455181446636,0.1448375070337008,0.28639622561916345,0.20345383740587134,0.05417349536686257
48,103869.0,45909.0,[1],1,0.16769505444662322,0.24920663511281502,0.3938974951975006,0.2940335532593806,0.27826060598510033,0.2307842686172554,0.2612290242384139,0.32103497080564114,0.2383226574761767,0.11146497231299467,0.2548664842641234,0.11001259380212566,0.12909580684283356,0.16101048581985986,0.18734880492860911,0.060399746236728294
48,313049.0,99342.0,"[3,4,6,9]",4,0.16416917271861609,0.38871928786790005,0.4800811733189891,0.3034671929812139,0.4707964267285531,0.20507990743713148,0.2788239876633661,0.314845510478284,0.556123403021415,0.12603353763187292,0.24370186438351812,0.0975936638340266,0.29662044594580966,0.3322697876747787,0.17967357662996822,0.0752014944272096
48,43950.0,12378.0,[5],1,0.2746718411934878,0.27459017773499567,0.5846254023045794,0.45392098035932893,0.4417951896652938,0.41957895712904913,0.19914337101738955,0.3488650094603467,0.625770949733713,0.4367725239828061,0.36298129488015707,0.14512455198178392,0.35822229084851676,0.5182390850821583,0.3767034331234951,0.3401629520503737
48,172837.0,45177.0,"[4,7,14]",3,0.19423883209513063,0.40990609753425644,0.5254470377382291,0.3102223509180541,0.5338603845021,0.35337976756783196,0.22426541952164863,0.33136169411069377,0.5962924966079172,0.1394323679837031,0.250053333144868,0.09253917292112752,0.3524687914958458,0.392186959903445,0.1990567836856349,0.0894944060993921
48,43960.0,11357.0,[8],1,0.1770044561151348,0.3315102481215475,0.5855317532792365,0.32022626568127516,0.57036237187631,0.09787383127378876,0.33274910678200137,0.3188804829852711,0.6639701659787711,0.11549400068870048,0.22792001733079648,0.09634167079294398,0.3549360748332115,0.37048697362722127,0.21364422454266335,0.10565095823899638
48,80230.0,30270.0,[12],1,0.35332407850978403,0.25217553300306994,0.47800901587995287,0.32804403551840977,0.4066945599999389,0.26115383843764595,0.2588757332292368,0.3345645798283986,0.801693647094995,0.4363115494042596,0.27389898335092483,0.10434403184011651,0.3802042142874335,0.4080421672522403,0.21540818276094878,0.12187581509370077
48,28678.0,9175.0,[13],1,0.2486047381434274,0.253526540227126,0.676004098719359,0.355200923905709,0.2809905685824621,0.28505359814665626,0.2616760465116408,0.34107905963479196,0.28468243998035153,0.17214605876317166,0.29394724203816286,0.11406079684452139,0.17271194744635354,0.23745387734364246,0.18372081368544135,0.1326347129313821
72,448195.0,122137.0,"[0,10,11,15]",4,0.16644361945726208,0.23490583348804983,0.3130796804435255,0.296661319028911,0.2581882933964153,0.2270680111536331,0.2514137212196699,0.5214192695940104,0.1630950768084739,0.10185871641180946,0.24673299152906353,0.2181407988606375,0.1467817181279811,0.2837753407351775,0.20371645595800605,0.057109365227014354
72,134821.0,30952.0,[1],1,0.16767983334653086,0.2537045875070267,0.3914782694390298,0.2983111585430057,0.28304981937587365,0.23176985364407762,0.26032367045210886,0.33657832630519646,0.24727038387544414,0.11080634818884555,0.2551624407255872,0.11533857745604512,0.1346960987546314,0.17017894974287204,0.1867474746989553,0.06404944381882337
72,14996.0,1697.0,[2],1,0.223924671575983,0.2335818604796701,0.37799147834698277,0.35087685340101976,0.2638317458349813,0.25761647374202745,0.245160277224441,0.307672989696152,0.22876782722412933,0.12300128443275843,0.25336745717737474,0.24481704669212717,0.12199941769241823,0.5064221781831548,0.24678463374356613,0.06621166412194975
72,459474.0,146425.0,"[3,4,6,9]",4,0.16983649589914748,0.3806699392848197,0.4702472775409955,0.31502269520477527,0.46496257876034336,0.21025723839807478,0.2754777074711388,0.31870779980157976,0.5449595297931793,0.13137966967852588,0.2491911750568043,0.09887795188439288,0.29187876591727163,0.3317730366446159,0.1874087313391887,0.08308895350059307
72,53231.0,9281.0,[5],1,0.2777980525797639,0.2771140070256866,0.575227726971805,0.4573385351317128,0.43879164901689066,0.4216414820207327,0.19748797347778857,0.3507399624600711,0.6303271650973765,0.428970528683057,0.3633380693866381,0.1443604672808365,0.35856253808083016,0.5154608614188598,0.37738204989528945,0.33701465669978137
72,320576.0,83519.0,"[4,6,7,14]",4,0.19611115033351106,0.38487023106282947,0.4970906049094682,0.3208492009185828,0.4903886026044115,0.33895814615531805,0.2286986274605849,0.3316813117981178,0.5722997574585921,0.1441258689014598,0.2581674942459809,0.09657435918502218,0.3193082005753799,0.36140368425008484,0.19951943014218335,0.0951613616521816
72,48350.0,4390.0,[8],1,0.18039235511754104,0.32936073497669033,0.5793923565951736,0.3263561328202681,0.5629437029670156,0.10316916533247235,0.3291167093722666,0.3208651741809767,0.6608786764454168,0.12296113816257546,0.23155114946678693,0.09745092733030764,0.35148759535146806,0.3722877040337576,0.21539847974566204,0.10976235293995834
72,94174.0,13944.0,[12],1,0.3497891943763712,0.25557704920943203,0.47052651674388674,0.34251321374235566,0.40616069537745625,0.2616904014810925,0.2580555017290759,0.33537117649528675,0.792473329353054,0.4302578811823443,0.27645271653242376,0.10517993900612474,0.3779097040940522,0.41178307888156307,0.22082237817910663,0.12721981064488727
72,31499.0,2821.0,[13],1,0.24662580486643249,0.2554519414682322,0.6714723765727695,0.3577294042242428,0.28288757339115644,0.28441652021185204,0.26162697656389977,0.3419755856171067,0.28638967253787395,0.1710333543969314,0.29433512230401926,0.11423794326055607,0.172766881238371,0.23805965866183582,0.1858198410688804,0.13344347452319164
96,545076.0,96881.0,"[0,10,11,15]",4,0.17013518917936785,0.23520507005914285,0.3134770131199497,0.3025745109746115,0.25897761585685025,0.22654338962204937,0.25444182483450245,0.5265591897829852,0.16258094214126442,0.10417119197641969,0.24808242667133973,0.2266679684943484,0.14883817434939803,0.2911550568718956,0.20456209357653934,0.056283803406566774
96,150593.0,15772.0,[1],1,0.16840665771046756,0.25553625928418144,0.39420130472416964,0.30068879678121074,0.2846062447221455,0.2322002417802223,0.26087238860851336,0.33811761306039667,0.2492065624614542,0.11188448774792581,0.2564338947008309,0.11629328548520039,0.13641231697127773,0.1704317255969177,0.18858665076197506,0.06443364987052752
96,17694.0,2698.0,[2],1,0.22933153984531612,0.23652986516959432,0.3824945460947502,0.35696432507769743,0.27122927911817035,0.25966145669121976,0.24758243342973563,0.31037565834876135,0.23341091750746815,0.13069234514399966,0.2550164066659796,0.2426464656749942,0.13043408952217694,0.5155972272082818,0.24555552390515473,0.06657461324800576
96,547352.0,87878.0,"[3,4,6,9]",4,0.1714364655102025,0.3880273620358853,0.47305054411852787,0.32182511321763496,0.4719427048667144,0.20670921229253147,0.28408330548238964,0.32371957671466556,0.5451067208016821,0.13320904625498875,0.24972191988102024,0.09969184841401886,0.2996515580885222,0.3456183083984375,0.18747775741796066,0.08203797322944785
96,62649.0,9418.0,[5],1,0.28256773493610476,0.27714478788081603,0.5716548984290212,0.4614112485927966,0.43736023606659685,0.42289444925124636,0.19953768380594025,0.35385447418904264,0.6329695476486551,0.4242588711376709,0.3651080805087374,0.1481599695709127,0.3596435562032525,0.5261463379333677,0.3765215553124405,0.3319558820744822
96,281211.0,59770.0,"[4,7,14]",3,0.2004055805452973,0.41244749867593483,0.5166089309745234,0.32882185098487754,0.5346254879682492,0.3521847906733493,0.23470137740980632,0.34001007018953194,0.5846782173407431,0.14913833374410415,0.2575391815893075,0.09526052297915882,0.3567203590170526,0.40991975140076875,0.2056567502468911,0.09631733909009409
96,62062.0,13712.0,[8],1,0.18125401933711655,0.33725865475844075,0.5785444520326097,0.3351261964652901,0.572924750756069,0.09988311316838286,0.34020289243222807,0.3290478061065494,0.655935315098428,0.12481788194752626,0.23220348993847933,0.0978209041295085,0.3594430955214662,0.3873870585287392,0.21335629322339963,0.10645784425405493
96,115215.0,21041.0,[12],1,0.3549290128236913,0.25578059366672984,0.46878578273077925,0.35925425256935334,0.4044945901904727,0.2626141769431753,0.26237383564349553,0.3409958409162973,0.7893756695003565,0.4272518782548755,0.281089142142153,0.10774064928140768,0.37829975815213773,0.4245772967045171,0.22170341219446352,0.12765268851069864
96,39506.0,8007.0,[13],1,0.24702649221366327,0.2568566439782626,0.6703180890142796,0.3646466107265936,0.2840815657050882,0.2849983803623057,0.2662280816388439,0.3482487451514194,0.2840389450622237,0.17272519794064906,0.29715714213872174,0.11963326795093876,0.17488473996102108,0.24254664939237783,0.18752754685040024,0.13248581802993564
120,623456.0,78380.0,"[0,10,11,15]",4,0.17047456599557548,0.23541425426922366,0.3143401256447313,0.30628577805358925,0.259766685280248,0.22628679965197765,0.25626118512233953,0.529496341361622,0.1617872966229886,0.10509280328350326,0.24903214854001593,0.23081075105019883,0.14909962624876236,0.29673863164494846,0.20447450537338366,0.05557558255208483
120,177961.0,27368.0,[1],1,0.1688241893247184,0.257763450484547,0.3971753298728106,0.30359907846880596,0.285830327280781,0.23224249778887965,0.2620142750310527,0.33833354059720044,0.24987983320993018,0.11263111844638674,0.258438992046907,0.11676943936756125,0.13745865959165293,0.17096352835269296,0.18853563587890398,0.06407222951689132
120,22479.0,4785.0,[2],1,0.23407281192365123,0.23723984518303287,0.38809164212327474,0.3654492274487135,0.2744904444202567,0.26038270421056997,0.2465520122775993,0.311248544906937,0.23595993724329958,0.13394664683490984,0.25728964284352523,0.2424960587256725,0.13547056761959267,0.5268616877835774,0.24194893763582123,0.0663206652142008
120,666539.0,119187.0,"[3,4,6,9]",4,0.17100600498321544,0.3985779238230217,0.479395385191294,0.32942998419263697,0.4831772546836608,0.1996273922149592,0.29440573687803767,0.32862310131181843,0.5467551646207999,0.1325227503097415,0.249934299647198,0.09988308135345024,0.3100206309253123,0.36344731725032237,0.1860387890285969,0.08018441690822642
120,73807.0,11158.0,[5],1,0.2888728105961987,0.27895118176498795,0.5725241593278697,0.46656939214477006,0.4400863417410894,0.42408809438472533,0.20170397998297923,0.35581235128204647,0.6333363193554116,0.4220831069483747,0.36782272368546437,0.15122822310265988,0.363001517139316,0.537541209750573,0.375076318397896,0.32829700673057655
120,370085.0,88874.0,"[4,7,14]",3,0.20106673441286738,0.4263179193643578,0.5225572982479507,0.336608354641643,0.5485193122344675,0.3598566248824561,0.23910257145851083,0.34672971302411143,0.5841092577816445,0.1461552575795802,0.2577480631790898,0.0940853512620929,0.3691558416534939,0.42950102735745865,0.20240057919991813,0.09268003630748292
120,79061.0,16999.0,[8],1,0.182070551919791,0.33501078444015,0.5835037327241769,0.34641415053003405,0.582006871493169,0.09851688317752746,0.35046599258776906,0.3350323386508316,0.6522817996166004,0.1234262258059613,0.23376904560216488,0.09809486882061381,0.3654750228765958,0.39861649200824323,0.20960349801947004,0.10449269799008033
120,137528.0,22313.0,[12],1,0.3595539366600168,0.2559598706751256,0.46926365602313136,0.37613239810912535,0.40366686061853607,0.26291704991856796,0.26587845182177594,0.3478804441962494,0.7884695167098578,0.42742082033292156,0.28450735151153,0.10944389315181718,0.37951113904859046,0.43602855396736506,0.21862125690457376,0.1259080956814189
120,49455.0,9949.0,[13],1,0.24690456627763244,0.2591870356959664,0.669244356288938,0.36924740779627985,0.2866793897803203,0.28520325195491597,0.2719791161026084,0.352321309341886,0.2814855032371734,0.17183742804781516,0.29929970225089436,0.12343165251164204,0.17737159185561024,0.24795324276116634,0.18358430148950614,0.12948660681852822
144,712477.0,89021.0,"[0,10,11,15]",4,0.17175457052884574,0.23473563115745186,0.31430266462274015,0.3188176608925286,0.2603720304599933,0.22648351472063047,0.2592332717190332,0.5364567424857528,0.16415452670688807,0.10658566389586686,0.24964272829620607,0.2398362084816778,0.15140530738540756,0.3073526873993699,0.20446305924050456,0.05510474344215958
144,197089.0,19128.0,[1],1,0.16983743504926618,0.25874538246001355,0.3987234054520656,0.3091396441065006,0.2869784949080958,0.23293610263859446,0.2639830050358242,0.33974363813014313,0.2514201050433638,0.11343954327618946,0.2593386763883125,0.11819769392519726,0.13965245209048946,0.17321459566834982,0.18811208422200254,0.06364736384546718
144,28789.0,6310.0,[2],1,0.23838776620907104,0.23683106775541418,0.39015684299743386,0.3890246838696771,0.27245487789416234,0.2630005295734387,0.2444882923641539,0.31381955220511426,0.24513893444844426,0.13620538870548995,0.25877397588768153,0.2465767605326946,0.1364135637153233,0.5381166240437152,0.24107911599441428,0.06640286248261487
144,456578.0,34948.0,"[3,4,6]",3,0.18414669778361947,0.3688127058035178,0.46867386796294047,0.3358993061033124,0.44613775066743816,0.2580282787903594,0.2767626691260093,0.33266531266260385,0.5403118715478957,0.13840037139839653,0.25812926270178155,0.10295158479763902,0.28182685743204516,0.3285739313361647,0.18331507892241988,0.08286458660038684
144,85998.0,12191.0,[5],1,0.2912576742228403,0.2779178055203178,0.5676734363121485,0.47620228453386565,0.44466236123821984,0.4242324216440135,0.20762759624515623,0.3609677791705411,0.6393997764837753,0.420534708201091,0.3687578300541736,0.15517444251703372,0.363888543102067,0.5492370897969764,0.3733819304106583,0.32232117275194233
144,444051.0,73966.0,"[4,7,14]",3,0.20182604540039356,0.43168930026731384,0.5211487340167795,0.34723352656857637,0.5527896171170877,0.3626320057506196,0.24501158028138298,0.35202341423012995,0.5804282874595754,0.14682774306420396,0.2563730691941866,0.09632624282020051,0.372544913107613,0.43989679460453684,0.2001826478547998,0.08967508623463327
144,391169.0,67199.0,"[8,9]",2,0.16009800795009618,0.4275491357724984,0.520562205896634,0.3460442580075905,0.5605935159170189,0.09958903618691255,0.3444638264670522,0.33275593517975965,0.57778486186992,0.1274008407610078,0.2349208988700595,0.10020986333726872,0.36648821799479053,0.4372460949004752,0.19286151884036418,0.07984135295304412
144,162079.0,24551.0,[12],1,0.3611849375920301,0.25493988979920434,0.47069633901103586,0.39148475348753886,0.40390225404796276,0.2620703818082071,0.27142591846100156,0.35060912172447023,0.7834257847013458,0.4312096655165826,0.28727979992459673,0.11304975516399987,0.37702539764398835,0.4479085391282792,0.2180131337616701,0.12617713118212212
144,59159.0,9704.0,[13],1,0.2487996277650576,0.26168063284539134,0.6651341939303775,0.3841428395094574,0.2922367991520857,0.28763604916239677,0.28297487717031233,0.36030493974114763,0.2860677496957989,0.17680264386682307,0.3010891551914776,0.13058022417015552,0.18587803542022777,0.25993067329813296,0.1841130840354467,0.12715445232962097
168,787740.0,75263.0,"[0,10,11,15]",4,0.1702566334738802,0.2342815035218593,0.313265512867747,0.3295137251892132,0.26087655569589135,0.22761413005467865,0.2618043006272396,0.5423060408141686,0.16886152663855894,0.10761165009466915,0.25004348271415716,0.24273199823988723,0.15271037828992284,0.3131578390654737,0.20470515332809355,0.0552696284887371
168,236098.0,39009.0,[1],1,0.1693203900975462,0.2615410029526257,0.40014318907098734,0.31916157072161794,0.2957974460342982,0.23357371374283217,0.2667816857665173,0.33484160498365656,0.2617868679480939,0.11459468050317712,0.2597460166264472,0.11635961546448607,0.14520996092565525,0.17765438780019388,0.1847147400832969,0.06481173763627088
168,36137.0,7348.0,[2],1,0.23475593434716313,0.2367057577079197,0.38979801657750035,0.4123539648265181,0.2699074272774478,0.264481764752546,0.24448308292972953,0.3134339441724505,0.2562422347384486,0.13810829826356008,0.2602237353523608,0.25249449066139407,0.13448419496959044,0.5410271635267979,0.24700007462436918,0.06884012960803236
168,542065.0,85487.0,"[3,4,6]",3,0.18363561089392016,0.3623070401582085,0.4663525833187111,0.34575005182385776,0.4418659982680764,0.2575980046729045,0.2786828357282931,0.3314968067437074,0.5402661019531823,0.14151298302886983,0.2590847269430319,0.10315195789515802,0.27808042213259176,0.32393095747648665,0.18190024807100993,0.08418033551392366
168,106864.0,20866.0,[5],1,0.2938841317622788,0.27675848907052164,0.5652463625246398,0.4920902742100511,0.4488524474634922,0.42545989494695374,0.22015181890975247,0.3657885570361949,0.6472482517191104,0.42299215648352945,0.3694277752581505,0.15665753727810514,0.3622819407146254,0.5520963978687496,0.37262387617977827,0.3175337193542975
168,495073.0,51022.0,"[4,7,14]",3,0.20235710070793195,0.43149395084811065,0.5219118863578891,0.35394416371087156,0.5541713225196876,0.3659049209818972,0.24738762362344519,0.35323974483103826,0.5762012558933703,0.14749391502262216,0.2565414079289616,0.09655557658531097,0.3716280871182666,0.4392743937421745,0.2000932716354279,0.08969555858208593
168,446008.0,54839.0,"[8,9]",2,0.1605460608253396,0.42621021171110823,0.5203541745527003,0.35568026584701806,0.5614615908575227,0.0980937153368107,0.34934917874289756,0.3344622079760456,0.5740379084138217,0.1293536778906086,0.2353003879693997,0.1012376116512912,0.365140153100202,0.43777620761815944,0.19313634665130494,0.08051168764949716
168,188731.0,26652.0,[12],1,0.35909208680487087,0.2540057708992472,0.47462883055751415,0.40686810716433336,0.4067012481172494,0.2614946860081414,0.2763179926712196,0.34939908810224546,0.7762285680878805,0.43147124252266034,0.28849051064939035,0.11445568132841136,0.37594422640513975,0.4522125293788546,0.21605964152177726,0.127999517649183
168,68071.0,8912.0,[13],1,0.24974777002100138,0.2625647285838894,0.6678522339314799,0.391897936516339,0.29647969604936947,0.28933554129184097,0.2863846145966341,0.35920805232251746,0.2921890256422427,0.18126967608039718,0.30184112200920427,0.12867854218539837,0.1911063677348571,0.2617230918585994,0.1825202226004701,0.12911919038376096
