time_in_hour,cumulative_size,size,pcore_ids,pcore_power,AF700 CD48_[R 730_B-A],APCCy7 Ly6G_[R 780_A-A],BV421 CD117_[V 440_F-A],BV510 SCA-1_[V 525_E-A],BV605 CD11b_[V 610_D-A],BV650 CD150_[V 660_C-A],BV711 CD11c_[V 715_B-A],BV785 B220_[V 780_A-A],FITC Ly6C_[B 525_B-A],PE CD115_[YG 582_D-A],PECF594 CD135_[YG 610_C-A],PECy5 CD3-CD19-NK11_[YG 670_B-A],PECy7 CD16-32_[YG 780_A-A],PerCPCy5-5 CD45_[B 695_A-A],_FSC-A,_SSC-A
-1,0,0,[],0,0.0,0.0,0.0,0.0,0.0,0.0,0.0,0.0,0.0,0.0,0.0,0.0,0.0,0.0,0.0,0.0
0,74521,74521,"[0,5,6]",3,0.1738332283341489,0.23345205774738836,0.32495399392266533,0.2792274079804656,0.26086327309170915,0.22261197844272085,0.25648710321448254,0.5331568539859743,0.1602063143727027,0.10739053644077012,0.24776661280792173,0.2304452690181352,0.15115198275918176,0.28019515929894157,0.20186258083216196,0.052882153976660566
0,19556,19556,[1],1,0.17659377676029167,0.2637742788845769,0.4638217364652676,0.3025904957517874,0.29913636767472246,0.2362285389576413,0.2691170794405549,0.30358938542013586,0.27924935057806194,0.12611068451787635,0.26644669119282,0.1031059107000023,0.15218979840904812,0.1667136166496124,0.16490738134861213,0.0666659121429129
0,65525,65525,"[2,4]",2,0.18318297914161794,0.42934177566232823,0.48891283404701474,0.2946459682684833,0.5143925185700802,0.3701722382951195,0.20752334426560265,0.32072971288767277,0.5597839094259842,0.1326825885846656,0.25151765940881693,0.08769305597524432,0.3382668698263305,0.36366024568830563,0.18414724770511282,0.06739387983157467
0,71818,71818,"[3,8]",2,0.14023115905763633,0.42544739829374395,0.5021224062754015,0.2946372845569309,0.5314461411321716,0.10396669797305215,0.31700567402441115,0.29593732321529315,0.5673994606383175,0.11579385947217967,0.23137428268507648,0.09288183350752842,0.3386459138464169,0.36902904870164566,0.18618569628802326,0.06558673260105966
0,17344,17344,[12],1,0.2739992390141824,0.277598162174473,0.5910304397842654,0.46411281306696905,0.4606329755107655,0.4234083015758135,0.19271389266720781,0.3474627523697086,0.6050093515798267,0.44596771694787884,0.3783659543122431,0.1475640480528927,0.37377732516112744,0.5303488508566145,0.40785836491058236,0.36585315011262165
0,28899,28899,[13],1,0.3547116008048196,0.24670514484848327,0.4664968179204617,0.3188668376971066,0.40328698388311246,0.24899546973712644,0.2542593449333482,0.32217598213299387,0.7957715326502806,0.4599373840399476,0.27488412799387674,0.09947682237138313,0.3796714949204946,0.4037755231544836,0.21137811081342034,0.10086382904922435
0,15475,15475,[15],1,0.2228697169242081,0.30274378097918153,0.6600668931093913,0.3308039039650732,0.5505756427939713,0.29437536467607206,0.265731077404243,0.3309276321380575,0.6915441944386027,0.1357671268507255,0.25336405679848417,0.09227059549601031,0.35970302016918976,0.3593870635877237,0.216918189501387,0.11424938700457793
0,72630,72630,"[5,6,16]",3,0.17195353416268008,0.23537651790936848,0.3421364124149154,0.2730260856547793,0.2564851034104297,0.23472464012408595,0.25438314567686376,0.46549362295849656,0.15510644449719582,0.10534665528034567,0.24781085971783784,0.18982489775250924,0.136306961211872,0.20641982427615788,0.20029605719079774,0.049431982201582556
24,97623.25,78993.0,"[0,5,6]",3,0.16998773798303426,0.2319110160721436,0.3235699700165711,0.28574689879098464,0.2552344305653573,0.2249866478209367,0.2560086299248956,0.5285476743246892,0.1588363987382775,0.10215516405877899,0.24605634929045417,0.22246026852078205,0.1419272296652424,0.27132612798332034,0.21158609031108946,0.05631668341297739
24,29308.0,24419.0,[1],1,0.18016091362025013,0.26587513093060033,0.4620932051618346,0.3136123969907478,0.3087918559741628,0.24045705525830693,0.2721811716363067,0.31565073601350346,0.3265777303379379,0.12705664163904584,0.26439660354713346,0.10322149505400696,0.15965834837019927,0.1747423385354984,0.1603819035965314,0.07648218267075713
24,75147.25,58766.0,"[2,4]",2,0.18715117316505567,0.4115495649524595,0.5010252621887125,0.3003563937267969,0.5091063141736797,0.36728545299887094,0.21115512080921459,0.3258912672742009,0.5731666156961572,0.13557638141255945,0.24806376759441842,0.08780107223950148,0.3244301376841677,0.3511289004748457,0.18185328390695402,0.07684219941454813
24,80787.5,62833.0,"[3,8]",2,0.14538995759936416,0.4069148040323742,0.5130257409404126,0.30029164426156796,0.5284390413345426,0.10585633811258896,0.3183309857703992,0.30279724055059815,0.5819956964662258,0.11868991189401788,0.2272941133197817,0.09258147014443217,0.3259208665435746,0.3578149231269982,0.18458426012548587,0.0749506884495084
24,15384.5,12691.0,[9],1,0.16025154567750352,0.22191995857587582,0.23734715214985844,0.34804283339224706,0.23271111201895597,0.3381075907144991,0.20361817944289362,0.6550205323514748,0.16752425761493578,0.10700975317120312,0.25192431407983173,0.35882314278231553,0.15409394264908777,0.49248527824200344,0.2254571778293052,0.04833859958256124
24,10831.25,9144.0,[10],1,0.27120974326787917,0.2521491686654552,0.7236416946793447,0.36813267437861946,0.27853816262682096,0.3016681809469754,0.2603626285887235,0.34444589541741194,0.2832843470771641,0.18548450740045982,0.29940882875590924,0.1111887212581843,0.17542558850593942,0.2614685970900714,0.19527448951204088,0.14797846510099805
24,24994.0,20658.0,[12],1,0.2797949831540014,0.27871470187299685,0.6070469793860664,0.47000664608648096,0.45681465627045004,0.4325979583018711,0.19521886552170922,0.35618885172388554,0.636166207840617,0.456853699056339,0.3773008838170915,0.14928745206761768,0.37002443618375896,0.5283819912174392,0.4241122471555599,0.3944149099539565
24,30946.75,23722.0,[13],1,0.35707168548024193,0.25528586869015457,0.49834494433298393,0.3302926181760102,0.40887966840296885,0.2574928040686667,0.2598684477019237,0.34430875675008715,0.8156092478666269,0.45273898746069247,0.27071366124877866,0.10374736119055443,0.3836345709470669,0.4036809633697288,0.213528475110384,0.12627972389890152
24,13525.0,11083.0,[14],1,0.23772895112925402,0.24314793064435808,0.3526160410643192,0.3959531458194691,0.25531723227756564,0.25798000785078784,0.29141162210503135,0.4089514368631343,0.6620111994225146,0.12978308747224396,0.26557719423533943,0.16409803358464936,0.1352797272407526,0.45380512808007717,0.19658669961417125,0.07084677385764374
24,17236.75,13368.0,[15],1,0.2295481602416203,0.3031253380142313,0.6470615149712601,0.33435698524137913,0.5372789182561214,0.3103732867339001,0.2605171689968453,0.3381720010587998,0.6965386169353267,0.14232476720692547,0.25259923125293876,0.09445143637992957,0.35202964167322254,0.36123275291717555,0.2142957981944793,0.13013988109087166
24,72741.75,59540.0,"[5,16]",2,0.1672095306691583,0.23305673960472612,0.32027156947676527,0.2744849318470207,0.24524638354227726,0.24994890080681065,0.24613373977446382,0.4328491558809118,0.14782307521934435,0.09638216499472464,0.24506492846957356,0.16615066677973653,0.1222835263221978,0.17495126609954142,0.21227156521414375,0.049551273608835746
48,104287.3125,77227.0,"[0,5,6,7]",4,0.1641611702604081,0.2316832873725069,0.3152144470955356,0.2842210078386039,0.2542651140994074,0.2182209807534138,0.2546270471147631,0.545652679069657,0.1604275359539675,0.09748242566507687,0.24358730190307198,0.22603697883057833,0.14640814800271346,0.2719142712153963,0.20221617487306004,0.05636056180522859
48,38748.0,31421.0,[1],1,0.16726630190040345,0.2762257919856256,0.4455178348634961,0.3085478502522278,0.3112662417320202,0.23990945295609462,0.2626854228501058,0.3156692302375607,0.3674579078410148,0.11706497452278825,0.2611428568491852,0.09822748181527736,0.15177570860777637,0.16360029019320366,0.1456385273175711,0.07783922515857945
48,30636.375,21569.0,[2],1,0.18973340300015915,0.47227767749637456,0.50456947079154,0.29428094456803194,0.5700121792934333,0.40278543923053106,0.18469807754005885,0.341888154607508,0.5774486270898276,0.1206046831221367,0.24271866563207128,0.0799010398449708,0.38231278934198837,0.4163270866972723,0.1848229748970997,0.07021932950835688
48,34292.125,24224.0,[3],1,0.1307303468878828,0.4655929296052048,0.5193511252133187,0.29839949715600056,0.580734531478277,0.08806610919045611,0.332313861599161,0.3078411161665804,0.5837213882973794,0.10345515340816967,0.22087511143772667,0.08764687207244523,0.3831397657161126,0.41767529262236297,0.18795181457812496,0.07197314560291829
48,43612.4375,33893.0,[4],1,0.17227680588383368,0.37567702119066815,0.4744799315345094,0.28779178255813076,0.45696894664309656,0.32875118381020607,0.22458517324146815,0.3073289764912304,0.5466923181606518,0.11347049450693672,0.2492312441478983,0.08660598918382753,0.2825713118016113,0.26300333093529815,0.16822897342374615,0.07242196673246236
48,40856.75,30728.0,[8],1,0.14251606796655142,0.3637402292007261,0.4901317429984203,0.28972803873742314,0.4838947983350975,0.11394533551031129,0.31346043250349487,0.2880361718148427,0.5569658721454294,0.09921545769517437,0.23385895876326923,0.0902876930255996,0.285157615750803,0.26339418783996293,0.16879271443554103,0.07288885180892249
48,13473.125,9627.0,[9],1,0.1683014476052232,0.22447709084850562,0.24336857256275876,0.34827296122323964,0.2339206195289662,0.34211960228219424,0.20693334256081192,0.6532402380326576,0.17467882012696564,0.10749915131902994,0.2510167757022792,0.34037288505530117,0.15723797530685796,0.4600105377314261,0.21464379919573978,0.0511451165708062
48,10560.8125,7853.0,[10],1,0.2941011534224719,0.24948750402823805,0.715756083399185,0.36817222338635686,0.2798021230462155,0.2982435713422084,0.2696156082146357,0.3382665608617679,0.291056161531653,0.18000147620476684,0.3029972472662656,0.10696815023453717,0.1952768798527331,0.27347609253226596,0.17887195043231335,0.14355068878343688
48,18393.5,12145.0,[12],1,0.26973897591989077,0.27915020352220765,0.5817063097011063,0.46052693873734346,0.45058828177563676,0.4081370017546845,0.21290266937551042,0.3510084760105339,0.6059879265243262,0.4389031157698365,0.3671023906326381,0.1431194658372176,0.3625229859917658,0.5182921154285227,0.38465646924080854,0.35417913683802227
48,36837.6875,29101.0,[13],1,0.36209309595999456,0.2519205242982566,0.47725805640031105,0.32338831651950434,0.41562849364842414,0.26107456299252035,0.259568801050595,0.3306860557870571,0.8105241283210403,0.43852550381350475,0.26863279857752054,0.10044346592963911,0.39413423122844826,0.40322657020495445,0.20758920377610326,0.11988341077826911
48,15831.25,12450.0,[14],1,0.22976028360759632,0.2424247953325041,0.35004488628102437,0.3941012760551215,0.2523811528398592,0.2535452793762222,0.2967759912156262,0.4123608176889834,0.6452132356738417,0.12613423461304799,0.26829946122708515,0.15655085049213258,0.13320713783634208,0.41168118304360657,0.1853033552887843,0.07577150664804917
48,19812.1875,15503.0,[15],1,0.24713648731228768,0.2837613966307485,0.6591209394014859,0.3343736606656269,0.5364389420564322,0.31450747704820003,0.2514157941009168,0.3359266907188911,0.7031138176506516,0.13236063601080125,0.25351423866588313,0.09146872990777212,0.3723362280194432,0.34202838386132794,0.21575580006616424,0.14247687798515846
48,86818.4375,68633.0,"[5,16]",2,0.16614204529668067,0.23412300809259953,0.31970233502972206,0.2718560522603577,0.2481583646710235,0.24943270108172597,0.24472204170169598,0.4305147799874173,0.15331908415370382,0.09746890453704043,0.2444385780008065,0.15462015284718844,0.12694762713012764,0.17186581506026458,0.197925342733588,0.053280009821404295
72,121438.453125,97836.0,"[0,5,6]",3,0.16462168487242887,0.2384831747001203,0.3090688606562086,0.29245249977971804,0.25806407278216753,0.22370326322505832,0.2515086593602871,0.5178213424018104,0.15381968703156806,0.09813961262683145,0.2454533174588199,0.1929774422394818,0.1483103045328427,0.25343667330592956,0.20398648762624533,0.06278636425130943
72,45643.0,35956.0,[1],1,0.1655287922051549,0.30556258044690365,0.4196696513075109,0.31842095720999797,0.3501347045256161,0.23997824123732311,0.2662624000420358,0.322559262540303,0.3885913401357293,0.11396918961890892,0.26054762306989254,0.09903649779959217,0.18022239609784674,0.18939870783924742,0.16226698161612185,0.07986191721580971
72,78712.203125,60150.0,"[2,4]",2,0.1861959420123511,0.40130741753745036,0.4575594738287008,0.32006215996726123,0.481858134746633,0.35450960282605726,0.21475358350115714,0.3271462490717874,0.5259215846779564,0.13114909580347836,0.26265293510585813,0.08972589011281333,0.3048715790211789,0.3353914745226918,0.19145114531467242,0.08636286481355424
72,83837.21875,65050.0,"[3,8]",2,0.14924824415853866,0.39710425369198865,0.4743539517803538,0.32124867734819523,0.5054340636135063,0.1084813369647466,0.31210171404308845,0.3074948441587049,0.5358156614645219,0.11501819364020902,0.24396856241251158,0.09381144233787415,0.30807057326340054,0.34308662426612924,0.19304696772532673,0.08321808196463998
72,13046.28125,9678.0,[9],1,0.16986991899590062,0.23219332130018144,0.23117682879735238,0.3733198579179486,0.24182923091300074,0.3347205615049057,0.20380386157507913,0.6454187435200588,0.18168967743296582,0.10945435852179994,0.2529734042123567,0.3153841602177289,0.16730846673568744,0.4763760033330459,0.2210589139418197,0.058960656426779556
72,20649.375,16051.0,[12],1,0.28517659653209476,0.29290150905506157,0.5600879834389543,0.48082196758385876,0.4510186881359949,0.4221080820196548,0.2028194371450694,0.36089367681388046,0.6211646501048943,0.40460200909766764,0.3813756544958589,0.14531561712594743,0.3746714607712311,0.5269795532217175,0.42714268117222814,0.389799785637474
72,30074.421875,20865.0,[13],1,0.3514488956619159,0.2597002635047533,0.4281719243893914,0.3912411688813105,0.40802959082044943,0.2539646897807492,0.254328537721245,0.3335682791785771,0.7811896260326301,0.426924926265866,0.2762649218352795,0.1034101178311104,0.37856968172788596,0.4241575827858903,0.221805366090243,0.1292674320191016
72,17108.046875,12155.0,[15],1,0.2431678213169514,0.29525227951963234,0.6473137569177819,0.3686248165454095,0.5235025599777899,0.31780508957482045,0.2462320266488777,0.3366030053830292,0.6639624945075655,0.14755383799347893,0.26951551905901155,0.09459034306402288,0.34836721774393764,0.3516504878180689,0.23456644826844925,0.15051088549273992
72,114349.28125,86722.0,"[5,6,16]",3,0.16480880542549503,0.24050922012975953,0.33686539648219177,0.28501486119214003,0.25806616568329865,0.2314560849339041,0.25095848707898866,0.453438763885553,0.16027947954351207,0.09829963455255944,0.24635785613521446,0.16067350944595674,0.13643895934877434,0.19613646879676064,0.1998486452340036,0.061857548658890725
96,101911.61328125,71552.0,"[0,5,6]",3,0.18148634668755842,0.2372264099406795,0.31724846725811495,0.2984477370543156,0.2595724958319707,0.2194046135644616,0.26408698162647226,0.5405563623529022,0.1510644902668805,0.106830775172932,0.25003398175020447,0.23516787370070832,0.15364727804922068,0.27343745977239653,0.2068455874119098,0.055742645856979654
96,23001.75,11591.0,[1],1,0.17855238591282602,0.30478669233561645,0.43066506896315826,0.33391030066761934,0.3461336597833083,0.24236792785281203,0.2777696101202862,0.3280107274682345,0.39205919148637614,0.13136834897434946,0.2705181082727781,0.10308262124752732,0.18764616615925658,0.20153696668982593,0.16344534257752236,0.07909497884756797
96,44285.0234375,38195.0,[2],1,0.19819214501658577,0.49882495059046494,0.5043665606336423,0.3374455955790118,0.5887735489707911,0.40858847142147364,0.225152264456667,0.3637873305274505,0.5522958455958905,0.13861034606066244,0.2528154274965865,0.08653260927755078,0.40238006126271886,0.48260214123762973,0.19475171602640437,0.07223361824593678
96,49856.0078125,43679.0,[3],1,0.14016233767110683,0.4855907165856738,0.5212009066100963,0.3413554612211407,0.5971003847150597,0.08210526957565865,0.3674663545308051,0.3337617520844795,0.5593398134092499,0.11755137783717003,0.23016207907385866,0.09597917962339936,0.39840658921525635,0.4785303029493813,0.19700002769746136,0.07240440839739248
96,26940.02734375,13352.0,[4],1,0.18549829340335924,0.3871798275063463,0.4581248406609133,0.3218081676486401,0.45936486487638306,0.3339388133111398,0.2373492032467012,0.3225051757852511,0.5110803571261571,0.13311878956756013,0.2621335363525903,0.09379425779769338,0.2900414089848935,0.3028831689207104,0.18273999071733538,0.07977617154266553
96,11534.84375,9024.0,[7],1,0.14908704230679948,0.23570826837387965,0.3155422395211521,0.4126161644089494,0.2949080596611044,0.1210107386111044,0.30323967140241126,0.6521770467231033,0.19575812994953523,0.12345145264068264,0.2537588046959968,0.3751514095251705,0.17882448626603328,0.5113210092420293,0.22848791772268243,0.05599721663689757
96,30087.296875,15305.0,[8],1,0.15686300560770142,0.37866542066210757,0.4765694791639354,0.32466658019659583,0.49118039632445615,0.1188972160865019,0.3236934023028512,0.3056931955661431,0.5207724602492431,0.11879809938328018,0.24588011736664134,0.09630764218920393,0.29514857790932747,0.31062754109834684,0.1829683530882295,0.07709860342727523
96,14066.5703125,10805.0,[9],1,0.18684599485250555,0.2317773956860351,0.24711097700933068,0.4078872039096329,0.24295851907847055,0.3488393684869291,0.21974893928240147,0.654781141406672,0.17812605531072914,0.12666320043800988,0.260632146149166,0.3625044265735859,0.17197654478534902,0.4938053894957471,0.22404736872046294,0.05345489297877723
96,9575.30078125,7471.0,[10],1,0.2800311294698219,0.25722513905628996,0.7169974691738106,0.3990741501775412,0.2843892300142118,0.2954231442370342,0.2818998885008529,0.35936922324493065,0.2754373745608395,0.18958387566494483,0.313333111052516,0.12211631229750738,0.18612985603248552,0.2830614941244992,0.18268567449799533,0.13823594809979592
96,16026.34375,10864.0,[12],1,0.30489595213576004,0.2914824466887995,0.5843692865978143,0.49420282597876986,0.4636036132531685,0.4300112866776924,0.23112016758880471,0.3711260710073478,0.6296367473616838,0.43180577195060366,0.3997599704607054,0.16128121355965297,0.399548030365627,0.5656621756574122,0.43196796928543313,0.38452981372445316
96,31385.60546875,23867.0,[13],1,0.37741443970503963,0.2574644912937822,0.4448811376542956,0.4170537165206805,0.4111895100147264,0.25128331701984874,0.270095316513475,0.35423058623415987,0.7928274348065065,0.4197197515821834,0.2880105937342513,0.10971966209936487,0.38653586327907014,0.4655537497538594,0.21175899800692474,0.11606296773459775
96,13053.203125,10486.0,[14],1,0.25593923135005003,0.24610587410612966,0.3268793708469887,0.5001507155207179,0.26524592282169873,0.2612256030907448,0.34243747068430325,0.4757148974238146,0.6488036834534977,0.1424581206934389,0.2860259559046679,0.15429620209808334,0.15184646639855245,0.48381463899780913,0.18305080215994524,0.07621072119368227
96,17363.01171875,13086.0,[15],1,0.244350675268232,0.30457955486616384,0.651265414143178,0.37343568163352714,0.5431236659490578,0.3216948292100405,0.2868657704004084,0.3532314054328557,0.6575686443043481,0.15391170893591766,0.2690893753116603,0.09717783337255564,0.3680990532301991,0.3753922890123284,0.21446830360256294,0.1270118752760554
96,21425.5234375,13547.0,[16],1,0.16222625990685627,0.2425187183387564,0.3648774733058482,0.29556788383704075,0.26400573725559356,0.21428037528139793,0.2623849921247197,0.3236061598487489,0.15705277152011182,0.10447927511521253,0.25256793494865015,0.10933798502195699,0.11775240123684487,0.14272180082795852,0.19995669183161696,0.05149226563487855
120,84164.9033203125,58687.0,"[0,5,6]",3,0.17801529196235763,0.23868380938602612,0.3262577494145385,0.300330761220658,0.26167995668774086,0.218307461680119,0.2663940060353368,0.5395484966933843,0.1521164528880474,0.1077239449816139,0.25326968953541434,0.23735247886469188,0.14950402349103462,0.2834069226565509,0.20542646492405528,0.05332307057835636
120,21814.4375,16064.0,[1],1,0.18484856466417526,0.30186081922060953,0.44746857800301004,0.343663698914421,0.33763361916025025,0.24657709761021834,0.27870590970575576,0.3332326344514719,0.39069682300031844,0.1371177502776356,0.2791731276475763,0.10611086240272087,0.18408356768068299,0.20795438309321104,0.15816769943201875,0.07749437640434831
120,73131.255859375,62060.0,[2],1,0.19240146347667636,0.5144015624952288,0.5261252694972814,0.3474967729586666,0.6058853716960992,0.4128130638790782,0.23544512128591027,0.37187384485496744,0.5617492408547479,0.12535486474371213,0.2530170962270862,0.08512713976734244,0.4177649962073967,0.5061808269349453,0.18659506194486994,0.06711909280907019
120,80572.001953125,68108.0,[3],1,0.13112939576181917,0.4988860568513543,0.5404809610510485,0.35135345005939295,0.6126015987400195,0.08062603108048112,0.3772630054905766,0.34024209154085094,0.5653256396393557,0.10414051187148654,0.2294370466348718,0.09457826876328942,0.41244824075031045,0.5015110041678643,0.18834364637379986,0.06800342103320924
120,22910.0068359375,16175.0,[4],1,0.18866365178346126,0.3944530772942355,0.4726417926215426,0.32743079354941057,0.46843956183380053,0.3415048107978849,0.23779754273870465,0.32337089394268725,0.5090350107014975,0.13262774906544372,0.2652415822700469,0.09364997811502221,0.2951499017829383,0.3157886331067001,0.17492824629652526,0.07341590167792211
120,27154.82421875,19633.0,[8],1,0.15732948574055436,0.3832918934866641,0.4946217632244312,0.32972408466651465,0.5031146796304803,0.11555619470271561,0.33329333743489054,0.30503163279668616,0.5169601848880794,0.11470387484802684,0.24737180970195838,0.09628684668135865,0.30155091138196527,0.32032313452619054,0.1748564711533518,0.07066776422089065
120,13033.642578125,9517.0,[9],1,0.17970820603368315,0.2293160405225669,0.26155429975455813,0.426394919539716,0.24737552448168226,0.35627387311670916,0.2254079086903571,0.6611321849606336,0.17822961903792855,0.1296161483859334,0.26182586686523085,0.379470070126379,0.17117751352676025,0.5109606168538737,0.21908236427113947,0.051333587019672826
120,17247.5859375,13241.0,[12],1,0.3279459279331483,0.3029299169830708,0.6007977501410409,0.5017508653905104,0.4827383018128739,0.4331937405493675,0.23941841225954102,0.37191218435766565,0.627565958859252,0.43034970139578965,0.4025993888765939,0.1670771223901651,0.40713434431101414,0.5912167717152768,0.4134361522611985,0.35912683058118006
120,36745.4013671875,28899.0,[13],1,0.3837145940001078,0.2591882374787224,0.45983763631251606,0.44988001384071846,0.4240542778394508,0.2484921484380897,0.275524376987598,0.3783874120931616,0.7937597803860227,0.4194630647612943,0.2932571039647649,0.11328987154534387,0.39312467394918305,0.49437220005660915,0.19921333730956967,0.11046955768861119
120,12731.30078125,9468.0,[14],1,0.25771693645207416,0.24560218568926817,0.3336864805647653,0.5391790018229706,0.2713564428144649,0.261917967424106,0.368984490254476,0.5173170336420071,0.6355353677279564,0.14008495579267374,0.295238459425533,0.14483732558570447,0.15327469082904793,0.49592857287951014,0.16435151727649977,0.07324915653482167
120,21871.7529296875,17531.0,[15],1,0.24551662417142164,0.30267769820691615,0.6616311919756369,0.3887483302863744,0.5626560046957436,0.32534642017111687,0.3025081656815996,0.3625528009988212,0.6583120113756633,0.14319490872085083,0.26611054617638064,0.09622064866880962,0.3802366883277504,0.40224670464288076,0.19316609039024607,0.11671962147919634
120,25817.380859375,20461.0,[16],1,0.163065560283431,0.24655725869707676,0.3861175888013587,0.29686115390828655,0.2669868971257331,0.21177713377211962,0.26671624673211597,0.31819620069159016,0.1613163956149265,0.10580998713688568,0.25773902751669386,0.10856447404701287,0.12017961284053062,0.14556991099920524,0.1939817191018988,0.05030721069172323
144,79271.22583007812,58230.0,"[0,5,6]",3,0.18736212925086104,0.2335058119526194,0.32735313201232974,0.3330583305695174,0.2591350522164939,0.21677771404947632,0.2724210088132391,0.562935396051412,0.15418091234784537,0.11062009794452854,0.25293847767279176,0.26509148836651875,0.15978256692428672,0.3073657955233458,0.2052916462843753,0.05258867774035994
144,13928.609375,8475.0,[1],1,0.19288824242479907,0.2912296638840907,0.445758968238263,0.37341970476384906,0.32320614350023374,0.25054572863661606,0.28565352751731626,0.34268978774325265,0.3973612099737615,0.14735199798337567,0.28351524969730907,0.11567251841434488,0.18485400880821665,0.2222715690211481,0.1531799338188504,0.0763511842195298
144,71381.81396484375,53099.0,[2],1,0.19122853170777399,0.5123760208797282,0.5224486131333009,0.36154812005066295,0.6026656865815777,0.40955121099360436,0.2503764162585942,0.36886534962147244,0.5448464511330574,0.1302491247961465,0.24493361717747433,0.08938646616763601,0.4128164839151707,0.4930351473021594,0.18512458694912587,0.06441921244967808
144,75115.00048828125,54972.0,[3],1,0.13231258272509022,0.5010545242214077,0.532105545214644,0.36604727722119207,0.6075441639615115,0.08173276465585899,0.3818313148220444,0.33725722933448105,0.548059849048325,0.11157076118552649,0.22176227276731916,0.09864069981864079,0.407246033340109,0.4929434544812901,0.18533913647660966,0.06480847840441804
144,14130.501708984375,8403.0,[4],1,0.19328957518078724,0.39502241921521963,0.4876884613947751,0.3394246766944335,0.4843089492903533,0.34738531815346263,0.24507021537513826,0.3228225843238859,0.4980527774677892,0.13165316888327577,0.26035252968989125,0.09622825669668032,0.31325981236767203,0.3239897507344997,0.1731920079129602,0.07005195512991465
144,16772.177734375,14088.0,[7],1,0.13245622968041273,0.2241975599314842,0.30513562778375186,0.5321977402937323,0.3062248221707636,0.11667141627405697,0.3350157444535382,0.6718602111619473,0.2486817619088816,0.129687306141396,0.2509660470397219,0.4117528951947914,0.18895405756789482,0.5430532129219222,0.2146917820927181,0.05158531079300239
144,18628.7060546875,11840.0,[8],1,0.1640451157073987,0.3823027149898645,0.517264222132898,0.34672494972248047,0.522844386680977,0.11586081723783918,0.3482507405858813,0.30285108174617464,0.5097652453058504,0.11638088298689944,0.24117512323222282,0.09935760089587732,0.3255968034054604,0.3343508928315392,0.1710299938611517,0.06834487462259864
144,19280.41064453125,16022.0,[9],1,0.1750866208103348,0.22156595405220264,0.251917702376179,0.5137676810018398,0.24748154119653099,0.36369937746069775,0.24360192092290567,0.6746472865028619,0.22252000739922598,0.13280259245415332,0.26057370863736506,0.3991863822474459,0.18088875292077253,0.5216885586312152,0.21195527459675698,0.050698309900124534
144,10304.361572265625,8843.0,[11],1,0.2536974110058489,0.23234913148418165,0.3870313864309354,0.5329425678632367,0.25417149271859013,0.27469657292014893,0.23344858100641772,0.3042057168851621,0.292587406254054,0.1336452321691503,0.26480038067783485,0.2725781807767747,0.11836930373490279,0.5775455603708958,0.23765895230127834,0.06492448597383109
144,18807.896484375,14496.0,[12],1,0.32036225768599635,0.28861553351489583,0.5788246765987182,0.5284897246166953,0.4980506840160356,0.43194439379694016,0.27030432732778253,0.38190994651807764,0.6627206619826815,0.4321511317582789,0.39058655226636596,0.17223801910950126,0.39887021485964963,0.6100164129099496,0.39555604637315067,0.32365762835111056
144,38687.350341796875,29501.0,[13],1,0.3826640872292398,0.25314841610921146,0.47749173254645594,0.477899283986999,0.43649970084545103,0.24499908348921526,0.29885093586044903,0.36097154776439916,0.7787244873532967,0.4630003182390546,0.29388082745026356,0.12037694739629695,0.38264149331852515,0.517615015363312,0.19813164865013813,0.11725462475423479
144,17514.8251953125,14332.0,[14],1,0.2673735902350336,0.2380140213347267,0.33131385189642837,0.6054959177267204,0.2705017563584042,0.2617785554261559,0.38307736196308023,0.5382774613024747,0.6438496804195394,0.13933847627065415,0.2962278255955289,0.16743435208144733,0.14986508729085526,0.5234560754248324,0.1664915585708399,0.07229970970921996
144,15076.938232421875,9609.0,[15],1,0.24998804483018736,0.30397923436715313,0.6477713879313209,0.4108176564838363,0.5630667585398093,0.32837524806768276,0.32033675488114693,0.36298570513303163,0.6313760612153386,0.15574774460183183,0.26488150334899235,0.104566949284226,0.3759450704558127,0.40759362815971,0.18667114273783722,0.11141033221669357
144,20263.34521484375,13809.0,[16],1,0.16666451172162236,0.2459158702765944,0.3925023957093426,0.3082887933504288,0.266983552460664,0.21488045992620658,0.26994111264163917,0.31583575461883207,0.1640302424265522,0.10694450786332717,0.25765894320548893,0.1109592923744459,0.1259589974173231,0.15215815405877628,0.1958220056232871,0.04957045535509714
168,67193.80645751953,47376.0,"[0,5,6]",3,0.17060109310790067,0.23310427669121142,0.3241357035028383,0.3642744070905177,0.2625681030212668,0.22175053678823922,0.2765927600369184,0.5619647224067926,0.16907179050086277,0.11066595993275725,0.25208691835369545,0.24176642147497548,0.15992254933834843,0.30244427764863663,0.2068697065172402,0.0561597121095431
168,73825.7777709961,66811.0,"[1,4]",2,0.1824890583755776,0.31498291414242385,0.43977988870188695,0.37976027264394524,0.40174538847657887,0.3055310340723177,0.25448223270267134,0.3239839221726381,0.4993968165685487,0.15054109748207237,0.26580587985325094,0.09861232639448654,0.2393557304907536,0.2567132667485447,0.16429092923177432,0.08862804119375717
168,49455.45349121094,31610.0,[2],1,0.19228403566517357,0.4998776720227832,0.5219214163775409,0.367604980290483,0.5978651896209304,0.4076885071562798,0.24894228049996298,0.36179993189042736,0.5220921518412804,0.13767867303703413,0.24536202325325432,0.08697333118846777,0.3965584965943176,0.460302886612257,0.1894677235446067,0.07056770517803394
168,51003.75012207031,32225.0,[3],1,0.13596470183696038,0.4915677438844256,0.5328277296558755,0.3748259650000155,0.6049553975892891,0.08169895096554278,0.38165639669315066,0.33280920787791024,0.5270551097057543,0.1200552292686133,0.22174312445853941,0.09761711733190855,0.3938014144604327,0.464746083738686,0.1914327805064776,0.07104836466533546
168,14952.04443359375,10759.0,[7],1,0.12072019506068264,0.2288814234358913,0.30537884794703707,0.5385358539225259,0.3096678478480177,0.12392959684733146,0.3511617480669865,0.6743653004928303,0.2884121741203362,0.13558660215787763,0.2523623348727119,0.38890521198693206,0.19633129105795571,0.535037371000515,0.22251284838461463,0.057376025610547325
168,45621.176513671875,40964.0,[8],1,0.15562255955041004,0.35270788917505874,0.48697074401522794,0.37607288738359496,0.4975631465895259,0.11676286822777608,0.33614670369743016,0.3062171304261124,0.5214605308669823,0.13538745880555744,0.24351648350161392,0.09751856355682478,0.29375607824683314,0.31137415297543636,0.17386749031167112,0.08245629268685012
168,19200.102661132812,14380.0,[9],1,0.1649285601802632,0.2241604146488797,0.2571168257762566,0.5195582643850463,0.25004393160023947,0.36458549926983125,0.25233365934926777,0.6742699573571987,0.2525842360445255,0.13680118974426475,0.2610608651921133,0.3699568512821071,0.18174902259075856,0.5085271772695021,0.219448100354405,0.05567889826365304
168,11418.864074707031,9141.0,[10],1,0.27666030365260424,0.26218795169750236,0.6937551435024243,0.4978605215793309,0.3134262009543487,0.306246612378004,0.3347346616022706,0.3690376580240655,0.3224772416315951,0.21394920476799348,0.3349966844848401,0.13173505384260792,0.2151534847039003,0.31588812352814877,0.16397079111698215,0.14114210780275635
168,13556.090393066406,10980.0,[11],1,0.23446643898789044,0.23481432012278475,0.3832411295034934,0.5544303444672908,0.2531283739344689,0.28066623005339847,0.23528572334002776,0.30386979506119044,0.37843651035497133,0.1414805154097509,0.26844506152078396,0.27578434360172177,0.12053971808951501,0.5539089381410696,0.265219262361618,0.07489398436936992
168,21876.97412109375,17175.0,[12],1,0.30622944734107393,0.28281106876217227,0.5789393619792149,0.5457467066133989,0.4875966986220473,0.43830188319683155,0.2737786972068622,0.38138182180721475,0.6698424844544899,0.4366471876342987,0.3891116881420405,0.16452930815232733,0.372600146683051,0.5715835491068677,0.4103419200881712,0.3349432524192259
168,42171.83758544922,32500.0,[13],1,0.35893721834059683,0.2514266914172865,0.50770990226726,0.5106781058976915,0.45131679496627675,0.2521430986697347,0.313321944102521,0.34012162778119287,0.7409579643333468,0.44893046542445114,0.29578386750615304,0.12093712911790655,0.3872812175164541,0.4992655676051094,0.207771950731178,0.14007266118159406
168,18580.706298828125,14202.0,[14],1,0.23272030175429378,0.23839170269480833,0.33024492791722265,0.6062839751685661,0.2763538776988041,0.26128491914897706,0.3921245183934352,0.5544695075497533,0.637615604175449,0.14328104301496758,0.3046005159456115,0.1512925274548971,0.15580368235281,0.48136812406725715,0.1731166431620086,0.08129437124059533
168,14017.234558105469,10248.0,[15],1,0.2511631055438435,0.30056857548582966,0.628406352620974,0.4531775048023144,0.5584637117471732,0.34440903669152995,0.3363075558485046,0.36667790399660405,0.6209432958267846,0.18469016270890917,0.2755106030769267,0.10998291205199469,0.36962928948375884,0.40451163660232115,0.19753342579310718,0.1301657516720058
168,26694.836303710938,21629.0,[16],1,0.16224300820393844,0.25223904658185536,0.40174439467164147,0.3318731966847661,0.29344590470325466,0.21876546494657176,0.27276416236468826,0.3074877965611202,0.2091684092276265,0.11045948317377838,0.25565854807252303,0.1103128852727521,0.14165831825151082,0.17557012435681654,0.18038298128976735,0.06212180388829842
