time_in_hour,cumulative_size,size,pcore_ids,pcore_power,AF700 CD48_[R 730_B-A],APCCy7 Ly6G_[R 780_A-A],BV421 CD117_[V 440_F-A],BV510 SCA-1_[V 525_E-A],BV605 CD11b_[V 610_D-A],BV650 CD150_[V 660_C-A],BV711 CD11c_[V 715_B-A],BV785 B220_[V 780_A-A],FITC Ly6C_[B 525_B-A],PE CD115_[YG 582_D-A],PECF594 CD135_[YG 610_C-A],PECy5 CD3-CD19-NK11_[YG 670_B-A],PECy7 CD16-32_[YG 780_A-A],PerCPCy5-5 CD45_[B 695_A-A],_FSC-A,_SSC-A
-1,0,0,[],0,0.0,0.0,0.0,0.0,0.0,0.0,0.0,0.0,0.0,0.0,0.0,0.0,0.0,0.0,0.0,0.0
0,132003,132003,"[2,12,13,18,19]",5,0.30496996978856505,0.15100783973849374,NA,0.5571673719157961,0.31900150657939275,NA,0.010818036226444061,NA,NA,0.38849838852904994,0.18714055097233295,NA,0.6320603917259463,NA,69757.78962599333,14125.458845632262
0,147382,147382,"[5,6,7,8,9,10,15,16,17]",9,0.30817866337815913,NA,NA,0.7241011420322869,NA,NA,NA,0.7083821442035076,NA,NA,0.1670349022743558,0.17073481401392032,1.9743990329823204,NA,67543.76366177671,20436.238020925157
0,14631,14631,[11],1,1.3659447646777523,0.4909858030209904,NA,1.8881890215979475,NA,NA,-0.6103436199166135,0.9427055393342791,NA,3.1909621413437375,1.1690800369762742,0.44133061984826516,2.3562140500307613,NA,NA,NA
0,26264,26264,[14],1,1.900772425753859,0.2811009403365916,NA,0.9086163716493996,NA,NA,0.09880919699970736,0.7707592685044014,NA,NA,0.4495396773530391,0.2044401021931186,2.3856397319144067,NA,73869.64361864136,28528.54827901302
24,335046.0,160893.0,"[0,4,5,6,7,8,9,10,15,16,17]",11,0.3823872389970324,NA,NA,0.7897224072784139,NA,NA,0.15157329083169913,0.7713098420545217,NA,NA,0.1645729429690186,0.17502857206771305,1.9319705946526655,NA,68346.35119953673,23147.03132107235
24,93836.0,52223.0,"[1,18,19]",3,0.457918460910522,0.26475706553989564,NA,0.7177032157914001,0.41035886578713043,0.34671983077922586,0.0749337201820337,1.014911848565581,NA,0.5258242608060836,0.314346769480804,0.3536378067692544,0.5675471356622158,NA,NA,19631.026727481916
24,203313.0,103076.0,"[2,12,13]",3,0.27948201201596135,0.11029373428655198,NA,0.6061841174051796,0.257854869786982,NA,-0.015823606941010482,NA,NA,0.352145577847945,0.15835534347039815,1.1593276687275365,0.6219414434984495,NA,71373.39979243831,14617.990900729352
24,31278.0,16647.0,[11],1,1.3453846883432405,0.5132894346825125,2.6857010544471716,1.996488140833772,NA,NA,-0.591169538845191,1.0133260602979801,NA,3.1850455849798824,1.193903709060673,0.4735381002301903,2.3009428397596,2.3630068632585184,NA,NA
24,49230.0,22966.0,[14],1,1.9176816454194683,0.3318911321348499,1.7872517590899917,0.9757451622994036,NA,NA,0.11034182000813564,0.9151287042656793,5.712161236502176,NA,0.43761727544179063,0.2255489021328445,2.3948179509851664,NA,74399.92849888242,32960.30680479393
48,482421.0,147375.0,"[0,4,5,6,7,8,9,10,15,16,17]",11,NA,NA,NA,NA,NA,NA,NA,NA,NA,NA,0.14785897389625102,0.1554361363186909,NA,NA,NA,NA
48,154146.0,60310.0,"[1,18,19]",3,NA,0.26594799229953203,NA,NA,0.4180602675580385,NA,NA,NA,NA,NA,0.3113422336356577,0.3152968857706363,NA,NA,NA,19957.506467893953
48,295867.0,92554.0,"[2,12,13]",3,0.2686015251785523,0.1114435469315671,NA,NA,0.2399839204169365,NA,NA,NA,NA,0.3296589668601134,0.15048676935243233,NA,0.622109531377281,NA,70810.36146646983,14790.978703268578
48,43784.0,12506.0,[11],1,NA,0.5309774469212365,NA,2.0158731084185866,NA,NA,NA,NA,NA,NA,1.1971444213639622,0.4637224723871649,NA,NA,NA,NA
48,78881.0,29651.0,[14],1,1.9515888432829123,0.3243099176480828,NA,NA,NA,NA,NA,NA,NA,NA,0.40841728724279935,0.2096725147120313,NA,NA,NA,NA
72,686433.0,187786.0,"[0,4,5,6,7,8,9,10,15,16,17,18]",12,0.3968927563520386,NA,NA,0.8579802744929204,NA,NA,0.13648966692743558,0.7878280244801839,NA,0.6074452137805143,0.211287981530619,0.17530229133068986,1.8304086162116326,NA,68309.49099475087,24110.218850200974
72,173067.0,35147.0,"[1,19]",2,0.39583356430168126,0.26943517169076214,NA,0.6860966364356376,0.4102373063727236,0.32154302254618794,0.060807586015814596,1.0218090216620936,NA,0.4678308557610641,0.2719189225444669,0.3232332091559983,0.5305266730803818,NA,67957.96106710148,19797.939803659814
72,407135.0,111268.0,"[2,12,13]",3,0.26691738650079344,0.14165774399892017,NA,0.64545166763358,0.267052955022284,0.24377828075208985,-0.016459312102851786,NA,NA,0.33119832335465527,0.15491392731401588,1.0537794811155943,0.6373344098345793,NA,70845.04471489883,15512.951252041412
72,53456.0,9672.0,[11],1,1.3402221614973275,0.5584843675920292,2.582948236399971,2.0561957348099367,1.965269139123794,NA,-0.549863462679598,1.0329233981779766,NA,3.0673129964456836,1.198358667109375,0.46034616918586746,2.2918577563603835,2.3397333579205317,NA,NA
72,93409.0,14528.0,[14],1,1.9215464266612263,0.35621016278943873,NA,1.0798924757571653,1.7126328292777195,NA,0.0976779663201559,0.8805498418995499,5.669594316404257,NA,0.42913950574357207,0.21539823288976467,2.4223320411309626,NA,74121.2249783205,33260.69496515382
96,835433.0,149000.0,"[0,4,5,6,7,8,9,10,15,16,17,18]",12,0.4166902978407536,NA,NA,0.924716667263557,NA,NA,0.21540100232813675,0.8470564288913676,NA,0.6261955011616732,0.21742310380127883,0.17984504254679923,1.9043488785910996,NA,68422.29740027017,23840.626147159564
96,195452.0,22385.0,"[1,19]",2,0.411857317484599,0.28337649690462907,NA,0.7234198340155404,0.4183682466539347,0.32960983665044497,0.07360557085626507,1.0428407762724121,NA,0.48469934472401954,0.2925318335755227,0.3343642861265259,0.5429939494812269,NA,68240.31664040286,20115.914290976674
96,499971.0,92836.0,"[2,12,13]",3,0.3032347986883295,0.14521229381702394,NA,0.7025507229059471,0.27587166941481334,0.23971734371992914,0.017201533028929017,NA,NA,0.35167080942893303,0.16857201167068636,1.1103055041552399,0.6531542431621168,NA,71007.11975694651,15300.577033467527
96,16282.0,2499.0,[3],1,0.8684846443311545,0.15420110692791056,NA,NA,0.34841854618597035,NA,NA,NA,NA,0.5811307962781033,0.24296802911191495,1.2167382117675982,0.46620069493919425,NA,81095.62166809961,18530.252303156823
96,62050.0,8594.0,[11],1,1.3763594803545758,0.5584859702336726,2.554192139178044,2.103645754955686,NA,NA,NA,1.0656220874939817,4.576524953263516,NA,1.2221510435938256,0.48638103809829913,2.2981704614665586,NA,NA,NA
96,114233.0,20824.0,[14],1,1.971986407447938,0.35793278922028593,NA,1.2299082299510777,NA,NA,0.13756757034306943,0.9393585259162762,NA,NA,0.4713133751542742,0.2314184658898898,2.426684514369749,NA,74243.21028074106,33231.914700655856
120,1047710.0,212277.0,"[0,4,5,6,7,8,9,10,15,16,17,18]",12,0.4217539762186009,NA,NA,0.998204734380697,NA,NA,NA,0.9064164075908345,NA,0.616706499830107,0.21966295316453266,0.1773268334443674,2.0021774034131576,NA,68034.95690983182,23253.409832873545
120,232128.0,36676.0,"[1,19]",2,0.4211312639319713,0.3047028362972233,NA,0.7574875464054496,0.43230231888013826,0.33423066788583755,0.09542735443805261,1.0487204958772458,NA,0.4940150556675612,0.3156824498121802,0.3396775819160217,0.554114747695254,NA,67984.34932451097,20090.677695064634
120,574104.0,74133.0,"[2,12,13]",3,0.30837938475259596,0.1470974825867697,NA,0.7425457374256208,0.284925883364346,NA,0.03825504841631622,NA,NA,0.3608707224527148,0.17857440196549934,1.13888622729332,0.6559216545834833,NA,70961.10675417792,15137.787996599372
120,20189.0,3907.0,[3],1,0.9077534459358969,0.1530629663678451,NA,NA,0.36986664758038357,NA,NA,NA,NA,0.6053338887513054,0.2618158903858676,1.2241604411312959,0.49167653974936265,NA,80377.33339937605,18364.92188815685
120,71946.0,9896.0,[11],1,1.4230240035165334,0.5739163861785115,2.573165352569951,2.154913229769543,NA,NA,NA,1.0866272057237514,NA,3.028603118422148,1.256347888249484,0.5025630096600138,2.328350984460567,NA,NA,NA
120,137344.0,23111.0,[14],1,2.0143288921904015,0.36148258176549497,NA,1.3965552782575346,NA,NA,0.17638846800005448,1.0174825200881874,NA,NA,0.509860833614872,0.24573033568266123,2.4346398965080516,NA,73726.8434296352,33009.33690587133
144,1215709.0,167999.0,"[0,4,5,6,7,8,9,10,15,16,17,18]",12,0.43143768067768606,NA,NA,1.089934957888778,NA,NA,NA,NA,NA,0.6290370889686602,0.21069202659354946,0.19186835033713057,2.0455201164637153,NA,67793.41416737044,22797.373410906566
144,259657.0,27529.0,"[1,19]",2,0.4376173896794775,0.31587034523236035,NA,0.8311644999095149,0.44717297904160613,0.34209371290973345,0.13111233399829736,NA,NA,0.5123231751002383,0.3304812794032186,0.356880489834674,0.5787949377871803,NA,67941.86533773408,20109.545500409855
144,658758.0,84654.0,"[2,12,13]",3,0.3217375116537562,0.1397068695120396,NA,0.8644826172782758,0.29150931173056227,NA,0.07203757374482933,NA,NA,0.3743977919342103,0.18483251479755047,NA,0.6751481930496347,NA,70940.32413724111,15013.282473988364
144,25566.0,5377.0,[3],1,0.9495909487209409,0.14784744484864643,0.9297391599780935,NA,0.35191543968553773,NA,NA,NA,NA,0.6239811706172281,0.27647581600563864,1.2469019826722887,0.49932926973323377,NA,80130.90135335998,18383.821012281773
144,83554.0,11608.0,[11],1,1.4452071350264413,0.5641665673456422,2.530859964992692,2.2508156704645725,NA,NA,NA,1.1436550512243873,4.597651935024088,NA,1.2693699221222046,0.530088012052077,2.335298904540779,NA,NA,NA
144,162522.0,25178.0,[14],1,2.0321404182141416,0.3528627398752242,NA,NA,NA,NA,0.23986913492327755,1.0507264733512311,NA,NA,0.5384537131588489,0.2711071147044791,2.415451563320681,NA,73615.112981626,33115.21896112508
168,1409188.0,193479.0,"[0,4,5,6,7,8,9,10,15,16,17,18]",12,0.43159608778246517,NA,NA,NA,NA,NA,NA,NA,NA,NA,0.2168264648492797,0.19516024490274153,NA,NA,67584.08919746662,22956.728124281286
168,303161.0,43504.0,"[1,19]",2,0.4363706967551866,0.3423003538251974,NA,0.9225450051655701,0.5175042492932977,NA,0.16126931433130132,NA,NA,0.5241402568569161,0.336015027991734,0.34700473456679526,0.6186618276526613,NA,67340.11195371472,20343.251434056103
168,726520.0,67762.0,"[2,12,13]",3,0.3066885637559935,0.1347417762663321,NA,NA,0.2952702656939832,NA,0.09951898292545769,NA,NA,0.3823638215658145,0.188028446118504,NA,0.6855531473792812,NA,71010.60467984463,15040.615669216966
168,33085.0,7519.0,[3],1,0.9086268033852087,0.15641511951036913,NA,NA,0.3461331198428437,NA,NA,NA,NA,0.6435607742179282,0.29409740347589874,NA,0.5004617038839264,NA,81539.6695783587,19069.31116820301
168,105233.0,21679.0,[11],1,1.4708357618522598,0.5529838033886771,NA,2.419711332908841,NA,NA,NA,1.1953209294897964,NA,NA,1.278670498379816,0.5435117710128787,2.321367010662062,NA,NA,NA
168,188579.0,26057.0,[14],1,2.0077104408868625,0.34453333643196826,NA,NA,NA,NA,NA,NA,5.55127768551114,NA,0.5480913391257847,0.2799694482206524,2.4104743485330213,NA,NA,33632.7444307159
