time_in_hour,cumulative_size,size,pcore_ids,pcore_power,AF700 CD48_[R 730_B-A],APCCy7 Ly6G_[R 780_A-A],BV421 CD117_[V 440_F-A],BV510 SCA-1_[V 525_E-A],BV605 CD11b_[V 610_D-A],BV650 CD150_[V 660_C-A],BV711 CD11c_[V 715_B-A],BV785 B220_[V 780_A-A],FITC Ly6C_[B 525_B-A],PE CD115_[YG 582_D-A],PECF594 CD135_[YG 610_C-A],PECy5 CD3-CD19-NK11_[YG 670_B-A],PECy7 CD16-32_[YG 780_A-A],PerCPCy5-5 CD45_[B 695_A-A],_FSC-A,_SSC-A
-1,0,0,[],0,0.0,0.0,0.0,0.0,0.0,0.0,0.0,0.0,0.0,0.0,0.0,0.0,0.0,0.0,0.0,0.0
0,120265,120265,"[0,1,12,16]",4,0.29536652362699645,0.16366003735916124,0.4876475055668772,0.4937518414834039,0.32308880758325165,0.16334370853531466,0.06698270017045038,2.329339954475536,0.7998639094749121,0.36847842066270375,0.17655570150917121,0.8719816096786321,0.5931283879765482,0.9463498178522354,69178.1627572445,13909.2804722903
0,121816,121816,"[3,4,7,10]",4,0.22028143499211583,2.000395030496793,1.7849295899963882,0.6669640998226849,2.596764119376776,0.15810504446870333,0.2618564166283619,0.6268867323258038,3.784712098689821,0.5686111795248531,0.1354954368802037,0.13090875985913009,2.0142417986963976,1.564094772985488,65956.85873776843,18221.639456229037
0,15904,15904,[5],1,1.264422478936121,0.5715026543636905,2.754395715543279,2.164286913040717,2.159355905558368,1.5826353636192205,-0.6926802683601632,1.0133489745975748,4.25817648270874,3.2044534028546248,1.365746041624734,0.4847938469567431,2.3798939345447683,2.42950307928823,114513.06639839032,91285.26358148873
0,28684,28684,[13],1,1.936174380734901,0.27678362083391805,1.6047460356295988,0.8822643700320789,1.671780072828057,0.38241258482080753,0.07937075345140698,0.7827006145237809,5.66609441458654,3.243081017466165,0.44528202600753586,0.18450959374564568,2.405792481069576,1.805271754044069,72730.7655836006,27593.85301910464
0,76727,76727,"[4,7,8,15]",4,0.4917878044234747,1.9222823959362332,2.0302769842819353,0.7215461925006843,2.740486419565467,1.1373726350697873,-0.3513174669412309,0.8016396102023964,3.9729737697420737,0.648436726980072,0.23477486446753382,0.11336530994304328,2.1344555950056767,1.6261689191158242,68102.4569708186,20933.2574973607
24,142731.125,127698.0,"[0,1,12,16]",4,0.27514818156516596,0.14710950778342324,0.5400826742178735,0.5641197246711318,0.2745546851921743,0.19404863457340293,0.04231392061470274,2.2599905273998715,0.8005208953206585,0.3307976740926395,0.1626443960716264,0.8193080239506247,0.5286716146145382,0.9180257806102139,71778.90484643777,15231.905836936383
24,99446.875,87746.0,"[3,7,10]",3,0.25230676338245384,1.6019680160852103,1.8638169268654567,0.7515843575439058,2.3303741731125265,0.0009816805404934126,0.3888884462571034,0.6838561630732496,3.824826939010135,0.5695938119825218,0.11321126043426188,0.14505764734311344,1.7490446461050162,1.3621962689941147,64875.88505923397,21359.560348175797
24,56213.875,49126.0,"[4,8,15]",3,0.5586478641772139,1.9092660278023095,2.2682113446769168,0.7986088465370011,2.954305311571217,1.1844590351648117,-0.3505805435157283,0.9003876101540818,4.225736827527004,0.702868878101717,0.17303170288030856,0.1087949088703658,2.1821274477119874,1.7238719048855737,68918.4934502382,24538.019483623826
24,20516.0,18528.0,[5],1,1.3159216050460631,0.5735055281670616,2.913903713759972,2.22939538931197,2.114211001718156,1.6414073245698673,-0.6523464997806687,1.1058826734012475,4.514227915316088,3.312806695548607,1.3662359802471205,0.5010461210153101,2.3448953021483154,2.4139862173242963,119038.67147592,100273.63930590765
24,18437.125,16677.0,[6],1,0.19222065006067957,0.025314009959535255,-0.3976233760754395,1.0910169354563162,0.09720227759208244,0.7717028902689671,-0.27911975003559686,4.124860574723542,0.7846342407099797,0.367926467941721,0.19950067325437848,1.8755166913293118,0.6712073238642123,2.165496504593325,75137.74994745676,13470.60607334381
24,15058.875,13395.0,[9],1,0.37714867518323714,1.0190265564160534,2.7078064742800882,0.8793098433482034,3.22287056093996,-0.5728563474695177,0.8389841768641295,0.7731740799113642,4.712259740219665,0.4669004138091303,-0.03253968277012298,0.14434009716861074,2.1726200962804127,1.5996625175187462,71019.12035261608,28410.82458018943
24,27348.5,23763.0,[13],1,1.970105888444526,0.3746395653326493,1.973663324158538,1.0211993429530013,1.7168530456195392,0.4638078758935755,0.13470859811323832,1.0404275176106315,5.830454592555395,3.194953072165759,0.4126095285756106,0.21873853287658007,2.4422612732279916,1.8105059625619246,73550.17203868579,35488.61136808218
48,102096.609375,88529.0,"[0,12,16]",3,0.24507838865776344,0.12539618111920303,0.3251939782023152,0.4972856878376253,0.23072610835845975,0.17111805441981143,0.04476239891046374,2.8770967951394946,0.6986034428507765,0.2858430999289421,0.1258603405291776,0.9320364705529376,0.5897576781847117,0.9522937957023865,69325.57302665102,15384.929270575914
48,44597.78125,40324.0,[1],1,0.2360131125360776,0.2796047864190858,0.9249202275929371,0.6045983056430035,0.4307731329739366,0.2742348076242611,0.07579054534943674,0.5696484319097856,1.2877239373231197,0.38953760073756727,0.2205961158094163,0.17303245405740675,0.4307086412545803,0.4586672639151736,63880.67951250363,16899.3502115084
48,67485.84375,60236.0,"[3,7]",2,0.25147928177437007,1.2314668896391208,1.5850228061651337,0.6082920435107511,1.8017541623243383,0.3412192058665613,0.08235151475631053,0.5704811724984373,3.6629801660401635,0.43905904114728045,0.1775263323115932,0.11163586255010782,1.3664708125875595,0.8503461684596396,60720.919133503565,19779.233522585862
48,68290.96875,57787.0,"[4,10,15]",3,0.16828651798119365,2.449217228167514,1.9353321427254566,0.6157054052507758,3.090138602344943,0.2777712341625509,0.15038245370293346,0.6684586787022657,3.8837232959741166,0.40193171334629363,0.04258559275682838,0.07408164207794765,2.3450169093838467,1.7284679520379551,64361.2178660154,18405.43695611286
48,14475.5,11911.0,[5],1,1.2221447397423792,0.5891205927936372,2.647467987560846,2.124705875091746,2.052614331657352,1.4216887946433288,-0.42054665916117573,1.0364865976261508,4.198859146546115,3.1000079192245145,1.2621307532965211,0.457425653092723,2.2940258312569126,2.369345149827513,110244.11626541354,88413.35083416865
48,14834.640625,12530.0,[6],1,0.25866723111761836,0.05710032646876062,-0.3394633563597429,1.0928421024702542,0.0782039786542823,0.8417810575268814,-0.35057952717826524,4.1642282375794695,0.8448114629609534,0.35062389642697067,0.19028047457649544,1.7995020015325127,0.7205239256933488,2.0233689786321536,72966.15121069059,14292.099105029662
48,14405.78125,12702.0,[8],1,1.0299527586548287,0.7376542461067186,3.221028474608699,0.9540974237198747,3.034366257416193,1.318101368953436,-0.41980353728755215,0.9707118748950783,4.912293755917224,0.5634991440567448,0.24886238548652218,0.09420388535527657,2.3938336877512394,1.481722068082485,74678.77023330466,36677.00208900491
48,31260.5625,27842.0,[13],1,2.059589178130307,0.31724700277105944,1.735152221320226,0.8975788821728359,1.8049846865924253,0.4669219068829682,0.09136931864029396,0.8140140509842664,5.811496193520595,3.1462246689503957,0.37046917801083445,0.1822016006524786,2.5774396880369395,1.8128304233054504,71584.42411264982,31909.0735491404
72,155688.798828125,137352.0,"[0,1,12,16]",4,0.2459122602649495,0.26379981225297966,0.44255646462082776,0.6689763028921907,0.3845778291468722,0.20857787546382212,0.011496827776264595,2.2665089735803905,0.8910557611157187,0.32629611105082124,0.1732474155209558,0.6754007676181482,0.6240667811744615,0.9050256848094587,69198.6194260098,17641.520895682097
72,147501.703125,132568.0,"[3,4,7,10]",4,0.2920799312927087,1.5992167647313624,1.4985091559650243,0.9361336260298438,2.1732001824678915,0.17518785892886668,0.2219406858069175,0.7257321627340354,3.470967239203235,0.5554978798779374,0.25663193301766496,0.15441823689253853,1.6600179239794648,1.331190673131128,68070.92370988554,23684.267683773603
72,15955.4375,14146.0,[5],1,1.3702476459525148,0.7200204895430238,2.469116876659871,2.337944142544591,2.026609348928123,1.5570967123501094,-0.6073428189973429,1.1373790970628028,4.3854590835242515,2.8152654819613776,1.4053179361529886,0.4652624495046256,2.376201942820113,2.3929318934401453,119572.8028219217,99114.2005664213
72,14908.330078125,13054.0,[6],1,0.2554086472417074,0.13495790113971262,-0.49866018025903824,1.3506680656874979,0.19401983003393797,0.7113694648288686,-0.2667299847925988,4.024640327367101,0.8476136718796407,0.38391154074673783,0.20811379651698658,1.5579620091165167,0.7930677470557382,2.101515260397517,74169.08393364924,16365.731371080801
72,23515.5703125,19608.0,[13],1,1.9187059989110355,0.4319165744986866,1.1990030556780664,1.6746504861577738,1.7446073992106408,0.41259541459789073,0.0537397836071376,0.8757709476702322,5.513021404762406,2.9664608475502012,0.47083382948216457,0.2192833956001662,2.4060328370669692,1.9611451163143097,76535.61527883972,34937.14749768515
72,82390.232421875,72556.0,"[4,7,8,15]",4,0.5428567192097196,1.6271626091309743,1.7447230410311092,1.0043921106242633,2.385228623726411,1.0326429134747894,-0.2934324459751432,0.8462772051555612,3.662141165036719,0.6568214790979622,0.36871987835430353,0.13635877576678346,1.863087830319074,1.475097756010287,70306.23745500049,26605.271712014302
96,98141.25952148438,83334.0,"[0,12,16]",3,0.41924181859143594,0.16829418056478307,0.3700445006654429,0.7634613166572213,0.30213511918092006,0.1446616837399466,0.1652444238107722,3.063658050088332,0.6720741824111273,0.3975972859854605,0.20508233209066962,1.2110666324964632,0.6804430103643028,1.1903763825819376,71615.14855955707,14838.763085035067
96,21118.84033203125,16465.0,[1],1,0.3364970072622768,0.4448992030864516,1.1240344148771326,0.8640068555219993,0.5906491799394287,0.3023585473210977,0.14654372962739792,0.804435274562231,1.4804714965812975,0.481548723942574,0.3392618442201436,0.26336447483230496,0.6164662188012887,0.5546880276416557,67543.97133058286,18175.39593925128
96,38959.34130859375,26835.0,"[3,7]",2,0.4376553704959487,1.4056684344389443,1.5446314040011688,1.008474012293581,1.8983490422674447,0.3616571770220971,0.3183073578726532,0.816358332226756,3.39834726458611,0.6393634192040055,0.31845257752598277,0.17852028845404655,1.5302202623713317,1.154486951258747,64710.15512002589,21266.475138700906
96,106953.76171875,97254.0,"[4,8,10,15]",4,0.40541335364752795,2.4883874911702044,2.1163008706209516,1.1162053273559467,3.286162763554415,0.43665729951459586,0.4815323955615898,1.01350735291859,3.841975412772016,0.6349172971453226,0.17471980208837845,0.14208151825267512,2.5137376832784613,2.1145683803837216,69334.64438265044,21302.05652391463
96,13053.541259765625,11190.0,[6],1,0.3571778543043094,0.09726877962372349,-0.42957149772057734,1.865128087555731,0.20355301933819847,0.8056715321429044,-0.1244970346772214,4.305831362023428,0.8436313135066406,0.5365861222556444,0.28727458793839133,2.079229648033711,0.8077751491794797,2.370165219543901,75116.73902097758,14019.496166937794
96,25279.4462890625,22340.0,[13],1,2.191955168309028,0.3741683251261403,1.4795410051275608,1.844310847353721,1.704136449108852,0.41378386123312505,0.22203814254143195,1.125099682879656,5.652246424897898,2.9616332339673788,0.5950979180800102,0.26386744326501,2.4813182754093135,2.155257427534556,73023.66187946138,31281.252109728153
120,81761.65744018555,69494.0,"[0,12,16]",3,0.34430204423968114,0.17974599444851025,0.44025213775933736,0.7772815675376559,0.3294047041238777,0.1341802609966396,0.1860757481505555,3.008354065880993,0.663142401753272,0.39059887149401396,0.22849896818434345,1.1863418829378085,0.6337409904346026,1.2406218294144755,70950.45246973503,14199.752826838532
120,27817.855041503906,25178.0,[1],1,0.32761580421909886,0.43686316130764924,1.2820219981996575,0.848442614185382,0.5193102637449978,0.30588874644691866,0.15546028789801136,0.7873714977102861,1.3551032981806506,0.4765312260363528,0.37890304547667064,0.27373324475514116,0.5713951321158403,0.541325443919549,65848.74824127396,17514.28763557269
120,40953.91766357422,36084.0,"[3,7]",2,0.4615539419357835,1.4320344203887059,1.7059912973405065,1.0562161646185357,1.945486407993457,0.30207931920374254,0.36541878472984246,0.7910305921411438,3.3939406167335706,0.624540919814715,0.35547209209372177,0.19343774801049218,1.5355533320763346,1.2386942548214634,62654.42745942416,19660.770271950725
120,162589.22021484375,149220.0,"[4,8,10,15]",4,0.34296511941116736,2.66418345405643,2.2932294876100143,1.2044353670903805,3.498495533007343,0.4780481496923583,0.5456035809608166,1.0933528509432247,3.9281408144797543,0.5192098758220308,0.1696447959622831,0.12905947272058493,2.6532411493952126,2.2672894550670835,67177.03150822021,19990.57093946574
120,15902.002655029297,14442.0,[9],1,0.5811835911891587,1.0052605567244846,2.9843184294988236,1.47260488472531,3.608279554739927,-0.6367582801014756,1.2964817828226107,1.1947383035357246,4.488309429048538,0.4854010610380465,0.10422448208791923,0.1753979100907339,2.4833294331655438,1.9216947325445497,68626.27401552247,26685.9543730963
120,28292.930786132812,25133.0,[13],1,2.248860601509284,0.3875080518747547,1.6460447363507371,2.1282126054704533,1.7932814854648345,0.38236225846273597,0.2407680390838407,1.3393505331011308,5.658782336551523,3.066983504366347,0.634119689993311,0.2831847924131772,2.5414764582785248,2.2807344434227157,70473.67826122642,30517.320884745663
144,80860.2071800232,70640.0,"[0,12,16]",3,0.4194634708036602,0.11670487161915721,0.42719664391215284,1.2500699420841932,0.3163178347079256,0.11811145087214947,0.2800054043253657,3.350027498867129,0.7293720409282739,0.4200893874823528,0.21402535000604628,1.4442899138009564,0.7351066382056005,1.426880790099926,71241.09458354514,14217.233518038973
144,20846.23188018799,17369.0,[1],1,0.39117144061099807,0.4045330383565968,1.302326548763165,1.0443455693902006,0.51149010210026,0.31440860591044895,0.2366429867294424,0.8008089727839427,1.3299538351451865,0.510095722823881,0.369630032397128,0.31148868935402296,0.6513036727506208,0.5980785694897313,65475.97083731191,16748.3025868581
144,145832.65252685547,125509.0,"[4,8,10,15]",4,0.3340383731947314,2.668948715208777,2.209090671372104,1.3575606152424564,3.4582067901201037,0.4505962214213515,0.6720159120386939,1.0488000244914417,3.7408006260503757,0.5642069513243372,0.07890762380536698,0.169966466346128,2.599394312651996,2.202199779555182,66498.34937599362,18717.803635125427
144,14248.334838867188,12652.0,[5],1,1.6277778543321533,0.6197773103603055,2.5250933831377904,2.7702264288452043,2.481744464609243,1.6444550666247373,0.0020736861049139854,1.3662447754964764,4.7981842720151535,3.0631233203156722,1.443896842077761,0.6704031179227505,2.509234374013864,2.8817321487281484,111763.66550496111,79414.15576256416
144,20615.211582183838,19156.0,[6],1,0.19923878038606557,-0.02737939229657993,-0.4226608660054363,2.9667067759054295,0.31124731818434936,0.7362896899592952,0.19949568769568238,4.528830890239386,1.441770298045093,0.5836244936237397,0.2727838081995517,2.3434373901169394,0.9297617510164381,2.555141592403701,71886.30099823733,13499.222043402728
144,32577.6163482666,29041.0,[13],1,2.212353839298154,0.3198276034059675,1.8234142288840656,2.4107839090343295,1.9243851484816887,0.3771559863339502,0.5415273462173307,1.1088863179932011,5.487128468692872,3.40493724438215,0.6530513301818055,0.3484249327232505,2.407670862366696,2.40209718762396,70631.16619898356,33078.6845920858
168,66002.5258975029,55895.0,"[0,12,16]",3,0.2212571690495979,0.11459914123592174,0.3724188555426,1.5212246953582849,0.3471640615047944,0.14739520386825622,0.33286929022651046,3.321341546921613,0.8188311581366575,0.4156631962062841,0.19946336105912765,1.2481495807778133,0.7215168997326343,1.3890430782142689,71491.72175315426,15244.407608535059
168,36734.7789850235,34129.0,[1],1,0.2992708039693841,0.47342224841444747,1.1504843096956079,1.2220573495792948,0.8599636560214505,0.3895793536644492,0.19515838001084918,0.6926590965382324,1.819358806430282,0.5077770261661166,0.3071449674232314,0.2590379698669404,0.7704551198977053,0.69518309896952,62939.119077713556,19147.54078695842
168,85106.27996349335,82759.0,"[3,7]",2,0.3621047576727956,0.9724122844797782,1.4976000426542266,1.5591471144027902,1.786022119360187,0.2888873153282425,0.3480035742477887,0.7733044392454431,3.667418538377374,0.7950614937348831,0.30998177913021596,0.20006296248798838,1.4389827960206008,1.1448793369620516,62959.18864523918,24905.45244595745
168,107311.08156585693,89082.0,"[4,8,10,15]",4,0.3878521976181053,2.369665547463242,2.223322304643762,1.4870120271401874,3.360485402100726,0.4801761981304258,0.646455484856272,0.9781104841004811,3.5606214917551493,0.6817780930277494,0.12427801192490628,0.16004026643738545,2.4186653476031954,1.966225624884171,68381.9497454828,21917.0778532783
168,18379.0418548584,16598.0,[5],1,1.5422297414532722,0.5707204419184824,2.5627529174130284,2.9482057941385054,2.3538806256157483,1.654564455875278,0.07667254364372811,1.3448044064716567,4.8031610864113885,3.128075265625311,1.4302216073298677,0.6040004443818998,2.317776707576708,2.6428096987295158,114368.6983639511,81954.24218391432
168,18549.90144777298,15973.0,[6],1,0.1716421689135963,0.0257073476478773,-0.34010664791342204,2.8441520841224253,0.3037710872863544,0.839840269981962,0.23000798443376835,4.470425954350984,1.6783663425406794,0.6387881834810137,0.2942019580343187,2.092007802931852,0.9474243953672478,2.430413862718531,73959.45929848112,15188.83265340902
168,32718.202043533325,28646.0,[13],1,1.9877722935041995,0.3088373880913,2.089826154905818,2.708403642320563,2.1174546637988345,0.4173986891489081,0.7204054021835637,0.8976796510424956,5.184888331321709,3.229349267269967,0.6711538969678421,0.3413774724598968,2.4626292120721804,2.307687358729145,72655.13160441193,38607.607511946095
