time_in_hour,cumulative_size,size,pcore_ids,pcore_power,AF700 CD48_[R 730_B-A],APCCy7 Ly6G_[R 780_A-A],BV421 CD117_[V 440_F-A],BV510 SCA-1_[V 525_E-A],BV605 CD11b_[V 610_D-A],BV650 CD150_[V 660_C-A],BV711 CD11c_[V 715_B-A],BV785 B220_[V 780_A-A],FITC Ly6C_[B 525_B-A],PE CD115_[YG 582_D-A],PECF594 CD135_[YG 610_C-A],PECy5 CD3-CD19-NK11_[YG 670_B-A],PECy7 CD16-32_[YG 780_A-A],PerCPCy5-5 CD45_[B 695_A-A],_FSC-A,_SSC-A
-1,0,0,[],0,0.0,0.0,0.0,0.0,0.0,0.0,0.0,0.0,0.0,0.0,0.0,0.0,0.0,0.0,0.0,0.0
0,130552,130552,"[2,3,11,16]",4,0.2945062579661819,0.14099337009007407,NA,0.5444792388933068,0.29843007909490904,NA,-0.003448733110178015,NA,NA,0.3664699372893542,0.1730202458483978,NA,0.6143456354479425,NA,69712.01225565278,13652.421839573517
0,155556,155556,"[5,6,7,8,10,13,14,15]",8,0.3174147081886878,NA,NA,0.7247619167438137,NA,NA,0.20085388888246536,0.7126435048278372,NA,NA,0.1652310158978083,0.17470039090745337,1.9713417960348654,NA,67381.29054488419,20086.270976368593
0,27562,27562,[9],1,1.9318490358101628,0.27832323916987,NA,0.8926361697989962,NA,NA,0.03569825513388514,0.7780565226398739,NA,3.1855804243886507,0.45686277167840217,0.20438385411073534,2.39227995591757,NA,74256.59792467908,28325.928161962027
24,176628.0,143990.0,"[2,3,11,16]",4,0.27919440906595105,0.13101578124079838,NA,0.6189874265575082,0.2527409979476518,0.2654205865547943,-0.011021367847946273,NA,NA,0.3378401341137909,0.1634579795162754,NA,0.5469108558085348,NA,72245.52890821375,14836.56896981222
24,185626.0,146737.0,"[5,6,7,8,10,13,14,15]",8,0.36982826315682704,NA,NA,0.8067380531727841,NA,NA,0.21153528251835008,0.7776098440641461,NA,NA,0.14509843925554078,0.1877962036514258,1.8339229787852975,NA,67548.27310829298,23062.673461691746
24,30513.5,23623.0,[9],1,1.9553990834958526,0.36486554615170785,NA,1.0279100581054244,NA,NA,0.07444140783586128,1.015342237673416,NA,NA,0.43797115215395443,0.24099154343979345,2.414077680608612,1.8519553390466499,75134.19830566808,36089.698264702114
24,20467.75,16871.0,[12],1,1.2909016572779224,0.5432055996506802,2.790483995444028,2.1415614459332386,NA,NA,-0.6197495954245245,1.0628200695117798,NA,3.1935684581231616,1.2830113547165518,0.5089395106203671,2.26032436602703,2.41115035746481,NA,NA
48,195045.1875,146294.0,"[0,4,5,6,7,8,10,13,15]",9,NA,NA,NA,0.6979489013347249,NA,NA,NA,NA,NA,NA,0.12633346720038796,0.11900391691060119,NA,NA,NA,22152.171521791475
48,136452.6875,102993.0,"[2,3,11]",3,0.2625732384448203,0.11512985391962127,NA,NA,0.20902134305525566,NA,NA,NA,NA,0.2977211104187665,0.13862841355038835,NA,0.5981931191722595,NA,70460.12686265365,15163.990405099334
48,35188.375,27560.0,[9],1,2.0399760970082585,0.3223053201696522,NA,NA,NA,NA,NA,NA,NA,NA,0.38275727480488975,0.19287015732291146,NA,NA,NA,32468.256235191162
48,134639.0,105568.0,"[11,16]",2,0.2812389579087422,0.17765871863744742,NA,0.5105990717107369,0.2726191240952516,NA,0.04153911339349259,NA,NA,0.32702705085729444,0.16368533921726813,NA,0.5089822452446929,NA,NA,15960.395724864356
72,222945.296875,174184.0,"[0,4,5,6,7,8,10,13,15]",9,0.3954385903883799,1.5094075320376783,NA,0.9728958129185199,NA,NA,0.12433792832988821,0.7930627471896625,NA,0.6038439761956759,0.2757715402306906,0.17383883252085675,1.751486144738636,NA,69717.5713364105,25764.145395812073
72,194887.75,148029.0,"[2,3,11,16]",4,0.26399830566328264,0.2395812542774607,NA,0.7199617915550189,0.36109097204078955,0.25492333164924585,-0.009796821088126961,NA,NA,0.3406131658044974,0.1753700712429369,0.7679679731237059,0.6345416140867423,NA,69812.38637625994,17316.359976447777
72,26718.09375,17921.0,[9],1,1.9248211268118818,0.42187532849930776,NA,1.5335751059382852,1.6991516470913401,NA,0.03223483588251996,0.8887002491271714,NA,NA,0.46993224323696525,0.229972171070283,2.40264495931537,NA,NA,35899.099650400814
96,129366.79296875,92647.0,"[2,3,11]",3,0.40450256516832694,0.16250852822993878,NA,0.879423415941984,0.2995004902873686,NA,0.10747571976042192,NA,NA,0.4067038839081525,0.20443625701681079,NA,0.6952230255249271,NA,71538.74177537626,14996.252533048531
96,135780.06640625,92994.0,"[5,7,10,13,15]",5,0.33233509287088636,NA,NA,1.1109410270733147,NA,NA,NA,NA,NA,0.6174724227433267,0.1949809378380194,0.19072077041388136,2.044218810903075,NA,68120.28410397252,22161.290236793542
96,35265.8671875,31266.0,[6],1,0.6778706123454836,NA,1.9519806351662283,1.1301326634321067,NA,NA,NA,1.2059309812084624,NA,0.7584942543304397,0.29122721258225726,0.13517638079612515,2.524911131951151,2.17396220223885,70913.38594351686,22624.704895469167
96,27288.5234375,20609.0,[9],1,2.1281814274981334,0.37599677717682356,NA,1.8340327992428067,NA,NA,NA,NA,NA,NA,0.5986145844846287,0.27196289995808565,2.4352615663849346,NA,74548.70977754837,32815.028616368
96,137801.59765625,84923.0,"[7,16,11]",3,0.382352098638719,0.4722355550122388,NA,0.7674608304834702,0.6582160889287874,0.25819409497179535,0.15813801145651274,NA,NA,0.431357951106646,0.23895594585809965,0.6652524639475264,0.786472937948577,NA,68616.61845414099,17261.656956138315
120,108561.6982421875,76220.0,"[2,3,11]",3,0.35957818903845884,0.15772182081749175,NA,NA,0.3242465331164337,NA,0.15329076613861803,NA,NA,0.4155802045545981,0.23066707844174505,NA,0.6696264747661916,NA,70996.65900519064,14265.368461099357
120,158821.0166015625,124876.0,"[5,7,10,13,15]",5,0.2671741776104861,NA,NA,1.2152312051027447,NA,NA,NA,NA,NA,0.5236241529586779,0.16333697058481222,0.17890954243320534,NA,NA,66178.2959441725,20111.204079577597
120,66678.466796875,57862.0,[6],1,0.6203295508477267,NA,2.1315453745367843,1.2008012374838324,NA,NA,NA,1.269661494362905,3.8747419057817134,0.6458597357392016,0.28690024802691916,0.12017991575035114,2.642031089550551,2.2930228227723024,68276.89482563784,20956.967168379528
120,29184.130859375,22362.0,[9],1,2.2018641742158094,0.3805789938073785,1.5964294896430284,2.1150377928761013,NA,NA,NA,1.3458984054127594,5.623165275164202,NA,0.6462470826204485,0.2893571917251938,2.4978511931002876,NA,71776.18465300665,31816.368417794278
120,122371.3994140625,87921.0,"[7,16,11]",3,0.3720841192462261,0.4560785301298256,NA,0.8080144581270687,0.6196205334940994,NA,0.19653915058896576,NA,NA,0.44081023479622095,0.28489980833029405,0.6394971558296032,0.7238202248302535,NA,67669.56383466747,16261.968746095716
144,115779.42456054688,88639.0,"[2,3,11]",3,0.3953213286898021,0.08950300272937062,NA,NA,0.31370562535550217,NA,0.2400996751428499,NA,NA,0.4530585754996499,0.2258813844887917,NA,0.7575075894531932,NA,71185.14629921297,14126.618876841472
144,107368.5078125,77053.0,"[5,10,13]",3,0.19401638387371722,NA,2.1826730775250778,1.4316423635794373,NA,NA,1.2460545843872506,NA,NA,NA,0.026912140759320913,0.2171281757607343,2.499772411177488,NA,66298.40472252066,18922.795829404502
144,73387.27490234375,53456.0,"[6,15]",2,0.6012633751810721,NA,2.066263208929336,1.3382547909688602,NA,NA,NA,NA,NA,NA,0.21255884307927175,0.16930943224366013,2.526508939544566,NA,67335.1338440582,19805.14295325352
144,33350.03271484375,26054.0,[9],1,2.1768743061354554,0.3229372794770251,1.726111896818432,2.385695777999716,NA,NA,NA,1.19319371974817,NA,NA,0.6601325437043033,0.34931099353666095,2.3948568267857473,NA,71821.9207715772,33507.49867019993
144,80494.76171875,56030.0,"[11,16]",2,0.4296675488197148,0.2281888979830513,NA,NA,0.31601613557391284,NA,0.1821431924303849,NA,NA,0.41576559821833636,0.26404074340158834,0.8972346481968076,0.6480053954713173,NA,68938.53062119355,14856.933864339708
168,258220.61444091797,203286.0,"[0,4,5,6,7,8,10,13,15]",9,0.4502217737690368,NA,NA,NA,NA,NA,NA,NA,NA,NA,0.24283409520142873,0.22348581003548829,NA,NA,66812.20854297238,24152.16167827528
168,96684.85614013672,67740.0,"[2,3,11]",3,0.2543520960553569,0.08704734772438716,NA,NA,0.32153643447746605,NA,0.2914561436742553,NA,NA,0.4642059834979787,0.22351420976869862,NA,0.7636806642062385,NA,72082.96381848937,15076.383886055053
168,49588.97589111328,37419.0,"[9,12]",2,1.8374709039607249,0.39610327714259075,2.1818133081497915,2.7481414479302795,NA,NA,NA,NA,NA,NA,0.9174570424600494,0.45349380234308345,2.4043597326014874,NA,NA,NA
168,138954.2124633789,115630.0,"[7,16,11]",3,0.3166279889541994,0.5080408176130411,NA,NA,NA,NA,0.3113901295056647,NA,NA,0.5487639475906466,0.2701186351063538,0.507537423326389,0.9195417424892177,NA,65141.58217331702,19290.20790751049
