time_in_hour,cumulative_size,size,pcore_ids,pcore_power,AF700 CD48_[R 730_B-A],APCCy7 Ly6G_[R 780_A-A],BV421 CD117_[V 440_F-A],BV510 SCA-1_[V 525_E-A],BV605 CD11b_[V 610_D-A],BV650 CD150_[V 660_C-A],BV711 CD11c_[V 715_B-A],BV785 B220_[V 780_A-A],FITC Ly6C_[B 525_B-A],PE CD115_[YG 582_D-A],PECF594 CD135_[YG 610_C-A],PECy5 CD3-CD19-NK11_[YG 670_B-A],PECy7 CD16-32_[YG 780_A-A],PerCPCy5-5 CD45_[B 695_A-A],_FSC-A,_SSC-A
-1,0,0,[],0,0.0,0.0,0.0,0.0,0.0,0.0,0.0,0.0,0.0,0.0,0.0,0.0,0.0,0.0,0.0,0.0
0,228944,228944,"[0,1,3,4,5,6,7,8,9,12,13,15,16,17,18,19]",16,0.4063121254367874,1.3937497876948055,1.819302419080643,0.737812407820253,2.0962278742530915,0.33288002654361026,0.13339712030889972,0.870886461108392,3.366148248545494,0.6705141590825695,0.2149216029378258,0.26182773049304653,1.7097520058267492,1.4518262518126739,68658.44014256756,20678.550562582925
0,119893,119893,"[1,2,20,21]",4,0.30361972754039,0.15740260503115033,0.44289804249623277,0.5588186735005451,0.32299018715020145,0.23618586491288074,-0.00260483486107832,2.4621342080772033,0.8073820896048981,0.37692516350412664,0.18163319961966584,0.9587512474873492,0.6304932040652896,1.0931192315648055,69346.3500955017,14019.0485849882
0,67761,67761,"[6,8,10,12,13,14]",6,1.0460895626540314,1.131922750092238,2.118200838874866,0.8930107178170368,2.4112190485529985,0.5931868628414594,-0.009352869039711553,0.8178436502117696,4.743321512787591,1.7044934086864072,0.3374417036791071,0.1917603931907753,2.273744873363734,1.7934844870500763,74167.41547497828,27941.414323873552
24,212024.75,189807.0,"[1,2,4,5,9,15,16,17,20,21]",10,0.36172041052105763,0.33896866229944544,0.844805786848593,0.6995006517912401,0.581891519385711,0.29433754307339566,0.042509365354755246,2.03314911584851,1.4150321743882501,0.4616224162762862,0.19843687980176572,0.7683154593561572,0.748867168949615,1.1204069643408399,70893.52038382302,17657.444803024147
24,197198.625,174191.0,"[4,5,6,7,8,12,18,19,13,10,14]",11,0.6084025722396631,1.3690720184452352,2.0744898954157276,0.8809490552051238,2.349480036917097,0.3934215435534909,0.14890961130751013,0.8654249266507312,4.108340234227683,1.0064079428970412,0.21353515187352334,0.20096712082170876,1.9212193425099926,1.5712087076145937,70022.97789855287,27300.112543888117
24,14637.0,13476.0,[11],1,1.2809804038310493,0.5870891099012692,2.888442079644015,2.1567707723321177,2.0778192323221982,1.6049131677683357,-0.5845871698008556,1.0953445393352275,4.5063669026439985,3.1804663438546013,1.298439714917687,0.4924576933883278,2.2826865810958505,2.359602045133917,113757.36066133807,94410.62567466035
48,244854.59375,213911.0,"[0,1,3,4,5,6,7,8,9,12,15,16,18,19]",14,0.4224270995329231,1.2011424239008188,1.7998822902354514,0.7316047475265597,1.873456168281384,0.34588470537488836,0.13003409481608896,0.8038823095126508,3.4442833346110224,0.5529938836051539,0.1845692799431844,0.18470783893399934,1.5567006518607922,1.1927130884740644,64885.529206045365,22277.469103027524
48,153476.4375,134710.0,"[1,2,17,21,20]",5,0.27166562856483245,0.14707038303151032,0.46098140998659387,0.60005446331134,0.24792696332783581,0.26972897514317884,0.00755878125459386,2.29361862528551,0.7820770811035497,0.3169586774362332,0.1606409387646086,0.8239559464884296,0.5438242986924359,0.9567047690231785,68596.7867738658,15744.738328318213
48,14125.671875,12166.0,"[11,13]",2,1.2976033345781184,0.5773995206245615,2.756853112340878,2.070219147725258,1.9449709384852256,1.4169589775597065,-0.361266612900049,1.060617814430271,4.053959547503834,2.9094657042032313,1.2154851609901312,0.446879583470033,2.260020415672705,2.332237888306199,106661.61732572479,83389.43275928283
48,13331.265625,10636.0,[14],1,2.0945558901970376,0.30960216518499006,1.7572354663637513,0.9438377013599348,2.1136922345754114,-0.042906208600322016,0.4851279707337266,0.708754456196135,5.819439726798255,3.2990462501180957,0.32724545877349653,0.2000644400498841,2.6560255227888727,2.0010716002313638,72841.82704896021,32141.26865767845
72,247581.71875,216100.0,"[0,1,3,4,5,6,7,8,9,12,13,15,16,17,18,19]",16,0.4164589086401891,1.26180848693255,1.5077261883839665,0.9991233637662531,1.8885024883169472,0.34473751240919936,0.09664880270232779,0.9325226525077235,3.177537649527567,0.6109532897359401,0.30361659527800233,0.23937800583924862,1.5156351539351474,1.3191995743884621,70119.01932531112,25857.050437513313
72,159255.291015625,140678.0,"[1,2,20,21]",4,0.270192561046827,0.2601853831819123,0.43102377713046014,0.7365920980842326,0.388216203825678,0.2558290989616441,-0.01837299504392309,2.3984311222299217,0.9076679561890678,0.34704102190320263,0.18093622146823352,0.7475940486457675,0.6607675116949293,1.0291070713208106,69855.48530006732,17862.79667449719
72,66650.771484375,58592.0,"[6,7,10,11,14]",5,1.1584228121936622,1.0966831031646302,1.6881234282163358,1.495059407269669,2.1813626870312146,0.9722215956306177,-0.26615464975752223,0.9542015423019157,4.369973218575329,1.8054465183532042,0.5962174151728301,0.2456801854630276,2.1559888416812556,1.8754628406501668,81964.60883473339,42206.59049362197
96,205287.71484375,174340.0,"[0,1,3,4,5,6,7,8,9,12,13,15,16,17,18,19]",16,0.513622201391783,1.7010368840181167,1.8806572497599778,1.1890563257492337,2.398369737345893,0.37633772303806357,0.4450514480545591,1.1187007422336093,3.4277323189721467,0.7061939466418655,0.28518130832161503,0.2680503906064797,1.9396125723071824,1.734298276509888,69772.88203585471,23276.745397441882
96,128790.91137695312,108884.0,"[1,2,21,20]",4,0.4274851648058373,0.21933105432342082,0.4567867309790783,0.8968337622323417,0.3671613705974277,0.24540570984213206,0.127665063925269,2.7748174534845615,0.8720005234441827,0.43461471453808265,0.23656632583702386,1.1183375654495404,0.7039610748131179,1.2213324827696406,71132.872165558,15460.611133621225
96,33173.78173828125,28848.0,"[10,11,14]",3,1.9400586934130744,0.45542054796239384,1.8383453790251258,2.0317020980741556,1.8743077076031969,0.717880928531319,0.14770823182400772,1.2337256723096344,5.243495340826203,2.8209184524293693,0.8206114629639054,0.35591227344226495,2.4331532411742347,2.308026832021826,83892.39633349495,45843.67847414555
120,132897.75057983398,115545.0,"[1,2,4,5,9,17,21]",7,0.44489205448951474,0.4457071484675108,1.0454253483784068,0.9367636121380629,0.645910012485921,0.26094262768296983,0.21034233579340178,2.008590260122042,1.3460775906317508,0.4880502623488455,0.32088788912476574,0.7611833443940923,0.778510857946186,1.1083027378985622,68020.48826860974,17114.80872122028
120,218203.92098999023,199075.0,"[4,6,7,8,12,15,16,18,19]",9,0.4189937760082294,2.25173166064842,2.1792754631435263,1.2610778879739142,3.145903656269035,0.35920326115754975,0.579754250915629,1.1444088664434293,3.8698502546910416,0.5921449039789134,0.21763056013024817,0.17807681783519413,2.413954021973538,2.0912631609282935,67227.10561858403,21381.492332175272
120,36588.722717285156,32442.0,"[10,11,14]",3,2.0316657553537505,0.4734282463205792,1.98568071730192,2.2223426674423563,1.9604583176502755,0.7025504990777629,0.1452285930146484,1.36280405412207,5.265075531149257,2.9102520141538992,0.8475115874949006,0.3654809559757114,2.503533666714717,2.3993144998465987,80492.87537146686,43788.68000810983
120,70639.5267944336,60925.0,"[2,9,17,20]",4,0.38674652985650915,0.18552872852178792,0.3825857088786466,1.0186557513447005,0.3592229110253564,0.2727926306246069,0.1607822296453736,2.861605665819976,0.7298193325819237,0.4314991788067245,0.25644708117190884,1.1887214482487136,0.6614769564776707,1.3944359294587485,70233.54525529782,14286.560420981283
144,113673.98107910156,97492.0,"[1,2,4,5,17,21]",6,0.5297375390658614,0.2926123532126641,0.948636642539519,1.343494239769103,0.49494470483362996,0.27140322604341405,0.2816366921344735,2.4108645114565146,1.1617398105112713,0.5276174245556834,0.30477114517443793,1.0526221608963602,0.8063486190036618,1.2945988875199412,69208.68725577174,16576.57395565457
144,173423.97061538696,148280.0,"[6,7,8,12,15,16,18,19]",8,0.4233291712269329,2.3521729480485947,2.146783036872693,1.4796668009566099,3.253352159623472,0.3695522822825661,0.7211308374872996,1.1407151718978188,3.7719829628084756,0.675691272538398,0.12948346803808564,0.22428035799106605,2.4729337424579523,2.1587076426134564,67091.08685839284,20407.36240149185
144,40943.590339660645,36370.0,"[10,11,14]",3,1.9780153749402876,0.37018139123018257,1.944099521365081,2.504735276644537,1.9978461336273239,0.7077660543031388,0.38955779675735336,1.296190893117037,5.237356094322073,3.1417426501629566,0.843621728523861,0.4335580868780128,2.3614007628551024,2.493800479324355,80735.02108114939,43834.511164817755
144,74795.70310592651,66396.0,"[2,17,20]",3,0.4082677455302568,0.0776778939023881,0.194427757885288,1.7120563737391103,0.2946945714818163,0.3267020465977801,0.23101627174974793,3.3441601925811586,0.8089967988531356,0.45825261989028276,0.23393342350610613,1.5776445426857637,0.7396044872448867,1.6831264709875275,70842.86995509765,13854.135879963154
168,282010.4289121628,253339.0,"[0,1,3,4,5,6,7,8,9,12,15,16,18,19]",14,0.45327278037248675,1.318838907303864,1.7308257507202032,1.701391519168364,2.1416543013820273,0.39872170492904124,0.5146919239584595,1.104250776122083,3.347991843374721,0.7881267821568382,0.29034791066586685,0.30007809915555594,1.6881252782570235,1.5587648155489864,67303.81051044448,24400.80742099836
168,111916.74232292175,96356.0,"[1,2,17,21,20]",5,0.27752899109431683,0.21799497762746345,0.5790693280510144,1.680207546564334,0.5061413327234585,0.3165195837356525,0.28333794557998226,2.633472256048589,1.198547758960597,0.4841472450315012,0.25486034392825063,1.0819367931167694,0.766477908271923,1.3843837383379056,69892.16269915634,16697.926496426873
168,64491.28594684601,58831.0,"[7,10,11,13,14]",5,1.4296040010029627,0.5599335737205746,2.007411197262327,2.491128947599084,2.048491456607738,0.8609056322764241,0.42489333031106513,1.1444458705094287,4.590138259539359,2.4168936801194945,0.7577400621467598,0.402266169089599,2.110062102441297,2.101102059929372,78983.73560402213,43531.20509892678
