time_in_hour,cumulative_size,size,pcore_ids,pcore_power,AF700 CD48_[R 730_B-A],APCCy7 Ly6G_[R 780_A-A],BV421 CD117_[V 440_F-A],BV510 SCA-1_[V 525_E-A],BV605 CD11b_[V 610_D-A],BV650 CD150_[V 660_C-A],BV711 CD11c_[V 715_B-A],BV785 B220_[V 780_A-A],FITC Ly6C_[B 525_B-A],PE CD115_[YG 582_D-A],PECF594 CD135_[YG 610_C-A],PECy5 CD3-CD19-NK11_[YG 670_B-A],PECy7 CD16-32_[YG 780_A-A],PerCPCy5-5 CD45_[B 695_A-A],_FSC-A,_SSC-A
-1,0,0,[],0,0.0,0.0,0.0,0.0,0.0,0.0,0.0,0.0,0.0,0.0,0.0,0.0,0.0,0.0,0.0,0.0
0,125905,125905,"[0,8,9]",3,0.2780398550970984,0.12832653756403278,NA,0.5465123515746049,0.2931312790119436,NA,0.016144874127332454,NA,NA,0.37572392181406566,0.17178934738889406,NA,0.6126582430086106,NA,70204.39753782583,13711.672006671652
0,130228,130228,"[3,4,6,7,12]",5,0.2640719062874348,NA,NA,0.7075277032665817,NA,NA,NA,NA,NA,NA,0.147215889939174,0.15418746547593432,1.9769601793162717,NA,NA,20611.477961728597
0,39159,39159,"[5,10]",2,0.6022897786460295,NA,NA,0.8083938016292662,NA,NA,NA,NA,NA,NA,0.25278964084885747,0.12284141137413906,2.2824939958119534,NA,NA,NA
0,41103,41103,[11],1,1.7393197893827501,0.3366179214412659,NA,NA,NA,NA,NA,0.811450145877433,NA,NA,0.7038544604286843,0.28324971452205494,2.391847244750978,NA,NA,NA
24,155958.125,140220.0,"[0,8,9]",3,0.25653435716478445,0.12380552673353007,NA,0.6203091200867132,0.25182299026420774,NA,0.005692157680965426,NA,NA,0.34084155431465857,0.16123848231615945,NA,0.5433844976448056,NA,72686.45282828322,14916.33326574045
24,95162.75,84451.0,"[3,4,6,12]",4,0.4181333589534726,NA,NA,0.7882468241026559,NA,NA,0.1608359892854554,NA,NA,NA,0.20139226399903842,0.16779427291928894,1.6571281365450203,NA,NA,23065.14143401697
24,37764.875,32870.0,"[5,10]",2,0.6701190642428965,NA,NA,0.848022054322966,NA,NA,NA,1.0019105159920523,NA,NA,0.19845647208550332,0.12025860743613992,2.239138511692424,NA,NA,NA
24,45018.75,39452.0,[7],1,0.1479154691267477,NA,NA,0.7589029444897997,3.046335018286817,NA,0.7883111902068509,NA,NA,0.5088883148077151,-0.0619542797278716,0.15154601019575442,2.128729605953062,NA,68647.07456337663,22810.85227821733
24,44069.875,38932.0,[11],1,1.6998533443281663,0.43217257289985334,NA,1.5481437089309793,NA,NA,NA,1.02821142080048,NA,NA,0.7886449087471847,0.35754766722165576,2.3866624480243392,NA,NA,NA
48,158171.765625,138677.0,"[0,8,9]",3,0.24267726114085253,0.1541223152211999,NA,NA,0.26803112423174236,NA,NA,NA,NA,0.31971604933915787,0.1521406532410703,NA,0.5576295434670328,NA,NA,15502.561606433937
48,90378.21875,81343.0,"[3,4,6]",3,NA,NA,NA,NA,NA,NA,NA,NA,NA,NA,0.2063289706210285,0.12904192295641026,NA,NA,NA,20887.51836570121
48,51062.46875,42575.0,"[7,12]",2,NA,NA,NA,0.664317790958254,NA,NA,NA,NA,NA,NA,NA,0.1047472459132478,NA,NA,NA,20810.484079855556
48,41209.734375,35701.0,[11],1,NA,0.385698301392289,NA,NA,NA,NA,NA,NA,NA,NA,NA,0.2690762838755856,NA,NA,NA,NA
72,166346.470703125,146575.0,"[0,8,9]",3,0.24717657627579848,0.23101066846000728,NA,0.7274243875699606,0.3470163057699618,NA,-0.019853216267854634,NA,NA,0.3388950367178932,0.17715306304214495,0.7719476557347904,0.6330424815491912,NA,70406.05139829969,17896.940897159853
72,156040.58984375,140736.0,"[3,4,7,12]",4,0.294143843856697,1.5523498546570522,NA,0.9672185983591945,NA,NA,0.2761620015460533,0.7304860068984191,NA,NA,0.26090605964094804,0.15764498654649373,1.672028119559902,NA,NA,24641.773814911117
72,33738.216796875,28587.0,[11],1,1.7480592110979007,0.5082953036286928,NA,1.9205572407610378,NA,NA,NA,0.9574677003063603,NA,2.9958205981077892,0.776486730305268,0.30582213426574123,2.4319738330863303,NA,NA,NA
96,106642.89624023438,89651.0,"[0,9]",2,0.41980146391200424,0.2136173391187648,NA,NA,0.32929541192210543,NA,0.15068219162404883,NA,NA,0.4180227060294093,0.23128269044999472,NA,0.6429594422827282,NA,70913.05569663664,15574.87342434187
96,42399.34765625,29141.0,"[3,4]",2,0.4127431441374134,1.442036898945228,NA,NA,NA,NA,NA,NA,NA,NA,0.31539498535461785,0.17163883378656142,1.5542970480398464,NA,NA,21868.891275136557
96,91150.2470703125,78582.0,"[4,5,12,10]",4,0.5477615754664733,NA,NA,NA,NA,NA,NA,NA,NA,NA,0.2997515337275951,0.1505168781004652,2.3693256706975343,NA,NA,23910.382564124193
96,43460.66162109375,39774.0,[7],1,0.14450637933793997,NA,NA,1.1471134809818144,NA,NA,NA,NA,3.936399999353146,NA,0.030045978029317855,0.16750378300736812,2.478991469442277,NA,NA,21763.047596192395
96,26088.41259765625,22287.0,[8],1,0.3589587116300679,0.1254870995360684,NA,NA,0.3540412112882292,NA,NA,NA,NA,0.5108431400362444,0.2555636147133713,NA,0.8354227273022415,NA,75229.04303587973,14697.421061781764
96,30835.277099609375,26618.0,[11],1,2.0366794885563078,0.4503537631581076,NA,2.0616202995547632,NA,NA,NA,NA,NA,3.0591073126478734,0.8295339368684114,0.3464738835289417,2.537398270700639,NA,NA,NA
120,100831.3620300293,87501.0,"[0,9]",2,0.36058345037385364,0.25110497236768037,NA,0.7484168253111063,0.35548732680091977,NA,0.15477478532106703,NA,NA,0.41320073299947757,0.2712048384393726,NA,0.5916784710741688,NA,69655.02656802471,15251.601548934383
120,45031.91845703125,39732.0,"[3,4]",2,0.44905630451703415,1.4504174136121417,NA,1.072824322866106,NA,NA,NA,NA,NA,0.6040147985002621,0.36155626466751833,0.19643355888933367,1.5799271616087784,NA,NA,21032.898907197563
120,105435.91549682617,96494.0,"[5,10,12]",3,NA,NA,NA,1.2599198414368407,NA,NA,NA,NA,NA,NA,0.29239446252854195,0.13560354381426443,2.657272897433483,NA,NA,23014.473396620047
120,69731.58270263672,64299.0,[7],1,NA,NA,2.349921294655721,1.2299098978216416,3.58615972838307,-0.7843284544053992,NA,NA,3.9420446664514563,0.3911287347959852,0.022168041432775176,0.16539833959276473,2.618526435554007,NA,67925.43532033234,20427.34033446611
120,22131.05157470703,18870.0,[8],1,0.26554078982548046,0.09414354417433524,NA,NA,0.41419655810927747,NA,NA,NA,NA,0.5446458900768677,0.2778310709476557,2.0642402117196252,0.8253101256286263,NA,74284.01021552546,14134.488595885727
120,29020.409637451172,25166.0,[11],1,2.1253207761924546,0.49719917872415165,1.7676410239661746,2.2851764222440907,NA,NA,NA,NA,NA,NA,0.8107295300027695,0.3604527019942424,2.621804854658269,NA,NA,NA
144,65529.88739776611,57308.0,[0],1,0.4823668377131607,0.11953052095159045,NA,NA,0.2662094133911439,NA,0.224750679801482,NA,NA,0.4088382461824578,0.21626941569835756,1.3988723516670196,0.7268459979353395,NA,71330.46634515867,14348.727691687633
144,90274.48943710327,77095.0,"[5,10,12]",3,0.522667968428481,NA,2.2492275754146864,NA,NA,NA,NA,NA,NA,NA,0.200480948540533,0.17822805201843706,2.591800918478087,NA,NA,21438.60730865357
144,64559.44783782959,55843.0,[7],1,0.08547892176004468,NA,2.2495346082680228,1.3846034076551188,NA,NA,1.3058850468276813,NA,3.751029582623199,NA,-0.049418845157996216,0.20875044429402045,2.5652629792697788,2.212126736913896,67280.18735139164,19141.310030951983
144,32479.38144683838,29713.0,[8],1,NA,0.0016480932997779973,NA,NA,0.4132976574590468,NA,NA,NA,NA,0.5692784501659695,0.2495834671388013,2.260589984747549,0.8819663016770817,NA,72755.98223829558,13967.620034720876
144,26117.03285598755,21735.0,[9],1,0.36884967249889744,0.3533675622103192,NA,NA,0.43488722157306725,0.2918024345755057,0.18743579469804006,NA,NA,0.4440090610684646,0.32867445062241574,0.3525519474595742,0.5875242913569897,NA,NA,15908.4180051503
144,28538.551204681396,24911.0,[11],1,1.9458754746772826,0.44765253313391984,NA,2.713546273460389,NA,NA,NA,NA,NA,NA,0.8483089317883836,0.4789566754568656,2.5321995327184443,2.8714999670322996,NA,NA
168,49190.235924720764,40999.0,[0],1,0.28313438372778044,0.11877861344801444,NA,NA,0.2787685931707031,NA,NA,NA,NA,0.3918566685272318,0.19958612894868022,1.1718660124397586,0.7065228220335101,NA,71643.6296798179,15361.127011030316
168,88915.37372589111,86313.0,"[3,4]",2,0.3583210679315503,0.9732939528638522,NA,NA,NA,NA,NA,NA,NA,NA,0.31446206235954577,0.21696873123081872,1.4366318046500757,NA,NA,25636.582282413787
168,56016.551862716675,46016.0,"[5,12]",2,0.4807805136279337,NA,2.1367231516640586,NA,NA,NA,NA,NA,NA,NA,0.19826239624226671,0.1425454479215258,2.418917655778241,NA,NA,22498.39793713625
168,23041.449584007263,20822.0,[6],1,1.9800523030438948,0.3014455968848555,NA,2.4729338230555524,NA,NA,NA,0.7492191824105325,NA,NA,0.7816458709313632,0.31332780473315414,NA,NA,NA,NA
168,46561.9309797287,38492.0,[7],1,0.1317849146440413,NA,2.2392263655609006,NA,NA,NA,1.285996343588637,NA,NA,0.5766555022660212,-0.02845623058673663,0.20016687597208516,2.393838690175609,NA,68867.04569071611,21608.241875737327
168,32239.922680854797,28180.0,[8],1,0.14691139918527774,0.04926254464350466,NA,NA,0.4152089179919747,NA,NA,NA,NA,0.6109873169530958,0.2673960210556605,1.9996149534959304,0.888106365494823,NA,75584.57179254366,15795.996237886173
168,41257.62910699844,37993.0,[9],1,0.2691252950369727,0.4241561097628215,NA,NA,NA,NA,0.18038906033024693,NA,NA,0.44374008947668087,0.27732899986944837,0.28954912250105536,0.7011070722851075,NA,NA,18469.554478995546
168,29838.318900585175,26271.0,[11],1,1.743552692808765,0.45160744304127265,2.2647196747624467,NA,NA,NA,NA,NA,NA,NA,0.9408731668979216,0.5127737274306907,2.5196413008591043,NA,NA,NA
