time_in_hour,cumulative_size,size,pcore_ids,pcore_power,AF700 CD48_[R 730_B-A],APCCy7 Ly6G_[R 780_A-A],BV421 CD117_[V 440_F-A],BV510 SCA-1_[V 525_E-A],BV605 CD11b_[V 610_D-A],BV650 CD150_[V 660_C-A],BV711 CD11c_[V 715_B-A],BV785 B220_[V 780_A-A],FITC Ly6C_[B 525_B-A],PE CD115_[YG 582_D-A],PECF594 CD135_[YG 610_C-A],PECy5 CD3-CD19-NK11_[YG 670_B-A],PECy7 CD16-32_[YG 780_A-A],PerCPCy5-5 CD45_[B 695_A-A],_FSC-A,_SSC-A
-1,0,0,[],0,0.0,0.0,0.0,0.0,0.0,0.0,0.0,0.0,0.0,0.0,0.0,0.0,0.0,0.0,0.0,0.0
0,158948,158948,"[0,4,6,7,11,12,13,14]",8,0.1678308945276297,0.41010421140081565,0.5113127073821087,0.29903694526227315,0.5200763509902,0.23718143723597698,0.2659508881898907,0.3100383462177517,0.5671824613887154,0.12598246604867763,0.2435911305906519,0.09077959989216766,0.33568366678502776,0.35999328477855796,0.18751236601335733,0.0717932048814342
0,117634,117634,"[1,2]",2,0.1756267781372031,0.2371572597085117,0.360699060610961,0.28189951950382197,0.26285385384832466,0.22513384603957382,0.25837321371905064,0.449413471183137,0.168374984316626,0.11072068729127058,0.2513964560665743,0.18336876390126047,0.14076406996179794,0.22510445390975398,0.19520388734316557,0.05424768398666336
0,29231,29231,[8],1,0.35454690030767183,0.2468042820901872,0.4640081400653655,0.3161262264867962,0.4026954992570499,0.2475646088044245,0.25450259414461973,0.32220757385884796,0.797391159904674,0.45853421430705366,0.27352238388145117,0.09866916005958923,0.37968211401500596,0.39933629013914174,0.20843853872336926,0.09816416321653237
0,108608,108608,"[2,9]",2,0.16608894996654996,0.23099003913888147,0.30128371406068877,0.28456506763521466,0.25743726210192824,0.22247542605756085,0.25039082334315227,0.5367949569235777,0.15445388428058515,0.10374458341157115,0.24612072192544365,0.2432584804784536,0.14763283165825428,0.2960787743403414,0.20394394517698508,0.0489990473335228
24,185349.0,145612.0,"[0,4,6,7,11,12,13,14]",8,0.17312060355167896,0.3913772193156209,0.5192762892658487,0.30485917382889094,0.510968441515584,0.24011166294891584,0.26704041999023914,0.3162883359672724,0.5759698570254279,0.12944196855956,0.2408618013743891,0.09169059495341908,0.31945141259852694,0.34617002440230216,0.18517209428410988,0.08216748973872698
24,152630.5,123222.0,"[1,2]",2,0.17501211217661977,0.23596423282706666,0.3687996305398756,0.28763886335114414,0.2581511221887403,0.2295822018791249,0.25656137845292676,0.43521960595184606,0.16981395937477725,0.1067094428903758,0.2501063428127892,0.17306754201615496,0.13345379429909254,0.21699149467487414,0.20572221414018071,0.060139127485308884
24,31563.75,24256.0,[8],1,0.3577687646369876,0.25557037217683254,0.49775608560651613,0.3290039980257908,0.4076253426192485,0.2585920109614753,0.25928939562191183,0.3449077767269506,0.8166292019371513,0.4528340804546299,0.2701701911455534,0.10333976702266512,0.3841018851385438,0.4012541287091067,0.21213911359614046,0.12542917580203725
24,139500.0,112348.0,"[2,9]",2,0.16247927594582146,0.2297326389949974,0.30051985440337303,0.29217570039290935,0.2502873590487031,0.22695056358582213,0.24805147513915146,0.5370271677770585,0.15205183384500848,0.09766343174343843,0.24461994911433102,0.2405322684724748,0.13731171148272445,0.2948900825765794,0.21486347633484426,0.05177104725188123
24,24936.5,20546.0,[10],1,0.2805251831054226,0.27820094729642564,0.6107946899918542,0.47059203094664753,0.4549310371116293,0.4317419813851044,0.19661550118973245,0.3556630060459916,0.6285291758020882,0.45958040848650844,0.3784640799017935,0.1479494650054038,0.3692092491802551,0.5258699022373938,0.42186437721482356,0.39666294451000583
48,177415.875,133834.0,"[0,4,6,11,12,13,14]",7,0.16795436758664434,0.3925426275071503,0.49965332977845733,0.29535722774476814,0.4948115134841434,0.24869349081680794,0.25864347544685246,0.31073174565266753,0.5598463643951375,0.11379582981538888,0.2420165773268912,0.08755713995238458,0.3128516964014816,0.31352029973594375,0.17469941228226235,0.07722652190544109
48,160790.625,122633.0,"[1,2]",2,0.17182353157693922,0.2369908061219561,0.3637795571335046,0.2840568388907025,0.25755725854216177,0.23022509300002056,0.25438975747257975,0.43342649344972817,0.174690540627189,0.10303210109275206,0.2489498659923803,0.16253652491231485,0.13412244730898842,0.20377300148880423,0.19250182521002004,0.06226470290630206
48,55912.0625,41787.0,"[8,10]",2,0.3316687547866412,0.26085317995422747,0.5133598789383146,0.36895208209401864,0.4244807800572122,0.31056904457854584,0.24437031580129975,0.337453462009712,0.7394254372066763,0.4384807998447892,0.3016658628346427,0.11429656106087262,0.38180446817878916,0.43889967273876196,0.2654359608014881,0.19773455210274826
48,140340.0,105465.0,"[2,9]",2,0.16339263137744836,0.23087484142080006,0.3012462590898801,0.2875026236736612,0.2519910881594861,0.22747806411023977,0.2502739889373483,0.5306788850527395,0.1542969043128578,0.097705633760271,0.24329103588483067,0.22418269659888393,0.1420116062964647,0.27472983428939796,0.2031875042744412,0.05401797116367185
72,262885.171875,204685.0,"[1,2,4,6]",4,0.16980638691264802,0.28838673340702625,0.38327775756319116,0.30212763057317527,0.3262478781165372,0.24282987144084778,0.2534496452441359,0.3936223699564216,0.2938911705981189,0.10992066744516647,0.252727648164766,0.13323788111506207,0.18296198641858985,0.22908815730668994,0.1889835536831547,0.07230311242111563
72,64641.9375,46606.0,"[8,10,13]",3,0.3105817966387995,0.2773584622007653,0.5174464740915418,0.4150657638411121,0.4437361654282725,0.3349894832907766,0.2293327163983931,0.3443235931792011,0.7035819950459673,0.3631024954557982,0.30941352617340223,0.11398205898130981,0.3704332561752773,0.43939213101677504,0.2896901921061207,0.21862279211225166
72,149051.0,113966.0,"[2,9]",2,0.16057375952996664,0.23588967069641525,0.2904855039955108,0.2999766583737396,0.25474980463943186,0.22417130657529707,0.24726479881252242,0.5320990895952319,0.15113137642245222,0.09646890719816374,0.24424501343372793,0.2102452599644791,0.14655574702154087,0.2801789050347982,0.20758687282490573,0.0592638724105834
72,182491.359375,144652.0,"[4,6,7,11,12,14]",6,0.16546143806712219,0.3767656816312627,0.46182311692800526,0.32097345780391134,0.4672794323837389,0.20736932194434574,0.2772597327077817,0.3137419971790778,0.5100528043141078,0.12125517628543814,0.2534395644915767,0.0942950887074787,0.28323932239501287,0.30755667171791706,0.18875110222203667,0.0853481709501088
96,146335.4375,110790.0,"[0,6,11,12,13,14]",6,0.17841474081784015,0.4474364489923109,0.516397459543156,0.3378525930574477,0.5515592139735305,0.2590126599215735,0.2864702900367372,0.3386193741967577,0.5451714319313368,0.13207576199922913,0.24946564838461588,0.09294461215366359,0.3672046583462011,0.4223316073934176,0.193360288956941,0.0795846277571845
96,153597.96875,98721.0,"[1,2,4]",3,0.18000007630774564,0.2619145065764057,0.37458070326853354,0.3071168507201923,0.29094014484953096,0.22195557189031637,0.27008722578742705,0.43801443573339965,0.22253886492593616,0.11457775938808197,0.2558162943351582,0.17422753166207075,0.16297776914439055,0.2332529909255965,0.19510108264834236,0.06347606665413232
96,32212.68359375,24564.0,[8],1,0.3766230012401063,0.25790547898103255,0.44341622136702075,0.4171246022346741,0.41040604163065375,0.2526867728200092,0.26985422618824756,0.354922882365909,0.7932926297783215,0.4188279423386717,0.2880742441285265,0.10920227452996328,0.386046679328381,0.46315010479613267,0.2105864829862154,0.115763274056824
96,128625.75,91363.0,"[2,9]",2,0.17714551793431113,0.2350693850821097,0.301407403464234,0.3171243512614192,0.2573573294177763,0.22315991314174075,0.25968613075244107,0.5603101341653495,0.15130222972124335,0.10716364809240939,0.2500332264582113,0.26041479368669485,0.1532592787784189,0.3130246428117145,0.2110928989516056,0.05356982795686252
120,190335.0615234375,156655.0,"[0,6,11,12,13]",5,0.17184952550869304,0.4796500411349548,0.5370866111828805,0.34933143600788247,0.5837607407723098,0.270237834828087,0.296314609215492,0.3505423386125344,0.5546269662118849,0.1202900335500794,0.24770756475812786,0.09066049639962831,0.3959501916754711,0.4708851262016239,0.18566943964766341,0.0723418352194805
120,139026.4921875,100627.0,"[1,2,4]",3,0.18025917386905807,0.2606198182296498,0.3875075908046223,0.3107373094403602,0.2879985606911208,0.2222776503480872,0.27301387941552396,0.4306700375064206,0.21646947433397398,0.11625531225203016,0.2611650329497152,0.17165185415725193,0.15654926179159187,0.23797607807193197,0.19106075959301566,0.06092169927073259
120,37381.1708984375,29328.0,[8],1,0.38245512404326265,0.26011041148203656,0.4576860651651645,0.4498914286205685,0.4222743846318585,0.24978866746862413,0.27481389836285147,0.3797080292299217,0.794788522154458,0.41778104848633096,0.2930237985719477,0.11288441427521848,0.3923754792317723,0.4910529884594004,0.19805105151693525,0.10960496774633818
120,109370.4375,77214.0,"[2,9]",2,0.17266561726573917,0.23582191239654957,0.3112750318451493,0.3255809837444413,0.2613964838910452,0.22348176389543362,0.264224822171647,0.5630809321337185,0.15302896093194815,0.1094473379338974,0.25305810187963207,0.2679227271710282,0.15082363735668933,0.3306491891173018,0.20948936997195808,0.051408443879921675
144,184604.21484375,133137.0,"[0,6,11,12,13,14]",6,0.17021756732057908,0.4780297878939235,0.5342406252451133,0.36353456223025093,0.5846451961262136,0.25427867040031527,0.31308748531609715,0.34735389797804916,0.5371668685426711,0.12448501686116953,0.23920511866856342,0.09502377334168131,0.39445376276360533,0.4603903828489346,0.18254823976336107,0.0685634337317185
144,114381.623046875,79625.0,"[1,2,4]",3,0.18956243213844018,0.24851100784421612,0.3811751009549984,0.3359744580715367,0.2743906769625022,0.22517445925155152,0.2768183261578006,0.4621775004526794,0.19855841927799023,0.11904407337167801,0.26114451960685225,0.20037963600955783,0.15880045622935138,0.2585543328617966,0.19312679552634895,0.05884950669480236
144,57673.500244140625,44044.0,"[8,10]",2,0.36243772536799146,0.2651939592209468,0.5110487457417199,0.4951860885092156,0.457461790870156,0.30578446321737396,0.29163897054788834,0.3689894846956686,0.7401704116786761,0.4539134238897147,0.32556166887631366,0.13633051786227565,0.38890916223986244,0.5464181041852352,0.26164050201905076,0.18417511790567057
144,112704.609375,85362.0,"[2,9]",2,0.17678746415487526,0.22919610205890933,0.30631288630355025,0.38582258647140244,0.26121765145179787,0.22643534978664093,0.27265021934085354,0.5952633791428027,0.16765917193745655,0.11406110542061011,0.2527403892118379,0.30727089215139747,0.16352294442012538,0.37371076864321656,0.2089952613202024,0.05096500761460937
168,185800.0537109375,139649.0,"[0,6,11,12,13,14]",6,0.1760708689734803,0.42540428319778756,0.5216951285293726,0.3807414041721115,0.5473413317167719,0.25479994247774573,0.30495507383508946,0.33829260750315465,0.5243250892409058,0.1412179320779887,0.24636663651688023,0.09487114067879729,0.35198773252110893,0.3954858198646333,0.18350793805238946,0.08246256024613842
168,140433.40576171875,111838.0,"[1,2,4]",3,0.17333344767354464,0.25850707843960674,0.3867644416112021,0.36518198322499257,0.3030024844307279,0.22921219195066253,0.27882280940802423,0.41373205761471216,0.2803492661850341,0.12485180456880145,0.2600374754232742,0.16099554458619517,0.17184026294761579,0.2457749308348595,0.18307879989514758,0.06987694678296391
168,62304.375061035156,47886.0,"[8,10]",2,0.34177900350437107,0.262716011553425,0.5326176568807006,0.5214649626438566,0.4597387316787981,0.3237545479373389,0.29657531399513,0.35463188349115965,0.714965874212016,0.44777304831905074,0.3304919390541789,0.1348629748703327,0.3805403171752021,0.520861129752555,0.27878793156525833,0.209310644052132
168,96610.15234375,68434.0,"[2,9]",2,0.1617578569138576,0.2291862617769476,0.30321967880117234,0.4129301663209301,0.2634711545432323,0.23398068885033702,0.2788198314262974,0.5991354392728622,0.18687970584770353,0.11652366534621082,0.25244239463114404,0.28853881969917067,0.16502553729746955,0.3730177059445584,0.21262664399830344,0.05488201221852764
