time_in_hour,cumulative_size,size,pcore_ids,pcore_power,AF700 CD48_[R 730_B-A],APCCy7 Ly6G_[R 780_A-A],BV421 CD117_[V 440_F-A],BV510 SCA-1_[V 525_E-A],BV605 CD11b_[V 610_D-A],BV650 CD150_[V 660_C-A],BV711 CD11c_[V 715_B-A],BV785 B220_[V 780_A-A],FITC Ly6C_[B 525_B-A],PE CD115_[YG 582_D-A],PECF594 CD135_[YG 610_C-A],PECy5 CD3-CD19-NK11_[YG 670_B-A],PECy7 CD16-32_[YG 780_A-A],PerCPCy5-5 CD45_[B 695_A-A],_FSC-A,_SSC-A
-1,0,0,[],0,0.0,0.0,0.0,0.0,0.0,0.0,0.0,0.0,0.0,0.0,0.0,0.0,0.0,0.0,0.0,0.0
0,87611,87611,[0],1,0.31182227525080486,0.1497326662747862,0.34499625341564855,0.4319556171713552,0.26853509172366197,0.22465474557990595,0.0014427075481666662,2.380485877195765,0.7032965712524709,0.35675890827633694,0.15865010171097982,0.857944340790536,0.563758298501338,0.8436698155939402,69611.71834586952,13902.99209003454
0,159920,159920,"[1,3]",2,0.34667258749374863,1.8580826254564826,2.042139537362466,0.7612426513444439,2.7461241742683744,0.34690122862055794,0.13888586695221283,0.6992709720110155,4.007130310636612,0.6327324063031513,0.17928267867682868,0.16126354450349845,2.1029386222923807,1.6893650130252509,69705.85652826412,22704.611905953203
0,40634,40634,[2],1,0.5534949592459517,0.5083703696411801,1.9209008875080325,0.8207229066545199,0.805407900945017,0.4127355678742013,0.15879864871781324,0.7696505398188722,1.985280223704291,0.6874485494905845,0.40994969914360135,0.29267516427130646,0.8648493411182764,0.8045062154845661,65628.78220209674,22063.755081951138
0,31645,31645,[4],1,0.23274493433401422,0.05283680309686378,-0.06716665261492683,0.8914333145520312,0.32968910156422293,0.26784750086902,-0.07750246408595896,3.7725303015010354,0.8616593805656524,0.4079326175383139,0.19247940164321875,1.6714160239216183,0.7796698236372238,2.1208839616368955,72314.51717490956,13792.429767735868
0,40001,40001,[5],1,1.7516693710157287,0.31905024846880403,1.9256734296392186,1.1816745731356608,1.705484113897168,0.7111773083422952,-0.14638003917402154,0.8080493369665711,5.357412577560575,3.1925897629809095,0.6491809774255848,0.2705761677458087,2.352516667133314,1.9622177392565237,81226.31014224644,40193.04957376066
24,135129.5,91324.0,[0],1,0.3008954707854201,0.13900237992077535,0.4310445544607324,0.4664100388293937,0.22552737403382483,0.24642609457967946,-0.02394914072426202,2.1984119780247706,0.683205745481197,0.32491614322185514,0.15272130887407043,0.7708228173530096,0.5038978950118317,0.7879687059080418,72038.54956911705,15027.402425081014
24,212458.0,132498.0,"[1,3]",2,0.38510728867824073,1.7591306302210343,2.1178696238292045,0.8156823395471147,2.7341797131362546,0.3542713095364791,0.1506723638860472,0.7503606709090542,4.125011441962641,0.6573719607593135,0.1507004822647211,0.16745511349773234,2.0469236132765,1.6855379328502529,69836.91474079549,24851.938359581785
24,77560.0,57243.0,[2],1,0.5600771655234766,0.5542673379448071,1.9265850929022537,0.9146656510637103,0.9355783614942936,0.4605275189595033,0.1644501206420914,0.828532597543846,2.368751170861258,0.6901206345410175,0.3756360939079495,0.2880826936371862,0.9176991304473886,0.8744362771918532,66245.41805054159,25346.20979886546
24,56114.5,40292.0,[4],1,0.20726941479474692,0.058871497634336745,-0.03400743121652017,0.949269422831879,0.27144146994988994,0.29981417924956566,-0.05262982851135334,3.7818722774059967,0.840707812062843,0.3782485144481387,0.17550221091695706,1.663413189077688,0.6877839858414431,2.049106922061154,74346.16179418817,14200.610537383369
24,58643.5,38643.0,[5],1,1.7312863187224317,0.38750026827354,2.175482823799744,1.3437020777920647,1.7490501299206067,0.830393812349205,-0.1485951224005957,0.9765487911362905,5.4305549739784045,3.17039978189398,0.6837941600859301,0.3163594023719605,2.3427549420481277,2.0149438881205675,85629.2929310153,49801.444456761186
48,170395.75,102831.0,[0],1,0.30002393190411647,0.14730618471849688,0.44987482475356755,0.49370594202031404,0.24859948314879077,0.24818598973713302,0.03169367553616764,2.1139452236351985,0.7410216990388515,0.32858781432489104,0.15467161455462985,0.67912569306893,0.5210261498658503,0.7576628608137059,69492.6201856558,15448.654229932245
48,212626.0,106397.0,"[1,3]",2,0.3357647610687222,1.8149684055183481,2.103396224839614,0.7322637027632735,2.8228474606386222,0.32439892466938813,0.15439358085674026,0.7045263585638448,4.108661304860413,0.5051730886744868,0.1128796676065118,0.13102582347290503,2.1225932246891337,1.5956668695961276,67779.63251907045,23137.21911713533
48,101680.0,62900.0,[2],1,0.4687074042879473,0.6653018174911485,1.7705136988173886,0.8412931210980839,0.9664624294133071,0.43463636028962926,0.11058389499902477,0.75311289657505,2.7363250586841037,0.5412603200383542,0.3183664049247992,0.22752752103903806,0.8749160298755715,0.8158111369836705,62286.24390243891,23220.90889063731
48,59431.25,31374.0,[4],1,0.20811043227679127,0.07569733214428132,-0.028705901634257902,0.9415123375454608,0.2386167488779165,0.3079722827594811,-0.06752565061312676,3.8005397841581807,0.8669335035019509,0.33968554911768123,0.16740336214111906,1.6405441904932188,0.6893971648206757,1.9548931689473237,73706.20379009319,14681.910409086136
48,73105.75,43784.0,[5],1,1.7708770122322666,0.38607441330195735,2.075932035233224,1.2874852453397851,1.7687200569175539,0.7829542969362968,-0.09907985887909332,0.91318130529408,5.365208326229501,3.0607337384644704,0.6409886123389623,0.28866887742072056,2.3908169309937892,1.9652794998272765,83012.90029853967,48094.562849024194
72,185116.875,99919.0,[0],1,0.28503261778472044,0.19760699868865172,0.44212226297032675,0.5555770095514321,0.2894367763629373,0.25046412015315034,0.0015105280954448297,2.145249858550888,0.7564365957830587,0.32676299010220167,0.16189027445968662,0.6361062616002728,0.5561217341152925,0.7682535489309068,69601.80389821387,16736.061258596477
72,211387.0,105074.0,"[1,3]",2,0.41755522215887986,1.7003354978067824,1.9621678560383509,0.9624820231181164,2.6988563265379715,0.2980799978114743,0.14473013503015197,0.7697671871874503,3.984588017109003,0.6483535238224233,0.24281476461774654,0.16672232654739771,2.0519309527992635,1.673116208860406,71733.44756300011,27464.44937484333
72,140589.0,89749.0,[2],1,0.4171625098122862,1.0081134951757051,1.5793880603310195,0.9212012031995807,1.3808006857675168,0.46126781428222796,0.0841407912549661,0.7373312566123551,2.880456094406381,0.5569661468660446,0.33750079224814833,0.19264730183461165,1.139739318615789,0.9304963942715951,65865.46145146422,25323.524087944395
72,69397.625,39682.0,[4],1,0.22132292354566374,0.13243523645801947,-0.07602614906847549,1.0524473217833124,0.30534593116660647,0.27068721814146235,-0.058567717101290384,3.685679251597188,0.8536709482493144,0.359869298099176,0.1735009496668365,1.4514099668342244,0.7460824041294473,1.9121430909991488,73604.81687954029,16076.89231439854
72,62128.875,25576.0,[5],1,1.7717255133382126,0.42609156037548646,1.8070175701616304,1.5544084945566912,1.7064582467894196,0.775889484730327,-0.13534079758607342,0.9306997756800248,5.343655959899857,2.96834290104842,0.6492606741429938,0.291734389279539,2.3498176308761534,2.0019851957925954,83346.2097615647,47039.02821353228
96,157454.4375,64896.0,[0],1,0.3477435770820374,0.1985393578043202,0.5020847980324672,0.6178712550098981,0.28292536703002114,0.2473494252087467,0.04954206014239304,2.2533427901679257,0.7394791260963688,0.35878619165425485,0.1899497676617039,0.7636298100121066,0.5713595360086449,0.7948122148470651,70166.63618642118,15951.366095985408
96,100533.0625,53777.0,[1],1,0.6494420944744954,2.0544351783710546,2.1656175012822314,1.0886216609200012,3.0265609941530465,1.2954355503239146,-0.23911022485512667,1.0348324222671597,3.959604338606288,0.7561503284671914,0.3379806000053702,0.14634216293023783,2.3496414920421014,1.9392039467010116,72343.47327278544,27381.822213960815
96,109854.5,39560.0,[2],1,0.5282516449667711,0.9686948423289481,1.6649983327941533,1.1021363406807967,1.3192823365240924,0.4889056755805292,0.23204642273980092,0.8931406818377177,2.910975031967317,0.6595347963340082,0.4108561995884288,0.24285068917353225,1.168711111993006,1.0372038158302392,66227.37180543308,25646.93990687632
96,124388.4375,65451.0,[3],1,0.2621943289327868,1.975358826571603,2.0201146434506065,1.081731899818264,2.9585923047926204,-0.476169686412782,0.8660523840373346,0.8335857119692744,3.947469059645783,0.5951545355808191,0.13374463036405393,0.1923186381184937,2.2209725221737666,1.8762205967676764,70570.22813716097,24320.559215963734
96,77922.8125,43224.0,[4],1,0.3639543533937657,0.1383862298636922,-0.001381883894693292,1.1847426362297826,0.35597962636665326,0.25796845342866814,0.08256403119113331,3.7273086072105803,0.8364717916592163,0.4534347282350635,0.21789981514156853,1.5982152334633963,0.7949044658832979,1.9777284164858766,73612.82546109307,15191.04572874624
96,60294.4375,29230.0,[5],1,1.9320109190213703,0.4103133470241165,1.7461763849225123,1.771789297555459,1.678533327071023,0.7518248187871783,-0.003542661407430092,1.0725723010995467,5.405614040064804,2.9290143078320927,0.7000681193538498,0.32518485094707406,2.37785491087383,2.152708129412848,80915.96316824484,42523.68533996261
120,146309.21875,67582.0,[0],1,0.3489324994898395,0.21821888288460878,0.5967338262255395,0.6748536032935295,0.2974583642296733,0.24293071116610432,0.09275313248953054,2.187889486801665,0.7497514775380384,0.376361365628887,0.22509473529814494,0.7718847712652706,0.5519750352658496,0.8119826904853535,69731.46312422669,15359.382786670605
120,137918.53125,87652.0,[1],1,0.6392505790911482,2.306484593524762,2.2934315297731573,1.2315171494189916,3.264401884279866,1.3597908057965367,-0.08716173671463023,1.1660099245974092,3.9586463827150795,0.6973725817834345,0.33758682169889687,0.14245586419791179,2.522599387963194,2.152713242383608,70542.72318463407,25358.117189200548
120,99305.25,44378.0,[2],1,0.5982545494120628,0.9574236445234572,1.7731859344290455,1.1944770018771482,1.2861154269773705,0.4886773235456463,0.2991071724046277,0.922812554426629,2.9220946095057765,0.7150070409463417,0.46802555306835636,0.2614765805726007,1.1767453748137209,1.0965944173551923,65073.93846750282,24992.493347531763
120,156235.21875,94041.0,[3],1,0.22935227231315558,2.2207546883889204,2.206528702734254,1.1977415901825963,3.246962684656119,-0.5359781376302208,1.0566306370968435,0.9424089470101578,3.956326756712596,0.5296722535869912,0.11440164314108925,0.17815096858143142,2.41842034584036,2.076391137632767,68658.7784996458,22333.388232926623
120,72458.40625,33497.0,[4],1,0.3446658879283555,0.1254619413206477,0.06101020589568851,1.286521437156869,0.37505369673509037,0.2567533135151998,0.12416739671078858,3.7926503100757003,0.8292384226640274,0.4698448235966416,0.23871277395823087,1.687117258294712,0.7873096815487616,2.070084148129796,73074.24493621103,14571.306196788097
120,62997.21875,32850.0,[5],1,2.0213637027606888,0.4107266729736674,1.7531329965632838,2.0306465257771733,1.7032284717073107,0.7275228014198027,0.05608246322134125,1.2513562035377586,5.434307367543941,2.910308168375982,0.7333142482113448,0.35190839196671675,2.402159595623018,2.2799078811128286,77593.13079198473,39220.96544936809
144,127181.609375,54027.0,[0],1,0.39640690911352583,0.20277553488596212,0.6506646562348468,0.8477682560717974,0.2887705459069827,0.25111223296743734,0.15826025686015477,2.279928513026399,0.7554041014479372,0.39911466284213937,0.23682311695159441,0.8705148826901354,0.5887609636613241,0.8654052807366897,69547.37211981541,15039.176005080108
144,139629.265625,70670.0,[1],1,0.637897887321802,2.363109422511849,2.248690296299628,1.39550484538715,3.279995835291493,1.3668662253508728,0.035324384408165876,1.2125509172511424,3.858449809254308,0.7190347673777221,0.29233162687868974,0.17791236029114332,2.5188748289817036,2.189108985811756,69959.31191269543,24364.78619128947
144,77289.625,27637.0,[2],1,0.6822421251688187,0.8638414193063682,1.828302359423804,1.4180008489797897,1.1708986416148464,0.4983192089625863,0.40089015558320895,0.9725410039217812,2.927615950152572,0.7775058872063122,0.5011135275907987,0.3273173952966363,1.1695733763892715,1.188526439053514,64747.931174461904,24426.64370541292
144,154094.609375,75977.0,[3],1,0.23101006896482468,2.290851844487274,2.1898850845242603,1.385119109226311,3.286951218660439,-0.5392829600009305,1.1921256572794436,0.9777109750569277,3.873405959323416,0.5511919707053959,0.06899504807385748,0.21078844611219272,2.44135458153122,2.1466265255607917,67682.80822607459,21025.269080733702
144,90776.203125,54547.0,[4],1,0.3649099782726175,0.06900475389942251,0.04425809804539549,1.8815074437210533,0.35952912996215813,0.270677228860573,0.2133245180487826,3.9388730015230076,1.0380862824477313,0.4943725357020802,0.24076739210130738,1.8493316465030594,0.8232239176847421,2.171586186029261,72575.77237426392,14277.860665920307
144,70985.609375,39487.0,[5],1,2.0256129673756806,0.36665628225283786,1.809376673033182,2.3745381354649786,1.809879970642807,0.7320790058559452,0.27260805114130404,1.2757200162616762,5.368583967712867,3.0515099698338894,0.7638286362253104,0.41698478177421117,2.3314601970751285,2.4391560284771976,77435.33132133554,39059.331918287455
168,116448.8046875,52858.0,[0],1,0.3478189891850598,0.20801263796860914,0.6840728638087841,0.9975837720179106,0.3443287378764679,0.2598402896918872,0.1840767480208485,2.1733845282526616,0.8349843522073576,0.4001077832335317,0.23543482627517154,0.7881188244825512,0.6176241173605713,0.8678789244601564,69023.73391096665,15773.799970976977
168,112866.6328125,43052.0,[1],1,0.6359650250972455,2.32564364242599,2.2557710268290534,1.4587715522911648,3.2991866359210538,1.3908501558247315,0.044494551353560396,1.186202839565238,3.7463869432252435,0.7546007121642738,0.28837494316934054,0.16558138676448242,2.4669359781340963,2.104456102616058,70333.74285372294,25227.85133698576
168,152043.8125,113399.0,[2],1,0.5232510448838521,0.82422459484716,1.6203167233276523,1.6507462211898236,1.4179152343059394,0.49810904297406844,0.36446729750094464,0.8927134395364944,3.30749724356357,0.8232053684640138,0.4405590992330808,0.2821019316667559,1.2584547140486615,1.1871627141717485,64861.185745391405,26480.717891758453
168,134951.3046875,57904.0,[3],1,0.22683877124641416,2.193866893593283,2.19238471751034,1.4948765784605036,3.2611635908018024,-0.5541208611219524,1.2159322110606627,0.9369445848509526,3.765232887129288,0.6006527479667375,0.07045849446874497,0.21761937409362597,2.358063941407298,2.048728939207952,68866.1737433417,22379.272049229043
168,90400.1015625,45012.0,[4],1,0.26934257852765353,0.06790172890501767,0.04547870077563898,2.2138230415244036,0.36866086510264484,0.32375256081926085,0.3114430212946977,3.9918995807369004,1.2670009245087925,0.5247231225327865,0.25373987210373095,1.7890085243257468,0.8271944401174719,2.176893027926125,73213.6626962095,15142.654115865138
168,83267.8046875,47775.0,[5],1,1.8848322762986391,0.35925068728198717,1.9892963411458013,2.678796513997263,1.9843860877678376,0.7810795413755838,0.44850382510452436,1.1861663756812728,5.188506453735461,2.9975765957085057,0.7939596240152964,0.42238577374733566,2.3332071536483516,2.4077022930469436,79131.81037051123,42231.06095083485
