time_in_hour,cumulative_size,size,pcore_ids,pcore_power,AF700 CD48_[R 730_B-A],APCCy7 Ly6G_[R 780_A-A],BV421 CD117_[V 440_F-A],BV510 SCA-1_[V 525_E-A],BV605 CD11b_[V 610_D-A],BV650 CD150_[V 660_C-A],BV711 CD11c_[V 715_B-A],BV785 B220_[V 780_A-A],FITC Ly6C_[B 525_B-A],PE CD115_[YG 582_D-A],PECF594 CD135_[YG 610_C-A],PECy5 CD3-CD19-NK11_[YG 670_B-A],PECy7 CD16-32_[YG 780_A-A],PerCPCy5-5 CD45_[B 695_A-A],_FSC-A,_SSC-A
-1,0,0,[],0,0.0,0.0,0.0,0.0,0.0,0.0,0.0,0.0,0.0,0.0,0.0,0.0,0.0,0.0,0.0,0.0
0,152693,152693,"[0,4,5,6,7,8,9,15,16,18]",10,0.2945790526612273,NA,NA,0.6839963541485257,NA,NA,NA,NA,NA,NA,0.12159901180800947,0.12831496588579483,2.1246089327408573,NA,NA,19383.009830182105
0,125774,125774,"[2,3,13,14]",4,0.27152765096125253,0.12539852026651443,NA,0.5300164855216565,0.2791911684926984,NA,0.008212399899841127,NA,NA,0.3572996546344972,0.166350293128938,NA,0.6097446437658024,NA,70161.17518724027,13434.907437149086
0,28840,28840,[10],1,1.990855541955608,0.26204184601248626,NA,NA,NA,NA,NA,NA,NA,3.319274174410505,0.42378519129681447,0.17560065260055724,2.431579203259352,NA,NA,26495.225520110896
0,17324,17324,[12],1,1.2540424085661515,0.5666468642346016,2.7395357232163513,2.2085384500115066,NA,NA,NA,NA,NA,3.210323285095827,1.4133312099399693,0.5177689603440419,2.3753054428538443,NA,NA,NA
24,142800.875,134940.0,"[2,3,13,14]",4,0.24344253050445697,0.1129554827377568,NA,0.6016854815744241,0.22553081993106927,NA,-0.009091436147965037,NA,NA,0.3160256123544457,0.1494774013569482,NA,0.5322957866999226,NA,73035.23004323323,14458.18020372773
24,117109.1875,110187.0,"[5,7,8,9,15,18,19]",7,0.24501868351597178,NA,NA,0.7260582138831961,NA,NA,NA,NA,NA,NA,0.09637368550396452,0.13566875876412454,NA,NA,NA,21290.584805739483
24,19383.5,18057.0,[6],1,0.6171817779071074,NA,NA,0.7118936717311235,NA,NA,NA,1.0701541914966373,NA,NA,0.14467926834034728,0.07137940083382666,2.251448381161825,NA,67110.19640415825,20936.37495808286
24,25519.5,23717.0,[10],1,2.0125465740071258,0.3774386336502573,NA,NA,NA,NA,NA,1.0392300301093007,NA,NA,0.3820292925532538,0.21609170423842983,2.4898464197525563,NA,NA,34873.74454828648
24,21166.75,20084.0,[12],1,1.3122490994070863,0.5846243034122112,2.9201956168666476,2.286827306258607,NA,NA,NA,1.1146470811443638,NA,3.3456234510700784,1.4179846919136052,0.5260911633960137,2.359477205345642,NA,NA,NA
48,138600.0546875,129675.0,"[2,3,13,14]",4,0.2304105353350554,0.13690338404604807,NA,NA,0.23485824196098148,NA,NA,NA,NA,0.3044093013313868,0.1414018577975602,NA,0.5497526441531383,NA,NA,15336.066798765123
48,123005.32421875,115686.0,"[5,7,8,9,15,18,19]",7,NA,NA,NA,NA,NA,NA,NA,NA,NA,NA,0.11212900440660212,0.10429983080191374,NA,NA,NA,20049.110334559624
48,29808.96875,28214.0,[10],1,NA,0.3148713843619473,NA,NA,NA,NA,NA,NA,NA,NA,NA,0.17915558952016974,NA,NA,NA,31467.76114990564
72,145579.50341796875,136917.0,"[2,3,13,14]",4,0.22683537332908,0.20333143226381267,NA,0.7050476339931246,0.29361796436412835,NA,-0.03228687912151473,NA,NA,0.3109691413513711,0.15939236463018425,NA,0.6151437585200697,NA,70360.60652358487,17016.527085891474
72,148285.83276367188,140598.0,"[5,7,8,9,15,18,19]",7,0.26721114685889336,NA,NA,0.9166218521044844,NA,NA,NA,NA,NA,0.49968581033254156,0.25004586728745304,0.14902114932788146,1.6127153756985706,NA,NA,23012.42264155461
72,23588.060546875,21725.0,[10],1,1.9232777193280721,0.4258800025793401,NA,1.7400394859107138,NA,NA,NA,NA,NA,NA,0.45954122998358127,0.20815484884099866,2.3975424206471083,NA,NA,34498.94656153409
72,16450.9951171875,15615.0,[12],1,1.3855239976867455,0.7644715258987946,2.5046534252016293,2.41801234679126,NA,NA,NA,1.1662971889874396,NA,2.843676939936025,1.506949074736125,0.48558193780161396,2.4452054415278393,NA,NA,NA
96,123046.71485900879,114956.0,"[0,5,6,7,8,9,15,18]",8,NA,NA,NA,1.033487315788821,NA,NA,NA,NA,NA,NA,0.1407723940217176,0.13776772525471148,2.396492392116504,NA,NA,19723.559952417796
96,115331.71896362305,106233.0,"[2,3,13,14]",4,0.4069624170063195,0.1758533214530238,NA,NA,0.30237681628086754,NA,0.12883876433288988,NA,NA,0.4239450641409107,0.22841885968963505,NA,0.6793522356214418,NA,71866.62946975118,14789.039104059355
96,25591.253784179688,24117.0,[10],1,2.229820398210583,0.374231047184153,NA,1.8361164301287203,NA,NA,NA,NA,NA,NA,0.5877772417148628,0.2523759977946832,2.496985753737219,NA,NA,30107.755447091986
120,181749.84439182281,174055.0,"[0,4,5,6,7,9,15,18]",8,NA,NA,NA,1.1699441916298579,NA,NA,NA,NA,NA,0.46557341138006636,NA,0.11967212657750592,2.574216524956965,NA,66151.08714489061,19575.290185846454
120,91633.83429813385,85691.0,"[2,3,13]",3,0.35663237039387785,0.22685160404725835,NA,0.7060467687547374,0.32179941913213295,NA,0.11822211116560144,NA,NA,0.40002227310627625,0.2599430018774571,NA,0.5928493548859773,NA,69942.62928066027,14838.984649883094
120,29296.45336151123,27697.0,[10],1,2.2613068175863154,0.39839029808073656,NA,2.1423094516877446,NA,NA,NA,NA,NA,NA,0.6202523990140416,0.27430241568405045,2.549694996650887,NA,NA,29159.720738747772
120,31619.555975914,29176.0,"[3,14]",2,NA,0.12861938284008723,NA,NA,0.3193848380894968,NA,NA,NA,NA,0.522501357689466,0.28251541522415335,NA,0.7955799510807994,NA,73256.16839632737,14752.560866917149
144,150878.8605415225,138736.0,"[0,4,5,6,7,8,9,15,18]",9,NA,NA,2.2436323824041122,NA,NA,NA,NA,NA,NA,NA,0.06324568570549083,0.15671108566963066,2.5528150464851795,NA,65640.05188142284,18444.63787262274
144,85641.11464363337,79914.0,"[2,3,13]",3,0.4639105809656858,0.15330542884807885,NA,NA,0.27743063447377114,NA,NA,NA,NA,0.42962175819627224,0.24068168942376156,NA,0.7020608763445894,NA,70530.45595567243,14622.91353278288
144,30535.028335094452,28704.0,[10],1,2.2239099160519054,0.32122067428834544,NA,2.388734699936393,NA,NA,NA,NA,NA,NA,0.6157242955591626,0.32912195470117656,2.4368587088290363,NA,NA,31876.802216600237
144,15295.707762479782,14437.0,[12],1,1.6803405533097437,0.6538289342930934,2.5798920613044243,2.8926753324551906,NA,NA,NA,NA,NA,3.1474698911129173,1.47164423578171,0.6560414119295406,2.6303123633009453,NA,NA,NA
144,44956.222248494625,42980.0,"[3,14]",2,NA,0.036739320996037605,NA,NA,0.31498915359460344,NA,NA,NA,NA,0.5602353486180217,0.25975845718442825,NA,0.8823917844011174,NA,72443.03446634367,14576.401357420806
168,138315.6492151022,130113.0,"[0,5,6,7,9,18]",6,0.2589252233491013,NA,NA,NA,NA,NA,NA,NA,NA,NA,0.10925262524855883,0.1362580059945665,NA,NA,NA,21360.07282727092
168,82965.56966522709,77613.0,"[2,3,13]",3,0.270992220155605,0.19879664098635885,NA,NA,0.4032000544595702,NA,NA,NA,NA,0.42498874159145783,0.23176271542969928,NA,0.7037566712608997,NA,68869.39845141296,16440.766463687665
168,119380.49289713055,115560.0,"[5,7,8,19,6]",5,0.400310123883751,NA,NA,NA,NA,NA,NA,NA,NA,NA,0.2559012111574037,0.14270887527297138,NA,NA,NA,23335.092040092735
168,34223.545897271484,31943.0,"[10,15]",2,NA,0.33714228556832504,NA,NA,NA,NA,NA,NA,NA,NA,0.6089981917685567,0.32880435266430874,NA,NA,NA,37929.78067404249
168,17439.981735154986,16484.0,[12],1,NA,0.6195666422814408,2.6574499689329305,2.971074384562677,NA,NA,NA,NA,NA,NA,1.5187042913389783,0.6061202091744045,NA,NA,NA,NA
168,38055.763890530914,35246.0,"[3,14]",2,0.13588221188250316,0.07006197032772654,NA,NA,0.3709353314069692,NA,NA,NA,NA,0.5818454729864299,0.2590852466033384,NA,0.8814067661497577,NA,74068.08993434448,15819.92971996989
