time_in_hour,cumulative_size,size,pcore_ids,pcore_power,AF700 CD48_[R 730_B-A],APCCy7 Ly6G_[R 780_A-A],BV421 CD117_[V 440_F-A],BV510 SCA-1_[V 525_E-A],BV605 CD11b_[V 610_D-A],BV650 CD150_[V 660_C-A],BV711 CD11c_[V 715_B-A],BV785 B220_[V 780_A-A],FITC Ly6C_[B 525_B-A],PE CD115_[YG 582_D-A],PECF594 CD135_[YG 610_C-A],PECy5 CD3-CD19-NK11_[YG 670_B-A],PECy7 CD16-32_[YG 780_A-A],PerCPCy5-5 CD45_[B 695_A-A],_FSC-A,_SSC-A
-1,0,0,[],0,0.0,0.0,0.0,0.0,0.0,0.0,0.0,0.0,0.0,0.0,0.0,0.0,0.0,0.0,0.0,0.0
0,130552,130552,"[2,3,11,16]",4,0.2945062579661819,0.14099337009007407,0.35576347004258135,0.5444792388933068,0.29843007909490904,0.23176150689380548,-0.003448733110178015,2.512783525369196,0.7926201983041238,0.3664699372893542,0.1730202458483978,0.9894214918882918,0.6143456354479425,1.1078846247472223,69712.01225565278,13652.421839573517
0,155556,155556,"[5,6,7,8,10,13,14,15]",8,0.3174147081886878,1.8057433759482109,1.861046929877324,0.7247619167438137,2.5353681381045896,0.24534785595540853,0.20085388888246536,0.7126435048278372,3.838951255470699,0.6172479914885979,0.1652310158978083,0.17470039090745337,1.9713417960348654,1.5926840663490962,67381.29054488419,20086.270976368593
0,27562,27562,[9],1,1.9318490358101628,0.27832323916987,1.6029752756331033,0.8926361697989962,1.6608955870038589,0.4201493500834579,0.03569825513388514,0.7780565226398739,5.647104715804381,3.1855804243886507,0.45686277167840217,0.20438385411073534,2.39227995591757,1.8445368951454937,74256.59792467908,28325.928161962027
24,88203.0,49006.0,"[1,16]",2,0.4620928353570708,0.25220739372811973,1.5455648423976656,0.717393376461132,0.39683908758205977,0.34372549474507963,0.07497320651225259,0.9378649061143003,1.2007350622427886,0.5209317506207268,0.3133343761210061,0.3414317311202526,0.5542745706381859,0.6192273742162888,70281.45020010714,19519.453624026337
24,210979.0,107520.0,"[2,3,11]",3,0.2835475700188217,0.10841007531554858,0.25097438281533035,0.6042748440034074,0.245492524066385,0.25197563176906024,-0.027484974604107038,2.938652148578756,0.7212155275643549,0.34236880039718987,0.15398820106264788,1.1563990045644457,0.6063895118139696,1.2799807813858148,71421.18402305443,14398.043103816017
24,285804.0,134764.0,"[4,5,6,8,10,13,14,15]",8,0.3874734705567504,1.7408999380274626,2.0686263233789473,0.792855657524044,2.683172015426648,0.355796388164616,0.15488285221341158,0.7693168353067104,4.0552947232159084,0.6476941266252386,0.1456925640123874,0.17664383785041715,2.027482256994294,1.6687466792277188,69091.20689703443,23131.908580705673
24,117192.0,56443.0,"[5,7]",2,0.2373553225817484,1.5495172078896058,1.7128709270427653,0.7378159429312703,2.177226370016722,-0.21936386907809324,0.4683465839733221,0.6867012419106966,3.6762477958819484,0.5833201660437625,0.12582130152225224,0.19298073589494213,1.6766748051146627,1.3692623735920566,64895.3610485357,20090.103078708544
24,50639.0,23077.0,[9],1,1.948401409842205,0.32858512871500833,1.7959212440806396,0.9661345486680024,1.6636009228658186,0.47006604194395263,0.05600762840895124,0.9212516743814088,5.733731315428834,3.155416420683648,0.44455208850884054,0.22535836637769613,2.402816836114445,1.8438881621082246,74748.28049527065,32732.918106597685
24,31324.0,16937.0,[12],1,1.2778157094240739,0.5326799250095777,2.7402244541246303,2.1073488123802657,2.033466940014049,1.5575698668113864,-0.6242092268867268,1.0301596695824302,4.469447647107647,3.1548902279083104,1.2705749371408306,0.5042879735346697,2.264860235825581,2.412670688002807,111380.95262418572,88071.22053377645
48,143872.0,55669.0,"[1,16]",2,0.44961130453456466,0.26029561027163695,1.487884922528381,0.7226458464120862,0.4143824420596185,0.3406901986905153,0.08799844802322809,0.8415783369244982,1.237829856365403,0.508601383729988,0.302862898687732,0.30412832715191007,0.5395788712397239,0.6194010054631831,67883.97553380817,19829.180160142278
48,311550.0,100571.0,"[2,3,11]",3,0.2792313250553824,0.11215181780452221,0.23808198326108476,0.6057105615374732,0.233342602901625,0.25721298905795464,-0.017742429317945785,2.9757667106692027,0.7331271992649645,0.32495418490130334,0.14985592286949911,1.1217336125084314,0.6095635137794969,1.2341984369121974,70869.82984432657,14717.25285828905
48,296720.0,83373.0,"[4,6,8,10,13,14,15]",7,0.4765758315516353,1.6696789205816827,2.144115704256531,0.7957153645726573,2.7152319894344843,0.676660131025888,-0.03240281455917504,0.8080897965186122,4.144414393755057,0.5971132369068485,0.1695649091230811,0.15882136681383152,2.0692916314977143,1.6340455952817416,69211.96656780824,23982.389862496584
48,179410.0,62218.0,"[5,7]",2,0.17581332500976132,1.527265979326641,1.6459565475446962,0.69499287658437,2.119162386717569,-0.23141731430799817,0.4811325612619388,0.6402341289058571,3.670152707792172,0.490259053152006,0.10926474143582432,0.16860581322669377,1.6044349342232729,1.2579680991639322,63183.521810378494,19417.359567471307
48,80837.0,30198.0,[9],1,1.9738420701411339,0.32344210147579533,1.7551104354936542,0.9348459472766057,1.6945117753751613,0.46967393079904274,0.0673454753763818,0.878311680183546,5.755821606145694,3.117526049271995,0.4155194581194084,0.20920143332880015,2.4471745598302688,1.8137448330343429,73262.59331741653,32083.14133379567
48,43702.0,12378.0,[12],1,1.2552968490687022,0.5488978733009939,2.701887834332515,2.1053001076609505,2.0317743094595433,1.5025148341952057,-0.5520333663905497,1.0267669866596547,4.381076366871106,3.123804107638069,1.2588413096196804,0.4889079624959889,2.267163782916116,2.394224220676394,110203.82188458183,87536.87355269771
72,183921.0,40049.0,"[1,16]",2,0.4211214940436241,0.2923474797603358,1.387378951403066,0.7371028470375847,0.4386153893519924,0.3372632434795493,0.07723064149280168,0.9746796155523256,1.289094662703007,0.4849278514579636,0.29328654896941186,0.3206638808945168,0.5563403132595114,0.6200262928539944,67659.96826898528,20149.74794612886
72,422426.0,110876.0,"[2,3,11]",3,0.27636904130664774,0.13830203219261827,0.24861189445251552,0.6504928415296352,0.2586753054262818,0.252441840090329,-0.02215102467889274,2.9034741407654723,0.7282526282212806,0.32802450767234015,0.15480138313690484,1.0545880501626457,0.625118262069576,1.2236866433978877,70937.53524641067,15413.482011050262
72,380034.0,83314.0,"[4,6,8,10,13,14,15]",7,0.5174324324218389,1.6170707684759722,2.049900659404155,0.8877102768252172,2.631295893738462,0.6957224221859122,-0.052879130225193194,0.8329187090260377,4.0703228786424335,0.6643155936626707,0.2287868780398652,0.16975083158612037,2.0324826418925697,1.6343942131572393,70593.58267944463,25920.117884189338
72,281566.0,102156.0,"[5,7]",2,0.23067466883076526,1.487462686162388,1.562516080830037,0.8024115271233145,2.0992727982568637,-0.14427251301647925,0.41194594589900024,0.6892985806915672,3.5637679587982842,0.527715488088056,0.16166781777985673,0.17795536633684716,1.59610325506983,1.2821334020052095,65251.666579060766,21196.60879509599
72,95039.0,14202.0,[9],1,1.9395489530403174,0.35445684407452305,1.6853656362545775,1.0697071605446231,1.6845574917139694,0.4736433207735866,0.05926942495186083,0.8876174889781718,5.676745222392936,3.065242710203163,0.4363308030913742,0.214282715937667,2.421338904512876,1.832350694599046,74353.30556929257,33383.14990688083
72,53105.0,9403.0,[12],1,1.281235681498939,0.5730278116749892,2.6178487325863498,2.1361429685152085,1.9979288294322815,1.5120306412390236,-0.5667085841822908,1.0440005455795447,4.415579007795901,3.0505736595047606,1.2591478112230128,0.48415841312493746,2.2645030624611624,2.3800154353074103,110278.01254119149,86613.99175218855
96,208100.0,24179.0,"[1,16]",2,0.44136400694856914,0.30763110725131426,1.4562291712398014,0.7796755695627091,0.4511540343777347,0.34597834667950833,0.09275785824120897,1.0037900138202716,1.3104344279913378,0.5057937993993239,0.31636479196062206,0.33458625430562683,0.5749769723018011,0.6335133512445914,67981.18289284012,20520.622931282815
96,517701.0,95275.0,"[2,3,11]",3,0.31142834475497794,0.1421485236883817,0.2547297291950126,0.7058235426337132,0.26850662137026093,0.24902389641896372,0.010608658938251914,2.945803603918076,0.7253962198257423,0.3495359214797542,0.1676616039760228,1.1092276152393035,0.6417219314952175,1.2580420260864797,71111.18697472135,15207.51414426434
96,474541.0,94507.0,"[4,6,8,10,13,14,15]",7,0.5339497697037805,1.7177720822858311,2.0679001566503366,0.9646395194408814,2.7269257865136978,0.7041725430637156,0.04336981505075155,0.901116022803091,4.053598631129869,0.6818975131126687,0.2362171732600573,0.17237400345597076,2.1091956598207537,1.7279099468918424,70577.34223175672,25468.74579014252
96,334044.0,52478.0,"[5,7]",2,0.24630246455257776,1.5528197202613798,1.5924373051932945,0.855861989636097,2.1590564851307046,-0.1737984636395069,0.48311102469733225,0.7356299152117676,3.571006841029933,0.5411826489923569,0.16458559092815062,0.1843249641454433,1.6529134635706244,1.3440593798152438,65287.262276825306,20978.08930560031
96,115957.0,20918.0,[9],1,1.9895903382288125,0.3569883489655763,1.665790577636542,1.221103777089787,1.6692383663944703,0.47388250927500275,0.10030994459153586,0.944954787619491,5.6675320309080295,3.0414974764869553,0.4778226406340216,0.22975588028320493,2.4270350288554985,1.8986571648455695,74470.02568193318,33336.79898583099
96,61886.0,8781.0,[12],1,1.3202854791552363,0.5744682429628805,2.5910793086481383,2.1755346110429064,1.9955060927835109,1.5232564940535476,-0.5497722290501925,1.075024477232334,4.432010760398191,3.024450804689288,1.281495309472204,0.5089339748893058,2.278878816565941,2.437194566444742,110338.67640500188,85790.85104870296
120,249336.0,41236.0,"[1,16]",2,0.4553390978919851,0.32949381059293037,1.504505099379935,0.8192996113236544,0.46851176598249245,0.35156076119776203,0.11944476357604072,1.013974407149378,1.3175377005646838,0.5171946725663404,0.34155670889884915,0.34332272304039624,0.5921802042785823,0.6519109658533047,67752.15785927461,20486.234799627568
120,592163.0,74462.0,"[2,3,11]",3,0.3154257929370834,0.14337917520008103,0.2621673991485114,0.7428757185758053,0.275393121620247,0.2469425421615048,0.02775415470397702,2.9762921479744158,0.720824577487963,0.35777795703038817,0.17665933718416227,1.1387122388075845,0.6432213292218555,1.289391582415651,71085.1182799333,15040.864194486434
120,616543.0,142002.0,"[4,6,8,10,13,14,15]",7,0.5340364315838406,1.847128293246378,2.1227469302173803,1.0429125477346917,2.868260211657575,0.7165076251826659,0.12018886335096468,0.9704766238332043,4.050569481908,0.663849774297976,0.23726171063495594,0.168518010360997,2.2078752395469605,1.8403503262027223,69930.59632174899,24626.68591809475
120,399168.0,65124.0,"[5,7]",2,0.23975430828373412,1.6484302807288542,1.644574036525929,0.9159341886774452,2.2507608622333684,-0.22676391433431187,0.5725064436653251,0.7754190481275804,3.5821507480108443,0.5329905706093848,0.16473788900413844,0.18600350694193857,1.7237651266333716,1.423953553288375,65020.12025012022,20550.716530382942
120,139561.0,23604.0,[9],1,2.0300200027156325,0.3601371263820319,1.670324240618799,1.388971973896735,1.6662278532111343,0.4726628302605882,0.14247426647843664,1.0245198672909268,5.657765332220314,3.038752031634907,0.5135515486704709,0.24267496941122246,2.4361945324983405,1.962314840822273,73837.22157336125,32980.21745329995
120,72495.0,10609.0,[12],1,1.3746580617697914,0.5897397670736013,2.596604238650951,2.222177706903946,2.0147778387750974,1.5318668916338891,-0.5319264605834921,1.0935169619835867,4.430680779709001,3.0026182096558474,1.3073060427063607,0.5304953028760553,2.300728176688045,2.4948874975377526,109985.0536450783,84880.07790882146
144,279967.0,30631.0,"[1,16]",2,0.47598484203493885,0.3401872346990853,1.5375178779213488,0.8938996865487634,0.4844737105980754,0.36060697211459747,0.15643303066073866,1.0327468017587655,1.3350008871152466,0.5374365120139329,0.3571073462265315,0.35861960648219593,0.6206143874421123,0.6797862507902721,67704.0248886478,20503.08729243057
144,679957.0,87794.0,"[2,3,11]",3,0.329338396022101,0.13573125561325527,0.26423808387733017,0.8694089433493701,0.2807560416026531,0.24981237754149022,0.058190148316674684,3.0496870337462463,0.7426809338355232,0.3717172092146772,0.18353396080484297,1.2046299618182121,0.661136237762091,1.3486286673819088,71095.04743388238,14937.772076763029
144,726449.0,109906.0,"[4,6,8,10,13,14,15]",7,0.5410909111444717,1.902019063080842,2.1151134824702322,1.1370877149724157,2.9126069771642418,0.7303815814035044,0.18005539362569145,1.0215759729726246,4.024901307439345,0.671313005118043,0.22533130933350387,0.18484674670211154,2.2371997141533657,1.9039420378966707,69492.54253498898,23946.941376476174
144,454979.0,55811.0,"[5,7]",2,0.2494881723552167,1.6998760375906854,1.678257734055816,1.0054236887812311,2.314783963589433,-0.2590539231568989,0.6503122373955681,0.8038461511080599,3.590497354372387,0.551172080731212,0.15824308686775046,0.19893812567833558,1.7775122710981854,1.4927921724563469,64994.89370718196,20321.282802062953
144,164599.0,25038.0,[9],1,2.047235378659612,0.34959823492854625,1.6834824174752172,1.533911964604921,1.6679176344327828,0.4669716957879244,0.20311174111626462,1.0524569643921722,5.618391847696516,3.074796211173845,0.5401288487900868,0.2656223617640523,2.4168414625240877,2.0234726457876535,73663.56101798822,33042.851730569135
144,84391.0,11896.0,[12],1,1.3971111421360074,0.5798159790025057,2.5550759970376284,2.312654408538823,2.0570283195720003,1.5339333803959836,-0.4709747964712041,1.1478340865850845,4.476478452417985,2.989674602268029,1.3168051682288264,0.5580553126518148,2.3077820124894917,2.5559690356436184,109606.74688059106,83428.80923321257
168,1387861.0,191030.0,"[0,4,5,6,7,8,10,13,14,15]",10,0.43025191484881886,1.7843102693295814,1.9311785108011477,1.1711247620006509,2.6509185666921353,0.3534616952569347,0.3873081126222231,0.9387613998555917,3.833983503440193,0.6455267857948365,0.20709274523603538,0.1953321497131264,2.0320852061286985,1.729122103133543,67616.8651702154,22739.009304245454
168,329050.0,49083.0,"[1,16]",2,0.47065526545811864,0.3650059347545991,1.5389312391308834,0.9868327991946426,0.5549251091718914,0.3691175649810332,0.1822529031302098,0.9882311863546502,1.390872093988739,0.547351795502211,0.35908882758245264,0.3522909067710125,0.6570075023461767,0.7100946115939806,67181.10944841252,20685.226537000013
168,752408.0,72451.0,"[2,3,11]",3,0.3163318679360059,0.13111873971305643,0.25671755515088535,0.9725491249880296,0.2855325115814997,0.2567829244040163,0.0858772783316506,3.112210801732541,0.7809348790509875,0.38149607802147656,0.18781577759936852,1.2270490641274687,0.6719609129036385,1.3818840091865079,71201.70613815941,15002.283271841123
168,190956.0,26357.0,[9],1,2.0251419556703967,0.34177205863134796,1.7185274802624533,1.6744298422725863,1.7026786703690528,0.4611135028226263,0.2567575357202232,1.0379072908837093,5.564535080756818,3.0737436753649754,0.5518523353547269,0.27465893203671454,2.4111350070330575,2.048707857040395,73364.59900709991,33606.373321602594
168,105470.0,21079.0,[12],1,1.422505960974678,0.5683912070920947,2.5287009209159392,2.4708470552099953,2.1002658240827183,1.5437174492177588,-0.33195588400494325,1.20619831376696,4.540735418450803,3.0060308932018835,1.321712592699377,0.5689365378780584,2.29510739429222,2.573249306143922,109261.26784867683,81989.29014885754
