time_in_hour,cumulative_size,size,pcore_ids,pcore_power,AF700 CD48_[R 730_B-A],APCCy7 Ly6G_[R 780_A-A],BV421 CD117_[V 440_F-A],BV510 SCA-1_[V 525_E-A],BV605 CD11b_[V 610_D-A],BV650 CD150_[V 660_C-A],BV711 CD11c_[V 715_B-A],BV785 B220_[V 780_A-A],FITC Ly6C_[B 525_B-A],PE CD115_[YG 582_D-A],PECF594 CD135_[YG 610_C-A],PECy5 CD3-CD19-NK11_[YG 670_B-A],PECy7 CD16-32_[YG 780_A-A],PerCPCy5-5 CD45_[B 695_A-A],_FSC-A,_SSC-A
-1,0,0,[],0,0.0,0.0,0.0,0.0,0.0,0.0,0.0,0.0,0.0,0.0,0.0,0.0,0.0,0.0,0.0,0.0
0,173460,173460,"[0,3,4,5,7,9,10,12,13,16]",10,0.35577845068603975,1.7679603161420547,1.95887576930128,0.7352204730831362,2.608786974092005,0.3312316074195738,0.15874008244552407,0.7252288710826664,3.938991263271069,0.6250708541508151,0.16928472159575758,0.16536344880664022,2.017785301302896,1.6050700638475752,67900.90736769277,20713.688181713336
0,133971,133971,"[2,6,8,15,17,18]",6,0.30916730869367504,0.14974573947346892,0.3932881298116575,0.5596054961894712,0.312814640362459,0.23512508406297017,0.003405923737228811,2.4705633845309647,0.8254485843354195,0.37985380353956844,0.18178252481506973,0.9788565619201153,0.6219972475535746,1.1220496994274831,69695.2347000469,13898.78824521718
0,27136,27136,[11],1,1.9321812450619011,0.27778458262087113,1.614855494619683,0.9002787007665072,1.6549752266730695,0.4437636596034862,0.03247701252947399,0.7880043996167503,5.644369845445143,3.196893068838439,0.4641088497567809,0.20756551087116903,2.3901328275353775,1.8489593187278872,74440.29716981133,28584.047169811223
24,157364.1875,148991.0,"[2,6,8,15,17,18]",6,0.2946880821315383,0.13874342154841646,0.4765098873302196,0.6496969172393436,0.2685637161218666,0.27307813416450943,-0.00015751302967803582,2.3888955500584244,0.8404243738318787,0.34985231373323966,0.17026989852757612,0.9381054754059732,0.5480506329767719,1.11177014034165,72601.6857170886,15352.376461130938
24,159116.5,149206.0,"[3,4,5,7,9,10,12,13,16]",9,0.41113790923945626,1.537647367345234,2.0217057572969366,0.8234463594390764,2.4787941588949685,0.33908990210749956,0.17707368513400734,0.803428137211577,4.057343119933746,0.6503698589740051,0.13973972160806758,0.17673350210733962,1.8550744927447065,1.5303088386076364,67904.1014853897,24203.163769942097
24,24889.0,23193.0,[11],1,1.9654811224486737,0.3849253079723933,2.0334137876119915,1.0618133453131824,1.6987512880966569,0.5617435235119106,0.06886056805214613,1.0593073206134838,5.808504242110004,3.1359147428884406,0.44021804480645166,0.2453110381870548,2.4242901877737157,1.8577066444840196,75415.6875728232,37845.23540519897
24,17721.5625,16825.0,[14],1,1.296272692436826,0.549281282255031,2.8193261771958276,2.171098347983571,2.023263165726768,1.6010157182281517,-0.6221025393429698,1.0805045306106682,4.572582898615726,3.221737312073925,1.3026180885115202,0.5175752396656623,2.260810898679216,2.4138691548255133,115638.71052566599,94499.41764446559
48,156992.05859375,147336.0,"[2,6,10,15,17,18]",6,0.28394087225754805,0.15775688546733324,0.4434844122520709,0.6096543719020673,0.25668795235355235,0.271031741627463,8.800069384307108e-05,2.2517939359822376,0.974971448144261,0.32474451506541213,0.15993505207151593,0.8253677291107302,0.5483132236356903,0.9998178130486157,68953.30238813112,15921.082040002675
48,121088.65234375,113485.0,"[3,4,5,7,12,13]",6,0.2498842119215623,1.5242313028072272,1.8331039535609768,0.6549365383126338,2.2986642262374377,0.05858923572376673,0.28010980140947694,0.6195827872386159,3.846961326218049,0.4374997456613884,0.11623951567977464,0.11510849916333554,1.7588169071330335,1.1844059231979924,63455.69679136496,21094.826084517394
48,46889.46484375,43548.0,"[4,9,16]",3,0.6461594131671629,1.7012547765485304,2.1992416799578476,0.7138991783546333,2.7855127927077086,1.344331594456983,-0.6172380774527664,0.9281096037076346,4.104183043499143,0.5328006364719252,0.21128165865492265,0.07527973647298802,2.1653522974395507,1.4899570921111607,66617.43532708187,24291.518223668183
48,27470.5625,25915.0,[11],1,2.070775972772285,0.31033168299275893,1.7036167089040366,0.8983366379544933,1.8518596164381207,0.4701812461536874,0.09312725945784495,0.7951995556305893,5.810466771188863,3.176465017497707,0.36543938713757607,0.18045768698183573,2.6075683954494218,1.8503693712191118,71432.02049466575,31693.291646285033
72,159570.72534179688,150115.0,"[2,6,15,17,18]",5,0.26301009717891155,0.27052235440661043,0.38930798132879785,0.7469393600098533,0.39680852741724504,0.251082495650238,-0.014884162688753921,2.375188208893883,0.9186682863550041,0.3456923566817971,0.18049314522741922,0.7406767690474074,0.6576307000021236,1.0316094396655324,69844.95408845534,17819.247707129925
72,174884.6240234375,165211.0,"[3,4,5,7,8,9,12,13,16]",9,0.39005015797130804,1.5051041135569991,1.6001805251286316,1.0208010899046593,2.2503227140444424,0.31987472656559035,0.12768484842540273,0.8208275462207903,3.5198491320162133,0.6080397567500037,0.30385931799140753,0.17777368343636024,1.7196438903319655,1.416691610595713,70416.81119874504,26209.612579856283
72,21249.91015625,19533.0,[11],1,1.8894888518463586,0.44575619928211463,1.1835913822664512,1.7372635709039699,1.6854817160663642,0.4611373823581695,0.011475279697359841,0.8957620632908498,5.44807264566045,2.8828657488463003,0.48124596669236475,0.23020251086161037,2.356950631131626,1.9451188689427406,77273.37524699113,35527.43897556921
96,120599.91242980957,110743.0,"[2,15,17,18]",4,0.426177525552611,0.21119629066104073,0.433406401921955,0.8989138151628882,0.35707005973196804,0.2338947677122427,0.14578802572970062,2.8118007969453176,0.8483214604322155,0.44273632531304186,0.24141748143991926,1.1553669310321872,0.6990091061132832,1.2206728797009245,71346.43724607593,15201.230349083198
96,145712.02862548828,134895.0,"[3,4,5,7,9,12,13,16]",8,0.4532107823037932,2.1245516213008537,2.0458842462146714,1.1439400983218153,2.977592813668229,0.3400256410354694,0.5210054358742333,1.0293655462773668,3.7801983061834545,0.6843152984039461,0.2158506205650883,0.1841598877239381,2.2994468098068337,1.9180758247007328,69136.1286886241,22385.918849143716
96,22646.119384765625,21318.0,[11],1,2.17583584111026,0.38043241695269625,1.540043330067936,1.8667049026246336,1.6766346519535866,0.475106421314178,0.24123083693034975,1.175668091430473,5.616651607863505,2.8643228189619,0.6224227597107319,0.2801488481671127,2.464901595665551,2.1599256092600645,73896.03133142364,32067.45014702404
120,111766.4945268631,104229.0,"[2,15,17,18]",4,0.34029658923573036,0.23509703145995786,0.5966063190553705,0.930832104490023,0.3912295242866928,0.23638518849800016,0.16169372302069807,2.5696932271645494,0.8794780941922008,0.4366739566137131,0.2757612616152523,1.0450673848422385,0.6416082949109657,1.197120488946513,69807.6439212132,14940.918936635728
120,159750.21451091766,152765.0,"[3,4,5,7,12,13,16]",7,0.34467611596667935,2.1282885836424565,2.2465296065988265,1.2488788316815316,3.1266458309275857,-0.007777504743368802,0.8899202981484868,1.0377828663452022,3.8606380325354377,0.5548345265995421,0.19348382387830076,0.17849829073433232,2.3639393845182815,2.0084971811418453,66459.22039134055,21038.558207332175
120,115105.27356624603,110308.0,"[5,9]",2,0.3204714969413456,2.8017671308033565,2.1832100861147903,1.1858278528722273,3.4492773206334637,0.2884140757268505,0.4650098096756712,1.140816460188486,3.853057276345425,0.5265252484492683,0.14652020391908493,0.14255730333030803,2.6411770348180106,2.2949666141004275,67012.9747152039,19438.30955666325
120,34468.86991214752,32463.0,"[11,14]",2,2.0692512595436163,0.47251555117501676,2.0270260550845607,2.2380883708148382,1.926449602946708,0.7981464424727511,0.0474775523103661,1.3202470815576133,5.291986911587588,3.044873735389053,0.9001566462156179,0.3721237490604582,2.5495092481396497,2.396422857594563,82308.9086137512,46651.75085834992
144,111961.40590792894,104976.0,"[2,15,17,18]",4,0.3934101747625205,0.1348207013040721,0.4371321895250566,1.5353951304913083,0.35260297441934485,0.2487364111985353,0.2627924775815882,3.1118133871693985,0.9539478741174018,0.4719864403705766,0.25015565119018346,1.4086617583112317,0.7619236261734587,1.4900801947430249,70367.42999408788,14551.405693758586
144,139690.96712976694,129738.0,"[5,7,9,13]",4,0.35099422463088104,2.5806088160506775,2.1747971540465296,1.4131889456640603,3.3858202893152147,0.318724583175529,0.7274599180024302,1.0989784320323546,3.7122523512931838,0.6092096549470035,0.08210460379899631,0.2019023411064823,2.554638954649737,2.188252852399037,66750.21599236794,19172.18659618752
144,40142.30436950922,37988.0,"[11,14]",2,2.0015669887420806,0.3941654070207252,2.0115300406598133,2.5096989448397617,2.097153770704089,0.7559613387460886,0.3786299358773344,1.2160939602089953,5.277260702101729,3.296381716099529,0.868642579987783,0.44842299876216596,2.434401025881275,2.534042756289111,82493.84816063137,46288.84693851248
168,105461.58786924556,98464.0,"[2,15,17,18]",4,0.23217592424184996,0.21190881218929736,0.5145703716879422,1.6437751849569793,0.5083787950066738,0.31812778532444774,0.2869753037549372,2.701106166736203,1.220898532283186,0.47145216249000566,0.24531527409076226,1.0571050017760926,0.7705916822109767,1.3282118737924418,69257.85380334313,16475.00356354659
168,160713.17213502154,153548.0,"[3,4,5,7,12,13]",6,0.3636360355020207,1.4694806451287747,1.7984118954804784,1.647016923665996,2.414509694044377,0.08008972193484332,0.7153097584697514,0.9010691074862884,3.6315428498334783,0.8247429012013555,0.2323919995809649,0.2224642080557303,1.840479030626108,1.544655254457881,66031.07108634326,24679.84726342161
168,76570.66961527988,69927.0,"[5,9,16]",3,0.4097244936950113,2.2288102401960197,2.199124898800831,1.5748907610374112,3.3008882510344635,0.24119326190141588,0.6890014915418607,1.016484268112964,3.538228502580092,0.7331077002427032,0.12479893367103845,0.19608941600929486,2.3657776690678873,1.9566121975047455,69174.71859448498,22944.181224921886
168,40165.894023094326,37657.0,"[11,14]",2,1.799242013642868,0.39283864185153616,2.2601436548652303,2.7585247980231213,2.1702566848059788,0.9199342216116364,0.4095534488197541,1.0552176652888652,5.008015076675659,3.175631373797383,0.9369398554280535,0.4357169572859477,2.3916541942628,2.4085898670870973,87853.29923350769,54171.524980096496
