time_in_hour,cumulative_size,size,pcore_ids,pcore_power,AF700 CD48_[R 730_B-A],APCCy7 Ly6G_[R 780_A-A],BV421 CD117_[V 440_F-A],BV510 SCA-1_[V 525_E-A],BV605 CD11b_[V 610_D-A],BV650 CD150_[V 660_C-A],BV711 CD11c_[V 715_B-A],BV785 B220_[V 780_A-A],FITC Ly6C_[B 525_B-A],PE CD115_[YG 582_D-A],PECF594 CD135_[YG 610_C-A],PECy5 CD3-CD19-NK11_[YG 670_B-A],PECy7 CD16-32_[YG 780_A-A],PerCPCy5-5 CD45_[B 695_A-A],_FSC-A,_SSC-A
-1,0,0,[],0,0.0,0.0,0.0,0.0,0.0,0.0,0.0,0.0,0.0,0.0,0.0,0.0,0.0,0.0,0.0,0.0
0,144029,144029,"[0,4,5,6,7,8,9,17,20,22]",10,0.27835858219525433,2.014695580688617,1.9854948650896653,0.653727745294352,2.7690584420151425,0.3906501227947152,0.0871167209103696,0.6270056289775026,3.901938712717581,0.5377756065167439,0.13065256778148981,0.11837654349471172,2.1054810362357594,1.5940857766213747,66753.13710433312,18627.743690506737
0,55508,55508,"[1,3,15,21]",4,0.4843302662499147,0.238235727444692,1.4791107672587738,0.6255938741983278,0.35135110776825007,0.4740753131620643,-0.02584279022843816,1.369246504197589,1.0513887069431433,0.5400052909670684,0.31166748066946326,0.49470610497586054,0.5881443882323273,0.7501069886142515,67817.41990343723,17521.765223030936
0,85376,85376,"[2,16]",2,0.22610337375844236,0.10121944555847806,0.039548585750081244,0.5463441925482533,0.28271201327070195,0.10993031389383456,0.039922855568324866,3.1439305979197796,0.6607305882098008,0.3205331297085816,0.14308906187920023,1.2324320316013893,0.6481183380575309,1.2606746772863469,70147.51274362794,13149.701649175295
0,11443,11443,[13],1,1.3635213305951337,0.6070524174604648,2.858220294415806,2.3119841448046556,2.20088069553441,1.7610361683998998,-0.9006058198025078,1.0879080755046653,4.283761692388343,3.3186028887529466,1.5160549653936748,0.5198012989600587,2.4523734664860455,2.4971776661714427,124572.09892510682,110111.57214017243
0,27431,27431,[23],1,2.011772748131671,0.2667471738179463,1.5975884952061352,0.8187684805512037,1.6616691401334425,0.3789559494732282,0.022378470526048133,0.7619026109875633,5.750598336662894,3.31778027053332,0.40511905045386865,0.16991416864132125,2.4514722031643035,1.7872068996026387,71810.28179796578,25643.60380591293
24,157200.125,137863.0,"[0,4,5,6,7,8,9,14,17,20,22]",11,0.3329081092850552,1.7533524132017946,2.1457945161414442,0.7192065849836315,2.754935538439448,0.332493585702464,0.15654692433689954,0.6983531027503966,4.06038815828788,0.5589989621111952,0.08396041855723402,0.12174391708021937,2.0044135072125426,1.5217435722856447,66520.46552761967,22031.80360066505
24,80858.125,73077.0,"[1,3,12,15,21]",5,0.4798110203164443,0.25854780221994167,1.409595186963271,0.7204851197699718,0.384229133408053,0.4697075981974612,0.009577829216288247,1.2752436626637755,1.3755117657161775,0.5193851968463298,0.29052460264043356,0.4315552418526326,0.5835715673672249,0.7436289025577161,68996.29611742773,19710.070595873935
24,99154.0,88482.0,"[2,16]",2,0.19835648078495338,0.08915041921656242,0.06925819748194995,0.6258900714633171,0.21779211767175344,0.1577976924166027,0.01950305345853387,3.1463882550073166,0.632285339042045,0.28449755241594077,0.13008672979782743,1.2105719426674668,0.5673652602290408,1.258817971549301,72821.20967384081,14057.819230691692
24,17183.375,15753.0,[13],1,1.3840136806215264,0.5961459516320287,2.9643606631773323,2.3182729274153044,2.1183742639542564,1.7904621124997344,-0.8520848050222998,1.1465972298515346,4.518784549353666,3.413787131049641,1.4828613726421538,0.5229465586358921,2.410991513083144,2.454275613914608,126303.47926411404,112057.14686433841
24,25976.875,22548.0,[23],1,2.044220773813249,0.3686485814257958,1.9513993388927582,0.9457685242643716,1.7008162817458081,0.4652913578038238,0.06580886573633205,1.0297374254312417,5.920990088208325,3.2623412838197563,0.3677884123908326,0.20354139352790246,2.492428444015136,1.7804245034044734,72264.71205639635,33219.698058369206
48,80722.6875,72838.0,"[1,12,15,21]",4,0.391961941149205,0.3660027897768021,1.3243951253990232,0.6853137506507507,0.5146480804668498,0.3363975430226762,0.0779427380861355,0.7935007169992843,1.6829680684348998,0.4684263498803367,0.2776386689752903,0.2122548483084029,0.5788293954971636,0.556765185103244,62978.110806828496,19970.801096036306
48,105015.828125,90399.0,"[2,3,16]",3,0.2383541453392526,0.1081849247559834,0.17152708222183044,0.5656940021237831,0.20232384684318694,0.25795342438156976,-0.025380696421501536,3.173798033870492,0.696958058940966,0.28662866966363365,0.12677313275884927,1.1037876683535812,0.6207353453619294,1.1448750087689117,69990.5402759974,15015.747332135796
48,45430.234375,39371.0,"[4,6,14,22]",4,0.7109832503440174,1.4631366701006234,2.5407228736104766,0.7730481308699684,3.062612867873647,0.9723293766888503,-0.3706543130528117,0.9402870994254666,4.413406626560636,0.46462205571317194,0.14950647398535954,0.07608634548440596,2.336199093405926,1.550949105602857,69232.15603595474,27263.437180979763
48,92353.09375,80524.0,"[5,7,8,9,17,20]",6,0.09570053020083225,1.8194124958559206,1.850016028804189,0.5735534372366375,2.5170521227248046,-0.013014440979913777,0.3852163573156271,0.4352844346284419,3.7947429696374164,0.36532582597090857,0.06568050676936776,0.09560405266015615,1.8773332718242757,1.2467676266225518,62904.000462897304,18996.02216628502
48,31182.109375,27935.0,[23],1,2.077228661353808,0.3157866787460697,1.712454896508698,0.8776821260097729,1.7854807760133822,0.48422783912549816,0.06435242573740618,0.825618853019185,5.843476550460369,3.140688122711079,0.35774110537993975,0.17754941718483253,2.57726793375658,1.794933886844692,71151.53286514957,31131.154513179954
72,77559.3359375,67469.0,"[1,12,15,21]",4,0.38811476681759904,0.6445412108375272,1.2767994198411308,0.8476853090211303,0.8483463441528314,0.40445892154011087,0.05962865318888699,0.8522488034120723,1.9500151138925412,0.47604366833442424,0.29620579342909803,0.2152100328611074,0.7703308813037312,0.6656825497913159,64131.604978647774,21598.28822348215
72,122473.978515625,109347.0,"[2,3,16]",3,0.22237972209340895,0.17482570873006242,0.0943896605490182,0.7047966643239576,0.2582413944172859,0.23425238180882646,-0.04855326739365662,3.018441369710094,0.6697746838243192,0.2983365968549405,0.14335071139086253,0.9470325507674469,0.6568642842054176,1.177312183402202,71471.80872697139,16619.36990448396
72,130842.84375,116388.0,"[5,6,7,8,9,14,17,20]",8,0.2749839747442675,1.663439194600255,1.6855924755361822,0.9138158198052233,2.41858363636925,0.09433236151537128,0.2575192445818124,0.667316436209076,3.55704760787636,0.5075679235188321,0.23135064460977173,0.14208454010079652,1.7908126311552768,1.3987110245594452,68335.54523019152,23342.466929911887
72,13920.240234375,12826.0,[13],1,1.4401617870238252,0.7516128551926,2.5005067198767486,2.4276855680748386,2.07873563629609,1.720834902264891,-0.8231256480105769,1.1963170958413443,4.397825220785045,2.8926360359778838,1.526107200436552,0.4729170872864876,2.464646368841146,2.4390568652298263,126753.51955441428,111464.76666353756
72,24314.763671875,20417.0,[23],1,1.9561115958292443,0.41289189933979653,1.1756801832049857,1.6502681740488794,1.6809465578665144,0.42611289803479657,-0.005217692447098798,0.8660921077128143,5.5669326713797345,3.022997783540619,0.43713542845496844,0.20161716586766665,2.4127355608125107,1.9096830472290474,74921.76903644681,33451.99180635408
96,111728.15698242188,100782.0,"[0,4,6,7,9,17,20,22]",8,0.352500476377156,2.5125389913331704,2.0737178189624985,1.0502681682526367,3.2742313057890544,0.49707153590644926,0.4027409647959801,0.9813666987443037,3.7963789866756135,0.5791890877179094,0.15163269397538448,0.1299499582557524,2.4828265139756955,2.0540590142800466,68564.72758280046,20083.400676556957
96,43953.9169921875,34259.0,"[1,12,15,21]",4,0.567960141417569,0.5142895074432614,1.6928713863717424,1.0327975042480295,0.6724111464841891,0.424880137221912,0.19546785167177605,0.9287817037336423,1.6858812992678245,0.6375160764884563,0.4412974678081163,0.28370512395268066,0.7600270197692781,0.7295089396031254,66285.47283650748,21908.07130275004
96,103393.24731445312,88084.0,"[2,3,16]",3,0.40677088822190366,0.15230233342011257,0.20582336788929378,0.868597986292118,0.2788807533558595,0.21960594902349762,0.11264395342110545,3.343542078552548,0.6734449587491894,0.40497538666968036,0.20414433071426563,1.3745669125885913,0.7087525563740423,1.3667054358420379,72255.65891253501,14527.596599320232
96,32023.71826171875,23661.0,"[5,8,14]",3,0.4030831472851466,1.2747829507343962,2.140805101389676,1.033256396359938,2.572487128680988,-0.2981618724994106,0.779660465590974,0.809074872527793,3.78338251897164,0.5468039338713336,0.18556137441622544,0.17349307307260875,1.8631681507684044,1.3088363097893305,66222.10949278867,22982.489542030307
96,9498.030029296875,7758.0,[13],1,1.6032971068206472,0.678438932132726,2.752640664579968,2.506412013302825,2.234875533415859,1.7669462079649139,-0.6317787154719197,1.2685949990849932,4.522540324179737,3.253813149474273,1.6997731830587774,0.5829300837297888,2.6766458836162608,2.6706994247669833,127827.55988334393,108793.78460752445
96,25966.345458984375,22927.0,[23],1,2.2285868434761857,0.37511884133620343,1.4412117742619652,1.8077833327007662,1.690450002592089,0.41338133237161023,0.1690991311461345,1.1214197439772455,5.708626708112379,2.9776024625048976,0.5673792212580424,0.24483653117746051,2.4931412142206657,2.1239900300876697,71777.31704463362,29826.226898735495
120,170319.01962280273,156353.0,"[0,4,6,7,9,17,20,22]",8,0.2789663610227253,2.675274290182749,2.2409179098555865,1.1383435989732873,3.47745247112116,0.4956109026011868,0.5036461634773377,1.0609188693077631,3.8645398482753266,0.46465767317501616,0.14756913683028117,0.115466871371948,2.6079382140814755,2.1914751287874257,66481.66935160974,18854.28973847533
120,46192.58767700195,41267.0,"[1,12,15]",3,0.40617446707114024,0.4759815691662208,1.4191790056882017,0.9118707459356772,0.5621030370823954,0.37421812385984543,0.15237786603813452,0.9003412597336062,1.4871458391638734,0.5228764916074858,0.4100626371146281,0.2739246655300077,0.6105758696069535,0.5987752841840526,64381.839472764615,18520.659288153376
120,67434.9294128418,57367.0,"[2,3]",2,0.3826580800541548,0.17928282471270363,0.4097911444158009,0.6802541594921521,0.2801815778419017,0.23820223377941696,0.10849431177119051,3.0972766474121283,0.6614345674701031,0.38222982682400175,0.223605730975458,1.1915898804285343,0.6399532209960436,1.2083099818702845,71189.04725148142,14325.17358633333
120,18288.56381225586,16078.0,[5],1,0.22060464873485097,1.5375449145003062,1.7688816453028244,0.9244050396045047,2.2980449663957505,-0.4440621409459645,0.7647781944953023,0.6681396763828955,3.239764956152655,0.4601268717151953,0.21024566632811936,0.17076634910695365,1.5968950220232592,1.2058929039190898,62625.915900222535,17953.35383139363
120,11585.25375366211,10398.0,[13],1,1.7894931821199986,0.8239873644362468,2.8745747919400304,2.533004720310205,2.420929253634178,1.7095574673679306,-0.5521536710756818,1.2583139203949307,4.499073352924565,3.1678775236863017,1.6630011065463859,0.6048980309831833,2.682124438295155,2.776873806910679,121300.22839152333,97757.19904213467
120,32507.720428466797,29990.0,"[9,14]",2,0.12222425583264696,2.01617197857,2.5722523763570355,1.244927027275061,3.536024448974748,-0.6821675315031129,1.368495025072709,0.34416943869511263,4.102655319808784,0.3871801307994923,0.0499103754284298,0.1424530547360846,2.566018863918111,2.075574377007176,67169.32392597386,21360.587836845712
120,35106.508880615234,29785.0,"[3,16]",2,0.34289258551488455,0.12774786775703362,0.2442958646115092,1.3958716256165813,0.3032895943520302,0.515486036454462,-0.022765392658667505,3.925474276075197,0.8565817765983611,0.503618309080014,0.2738601099820177,1.8487221432878918,0.7886172184425982,2.0544306237499153,73266.26690789543,14665.617057386436
120,28840.793182373047,25595.0,[23],1,2.270940118315168,0.39717280985841974,1.5551198052579172,2.1180382239217113,1.8287278942727183,0.37427571443942087,0.2036970868959851,1.3985755789904086,5.726832832664603,3.043513839982177,0.6013626115102695,0.2676154800905094,2.5475708860780255,2.276897830508418,69136.91872840666,28762.676486679535
144,147531.87745285034,126242.0,"[0,4,6,7,9,17,20,22]",8,0.2732607585403075,2.695307926707801,2.1901742708248926,1.2904510165690914,3.4699064628312937,0.4460251666539361,0.6476400143797107,1.0397234600434184,3.697265564018623,0.5112809454521391,0.05415387201653177,0.15595505412534438,2.593345453471074,2.1478573518535,66068.00402490483,17938.86769209229
144,32829.073459625244,27055.0,"[1,12,15]",3,0.4735164686999467,0.3813007877358552,1.4733694791505005,1.1939943672160815,0.45876509669134347,0.37595088211273886,0.22836379026491294,1.0163447690495495,1.4346772206785818,0.568205486603021,0.4189328472416922,0.34447129536206555,0.618996546727918,0.6589284878018489,64725.14751885407,18332.745211060166
144,68499.36617660522,60070.0,"[2,3]",2,0.49099324914191667,0.11436899456091343,0.3952318538161479,1.0993134925712167,0.24298732741052476,0.26659880357913246,0.16412774851100753,3.409673661594468,0.7082709460403714,0.4108647532790133,0.2200678642881897,1.429878264069562,0.7432281604681726,1.3772297058166263,71287.7241879377,14381.091047804195
144,13247.156719207764,11799.0,[13],1,1.6071362526265076,0.679084088686515,2.6254895441361685,2.719970892716773,2.539579714384868,1.6415942988512577,-0.12613366439461338,1.351348910875048,4.798333552594049,3.181092970346753,1.5659021563787814,0.6373827052080603,2.587071520968488,2.8450620083041986,119211.1084861584,88611.22016785419
144,48086.313610076904,43698.0,"[3,16]",2,0.32685970125012465,0.038812610213176946,0.1014222597953065,2.26084045918279,0.2989682300303569,0.5173694128294348,0.12546799206694015,4.138699176058324,1.120368521119088,0.5345303639918338,0.2561034712860768,2.0339509041538286,0.8635152898709911,2.1758125258791914,72449.19576245893,14463.265796847329
144,10235.53596496582,9341.0,[19],1,1.0589013701861354,0.13472073901606985,0.22116710822648633,3.957171694831684,0.4998884964234658,0.42122042375615143,2.0843573532151844,4.065691165740599,4.468363524843924,0.5705036945547578,0.6664661812895578,0.5384702535636745,0.7132172285533273,2.3766484015894602,56796.28056860813,18686.662958231133
144,28625.09914779663,25020.0,[23],1,2.217546711034575,0.32880256270040453,1.702580744228006,2.377044005952334,2.061836015744849,0.3082965035195664,0.5016807935312522,1.139651550113772,5.596612924219074,3.3981837353151625,0.601245313681205,0.3221651556417794,2.436279082782479,2.461076216876915,70139.03974350473,31775.607546166048
168,77789.30985164642,67268.0,"[2,3,15]",3,0.26995353471455386,0.16472707865258895,0.47423881191919337,1.2828815077300924,0.34234831308864777,0.3234389793916259,0.16471590569941386,2.663434556527804,0.9325705589064207,0.38983781376161264,0.2124891534255373,0.9542564632593558,0.6839628894305182,1.1253330382943032,69979.33027635253,15536.968074347433
168,121176.53599309921,114133.0,"[5,6,7,9,12]",5,0.2466334755536297,1.3433176024427111,1.6199423525756962,1.3654392558275736,2.2231410550672916,0.14127584224792722,0.4786526900305117,0.6612358559014297,3.3876982146030086,0.6293825340469624,0.19966178160099268,0.15813495838040603,1.6202458215915971,1.230989510530185,63145.61119722388,22063.158995723574
168,39152.4397687912,34887.0,"[8,23]",2,1.8218568679447504,0.3207020994702563,2.0806796204264972,2.528060788243136,1.7636571346301189,0.5041750841223624,0.40682178494055066,0.8636602159569864,5.11514131779307,2.9605223961062737,0.6641862515142778,0.28778167238430075,2.2815487953336078,2.0047898044885306,70427.13985597968,38935.40541909583
168,16872.89458990097,15217.0,[13],1,1.4657340345598107,0.6164551762072312,2.650196618115618,2.847254396272477,2.322111400264601,1.627366439052792,-0.035026635490825964,1.301126759111423,4.743021910785875,3.161068534410975,1.549534356583401,0.5914985465637923,2.2905289969268656,2.5815761368861354,122670.01388352066,91907.08279589703
168,41353.78920125961,35343.0,"[3,16]",2,0.14955322191884868,0.06209848997982759,0.04107595271809483,2.447588930949635,0.3362461554106604,0.5252728003468055,0.2640801892100044,4.200927007395533,1.3632704264125013,0.558926901550376,0.25793133917426125,1.841894330381228,0.8598103680519874,2.1517708386154273,73766.66502512468,15618.788564288618
168,74769.01065826416,63405.0,"[7,9,14,17,20]",5,0.17137121844486436,2.2749889268482564,2.22101934907679,1.4365478683486264,3.3258386335211907,-0.2251019119640476,1.103327716304686,0.7206626637536617,3.529410374945909,0.6009480218278626,0.040101870104820136,0.1616143730244508,2.363184575230246,1.8680967220612603,67627.43468336179,21132.087220991492
168,12300.441995620728,11021.0,[19],1,0.6397394662759273,0.17293072215904637,0.2523361102324646,3.5715997557559427,0.48540567205452323,0.42440435867469706,1.8084109942963038,3.912119349435126,4.348657346575753,0.5612624583675997,0.690783204052996,0.4680690716521998,0.7317142310346051,2.1068238556016645,60741.77519966677,20993.833346696774
168,56178.33132266998,49539.0,"[6,20,22]",3,0.5071311146181245,2.0869566125795265,1.9428655681131475,1.3327365809210256,2.9070799054868357,1.3285758566163952,-0.1919342762507581,0.8681588998883791,3.523339642660136,0.7012120572388661,0.23490181949808653,0.10338720839539028,2.137901254456545,1.6577882459473663,65940.52631052493,21772.77097478179
