time_in_hour,cumulative_size,size,pcore_ids,pcore_power,AF700 CD48_[R 730_B-A],APCCy7 Ly6G_[R 780_A-A],BV421 CD117_[V 440_F-A],BV510 SCA-1_[V 525_E-A],BV605 CD11b_[V 610_D-A],BV650 CD150_[V 660_C-A],BV711 CD11c_[V 715_B-A],BV785 B220_[V 780_A-A],FITC Ly6C_[B 525_B-A],PE CD115_[YG 582_D-A],PECF594 CD135_[YG 610_C-A],PECy5 CD3-CD19-NK11_[YG 670_B-A],PECy7 CD16-32_[YG 780_A-A],PerCPCy5-5 CD45_[B 695_A-A],_FSC-A,_SSC-A
-1,0,0,[],0,0.0,0.0,0.0,0.0,0.0,0.0,0.0,0.0,0.0,0.0,0.0,0.0,0.0,0.0,0.0,0.0
0,145190,145190,[0],1,0.3376289090226865,0.1837538345202847,0.5418764130862614,0.5727116179902083,0.3853743886424925,0.2467300916660986,0.010584199876042089,2.3656519516839927,0.8898535249535139,0.43767608073558095,0.19653156868935096,0.9276397684069155,0.6640334682829506,1.105854558874569,69496.12375507975,14683.580962876182
0,214500,214500,[1],1,0.6230574605034656,1.4848381409510587,2.0088697796643546,0.863468204307718,2.4144860783823803,0.43364018078788313,0.08831086491839901,0.7445930965221446,4.173351278279789,1.1068317620745893,0.2924868824009508,0.1949954069930041,2.0654222461212064,1.6861505772960086,71574.4772773897,26369.21674591998
24,304243.0,159053.0,[0],1,0.3270342899590226,0.17541169581550253,0.5728586966272888,0.6209864327461889,0.3503272480352768,0.2685887042101083,0.005511122773558252,2.328868091607677,0.8986869618988588,0.4121588391055656,0.18936531896213982,0.9045938309575219,0.6180674146093833,1.0933336378749805,70965.34767274937,15558.130257721501
24,415447.0,200947.0,[1],1,0.6520799232705907,1.3977081845410826,2.0789878154734365,0.9256617102518501,2.3636725706240287,0.4633620415600608,0.09248939709997828,0.802024390102821,4.22845878077596,1.1296581479804013,0.28825219275386305,0.2093859244645101,2.0020153158068514,1.670405904632848,72284.5413253697,29254.43239691011
48,479393.0,175150.0,[0],1,0.3276924582044489,0.20209450705993603,0.6094838693930509,0.6484808422401014,0.37035789504855776,0.2806027314186841,0.02710717891378378,2.2465784718654005,1.009450162102917,0.4046618609595566,0.1971017924646299,0.8314329131756388,0.6216774979526446,1.0484989344775528,69623.12157248927,16473.2695554584
48,587583.0,172136.0,[1],1,0.6565419345862511,1.3917501385677635,2.05611920039733,0.88224961083798,2.3732382458955565,0.4523567611707566,0.08576004138308102,0.7638780157987313,4.270058271212839,1.0908737718348256,0.26642309779888773,0.1905290862125114,2.0277869732276392,1.620833284102925,71186.44791289163,28582.552946560343
72,641090.0,161697.0,[0],1,0.3103445515060186,0.2318243797298103,0.5715949287587994,0.674571208111213,0.39317802913475663,0.2709825846651841,0.018264346436591694,2.2625435517805847,0.9910322391286744,0.38824148795641455,0.1939676055546351,0.7988138795738944,0.6347361845013834,1.0410997760486347,69561.59201360145,16831.052413857768
72,785886.0,198303.0,[1],1,0.6527909780858465,1.379007772972145,1.9500905448425123,0.9728048435511432,2.3199481531048494,0.44829170181302525,0.07990832284836857,0.7798036386728651,4.167508163120333,1.0690119734402268,0.30289318755508843,0.19684146941416703,1.9785214366129686,1.610630932172157,72130.04960006893,29588.145659802954
96,759915.0,118825.0,[0],1,0.33518874103287,0.23324140508861868,0.5716484508227779,0.717511793033434,0.3957815728904208,0.26749031878038965,0.04046571841327351,2.3345292359145207,0.9679659471217664,0.4038393995078381,0.2043670967779856,0.8536530357303729,0.648611603934592,1.0745469449069778,69858.08810722307,16641.852333486146
96,963199.0,177313.0,[1],1,0.6750893064651877,1.4471239879463047,1.9600256727603287,1.0491294266980282,2.3801039738257335,0.4477210371958724,0.15764431805989343,0.8476816575672128,4.155022757428014,1.0698159093573585,0.3128882139692184,0.2059090233503209,2.032517276604439,1.688209086815976,72038.39239866256,29070.16546321423
120,880236.0,120321.0,[0],1,0.3429286427913181,0.24308679165586566,0.5995281060760962,0.7572250137009222,0.40801504490841545,0.2678204592882085,0.05885078278557021,2.340348274552632,0.9682905258522211,0.4140682267312331,0.2180889416259566,0.8703856414894136,0.6535114064500694,1.0984038325142116,69772.8590968796,16528.835485031508
120,1202878.0,239679.0,[1],1,0.675136013849178,1.555810667144041,2.0083557486370887,1.1255975892859547,2.495678096700463,0.44604045304428475,0.23115880444725168,0.9111794900547787,4.151333276267342,1.0389874660988738,0.3155926164838183,0.20520709873737863,2.1108045457278752,1.7813544100848577,71383.68059271174,28192.77824019147
144,1000476.0,120240.0,[0],1,0.3592984124816738,0.24414259475584554,0.6094959422514363,0.8602193981974984,0.4184749894520383,0.27235861018957497,0.085270631771317,2.3934053918975025,0.9781821876846882,0.4295377813030906,0.22416733351430373,0.9186818388307689,0.6743544547604842,1.1485111120036893,69776.793094488,16422.3586372918
144,1404983.0,202105.0,[1],1,0.6874355410320785,1.5910943922017737,2.0085989416378456,1.2293312968000913,2.5364583336295117,0.4472499959835601,0.29792211310817285,0.9665915079606995,4.1404939198396145,1.0541010755248585,0.31318774269989724,0.22724615511787305,2.140344751630446,1.8490480473827542,71141.78163864039,27702.606235096657
168,1128475.0,127999.0,[0],1,0.3514414090954978,0.2607337942878756,0.6301389840279894,0.9495641348563542,0.4560771124987033,0.2797852704295736,0.10800363164541071,2.3788343259619724,1.0314891709093876,0.4395899586344486,0.2280592613358814,0.9120149862053069,0.6951690933896896,1.165674105561051,69607.05203748489,16590.85887769211
168,1636984.0,232001.0,[1],1,0.6903515086182237,1.542914963661699,1.9933013698051885,1.3381008501154166,2.5094828807426457,0.4522121624872122,0.33857470239729937,0.983704926677472,4.1191411988786,1.0817767891990329,0.3263660190830797,0.2403362722512702,2.113408517336713,1.8448704815751966,71158.938027497,28094.227413344575
