time_in_hour,cumulative_size,size,pcore_ids,pcore_power,AF700 CD48_[R 730_B-A],APCCy7 Ly6G_[R 780_A-A],BV421 CD117_[V 440_F-A],BV510 SCA-1_[V 525_E-A],BV605 CD11b_[V 610_D-A],BV650 CD150_[V 660_C-A],BV711 CD11c_[V 715_B-A],BV785 B220_[V 780_A-A],FITC Ly6C_[B 525_B-A],PE CD115_[YG 582_D-A],PECF594 CD135_[YG 610_C-A],PECy5 CD3-CD19-NK11_[YG 670_B-A],PECy7 CD16-32_[YG 780_A-A],PerCPCy5-5 CD45_[B 695_A-A],_FSC-A,_SSC-A
-1,0,0,[],0,0.0,0.0,0.0,0.0,0.0,0.0,0.0,0.0,0.0,0.0,0.0,0.0,0.0,0.0,0.0,0.0
0,133248,133248,"[0,1,10,11,15]",5,0.30782327489343664,0.16403712569044027,NA,0.5513396362797249,0.33458725318952975,0.23506561432816508,0.004388215710551702,NA,NA,0.38306241552593634,0.18163977583904023,0.9562384410122473,0.6343543006048887,NA,69357.10710854937,14140.244956772243
0,184466,184466,"[3,4,6,7,8,9,13,14]",8,0.39278714512159363,NA,NA,0.7716181938677034,NA,NA,0.14304756895579018,0.7541566750458051,NA,NA,0.20795571213122122,0.1895141443138595,1.95095292948836,NA,68652.57788427125,22142.22015981267
0,26789,26789,[12],1,1.9082068423606355,0.31677539217589334,NA,0.8998040584941429,1.704570944044209,NA,0.01721522945985665,0.8023360578595478,NA,3.1199317893911576,0.45861170088469194,0.20570412923214754,2.397705492776902,NA,74761.1022434581,29193.29336668026
24,278794.0,145546.0,"[0,1,10,11,15]",5,0.2997540244768646,0.15491806938816,NA,0.6007337525807634,0.3029460122993979,0.25801425174501946,-0.0013298716112877251,NA,NA,0.36588522688077774,0.17621889567207782,0.9338606891432326,0.5921576038114212,NA,70935.21817542697,15005.293485512522
24,356467.0,172001.0,"[3,4,6,7,8,9,13,14]",8,0.4193790315176471,1.5609487921827245,NA,0.8205485856755237,NA,NA,0.1464435143898366,0.7958438067422633,NA,0.699175103580422,0.1976577332684255,0.19657914534304788,1.875337577197881,NA,68964.61875012255,24190.994577338275
24,26170.0,13560.0,[5],1,1.2774899165838878,0.5525416262896412,2.7270208409246908,2.0424319690867176,2.0394777708826823,1.5412776594573925,-0.539626335804356,1.0476204008788734,NA,NA,1.2100860005349356,0.4811669470003821,2.247543967137971,2.347046501566686,107192.43102789365,NA
24,51633.0,24844.0,[12],1,1.9019002445141304,0.36753837336585393,1.8933220759591607,1.008829376735786,1.6793335462010863,NA,0.03218154633664794,0.9424251289291634,NA,NA,0.46800919069200075,0.23653220521759488,2.386333392171678,1.8386807858539778,76402.397536459,35406.12430035062
48,433305.0,154511.0,"[0,1,10,11,15]",5,0.2892315991460961,0.17149647867668705,NA,0.607865331311666,0.313868142195445,NA,0.018819396222069074,NA,NA,0.35688970638926754,0.17639707536031146,NA,0.5895607862014177,NA,69487.98866387387,15464.33386182934
48,405752.0,118065.0,"[3,4,6,8,9,14]",6,0.323938997229847,NA,NA,0.7499785919970723,NA,NA,NA,NA,NA,NA,0.1414064596034046,0.16961486326376807,NA,NA,NA,22333.82566690981
48,38719.0,12549.0,[5],1,NA,0.5628453341770263,NA,2.0561623532632294,NA,NA,NA,NA,NA,NA,1.2115390856426873,0.46927304718613183,NA,NA,NA,NA
48,116211.0,27911.0,"[4,6,7]",3,NA,NA,NA,NA,NA,NA,NA,NA,NA,NA,0.22567517470806875,0.15241510495563737,NA,NA,NA,NA
48,81819.0,30186.0,[12],1,1.9418525443600878,0.3477957028562839,NA,NA,NA,NA,NA,NA,NA,NA,0.42963730549137535,0.21652807085151282,NA,NA,NA,NA
48,130722.0,53190.0,"[1,13]",2,0.44760125512920435,0.39045320390597693,NA,NA,NA,NA,0.12909866947414628,NA,NA,NA,0.3255644318783468,0.2833786694129454,NA,NA,NA,20858.76874588807
72,590140.0,156835.0,"[0,1,10,11,15]",5,0.2875310752584104,0.20473385664249433,NA,0.6565870831802569,0.3444308794286135,0.2611159798488478,0.011225720120657812,NA,NA,0.35807795613922844,0.18138059418782682,0.8274194994577482,0.6140732334666456,NA,69629.55144203099,16294.757555834112
72,607352.0,168010.0,"[3,4,6,8,9,13,14]",7,0.3909197974650742,1.5247590735290135,NA,0.8660247416918017,NA,NA,0.20050175124143843,0.754098933420817,NA,0.6450684476250904,0.21587962423768525,0.18342406908514486,1.796320500111952,NA,68315.61511611019,24354.29170563368
72,47467.0,8748.0,[5],1,1.2962524484168239,0.5938640389323258,2.6173284600669704,2.0757280336233497,2.023903095455745,NA,-0.46055977409572746,1.0513071729412293,4.379988051319862,2.94972024648702,1.2056139638064032,0.4589689165104195,2.2722704509869995,2.3188175616533493,106913.20471064023,NA
72,171122.0,54911.0,"[4,6,7]",3,0.5632137442000458,1.6062673182174163,NA,0.9058375270274888,NA,NA,-0.18899433030820578,0.8641224732939121,NA,0.7246680127861963,0.28264074043080134,0.16366321448440224,2.005864356085126,NA,71222.29539159185,27404.33234768194
72,92358.0,10539.0,[12],1,1.9072406400203372,0.3735675683319126,1.7565703795123349,1.0541524486238325,1.6804979545680916,NA,0.04088956343791006,0.897926458974811,5.638129758916344,NA,0.4400346217544646,0.2195622869810968,2.40365286180949,1.8120939150695874,74735.33995972172,34106.243617228865
96,706609.0,116469.0,"[0,1,10,11,15]",5,0.31770810794371984,0.21379877302581773,NA,0.7054881268353528,0.3579617356218199,0.25962015952952466,0.03776997829775253,NA,NA,0.37712777478634996,0.19465671768120085,0.8790454423733582,0.6355767453698019,NA,69870.54939860702,16197.444278235684
96,15408.0,3279.0,[2],1,0.8689888886941752,0.2239819025181835,NA,NA,0.4922967629153723,NA,NA,0.8341456795820301,NA,0.6316843618899303,0.2780193167185918,1.1169303270379096,0.5934783020508777,NA,78679.93769470407,18827.970924195193
96,739930.0,132578.0,"[3,4,6,8,9,13,14]",7,0.40790937790873705,1.6113602091535668,NA,0.9311456098252724,NA,NA,0.2751443151527684,0.8214744020583056,NA,0.6564105453488761,0.22016810603707349,0.19061473957672204,1.8677121102266372,NA,68386.92429824383,24014.299298582213
96,57258.0,9791.0,[5],1,1.334801028904277,0.6253770253763875,2.5736517041635856,2.1155994504872973,2.0549578802088386,NA,NA,1.10359174265606,NA,NA,1.209885229068394,0.484445760627338,2.2949308637395602,NA,106426.11617590464,NA
96,199208.0,28086.0,"[4,6,7]",3,0.5736267005290931,1.64860968580077,NA,0.9517849400274869,NA,NA,-0.12535812879001318,0.9141830126099433,NA,0.7269001457672336,0.28840990817638135,0.16864769486667408,2.042033276464788,NA,71131.4106260791,26984.808642223332
96,113049.0,20691.0,[12],1,1.9530101918018017,0.3851485718847738,NA,1.2074720363913185,1.6825543771815958,NA,0.09139369689248689,0.9602148181142205,NA,NA,0.4756794747233064,0.234185166556088,2.4128993995700796,NA,74631.42531114761,33748.10653787287
120,816031.0,109422.0,"[0,1,10,11,15]",5,0.32218157951719983,0.2229168001289148,NA,0.7398617470880322,0.3697971710155574,0.25833038004438236,0.05507581061502709,NA,NA,0.3846151477235651,0.2064061785189466,0.8957826155954856,0.6392813525148074,NA,69786.6210278779,16034.193916652408
120,19120.0,3712.0,[2],1,0.8947397081066779,0.24751721202929522,NA,NA,0.5049577056485584,NA,0.034325432740584194,0.8442662242677672,NA,0.6237061645920531,0.2936261980125643,1.1410707771443487,0.6162091697175666,NA,78215.44435146454,18686.175732217514
120,903855.0,163925.0,"[3,4,6,8,9,13,14]",7,0.41078342336992346,NA,NA,0.9996884587815882,NA,NA,0.36931260904566576,0.8703658858555832,NA,0.6511686723854943,0.22374213780307883,0.1922316070509097,1.9400584728092394,NA,67951.58759756778,23535.032959932516
120,67159.0,9901.0,[5],1,1.3822651369883514,0.6388825940678267,2.5716001098884873,2.163462484447385,NA,1.485639806369962,NA,1.1230242335949132,4.422752255066371,NA,1.2378662401762717,0.5005901823582883,2.326395734183041,NA,NA,NA
120,272195.0,72987.0,"[4,6,7]",3,0.5948130240489113,NA,NA,1.055249159679608,NA,NA,-0.05820266261320617,1.0149769249655307,NA,0.7195301023310375,0.29196389571080106,0.16394449515605058,2.1841130007678315,NA,70321.72200077129,25756.236462829653
120,132683.0,19634.0,[12],1,1.9959977449334148,0.3808500683584284,1.7302207025617062,1.3522983902384085,NA,NA,0.11159803795511003,1.0228662803975865,NA,NA,0.509690948584185,0.24560684576018488,2.4183423358531306,NA,74080.19462930303,33475.364892261685
144,924299.0,108268.0,"[0,1,10,11,15]",5,0.3354438518704499,0.21971334157670963,NA,0.8395589933528029,0.37621440820772767,0.2622897551041261,0.08137984324442993,NA,NA,0.3961679732208021,0.2120646459359925,0.946517134794046,0.6573528785025301,NA,69775.8831373832,15913.418285641073
144,24110.0,4990.0,[2],1,0.9129871661965805,0.25809277880547654,NA,NA,NA,NA,NA,NA,NA,0.6180424869348812,0.3008271068851207,1.1713002075487353,0.6266954850269569,NA,78156.50269597671,18638.1803401077
144,1032624.0,128769.0,"[3,4,6,8,9,13,14]",7,0.4222427055375648,NA,NA,1.0925812628120584,NA,NA,0.4478743936011358,0.9209035024307122,NA,0.6681321879270522,0.21927242198030195,0.21427533000104404,1.9709332770688697,NA,67765.12186429856,23190.71581524308
144,78406.0,11247.0,[5],1,1.3994240276254304,0.6174396254878411,2.5229447839833905,2.256091849016632,NA,1.4857284356044158,NA,1.1723155133408487,NA,NA,1.242082955704897,0.5314072482973273,2.3230976079509134,NA,NA,NA
144,326646.0,54451.0,"[4,6,7]",3,0.6029500990184911,NA,2.076087103145341,1.1439642907122587,NA,NA,-0.016329647150144844,1.0703867925399146,NA,0.7354444086105228,0.27846236761511367,0.17872337029384067,2.2367087700538115,NA,69941.38525498525,24932.581253099175
144,155697.0,23014.0,[12],1,2.0122308747888615,0.36811210096536273,1.7297550501229542,1.522264845507654,NA,NA,0.18261320615039178,1.0617322671020735,5.57086677962971,NA,0.5421555306910051,0.2709521059108402,2.3945599437112164,NA,73904.78521744043,33494.767503547904
168,816804.0,68945.0,"[0,10,11,15]",4,0.31989127344381574,0.16106794781003497,NA,0.9236514999191985,0.31606843364501325,0.25767828182280605,0.0824914574230653,NA,NA,0.38452132129006533,0.195014503922605,1.105846860376531,0.6657932138775132,NA,70712.608694375,15338.861690196973
168,297737.0,61464.0,"[1,13]",2,0.4513512749137618,0.5436419021955454,NA,1.0552667207636133,0.8349225125631019,NA,0.23860515348444356,NA,NA,0.581708292701271,0.36543092100749064,0.3460980733398993,0.8270427633985845,NA,65677.9638943095,21426.417865431238
168,30990.0,6880.0,[2],1,0.8703426792513504,0.2605686559858045,NA,NA,NA,NA,NA,NA,NA,0.6121268750242009,0.31076151055179935,1.2350038642787984,0.5980568627944455,NA,79957.02975153265,19271.263246208364
168,676855.0,105490.0,"[3,4,6,9,14]",5,0.529670943887558,NA,NA,1.203010222359306,NA,NA,0.20881430467527595,0.9583296520569169,NA,NA,0.30525906214035237,0.22131275995892463,1.821133328353917,NA,67614.82113598866,24438.582892938306
168,92224.0,13818.0,[5],1,1.4184092247679512,0.5986410614373749,2.505427899169421,2.3747253857130013,NA,NA,NA,1.1996133861359524,NA,NA,1.255149190666189,0.5414298698928715,2.311754853151026,NA,NA,NA
168,388284.0,61638.0,"[4,6,7]",3,0.6020485726452676,NA,NA,1.2510225485237707,NA,NA,NA,1.09546434982125,NA,NA,0.28751013780892487,0.18813780266506108,2.2188252020479844,NA,69931.62744795016,25198.51391249618
168,451432.0,50006.0,[8],1,0.21970838818477834,NA,2.013710818650416,1.1583370815583072,NA,NA,0.9247614006029377,NA,NA,0.5932368752569469,0.06234163332015008,0.20242188225025126,2.255958491218932,NA,67756.5712665472,21124.112495347024
168,182913.0,27216.0,[12],1,1.988590511521917,0.3610120092612479,NA,NA,NA,NA,0.2345963417854171,1.044377394471637,NA,NA,0.5718362417761305,0.2863283044343615,2.3967177969417803,NA,74770.31410561231,35194.64138688827
