time_in_hour,cumulative_size,size,pcore_ids,pcore_power,AF700 CD48_[R 730_B-A],APCCy7 Ly6G_[R 780_A-A],BV421 CD117_[V 440_F-A],BV510 SCA-1_[V 525_E-A],BV605 CD11b_[V 610_D-A],BV650 CD150_[V 660_C-A],BV711 CD11c_[V 715_B-A],BV785 B220_[V 780_A-A],FITC Ly6C_[B 525_B-A],PE CD115_[YG 582_D-A],PECF594 CD135_[YG 610_C-A],PECy5 CD3-CD19-NK11_[YG 670_B-A],PECy7 CD16-32_[YG 780_A-A],PerCPCy5-5 CD45_[B 695_A-A],_FSC-A,_SSC-A
-1,0,0,[],0,0.0,0.0,0.0,0.0,0.0,0.0,0.0,0.0,0.0,0.0,0.0,0.0,0.0,0.0,0.0,0.0
0,158948,158948,"[0,4,6,7,11,12,13,14]",8,0.2881343759657238,1.908988623568714,2.0501493687746986,0.6681920033407165,2.7712474073973916,0.31634912088229816,0.14492010363767038,0.6188759534376107,3.91528948553615,0.5351421993670885,0.13126231108286524,0.11645954734881692,2.093275097849613,1.5615813196894548,66838.85466945151,19375.491858972684
0,117634,117634,"[1,2]",2,0.3587894436047385,0.17316365206488538,0.714763441794025,0.508280318623854,0.31701142430760454,0.2379803593858969,0.06579821726714075,2.0802726412431634,0.8009416771511647,0.4080561314500807,0.20544874515871347,0.759394628304741,0.5793850734991645,0.8504943446622624,68614.42698539508,14890.575989934941
0,29231,29231,[8],1,1.9803648758509678,0.2699883846601221,1.6307328362696913,0.8276544447675507,1.651281956279293,0.38389094587938244,0.025383348123557692,0.7464745401457238,5.713023973760746,3.3043275438061945,0.4157466616605694,0.17124430601074492,2.4349996418870212,1.768983952584587,71669.61978721234,26116.33074475714
0,108608,108608,"[2,9]",2,0.2723469146655879,0.11126481334709037,0.18796909525999972,0.5331529160835213,0.26533011914407956,0.22068751817546128,-0.017549488776112288,2.996497927988721,0.6922297048836162,0.3499655493794094,0.1553050446467963,1.1752661850692407,0.6327329665862614,1.2246462629088095,70632.05185621665,13548.940483205763
24,180958.4375,170493.0,"[1,2,4,6]",4,0.3565251471878057,0.46185252330835525,1.062420935733177,0.6035934802884682,0.7426133456860677,0.3606463739781489,0.03805364830771474,1.5326646192813627,1.590293767738784,0.4204784377154961,0.19806469074115007,0.5218390288702424,0.7883105130553146,0.8602771289014874,68851.81174268259,17868.79529173649
24,38783.375,36181.0,"[8,13]",2,1.6843956884296405,0.5315880757476648,2.409437896706718,0.9971199224393885,2.1237662025013955,0.7612001946194886,-0.07626354860813889,1.0329358160600237,5.589227394192771,2.427200040175088,0.34340534874801687,0.18338843896225243,2.3981113718748794,1.7310844251709077,73463.36434103543,35241.7714033396
24,121415.0,114627.0,"[2,9]",2,0.23387374568011454,0.09731483828192466,0.18710267619836518,0.6133124480119831,0.18811337838609532,0.25277193313326896,-0.04421050169922225,2.9597463585075063,0.6714651193571638,0.2908973420515386,0.13825002735299163,1.1366725166680427,0.536183211326336,1.2023362020641948,73521.51006053625,14328.82935386888
24,122142.9375,114687.0,"[4,6,7,11,12,14]",6,0.2450720598760563,1.6296647349662523,2.0244516969513717,0.7087756502130955,2.547975331438004,0.03996931426550843,0.3795223387680613,0.6104072273627166,3.8904844027422674,0.5323423967738595,0.08068512324903843,0.13238555372471006,1.8515263008933731,1.3876809157227143,65149.52414665813,21454.72160434977
48,185994.90234375,174685.0,"[1,2,4,6]",4,0.30850031696426883,0.50341507176786,0.9800918914013619,0.5333241797888437,0.7253720523293108,0.3660173660647117,-0.02673711389479827,1.4749817479017304,1.6875358381269523,0.36437529795822243,0.18227273089651286,0.43768878790142685,0.7781423206734973,0.7451175134913341,65088.11608517092,17759.338821260957
48,57553.875,53793.0,"[8,10,13]",3,1.6457805198630548,0.454619420667671,2.320033942992889,1.2092244189079797,2.077356379530259,0.8713798232163874,-0.1275846007482726,0.89901936028987,5.191047205538044,2.530870005086735,0.5624535175793888,0.2293444340538413,2.4461284261232823,1.845856304525485,80702.96875753373,46399.64471549499
48,113843.4375,106255.0,"[2,9]",2,0.23995455122289666,0.11277951005413156,0.18203958472717874,0.5484482051827664,0.20456406541482286,0.2521716822486,-0.022496878785724483,2.8969918001939154,0.6905047468781181,0.2873541397946082,0.1247141673663883,1.0069720857357654,0.5828908396823319,1.0697532772967546,69813.02763279653,14900.406165265456
48,139848.3984375,131419.0,"[4,6,11,12,14,7,13]",7,0.27423161635411675,1.5385115730737162,1.983607732567831,0.6453719569966236,2.446628581004521,0.19523845061611422,0.23491407410666598,0.5732430156916286,3.8924788330149114,0.40096847564175875,0.10970861764717421,0.09905970066408432,1.8655516150606455,1.2195674618369952,63977.9229488181,21835.12697225979
72,236793.6953125,223852.0,"[1,2,4,6,14]",5,0.2924940891692551,0.7973475800957348,0.9902913329981029,0.7443308718928501,1.0832343306357615,0.2735321006588123,0.0682745858585938,1.4135555858882265,1.9678176613046245,0.4112947045810852,0.21853876695316687,0.3781377053137873,1.0001912409765028,0.9272023115283046,67443.79372233724,20202.71580354107
72,35958.12255859375,33214.0,"[8,13]",2,1.6410026396098154,0.5388683288634404,1.8164599597508002,1.6256654205213557,2.009942600440833,0.674922657821664,-0.12093556811017825,0.8966767756096652,5.198727686735668,2.2747750140411056,0.45959365604431746,0.18744563099008837,2.296317780039476,1.7898117660918922,76825.24603008064,36446.99981742805
72,121897.21484375,114782.0,"[2,9]",2,0.21588652266106467,0.17178359451321557,0.07410054972117308,0.6973900416224739,0.2427626334913957,0.22434551844980577,-0.057869877592497065,2.943446177854553,0.6584036942151884,0.28456974863079687,0.13873743131496763,0.9188235642728639,0.6297297647463805,1.1368141636574502,71579.090282614,16447.62192224746
96,121815.95721435547,114096.0,"[0,6,11,12,13,14]",6,0.37121855169889306,2.3904780955562357,2.1291421848216765,1.050827365267709,3.1537207194468153,0.4207804953981906,0.4662093561205922,0.9453689460971018,3.7206837110206386,0.5886047498156836,0.1709398888546656,0.13482200570311842,2.402809129266113,1.957269411504906,67916.81125926548,20473.86963744723
96,108551.25659179688,98029.0,"[1,2,4]",3,0.46182627018933653,0.3229642786079454,0.7903762140515775,0.7597882113076024,0.45555212982065907,0.2511750703310558,0.18524919643851767,2.199784998973617,1.038972699738884,0.4621892622181407,0.2689157513447342,0.8275697909946025,0.7075678265800233,0.9326045091594075,69390.92777493727,16555.638084765196
96,26380.56443786621,24860.0,[8],1,2.227589462391305,0.3781485204392978,1.4714034841303256,1.8313904909176144,1.7300288312797565,0.40921559440319655,0.21329214292284915,1.1420518812294467,5.694874767434258,2.9389889660503403,0.5826513567663727,0.2536837542741087,2.493817264863787,2.1536004265049757,71673.88207134418,29948.6309610014
96,99428.57592773438,91810.0,"[2,9]",2,0.4166407932642573,0.150219529391582,0.21651557852930203,0.8812046310713186,0.272632966345308,0.22073036554710757,0.11756529954857164,3.3174535857772156,0.6666327410406959,0.40280029078147805,0.20783292330878167,1.3902656858534608,0.6930090989109102,1.3607032190311226,72454.25189828951,14265.147129092831
120,180730.49732589722,173117.0,"[0,6,11,12,13,14]",6,0.3027537319283564,2.5533796453345685,2.287765624508929,1.1351411791199055,3.3463739393388585,0.4346763305965131,0.5267046669133966,1.0156115705813296,3.790450450844863,0.46716818897191115,0.168877742219943,0.11827055127474606,2.5187517210748034,2.101802016737554,65847.88819258453,19197.577005938365
120,106482.4535369873,99698.0,"[1,2,4]",3,0.4195511802772449,0.32780848091745574,0.9172313222107253,0.7884660345979762,0.450832838076638,0.24891290681149614,0.1874992587118398,2.004485363410187,1.0674463392139475,0.45848422727087845,0.3148434162790612,0.7373026043238715,0.643289798538551,0.9421270398031396,67686.32800965662,16271.537890131505
120,30717.78527736664,29069.0,[8],1,2.251371880073802,0.4054416401671639,1.610400805853342,2.1385983200077088,1.849956573441665,0.38550758592762935,0.24832194213065995,1.4057564934076598,5.6956671541650605,2.9732590565004746,0.6125966328613766,0.27583396737907073,2.546783483000408,2.281580820092266,68689.87690612045,28830.827932713302
120,82252.2859954834,76038.0,"[2,9]",2,0.3248248427550857,0.15950059172176623,0.308070263966282,0.9553565359063771,0.31804043542452565,0.22602396615966258,0.14772983222871927,3.311225649652042,0.6868965762590696,0.4099517291328676,0.23100838552694558,1.3870340288276553,0.659790052705462,1.458315775206797,71778.82296437325,14005.194409928987
144,145468.65608286858,134173.0,"[0,6,11,12,13,14]",6,0.30422419790870414,2.6072208092555584,2.2472537722451693,1.3017395265889182,3.3916742296799796,0.4138951315291086,0.6779900191386359,1.004765238133536,3.6339300015032756,0.5285623298374486,0.06975863180717079,0.15241859472668629,2.5525654112172957,2.0843996608837707,65566.93849823701,18249.349179187855
144,93643.1533460617,86988.0,"[1,2,4]",3,0.5193321680181453,0.20824786259147743,0.8048575020812523,1.1549727274958177,0.33996195199869916,0.2474667418663794,0.24876773870388202,2.49535377309307,0.9762181544477556,0.4850026352636517,0.29626165831698037,1.030181493309171,0.7122595520651235,1.1412526417966362,68675.25877273915,15789.52633483977
144,46802.52905899286,44000.0,"[8,10]",2,2.0483358342311817,0.43597423347496145,2.0634618251315744,2.5606028057632506,2.2213705567064754,0.759785160502366,0.4899693877510414,1.2161705681617856,5.276302524155914,3.3333388028013156,0.9005249227149674,0.4393271810775349,2.493756175982099,2.5795340694705633,83480.22184278994,47533.237574519626
144,90642.76787471771,85502.0,"[2,9]",2,0.3830771297114215,0.07511959685885694,0.22670910842612857,1.6527293315308658,0.31044192278180116,0.25059853885468986,0.24676268310312732,3.71499504043269,0.8501390267339749,0.45563733061852785,0.21950133720108678,1.705980441112147,0.7923554975536001,1.719241389801417,71746.6386746804,14076.346998419687
168,165859.7910051793,156768.0,"[0,6,11,12,13,14]",6,0.37688395482273696,1.8387663874879783,2.0839713932538317,1.4769350749530226,2.8580068827417224,0.3775048830910952,0.5617340287116219,0.8687926003830571,3.5253266345539997,0.7081531653649872,0.18974857453675664,0.15116985582584885,2.076575028380935,1.612507433291474,65677.37515921045,23190.841550002828
168,106189.69708412886,100337.0,"[1,2,4]",3,0.328109348855661,0.30295814077591476,0.8458367754586584,1.3838735322037836,0.573899086611926,0.34200505328467234,0.22453387401651126,1.8221526770940413,1.6202359628608902,0.5266591824430474,0.2927433420508212,0.6336335724708471,0.765808287616531,0.9688828657961652,66089.78640565256,19130.730254651935
168,44354.158066187054,41429.0,"[8,10]",2,1.8513592229216733,0.4273436660980967,2.309977043779343,2.7687756340751997,2.1306999705397316,1.0328356965642935,0.35862274745533584,1.0424806871391663,5.016696977026108,3.2685458951111808,1.0086680850242185,0.42166527741357007,2.4225263373264436,2.3702771813058607,90714.97446274078,58245.08208335301
168,74527.17299216986,68862.0,"[2,9]",2,0.198437604733944,0.09248653627358605,0.2035862339998995,1.8812681617762093,0.3352562437489328,0.31839919395157956,0.3094887090137637,3.6951644866636384,1.0309579106927251,0.47575498529066085,0.22207730691724947,1.476878655959793,0.7838938521266045,1.670737945844346,72925.6117130567,15500.70073052713
