time_in_hour,cumulative_size,size,pcore_ids,pcore_power,AF700 CD48_[R 730_B-A],APCCy7 Ly6G_[R 780_A-A],BV421 CD117_[V 440_F-A],BV510 SCA-1_[V 525_E-A],BV605 CD11b_[V 610_D-A],BV650 CD150_[V 660_C-A],BV711 CD11c_[V 715_B-A],BV785 B220_[V 780_A-A],FITC Ly6C_[B 525_B-A],PE CD115_[YG 582_D-A],PECF594 CD135_[YG 610_C-A],PECy5 CD3-CD19-NK11_[YG 670_B-A],PECy7 CD16-32_[YG 780_A-A],PerCPCy5-5 CD45_[B 695_A-A],_FSC-A,_SSC-A
-1,0,0,[],0,0.0,0.0,0.0,0.0,0.0,0.0,0.0,0.0,0.0,0.0,0.0,0.0,0.0,0.0,0.0,0.0
0,153122,153122,"[0,2,4]",3,0.34744427621112295,0.2141612688966963,0.6391130829599931,0.6112891911155574,0.40769616717389656,0.2724606262000293,0.019939838814818867,2.281193165129751,1.0007780831493855,0.44825092043598713,0.22368872813181406,0.8909940455388476,0.6773661740964799,1.0878924211609065,69355.69430911273,15826.231318817672
0,170533,170533,"[1,3]",2,0.383802334427944,1.7583797159318135,2.0063778586608465,0.7816590540247654,2.628428654799946,0.35600911534423063,0.13196298929238637,0.7292160436220558,3.968297905138622,0.6938080762902273,0.20202782658487273,0.17919226004350985,2.052191058463742,1.6694451800941594,69788.51896113921,23324.759149255722
0,36156,36156,[5],1,1.7709666368237726,0.3512474664785925,1.9290234957683041,1.148034290989059,1.7536994102500434,0.7307939944960802,-0.1403788220212534,0.821617036923342,5.385243254204013,3.154052333416284,0.6246016780893826,0.26478271221927885,2.376517606538307,1.966439904884395,81017.56743002549,38410.04181878522
24,96695.5,86315.0,[0],1,0.3080563259135769,0.13675830964085955,0.46667742721870287,0.4933361949457322,0.22227053311426648,0.2587581823649805,-0.03495816832867016,2.1910422158851643,0.680414555588163,0.32592482705243553,0.15048068670723636,0.7650582855588006,0.4992989374725324,0.8206932357878745,72255.03317114039,15512.425624770302
24,171696.625,150380.0,"[1,3]",2,0.4419726957599064,1.589768647503266,2.103779025606213,0.8696601881283472,2.5779208129316804,0.3815443613837619,0.14831243690212537,0.796851397025848,4.109798700941985,0.7283533672735488,0.17520998928705334,0.18939474410315604,1.9504820779303276,1.6423326246751966,70410.84093528283,26897.679881593675
24,52020.5,47106.0,[2],1,0.49266765323526496,0.4981401163916339,1.8210704880527957,0.8772015276261054,0.799948266214757,0.42919871930057596,0.13158147505550044,0.8939196145701955,2.066791905349802,0.6486507232148849,0.3641977097803042,0.32420107529724307,0.8187163295383443,0.7848834801664717,68700.4573966032,25002.011745369437
24,45180.25,41335.0,[4],1,0.2307534628128518,0.07376911405705311,0.064720593328913,0.9374635835126925,0.2713600946514627,0.315812357376833,-0.03826694893510796,3.6582394552265507,0.8688863425694865,0.39392698122797065,0.1765677056567725,1.5851069192484442,0.6710059865012917,1.9462111648563212,74563.87284266898,14891.635703653666
24,39383.5,34864.0,[5],1,1.748056972694781,0.42163614284533146,2.238136530250633,1.3627767373170157,1.7387309396733635,0.8724592531675561,-0.12742624579137596,1.0413906738957617,5.474853056746488,3.129732360630079,0.6588478549423962,0.3247073018872123,2.3284844003136143,2.02018741140641,84828.71171937481,50302.33615600468
48,113235.9375,101149.0,[0],1,0.29262898343378474,0.15325362198055403,0.4688401320247624,0.5023205950389595,0.25479724752439203,0.2476211379259332,0.04883761476605697,2.0638428083599916,0.7615556667642233,0.3221822359203117,0.15292826283337657,0.6418369107458166,0.5229047764897746,0.7341037441460758,68546.43020021782,15683.548369968688
48,60982.390625,50700.0,[1],1,0.5970133599433354,1.7697938323158175,2.1661992594441757,0.7638744420417765,2.807159870315742,1.2433570773237987,-0.45276226473422687,0.8577744521707067,4.139816317896073,0.5533141678763492,0.21983709332713053,0.11474385671632326,2.2052914277853755,1.612752184054919,68518.1840392961,25300.669802988992
48,74525.5625,68023.0,[2],1,0.4299120290691041,0.737264442795627,1.6992060574848638,0.8057910419862622,1.0130939218718233,0.423979653788882,0.1001262060838668,0.7098374454230956,2.9607431418854886,0.5369247775536857,0.29865809038617774,0.1973465090006974,0.9003112814290212,0.7908217986143957,61352.55523901609,23003.428924136046
48,68974.6875,57795.0,[3],1,0.15973250887305812,1.7823423517995414,2.061232604283711,0.6990439612323702,2.839455220145538,-0.4805391408485532,0.6892011090153032,0.5704616354885648,4.100573644033575,0.4088446823517732,0.02739675574779632,0.13575536099837615,2.1150945420924563,1.5216887407522606,65959.31287111611,22149.694639790832
48,38087.53125,32440.0,[4],1,0.22336513573012162,0.0860228650792978,-0.030534614439097663,0.9170069768337901,0.2205273119808142,0.3150472313277439,-0.07954395925707791,3.7926134731395553,0.884736466881383,0.31529143185679753,0.1590326711825849,1.5698956500901424,0.6852165679208629,1.8705348943199163,72283.97744996936,14805.989033484531
48,42101.9375,37179.0,[5],1,1.844986403369569,0.3723379489831782,1.9835017642332935,1.2221355668552252,1.8282612865578511,0.7593287755139657,-0.09100980547252835,0.8686016435863868,5.4313283269219275,3.1170692418634625,0.5921040039520817,0.2555567081677502,2.5044395595207183,1.9715442464053055,81666.62291966935,46052.35036986144
72,161321.43359375,142406.0,"[0,4]",2,0.27405959032447136,0.23162483154203706,0.35827755097486413,0.7481393042778324,0.3543016456835528,0.2562541391300166,-0.022072753261991096,2.5011122407540842,0.8441973557358261,0.35122767135167887,0.17839667425207217,0.7863435103376197,0.6501698864592577,1.072988355561193,70469.13411783875,17894.3507060232
72,217613.330078125,192053.0,"[1,2,3]",3,0.4367342988033138,1.40473205963879,1.6656952006758252,1.0543509012145211,2.1291139134562367,0.3646528730474887,0.10144129635618304,0.803518710640641,3.479469446856714,0.6698266562058476,0.34058281261407375,0.1952904247559355,1.6686160054186998,1.4030983699442179,71464.89004507102,28696.04178261104
72,30803.7421875,25541.0,[5],1,1.7760503892795823,0.4844080792292931,1.4750548634655658,1.7801375786668254,1.7001617911797862,0.7566314267341827,-0.13424237258466087,0.9435758052029324,5.268589120483946,2.818973579214998,0.6230667589074699,0.28267500501632303,2.323495765231294,2.0198028848042657,83212.66520631229,43920.75556566663
96,131768.17919921875,111603.0,"[0,4]",2,0.43804895080085116,0.19508727455488506,0.4356059241790424,0.9212762558569247,0.3359807292916268,0.25093845066423337,0.12270243931659408,2.827923571386602,0.8156410051809916,0.44679530556858127,0.23868012776656355,1.15583188614785,0.689956053759642,1.2624340954204571,71553.71336842394,15486.4215703811
96,63594.349853515625,57317.0,[1],1,0.7000986756212833,2.1679022291475594,2.227154979226318,1.2398142911350072,3.102489305525038,1.2818363700806608,-0.020003751102647627,1.1599137367708092,3.8934658531032587,0.8462207973372059,0.37112972098800956,0.17893238167226821,2.451576912424859,2.09046490672799,73473.08156129764,27805.33553041544
96,45605.4619140625,33750.0,[2],1,0.5546320702230298,1.1259209355885238,1.6264268295726914,1.2063895374968423,1.4956286557856733,0.4853781337696317,0.34288238502386204,1.0015643328219683,3.0825101572417237,0.7136605401291155,0.4319393219243368,0.2615456572330285,1.3189188445316131,1.1906438500034755,66522.91884737516,24268.657884895252
96,74796.8544921875,65728.0,[3],1,0.3361134996732933,2.087636002769951,2.0881786659836545,1.225835564093583,3.0693220008266002,-0.4563945747703042,1.0111638837049255,0.9745511880428026,3.9116333873538234,0.6772267413288743,0.14554982498524316,0.20764676690571926,2.3371480668854816,2.033421473147956,70000.87279489101,23424.423380521446
96,31590.4677734375,27740.0,[5],1,2.043321659965997,0.3933608833014466,1.649985120817171,1.9774312333376547,1.5905569769630747,0.75660975049277,0.1176769625000218,1.207967754874971,5.409245219711205,2.8039399664230227,0.7568196941349523,0.35915244046217365,2.3569619579786085,2.2580134171553228,79360.80439514044,39455.5959990774
120,75105.74206542969,65727.0,[0],1,0.3711005528817368,0.2674585670647911,0.820915455513783,0.7466059944553027,0.34171554323091513,0.25209280580384785,0.11941843743613356,1.9909209845999758,0.8533693866698299,0.4148539910302166,0.28116318055139766,0.7294789853856665,0.5532327552746691,0.7882736870413878,69069.8803572999,15477.314735066788
120,98225.29373168945,90276.0,[1],1,0.6671187835658026,2.343965262776302,2.337195010584137,1.3228222798488658,3.275561988309367,1.3380623298083838,0.008065640382960648,1.2248485688691213,3.9283183691833243,0.7375685761021514,0.3615214172603305,0.16674681083432408,2.556313996653252,2.2230705210599355,70349.5881781603,25527.282720972835
120,41968.68273925781,36268.0,[2],1,0.6077747693400752,1.0667859837401785,1.8007156645952658,1.2891909477687356,1.4371014366376516,0.4679966133847908,0.40375265655052806,1.0319972558218766,3.0899232102339087,0.6881226040909015,0.4792584282395542,0.2798097419610256,1.272171505220025,1.2673273139107923,63371.707321908696,21944.352478994748
120,107569.60681152344,98220.0,[3],1,0.24532041093379586,2.3018831732956784,2.258992086026001,1.2971410075927126,3.3087066599518375,-0.49825386183592546,1.1311526048417413,1.0508656705324313,3.927936727954337,0.522446703585543,0.1173854457349135,0.19127948357480862,2.4771406833769904,2.1821430945668854,67163.56550186576,20785.079937235674
120,45883.280334472656,38791.0,[4],1,0.3785239683434485,0.12198796540198575,0.18650340714439695,1.3090434361888583,0.3973412140446495,0.25972830976253203,0.18591571898065506,3.6549894023488747,0.8192083129160285,0.4886695806972666,0.26246878789564354,1.6455820266627108,0.774533680908526,2.0185895451897133,71898.8305333412,14171.968165364879
120,34666.80847167969,30718.0,[5],1,2.119991217774772,0.4022088888222619,1.8192371516619805,2.1978063456464514,1.7222067174165887,0.7282755412609407,0.117868417041608,1.3575193928627978,5.432509246959895,2.9242827112945604,0.784489940772926,0.3539089571381947,2.4567027958073386,2.336022334215921,76085.48225227048,38288.38091111438
144,72650.21775817871,63262.0,[0],1,0.47889327907370394,0.21546806875376978,0.8272644176300692,1.07896015032498,0.3194118317366659,0.27163213558207033,0.20594167055070178,2.3680711720286647,0.8507754765712486,0.4522816280470372,0.27416824388468797,0.9784498287593042,0.6655012864986579,0.9899023097544746,69200.76124286199,15346.060114447058
144,86658.16171646118,74380.0,[1],1,0.6396773099928488,2.3410549779363556,2.2024265318289173,1.5262421298050608,3.230461252775138,1.3075476624098663,0.18577703778950605,1.2421526738122401,3.7675502414281765,0.7760019543847371,0.2686128164274426,0.22068581574231938,2.4891870047595117,2.1912203434682658,69477.73916596096,23480.047316113276
144,23951.085342407227,18705.0,[2],1,0.8968748083781419,0.6965032737054311,1.7913924205308915,1.9102550195771069,0.9768012827324339,0.5008088112205911,0.5324899261624036,1.126340692979206,3.2596718340416317,0.8912694391474579,0.5644136682473269,0.5033289550189854,1.156613088155733,1.5754595056587646,65389.38584682024,23336.665119681595
144,93166.20085144043,79720.0,[3],1,0.2719461120967497,2.2952203183498376,2.172295550542412,1.5316519921668972,3.2646083119586335,-0.4848077786092684,1.2364429071334295,1.0293709711183938,3.793029818660466,0.6121448933344774,0.05011950533257847,0.23938252813880745,2.4321847183431533,2.1810474286714983,66589.456336525,19797.82803948922
144,54876.41004180908,49141.0,[4],1,0.35271298613295254,0.03282609546384396,0.00736494119896447,2.2778790263948134,0.3712390046202727,0.29494540759176235,0.32857029994916553,3.995660026118392,1.1807917422962668,0.5135918290351734,0.2504703009596554,1.9320877624021797,0.8459155812640572,2.2406806184130983,71910.59312423592,14092.815764344434
144,41470.35105895996,37137.0,[5],1,2.036686044650228,0.331096387194294,1.8525195463001851,2.5973286313191912,1.8166155485772992,0.7651144092276145,0.41266581651249545,1.3209843054073969,5.282296536787849,3.107672004041101,0.8115601218022395,0.4515799625994211,2.276615887662326,2.5083008811485263,77305.7454114969,40130.58026928577
168,64633.27721977234,55552.0,[0],1,0.3464978363514324,0.2763519665052425,0.9499199276989749,1.3108842752641698,0.5103677768823296,0.29242196715096824,0.22285389115262566,1.81311218669709,1.114854550644468,0.4546546304589312,0.27847946319311667,0.6549626575588805,0.685886214682737,0.886846405706281,67507.00116643481,17631.870936322415
168,61892.27021455765,51060.0,[1],1,0.6577370616854283,2.1501666677568236,2.222654652925137,1.6425596050277034,3.136718907736227,1.3170517438616163,0.1663263000421078,1.1562159674284973,3.580068195090312,0.880664134922947,0.32298749285388473,0.21012871963745983,2.3367900070839784,1.9926138670718545,72058.91289948538,27006.440762057955
168,108706.8856678009,105713.0,[2],1,0.487917753634334,0.789105223553809,1.475183075672815,1.783050899170128,1.5175763522726706,0.48089860291810527,0.3566995397207986,0.9762694097877254,3.622309518681298,0.8865574059082671,0.4062493432019636,0.28448079438246,1.3204379267884692,1.2489479703897703,65062.65164036541,27124.1434718927
168,71583.77510643005,59938.0,[3],1,0.28695624104770645,1.9886642817112472,2.145587434218966,1.6914032759948245,3.1230891440729374,-0.5410287001761234,1.2173889480241962,0.9560061295452469,3.654659690986342,0.7364049497382189,0.09635698186205577,0.25161292229048005,2.2387486272112804,1.9646612482181316,69078.51844363628,23294.975690572086
168,53371.551255226135,46512.0,[4],1,0.2039846150751803,0.0654771417759843,0.05711742967837852,2.264990160707051,0.37724646894466884,0.3509559881123856,0.40724176742600626,3.9432666071703686,1.2486360808465848,0.5289220506546094,0.24973706596246537,1.6886449219698854,0.8376933391063367,2.077187788817392,73490.93880694304,15476.120679274756
168,46408.793882369995,41225.0,[5],1,1.8082239332973458,0.3391432221941786,2.1114115609736746,2.822434271973132,2.0536517626790025,0.8814372537788893,0.5203541086913512,1.1416660669607244,5.026989772662274,2.9501552658960972,0.8303952600288049,0.4521090908051917,2.3099944280537477,2.40937994795246,80934.78567136521,45377.85743438328
