time_in_hour,cumulative_size,size,pcore_ids,pcore_power,AF700 CD48_[R 730_B-A],APCCy7 Ly6G_[R 780_A-A],BV421 CD117_[V 440_F-A],BV510 SCA-1_[V 525_E-A],BV605 CD11b_[V 610_D-A],BV650 CD150_[V 660_C-A],BV711 CD11c_[V 715_B-A],BV785 B220_[V 780_A-A],FITC Ly6C_[B 525_B-A],PE CD115_[YG 582_D-A],PECF594 CD135_[YG 610_C-A],PECy5 CD3-CD19-NK11_[YG 670_B-A],PECy7 CD16-32_[YG 780_A-A],PerCPCy5-5 CD45_[B 695_A-A],_FSC-A,_SSC-A
-1,0,0,[],0,0.0,0.0,0.0,0.0,0.0,0.0,0.0,0.0,0.0,0.0,0.0,0.0,0.0,0.0,0.0,0.0
0,172059,172059,"[0,4,5,6,7,12,13,14,15]",9,0.1745990909497605,0.3976148957108647,0.5040519124037125,0.30400034509540197,0.5045367967598082,0.2379487062644098,0.2690384823332462,0.3159154503327689,0.5666368210041928,0.13689018117165722,0.24686192548991226,0.09326755624503058,0.32700061499267213,0.3586539680445862,0.18804808950607632,0.07375893200659736
0,111571,111571,"[1,2]",2,0.17499681832560182,0.23717005104572678,0.3585424162724062,0.2806686618433921,0.2609925697718346,0.2254861525279683,0.2576775512833599,0.44889398378426426,0.1692865103071948,0.10875303154469725,0.25098709232780814,0.18190713287516314,0.1395323591045922,0.21771601971929044,0.19474888860567358,0.053879153422841254
0,33178,33178,"[8,10]",2,0.3336417793815231,0.25431302030621555,0.4953604806686584,0.34992548297932224,0.4246335550402391,0.28050438148639906,0.24795101791934218,0.33098131079477094,0.7501041308039742,0.4498681818357364,0.29488590785080837,0.11034220127405053,0.38014106606991477,0.4451621629368966,0.24693135160945107,0.14093708982305178
0,107295,107295,"[2,9]",2,0.16563936176624178,0.2311720421153823,0.2979297773035501,0.28562852107678477,0.2558245551176386,0.22237399352872653,0.2501221523160266,0.5368539738601225,0.15756481236814707,0.10087140462704457,0.2460150910727743,0.24238293218652907,0.14623956816874092,0.296055220130772,0.2018072206425371,0.04870268495151542
24,222743.875,209570.0,"[0,1,3,4,5,6,7,12,13,14,15]",11,0.18757860785619512,0.3448436395599151,0.5015979172001813,0.31420503002588107,0.43981946855233517,0.24464138101670369,0.2668098919012345,0.3243761303265475,0.5155674130555522,0.141030300848174,0.24818625566107047,0.10355849860035388,0.2699898580335278,0.3223315356740084,0.19181727898168774,0.08539636953773742
24,161590.375,152791.0,"[1,2,9]",3,0.16973268113588952,0.23320854355760168,0.3472619190504337,0.2979814601493475,0.25531876965303213,0.23240217472690594,0.25186828581137605,0.47762460154836184,0.16848409063896178,0.10399814109158066,0.24891886785038012,0.20686687197147546,0.1357558158139557,0.2686114715612131,0.2112118998969833,0.05822359796053694
24,25005.625,22932.0,"[8,10]",2,0.33599854466425455,0.2624187037399976,0.5292770542952956,0.3666523681717347,0.44137851103247366,0.27595543603907674,0.26808019828851115,0.3537591213511474,0.7721439441999328,0.4447728677132944,0.28947245170377134,0.11597972049151861,0.3826406237861235,0.4527759491609945,0.2513754026913104,0.17056457927912563
48,209812.015625,196422.0,"[0,1,3,4,6,7,12,13,14,15]",10,0.1751132187805623,0.34736067147568367,0.4849901045948554,0.3051474205251956,0.4354724808937947,0.24069753999275914,0.2650879222047896,0.3174136705930839,0.4974532713182114,0.11208966604045498,0.2473951770882648,0.09649567635411621,0.26399108412759437,0.28945638635343096,0.17623412118264561,0.07913751082260397
48,154408.3984375,144309.0,"[1,2,9]",3,0.16800654885881,0.2348956164886401,0.34486270306288297,0.2922399789285914,0.25534288028516133,0.23183559835383968,0.2520388841605737,0.4706064970849224,0.17054210951018348,0.10083919182412633,0.24757851270039044,0.19048792731765057,0.13737037149132364,0.24413395549494052,0.19507866202248744,0.06049787734572451
48,24881.8515625,23319.0,"[8,10]",2,0.34349273066245334,0.25883207248540485,0.4869008445563682,0.35583174037130505,0.4717116864801524,0.2611092831343206,0.28192625190282344,0.3320332837452432,0.7493034454973846,0.43616651291453495,0.2870500726311355,0.11151955385512537,0.3993426808252166,0.4766365809272478,0.24441038090108272,0.1562559126045532
72,227479.78076171875,213535.0,"[0,1,3,4,5,6,7,12,13,14,15]",11,0.18322262025969097,0.3490281763094384,0.4586871972507482,0.3348895491137753,0.4307788399789213,0.2405165372499632,0.26210363463656566,0.3287342986397227,0.47929802651888614,0.13512914395199555,0.2609265127868263,0.10246771998811527,0.26199056592322706,0.3078894589349122,0.19654002806676651,0.09316145265263105
72,153260.52490234375,143610.0,"[1,2,9]",3,0.1651030539824943,0.24182850032104483,0.32713165386223536,0.30695454168340175,0.26287884911818105,0.22752276237509025,0.24952292642070192,0.4868297687227927,0.16819577103191247,0.10127701700392377,0.24848919864837551,0.18514697962606264,0.14638992515576216,0.2591653102653965,0.2014316237828355,0.06578799778017592
96,125059.61683654785,112423.0,"[1,2,4,15]",4,0.18426366309974107,0.26573599303507667,0.3796013143523165,0.3154030332759624,0.2977378501381155,0.21667156989170983,0.27476343664343555,0.45049681263832303,0.23576481725464626,0.11677255418384964,0.25744595140724413,0.18863758217500076,0.170874276705009,0.2530159140540948,0.19700055339078174,0.06219727253688383
96,107936.68362426758,103720.0,"[6,7,12,13,14]",5,0.18026399293820938,0.4591217466179517,0.5296243792926295,0.3494313457477931,0.5817692661216811,0.24317514889027994,0.30644590018773593,0.35013390917555415,0.5634850167869307,0.1360085242235004,0.24586217437675756,0.09514169270387465,0.39092434213090865,0.4650045483679225,0.1993933980472494,0.08100138077674755
96,16492.464401245117,15387.0,[8],1,0.3745343699441314,0.2597359515936063,0.4380129900930806,0.4344811254848018,0.45075882224390834,0.20611460270537557,0.29782343460653055,0.3672392520336462,0.7980402370869092,0.4063045563652984,0.28912145650980914,0.11576611563654311,0.3890820564498434,0.5140223435507627,0.2190843864069879,0.11353970353661505
96,100351.83543395996,92705.0,"[2,9]",2,0.18209375314800433,0.23493977584767142,0.30398360279235015,0.3235255253089204,0.25775439186063975,0.2219659207962355,0.2634319358834292,0.5628276892062185,0.15441955346540892,0.10996576411033109,0.2519594165882692,0.27150079101492436,0.15416261011024926,0.32172998204545045,0.21021953078171401,0.051742761388360384
120,125860.22605228424,118044.0,"[1,2,4,15]",4,0.17820289209045856,0.2725713145159886,0.3980612468769545,0.3175363790467242,0.3062446289991036,0.21361340829434686,0.27635198625609514,0.4242647871844242,0.24911602082349232,0.11568967396701561,0.26119261555272033,0.171913794637755,0.16889958828235205,0.25729536255132307,0.18913084517382558,0.06073749119481655
120,165540.04272651672,158794.0,"[6,7,12,13,14]",5,0.17415882149364792,0.4746520314078781,0.5478374588885497,0.35819679119661557,0.6000929110790814,0.2496081642632671,0.3094533005220923,0.35617911083015213,0.5711981208545359,0.12011295580717792,0.24601811631111387,0.09334444746097734,0.40625051229117126,0.49054140972865307,0.18944441122170397,0.07586470397205611
120,82067.9897146225,75796.0,"[2,9]",2,0.1720743394284017,0.23535866719528598,0.31195323294371147,0.3315296673287224,0.26184658818503553,0.2225779341613985,0.265099793559132,0.5614762577913889,0.15432349420007202,0.1104214696028489,0.2540943286588212,0.2712475024572004,0.14954148999328465,0.3417080261155789,0.2071216206635671,0.050274957794863
144,105796.26412826777,97930.0,"[1,2,4,15]",4,0.19081711804425133,0.2519400529602041,0.37784220876608976,0.356380106172357,0.28262414991812324,0.2212456900147281,0.278607848531292,0.4689016378525706,0.22368753913491635,0.1181390469850035,0.25902339756541876,0.21697415749099616,0.16831330616408874,0.2950416104031668,0.195740757690253,0.057931555487557296
144,44661.02129429579,42027.0,"[5,8,11]",3,0.3599940518933638,0.2592430498213383,0.5076685991228842,0.4977911705245422,0.4493753692469854,0.3008834808021625,0.28955683367362844,0.36417458498655236,0.7453836127496971,0.4582229725311273,0.3201008266895372,0.13756913338241542,0.378913448667994,0.5465238466611101,0.25302144848044067,0.17494564760943884
144,141276.2526704073,130930.0,"[6,7,12,13,14]",5,0.1735361175248114,0.4769738321843442,0.533176637228276,0.376186534077223,0.5923361623910269,0.24770219140463856,0.31947203639220223,0.3506374115580225,0.5444589141047668,0.1296157810038647,0.23652838118360583,0.10018222222756769,0.39778545756932165,0.47878260126277933,0.18751415612682162,0.07112743656188845
144,91088.2493571639,85959.0,"[2,9]",2,0.17813557837996563,0.22731871731468534,0.304198414151565,0.4059881203165741,0.2608964523156191,0.2269601053148918,0.2749998507591154,0.6007339194803623,0.17551530958770686,0.11536049038313431,0.25300783759794887,0.3183102429524614,0.16567484690576456,0.3918975570804551,0.20827140459428656,0.050900246629117955
168,260992.66030801088,247934.0,"[0,1,4,5,6,7,12,13,14,15]",10,0.19300259344974977,0.35028804452933215,0.4832430110699976,0.40130730909681067,0.4563279273812005,0.25098859735547596,0.29187070731843673,0.3325346049036738,0.5004925606540427,0.16884898919409658,0.2588663881195903,0.10922671342033487,0.2891052257540189,0.346750251640071,0.1869520747389674,0.09175644703524134
168,110602.12690009922,103477.0,"[1,2,9]",3,0.16172649059877092,0.24019333058834033,0.34479875920220904,0.4038254366404318,0.27998326346383084,0.2386770633275333,0.27762995866615914,0.5059360472618446,0.21713258395306118,0.11766007033692084,0.255943011383936,0.22746867072938814,0.16308201969419245,0.3157860079838849,0.1987656917260861,0.0616212271511898
