time_in_hour,cumulative_size,size,pcore_ids,pcore_power,AF700 CD48_[R 730_B-A],APCCy7 Ly6G_[R 780_A-A],BV421 CD117_[V 440_F-A],BV510 SCA-1_[V 525_E-A],BV605 CD11b_[V 610_D-A],BV650 CD150_[V 660_C-A],BV711 CD11c_[V 715_B-A],BV785 B220_[V 780_A-A],FITC Ly6C_[B 525_B-A],PE CD115_[YG 582_D-A],PECF594 CD135_[YG 610_C-A],PECy5 CD3-CD19-NK11_[YG 670_B-A],PECy7 CD16-32_[YG 780_A-A],PerCPCy5-5 CD45_[B 695_A-A],_FSC-A,_SSC-A
-1,0,0,[],0,0.0,0.0,0.0,0.0,0.0,0.0,0.0,0.0,0.0,0.0,0.0,0.0,0.0,0.0,0.0,0.0
0,158146,158146,"[0,4,6,7,12,13,14]",7,0.28307589194795035,1.9135288965196722,2.0521565999835585,0.6638313413997206,2.7728794029694,0.3186404577731998,0.14390717402273756,0.6163912425353901,3.9092332903582707,0.5309037780595137,0.12771581195224257,0.11489828526171897,2.0919859169375186,1.5575787879491048,66773.95156374483,19160.263553931134
0,116575,116575,"[1,2]",2,0.3572056596440065,0.17293441073129312,0.7132170404031575,0.5056858569504463,0.311555261625565,0.23946470463650749,0.06209300943601459,2.077374624044592,0.795375571048682,0.4013373612781379,0.20488137864894584,0.7577243446708115,0.5758568908685465,0.8436493783915979,68544.98710701223,14851.384053184709
0,39557,39557,"[8,10,15]",3,1.7549559790934606,0.34318510764214327,1.8761168984503391,1.135781357661093,1.8036590822104706,0.579057533281087,-0.02551654958666516,0.8005355394241085,5.287961204767804,3.2216620218166154,0.6240131664180781,0.2470527011654049,2.3936656738377593,1.931552074348408,79927.175872791,37197.410926005556
0,108864,108864,"[2,9]",2,0.269518318277852,0.11186554060112153,0.18528649996323487,0.5313204133322218,0.2598204195877405,0.21938383799052796,-0.020444080347915783,2.991080942561351,0.6909988372005406,0.34142371647191916,0.15472804398147932,1.172960593759185,0.6288431491953334,1.2182454241898146,70587.2910052907,13502.317460317558
24,223394.0,144321.0,"[0,4,6,7,12,13,14]",7,0.320955942787182,1.7630314516705843,2.1110787466874528,0.7103945337094992,2.7079050199020656,0.3338818118190303,0.1528615518433698,0.6689857049294194,3.964918847545144,0.5546950541531984,0.10710189712570273,0.12015016596909323,1.9906107085015767,1.5003926695681102,66370.91288038174,21437.66253346098
24,181190.5,122903.0,"[1,2]",2,0.3509634359058762,0.16297810296622917,0.7718979609665078,0.5500936412228903,0.2751051054442848,0.2621326154324015,0.04630457982898495,1.9541251277081253,0.8072331306525374,0.37190255602527844,0.19376823246805008,0.6984757172920333,0.528814614383761,0.8082011025854119,70582.3994966624,16081.524450785155
24,52556.5,32778.0,"[8,10,15]",3,1.7893067960290414,0.3928138427311558,2.0852678314575663,1.204851657482894,1.812103251672014,0.6104250978090329,0.040769815493794326,0.9646996798397693,5.417365788808251,3.190380768744115,0.5839424348843618,0.2639356196474304,2.395738323918078,1.923150919515187,79958.20056510602,41842.27610286081
24,165945.0,111513.0,"[2,9]",2,0.24236734858238274,0.10016947383170693,0.17759105099279893,0.5903993992617735,0.20361778065626757,0.24344085379194036,-0.04180702866309183,3.0055156540510577,0.6755838902196495,0.3014920210672133,0.14220717591972942,1.1618933923016757,0.5629810945132457,1.2179143871795004,72737.86837807702,14102.47645906774
48,250451.0,138754.0,"[0,4,6,7,12,13,14]",7,0.2961187302166892,1.7252570543988646,2.044294207265074,0.6602769520095726,2.646730484777479,0.3288602686184112,0.12976363008832514,0.6370834135439813,3.931237889268776,0.4462068289755311,0.10258285899138198,0.09999109013839247,1.974235780977128,1.383159793699168,65095.3500045917,21266.04092616912
48,215313.25,124718.0,"[1,2]",2,0.3294239191445705,0.17216815363546134,0.7441778826395917,0.5327133848149019,0.2723022754753859,0.2682894897701378,0.030213099109103858,1.9252187685987057,0.8479967817389286,0.35004737729680335,0.1850178093847159,0.6371699121814358,0.5313902551596544,0.7569353506762773,68468.50337357356,16663.14989904238
48,66824.25,40546.0,"[8,10,15]",3,1.8037021033943572,0.38681862031747594,1.985580850724094,1.1826019897155597,1.807010659053407,0.6179587567462428,0.07739313316647234,0.8906662576347615,5.340124544993036,3.0780367777004614,0.572483943097017,0.2519760031725038,2.4171145056397916,1.8958506241184965,78627.65819294637,42053.75240275808
48,188952.5,105980.0,"[2,9]",2,0.24882243432214746,0.10830784342362287,0.18828747215569397,0.5665906578597775,0.2129586035299953,0.24984745261506847,-0.02440688691470072,2.9480812037614603,0.689078302728188,0.30058383224884944,0.13238435216788336,1.0741025679721037,0.5865384519998592,1.1393234068257796,70952.36383747254,14640.155171273162
72,289175.5,163950.0,"[0,4,6,7,12,13,14]",7,0.3268624426161566,1.6407919780743105,1.8167568998614114,0.8360409303688483,2.466391525874409,0.31687073661452825,0.1281742938617736,0.6915345321016213,3.664805702183021,0.5029700707870289,0.2066995440575914,0.12559362283500697,1.8315813148339157,1.3726923854990325,67383.17211520331,23227.86183476809
72,225737.625,118081.0,"[1,2]",2,0.3031551412015474,0.21022498784539279,0.6543800817193071,0.5865446590372283,0.2989847419166396,0.2628950672960453,0.015805176380650376,2.0052378368116237,0.8211404494083517,0.33466449634559536,0.18342452188578484,0.6070824825546888,0.5558468303783198,0.7630509175154021,68614.86301187094,17435.995049562338
72,59669.125,26257.0,"[8,10,15]",3,1.7973524415579252,0.43240720545802613,1.7162614389770368,1.4832004723150405,1.7674505601619726,0.5623673277637304,0.07784035649090626,0.8983881469415809,5.290039853523507,2.9967286292890023,0.5842992541662202,0.253833773614079,2.3858092913671833,1.9386262252274526,79636.19872086271,41456.7106187665
72,207360.25,112884.0,"[2,9]",2,0.22914859721488856,0.14509490186884522,0.11619119708934056,0.646868932896369,0.2303270701146869,0.234992251644772,-0.044908834074415704,2.955939087273828,0.6729522012783217,0.29078647649923506,0.13621371355649847,0.9892124705114629,0.6127666138749078,1.146111465052353,71381.1629374485,15677.58981772047
96,275759.75,131172.0,"[0,4,6,7,12,13,14]",7,0.35790886638958086,1.931020306378345,1.9691225336943998,0.9487980884408946,2.7714086954541055,0.32941220880834177,0.31901250153190785,0.8177406558167868,3.700284610915173,0.5474603273771367,0.18942718707249817,0.13230763838835136,2.077714625404466,1.6216441480035992,67456.22545712334,21922.249842480585
96,198608.8125,85740.0,"[1,2]",2,0.3792019988422639,0.21175606482685616,0.7050759199938206,0.671985150783537,0.30729570409041296,0.260440142885481,0.0898633824691717,2.1756091875530235,0.7983370422419455,0.38446001259606166,0.22050569221158023,0.7551015336668367,0.5933994945148432,0.8384045942321909,69476.41099258902,16865.151137238572
96,58934.5625,29100.0,"[8,10,15]",3,1.9607546535225084,0.43361116872103445,1.7222738998444442,1.7109514497085327,1.7869902063464465,0.5367892524378233,0.23606046003565861,1.0360816820212833,5.341551929895794,2.9585879326763798,0.657296252723103,0.28809046139097416,2.450529782865098,2.0940386829831334,78083.07262822226,38753.284170048624
96,196256.125,92576.0,"[2,9]",2,0.32588174232429146,0.14735687359374472,0.17382206983414017,0.7760250992641105,0.25222345369029897,0.22954086274538388,0.04128438799328249,3.135340679425596,0.6714755447482686,0.3510797924638064,0.1748533434676549,1.1962885891851127,0.6500784319285854,1.2569673829418768,71977.93732042785,14963.399934651634
96,16175.9375,7184.0,[11],1,1.543106078391885,0.7145266938199066,2.7467841770956327,2.4887019827405603,2.2003390689527156,1.7818886147093436,-0.7102819674516538,1.2685988400363195,4.482515033220665,3.15678942009931,1.6480876854548479,0.5581142029287338,2.589193620307917,2.5915458868342247,130193.72014759653,113166.93057202932
120,254579.25,157664.0,"[0,6,12,13,14]",5,0.3281640934609522,2.5005241744333055,2.207679496122775,1.0780023934393856,3.2788526202421253,0.5243754482643932,0.3749520876743313,0.9920975298591963,3.7994851222167623,0.4943824146374559,0.16846893823988918,0.11401784883722266,2.4748937596884213,2.0519444548955375,66845.78839005939,19958.512808879786
120,234803.21875,104029.0,"[1,2,4]",3,0.3678634889269752,0.48212484177226766,0.9787537456094646,0.748859466391623,0.680377590585763,0.18071999745932388,0.21968751286669264,1.7566140268035726,1.3697416816622834,0.4325242382483151,0.2620272558803789,0.6102521311491707,0.7684042117287812,0.8873953723467525,67472.36406017092,17166.657081867517
120,108439.78125,47142.0,"[4,6,7]",3,0.40108086160868517,1.3397188946290184,1.8689372958162642,0.9900458926812226,2.300784575282989,0.18414583343981628,0.4010163063194896,0.7723100758669692,3.5277784671417574,0.5181888633103707,0.25418268443317826,0.15749374339761368,1.6818601121420342,1.2296018576315149,64427.00121178996,21481.61113152372
120,65600.28125,36133.0,"[8,10,15]",3,2.062624797795281,0.4563399366651977,1.7809594655854037,1.9961726683550904,1.8928438490864914,0.5048615318941589,0.355234704026131,1.2240877626129745,5.3592639674958376,2.9275905582498005,0.7065187755969089,0.3173357983316615,2.510043406181093,2.249465968529578,75492.15228402699,36425.73852532067
120,175418.0625,77290.0,"[2,9]",2,0.31969719430351184,0.15410095127921775,0.23191389652683236,0.8494664614435621,0.277625636571436,0.22886200255908618,0.08290872475165445,3.196490376385702,0.6759992509624239,0.37242881744505196,0.20015509768343653,1.270277354457677,0.6458145973319657,1.336065203392497,71891.69731024702,14491.715800361064
144,253264.625,125975.0,"[0,6,12,13,14]",5,0.31444396557597143,2.595531310644165,2.2153303100172708,1.2066605967651518,3.359144331269675,0.49630190648529826,0.5155185214438465,1.0107874400864394,3.719773044036638,0.5196874769810248,0.11205467754015164,0.13590931461429068,2.529294032510792,2.094143919895971,66266.6974552802,18955.550902539333
144,193740.609375,76339.0,"[1,2,4]",3,0.4212971556073912,0.410409004778288,0.9721289975598779,0.885325582743894,0.5970073156814131,0.19850385862331654,0.2603166637538772,1.9226397130218906,1.2489195931392296,0.45020750078896077,0.27403713848503974,0.7143408483430476,0.7685406670951643,0.938318001449888,67560.20571642224,16677.697852936257
144,37261.359375,24247.0,"[3,5]",2,1.0293006415300419,0.19963085532976743,0.5197496022940755,3.0537594405581836,0.3557005204159567,0.4608658589918282,0.7971891065505665,2.38454811828021,4.076734180321262,0.5998832620912228,0.4982591795672908,0.9187627975042816,0.6194450668193919,2.454146163957543,67441.58034357804,19031.190699815903
144,76598.890625,22379.0,"[4,6,7]",3,0.44566868356265954,1.2922304870134078,1.9575584930625909,1.1016026747960015,2.363161887653377,0.12950428864198793,0.505438767540701,0.8100965616836424,3.5052967143237495,0.5475919632325784,0.24068084011805535,0.1777317065045998,1.7488948604846835,1.2717807637579968,63836.51720151775,21251.603629213754
144,69212.140625,36412.0,"[8,10,15]",3,2.1109355702476726,0.40830846968796264,1.874020144794868,2.2922045619482456,1.9861224298349591,0.49674120271122635,0.5900153235137271,1.203290581897781,5.293948013190169,3.130932692894375,0.7199096523505464,0.36838666221537597,2.4717483886894884,2.373731286712712,74100.7077181412,35635.28426845272
144,172328.03125,84619.0,"[2,9]",2,0.34651113258572486,0.11374508692070373,0.22018670513175653,1.2369451284587685,0.282574130288757,0.2397794693740094,0.15363141841812578,3.447330908753372,0.7427131827146661,0.4021799322023456,0.20743951991015708,1.4826590829940571,0.708017665809047,1.5120923371332566,71859.52045163873,14222.098263540664
144,18052.984375,9714.0,[11],1,1.6346061006594057,0.7315749064247568,2.719001227334289,2.684229978608975,2.483597485806094,1.7501380958999986,-0.44822732633194695,1.3711198617126348,4.6846011015587505,3.165032365101516,1.6368748749393065,0.634303517038822,2.6050258760817906,2.8230159070833865,124143.20045075608,100141.22592957676
168,238100.3125,111468.0,"[0,6,12,13,14]",5,0.34523331493549825,2.343911595861603,2.1465964733953347,1.308669828356491,3.180535461069374,0.5764209372820155,0.4504316635158325,0.9670809791906612,3.6203120347795443,0.5934653212830147,0.13785561994737483,0.13130072295431183,2.351943756400122,1.8986593855572556,66241.2271487464,20600.30222555894
168,221672.3046875,124802.0,"[1,2,4]",3,0.3351457112082479,0.5059469479846728,1.06645480631169,1.137732852963227,0.8656021263875346,0.14285300264336942,0.3447126351972485,1.6122577349639915,1.7129056583584994,0.49917915145069036,0.26221784762727296,0.5700757327662853,0.8936037944681022,0.9582781140552425,65988.62018925356,18425.50648922058
168,46792.6796875,28162.0,"[3,5]",2,0.8277344222461991,0.1889230437844036,0.5259741145070866,3.171984287669876,0.3673636189538012,0.47540403598052805,0.7793027728063429,2.4178182177998595,4.021209360807638,0.6197281571728533,0.521507090357852,0.9487918124927013,0.6399453423248435,2.3564043609037975,70802.08013573178,20466.558282103022
168,100753.5625,57121.0,"[8,10,11,15]",4,1.8629108715077856,0.4491807686961429,2.193424069041219,2.656623105081581,2.1357424243993877,0.8104420111380926,0.5079746817151936,1.1550530460736677,5.01476284925361,3.0755043918549347,0.9304770526446093,0.4327271951685814,2.440567228702051,2.3936096183838447,85504.24736098046,51651.51970184662
168,153801.015625,67637.0,"[2,9]",2,0.26914750907290275,0.10331211249243566,0.20326574160350264,1.4815862371051352,0.2967712400073266,0.27120304515671934,0.21185052517154057,3.536916154446728,0.8428460012734061,0.422311111616525,0.20868809240529673,1.4553435370895198,0.7288321807500756,1.5503357293593425,72296.72983506968,14731.825585108178
