time_in_hour,cumulative_size,size,pcore_ids,pcore_power,AF700 CD48_[R 730_B-A],APCCy7 Ly6G_[R 780_A-A],BV421 CD117_[V 440_F-A],BV510 SCA-1_[V 525_E-A],BV605 CD11b_[V 610_D-A],BV650 CD150_[V 660_C-A],BV711 CD11c_[V 715_B-A],BV785 B220_[V 780_A-A],FITC Ly6C_[B 525_B-A],PE CD115_[YG 582_D-A],PECF594 CD135_[YG 610_C-A],PECy5 CD3-CD19-NK11_[YG 670_B-A],PECy7 CD16-32_[YG 780_A-A],PerCPCy5-5 CD45_[B 695_A-A],_FSC-A,_SSC-A
-1,0,0,[],0,0.0,0.0,0.0,0.0,0.0,0.0,0.0,0.0,0.0,0.0,0.0,0.0,0.0,0.0,0.0,0.0
0,127642,127642,"[0,1,9,13,15,23,24]",7,0.2988365452750681,0.14051355821750944,0.3942501826514855,0.5394249347315174,0.3034619403487806,0.23208908687579166,-0.00020468989830924045,2.5583286153382057,0.7806735487457125,0.3772074472038971,0.17467857099544926,0.9949660125507298,0.624720831254603,1.100732502585353,69735.23874586739,13853.040221870502
0,166154,166154,"[3,4,5,6,10,11,12,19,20,21,22]",11,0.3166095367911703,1.785830576386966,1.8844383346594067,0.7216284728083684,2.540389138780887,0.2735997716515961,0.19035286079179592,0.7189899383764442,3.820272206055819,0.6184958816700153,0.16812036504687722,0.16257346145142515,1.9773736971664877,1.5590816386484823,67303.66671882704,20217.26696919722
0,26930,26930,[16],1,1.9333722570738792,0.29133522992944894,1.6125239221685725,0.8897074084292558,1.7146050025250963,0.41677513457111637,0.05455543765319204,0.7887307707389448,5.6609583932046155,3.1913041774229263,0.45321292205719255,0.1934067824359429,2.416655029632389,1.8466537053100727,74067.19762346841,28201.173412551
0,13977,13977,[18],1,1.2656275722258086,0.5386663111540497,2.74394600364885,2.1034504862273384,2.099295474136093,1.558576758174149,-0.6708515911139792,0.9904306145095418,4.286839592759555,3.1964635031122426,1.3145007984545911,0.47519828389496865,2.3575103375545594,2.398639305788087,110920.35658581939,87357.80210345544
24,156758.25,140803.0,"[0,1,9,13,15,23,24]",7,0.2831205983098164,0.1323547406516088,0.4523763932982776,0.6240590736364755,0.2598654042243358,0.26888156850039024,-0.005441091416247712,2.4823351178255377,0.8035194418770591,0.3472012344358313,0.16589717755763633,0.9458468571558434,0.5561516653948059,1.0830123605033535,72446.81988986215,15192.91255165197
24,170964.25,150195.0,"[3,4,5,6,10,11,12,19,20,21,22]",11,0.36072340719185503,1.5926800638240146,1.9775384156753497,0.8012291905288658,2.450765189761158,0.29150672815735357,0.20698926732343326,0.7876252862257807,3.901060686819745,0.6409568382125214,0.14310269194144132,0.16856543044086647,1.843177747569305,1.4895020466881148,67210.7643089125,23498.134422839852
24,26632.25,23266.0,[16],1,1.939399579433774,0.38677821471149,2.0137586843770134,1.0398662884519703,1.7446093107698584,0.5073750442320948,0.10426749305823702,1.054760410554862,5.799613826962663,3.1099351627162655,0.4334233690309719,0.23061831799322685,2.4335257492889473,1.830107306160756,74739.78984126385,37209.52904842782
24,11424.625,10213.0,[17],1,0.8795435061654062,0.35808205574580576,3.2714664110419602,1.1837641428602703,0.5131389638281307,0.6103123763580909,0.08778488045558897,0.9416152311016845,1.734703887184498,0.9002701010645849,0.5634054942175339,0.2936994401566758,0.793996574077923,0.849921444347189,68959.5290873877,35518.162565511004
24,18134.125,16387.0,[18],1,1.3122014295768387,0.5638530578605305,2.8723765667009036,2.164147690045715,2.0817457205820413,1.6072040689928582,-0.6181712549750813,1.0802987106560145,4.570643124082351,3.29400060768715,1.301527014041202,0.48272734519862615,2.3240430431851493,2.38153064794277,115025.31850861287,94848.27307631313
48,132238.609375,116506.0,"[0,1,9,15,23]",5,0.27201496372962053,0.1627567410709143,0.5295622728532514,0.5079522646539192,0.25338807919443695,0.2704294060037824,0.01168155632225254,2.143964426906434,0.8251936769194791,0.32262474502470617,0.1569316174372699,0.6783423318260806,0.5354442348656975,0.7588054258400829,68237.4876645214,15933.501387820363
48,122672.3125,109208.0,"[3,4,5,10,20,21,22]",7,0.20384593360283576,1.5869141797162136,1.69356411361697,0.6317471340544252,2.175660291701169,0.14603060165764492,0.24740065571655423,0.5390674475152823,3.698875190434934,0.4429677736552444,0.12837371785542118,0.11499405465704748,1.6762654729092836,1.1475991526397553,62634.02492718153,19818.531349525158
48,30612.3125,24262.0,"[6,14,19]",3,0.5814129154614001,2.155431261502212,2.195640897303886,0.7146744096860478,3.291165997320826,1.2593139557418696,-0.5899516727736192,1.0824110689367306,4.178418079083264,0.5196051732452448,0.15304180759477948,0.05575295445817385,2.4698730917829197,1.8378049590748773,69250.48478451272,22891.436803410346
48,27785.34375,24807.0,"[10,11]",2,0.6789480766444982,1.0511436828532674,2.3248453089123067,0.7313463255802617,2.0975679107021477,1.0528383826713943,-0.29938227611454016,0.7374231513483451,4.199826971398469,0.6014955187958805,0.2578275109151531,0.1148875337790497,1.7718789248794593,1.063086018001851,63678.338656508386,27160.592677569533
48,23106.171875,19244.0,"[13,24]",2,0.12395782269551048,0.06385163686244244,-0.2758618279876539,0.9895166419152135,0.2568329961556546,0.20176501239996192,0.013527070959119758,4.028156596814304,0.7488811904212566,0.3019041730584697,0.14557703580482828,1.6951841807458101,0.6990966367393728,1.9562649216125372,71936.48108358489,13850.890650833886
48,29051.03125,25722.0,[16],1,2.065838369960522,0.31464427850882215,1.714106868142618,0.9099491418597534,1.8561806028346646,0.4589301555248093,0.10026850977106072,0.8118196886039981,5.812484010146496,3.1861860939327453,0.37063592749343943,0.1835025140259653,2.605195091071405,1.8533874910916663,71690.37704986797,31915.819201771053
48,14071.765625,11805.0,[18],1,1.2542743550449658,0.578215532431404,2.6612131250909,2.0778186687726774,2.0201371573374325,1.4422943070410412,-0.4783332629689556,1.0340323101456335,4.250733728008121,3.0909532513077456,1.222730540570491,0.43831394074570507,2.3041248669399037,2.3501428745293476,109335.82089134614,86690.21852046411
72,163928.09765625,144510.0,"[0,1,9,13,15,23,24]",7,0.26572339436586145,0.2500476238499232,0.3818167252711877,0.7367397255945152,0.37384963096236534,0.251804664392697,-0.01561345803343972,2.4376908505555877,0.8921378123154949,0.3472869762964138,0.17870236389147065,0.7578614884901309,0.6539993790423423,1.0341203027858437,69964.11785702623,17759.74719632814
72,167644.4140625,150295.0,"[3,5,10,12,19,20,21,22]",8,0.3202131300274704,1.4989512715690019,1.5302417269998263,0.9587770391183259,2.159637908395514,0.17368068239865941,0.20161491946149157,0.7725137648761695,3.414511762574061,0.5670824503819111,0.2676869738928298,0.18081332536732053,1.6500568538179525,1.3467322877046553,69342.61672918667,24994.281495641477
72,21312.048828125,18614.0,"[6,14]",2,0.7085062122265393,1.7193956236210655,1.9033350613190216,1.105531594998209,2.89722212296943,1.4301189118733155,-0.5490927414593396,0.9975576844945979,3.8568949685350824,0.7623459795774673,0.4461870674928945,0.13780855478355714,2.1682431737788685,1.7666818698638054,75471.33719271337,29382.78721112946
72,19214.37890625,15583.0,[16],1,1.9571159459213219,0.43325379454453605,1.292501243896743,1.6574254303973572,1.7742664621459747,0.4702666908622053,0.007015576667940504,0.8760551497399458,5.481938837330823,2.987698798644034,0.4823629920706667,0.23075808691559951,2.4298399746970807,1.996636473676429,77804.75581824422,36213.85942371859
72,14109.970703125,12351.0,[18],1,1.3649709577313052,0.7041139191336896,2.43033043883016,2.282379099883251,1.9876927571394103,1.501579656411123,-0.5274709010022338,1.126037860596821,4.425328288280738,2.7878793724261746,1.3239394002811373,0.44720566295332387,2.33907774209477,2.3263641300251,113343.47174766274,91831.14082143533
96,116781.91088867188,98097.0,"[0,1,9,15,23,24]",6,0.42600720081389043,0.22093942747502338,0.525258810342605,0.8129772899834906,0.36533094320360204,0.1988526732802145,0.14268032912914475,2.66246588375704,0.8622076026306263,0.43374658605295957,0.23403665452763267,1.0517452541772367,0.6869697949024508,1.1164004547805404,71130.32303781366,15599.587431790324
96,99973.74047851562,79650.0,"[3,5,10,12,20,21,22]",7,0.32474789942206805,1.8801952521289724,1.888916506813684,1.0931979595850354,2.694063531626701,-0.15803280661009134,0.7338175304584253,0.9120739904413879,3.615429759103781,0.6113479600721442,0.18476939480438626,0.20004708412740257,2.0570276378967915,1.704594875985731,67955.30627997126,21826.509295491363
96,57902.8173828125,54607.0,"[6,14,19]",3,0.5930653260060585,2.4741476605373594,2.1084879470987468,1.175426962698309,3.2914566945828354,1.1947265544281505,0.07882900603032938,1.1801240192550382,3.8631813043441334,0.747073229238547,0.2749073337249137,0.1585525181713464,2.549809957433367,2.1612111706595614,71405.44881099186,23200.378856511004
96,13454.101318359375,11648.0,[13],1,0.40530231676066175,0.1078150538741216,-0.42294690450821637,1.5343538623442972,0.26403984736745256,0.602179345402976,0.04875606652528219,4.031291717392174,0.716488310699129,0.5057697147444958,0.2575611967828517,1.8228161902210829,0.8122549205815829,2.142797745422767,73375.93282659407,13909.044595867063
96,19033.79736328125,16632.0,[16],1,2.197323828992313,0.3904404014883931,1.5589162630191065,1.906880940404553,1.8293145866788936,0.5389199218302172,0.18965170473583637,1.205013173513176,5.640559685598228,2.988975993388091,0.6251738665903619,0.2910644296023336,2.5120136319545265,2.267628606058995,75714.01785306013,33569.348453333194
96,9997.746337890625,8234.0,[18],1,1.5351444312862947,0.6073119169185719,2.636166525196264,2.398936173865493,2.1125120642651205,1.5805221538937329,-0.40079110017028885,1.217858802219097,4.48882976929853,3.100865306324444,1.504116780983233,0.557968072482107,2.535749288575174,2.6017309416373995,114613.17205818453,90007.25322642874
120,102272.48327636719,88517.0,"[0,1,9,15,24]",5,0.3545110170390491,0.2234661242726066,0.6206502291501743,0.8280751657227965,0.3782911477513835,0.17797072229314037,0.16936764142865535,2.5160248614633183,0.8185171979127425,0.4218704091244162,0.25648795486444875,1.005143901404448,0.6278539421878736,1.1338431981858719,70059.91863864513,14725.3789754787
120,122315.71755981445,109819.0,"[3,5,10,12,20,21,22]",7,0.25354945635711634,2.1215677952529637,2.129320378040203,1.1878850415511453,3.028828324035867,-0.3311596560890272,0.913336697910053,0.9690028192594262,3.740682087705706,0.5027054698977788,0.15059152830918432,0.18198596632619335,2.2607330380521584,1.9353124195534461,65891.30958848576,20027.772806748704
120,27921.37319946289,24707.0,"[4,16]",2,2.1519411127488084,0.38515860097153265,1.6318927167415942,2.104845142204302,1.7528995401495355,0.40437939411442314,0.28601989039293585,1.3431466909896868,5.582128142396187,2.9104174802442357,0.6411090651484677,0.29294884717815073,2.468498838872293,2.219633602415686,70500.95580552275,30834.166521186122
120,95724.85217285156,88487.0,"[6,14,19]",3,0.5605609460809811,2.580038805741002,2.2750446940371822,1.2519252669578167,3.4367883275356674,1.250626470759742,0.1363106982815725,1.2323086590616494,3.9279434413104624,0.635238045066098,0.2843261183688055,0.13926627051964968,2.6478405379418737,2.255370396777463,68658.65753401529,21835.129008539338
144,58355.24667739868,51290.0,"[0,15]",2,0.4917365266525138,0.13127548188003368,0.46363874430485996,1.0708571279917733,0.2917691647224676,0.20142649959517778,0.24279110449007701,3.1942016946305527,0.7089836769799641,0.42531413959619,0.2184691505695473,1.3400188181873363,0.7443136640493832,1.3149898249353862,70407.60890940286,14377.83195213334
144,27045.908000946045,22446.0,"[1,23]",2,0.43777239937335977,0.390463286063206,1.2206038318791204,1.16474383428988,0.5096567623688277,0.33208600968320257,0.26454143931609186,1.2000426591630071,1.3580829232838108,0.5349850126174526,0.3841575800888304,0.4355930575724012,0.6608803842960002,0.6892060135253011,67371.00738826787,16803.093487509654
144,31745.17164993286,28255.0,"[4,16]",2,2.1494314391330533,0.32837781968208946,1.800362463084182,2.4246831282130965,1.9659283324537218,0.4263154218661833,0.596979510419696,1.174005535537002,5.436043156857477,3.3104846913070536,0.6655264735902269,0.37346929838782816,2.3980108308056627,2.4081474238162164,71879.42022831779,33642.77306857186
144,111069.73258590698,96081.0,"[5,12,19,20]",4,0.23558926451253304,2.511686750900365,2.205851714137434,1.4372321450337875,3.3817914329386682,-0.13709074454449444,1.1439243675215227,1.01065618645835,3.7216098844368672,0.576322556391525,0.05119596204314458,0.22028859260168332,2.532543615900639,2.1782322629144835,66519.13295177306,19067.363023821956
144,51594.3522644043,43055.0,"[6,10,14]",3,0.6925123130439605,2.4232871409084327,2.1759801544594803,1.38832450958654,3.321019772057458,1.5005197420806502,-0.21786757428680614,1.2873981282577431,3.7712366683731378,0.7084761899337645,0.22883013512015715,0.1730235156432286,2.5392500035785033,2.1535816501252243,67795.61326372079,21128.570211369843
144,30527.85404586792,27633.0,"[13,24]",2,0.1970935895783621,-0.006452174166593494,-0.22279781266084875,2.53597965889993,0.40875875732558686,0.22122787981332714,0.3354329947449042,4.270016055756815,0.9974217663149717,0.5177420047513123,0.2277632947645638,2.1718929403391942,0.8569766577061598,2.3942940155149417,72235.33875552265,13312.58675810594
144,11778.339786529541,10431.0,[18],1,1.6030072086830642,0.5786754925981414,2.5264019301787797,2.677135647089321,2.372876925574793,1.6191246894520719,-0.16961705535238147,1.3574440078004049,4.7856075097500215,3.115632402335986,1.4226985724801717,0.6189193609586792,2.506916391047878,2.7722239512905116,109402.62206395573,78209.63026575232
168,70280.57784128189,60444.0,"[0,1,15]",3,0.29241527352658636,0.2297310631364038,0.7017532278153236,1.2774419445024092,0.46827738612036995,0.2416440779125013,0.2616194680636159,2.237186416217776,1.0349022052107366,0.41823557011737844,0.23543137343562082,0.8041928263396931,0.7047570750580735,0.9958760320101565,68559.1049879809,16438.12280566473
168,120184.86318445206,115649.0,"[3,10,12,20,21,22,23]",7,0.41556015224921383,0.9587611867755639,1.5814964096780755,1.6425744423264406,1.9016536066797882,0.32494999538289093,0.43534323256853114,0.89730414112702,3.546701449388403,0.8261235235497862,0.32649677863149895,0.23499748502292017,1.498501176439166,1.25933332266044,64365.45764484055,25550.809759848904
168,36527.94207572937,32215.0,"[4,11,16]",3,1.8719221063079263,0.33335163382581623,2.1712138475799505,2.7059446019503866,2.1208816762855833,0.5470744894391331,0.7624351021805658,0.9969201807332655,5.0754992610308145,2.97898446879992,0.6953363130240762,0.3714826215790207,2.3943161538889677,2.2610943263116163,73283.04752202774,39496.09831053149
168,65041.03641796112,52874.0,"[5,19]",2,0.20795884098622186,2.4772738604382694,2.186989577318481,1.5093526175450824,3.3489060171484737,-0.1753848401521334,1.1346994099050316,0.9289343109450181,3.469355568194417,0.6424529985774624,0.052273511898386804,0.2050627619549823,2.4104494684432347,2.007171864959386,68612.5534445748,20980.00120937023
168,34410.92579317093,28304.0,"[6,14]",2,0.7285878746930419,2.2101586833627413,2.212966622227046,1.5495886386793893,3.3065106065083607,1.527888078200976,-0.15129726514414532,1.2055877059129472,3.6058605488271165,0.832302718269755,0.2780857341826364,0.1586931430650509,2.417999403102615,1.9770561185253468,70207.27514632791,24642.360307645762
168,27906.98175573349,24091.0,"[13,24]",2,0.07604239299604565,0.03158203835189877,-0.20031824058445213,2.4442997933755053,0.4062865435500318,0.2679655770975917,0.4263645936835454,4.227383280465988,1.031503493104029,0.5431904652029779,0.227112764215188,1.9179214692661866,0.8380872130355356,2.2448359854320667,73741.73591479514,14588.599790334136
168,15056.292473316193,13584.0,[18],1,1.5283087475749209,0.5304815930880848,2.5335533244308643,2.798859885256618,2.131483995246866,1.6057749623613475,-0.19162157676298763,1.2750336073542345,4.751039747708552,3.10247321047761,1.3823140201311332,0.5614132814376318,2.2587883647349503,2.5117458226754485,111240.07613389041,79756.48215583747
