time_in_hour,cumulative_size,size,pcore_ids,pcore_power,AF700 CD48_[R 730_B-A],APCCy7 Ly6G_[R 780_A-A],BV421 CD117_[V 440_F-A],BV510 SCA-1_[V 525_E-A],BV605 CD11b_[V 610_D-A],BV650 CD150_[V 660_C-A],BV711 CD11c_[V 715_B-A],BV785 B220_[V 780_A-A],FITC Ly6C_[B 525_B-A],PE CD115_[YG 582_D-A],PECF594 CD135_[YG 610_C-A],PECy5 CD3-CD19-NK11_[YG 670_B-A],PECy7 CD16-32_[YG 780_A-A],PerCPCy5-5 CD45_[B 695_A-A],_FSC-A,_SSC-A
-1,0,0,[],0,0.0,0.0,0.0,0.0,0.0,0.0,0.0,0.0,0.0,0.0,0.0,0.0,0.0,0.0,0.0,0.0
0,191028,191028,"[0,3,4,5,6,7,9,10,11,12,17]",11,0.18046553516464023,0.38042852368666474,0.4937216768856019,0.3120487549714913,0.4828765744718081,0.2431365206451674,0.26499102085717186,0.3279505650976778,0.5479824154115297,0.14893589428612336,0.252992950404173,0.10594029715654854,0.3143887987970498,0.36960107979721946,0.19831047024001808,0.0845616268698123
0,133366,133366,"[1,2,8,15,16]",5,0.17318412247836662,0.23740651358504256,0.3460366100807664,0.2880863670874272,0.26713660873566514,0.22629203027588427,0.2525666465476756,0.47851017981635546,0.17950110722196433,0.1110377344700737,0.25032176953643986,0.20827188928765722,0.15017161337953314,0.2704601169299483,0.19883828697622014,0.053785222094798066
0,35634,35634,"[13,14]",2,0.32482093733709955,0.26008011211653864,0.5026932838998989,0.35446909053978803,0.4212193110015566,0.3110427968725414,0.23598304055938754,0.33507854429288075,0.7401064290972603,0.4245032114909339,0.29815944433957836,0.11423528697370332,0.37195206354231575,0.43295312317208706,0.25762125178665873,0.16069016388701562
24,239074.0,189660.0,"[0,3,4,5,7,8,9,10,11,12,17]",11,0.18758368453115118,0.35750390665787696,0.5030652387170336,0.32040696778613875,0.46302307229529716,0.24969945874038826,0.2644345709910265,0.3360553059863906,0.546825762697307,0.1533492571780818,0.2523730204730204,0.10897699441916577,0.2928846554710473,0.3525082549108,0.20080930806452565,0.09803583740677875
24,169873.5,138189.0,"[1,2,6,15,16]",5,0.1703521029743279,0.23510412503859068,0.3396694002303043,0.29562843459861876,0.2611817801786688,0.2306067787478376,0.2515958345434657,0.4801931509878522,0.17588967000121106,0.10586557370727603,0.24788424345572363,0.2083553438633017,0.14079625344547855,0.27577733382793407,0.21045795620244123,0.056837667854936096
24,81624.0,68585.0,"[9,10,11,13,14]",5,0.2721215193387213,0.31257357364497246,0.5352184017562642,0.35286156034720834,0.4592594325286064,0.34432201133131224,0.23151423992502118,0.34785748828633384,0.6930583300916391,0.3087044244777382,0.28252731295538575,0.11234985061883422,0.35187311948678185,0.41561926872131344,0.24783365741024177,0.16233725741753838
48,233703.1875,187893.0,"[1,2,3,5,6,8,15,17]",8,0.17587840304409008,0.25907839242757724,0.38604550404472965,0.2956812883865916,0.29251982422758566,0.23626603261604723,0.25818790744315834,0.40512916876932903,0.2867766386703471,0.11173985455696611,0.25121571738102405,0.149433382805068,0.15931297884626203,0.22562945893276098,0.18625412790347368,0.06795054449733191
48,176310.3125,133899.0,"[3,4,7,9,10,12]",6,0.17345122009549843,0.38032699310284457,0.5041258110509346,0.30429952833153534,0.4939776711755217,0.23986263195969912,0.26513226576080945,0.3178490144720252,0.5667027981783029,0.11956375734331315,0.24378749348041415,0.09280268290673137,0.31247847886614594,0.3250328782146049,0.18396651876866363,0.08534299101050642
48,22063.6875,15049.0,[13],1,0.35753039934366265,0.25256429839130795,0.48742803755745556,0.32942549176534125,0.4169289504095847,0.21100813173774552,0.2844180028581919,0.3246172679845945,0.8029788788529575,0.444508693881852,0.2686307018161097,0.1042151904328508,0.39131247971794886,0.40771718440180077,0.21318703218177684,0.12878405078830854
48,14999.1875,11749.0,[14],1,0.27264137994151644,0.2766840532965873,0.5762946661633338,0.4468062757320505,0.4368200260535765,0.40659412900863284,0.21049599200254193,0.34858023575930724,0.6108130564977998,0.4240578823701641,0.3544355009560773,0.1390040318482555,0.3563603745823159,0.5091344904295916,0.36169388825907206,0.3227729093796969
48,144276.125,109135.0,"[2,6,15,16]",4,0.16626515976577683,0.23201356233241704,0.31108174375009623,0.2919539002611519,0.25272431008102464,0.22961693850338752,0.2508492842222652,0.5173715332856627,0.1601263231432465,0.09820419614215059,0.244655224029554,0.2195725745760025,0.14098341926011582,0.2788369217269304,0.20361744899049503,0.05553217276975019
72,269540.25,213282.0,"[1,2,3,6,8,15,17]",7,0.16929899450731856,0.27775002272103533,0.37260147270314414,0.30701530889316275,0.3136889072110544,0.23439975375301417,0.25419754714221593,0.4104290061850371,0.29010276323916023,0.10919764299807137,0.25174124174849893,0.14353819565039133,0.1732059032767804,0.2431467887311997,0.19124458885697074,0.07250735099241191
72,232316.75,182990.0,"[3,4,5,7,9,10,12,11]",8,0.19227800915364093,0.365896936701286,0.46989486925349905,0.3374676625955949,0.4704667046612892,0.24766691043236055,0.25985591082145476,0.3226948821932972,0.5495389085924786,0.1544099691983389,0.26152322639053255,0.0974116889364263,0.30146432036072673,0.3429785269245943,0.20474686599866104,0.10276157116555636
72,28546.71875,19281.0,"[13,14]",2,0.31819808627247537,0.2748805874081356,0.5054958359878121,0.4276929210920624,0.4192968526046309,0.3003845697726034,0.2524923355040125,0.34184781082156157,0.6971810986021281,0.4100156211389397,0.3224554137634573,0.12422942257035591,0.3662585943924459,0.455073916837274,0.30408786076109356,0.23732632662917227
72,164276.03125,128207.0,"[2,6,15,16]",4,0.16454399121419158,0.2388898047629875,0.30921591849502933,0.3055309345980636,0.258339571162522,0.22754480055514126,0.24844816222556806,0.516886432894192,0.16888568359063072,0.09855920702112192,0.24693453799008905,0.2043450899358213,0.14780011126616782,0.28005801057637275,0.20614286888074215,0.06310083882401939
96,198562.0625,131177.0,"[1,2,3,6,8,15,17]",7,0.1840725024336693,0.2760407800714421,0.3826105434942944,0.3227531440316292,0.31460457732953795,0.23410985641650703,0.2676192623276559,0.44602526430694023,0.26966771957555674,0.11950679017517199,0.25677345407001273,0.18059548271415118,0.1849072258375005,0.28234912540897067,0.19756467845507744,0.06718450535177979
96,188816.28125,133804.0,"[3,4,5,7,9,10,12]",7,0.1903162060704202,0.4029791655974927,0.49312785872738496,0.3511793195866019,0.5083119650159837,0.2430540997292453,0.29213130304881446,0.34908056218253597,0.5464683590936071,0.1470521151726466,0.2575158502102113,0.10433600168946947,0.33545616893823166,0.4056524904548693,0.20021444631046983,0.09058102430234537
96,85301.5,64455.0,"[9,10,11,13,14]",5,0.2790157840667899,0.3451450280876962,0.5076510392344905,0.3985002970981294,0.48497089884801475,0.3446640365966973,0.2580012400302263,0.36483998204551893,0.648644329047059,0.274938151655307,0.2920858477634585,0.11347346594108147,0.37362102463438995,0.46493828970593143,0.23949890142977828,0.1403315219305791
96,143282.0078125,102213.0,"[2,6,15,16]",4,0.18263742067508196,0.24137136439206133,0.3289549253208866,0.3244162985162518,0.26820601356403906,0.2270705172407518,0.2628197876499641,0.5224410531744206,0.17528400559153692,0.11317619936098858,0.2534694266867412,0.2370058469799206,0.15878609097626376,0.3100405221919232,0.20756253410275136,0.05788880699503666
120,255599.630859375,205599.0,"[0,3,4,5,7,9,10,12]",8,0.18542132849128803,0.43529047753631267,0.5200897393899995,0.362722151076632,0.547009200912204,0.24791472731267258,0.3035107043930793,0.35939904971263625,0.5561489604615023,0.13741958679681188,0.2552612085765311,0.10277030663538962,0.36762776257843033,0.453524255119816,0.19241232677044454,0.08288571775514784
120,140534.912109375,102707.0,"[1,2,6,8,15,17]",6,0.18606157427033207,0.2538466372532928,0.38504895333840616,0.3277150196180122,0.28374540907944823,0.23068106083538198,0.26967899703337794,0.4560924654712285,0.217088355856572,0.12000943289811274,0.2626053695172109,0.19283013306929436,0.159184551520563,0.27558819425102216,0.1963966904072471,0.06246700128141439
120,59037.435546875,47191.0,"[10,11,13,14]",4,0.3217991436453258,0.28898254502404824,0.5248935882270112,0.44043608981750587,0.46603099734699893,0.3195360976159047,0.27150641215672,0.3762179700734864,0.704797945824492,0.3321149533274466,0.30404748038584806,0.11957348242126234,0.3817223956641406,0.49093482985613507,0.23372766196827133,0.1492069118771298
120,113813.78515625,78371.0,"[2,15,16]",3,0.17873181751679276,0.2394200851979678,0.33376006116523105,0.3299239456595347,0.26898530139348864,0.22583838941194367,0.26545484269073766,0.5230128568090221,0.16734610497434488,0.1132426355679945,0.2555129193465432,0.2412689060303182,0.15405453683519982,0.32172717533058404,0.20351184799500835,0.053814512419211404
144,233204.517578125,166633.0,"[0,3,4,5,7,8,9,10,12]",9,0.18852275769816562,0.4339797231231237,0.5165989415655653,0.39015427153553445,0.5450534282615398,0.24928160114083545,0.31783904181533357,0.366413528482017,0.5386222926359936,0.14795794529913076,0.250399286127068,0.11396872133409454,0.3672081174986201,0.4639387926709615,0.19049055186578484,0.0795170348426549
144,111275.17919921875,80324.0,"[1,2,15]",3,0.18756294242007907,0.2438281351117391,0.36836505787133644,0.35875757585666657,0.27276354227492783,0.22884395658297335,0.2738571734362668,0.49382711240042637,0.19600545354885146,0.1187228007173652,0.25882612878466754,0.2273396954477578,0.1609626996233946,0.2907929730638451,0.1980577497160506,0.05771564202791769
144,47021.91162109375,36280.0,"[11,13,14]",3,0.34957102204148155,0.2570938099809369,0.49438243215945993,0.49142144461535675,0.42906631906140114,0.29687961734286095,0.2920656328547703,0.3804047122799701,0.7270768827697474,0.41634011399174137,0.31683836395648973,0.1390188633869344,0.3636815330511267,0.5266364468788792,0.24154148466617176,0.16034901195066334
144,116386.4462890625,87933.0,"[2,15,16]",3,0.18265537557840628,0.23221378753317737,0.3247364002508699,0.3855180013908281,0.2653851629592765,0.2283641210441328,0.2741119308842447,0.5589500180740397,0.17683907201334437,0.11669358061948581,0.2548669418073575,0.28100992739410907,0.16305701431360656,0.3614382748248149,0.2043059882209237,0.052717333903913546
168,268901.12939453125,210600.0,"[0,3,4,5,7,8,9,10,12]",9,0.18836749932457064,0.37507329716478843,0.4904901597689732,0.41023928866283477,0.4894448077184059,0.25239936561192894,0.3078922170401066,0.3583052882987529,0.525029878788388,0.16426543201064098,0.25938240414967384,0.11431399267889382,0.3149390394773624,0.3916377435370613,0.19257654115392436,0.09480913773679757
168,109150.65209960938,80367.0,"[1,2,6,15]",4,0.17669088671301267,0.25312625406807043,0.3831136199824091,0.3827366162004188,0.29669472642848616,0.2349151939673431,0.277035360472476,0.4512438962787017,0.23775911582102438,0.12167364009367516,0.25863758092537786,0.1926114509050296,0.16962262761698024,0.2847771798149392,0.19447038248349385,0.06600891067451865
168,78926.74420166016,63969.0,"[5,10,11,13,14]",5,0.2922759775186806,0.2667296563978983,0.5008928835393647,0.500707929020622,0.437703794586176,0.3044873428253607,0.3006025577513809,0.369447440104152,0.6784464560380088,0.3401534880752804,0.30571127324050634,0.13204617420205508,0.33679754148390845,0.4661390433302119,0.23303180303587187,0.15954231095185722
168,97408.46887207031,67347.0,"[2,6,15,16]",4,0.17107620943683974,0.23195917932870597,0.3257517339820998,0.4150402190046402,0.2674150277303615,0.23635639869298325,0.27906545397720994,0.5545600010484982,0.1908058682906719,0.11975969136891106,0.25571506821005596,0.2673859880701753,0.16368773763667255,0.36455216072941243,0.20926773672349946,0.05757774850180228
