time_in_hour,cumulative_size,size,pcore_ids,pcore_power,AF700 CD48_[R 730_B-A],APCCy7 Ly6G_[R 780_A-A],BV421 CD117_[V 440_F-A],BV510 SCA-1_[V 525_E-A],BV605 CD11b_[V 610_D-A],BV650 CD150_[V 660_C-A],BV711 CD11c_[V 715_B-A],BV785 B220_[V 780_A-A],FITC Ly6C_[B 525_B-A],PE CD115_[YG 582_D-A],PECF594 CD135_[YG 610_C-A],PECy5 CD3-CD19-NK11_[YG 670_B-A],PECy7 CD16-32_[YG 780_A-A],PerCPCy5-5 CD45_[B 695_A-A],_FSC-A,_SSC-A
-1,0,0,[],0,0.0,0.0,0.0,0.0,0.0,0.0,0.0,0.0,0.0,0.0,0.0,0.0,0.0,0.0,0.0,0.0
0,132879,132879,"[2,3,11,15,16,21,24]",7,0.34691891936273334,0.17528950205073457,0.5975145017873449,0.5751076491996505,0.3675849226815364,0.24874172937033023,0.009262818428785735,2.3885942580317545,0.8932274440129812,0.42356595857133217,0.1981830569616041,0.9378878629429828,0.6636747981246086,1.1121268781899234,69618.75053243907,14936.941789146473
0,169375,169375,"[6,7,8,9,12,14,17,18,19,20,22]",11,0.3783210523158662,1.6882727664177049,1.8722129581225153,0.7737512970095954,2.4765241621077396,0.3442083118051624,0.13010471394242407,0.7883297593682608,3.8227529479143905,0.718140746544648,0.2050535945623686,0.21008918235276663,1.9658314127055272,1.6323821490774928,69245.70752472314,22416.674574169734
0,25703,25703,[23],1,1.8777111410730087,0.32893596292261185,1.7476718588880398,0.9165285690775309,1.723741113722145,0.5021639916352161,-0.006137059759545593,0.8274948632455064,5.596518002217621,3.064271301560122,0.45182310917015034,0.2148256455277633,2.396556045753425,1.824140180912728,75156.12901217722,30377.114578064684
24,158895.9375,150591.0,"[2,3,11,15,16,21,24]",7,0.33395316043794265,0.17331789434161582,0.6726616188641605,0.6738330197924358,0.3310784148827759,0.29021098923352406,0.00402616871261996,2.295231000703298,0.9396309295686865,0.39188308980563624,0.1892413642647397,0.8870166874892513,0.5959274062481908,1.1002223086316312,72435.18293222578,16727.43261922599
24,185834.5,174325.0,"[4,5,6,7,8,9,10,12,14,17,18,19,20,22]",14,0.509161868712148,1.4149601950290407,2.000730573539897,0.8866972887179108,2.332634661949546,0.42300459523427136,0.1195480497613497,0.8818256658491843,4.007843732225434,0.8447336418187296,0.20476804083505273,0.22925120005266852,1.8448517985304176,1.5852163925835214,70457.8205446244,27351.256241440624
24,11204.125,10664.0,[13],1,1.26034389477648,0.5908897146865475,2.782327060970856,2.009945877639956,2.0805446716834326,1.5107776754153044,-0.4757346635558446,1.0856641016366702,4.60055217561613,3.01245623749066,1.1446517421987532,0.45592101686878783,2.236231556173516,2.2789924866064983,107136.43805294976,81949.3313400197
24,18221.4375,16615.0,[23],1,1.8443811690042218,0.43351652716409506,2.08992685790088,1.0952303438840794,1.7677897978342751,0.4642425663898675,0.12043835707594619,1.0767101985436,5.696548835413658,2.9804286093234866,0.4477750287230515,0.2649175340824491,2.3921896896306767,1.8350950309971361,77631.75830666473,40561.32541683391
48,92167.46875,85459.0,"[0,4,5,6,7,8,9,14,20,22]",10,0.5481386291192007,1.5315602535931068,2.0514698120719674,0.7389535082501322,2.4044117535464484,0.9179800723946336,-0.182559344284138,0.7807710353552686,4.09427675786498,0.6191062281732659,0.22136350240883162,0.11433281624168401,1.9815872756815107,1.3595106828896124,66165.52286242534,24505.736135885705
48,115999.65625,109873.0,"[1,11,15,18,19,21]",6,0.2865432163041779,0.7355209587503495,1.3894788083583998,0.6746417568759591,1.0669538679284885,0.12109494462254933,0.21107786670866613,0.934844841475746,2.3233372579417217,0.4136123384851069,0.1982339554610748,0.2581969028137562,0.9342329194558839,0.7801990146884179,63464.912263479375,19740.78254649992
48,93923.96875,87691.0,"[2,16,24]",3,0.2384831870333779,0.11000908231287143,0.15629865433468604,0.590333621550295,0.21117143257707616,0.22646319963758899,-0.0003048636419449302,3.019533617651499,0.6338984193257861,0.28331576215256926,0.13006465941686995,1.0529213849912644,0.6002061125462402,1.143638473081621,69587.55239726862,14809.284855736003
48,26227.3125,24505.0,"[10,23]",2,2.0661994801807886,0.3144037931798893,1.7002420070403104,0.9305360895226187,1.9401311001530694,0.4895345164170246,0.08986903291996962,0.7966102455179898,5.761095047222809,3.1904088314936536,0.39252222197489406,0.18802837596139665,2.600289836132036,1.9190502573481683,72910.33887860223,32942.89880063005
48,10525.2578125,9825.0,[13],1,1.2305045931865546,0.5577918176087411,2.6110676419475882,2.031014458204693,1.9810061694487922,1.489266612124631,-0.5606323949446725,1.0152375847963797,4.202846859224061,2.9852142903142944,1.1683107349125943,0.43373861165886196,2.275450918297359,2.381002179501252,106562.93154339305,83790.60838325685
48,43190.41015625,39634.0,"[7,8,14,17]",4,0.21697221493432095,2.036101770589246,2.160818463362293,0.7075286276839181,3.064927682027585,-0.12194342740525776,0.5380741672656728,0.6170838366353752,4.0601015004143015,0.4275627683808364,0.04254197380106106,0.10819080517855983,2.358569732489441,1.6909809651950851,67245.7021996979,22520.10886748305
72,252916.19604492188,239180.0,"[1,5,6,7,8,11,14,15,17,18,19,20,21,22,24]",15,0.37643167902538477,1.160299036950934,1.316039500463392,0.9620056414968676,1.702813762133374,0.3296890635200802,0.07590267386214045,1.1509729472647732,2.841131666041923,0.5773909386575063,0.2963819813602857,0.30397521653927406,1.4022424169714154,1.27980342970948,70569.00540276415,25272.800948877608
72,89959.94409179688,84431.0,"[2,3,16]",3,0.2691754412277534,0.21934048733033595,0.2900764654584025,0.7800631530180011,0.3482016360552951,0.24244531682695225,-0.036259232763133475,2.6581354344697727,0.6968475354853992,0.34326248554486405,0.17028173285080284,0.8592735391418351,0.6784424642814791,1.181360168776874,71188.06712928004,17397.0363091532
72,33130.4033203125,30489.0,"[10,12,13,23]",4,1.6275875137924027,0.5361633436801267,1.6261228285525235,1.8423336147520284,1.7320670005177305,0.6960914812809349,-0.07949217653480467,0.980276228848306,5.0374231190958,2.5630391466555875,0.6783883095105763,0.3168200295285576,2.2175173681671714,1.985821770132728,85953.30378544079,48869.46154119379
96,118261.06945800781,108904.0,"[2,11,15,16,24]",5,0.4644958529895433,0.2312980778327125,0.5242432184017631,0.9281325300224084,0.3942992281323865,0.25138433390081905,0.1464086523162087,2.7755089839271356,0.9109268932195947,0.46466762983849486,0.24954448730459244,1.137092004122613,0.7332574244896451,1.2599513037967964,71235.04268933935,15675.24374028637
96,32066.439727783203,30092.0,"[10,13,23]",3,1.9267241749607098,0.4761156878987287,1.8283758148049256,1.9716890869239063,1.8014897257958888,0.6571308222917791,0.23001964111966933,1.2465418474179084,5.2488685963319925,2.660419554974118,0.7578581619534273,0.351179247216747,2.3907310244343476,2.2353363967477855,80226.0874980338,41091.134933503745
96,116014.76306152344,109628.0,"[14,17,18,19,20,22]",6,0.42021233053041906,2.183677390958726,1.9674880086473947,1.1849872385977935,2.9484940403482045,0.2833422819343694,0.5742558448387483,1.1159091660889913,3.7023025987892333,0.6937704140854822,0.2159465657840589,0.2234205520052498,2.296793177723336,1.9992362994854431,70057.840152956,22864.467917306338
96,38244.39700317383,33878.0,"[15,19,21,18,20]",5,0.4879452268346036,0.9091217316103539,1.5948855030027391,1.0667341462776925,1.2346206181429706,0.30499531815559155,0.31323509081853995,1.3284600028368514,2.232696108125104,0.6328337299257508,0.36995977442395,0.4380389752956245,1.1637819660170918,1.0987212830622004,69344.43433182593,21765.88319410344
120,111758.31684112549,104367.0,"[2,11,15,16,24]",5,0.3876686950862529,0.26536988429383923,0.7180416460467707,0.9635623416290149,0.4465635869524185,0.25534460771562806,0.16463729636969804,2.486461540948495,0.984762532602759,0.4551295761304215,0.28745033540809395,1.0013173440958734,0.6791415590162185,1.2236833113652172,69339.2753733421,15514.785602142061
120,130018.78250217438,124202.0,"[4,5,6,7,8,9,14,18,20,22]",10,0.5864985434155159,2.195159038293892,2.164527626082014,1.3044614592007817,3.0198241734141527,0.9380223029824089,0.2814615782754979,1.223679031305151,3.82457185375778,0.6995900435587065,0.33091805745980674,0.19911848423125433,2.3901352994538767,2.103061440503027,68234.5495316292,23005.663529960308
120,35675.15248298645,33671.0,"[10,13,23]",3,1.9862316839450103,0.4867578931406844,1.9705919449005997,2.181148050659203,1.9574988941205702,0.6256051004907912,0.23581879082079427,1.35781211496574,5.262659729926731,2.775700920889171,0.7887149365219832,0.3503486296307603,2.4783399310749394,2.338344017131695,77622.95042130817,40261.25838679171
120,117366.59133434296,112902.0,"[14,17]",2,0.2198206348439693,2.444027432117961,2.1780781665909736,1.220220688622093,3.247104495280818,-0.16087560748464158,0.8899018143155719,1.0996322030126495,3.770905470062487,0.47845390967249457,0.11991385692209588,0.19212066036778386,2.4535528043819648,2.1382993262994194,66452.14994061324,19573.638948452266
144,116216.89480257034,109232.0,"[2,11,15,16,24]",5,0.443895249671443,0.17897433688015996,0.573588962334115,1.5867155134910673,0.40380356284896557,0.2787018568455195,0.27531946895566906,2.980828689156337,1.0634726955637919,0.49257280927233305,0.2694361972154291,1.3352482020717924,0.7840670142114933,1.5076926331426324,69928.20055961004,15222.172820231504
144,38428.69703018665,36199.0,"[10,13,23]",3,1.9264950063958841,0.37143051388245807,1.921521292284519,2.525028992987456,1.975699398399437,0.657987039445328,0.4979793477911283,1.329163129839344,5.173999722512446,3.013779098521525,0.8110256707674632,0.4545712409217396,2.3114175865587403,2.471656257768561,79144.34100223627,41731.72082823576
144,163568.5072903037,151895.0,"[14,17,18,21,22]",5,0.43169590142987047,2.2865791808453597,2.0901203795517485,1.5253663353834659,3.107457295111827,0.3641650008419788,0.7339024722338792,1.1858561828046628,3.6532577430568183,0.7101728174152412,0.15116128290819164,0.268192945967757,2.3964242219450385,2.1332801931971317,67281.12103296306,20521.750769548322
168,259027.55465567857,246415.0,"[1,5,6,7,8,9,11,14,15,17,18,19,20,21,22]",15,0.43878144918670037,1.2936341574619714,1.7140825239042505,1.6762984960723144,2.125755209472215,0.38577212261099647,0.5097044090491742,1.1049285767662296,3.2715189683951036,0.821028888332174,0.29653779805515734,0.299966708295039,1.6760186788542901,1.5199235150378574,67496.3652231612,25026.899001954873
168,66970.9511756599,61499.0,"[2,16,24]",3,0.2562894877546824,0.12464404691384834,0.33607972877435754,1.8734456644306832,0.3827469247306907,0.31982221590792226,0.3450797336442828,3.407389248202578,1.0888106354130511,0.4893530468058006,0.2503337386720603,1.3467456006458454,0.7954481436023387,1.6146410465239776,71701.35217206234,15980.837357999126
168,41770.793564386666,39369.0,"[10,13,23]",3,1.6895104456275847,0.37391964298654035,2.0646731283116213,2.7519558850864896,2.104590754440187,0.6970851129008837,0.5960837037089717,1.1729182126680886,4.9543837231790295,2.791910262215874,0.7915015188217556,0.4314774643488576,2.28472835226127,2.3186132193777147,80814.03451608954,45005.57835029579
