time_in_hour,cumulative_size,size,pcore_ids,pcore_power,AF700 CD48_[R 730_B-A],APCCy7 Ly6G_[R 780_A-A],BV421 CD117_[V 440_F-A],BV510 SCA-1_[V 525_E-A],BV605 CD11b_[V 610_D-A],BV650 CD150_[V 660_C-A],BV711 CD11c_[V 715_B-A],BV785 B220_[V 780_A-A],FITC Ly6C_[B 525_B-A],PE CD115_[YG 582_D-A],PECF594 CD135_[YG 610_C-A],PECy5 CD3-CD19-NK11_[YG 670_B-A],PECy7 CD16-32_[YG 780_A-A],PerCPCy5-5 CD45_[B 695_A-A],_FSC-A,_SSC-A
-1,0,0,[],0,0.0,0.0,0.0,0.0,0.0,0.0,0.0,0.0,0.0,0.0,0.0,0.0,0.0,0.0,0.0,0.0
0,158867,158867,"[0,4,5,6,7,8,9,13,16,17,19,21]",12,0.17230891928734152,0.4066119775123491,0.5100259649083162,0.30325130406785655,0.5168386227033155,0.2385265038582191,0.26606837088072316,0.3148014593414266,0.574908406006872,0.13000151070975993,0.24448099864055167,0.09504799415779644,0.33481656388134834,0.3746904119341536,0.1920862155038326,0.07436685976234698
0,128786,128786,"[2,3,14,15,22]",5,0.16786177351598883,0.23258519995113747,0.31691906915492396,0.2853024115627831,0.25890302600594167,0.22348953219889794,0.2519533109043738,0.49813941395830386,0.16128338166077624,0.10453164757499306,0.2473812719895844,0.22176768073384973,0.14412541071369836,0.2778978638491951,0.20128440183538057,0.04878931382957965
0,17185,17185,"[10,12]",2,0.2718746327789306,0.2735062600045802,0.585025355605689,0.4572731134865652,0.45111558282695796,0.40960168446184475,0.19741304992825656,0.3442277158868631,0.6084238981843069,0.4434561328376094,0.37200681688507675,0.14750714919284239,0.36686191577291005,0.5277129118490478,0.3879363333459432,0.344450367724993
0,84937,84937,"[5,7,8,11,18,20,14]",7,0.17526670882634163,0.3197232587827689,0.427406631186364,0.29765074656627216,0.37566837772408607,0.23542953062386268,0.26963765757593555,0.31456338594174627,0.4200293340860677,0.12579168019471546,0.2553710240874432,0.10362321303677624,0.22326419147465604,0.24514279487119345,0.18073523852749718,0.06087648786010873
0,26789,26789,[23],1,0.35571438201170985,0.24742186679626305,0.4595420056990284,0.3192954563880063,0.40623649345665996,0.24994458468118422,0.2560981610120384,0.32591775063905504,0.7985788242043433,0.45431976122732426,0.27462731458799433,0.10125593886824787,0.37918754650705444,0.41359991618871716,0.21472851072251603,0.10104326484874553
24,150183.25,140362.0,"[0,4,5,6,7,8,9,13,16,19,21]",11,0.17744888704246106,0.3880181023027531,0.5197245377423891,0.3103487024907737,0.5107198165787695,0.24190081713173836,0.26807676274070835,0.3239727983388464,0.5897251791947172,0.13475627630763282,0.24062404411772811,0.09395441682327749,0.3206368486914738,0.35772753100079097,0.1892414960687817,0.08709272561438205
24,29600.6875,28237.0,"[1,20]",2,0.1997429320049763,0.27290939436607264,0.5276396376402078,0.33319424806767994,0.3144994040450289,0.2598878189794691,0.2671119775600645,0.33782974432710655,0.3592109507907207,0.14235601793360494,0.2719268313171899,0.10885825583387937,0.16973678790176822,0.21075482034353266,0.17009148249664158,0.09734782712527563
24,147936.125,139887.0,"[2,3,14,15,22]",5,0.1656775414646093,0.23138453340584844,0.32296196200363636,0.29383492752103263,0.25358822566811134,0.2288938767422486,0.2506606482749116,0.48878218540426854,0.15984177590351895,0.10053109440738131,0.2458669348474904,0.21541802870594273,0.13405533382879645,0.27569011695278467,0.21475395581508594,0.05342917848626063
24,20815.0625,19741.0,"[10,12]",2,0.277933642394822,0.2763454184495656,0.6040692913461888,0.46639242399874614,0.45331042751011963,0.42146322148993365,0.20232647436933637,0.35446652213534124,0.6430119288566476,0.4599848283200935,0.37172640618311137,0.14775511382806394,0.3655116043060627,0.5242840340845167,0.4122795775066344,0.38395371438798864
24,24037.3125,22363.0,[23],1,0.358379683299795,0.25807677359476056,0.5047496846925343,0.3359761026833711,0.4111595558442408,0.265968115655448,0.26042182377452433,0.35358690575346396,0.8205024105605776,0.4454377031407873,0.2711127294036004,0.10575899459341069,0.3848472413810572,0.41051877940863785,0.21664921371985615,0.1339288520244645
48,106893.94140625,99832.0,"[2,15,22]",3,0.16220933454688943,0.2314614530888412,0.3040998216111549,0.2874541682819054,0.25038313184508815,0.22856013630558794,0.2501009498874728,0.5414754059453994,0.1571561379218899,0.09557978455041109,0.24346210253787254,0.22361883539553506,0.1436443605395094,0.267298601350075,0.19934821362789673,0.05537428133701372
48,117436.234375,110154.0,"[5,7,8,9,13,16,20]",7,0.15628401551834065,0.3681539878301475,0.4779518719422522,0.29521983590852435,0.46448163507984846,0.18539944372631462,0.2846291064709058,0.30518509012712824,0.5411697017578332,0.10822481360797272,0.2403330010262218,0.09003261087891293,0.2824206221102953,0.2768828355512011,0.1688456076483151,0.07471892028825493
48,32551.41796875,30399.0,"[6,19,21]",3,0.2061850157379077,0.4123470590476947,0.526345898849523,0.30003371706371307,0.5563336943373018,0.4145247620019572,0.17979953769712453,0.3420816940174724,0.595791551425781,0.11751445959093935,0.24787804333590002,0.08077207456517274,0.3699416800463643,0.3727976919019514,0.1920162406311987,0.08576842191976357
48,31351.8046875,29505.0,[14],1,0.15879921262897762,0.24043329696842272,0.3699459761893925,0.2853220718049893,0.26616290746518895,0.2207794808288133,0.26014616381647254,0.30098815506566245,0.183371270285351,0.10425915414443435,0.24872606811801778,0.10040604198695338,0.11452762573447471,0.1464581029234194,0.1874409890831592,0.05618757507626884
48,26301.33203125,24799.0,[23],1,0.3670264889528891,0.2507313880433561,0.4620451811760756,0.3210963762112698,0.4293003402816336,0.2602328373176303,0.2605324959229811,0.32821270420385534,0.8164211222967801,0.4432864722926169,0.26655274406796503,0.09940203264119576,0.4040754523006555,0.41862234477702304,0.20752123175345075,0.11471627477124652
72,146272.31298828125,137337.0,"[2,3,14,15,22]",5,0.1629838827142591,0.24110802983390442,0.31138948958697477,0.30471543448589106,0.26225648492675413,0.22569575034457257,0.24915289196084686,0.4911086404509844,0.164946692504802,0.10022837464999719,0.24682073866505472,0.18816327744179573,0.14612352190532002,0.2624488602261398,0.20290415187914013,0.06291959477638784
72,160915.32446289062,152637.0,"[5,6,7,8,9,13,16,20]",8,0.1696037747900454,0.36902017389782693,0.44968108677918855,0.3285777963108638,0.4539873859163575,0.21636003463074813,0.27048052420012786,0.3239686738121641,0.49693892246128923,0.12538913231190635,0.257144259684732,0.09843379445610395,0.27389719146536207,0.3099710564280172,0.19349529515397276,0.0888117789451918
72,16361.246337890625,15526.0,"[10,12]",2,0.28378284697959894,0.2928803668485371,0.5550266115187618,0.47982765060244337,0.4466704438174448,0.40538786279120786,0.206190430309442,0.3580976638800512,0.6293771970920967,0.40013435787384266,0.3782093472229727,0.14135231287230463,0.37502297668449663,0.5172807726522494,0.4177215371701683,0.3869363299714849
72,20182.833251953125,18539.0,[23],1,0.3491321458815438,0.26259550217809774,0.40057310164338367,0.41371979365055744,0.4148128953123826,0.25465456082991506,0.253519298392735,0.33548598354742537,0.7720014951380474,0.4157933468333286,0.27759733400802733,0.10514235306492813,0.3746532280716607,0.43922348121838034,0.22857471099756935,0.12829815137136732
96,132759.48739624023,123828.0,"[0,5,6,7,9,13,16,19,21]",9,0.17917885402722947,0.4463903711882814,0.5126838318709783,0.34409102143928827,0.5589983066989137,0.2381914930824693,0.30136984503540576,0.3443654242029526,0.5499397448396519,0.1351459242328629,0.2473750063955291,0.09597992602780225,0.37125169347958803,0.4355220411185981,0.19552752021194617,0.07789991170548444
96,97667.42945861816,90308.0,"[2,15,22]",3,0.1825093710028751,0.23505675706007534,0.3046032996299553,0.32287904554042746,0.25944301240646,0.22123829454873278,0.2646570904028057,0.5645775115516403,0.15359609116386025,0.11147878240738796,0.2518814231341271,0.2723083847654522,0.15686337213131318,0.3226635096860107,0.20983883465851413,0.05189842223229727
96,26819.41017150879,23215.0,"[14,20]",2,0.1773004296179788,0.27718646835743194,0.4126942785637078,0.322893789657561,0.30871299235100946,0.2321008905641933,0.2701842457242539,0.3369093980586515,0.28726868357226787,0.1240146070202939,0.2662073399616074,0.11428761357322702,0.16057385842274147,0.18393067516007963,0.19129109750809156,0.0669171482910982
96,21297.42707824707,20036.0,[23],1,0.38229239418608296,0.25738378948654994,0.439591466932854,0.42361707591614095,0.41280022864652866,0.253842131506691,0.26912284916741236,0.36159616335785005,0.7981613158393406,0.4148256874685801,0.29046732889350724,0.11154018102356344,0.3893086149351597,0.4779359657898528,0.213456990821569,0.11335963955650907
120,170829.53693675995,164002.0,"[0,6,9,13,16,19,21]",7,0.1746574800845896,0.47373710364854216,0.5426653612767869,0.3569738837006552,0.5962711168293344,0.2517869755090536,0.30702269817498895,0.35668241539074946,0.5705496264577037,0.12181983465270785,0.24695554798615513,0.09243657732852187,0.40411146591174535,0.48440407126457474,0.18873097554746257,0.07532846033192582
120,79710.21434116364,73606.0,"[2,15,22]",3,0.1715560975047754,0.23543206397760008,0.3118067211158685,0.33035065941078073,0.26266486871480005,0.22268554120440856,0.26641090932591244,0.5640965927725069,0.15426744353124758,0.11096516664494935,0.2542677326066645,0.27125549376220665,0.15167056256832626,0.3391601805520859,0.20637917926842225,0.05030092974421832
120,41613.123109817505,39302.0,"[5,7,8,20]",4,0.18498740001397068,0.34777742223718494,0.4684134972198691,0.34606681096976866,0.4238297747665124,0.21215167538086718,0.2974072936723899,0.3302011318030589,0.47965710159581093,0.13519752672007643,0.2681450606582465,0.1043445536074743,0.2540343236608238,0.29395256900648137,0.170058154866462,0.07281541957397372
120,23588.693311691284,22570.0,[14],1,0.16812639409816416,0.2521674061148634,0.40784121524622513,0.3038400961913586,0.27188210756242087,0.21879323607637577,0.26612859273265665,0.33314863437492226,0.19110752899309139,0.11063680249354121,0.2626951090407605,0.11839825259831949,0.12697297462114754,0.15430107785697098,0.19234591581742674,0.0556535914229391
120,22192.089192390442,20861.0,[23],1,0.38583764413401805,0.25926581429324025,0.4553217605287474,0.45805315854221584,0.4231271411612442,0.24172112244072153,0.2707519288879141,0.3847155195353758,0.7976439239005862,0.4309589727655306,0.2954713873682122,0.11479282798625612,0.39623779687576055,0.5022348518437687,0.20377873415326225,0.11397037893437824
144,144883.07428908348,133921.0,"[0,5,6,9,16,19,21]",7,0.17131054404597038,0.4781041086729229,0.526314672330494,0.37195267841947,0.5841135005236653,0.2502699416028354,0.31738491749648867,0.34880988422706666,0.535439654995703,0.12932405319333443,0.23819474017961276,0.09938265540850975,0.39303168887382406,0.466940963770884,0.18543045870166422,0.06919344503754427
144,89679.88839632273,84698.0,"[2,15,22]",3,0.17735194107065774,0.2271526325365738,0.302795080434335,0.40341114787909904,0.2612965823801204,0.2266624539541667,0.2762599231264385,0.6020529158989503,0.17781301348698073,0.11567756820386019,0.2530620906554061,0.3164375175423095,0.16728471142713724,0.3868619555477404,0.20700561419404975,0.05067875983513259
144,11539.39013659954,10907.0,[10],1,0.31100702211464626,0.28080952730635234,0.5665685855438604,0.5152377460900117,0.4884397686171428,0.44097368811255955,0.2322968761082915,0.38014649136021117,0.6872246773460915,0.4352213613456428,0.3845061590149475,0.16255247278765983,0.39035640238687414,0.5976337749973003,0.3920959999133625,0.317997180985212
144,23681.575820982456,21441.0,"[14,20]",2,0.1814349511313313,0.25927346584574995,0.4121795371380157,0.3506634928518937,0.28528097773401034,0.2287549886050552,0.2800985761282211,0.350045951751942,0.2520156153134902,0.12279495553003193,0.2691556939026605,0.12577979163753572,0.14993943085068767,0.18989906836620843,0.1821696542636208,0.0589546553249097
144,18887.005574524403,17500.0,[23],1,0.3737010617247607,0.2521788209991172,0.4723456018903064,0.4781286873109884,0.44733601436260406,0.2016944590443008,0.30624979767910865,0.3558638294128431,0.7752465262760131,0.45716854052265254,0.29416126583336494,0.12289138067664669,0.3717824050448387,0.529257211757701,0.20732657020476025,0.12393676524921707
168,106049.8049704954,97506.0,"[0,6,9,16,19,21]",6,0.17883047206323174,0.44380833049879936,0.5276806676282568,0.3881533539602798,0.5716276983869537,0.26482253587916016,0.30915307968969236,0.3419527244248781,0.5163766637749543,0.1456358119855174,0.24468982032264705,0.09716896346839028,0.3670224569982202,0.42027150875363,0.19446014948048976,0.08432102118053515
168,71756.99302477017,66152.0,"[2,15,22]",3,0.15638155060403403,0.22833257780568217,0.29721599170448176,0.4242799420970441,0.2625809059138469,0.2372838612786021,0.2809060978268338,0.6019601386405258,0.19754492844265886,0.11631455851107947,0.25269775641897846,0.28338972903378906,0.16568776336022695,0.37475921578756727,0.21013457007983563,0.05547519406970648
168,39060.41661740467,37283.0,"[4,8,23]",3,0.3199858058672833,0.25354294426492613,0.5054921303013543,0.4976599831545486,0.4086550054490187,0.2593051094738413,0.2937247523053041,0.33711391930433743,0.7073617625427697,0.39200913599837867,0.29838006910140696,0.11797576510780249,0.34858908331245236,0.43602762072441326,0.2039247568355583,0.14855669050115186
168,87113.5309192948,85459.0,"[5,7,13,20]",4,0.17038672711793826,0.31337583990087536,0.4477851882461883,0.3880239763920941,0.42186309722919874,0.2117237572189089,0.29600605717607464,0.3261188054804125,0.4995584856866544,0.14624772529057148,0.2591792642025965,0.10343448118703771,0.2429965383594303,0.27181035986557295,0.16960952020129436,0.08933239066592372
168,14292.211883537471,13571.0,[10],1,0.29151772812326976,0.27767549041613676,0.570465753528021,0.5301856150302742,0.47130332803308694,0.4382978411824909,0.24230810309133471,0.37608585921248566,0.6739763752453826,0.43030844988007405,0.3848964717341511,0.15774659379984762,0.3519697873804455,0.5505533456499261,0.4121427790347165,0.335122641307252
168,10828.841189783067,10257.0,[11],1,0.2032664962254004,0.2394035977693572,0.3050870188637615,0.6065633112367397,0.28507640234901815,0.24301166092259238,0.42629993251389636,0.6257670276560404,0.6178114574257021,0.1288802132982342,0.29891441739354485,0.15086185052045623,0.16461436207779928,0.47169233136571453,0.16584273113153017,0.07658677134128114
168,21812.330833248794,20804.0,[14],1,0.16308284848605178,0.25356788147656883,0.3980361475637783,0.34478738360531613,0.2982653692478879,0.21819095517526077,0.2737930924024979,0.3223752088145462,0.2226610115403493,0.10821650841383093,0.25587163728385504,0.1160587053652324,0.1484952590746468,0.18215892287433955,0.18107993878412143,0.06298274090740122
