time_in_hour,cumulative_size,size,pcore_ids,pcore_power,AF700 CD48_[R 730_B-A],APCCy7 Ly6G_[R 780_A-A],BV421 CD117_[V 440_F-A],BV510 SCA-1_[V 525_E-A],BV605 CD11b_[V 610_D-A],BV650 CD150_[V 660_C-A],BV711 CD11c_[V 715_B-A],BV785 B220_[V 780_A-A],FITC Ly6C_[B 525_B-A],PE CD115_[YG 582_D-A],PECF594 CD135_[YG 610_C-A],PECy5 CD3-CD19-NK11_[YG 670_B-A],PECy7 CD16-32_[YG 780_A-A],PerCPCy5-5 CD45_[B 695_A-A],_FSC-A,_SSC-A
-1,0,0,[],0,0.0,0.0,0.0,0.0,0.0,0.0,0.0,0.0,0.0,0.0,0.0,0.0,0.0,0.0,0.0,0.0
0,135158,135158,"[1,2,8,12]",4,0.168149355526486,0.23403698222240168,0.3203394995056568,0.28695355308443515,0.26072703596194513,0.22340273870989408,0.2529540704880622,0.49029501206740345,0.16769966767682443,0.10526819577811534,0.24841747171467568,0.2171410202451149,0.14443095221485344,0.27525875729307775,0.20036632069666319,0.049616279136887015
0,167884,167884,"[3,4,7,9,10,11]",6,0.17276012719373857,0.4014636984318282,0.5031367500307066,0.30465896133136117,0.5088640615829942,0.2395573384858548,0.2669056408349625,0.3159327265990524,0.5726688697890288,0.1303517016466108,0.2460292473849859,0.09546536896645615,0.3281237120900242,0.36864937331869546,0.19095806788899441,0.07515448526009064
0,28573,28573,[6],1,0.34903753074878785,0.24675538913787462,0.4585427364257356,0.321453621684649,0.3973510749548912,0.2479293307395,0.2594531162397392,0.3252859159107991,0.7887231944677808,0.4477817316450656,0.27650615986589216,0.1009177829647184,0.37154401143531335,0.39855629856144636,0.21029481720617904,0.10246762542231387
24,215522.0,147943.0,"[1,2,8,12]",4,0.16687039153793956,0.23316893171978623,0.325827851275127,0.2932144093528024,0.25694306037739906,0.22794600479446836,0.2518453258032417,0.4838254640002605,0.1679910112317228,0.10238495925822348,0.24734033851074372,0.21261615932752606,0.1374496574174886,0.2733837072815318,0.20958355492906802,0.053335437636461216
24,240266.0,156324.0,"[3,4,7,9,10,11]",6,0.17744933504459798,0.38520726102490427,0.507551573033295,0.31129724700208616,0.4983128917778477,0.24176071426633972,0.26834015855629423,0.3221436439734081,0.58319510001621,0.1332490718193138,0.24401177092755016,0.09693396207161811,0.313161002652417,0.3593073832578475,0.18993586343290667,0.08364818408303838
24,27738.5,19292.0,[5],1,0.28014821901795134,0.2743303189752675,0.5941718313415658,0.45822277265858974,0.446319212452387,0.42897223981824373,0.1913762640675481,0.35223027993793343,0.6437898511092525,0.44870675278992844,0.3673297807954308,0.14836219379496807,0.36217468356923016,0.5264979095615034,0.39961762877538,0.36021250272221655
24,38126.5,23840.0,[6],1,0.35241910865264564,0.2538864696844143,0.48635811752373315,0.33140123599915755,0.40415669825482303,0.2557185205847045,0.26279042689252596,0.34284793666795643,0.807275287465799,0.44536973353148174,0.2737480469030097,0.10518013835197935,0.3770646831389806,0.4058002723569609,0.21448417900239164,0.1241088384310814
48,254338.0,146577.0,"[1,2,8,12]",4,0.16545808663908465,0.23518768208471216,0.3273803969641508,0.29189559132110954,0.25829668090758623,0.2282032901134871,0.2530201020551894,0.47431226649339286,0.17599108391071863,0.10090524312837892,0.24653532314984816,0.19891927657188863,0.1375250930089194,0.25611090271935205,0.20009083612102668,0.05581657593216153
48,202693.5,113556.0,"[3,9,10,11]",4,0.16021624689023492,0.38111026038854956,0.4795965550535905,0.30422299597408103,0.47303201358168817,0.1938238438358041,0.287368822065787,0.3140039115119667,0.5647759640608765,0.11492503627687492,0.2407132368413123,0.09591578508087796,0.29231846115289034,0.3240884494460749,0.1772308175849126,0.07477601208182466
48,65466.5,34471.0,"[4,7]",2,0.21615897563404815,0.38280553006846035,0.5605413798242155,0.31216980241573566,0.5435443483727378,0.38882162624645816,0.2018345313158933,0.33931910741040683,0.6232284926087578,0.13066656436385204,0.250865639304691,0.08699523903118553,0.361055536998634,0.37204083859554554,0.19820145338059258,0.09996250055469365
48,26190.25,12321.0,[5],1,0.2738521604333663,0.2765610225783906,0.5831995120525273,0.45623350162451465,0.4454607649572223,0.41358276411235134,0.20453574194867385,0.35037258435468205,0.6210868848073914,0.43919819243090286,0.3639599229436051,0.14421594069247945,0.36093907120557495,0.5194660358874655,0.38281432371576074,0.3471341810015539
48,48482.25,29419.0,[6],1,0.3585873198073933,0.2522684916545017,0.47752184913580675,0.3258771321198866,0.41148456545870116,0.25827880527559255,0.2616919419164596,0.3333902727027706,0.8080693423964506,0.4378181124692321,0.27053672810774576,0.10210504120407267,0.3874723717275059,0.4039433613791828,0.20893997910967627,0.12032657296202236
72,273247.0,151439.0,"[1,8,12]",3,0.16269295477339135,0.24171594604166427,0.321342366678143,0.29940674091517055,0.26538313531426955,0.22616060155578163,0.25227827713611617,0.47986237817879795,0.17724137503213677,0.10065629287026702,0.24725926196595915,0.18781568203137347,0.14464619147539254,0.2523773531038589,0.19891902321956667,0.0604780240101071
72,277697.25,157525.0,"[3,4,9,10,11]",5,0.17323055308911758,0.3825881695885622,0.46461619925688086,0.32261387262826957,0.4726016297167565,0.23053783350563356,0.26727819831436644,0.3221483631751065,0.541839196778672,0.12823376204027,0.25307474451078327,0.09678551252877923,0.2940499125348529,0.3353908674504876,0.19230509357709688,0.08700179632000216
72,26153.125,13058.0,[5],1,0.28028652183329167,0.2842280704958374,0.5636974650309985,0.4669744114627212,0.44235840267950205,0.42253816115248843,0.19680157028425913,0.3554301612342989,0.627894339667378,0.41175447643829344,0.36883997538416563,0.14398349464177312,0.36260356704677477,0.521406481103945,0.3964862139419544,0.3553617904452557
72,43013.125,18772.0,[6],1,0.3513432558165939,0.2581089572327893,0.44817248400384885,0.36991614729243427,0.4110263899262762,0.25436310990288175,0.25948768757973245,0.33535054601891434,0.7877563183199189,0.42741706200859686,0.27643928971616016,0.10513595378262991,0.38022036088143973,0.42255950460107816,0.22189784762725462,0.1304879385016714
72,61208.25,28475.0,"[4,7]",2,0.2191257441833687,0.37655283265652945,0.5416792446197707,0.33285907957238275,0.5326594230467383,0.3881458856505105,0.2062930634040281,0.34089350175158056,0.5991112807929997,0.14384968473424303,0.2640456625592079,0.09112184131355267,0.34940339787368874,0.37832622414847444,0.208090006358431,0.11065870554329381
96,246104.5,109481.0,"[1,8,12]",3,0.17147002819689428,0.24056882229727825,0.3219911530832804,0.3112784083196851,0.26454448452216756,0.2249790598198219,0.2591629779653231,0.5020155649268623,0.17295435796236844,0.10618221162643762,0.2507804974468824,0.21564409572237792,0.14892002363690424,0.2733377937960761,0.20291148170656687,0.05724659321822965
96,218030.875,97726.0,"[3,9,10,11]",4,0.1698016913034144,0.39938014011090983,0.4761615970548232,0.3373438259511583,0.49139125827573926,0.18720156578822672,0.30777166942296136,0.3300689414028068,0.5438057562357054,0.13007708815447927,0.2498840419680667,0.09975645580632511,0.3127020391380295,0.3693878644594491,0.19071901196218036,0.08148277308130562
96,73384.125,42780.0,"[4,7]",2,0.2204232470730708,0.41228306233834655,0.5431795573523025,0.3459441914028114,0.556099812110062,0.39874266295114424,0.2204277199940073,0.3601671950601811,0.5909206626723047,0.14719389058534738,0.26144332686801536,0.0912011762131321,0.37361416642981904,0.42383782904008255,0.20356069011709074,0.09815579395515849
96,23041.5625,9965.0,[5],1,0.29334776513120114,0.2850780693642888,0.5695310739183179,0.48143122838109886,0.4483387827457356,0.4295048171248764,0.21432979598856844,0.3654757792810779,0.6324710291045886,0.4203701024665686,0.382435792686009,0.15610310319091328,0.3772902178823397,0.5510122269680456,0.40304895794543805,0.35543973535608725
96,45041.5625,23535.0,[6],1,0.3658757354159775,0.25703976365250913,0.4458177602750854,0.4019073645024578,0.4053459214685293,0.2553476398386213,0.2683516469257517,0.35251758423229757,0.7897622259156276,0.41685843074746853,0.285378382443639,0.11125125092733283,0.37969267315514227,0.4543632487854401,0.2169582790173611,0.1219082462161889
120,227850.25,104798.0,"[1,8,12]",3,0.17106643707840516,0.24196082787856923,0.3314847106494695,0.31968624131827833,0.2668325910334812,0.2249556608710546,0.2639134905822372,0.5014356790283027,0.1745821239808183,0.1090430157198033,0.2544322454862607,0.22093101898255785,0.14811833122534165,0.28195582534550395,0.20160419299466292,0.055420882180191776
120,244321.4375,135306.0,"[3,9,10,11]",4,0.16407000815470218,0.4262352421377541,0.4983696186125483,0.3490015393968755,0.5252931898492846,0.17289707859176945,0.33079912858229604,0.3365973823618208,0.5492762419958099,0.12371244162672239,0.24812389006263239,0.0984502188629373,0.3412067994506261,0.41143717122472284,0.18514718923961046,0.07538356029712294
120,103442.0625,66750.0,"[4,7]",2,0.21931121412265273,0.4378492989787416,0.5531618685014177,0.35945178331141875,0.5784493804027262,0.408606043052618,0.22621616163421635,0.37653841199254073,0.5922991248150156,0.14057093052630049,0.260667577130186,0.08959035996893852,0.39438406883372923,0.4640040681644109,0.19491496406298045,0.08875734019948013
120,23233.78125,11713.0,[5],1,0.3121317842226078,0.2915477646371763,0.5816708390250922,0.49231897502339206,0.46180352330658064,0.43426672883122935,0.2210392500766789,0.3685097693146119,0.632840305812672,0.42402497642439707,0.38980549344936977,0.16189435504406433,0.3881494846544053,0.5760643972589509,0.3962826162147717,0.34670081003740655
120,49227.78125,26707.0,[6],1,0.37462848320622144,0.25755730637609975,0.453024950482374,0.43507476153722807,0.40884580681436394,0.2504452569325418,0.27342593899259426,0.3719018460131847,0.7895026777002497,0.416784152477629,0.2914829597863349,0.11455897957783533,0.38287204729876306,0.4793698353669399,0.20734022905662314,0.1159428530266526
144,220346.125,106421.0,"[1,8,12]",3,0.17418877593317364,0.23741899597128419,0.3269940057913179,0.35801077655785907,0.2665439952934674,0.22578244421893634,0.2713159237834406,0.5289460447272826,0.18282322255657316,0.11260791131720398,0.25476281854504473,0.2516359077018757,0.15657717035722182,0.3165628573941718,0.20223877215224895,0.053611637638313066
144,229291.71875,107131.0,"[3,9,10,11]",4,0.16380467941173618,0.43801417450188523,0.5038760330644269,0.36766632615714995,0.5386540440090859,0.17239934711785623,0.347047130355409,0.3418809922112584,0.5459601527608497,0.126000485583054,0.2432622739059523,0.10160422535050392,0.3536973279525096,0.43228321299982897,0.1823379466989716,0.07152734330574288
144,97769.03125,46048.0,"[4,7]",2,0.2196893046099133,0.4471515378911254,0.5453216424821623,0.37124116024330817,0.5810087900070476,0.41296239317718253,0.22951742108067621,0.3826386238675047,0.5771390373502696,0.14221954451377122,0.2557786483591049,0.09260308725988009,0.39461598834904676,0.46936546576189575,0.1907734995175113,0.08290097439529938
144,25459.890625,13843.0,[5],1,0.31349561789816005,0.28513775705044425,0.5693424287099986,0.5217555887337796,0.48048519121978,0.4350998235335154,0.2526126952253509,0.3828377754716057,0.6584829187329305,0.4249707974838464,0.38549108692624884,0.16783473403467014,0.38808345690906787,0.6001258677866187,0.38371355358185427,0.3217577800788975
144,53757.890625,29144.0,[6],1,0.3761041860636464,0.2532299714307632,0.46548792593032606,0.4675661516668458,0.4168461282731334,0.24676176332056507,0.29326212272060076,0.3693484114507928,0.7774485885258676,0.4410423156940445,0.2948221217758539,0.12056286035015253,0.37350075234414015,0.5027875296452053,0.2043778866292197,0.11831793353384848
168,216388.0625,106215.0,"[1,8,12]",3,0.1662848293481889,0.23982193037946525,0.33107812494472993,0.38026899291342947,0.27604427672203463,0.23239529308683618,0.275861694405093,0.5186856326489606,0.20840020653572056,0.1150809668918737,0.25466354038469163,0.2377285793311295,0.16177208999907183,0.3159268024997888,0.19965751975811694,0.056960241238624365
168,265679.859375,151034.0,"[3,9,10,11]",4,0.16697227318151792,0.39890376479815515,0.486843952771921,0.3867130774940827,0.502996096273349,0.19063415847027215,0.3338020039482946,0.3398186192374384,0.5374048645285108,0.13781418126219735,0.24885932738149058,0.10176278158737374,0.3199526070614264,0.38410716157242897,0.18139345254668715,0.08034667856681157
168,81995.515625,33111.0,"[4,7]",2,0.22246825740319956,0.43356793421724327,0.5452033298691833,0.38320568124422383,0.5761830684220757,0.4154262855774646,0.23018265393177376,0.3798643954132791,0.565397620982541,0.15048982773922104,0.2575895540510847,0.09272754364913609,0.38408281481681916,0.448476084469848,0.19213475600398322,0.08927156703201307
168,31187.9453125,18458.0,[5],1,0.30943069548597013,0.2799151315316029,0.567355920533649,0.545617008742406,0.48508554101821255,0.4391170485994164,0.2718177836927117,0.3856368337711731,0.6720248346461335,0.430082881985488,0.3812247876873113,0.16347377678172048,0.3753107237250493,0.5831813325531973,0.38166919215446443,0.3124248806185552
168,57530.9453125,30652.0,[6],1,0.36017473396236405,0.2517531273351147,0.4897567184648112,0.49667668980940854,0.4351299888093186,0.24510145495218102,0.3082151048610057,0.3533612857444096,0.7513658307625718,0.43806983053860893,0.29674473583020744,0.12100576023241214,0.37691506455453794,0.4977270186944872,0.20757389725493514,0.13304314274909862
