time_in_hour,cumulative_size,size,pcore_ids,pcore_power,AF700 CD48_[R 730_B-A],APCCy7 Ly6G_[R 780_A-A],BV421 CD117_[V 440_F-A],BV510 SCA-1_[V 525_E-A],BV605 CD11b_[V 610_D-A],BV650 CD150_[V 660_C-A],BV711 CD11c_[V 715_B-A],BV785 B220_[V 780_A-A],FITC Ly6C_[B 525_B-A],PE CD115_[YG 582_D-A],PECF594 CD135_[YG 610_C-A],PECy5 CD3-CD19-NK11_[YG 670_B-A],PECy7 CD16-32_[YG 780_A-A],PerCPCy5-5 CD45_[B 695_A-A],_FSC-A,_SSC-A
-1,0,0,[],0,0.0,0.0,0.0,0.0,0.0,0.0,0.0,0.0,0.0,0.0,0.0,0.0,0.0,0.0,0.0,0.0
0,145805,145805,"[0,2,4]",3,0.35069482657659434,0.20751315361612566,0.6371400125029782,0.599194423010176,0.41513374404171,0.2581674247796739,0.01976716421249547,2.306895058509644,0.9652493743081628,0.44627506743252277,0.21385784193270885,0.9063927088645722,0.6862384271115486,1.1108912980830536,69497.817057028,15452.068173245067
0,180984,180984,"[1,3]",2,0.4009483706294612,1.6728833546777695,1.948815957482458,0.8018861177949761,2.506135459631795,0.3636110213333674,0.12453202777593164,0.7693262536191146,3.892879022930209,0.745322635360035,0.22427525135923032,0.20089870338261695,1.9876846323155566,1.6425446206183898,69961.2917826989,23725.471599699522
0,33022,33022,[5],1,1.786236344891275,0.37346910801890276,1.9429161044454921,1.0875996250075675,1.8160267882018224,0.7692970650475537,-0.14955848010417983,0.8409565833080928,5.432400862970177,3.0595226889649023,0.5909817793592125,0.24366870016958975,2.4170317456543944,1.9116515679244077,80412.92617043201,37636.09908545835
24,201688.25,165237.0,"[0,2,4]",3,0.3431680849888372,0.20375113753406016,0.7092269253699683,0.6839809443621436,0.38193796739524544,0.2981801981647336,0.012494506221859325,2.232022463150442,1.0242718844218723,0.4242231120987401,0.20711290623399714,0.8619819398204971,0.6287336444698727,1.098050583770999,71808.09249919109,17246.498157428476
24,207263.0,162017.0,"[1,3]",2,0.4427298350236235,1.5254660233411017,2.0409554288138714,0.8821578909875347,2.453540472976362,0.3958476143607632,0.12913272846936552,0.8261841420043532,4.001924263556437,0.7717796600768262,0.20624257588183648,0.21254845656605792,1.8908976400068882,1.6140928383044557,70826.53008013935,27484.64735143267
24,41001.5,32746.0,[5],1,1.7665875489981844,0.4374509667268178,2.190237756649165,1.2546082264612433,1.7721770865212618,0.8636132217967558,-0.11078217324972961,1.0484194087899072,5.508885120965097,3.01144553145005,0.5950227643988493,0.2909678789129698,2.3538499118873926,1.9256337175956866,82393.83281099412,45644.19584649334
48,115803.875,91650.0,[0],1,0.27524193146872666,0.14822355001401144,0.4486226962509341,0.46582891358501666,0.24380337177567313,0.2379559383974601,0.028845184458412998,2.077244541435456,0.6948064467024554,0.30862800667940693,0.14035671517466097,0.6558410746628696,0.5130235391777825,0.705139544983926,68936.2915705538,15327.201615662705
48,160494.75,108679.0,"[1,3]",2,0.3698022691092804,1.728197238314214,2.085105194977164,0.7470941998223228,2.7278991675404654,0.33640289785688093,0.1456990060807941,0.7232855242371214,4.0749293114782565,0.5089066890887447,0.13095270892817945,0.14233553879682914,2.089480505033289,1.5546116900981077,67558.9820601603,23903.358832609956
48,82727.5625,70574.0,[2],1,0.44255235142764304,0.671932405668167,1.6560539922433652,0.8317762407133302,0.9541791051327451,0.41615446204069095,0.12519866958190207,0.7897493760831096,2.7225811352217453,0.5463160401408166,0.3144924023130362,0.23057954860193197,0.8619848952434938,0.8092588300407701,62464.920273699405,22979.08733863655
48,50596.625,36482.0,[4],1,0.25423458978736213,0.09567067158382425,0.05465598972632746,0.8949300859815232,0.24910582682886018,0.31620028530188127,-0.06026410197320908,3.625542006019434,0.9097545341178973,0.34332115918180317,0.16562091192965456,1.476931047835455,0.6863813077255597,1.8082705780140966,72312.9301213269,15233.86289105239
48,50151.375,39901.0,[5],1,1.7968703800954897,0.3878523325045835,1.992431232121,1.2142189152004987,1.8030226091557942,0.7681276043253993,-0.09096480449689048,0.8929721336727972,5.434845100394817,3.041331401849623,0.5828170914481405,0.2630519182936156,2.4477089873919398,1.9450608131282408,81086.0078711699,45525.90623886236
72,180103.125,138503.0,"[0,4]",2,0.2854719745924075,0.23327158856282093,0.4237138849630795,0.7309170300318732,0.36774633847006655,0.2587544320372086,-0.016364662902330185,2.466414455725179,0.8771832584358751,0.3568859626126415,0.1788443409471281,0.7896770397686261,0.6576919806596907,1.0730106775426431,70422.5381486302,17818.892143042864
72,260184.578125,199379.0,"[1,2,3]",3,0.4438394572106934,1.3558973226284832,1.618148694236949,1.0269171278371405,2.078167516047557,0.36456595172279926,0.10016071796237824,0.854931193762817,3.442431847545479,0.6823904365970238,0.3210155618609343,0.21556662855870434,1.6517285314991241,1.403993151219986,70996.5613877596,27774.153145726545
72,34655.84375,22118.0,[5],1,1.7290318026563682,0.4766279760831207,1.6710824996997418,1.6182825728223342,1.6828152632212903,0.7756648786279647,-0.133412688979202,0.9636135971179001,5.2952848650872015,2.7514029147929087,0.6015113187485492,0.2714831362518231,2.307733687031945,1.9169083371761688,82255.84410998554,44935.089799970614
96,155393.78125,110368.0,"[0,4]",2,0.42576792387566487,0.22056778235112517,0.481151121528137,0.8947632960190739,0.3717753026776136,0.2556703250206642,0.10758944091870504,2.749768954813403,0.8603974072192567,0.4405335858045639,0.23223199375803727,1.089120184233688,0.7081384660112412,1.2476582982496303,71322.4697449079,16041.594764590935
96,166871.421875,126438.0,"[1,3]",2,0.5369968315186255,1.9383236323767727,2.0204716045868634,1.2303913323680713,2.8720505204718676,0.3601918470929104,0.46455915588757524,1.0507707408643743,3.9114500522100504,0.8033445250983905,0.27707668907630456,0.2116796282599358,2.2659903386561977,1.9662206704010134,71719.7946090792,26092.637145871544
96,57408.72265625,32796.0,[2],1,0.4433621066248379,1.1844594150746528,1.549498059041642,1.0663050355521322,1.5735355858361104,0.394590028041512,0.26492792790377573,1.009010276363857,2.8390123026076695,0.6012596375406508,0.34971526830902633,0.27000527600049673,1.3109883901852348,1.1706382345190252,66454.21047065628,22698.984726637995
96,35199.9609375,26536.0,[5],1,1.9449499257817309,0.45038279177789553,1.7396428324584066,1.9019526778067166,1.6176764787518843,0.7977369609836258,0.09256366690013129,1.1830533969402497,5.314086670328434,2.7152008855006873,0.7394790914205318,0.34351878285165605,2.341117571463114,2.1730412949854516,80333.02858690184,41245.682781519296
120,138577.4453125,99729.0,"[0,4]",2,0.39487295739289796,0.2165938938813765,0.5898768335452749,0.9495286250536945,0.3834230046873035,0.2531126889480153,0.13662861724747222,2.6480219456822187,0.862020126810625,0.4465615313797886,0.264885557880961,1.073919614273018,0.6652662739857697,1.2707691017114868,70363.48706998376,15277.993126248719
120,235803.85546875,194086.0,"[1,3]",2,0.4617932768741291,2.2234710892445086,2.213257513959681,1.2986550307414588,3.156210793184511,0.38634721081190926,0.5627919230505918,1.133158845151204,3.8960664285070554,0.6606556396246385,0.24827392615473665,0.19593013787066926,2.433471593231421,2.138811227784587,68947.23322242148,23251.768018596285
120,49015.1806640625,34663.0,[2],1,0.5176448736112242,1.0989612614219242,1.7007760162169423,1.2026426494733675,1.4910973719176304,0.38668145833410095,0.3615989072590846,1.082009762745892,2.8334331648674036,0.6221288192731179,0.419519344153521,0.30256685886873724,1.272272695633466,1.2490079604248363,64078.33736427124,21526.221619358483
120,40321.990234375,31522.0,[5],1,2.044543215923608,0.4097674728191065,1.8541067893072039,2.1352235349619364,1.6983961068720448,0.7508085411033911,0.15068758651200387,1.337357578219097,5.338355237510214,2.7754686007876175,0.7739565664202064,0.350574280566345,2.3997439154902716,2.2747093581350994,76453.4089995001,38696.234501770894
144,70744.64013671875,50624.0,[0],1,0.4647462752677467,0.21908288782097785,0.840578751972104,1.103486320731622,0.3210147234104008,0.27579356193565574,0.18874136530417607,2.2558018734305634,0.8836881378017346,0.44859558105491704,0.27973048441643655,0.9130835905384116,0.6349959010937286,0.9343766259706665,69122.65816405261,15558.717490571678
144,221472.9638671875,162522.0,"[1,3]",2,0.47739122151506086,2.207633230812738,2.118311490460546,1.5480843474636852,3.148486559607394,0.37916322484907083,0.7068817088905841,1.193785092305161,3.798394877835062,0.7445424747422035,0.1824930527960369,0.2664069116783341,2.4109354457170573,2.182027106453792,68180.8288233897,21865.307637353224
144,31023.795166015625,18770.0,[2],1,0.7429608335997091,0.856089460613275,1.7594624934149974,1.7108446726628288,1.212623614027494,0.43359715508492713,0.5104405883312273,1.2413863781406493,2.892125383072674,0.8122436734578381,0.5030735395499057,0.4708915180243699,1.24246333948954,1.4832290177758614,64939.57073464544,22282.59343264162
144,69385.72119140625,54862.0,[4],1,0.405999752805283,0.0729377107304825,0.19301069873801469,1.806988175779448,0.361677795960615,0.2716619318474385,0.25322599097668474,3.7043733119585793,0.970377968483393,0.5008619674621616,0.24391948325836754,1.7462260679775077,0.8242172802304678,2.021931761346717,71916.678065285,14413.143615186249
144,45647.49755859375,35567.0,[5],1,1.9578092422884923,0.31593939741893706,1.7996288755925085,2.4899136853524495,1.60395264585678,0.8029823576531141,0.31929701496201046,1.3637630213418936,5.1998746731942,2.8461311656663884,0.8045391456369613,0.48282221296061456,2.1733592234493035,2.4099190040808938,77632.38521929641,39637.57441685302
168,65546.16003417969,47860.0,[0],1,0.3774180545400929,0.27483282548294774,0.947843752026265,1.3132890401069996,0.49259832314705276,0.3099891004933859,0.20656047745250694,1.8734585281099871,1.1007572286133223,0.4632310341037562,0.2847505143717579,0.6919955929560646,0.6870563973588756,0.9134034169643774,68010.9000428507,17585.397021942546
168,159195.24096679688,103827.0,"[1,3]",2,0.4812198694448111,2.0532560765376004,2.1235683780902757,1.676479754617553,3.089035318955476,0.32294550593327354,0.7468180886994942,1.114649810714714,3.6662666945913585,0.82446196831296,0.2019518874102979,0.26754626318829877,2.295080025960463,2.036752831950802,70065.09156850846,24006.00509706968
168,127344.9487915039,119589.0,[2],1,0.464603020480727,0.8628246066466501,1.501250837679498,1.731091280764554,1.6098216195399289,0.4296342962653441,0.391279791252499,1.0522996827045499,3.4499795441908376,0.8488926010292966,0.37603436096637655,0.30059596934483235,1.3606318750898478,1.2941842322130532,65084.091169803716,25955.53570811072
168,62491.43029785156,45145.0,[4],1,0.257071639397783,0.07483675897607611,0.18032831757391765,2.035264489850739,0.37355383616040694,0.3165700943486234,0.34203187968663107,3.7547506172887104,1.0669626201716187,0.5148682750430377,0.2410742777821797,1.6237523759630172,0.8209625760728926,1.957531410981632,72986.1956043166,15351.826298761087
168,54990.87438964844,43579.0,[5],1,1.7203921061436238,0.3349903813050261,1.987879004553935,2.7613564315299546,1.852895743964448,0.9458549573896742,0.41962504691650837,1.2498144113660388,4.977809166150141,2.7443877808652677,0.8350171253361216,0.4886124443930684,2.195940548788911,2.340203569158442,80858.86231204239,45140.91954178392
