time_in_hour,cumulative_size,size,pcore_ids,pcore_power,AF700 CD48_[R 730_B-A],APCCy7 Ly6G_[R 780_A-A],BV421 CD117_[V 440_F-A],BV510 SCA-1_[V 525_E-A],BV605 CD11b_[V 610_D-A],BV650 CD150_[V 660_C-A],BV711 CD11c_[V 715_B-A],BV785 B220_[V 780_A-A],FITC Ly6C_[B 525_B-A],PE CD115_[YG 582_D-A],PECF594 CD135_[YG 610_C-A],PECy5 CD3-CD19-NK11_[YG 670_B-A],PECy7 CD16-32_[YG 780_A-A],PerCPCy5-5 CD45_[B 695_A-A],_FSC-A,_SSC-A
-1,0,0,[],0,0.0,0.0,0.0,0.0,0.0,0.0,0.0,0.0,0.0,0.0,0.0,0.0,0.0,0.0,0.0,0.0
0,132879,132879,"[2,3,11,15,16,21,24]",7,0.17431701751467993,0.23736906636001368,0.34747495057830136,0.28906127518418984,0.2681543390626951,0.22678818615941418,0.2529586960915269,0.47881846725847865,0.18019262836804933,0.11258326399987369,0.25063201628871645,0.20907359766435485,0.15161672033670348,0.274734538279447,0.19955447104778498,0.054429072472562255
0,169375,169375,"[6,7,8,9,12,14,17,18,19,20,22]",11,0.17778184150785367,0.3881134373820788,0.4912438634919471,0.3103495304655869,0.4891871253242473,0.2414642169672431,0.26453198622206514,0.3261993554594717,0.5553327049143228,0.14795878009889035,0.25135488136285794,0.10426321571633904,0.3192747656585339,0.37342376717535464,0.19793850293146634,0.08369067106194344
0,25703,25703,[23],1,0.343220372782347,0.25267745717264317,0.4771972955675697,0.32565069438234984,0.4102897671052386,0.2657466660120684,0.251483816394457,0.3299345775882218,0.7824720001210913,0.42970583588176,0.27731806995714814,0.10494531438963084,0.37473234214369,0.4097990878215648,0.2235415901899831,0.1148328531002155
24,182475.75,149256.0,"[2,3,11,15,16,21,24]",7,0.17285229903264784,0.2369896671371039,0.3539995368211574,0.2979494848358787,0.2643770089832701,0.2321316749373215,0.2524710569057857,0.4716843901165082,0.18430241305890635,0.1088757649166391,0.24962593205931735,0.2031550446381371,0.1436078174431761,0.27266208131507497,0.2099564432744599,0.060170432055084454
24,236777.5,184572.0,"[4,5,6,7,8,9,12,14,17,18,19,20,22,23]",14,0.19985548944416315,0.3571078554305915,0.5035074377255718,0.32182400051547966,0.4716710443828769,0.24907482169310696,0.2646947405705672,0.33443210583657773,0.5890607607962952,0.17867601817211773,0.25299092145928576,0.10694512897628634,0.3100936848163738,0.3679919896839437,0.20421922699798625,0.10298959409328663
24,12503.5,10343.0,[13],1,0.2750194935551138,0.27873651830314616,0.5905607062523033,0.44140335150715504,0.4484654936933185,0.4220276329598413,0.20574949118315725,0.35540243848184083,0.646296715740245,0.41691337511854487,0.35125321954994754,0.14047490214640024,0.352345636155039,0.4978365112577123,0.35934000026984525,0.3091582529150223
48,161836.5625,125692.0,"[1,5,6,7,8,11,15,19,21,24]",10,0.17385631764037532,0.28256668267055,0.4282582112348465,0.29965060145883704,0.32595832283014636,0.24305420045342194,0.2592202435275554,0.3570698588654902,0.35111849187196603,0.11746363762333685,0.25386652488376044,0.11983198569383859,0.17739740866381642,0.21191682083392238,0.17902720042793727,0.07331840721863025
48,101044.375,74926.0,"[2,16]",2,0.16277562799587975,0.23016465541728462,0.29088164879095973,0.29231016542723226,0.25081278468823787,0.22824233234677657,0.24968869789307388,0.5478745683633908,0.14078330296773145,0.09604903903761988,0.24371491165427223,0.23533080458744884,0.14406986723443801,0.29282040151457617,0.20241692314660698,0.05301049718338584
48,72298.125,53619.0,"[4,9,14,20,22]",5,0.19548171964692232,0.3926111666426054,0.5321958604317151,0.30787203793850304,0.5355700553284386,0.3321203227266836,0.23391785091373526,0.3259722221739622,0.6039075752915595,0.12918969820334902,0.2488711767782022,0.08950382744882454,0.35749013999793783,0.3679766384509265,0.19440717814349273,0.0954601138028873
48,33059.25,24840.0,"[10,23]",2,0.3592588023428958,0.2536156072693986,0.47449929524861706,0.3291479235054883,0.4280750768564696,0.26992048387007206,0.2569016129749591,0.33313566962859487,0.8063407474494336,0.4381004179979515,0.2710961140333529,0.10236482128128362,0.3946613216040166,0.4211242463542773,0.215481896756351,0.12549689477461978
48,14057.875,10932.0,[13],1,0.2696462994944374,0.2782361689565885,0.575724303490066,0.44807936723468067,0.4465854825669169,0.41110775032584385,0.2062538849165606,0.3496442906199248,0.6082784602398505,0.42537927882215437,0.35580935826608984,0.13852687311566278,0.36012949038779424,0.5145231468206202,0.36519693760427674,0.327267955274901
48,57218.875,38651.0,"[17,18]",2,0.14571145806777738,0.4137167877629353,0.5024152207479867,0.3011660072088329,0.530552085844626,0.10334865860196576,0.3159552801711079,0.31011443847935316,0.5669656193750343,0.11001006340823308,0.2297612029827755,0.0934293896105303,0.3377691930990456,0.36454628443180187,0.18489952985548713,0.07742487858769821
72,262665.328125,205155.0,"[1,5,6,7,8,9,11,14,17,18,19,20,21,22]",14,0.1821098158224124,0.35025512377976636,0.456302768976831,0.331722243921108,0.43590622637648563,0.23705964781981811,0.26415256399098014,0.32773143873856886,0.485314561301657,0.13945601543815853,0.2599090018084693,0.1009099695534373,0.26661229130567227,0.31053787184093223,0.19624045671902726,0.09597514459275631
72,161320.453125,123753.0,"[2,15,16,24]",4,0.16344456688348255,0.24162825301759797,0.30900097628461454,0.30467817978428297,0.26351514751930155,0.2264023262521943,0.2479699004809176,0.5100546798101887,0.1707889909410361,0.09932816859861388,0.2466587038302853,0.201031364513079,0.1511540403350543,0.280326614858477,0.2064975779232315,0.06272352267420528
72,34917.28125,23138.0,"[10,13,23]",3,0.3248010765664861,0.2753671391910196,0.4942795843323856,0.41688455179192,0.42126828576682723,0.31925385650133437,0.23989059124318612,0.34418655193120884,0.7094297349519874,0.40482308976146714,0.3134667900850241,0.11955551576532229,0.37148327051710406,0.4503219627480963,0.2902728659203979,0.21047394694789015
96,232534.578125,163729.0,"[1,4,5,6,7,8,9,11,14,17,18,19,20,21,22,24]",16,0.18963213416107277,0.3869820426791994,0.48525382138969764,0.3500806296690997,0.48123430893143104,0.24481723246532047,0.2895739422406185,0.35680577650729384,0.5070808205449768,0.1462381914480597,0.2594338219300609,0.11153876456177912,0.31377348023509327,0.38559422609184096,0.20034883913307236,0.08994017951080963
96,138184.54296875,98473.0,"[2,15,16]",3,0.1811807643353382,0.24100421708857664,0.32721774539383097,0.3216014194563414,0.2672808173274385,0.22630366570312474,0.2614750680743264,0.520606666572736,0.17094708027856445,0.1118782973776025,0.2528844503762486,0.23509796325551874,0.15760738697199467,0.3030624968521518,0.2070150773188586,0.05729058297752619
96,38616.3203125,29887.0,"[10,13,23]",3,0.34453928242463033,0.271358204970191,0.4886341279014514,0.435927926720881,0.4225097244655212,0.30065192722777934,0.26798624250552394,0.36596355255371893,0.7314700979900601,0.38773211405706315,0.3106238608770642,0.12387574516837636,0.37667199897680426,0.483132419854357,0.2568879398709305,0.1677119190010939
120,276623.7255859375,220443.0,"[1,5,6,7,8,9,11,14,17,18,19,20,21,22,24]",15,0.18207780787200253,0.4203251870675914,0.5081350132479366,0.35890418230874926,0.5169039486929613,0.24010330119116136,0.30281306267001595,0.36488290393076384,0.5156930193067886,0.13415288947199625,0.25671260145763636,0.11000144972287337,0.34215948732387946,0.4285180524806513,0.19026627768508853,0.08013781734449223
120,120516.1357421875,85970.0,"[2,15,16]",3,0.17740877343714254,0.24084535819065386,0.34038475412571445,0.3255877956699677,0.268978541206942,0.22586378094032475,0.26488127561544117,0.506150855018144,0.16974337430875353,0.11273031448063547,0.2559904620189025,0.22939867683762138,0.15140795732588536,0.3020326174844444,0.2021616872698313,0.05395954207379644
120,12899.9189453125,10947.0,[4],1,0.23797731824443435,0.35192398794642515,0.5785408259973476,0.39395628000718186,0.564818730130329,0.3958424279052078,0.2610491914961067,0.37480635712225047,0.6204206020840374,0.17200589162402954,0.28053741267185484,0.10360309356483981,0.3809835711309628,0.4612475815185232,0.2225991400561756,0.12401395303714088
120,43804.080078125,34150.0,"[10,13,23]",3,0.35305653345710175,0.26950045618472596,0.497966637466328,0.4561744620148925,0.43209744547337287,0.2934823201600897,0.2715526217484628,0.37884258295191775,0.737707467478386,0.3904679230267949,0.3126424393817135,0.1245764232087228,0.38324448666405514,0.5023966870129389,0.23859401392439802,0.15585065865029557
144,144815.1103515625,108167.0,"[2,11,15,16,24]",5,0.184215230338613,0.24044756287457847,0.34752073621193535,0.3815898502776776,0.2735039288801184,0.23118295731956973,0.2761104213180394,0.5243727089075803,0.2012400082640137,0.11984130719644166,0.25831181022914024,0.2541954651675875,0.16513783716484987,0.3363133566693579,0.20051741326732014,0.055864965517339424
144,46292.02001953125,35341.0,"[10,13,23]",3,0.3494264723578432,0.25858179968984346,0.49208310469272226,0.4916557089841611,0.43352741702225883,0.2958235833357934,0.29296259434587774,0.38198084802521676,0.7310600470221368,0.4155997816626486,0.31567177816406117,0.13796981922204465,0.36595777766043625,0.528601542253443,0.24108198152426794,0.15890724362997113
144,9863.89892578125,8840.0,[12],1,0.2686574951807744,0.2552620500676705,0.39102975020919406,0.5187155595422948,0.2744370387273631,0.28588138427218635,0.26278554300563894,0.39842371882153477,0.6141361610441405,0.15781493567093963,0.2774210120349726,0.21355180413894229,0.1698398273774632,0.5361829476067116,0.20670990939861575,0.07735887494913912
144,188987.74731445312,141168.0,"[17,18,20,22]",4,0.17942939378942432,0.4554837656259929,0.5138335232068681,0.3848154444426661,0.5632717565294499,0.23855630375276396,0.32158497787444196,0.3649357076341287,0.541224368332928,0.1431472523975886,0.24447772151570094,0.11078069198359439,0.3801509607912389,0.4749856780188209,0.18997281391481677,0.07545688051123592
168,128823.77758789062,92620.0,"[2,11,15,16,24]",5,0.17179301259924254,0.24356184104987066,0.3512092799947998,0.4053329373959343,0.2846211437878298,0.2385522290201017,0.28080592781232394,0.5113774104906146,0.22711277404095156,0.12191713372514101,0.2584142550270735,0.2305996720722939,0.16991932797992168,0.32997869126770574,0.20033913175591894,0.06172359716256074
168,245615.94268798828,203909.0,"[7,8,9,10,12,14,18,19,20,21,22,23]",12,0.21793333908601964,0.3324827953554672,0.47728853307761215,0.43173127209064266,0.4491511959513309,0.28840729879857996,0.29236033659162325,0.36029053456651994,0.5491378422320197,0.2072689590694561,0.27358508556485867,0.12202299091942707,0.298561645749714,0.392368730109138,0.19904808145532238,0.10765774986361182
168,117903.57751464844,93948.0,"[8,9,14,17]",4,0.1720923241417226,0.383491875379535,0.4897073381496745,0.4051699210123296,0.5006017959176192,0.17172500659850498,0.33281276108021124,0.35185269577751604,0.5245595986126755,0.15294995408932696,0.24870655039803002,0.11339269617255382,0.31656592948748946,0.39147915834947,0.189021914184905,0.08888820974207624
