time_in_hour,cumulative_size,size,pcore_ids,pcore_power,AF700 CD48_[R 730_B-A],APCCy7 Ly6G_[R 780_A-A],BV421 CD117_[V 440_F-A],BV510 SCA-1_[V 525_E-A],BV605 CD11b_[V 610_D-A],BV650 CD150_[V 660_C-A],BV711 CD11c_[V 715_B-A],BV785 B220_[V 780_A-A],FITC Ly6C_[B 525_B-A],PE CD115_[YG 582_D-A],PECF594 CD135_[YG 610_C-A],PECy5 CD3-CD19-NK11_[YG 670_B-A],PECy7 CD16-32_[YG 780_A-A],PerCPCy5-5 CD45_[B 695_A-A],_FSC-A,_SSC-A
-1,0,0,[],0,0.0,0.0,0.0,0.0,0.0,0.0,0.0,0.0,0.0,0.0,0.0,0.0,0.0,0.0,0.0,0.0
0,161311,161311,"[0,4,6,7,8,12,15,17,19]",9,0.3073610056288787,1.882899637358891,2.0582917274705346,0.6686733116154531,2.7307271627973217,0.3211123494120036,0.146717377116254,0.6219108537855464,3.91865490160002,0.5573813906987134,0.13541719644661487,0.11375836394294203,2.078262805518536,1.546949405514815,66623.90676395278,19243.831257632733
0,109732,109732,"[1,2,9,16]",4,0.36961190197936866,0.17207193434915125,0.738721081471212,0.5073338034392729,0.29174405656509306,0.27338139221922764,0.040553536862536266,1.9994128313163104,0.7968304227937176,0.3916752976068968,0.2073167737761037,0.7403922352185326,0.5575731623136376,0.8296953897404591,68697.2390916048,14884.195822549429
0,27617,27617,"[14,18]",2,1.9862713627113646,0.2744829393851549,1.5341416056776613,0.8017189590107612,1.6649999387695988,0.38097082047289543,0.033768570590579916,0.7573195987616135,5.742334088532439,3.2800140722743216,0.39492689231269473,0.16753044794872607,2.438609745627689,1.7629062983669408,71278.88822102324,24902.572183799864
0,114364,114364,"[2,9,16,20,21]",5,0.2842172759434789,0.11558264497570159,0.22166305372318984,0.5471352147354014,0.26067698163758335,0.23213516179917115,-0.024373980369690962,2.8659849550383063,0.7065932233395139,0.3442755369172108,0.16043270663844345,1.1494967066471966,0.6198806628921666,1.2261441829421844,70732.5835402747,13569.747123220543
24,309921.0,148610.0,"[0,4,6,7,8,12,15,17,19]",9,0.3363835868560081,1.7674488297856628,2.0978358463156668,0.7074913074557698,2.6729488753198454,0.3334269734480739,0.15311800742123705,0.6628143113535421,3.9573039622710398,0.5735576752236878,0.12092903812906552,0.11986315122563329,1.9985758387944035,1.5063256738910902,66400.25430996921,20994.336801959194
24,229507.0,119775.0,"[1,2,9,16]",4,0.36574410716013617,0.16351721925695983,0.7786625226855883,0.5426178229465468,0.26692409541321016,0.28881613810473517,0.0251640857010913,1.9330612807452754,0.8053160277333647,0.3735346560409878,0.19875935847708126,0.7044531620473509,0.5269242635910917,0.8182985556475446,70344.72911065895,15834.824245012003
24,22187.0,12137.0,"[3,5]",2,0.930276235948978,0.24338953224861815,0.6030619856672859,1.5912124512552337,0.2708377879839583,0.44310057533691616,0.47875476747645385,1.8273603861720806,4.461913312615509,0.5154535414882618,0.36810091864605843,0.676217371298506,0.5185074952449596,2.1373503472303588,69138.55068283224,18768.964168206614
24,91370.0,44681.0,"[10,11,13,14,18]",5,1.6710021500383039,0.439085475856404,2.208768892645296,1.4745932664331804,1.922114418988739,0.8878075416985929,-0.19605380836160657,0.9688993527087515,5.152392941184207,3.2535778005800706,0.8261531796760395,0.3289799775418625,2.4160168281164456,2.0690387863193513,92424.8900952173,59515.56125642988
24,235763.0,121399.0,"[2,9,16,20,21]",5,0.27063791872346665,0.10816668081932557,0.23364839149484995,0.5937656713818278,0.22616008118322473,0.2531637717241615,-0.03301761493957667,2.8342442548788673,0.7016189512094823,0.32387295986223075,0.1524357390090807,1.1289036012648337,0.5716709998430632,1.2268465351178932,72433.02903339366,14112.273766451764
48,453898.0,143977.0,"[0,4,6,7,8,12,15,17,19]",9,0.3289179074131299,1.7296729694689081,2.0709121846273644,0.6855198312197857,2.6269010221812006,0.3345128751019002,0.13996669013081364,0.6489796146865574,3.932627493093166,0.5164149689842227,0.11932730935584912,0.10983051515098108,1.978349757055562,1.4344885259419538,65652.42495891126,21186.142507788092
48,367786.0,127077.0,"[1,2,3,9,16]",5,0.38355425863953796,0.16895976515420452,0.7623062477826799,0.5676482937469167,0.25691002720874634,0.3002697724029926,0.001479893068226712,1.8563860926218476,1.0001690963495165,0.3652044631524901,0.19417011716594335,0.6889203300587909,0.5210561981315344,0.8701280573567209,69829.08295584926,16373.49284638331
48,117089.0,48415.0,"[3,5,4]",3,0.41728270850379734,0.8311698369188787,1.1618184780722025,0.8970877703798115,1.2481091172099714,0.3140465596768278,0.28436601374168813,0.8916362446856909,3.665634748840637,0.4515602036228865,0.24718001225565223,0.2787186131062759,1.0071798373801122,1.1350405472674676,62082.031138706174,18538.527649907428
48,151910.0,50351.0,"[6,10,13,14,18,11]",6,1.6917696096833537,0.42329245803436333,2.3222284901389014,1.3833818297215372,1.800238607221389,0.8275155432032173,-0.1175563054242712,0.9324473281679868,5.113955029978294,2.9959301666447264,0.7373929966164234,0.2962519142386939,2.3477421611085543,1.9402137203475618,86284.66897505108,54125.91392271738
48,350179.0,114416.0,"[2,9,16,20,21]",5,0.2680410749502471,0.11193478920495492,0.23063891702527695,0.5862988725394764,0.2244463981535043,0.2557850226655667,-0.02543483453607731,2.802263270604512,0.7102304095733939,0.3169421078391339,0.14520020483807627,1.0766733242398978,0.5758301900742285,1.1768718473780497,71573.36726645497,14445.471601666388
72,626046.0,172148.0,"[0,4,6,7,8,12,15,17,19]",9,0.34317259653124954,1.6724181521485768,1.94524493835277,0.7700243547183336,2.5253242844886894,0.327908127738221,0.13604402870874388,0.6762056833651173,3.804973584717398,0.5342424800541835,0.16816859276954865,0.1218947379122326,1.9011878178073216,1.4146277368739693,66682.03300076957,22289.98482539626
72,466238.0,114782.0,"[1,2,9,16]",4,0.3350905959788797,0.1847150551220902,0.7131157492847233,0.5656219401807983,0.27441005642183036,0.28837056571536834,0.008298692534715713,1.9676112920118367,0.8178094252120162,0.3512237159669567,0.18902454574484873,0.6516203538321705,0.5384671720859392,0.7928827861714327,69264.19361785224,16732.290032129233
72,42339.0,7658.0,"[3,5]",2,0.8949737791634107,0.2691870671248835,0.5381496632891709,1.6701097609060138,0.31311389208531804,0.42862982042561226,0.4593528990528828,1.807530706346408,4.420065355558713,0.537627818701432,0.37225906138548126,0.6499494349417803,0.5610605549729556,2.038502802333552,68679.05165450276,20117.83821063316
72,190658.0,38748.0,"[6,10,14,18,11,13]",6,1.6842020122732773,0.45425368680568745,2.247872970260897,1.509841480934453,1.7902017940920425,0.8435255479392423,-0.13945912002643635,0.9459419743414843,5.071205844805888,2.9410480002202894,0.7643428118515851,0.2998031524562319,2.340095463835779,1.9600289769482357,87774.29844013898,55831.05111770825
72,470252.0,120073.0,"[2,9,16,20,21]",5,0.26183865648206006,0.13247606436338444,0.20448389499887432,0.6280270888800259,0.239239420195982,0.2536067477054855,-0.030804566594080818,2.8051749883360753,0.7068412725411083,0.3158761146066361,0.14812727249216362,1.027583910112029,0.593345383447604,1.174869773870169,71576.62053537271,15080.679601575153
96,760687.0,134641.0,"[0,4,6,7,8,12,15,17,19]",9,0.3572755557805012,1.7663906909215084,1.9794323638040336,0.8267667889473471,2.6180588231348705,0.33056531156573454,0.20613476842905065,0.7293379160666484,3.798024417631677,0.5498382269645746,0.17068486827170704,0.12573895066170693,1.9774027901725666,1.4970726091848654,66836.38275401035,22003.300995021633
96,544954.0,78716.0,"[1,2,9,16]",4,0.35890808656327056,0.18914696578428236,0.729687838116607,0.6008901865350298,0.27849864652980516,0.2927364211823409,0.029631073842925737,2.013987402358776,0.8133010908608745,0.3664692280577717,0.2020298714001343,0.6891535772927675,0.551547168757384,0.8124616689445276,69454.05993166409,16665.064515536687
96,54997.0,12658.0,"[3,5]",2,0.9464168811753246,0.2731214743713406,0.5220730126006909,1.8827779259595814,0.32322432130844225,0.4373849286142917,0.5770110623852154,1.9459441415349907,4.4246599086495815,0.5751422850519111,0.41594025314108096,0.6496559993090567,0.5901179689255763,2.098803239140322,68228.62570685655,20121.521101150913
96,229652.0,38994.0,"[6,10,18,11,13,14]",6,1.7363709330160326,0.4605119587680506,2.2431084038109854,1.599222916395247,1.7968728992823944,0.8351739129291305,-0.0799656109853264,0.9904356045320641,5.075172037909528,2.9272849346445855,0.7930706939151397,0.3134717913277537,2.3667548566265606,2.0123264034190727,87480.24231445853,55048.477243830115
96,566849.0,96597.0,"[2,9,16,20,21]",5,0.2935580261321791,0.1360344532053679,0.214072453755771,0.6764484206517216,0.2465542598716839,0.25043793403357606,-0.0023583049930437916,2.873169855649423,0.7032516488500457,0.3345413526494623,0.1604199902248915,1.0889667389445878,0.6101969628084566,1.2109898246128963,71779.16195671156,14927.401801890488
120,956018.0,195331.0,"[0,4,6,7,8,12,15,17,19]",9,0.35774446342014166,1.8890499022455725,2.0455523365365447,0.8970129397898163,2.7497605327012455,0.3383249664953989,0.2791941521467076,0.7903225331196606,3.807673413412726,0.5385072448416258,0.17311703002663492,0.12409213388451101,2.0754756828281593,1.6059198528343672,66507.66183900274,21484.213929026446
120,625402.0,80448.0,"[1,2,9,16]",4,0.3678469049475386,0.19983330496225316,0.762257622214189,0.6289537924423128,0.28753203906610425,0.29541068054465924,0.04492854718243722,2.000669274223614,0.8193441201739019,0.3759517188208511,0.21687608435531125,0.6947984587625298,0.554130861003019,0.8250165095490531,69381.44008493812,16631.187185202118
120,67976.0,12979.0,"[3,5]",2,0.9613097614157862,0.276531209529844,0.5319347260945078,2.0414235078998444,0.33553335075614665,0.4427993709250353,0.6430079491143932,2.052669152215496,4.396262250323678,0.5859531710456679,0.44446904411849975,0.6524547683741344,0.6032016497293143,2.1472819755649053,67315.9223255267,19925.9446863599
120,276408.0,46756.0,"[6,10,18,11,13,14]",6,1.7892969648816217,0.4745706048414018,2.254320532216861,1.7065824729204677,1.822470631172037,0.8192126634395593,-0.030539918153602574,1.0452236778385564,5.077626604826914,2.9133945588803463,0.8176014782495442,0.32600367689068843,2.392309249041278,2.0724059063413365,86621.09299296713,53983.66796908945
120,653603.0,86754.0,"[2,9,16,20,21]",5,0.3000784624703414,0.14080979506521452,0.23475611798447105,0.7174579536369987,0.25630056590165573,0.24958146797824865,0.01612769982541673,2.8898662501885735,0.7048112748212624,0.345641955012444,0.17194352845990446,1.1154913263708999,0.6123446661673976,1.2399570644183067,71802.87267959354,14814.436580003125
144,1284237.0,164654.0,"[0,1,4,6,7,8,12,15,17,19]",10,0.3759296163371679,1.730329891294991,2.048538944821695,0.954588342747472,2.487658811247448,0.3428683897660616,0.312963834255652,0.810179954776252,3.4272898223949477,0.5436648655341648,0.19171851647865923,0.14900574768442698,1.9110009137238695,1.5148679591080139,66029.54339424864,21088.20444824426
144,927750.0,110582.0,"[1,2,9,16,20,21]",6,0.3432461063864156,0.17025575592563547,0.5652858612557332,0.8412705426020137,0.29803891451794984,0.26986193594609253,0.06173288465208637,2.522976202424184,0.8128712493139313,0.38826442098194136,0.21487818390944868,0.9977185075688444,0.6178417383961298,1.156637114471565,70351.62069091995,15919.599512799508
144,87633.0,19657.0,"[3,5]",2,0.9797824408042624,0.25379591714308436,0.5131471444661404,2.314510189175319,0.34225659182043433,0.44603027360698455,0.7046233322492541,2.210754141510632,4.377078491492979,0.5850617293599482,0.45497286719613994,0.7189061684068787,0.6170941200460943,2.229903044811886,66927.2326178494,19520.406057078966
144,321817.0,45409.0,"[6,10,18,11,13,14]",6,1.817597118582926,0.4670652201810399,2.245625968087444,1.8206783062516831,1.8616891864351692,0.8119995154202628,0.039999642685127235,1.0697854299337703,5.08260652671859,2.954202143112394,0.83129859911688,0.3444515341576151,2.3964968545229,2.134792251049491,86212.78403564768,53167.21610107637
168,1477585.0,193348.0,"[0,1,4,6,7,8,12,15,17,19]",10,0.3706842497494167,1.7074161530037348,2.0345254431514825,1.0127087056663364,2.4822458992098375,0.34340890477637087,0.3344933398382999,0.8053254016188571,3.399732287682272,0.5565300519198525,0.19312068590369602,0.1479482148363772,1.8950603766835785,1.4938891927340878,65736.41394572871,21260.22201903762
168,1030842.0,103092.0,"[1,2,9,16,20,21]",6,0.3347180247972006,0.17160213344043296,0.5731318560089846,0.9313390970313624,0.31228345573038796,0.27685511412998554,0.08415603565820584,2.5342156819833157,0.8432587687453564,0.39873910999939377,0.21986210074677182,1.0069770202746822,0.6294845471575766,1.1810866905461634,70366.32134119578,16055.367615987388
168,117339.0,29706.0,"[3,5]",2,0.9060137445947094,0.24133851653756055,0.5274572847561458,2.5263214049889995,0.361750536087758,0.4497498450813595,0.7419302738646185,2.2858015958376994,4.318626636003416,0.6064125070522187,0.48385040115391753,0.7529090744935596,0.6395049341565843,2.2125255625495397,67982.6332932781,20098.98458313101
168,387804.0,65987.0,"[6,10,18,11,13,14]",6,1.7960935284396375,0.46124107105650936,2.276540945923705,1.9844875814664094,1.8998667674521301,0.8162635884338558,0.12870867304874833,1.0694036742529551,5.036230826291111,2.93972667105549,0.8468594557224711,0.3563768367371203,2.3825965721678997,2.1494831425230094,85857.85314230925,53207.00213509934
