time_in_hour,cumulative_size,size,pcore_ids,pcore_power,AF700 CD48_[R 730_B-A],APCCy7 Ly6G_[R 780_A-A],BV421 CD117_[V 440_F-A],BV510 SCA-1_[V 525_E-A],BV605 CD11b_[V 610_D-A],BV650 CD150_[V 660_C-A],BV711 CD11c_[V 715_B-A],BV785 B220_[V 780_A-A],FITC Ly6C_[B 525_B-A],PE CD115_[YG 582_D-A],PECF594 CD135_[YG 610_C-A],PECy5 CD3-CD19-NK11_[YG 670_B-A],PECy7 CD16-32_[YG 780_A-A],PerCPCy5-5 CD45_[B 695_A-A],_FSC-A,_SSC-A
-1,0,0,[],0,0.0,0.0,0.0,0.0,0.0,0.0,0.0,0.0,0.0,0.0,0.0,0.0,0.0,0.0,0.0,0.0
0,146825,146825,"[1,2,3,4]",4,0.17536222621766945,0.2634979587100161,0.37887588143576895,0.28597639987390877,0.2979512569809939,0.22740965479564404,0.25958734067608524,0.4195670165872778,0.24521184876559105,0.11521833959962435,0.25253111358605235,0.16547786600523054,0.16846008777522464,0.23358723399988618,0.1903254597321504,0.057457007919507426
0,124902,124902,"[6,7,11,12,13,14]",6,0.17343773788755834,0.4076058753712118,0.5192271960679494,0.30805419602456174,0.5271819046667273,0.2348200343282209,0.26815292951403275,0.32073877571459586,0.579435756207426,0.13763483868800333,0.24529834274992746,0.09593105472356947,0.3436481985133175,0.3908908448196201,0.19726461276164575,0.08026811798617355
0,41986,41986,"[8,10]",2,0.3242952806520826,0.2575720409622954,0.5062492869961935,0.36703257587308324,0.4229027933222989,0.31413341619704693,0.23254150062807538,0.3344176049544697,0.7300164751963135,0.4439109592465078,0.3080582548673673,0.11554982820387079,0.3744096036483432,0.4485054653115561,0.27300586987218556,0.18476618133030004
0,104839,104839,"[2,9]",2,0.16765319185195254,0.23174629611201553,0.29905057912807337,0.28629464446338265,0.25838583775541296,0.22441901857927074,0.249781311724328,0.529977947775153,0.16004694249618467,0.10408419656555246,0.24644907148098244,0.23903668926538846,0.14875116973431377,0.2993006440360003,0.1999672816073119,0.04924322213344165
24,400310.0,193160.0,"[0,3,4,5,6,7,8,11,12,13,14]",11,0.20291564109837487,0.36312390764451763,0.5041940828144666,0.31615600583251907,0.47665212185196765,0.2459405455864974,0.2665696604897382,0.3271513579348171,0.5960260323955382,0.1784884065746075,0.2519783857822597,0.10250468978444938,0.3176872516368955,0.3687872094002493,0.19756843699806104,0.09084958155926906
24,230560.0,118437.0,"[1,2]",2,0.17306700390329302,0.23673876381163259,0.3576635544581737,0.283437784467484,0.2589024002949465,0.22860244895794077,0.2531067290556023,0.44416198180933036,0.17095171887644095,0.10557637878336294,0.24913819149568364,0.17972019936239633,0.13619725194444107,0.2179654535875134,0.20227762368145638,0.05658486211273814
24,212657.0,107818.0,"[2,9]",2,0.16620848492757165,0.23080620952541936,0.30130703261174036,0.2918772889469395,0.2548309201470251,0.22755048468062797,0.24915503780534565,0.5296388698762988,0.15839825630901883,0.10199966415513648,0.24573117035144207,0.23798580063465735,0.14299845344785841,0.30199433415818233,0.20665536003687712,0.05160628456380265
24,82473.0,40487.0,"[8,10]",2,0.32330089318948196,0.26195836289412266,0.5281793383350238,0.37812494239148575,0.42352053269968504,0.32627683348033404,0.23326798714806546,0.3452062850009307,0.7368637528915647,0.4423401759906236,0.3100492268347447,0.11926032390012178,0.37269346077889015,0.45047880068991575,0.2823625576770079,0.20953066984833474
48,501081.0,152157.0,"[0,3,4,5,6,7,11,12,13,14]",10,0.17884315238575094,0.37814074678210474,0.5039995210020302,0.3108116687168911,0.4843246023109689,0.2430069403376274,0.26678478836169744,0.32278016094962836,0.5664099025009239,0.13011987632674146,0.2470641104210778,0.09929969838833336,0.3068079312117457,0.34878350927441504,0.18890397662775957,0.08414514329783679
48,360294.0,129734.0,"[1,2]",2,0.17228124946211468,0.23730717989068012,0.35738469375983856,0.28484464260962683,0.2595629547534152,0.2289502071443301,0.2548207049749933,0.4409140745728812,0.1755330704404586,0.10477255107272128,0.24899029268042397,0.17289275694139067,0.13600211203493345,0.21389189228232774,0.19702010246755727,0.05870543938107281
48,125306.0,42833.0,"[8,10]",2,0.3262478846719294,0.2610436658548744,0.5188735660352349,0.37177250012420693,0.42252947692868725,0.31782053310988,0.23809838934070798,0.34129197616578616,0.7397862200244134,0.43742030160968903,0.30481921655397204,0.11633079230986694,0.37562738969319054,0.4428046389497252,0.27127525170199235,0.19941306465947775
48,318438.0,105781.0,"[2,9]",2,0.16639227576999832,0.2312511991585321,0.3017322485596776,0.29260121919613485,0.25439361260270077,0.2281663599953805,0.25073038125875896,0.5299155742897749,0.1602303014315099,0.1009438089663168,0.24547337019243465,0.23170314751449916,0.1439094247471508,0.2936041917825105,0.20424755866604155,0.05311969518160867
72,788928.0,206191.0,"[0,3,4,5,6,7,8,11,12,13,14]",11,0.20216294370161958,0.3584444956917461,0.4880173964762367,0.32296770924438567,0.46752201720433184,0.2455267957748445,0.2644250679746502,0.327391701901788,0.5815967429015867,0.17118041553058588,0.2550312675300431,0.10135892176386625,0.310130845603994,0.3543108838736562,0.19760511434730094,0.09460019909142979
72,483707.0,123413.0,"[1,2]",2,0.17077748918778052,0.23982014187291317,0.3525921513883826,0.288671345523784,0.2620389475284648,0.22843236865168823,0.25393456640563966,0.44564814304270006,0.17660776562536626,0.10408559588278865,0.24892274991788899,0.1709321626787619,0.13889049834887035,0.21790603702463118,0.19723533404973717,0.0607828026070531
72,432460.0,114022.0,"[2,9]",2,0.16590342498011032,0.23386325203612252,0.3014420829740446,0.2969547910442607,0.2567227200337919,0.2275032715691951,0.25015152623565157,0.5230352883215647,0.16072146427704442,0.10103911523946003,0.2458843120843142,0.2214214804641858,0.14571067838540633,0.29006874353657053,0.2041890687175901,0.05587780574806854
72,148564.0,23258.0,"[8,10]",2,0.3251675935823422,0.2635527304793714,0.5110762035401941,0.38281697544733634,0.41983142357119335,0.31965845516727975,0.2368485802108433,0.34235124717433213,0.7345378955729958,0.4306220894740212,0.3065422984112471,0.11701398341850097,0.37322175805079055,0.44403241543715277,0.2749873221199391,0.20165538991290344
96,961753.0,172825.0,"[0,3,4,5,6,7,8,11,12,13,14]",11,0.20482210670244202,0.36567569221290813,0.4906828884278642,0.3313106485789194,0.47497283393385575,0.2457357497869659,0.2716142565333954,0.3329040039856226,0.5812860224942782,0.17268679081784796,0.25618333367201224,0.10227442089344711,0.31815281548712326,0.36946072721214435,0.19789694850980913,0.09354052060609294
96,566792.0,83085.0,"[1,2]",2,0.17309499577862983,0.24019497368332463,0.3534952458179378,0.29143866521282247,0.2620236883850277,0.22810375503493943,0.2554313832737214,0.4507448885712901,0.17552431760300263,0.1053171952745135,0.2500338039050932,0.17694607576452046,0.14019515552648312,0.2205083251518052,0.1981986181594116,0.06031698802985582
96,523852.0,91392.0,"[2,9]",2,0.16957404759428046,0.2341018555953323,0.3020451282880523,0.3026902719981175,0.257471239375946,0.22706718993004069,0.25293994751794585,0.5294218917702794,0.16012786193086911,0.10337358817156718,0.24716593374721732,0.2304726132091071,0.1477893127603772,0.2977139151834915,0.2050037969040913,0.0551267268602158
96,178674.0,30110.0,"[8,10]",2,0.3308770877658574,0.2639514092283222,0.507950639286491,0.393947808442542,0.4194635105207668,0.31921291996428536,0.2410038654189683,0.3471236382936451,0.7362487131978256,0.42780348958407066,0.3093693813984035,0.11870795819649782,0.3754142056936734,0.4547589939242111,0.27371220338655766,0.19846022517775547
120,1201739.0,239986.0,"[0,3,4,5,6,7,8,11,12,13,14]",11,0.205088882662853,0.37643681716233907,0.4972107170342457,0.34022987325942583,0.4872452418818353,0.24620014174017937,0.27839383089603426,0.3386051786283527,0.5815124311798007,0.17025499128933197,0.25681721608091707,0.10217158767086217,0.32868925367114776,0.3879608456503845,0.1958308863482403,0.09120150786759398
120,648792.0,82000.0,"[1,2]",2,0.1735103291809878,0.24116723110408436,0.35654397544953437,0.29383963336286556,0.26265469754597404,0.2279064873715149,0.2566757481998201,0.4498519206344029,0.17565743324386218,0.10606055227110996,0.2513882873878327,0.17781432682772755,0.1401028698362537,0.22124171525548597,0.1977904376409787,0.059983471890900475
120,599642.0,75790.0,"[2,9]",2,0.17003949555786332,0.2342734534797239,0.30314874899524413,0.30683982297159046,0.25827981811589834,0.22691382389647952,0.2546551082385225,0.53273869042548,0.1595880925876985,0.10442887831277588,0.24817042735127343,0.2350936589545087,0.14807640541055653,0.3041555787308716,0.20498403618696515,0.05449634063664095
120,212231.0,33557.0,"[8,10]",2,0.3362777702468078,0.26460702654401325,0.5080614726416643,0.40640970406316473,0.4202017243920312,0.3189881371538695,0.2443782315832661,0.35256904195009714,0.7366072810210839,0.4275843856889145,0.31236422725254515,0.12033467945701824,0.37778816877777627,0.46559181989568016,0.270633688438647,0.19555042993220806
144,1235881.0,174318.0,"[0,3,4,5,6,7,11,12,13,14]",10,0.18597051546641055,0.3972891010104111,0.5026118164766128,0.34592920343649997,0.5032977085855459,0.2444809999134811,0.28614889411384437,0.34114497484224066,0.5523986722368558,0.13828148227793635,0.25268746835114786,0.10373503489377987,0.32691925169813113,0.3948527561421741,0.19219047924971036,0.08537339479674905
144,722110.0,73318.0,"[1,2]",2,0.17516791020960248,0.24128163609470238,0.3582648518729284,0.30195291727003304,0.2631977236630007,0.22850472714378534,0.2589770081628228,0.45348053710081526,0.17657655264243324,0.10726490292002862,0.2521355104281029,0.18285678326174104,0.14195129357896547,0.22614649693531624,0.19759419993184107,0.059655041826561096
144,248989.0,36758.0,"[8,10]",2,0.3380473811541588,0.26340815054144684,0.5061893121324018,0.4202988276013327,0.4217341169352454,0.31824739701086635,0.2506194531467932,0.35720858624704455,0.7355779420082215,0.4291648191710484,0.31431200897776496,0.12445876269484316,0.3762395389595911,0.4775854554823397,0.26913163086024683,0.19308881712537884
144,686996.0,87354.0,"[2,9]",2,0.17156593401910622,0.23356632104633762,0.30377091797307443,0.3198791473296352,0.25887379739392746,0.22726862694848032,0.25762462839952344,0.5399389105934974,0.16202035623994968,0.10609384937493363,0.248863801078499,0.2445809923920054,0.15038047748580755,0.31511219090927156,0.20510479794545877,0.05409174029225586
168,1714269.0,244453.0,"[0,1,3,4,5,6,7,11,12,13,14]",11,0.18485877576661347,0.37060929425752975,0.4919730713691566,0.35029925697185393,0.4654020737920136,0.24299745514225252,0.28561671195626837,0.34172005853198334,0.49838438694358383,0.1372654493238024,0.25487928741957633,0.10777179983189021,0.29420357142285875,0.35806448057058265,0.1909473675126397,0.08353544650198241
168,1032153.0,111222.0,"[1,2,9]",3,0.17217181163538725,0.23879325635714832,0.3418502587902034,0.3277418252960895,0.26606455379914984,0.22984209292663282,0.2617128158664362,0.4906467703459075,0.18200096181287248,0.11006420389383013,0.2526644382513626,0.21484015198911013,0.1491282793935252,0.2837452822957895,0.20103091261748554,0.05849702449053101
168,293294.0,44305.0,"[8,10]",2,0.3368138091621486,0.2630465858110879,0.5103797091774895,0.4353783047786524,0.42686729711044774,0.3212734653784761,0.2561641369194248,0.3565758359705354,0.7318984262971405,0.43083804130730396,0.3167728352103309,0.126229213447912,0.3757647397092132,0.4831875550564047,0.2712912945877158,0.19680967440509295
