time_in_hour,cumulative_size,size,pcore_ids,pcore_power,AF700 CD48_[R 730_B-A],APCCy7 Ly6G_[R 780_A-A],BV421 CD117_[V 440_F-A],BV510 SCA-1_[V 525_E-A],BV605 CD11b_[V 610_D-A],BV650 CD150_[V 660_C-A],BV711 CD11c_[V 715_B-A],BV785 B220_[V 780_A-A],FITC Ly6C_[B 525_B-A],PE CD115_[YG 582_D-A],PECF594 CD135_[YG 610_C-A],PECy5 CD3-CD19-NK11_[YG 670_B-A],PECy7 CD16-32_[YG 780_A-A],PerCPCy5-5 CD45_[B 695_A-A],_FSC-A,_SSC-A
-1,0,0,[],0,0.0,0.0,0.0,0.0,0.0,0.0,0.0,0.0,0.0,0.0,0.0,0.0,0.0,0.0,0.0,0.0
0,104891,104891,"[2,3,16]",3,0.16771105923336893,0.23126729906705565,0.30655088395033203,0.28639778330926063,0.2581679893213842,0.2220732335606614,0.25136537749173776,0.539079795746673,0.15958635813844887,0.10386544531191605,0.24664050334195098,0.2464600887411053,0.14975665606721758,0.3059976588283117,0.2020736792056125,0.05006517555838177
0,28577,28577,[4],1,0.3510243584906289,0.2478416430359284,0.45953833502337554,0.321982813093407,0.4078820460700262,0.24671947575308997,0.25845962730620203,0.32657386258887916,0.7942539623578452,0.4518335875990521,0.27611058112889103,0.1011371334485848,0.3778111362433455,0.41061514492624884,0.21438534068612441,0.10347334172690573
0,159747,159747,"[5,6,8,9,12,13,14,15]",8,0.16861633772173748,0.4042532035904186,0.4962183801223406,0.30349033317779656,0.49922160933213955,0.22771581034300858,0.2721522668211695,0.3146093996438852,0.5563009575659247,0.13169604790648476,0.24664625961040595,0.09458042682509658,0.3227203699239338,0.3579515093524247,0.18692669614990262,0.07264760436992798
0,24672,24672,[11],1,0.16618087039214047,0.23909073770339162,0.35846931425558715,0.27885282972933956,0.2662523349575777,0.2238109729755793,0.2591001683563244,0.3153119462939219,0.17049332937926742,0.10968061425978878,0.24995751572294528,0.11165956427855338,0.12278702255042515,0.1527374637172114,0.1970713875275655,0.04235236812741806
24,121369.375,108258.0,"[2,3,16]",3,0.16522966490059124,0.22990183335457812,0.3079997626506538,0.2964241186969609,0.2524150321878527,0.22863890586038252,0.2495862420439457,0.5378824414801913,0.15726970457030703,0.10048857027291523,0.2452945078755098,0.24425552555207938,0.13995178136451097,0.31121398252919835,0.2142857925010802,0.053839517663856334
24,27280.125,23708.0,[4],1,0.3534407945780749,0.2575411344668715,0.4995749531150284,0.3363917649208355,0.41591870796101316,0.2573453274974564,0.2650358901382309,0.3517138966162887,0.815568107679598,0.44521230680362256,0.2724332699052832,0.10596264884321438,0.3835822465442382,0.41297915531997387,0.217876620747604,0.13357487145073726
24,166472.375,146504.0,"[5,6,8,9,12,13,14,15]",8,0.17430203111875367,0.38308331136321927,0.5053791303786804,0.3120442880015719,0.4879915593700375,0.23100346208416414,0.2744538306629182,0.32298542090456944,0.5669169517641448,0.13517587079269852,0.24385441222338886,0.09540792692683568,0.3040747626950038,0.342939896555862,0.1844321132552956,0.08487200438638419
24,20243.125,18298.0,[10],1,0.2805299699546414,0.27675212204814,0.6059663974001552,0.46649947091238697,0.4510956958958964,0.4426478013624962,0.18842240148982323,0.35571483453262087,0.6426842104055984,0.460973937997782,0.3740342377814842,0.14659423475643424,0.367403304062309,0.5223584384462978,0.4160319894208089,0.38836956073215684
24,36668.0,33584.0,[11],1,0.16581777564991812,0.23802025739777816,0.37513396641752217,0.28329573872785285,0.2612088339664756,0.22586565797360247,0.2570094359099359,0.32227716581915655,0.1752467032627103,0.10156966318566882,0.2484058104923343,0.11543363246494302,0.11806848120621,0.14825902526174056,0.21063198137906694,0.0513377252321699
48,123081.796875,106995.0,"[2,3,7,16]",4,0.1707786622629965,0.23184326556314547,0.30766396186861217,0.2987710871602808,0.25071305082548395,0.23177925930833004,0.2515658349655915,0.5291093442020549,0.19577555442921826,0.09879658036764505,0.24534796961123406,0.22710801713901804,0.14312379407969897,0.2991243705852053,0.20353681194776282,0.05711616584893533
48,29465.015625,26055.0,[4],1,0.3647846114583308,0.25161810531512097,0.4658417674740873,0.3232364486590484,0.42802076121559546,0.2581966766551535,0.2618896452453175,0.32967144069578763,0.8142790278613179,0.4421462177727256,0.2680388718317234,0.10039014525478307,0.4011598763667602,0.41767116302752355,0.20960498803299807,0.11814650762453323
48,125917.390625,109761.0,"[5,9,12,13,15]",5,0.15385676010474467,0.37622124331043294,0.4762241407969165,0.2981117102200237,0.46946450175165266,0.1884083994736579,0.28960805422042674,0.30875406651216214,0.5462231290333952,0.1086996222249449,0.2407294671465483,0.09021660944596144,0.2865553596579312,0.28892511967770346,0.1695109936310852,0.07386140318249768
48,44732.5,40149.0,[11],1,0.16157405993584764,0.24270008227679757,0.3788234911673454,0.28660622637687067,0.26878750881664915,0.22509823597303566,0.2601337106887231,0.31274366546055393,0.1958812889653658,0.10581924771622815,0.24985398665626724,0.10761046869809669,0.118407248745315,0.15635800936579689,0.18488467629968253,0.0592098510232511
72,125273.896484375,111048.0,"[2,3,16]",3,0.16257249316265038,0.23774234345605308,0.29384043327051385,0.30533429644581966,0.25829862603393927,0.22492987010517893,0.24794279709878903,0.5291607969861221,0.15299250721099936,0.09900707455014165,0.2453053540573358,0.2082512873036453,0.1503413104631842,0.28998531257210475,0.2068208956906521,0.06145082525514816
72,23452.126953125,19769.0,[4],1,0.3470848097207581,0.26255622877165863,0.40882519264303746,0.40838576909363083,0.41858499219097256,0.24915089886040812,0.25885477717320254,0.335931097022498,0.7744269692265043,0.41720169303411564,0.2782283188245977,0.10575942125136395,0.3769708165475978,0.43997775693294494,0.2297877144935974,0.13125019595489662
72,170002.775390625,152251.0,"[5,6,9,12,13,15]",6,0.16911100047852964,0.37472663881219126,0.4496565050078298,0.32896511356814223,0.4596483757917962,0.22068068570717356,0.2718002827683009,0.32290145709655854,0.5068032291648769,0.12635170323829542,0.2576148164850408,0.09712755941294307,0.27942181227766044,0.3167484439520206,0.19388234450976477,0.08935553444478392
72,38274.5625,32683.0,[11],1,0.16593698470669158,0.256242322582842,0.38951198671603177,0.30279982341206196,0.28357036789964785,0.2290061253253139,0.2570785593653914,0.3461141170191377,0.22524665711590874,0.1072496833593859,0.25432008065650413,0.11560200176136605,0.13355556523614098,0.16324364817849085,0.1857433528451083,0.07003878947737663
96,107192.23706054688,91533.0,"[2,3,16]",3,0.18252244923509128,0.23519339185227484,0.30504804395478896,0.32464303900298663,0.2596193526154499,0.22340838805825716,0.2638630938798354,0.5621933393048988,0.15480488283030913,0.11140383273122996,0.2518535667372264,0.26936668136338626,0.15644066443367893,0.3276718804858248,0.21057962489686963,0.05302359913225626
96,24725.515869140625,21794.0,[4],1,0.3771705138439437,0.25770222356869144,0.4383034749167361,0.4255300975153232,0.4165614848053202,0.2485024845780224,0.27491770939847326,0.360797573535545,0.7937833094638446,0.41392515116184425,0.2910859054088551,0.11184471418660989,0.3869947850574522,0.47890231732271815,0.2152464877470431,0.11684626848273026
96,115722.34692382812,94472.0,"[5,6,9,12,13,15]",6,0.168190095137309,0.4192059779672246,0.49071482547083184,0.34452337011708833,0.5180518967272822,0.1792182747490447,0.3246710906631182,0.3338504923207101,0.5279338270182813,0.1320288929589936,0.24942097929954668,0.09949311807116788,0.3348502496530529,0.39232259264795916,0.19125817856808805,0.07818554336936132
96,22869.3203125,18085.0,[11],1,0.17337792485548814,0.2534880395164491,0.4072776481241472,0.31424692317283487,0.27651111999531225,0.2294453836953025,0.2641318015416232,0.3363938144003284,0.21121424048616808,0.11590255852328721,0.2623442172998915,0.11944434671581873,0.13523237575521163,0.16223094467400379,0.19807786067000546,0.06388600077804309
96,59600.5888671875,53810.0,"[9,13,14]",3,0.19154477937799486,0.47213141993040914,0.5006350837981546,0.34335262730997274,0.5538511836834367,0.3495487655141791,0.26258722597662654,0.3500553029118582,0.5407396479659304,0.14351552190017014,0.2567241553982063,0.09425208203553806,0.3781921162800977,0.4492880231350295,0.1963283660056681,0.0777690167879974
120,28251.689483642578,25161.0,[4],1,0.3806565903616089,0.26024878272137886,0.45606021839456096,0.4574124748158903,0.4320860597446799,0.2406087908744047,0.2788504654688391,0.3832113289908523,0.7941403310258349,0.42251054183369996,0.29502283316370664,0.11564748826595103,0.39476411557882185,0.5072483398550369,0.20523036431204317,0.11470237507758621
120,150724.29336547852,136259.0,"[5,6,9,12,13,15]",6,0.15957260866565967,0.4418155705339793,0.5159056924820018,0.35156766044510096,0.5458064801597025,0.16665786170371988,0.3380409542827863,0.3363106890527666,0.5358589819057494,0.11856795394851677,0.24733129485308966,0.09924013949162515,0.35627524185358306,0.4294324039105016,0.18369636459007746,0.0721274813056276
120,89296.50466918945,77198.0,"[11,16]",2,0.17469100346616104,0.24362304432657886,0.35504053018654225,0.302397648185898,0.2638393650669734,0.22366215827485042,0.2657804327125839,0.4625647982547421,0.16350870625899155,0.10872660171607604,0.2566727765352249,0.19512660031749,0.13965051069789064,0.2344189301616357,0.1990164193811244,0.05378989986556139
120,81614.62194824219,75361.0,"[9,14]",2,0.18793756079052823,0.5068720124940617,0.5259572505588058,0.35320271341163045,0.5937065766877068,0.36948291935782585,0.2619603326805389,0.3571838661131565,0.5569745025847128,0.1299029702399198,0.2554428560549102,0.09146145627584285,0.4119075936215166,0.5037645908783495,0.1904817873782097,0.07194821785746845
144,98885.37870407104,87902.0,"[2,3,16]",3,0.17982215826593792,0.2279175748034595,0.3068377563734506,0.40647501163300187,0.26216974961392825,0.22890419296014397,0.2747652601252106,0.5965676575913607,0.17862527963985925,0.11717377342979038,0.25349310037314193,0.31629353204461963,0.1660386430001669,0.3952812999867949,0.2084664711993782,0.05138828562500707
144,35860.635303497314,31388.0,"[4,8]",2,0.3760180637366117,0.2528145966865006,0.49932645906446926,0.4843164052742567,0.42865284663535047,0.24915496893704567,0.30488145227202956,0.3584500618270919,0.7599653767364003,0.45359365491503445,0.2989505762746667,0.12529205949111008,0.3724050979899612,0.510758715814334,0.20154922253192317,0.12695054070182088
144,142356.16327667236,122519.0,"[9,12,13,14]",4,0.16867266685546714,0.4893550321361644,0.5241876688505995,0.37158952499143855,0.5892305014595163,0.24408151108936046,0.31927914673629854,0.34938542418663127,0.5386163649456592,0.1277278388162859,0.23669407169716333,0.10004833660815572,0.39755131935593546,0.4808646741644101,0.18682900425278004,0.06784512806279894
144,32812.73361206055,27163.0,"[11,15]",2,0.18603114221726413,0.2598884535936177,0.40787767629509436,0.35723964164337585,0.2831838701718256,0.2338489661707387,0.27523368570296436,0.3405127256541063,0.27540487468132746,0.12308617041121968,0.2683734501389415,0.13179625360146024,0.14938989295376284,0.21555647689510615,0.18436391302623112,0.059883957162335494
168,81311.67233800888,68951.0,"[2,3,16]",3,0.16116483833543216,0.22865961031655008,0.30204125712920554,0.43037197474458244,0.26358856262287483,0.23862704466182083,0.27981693692299947,0.597887409207416,0.19832687184531533,0.11866830029244138,0.25324929908161525,0.289967123817038,0.1659425278281851,0.3888595309448789,0.21288759678588626,0.05613011501337342
168,40306.579412937164,35824.0,"[4,8]",2,0.3452343451747414,0.25191627035209563,0.520069907753521,0.5190926788731439,0.43531379984405116,0.2679345325919794,0.31137963818329445,0.3407525679270144,0.7219179239307135,0.42731392160101694,0.30141951307971226,0.12581772085583373,0.3729919806835616,0.4844730760669023,0.21087993401665744,0.14963961369826057
168,176730.9420838356,161071.0,"[5,6,9,12,13,15]",6,0.16977918121986635,0.37173421802467954,0.4800050253501789,0.39286019129559613,0.48235997088490573,0.2087122037801393,0.3138763356018937,0.3274197426574185,0.516267337155755,0.14552033175095508,0.25135483893744964,0.10624208156768081,0.2969429100722802,0.34986451522688405,0.18378153308730238,0.08645111775167358
168,31551.99476623535,28786.0,[11],1,0.16374246428023093,0.25960968890431857,0.40741906055319754,0.34490046772028615,0.3074847148330918,0.2247517866392999,0.2733809620757485,0.32004866189111064,0.23790978204806434,0.11009885158198114,0.2564997097030682,0.11608252505210166,0.1535340069348757,0.18321129673746742,0.1787355902093616,0.06490415219786615
168,52130.978467941284,42421.0,"[9,14]",2,0.18820964671733292,0.4771066599677968,0.5232388850122822,0.37717736466129687,0.5821467757445689,0.36530945557722116,0.2741189232430206,0.34405257409594103,0.5100752293577879,0.14450309708528292,0.24783297501090926,0.09394242793466272,0.3817424074879141,0.44337543281602154,0.19626748641234965,0.07845378362749669
