time_in_hour,cumulative_size,size,pcore_ids,pcore_power,AF700 CD48_[R 730_B-A],APCCy7 Ly6G_[R 780_A-A],BV421 CD117_[V 440_F-A],BV510 SCA-1_[V 525_E-A],BV605 CD11b_[V 610_D-A],BV650 CD150_[V 660_C-A],BV711 CD11c_[V 715_B-A],BV785 B220_[V 780_A-A],FITC Ly6C_[B 525_B-A],PE CD115_[YG 582_D-A],PECF594 CD135_[YG 610_C-A],PECy5 CD3-CD19-NK11_[YG 670_B-A],PECy7 CD16-32_[YG 780_A-A],PerCPCy5-5 CD45_[B 695_A-A],_FSC-A,_SSC-A
-1,0,0,[],0,0.0,0.0,0.0,0.0,0.0,0.0,0.0,0.0,0.0,0.0,0.0,0.0,0.0,0.0,0.0,0.0
0,120947,120947,"[0,7,8,13]",4,0.16955727987897315,0.23446200429586314,0.3174685283624539,0.28662478861494295,0.26304158338379585,0.22534903307446183,0.25142201095538075,0.5026290891922037,0.16854228777469288,0.10808771707943209,0.24843394291391688,0.22027530145028681,0.1484329929081064,0.28066668848011955,0.2001943451396263,0.051273891746612996
0,22679,22679,[1],1,0.1932296653900348,0.26386131161210247,0.5138041053960154,0.3151288809593702,0.3034184324848373,0.2458243228422019,0.26511955536560056,0.33743104758783216,0.28036800500387954,0.14416754245657792,0.27350607269108207,0.1252941355896841,0.1689411270948922,0.20247464427506762,0.19172833105833947,0.08560754399379816
0,175393,175393,"[2,3,5,6,9,11]",6,0.17773029462294665,0.3924638093284136,0.5041371021912775,0.3111740047789137,0.49827756687800234,0.24618054318660731,0.2639759738428806,0.32212353629672413,0.5650412550218853,0.14374612975478057,0.2517190995645002,0.1006311575634352,0.32496147971119094,0.3735412405445723,0.19885653407464232,0.08604096071870043
0,37652,37652,"[4,12]",2,0.32789574194881543,0.255689264777886,0.4941090216044494,0.34869656558620776,0.4202256869945955,0.28880036537924697,0.24301893632117916,0.3289338285373695,0.7548115809599495,0.4347763226620394,0.2943105029225394,0.11056332952147223,0.3736716523842625,0.4342104910932337,0.24912554059411612,0.14897912575864752
24,165652.75,135416.0,"[0,7,8,13]",4,0.1682379383230833,0.2335026772608141,0.3270603729366605,0.2948628484362923,0.2578006323895724,0.23031600142262262,0.2510525058183082,0.49267370396037863,0.16975045698023505,0.1044970117179418,0.24771495895886383,0.2126955698483946,0.1393318260850693,0.2763815296302673,0.21074049363277061,0.055759044272017715
24,29629.75,23960.0,[1],1,0.19468001035623336,0.26632785819567945,0.5183730005869039,0.32506886698449367,0.3058358048903893,0.25329576782693014,0.2640801188744377,0.3452230988819387,0.3072575205450539,0.1414362983188289,0.27189734536920596,0.12601759863503176,0.1704255188269605,0.2085896779490586,0.19563308259713105,0.09740352604016334
24,202596.25,158748.0,"[2,3,5,6,9,11]",6,0.182145019087447,0.3761368606369724,0.5106459119781439,0.3182470123853141,0.4911641139000962,0.24856609984772038,0.26503631542620226,0.328081806289,0.5784125880677041,0.14613823578299098,0.2486486338239648,0.10179305075206613,0.3104392170959291,0.36498141903668874,0.20009480411750719,0.09775960577650233
24,29024.5,22922.0,[4],1,0.3417950079025813,0.25875612766430933,0.5035917417529961,0.34013973999943514,0.4023563636509933,0.25410872417956964,0.26448567359351643,0.34723031502565044,0.7934942355309434,0.424864784844785,0.2769303960011938,0.11019371530655084,0.36862150466010307,0.40537492868288344,0.22368842736958375,0.14349042556409802
48,169806.25,130228.0,"[0,8,13]",3,0.1632910556242929,0.23388971618411178,0.31892284508313073,0.2881972474435001,0.2561989682218951,0.2270587196644663,0.2526002260624933,0.48688530180148,0.16480636517560224,0.09932890751163914,0.2451980031090087,0.19808600407425073,0.13841844679202492,0.2466327399473404,0.19828210444634767,0.05514041056800343
48,24749.4375,17342.0,[1],1,0.21044131641986272,0.26147888751731474,0.5710975167333606,0.33181577145409663,0.29143856673290036,0.27001223141763875,0.2600686999175268,0.33394432198588875,0.29710679081940844,0.1407175865349678,0.2771965263116008,0.11160604903995433,0.1625648100192584,0.20323371001491122,0.16911187273254105,0.10787280326789775
48,108882.25,85887.0,"[2,3,5]",3,0.17247612884461122,0.3667930450796558,0.48031225164528163,0.29903717364897736,0.4485946103405441,0.26719581319766855,0.2530415193538336,0.3103275997067092,0.5514032709463765,0.12303130344499448,0.24956942472370572,0.09186172556613467,0.2784182612556247,0.2796486701927817,0.17359234338645926,0.08123668923547896
48,34601.125,27345.0,[4],1,0.3557485694114869,0.25261047354446764,0.4775570847523782,0.3259435977038611,0.41717785763991316,0.25409923481978197,0.26363343927997634,0.331000756245054,0.8053676437750713,0.43140806230468015,0.2692375586508057,0.10194994567884215,0.39206391089478,0.40640558273217525,0.20730887619764635,0.12291132854392099
48,75055.6875,51424.0,"[3,6]",2,0.1546078889695226,0.4149907214669447,0.5242835982008128,0.3031197321199025,0.5461166911315865,0.14326580588892876,0.30897721024984653,0.3084183867218885,0.5884207685033238,0.11124068170488524,0.23201244492797873,0.09162305423829704,0.3570626475656444,0.3768084900591624,0.18761171415105454,0.08366966274828544
48,55283.8125,38607.0,"[5,9]",2,0.20302974532015047,0.394280930279254,0.5242007896668709,0.30653108636104387,0.5242526668298777,0.39663575983302857,0.1982356777356033,0.3361073594610844,0.5885614010487628,0.12777169506299507,0.25266611856829047,0.0873446706798771,0.345340266504736,0.35700962186713847,0.19287641378363676,0.09229616248403345
72,183821.5625,141370.0,"[0,8,13]",3,0.16547848794254186,0.24337287809413233,0.3240387148954457,0.3038175971440914,0.2675802352075625,0.22645259147146476,0.2509084488368438,0.48404862639815216,0.17690593002118393,0.10287443280148945,0.24793156228689608,0.1856101598334762,0.14938974501870686,0.26026057943914305,0.20109554665304044,0.06402461652558959
72,204228.296875,161269.0,"[2,3,5,6,7]",5,0.17660873569273278,0.36805179296759744,0.4575509496570822,0.3321544537624069,0.45880275355079014,0.2282641313003168,0.2674764313977654,0.3286390162114241,0.5173994595361416,0.1343547029612983,0.2591579881196951,0.10084575704882302,0.28455245856849454,0.32904659611979536,0.19989183452441478,0.0974670477952842
72,27192.28125,18542.0,[4],1,0.3401696234704673,0.2633927520067004,0.43889214953968897,0.3909086639508318,0.4074834174591898,0.25608689672619056,0.25668070123513875,0.33748933643127715,0.7679083694306593,0.40301331302459437,0.2791805069672785,0.10777216173303295,0.3703350332682473,0.4204856396576515,0.23026342928055699,0.1397732164635849
96,151687.390625,105732.0,"[0,8,13]",3,0.17989979439352663,0.24062837469511164,0.3254533680690123,0.31936801605386067,0.26658350328152675,0.22564556382324136,0.2619934406807935,0.5142128850788554,0.171820311559907,0.11184059802524017,0.25280458372758174,0.22981436269790062,0.15488462267680272,0.2922012907199002,0.20572915475680892,0.056782892007358046
96,61225.4453125,35491.0,"[1,2,7]",3,0.18901146978934522,0.33312160533554763,0.47420076307873565,0.34476114088175086,0.3945391163355763,0.2420574629000159,0.2828371547074385,0.3524105674391831,0.44298135869666905,0.13744063297751316,0.2679512371642715,0.11420536976851153,0.23720191520243145,0.28088359446751043,0.18455203520072902,0.08752226940461713
96,191271.515625,137002.0,"[2,3,5,6,9]",5,0.1864346192201486,0.41368310162522437,0.4986720154316201,0.3499769629988781,0.5207984911757847,0.24354894928496168,0.2944890388750998,0.3486481882563696,0.5462250590622338,0.14469355816347715,0.2559405791937702,0.10126042194269048,0.34430895479870427,0.4089696502571757,0.1999539745543111,0.09020603019966801
96,29466.0703125,22668.0,[4],1,0.3630895804909103,0.2609451700485291,0.45564134132069334,0.42359609782976293,0.4073788187116707,0.26181323424984887,0.27964402054927906,0.36351242861870275,0.7734376543316046,0.39465105680831153,0.293767280817673,0.1141253072332935,0.3763838467965818,0.4655812042556415,0.22055372461146658,0.1272065717628215
120,135827.84765625,97906.0,"[0,8,13]",3,0.17590134197771984,0.24113489931959767,0.3386699855173057,0.32499272291836173,0.2688599416823923,0.22560056359463582,0.2656771718220482,0.5030021840570195,0.17311290141217006,0.11283803021479763,0.256488743058028,0.22685472465515738,0.14990886307258228,0.2951310056247231,0.20179764460576283,0.054015463653183104
120,50563.1591796875,36034.0,"[1,2]",2,0.19661319566872448,0.32838808701473915,0.5018123018695109,0.353120120249831,0.3934921775929317,0.2414908399124089,0.2889168782379494,0.3528552669975558,0.4312231648128021,0.14216044108463088,0.274443796881981,0.11701190931038861,0.23882370347729626,0.2915196409602429,0.17629999640381736,0.08460673360200847
120,249182.87890625,201365.0,"[2,3,5,6,9]",5,0.18275689806989473,0.44246773094764597,0.524893878559098,0.36129603914585,0.5559954280193667,0.24627333873657067,0.3059540437980544,0.3578561504373107,0.558271922146021,0.13441911257580658,0.2541175990584852,0.09968476225703278,0.3732007895766518,0.4540775097241789,0.19111129180763403,0.0821823215473819
120,32508.517578125,25142.0,[4],1,0.37137524126177757,0.2585309723521987,0.4718746818902281,0.4519035402577411,0.4167311392428056,0.2592660315525151,0.2815223784721119,0.38083614150156614,0.7739999691190755,0.4023538174616132,0.2997334360609941,0.11697889663143207,0.3842910724007182,0.48902057755849976,0.21050111267460697,0.12351193400130937
144,134986.9619140625,101030.0,"[0,8,13]",3,0.17967728969356925,0.23438808771820444,0.3305041829745214,0.37765680909354826,0.26648622887875256,0.2274160831579134,0.2740024471454937,0.5376154155230365,0.18032800489815887,0.11636768120976017,0.2557303034726837,0.2659132405221312,0.16015282627653535,0.3366226668024903,0.20284385550244363,0.05280724578073784
144,201748.888671875,146677.0,"[3,5,6,9]",4,0.1821963268453194,0.4568351723482555,0.5253435705609668,0.3834101862894652,0.5724309936445002,0.24679831298216945,0.3199791968060817,0.36054972895809856,0.5496870733087859,0.14234107657458078,0.24529261207143258,0.10658669045059345,0.3865160712610567,0.47500525790538495,0.19012382349725265,0.07754314738030063
144,33530.12939453125,25403.0,[4],1,0.3669893481476465,0.2520292777347443,0.48181373702254543,0.48084072540430434,0.42667272211569895,0.2551031784564648,0.30395999430071907,0.37081938066625575,0.7575532297944059,0.4366576320986675,0.3029383960938617,0.12783998447338676,0.37120888624626497,0.512643779860274,0.21573179491551672,0.13426240393790048
168,125664.74047851562,91918.0,"[0,8,13]",3,0.16600615756283338,0.23872088394793622,0.33638873647018147,0.3973579880058603,0.2782269785924264,0.23356790295104307,0.27806462893301537,0.5141532925729163,0.20578481066290016,0.11737235552400793,0.25534557086693166,0.23460650439705574,0.16241064981714345,0.3206550970108542,0.1997839394982716,0.05877223139764574
168,101669.1958618164,96913.0,"[2,5]",2,0.18301982311605944,0.3085280270932401,0.44853937520598386,0.4079659622331212,0.4142460170815324,0.24950088591482736,0.2873603275251797,0.3428194257164592,0.5337599397036206,0.16759574146988312,0.26694721276228794,0.10985389651149247,0.2521805934539562,0.30100709947306825,0.1770674833517461,0.1004965355285062
168,144473.23406982422,95369.0,"[3,6,9]",3,0.18252792098158135,0.4444444339193691,0.5280224631445054,0.394649119670664,0.5690467229575538,0.24208984452705135,0.3220311169399133,0.35290144984804805,0.5268403836090165,0.1514548072391924,0.2466655310987044,0.10583973144537638,0.37356756372208666,0.4454755800983136,0.19828400349530728,0.08603937209005154
168,52731.38134765625,40948.0,"[4,12]",2,0.3340800694108775,0.2563660967503902,0.5225241221770524,0.5160132534362935,0.4570485407348677,0.3129293020879117,0.2970771883642581,0.3597591849691605,0.7114867292316704,0.4223559209218904,0.3192274147488517,0.135643225039278,0.37256944195204483,0.516417770596486,0.25812217649454894,0.18485603766031758
