time_in_hour,cumulative_size,size,pcore_ids,pcore_power,AF700 CD48_[R 730_B-A],APCCy7 Ly6G_[R 780_A-A],BV421 CD117_[V 440_F-A],BV510 SCA-1_[V 525_E-A],BV605 CD11b_[V 610_D-A],BV650 CD150_[V 660_C-A],BV711 CD11c_[V 715_B-A],BV785 B220_[V 780_A-A],FITC Ly6C_[B 525_B-A],PE CD115_[YG 582_D-A],PECF594 CD135_[YG 610_C-A],PECy5 CD3-CD19-NK11_[YG 670_B-A],PECy7 CD16-32_[YG 780_A-A],PerCPCy5-5 CD45_[B 695_A-A],_FSC-A,_SSC-A
-1,0,0,[],0,0.0,0.0,0.0,0.0,0.0,0.0,0.0,0.0,0.0,0.0,0.0,0.0,0.0,0.0,0.0,0.0
0,46270,46270,[0],1,0.16231679055692635,0.22779700536197098,0.28500320819770814,0.30695807644416,0.260136254472936,0.22437900658329135,0.23835244699300742,0.5972756874033652,0.16442409393370225,0.10630933178576726,0.24820775895658584,0.3069854419458987,0.1625503118602658,0.4215969821676715,0.21520383755405761,0.05150483451565847
0,26079,26079,[1],1,0.2054547581112659,0.27356861383562897,0.5591512151448486,0.3251627510751252,0.31455675642199576,0.2617690408598996,0.26701576881771827,0.31399812969329527,0.30854288749543396,0.14552947640036035,0.2794289873943425,0.10995090394552451,0.17643564145700585,0.22174521432600725,0.17019687030789582,0.08859777261275144
0,66355,66355,[2],1,0.18908006520359402,0.42328207062429624,0.515062486288153,0.30020732210010476,0.5329874208372546,0.38333472467708907,0.20324829558455168,0.32544465633877245,0.5807127481109566,0.13324490091086266,0.2530493233010674,0.08697576990445281,0.3504059698940474,0.3758539831544985,0.19206991186708972,0.0785240327524663
0,79409,79409,[3],1,0.145335815552065,0.4185226514598281,0.5134986618448899,0.29643163105757636,0.5353008739663808,0.11368327904859547,0.3159548673523078,0.2977189026674176,0.5799833682347872,0.11673980473723916,0.23266111237322912,0.09223806136848267,0.3434651109009398,0.3689593760282405,0.18798271663575228,0.06987964978358331
0,42842,42842,[5],1,0.3264010333664313,0.2582254539407545,0.5282295501096249,0.3756793456720687,0.42904793093571797,0.3178575467830235,0.22910409827416905,0.3324364572016155,0.7306922532060253,0.45828799664994757,0.3127379688998452,0.11664068138848388,0.38343500117381096,0.45623371918468264,0.2892556367976002,0.19796166403099041
0,82911,82911,[6],1,0.1715750453881885,0.2357219854680355,0.3311606769767475,0.275095659244574,0.2619957748474718,0.22273924773914047,0.2616849699403058,0.44739710726205334,0.1571413401001914,0.1067823852975126,0.24768565779068055,0.17733295933166787,0.13670652809576492,0.2048196688800047,0.19753947550126305,0.048801063398719216
24,45646.875,42755.0,[0],1,0.15658062232436443,0.2265527127863373,0.28107597410835106,0.3262540115122682,0.2512046125171033,0.23741748813231864,0.2394878195967639,0.6182212366073776,0.1664354607212241,0.10175411495483808,0.24736241382624471,0.3207932743967568,0.1496296262621193,0.4398179713764367,0.22814092062039182,0.05284310939607142
24,37676.9375,36047.0,[1],1,0.20937953303702414,0.2742759048345235,0.5530994389964535,0.33305229739193243,0.3192658022038492,0.2730812162660053,0.264276426385513,0.32258197287821694,0.35571712680149203,0.14636774347901949,0.27585269808015744,0.10739959562266849,0.18286362118950847,0.2192198013974305,0.1743400398085752,0.10508843332214535
24,61343.1875,57196.0,[2],1,0.19462865902009677,0.40562829386173466,0.5275623984788358,0.30363064454361466,0.5308107895484682,0.3819637354477897,0.20610887354256874,0.3308572306701527,0.6010003132714972,0.13816458947664673,0.24732022635997905,0.08663082106588957,0.33868628377657833,0.36516123555437013,0.18836124888513917,0.08863562794428194
24,73716.0625,68753.0,[3],1,0.151115006427059,0.3992826759252431,0.5217728687816942,0.30019996968263024,0.5317181011632693,0.11425698596743372,0.317415249373547,0.3045899115471714,0.5949796084794202,0.12136586294466531,0.22701358421281417,0.09158356575436193,0.3289256372219623,0.3550700300581315,0.18423427620436858,0.07874826278929878
24,44866.625,42189.0,[5],1,0.32398194196719693,0.2675789534292695,0.5669376046408057,0.40323989654045095,0.4349192558786963,0.3466433690665945,0.2296767450956762,0.35358140812087546,0.739124605055642,0.4598128366816684,0.32102285571428024,0.12573631593583964,0.3821995766606828,0.46780246231833944,0.3186406288006364,0.25914788858544935
24,102304.9375,97123.0,[6],1,0.16893468945827472,0.23362605175670778,0.3348351919209056,0.28040897486075517,0.25670041460963006,0.22356572306890152,0.25736330746353425,0.4372058996553888,0.1563855582327456,0.1014447568077036,0.2450994422898738,0.17176523316191894,0.12774125067105857,0.20710959129119969,0.21082643071567803,0.053535511471355796
48,39923.9296875,37071.0,[0],1,0.16105730256836825,0.22851337403638988,0.2819583658969261,0.32446033719941564,0.25270228331713274,0.23792495740981104,0.24622821679865456,0.6050319310682376,0.1702723224189976,0.10090368202803278,0.24576102014205609,0.2989828889085885,0.15322460813530486,0.40569366866465667,0.21217640187382872,0.05428290341794602
48,55766.80859375,53412.0,[1],1,0.18489394523245004,0.29156080775708204,0.4995934851570755,0.3108866056952789,0.3373398281998032,0.253349624074487,0.25879563153004687,0.30911698567595625,0.3957783823470525,0.1204294378263792,0.2631396015632169,0.09893347341474257,0.18213533608001256,0.19542897347116567,0.15691535979524754,0.08690312909468936
48,55639.94921875,51806.0,[2],1,0.19358246745172614,0.40842735103868694,0.5219723326170126,0.2974050686388316,0.5372725137126757,0.37685843786973827,0.20385958580590094,0.32926003114720337,0.588355475289068,0.11466166828174514,0.24726319564921603,0.08277717388064626,0.35579420083875907,0.35154069998227694,0.18589221776692547,0.0852832102945481
48,59663.25390625,55056.0,[3],1,0.14060394856015374,0.41016392433458654,0.513802866042558,0.2945013098580984,0.5395553073979497,0.10610648631651667,0.32404987423570575,0.2973056840112023,0.5790078811748102,0.09840953462439936,0.22773617782339275,0.08814997874210202,0.3445884059253501,0.3399189147874363,0.17893701617579258,0.07637013923437785
48,42706.1640625,39902.0,[5],1,0.3392860839761431,0.25937931014603766,0.5184359421832669,0.3656575747361261,0.427794293152047,0.30847463713714235,0.24614203767396253,0.3335537783405908,0.7436057561790633,0.43543450220380975,0.29773394310346823,0.11239035575756745,0.3909988002235312,0.4408761274491203,0.2592296929170809,0.1892458449458436
48,97261.05859375,90867.0,[6],1,0.16346183436319858,0.23450351434671465,0.32648899948461996,0.27205106943130075,0.25369117098220945,0.22304818727894268,0.2536593722254409,0.4436580672714085,0.15677354178287245,0.09630237456569199,0.2433888521840706,0.16095162086513642,0.129065317435578,0.18833581946707684,0.19416393277393743,0.054945513640279275
72,41287.24560546875,38792.0,[0],1,0.15925696131425704,0.2357671437693796,0.26326486015138784,0.3466918119788449,0.2609976719968284,0.22644006441773762,0.23943143192270264,0.6124132489389,0.16860064778043404,0.10307475650910111,0.2482800039374665,0.27691312859740563,0.16666661182795353,0.42916943151851383,0.22224347467260988,0.06410344030838187
72,79470.42553710938,75985.0,[1],1,0.18283573191348362,0.32416186722306484,0.46175512110125927,0.3297107634230859,0.37583960654983484,0.26073888833879716,0.26192270632245845,0.31847869707033477,0.42173971087104745,0.12950600099925214,0.26588981624192115,0.09933585947012757,0.21518245800978922,0.23447235309631748,0.17483586086557742,0.09307878383271802
72,46196.496826171875,42719.0,[2],1,0.19844649945394052,0.40304584427538065,0.4932712137455622,0.334323584246864,0.5275476327401434,0.3845607875752147,0.20079830511623611,0.33411106455452005,0.5483048578671201,0.13451144996243317,0.26952271501216146,0.08848467298034401,0.33338242392149703,0.3752057054056031,0.2128745182754586,0.10040606791756375
72,63035.953369140625,59307.0,[3],1,0.15141461083983032,0.401838142960817,0.4773877004113562,0.3293467115346978,0.5204965956946401,0.10354379571040721,0.31300739541942557,0.30947011232477417,0.5359482148138327,0.11659235391175908,0.24716834468783103,0.0943460695447003,0.31838564124991714,0.3638859685611058,0.2005033103375997,0.08877155285330267
72,37992.13525390625,35323.0,[5],1,0.32644623144849433,0.27433069754579686,0.48316087030918803,0.44307130473647593,0.42379142387859875,0.32468372428017567,0.23021473404789336,0.3442873759919077,0.7171571944532679,0.41588893543487815,0.3221280977089995,0.12105303045361597,0.3790583643658038,0.4726929076183841,0.31608924971631486,0.2420446218361888
72,102874.81616210938,96796.0,[6],1,0.1639470132859356,0.24087266564757454,0.32224384008984386,0.2884205958581616,0.2595881901883102,0.22470584327168056,0.2524712058735502,0.4587381592363066,0.1550723252052607,0.09836577147521558,0.2462261582302828,0.16005494657829017,0.13774209099361298,0.2037238174463054,0.2015066432448694,0.06355143005125792
96,46561.4528503418,43981.0,[0],1,0.18671497911415377,0.2342383939695254,0.2945050410878314,0.3697173486276833,0.264831110596265,0.22537305616530307,0.26045944784504216,0.6190349530284881,0.16689422047327507,0.12156616180439572,0.25632643832513496,0.34149765517917174,0.1704754742905645,0.4413017382127157,0.2235196774566213,0.05548834497592628
96,35298.901596069336,30332.0,[1],1,0.20350371847522072,0.3173042218395415,0.515324524408718,0.3452954943865936,0.3684413453403711,0.2622147027816868,0.27643423146396534,0.3261736796749279,0.402096140782344,0.14983660362100631,0.2778271145403773,0.10811281645781474,0.22171813466097406,0.25001626518675474,0.17327118340984043,0.09236973015684304
96,55347.28105163574,52460.0,[2],1,0.20061558461169693,0.4667082040666433,0.5283276828130824,0.34258257110150403,0.5826137332442309,0.39859621038380744,0.24128446646981971,0.3606869406668334,0.5605093357199264,0.13919105581435892,0.25732662621373126,0.08925301041808946,0.3949210798354734,0.4571383228774811,0.20032338929259483,0.08465650631260228
96,61023.74708557129,57084.0,[3],1,0.14646539245092802,0.4595693704156658,0.5226119805676347,0.3395458895837671,0.581829527347102,0.09191340186171754,0.36261325873543554,0.32763074870815034,0.5550561276032645,0.11919986055839878,0.23321402243917588,0.09594652115172522,0.38297714753438544,0.44272713731160857,0.19302362138661783,0.07486051713484772
96,37360.50845336914,34986.0,[5],1,0.364172892024453,0.2663577658278761,0.5027325843979508,0.4470219536783683,0.427565167764845,0.30762005217426097,0.2643331974555123,0.36428173122226265,0.7505456701826031,0.4227741418258327,0.3242257612204761,0.12672467758902756,0.3943770163067883,0.5057419424699705,0.27371081522283724,0.18674250234323436
96,70067.67601013184,63638.0,[6],1,0.18267164066956132,0.2390136892563847,0.3397040444550642,0.29574377152583947,0.26082057652769125,0.2250447757416653,0.269021634666615,0.4762801085018161,0.15252130491087434,0.10990053258159793,0.25321612401729116,0.19521098038442222,0.14440972635910387,0.22264329161494792,0.20594914412933474,0.05397699712668414
120,38609.09080314636,35699.0,[0],1,0.17347150560092076,0.23309898519932357,0.3070187910967814,0.38552928911873713,0.2696894207960153,0.23101228561833634,0.26524422493443234,0.6225309024054111,0.16927843597891096,0.12214847241113604,0.25797110116900396,0.35095367593295484,0.16719994711460182,0.4673485723078693,0.21938686890162068,0.05420373155309337
120,42456.18134975433,40250.0,[1],1,0.20203333746228772,0.3215505220671658,0.5243751195651765,0.3463380361166435,0.37570823138439746,0.2591831234929474,0.2766553687678003,0.3240440860831484,0.40976823503753007,0.14060095694959812,0.27961629625807255,0.10708564178629569,0.22203254855223326,0.2563319940974817,0.1616818269319439,0.08606173735650398
120,80173.20506572723,76714.0,[2],1,0.19735475882714001,0.4829931628627788,0.5476580847938787,0.3532737506713897,0.600920666441427,0.41128000843669155,0.24075315920535262,0.36770583918212074,0.5676270474797249,0.1266465923844973,0.25834705549198717,0.0870794989753634,0.41040353986899214,0.4881900578971113,0.19147565163094782,0.0804715076801757
120,90211.9841928482,86398.0,[3],1,0.13704057791038918,0.4775233556399974,0.5455110339914291,0.3508656790082153,0.6032273559602422,0.09341350882107544,0.3717058369448177,0.33576691151122195,0.5639342395120704,0.10390419529659162,0.23223997258685655,0.09432252318857608,0.40098739146788276,0.4765390622090565,0.18569737438616196,0.07099637811197776
120,45467.03177833557,43132.0,[5],1,0.37151980363616927,0.27138276651900983,0.5112409917317927,0.4683201672620306,0.4439126094011685,0.2995818574930163,0.26981722478722747,0.38161412731923283,0.7527937555755048,0.4153531392393441,0.32222959293718934,0.12864882345863202,0.39809613652830744,0.5249273774753471,0.2493386774909684,0.16626830797622244
120,69482.22975063324,65103.0,[6],1,0.17640673900602413,0.24312803743149777,0.35373592186804814,0.29776972632518356,0.26524707224261707,0.2231663688987342,0.2684059392502156,0.44760123219145326,0.1586393744622164,0.10919350769736993,0.257602353266787,0.17645913909235775,0.13723206292058865,0.22410819055195863,0.19990657968800526,0.052283955579983096
144,50011.06817519665,47598.0,[0],1,0.16973647175477646,0.2242537543420361,0.29300471542528284,0.48523778352614766,0.26988123402589625,0.23415274695018728,0.27981966254943463,0.6404617146206345,0.19984157064447194,0.12615649944168977,0.2548290400887726,0.38047801560617683,0.17566756827202903,0.4938687325354237,0.21582484674168512,0.05288407914633094
144,67732.82531660795,62722.0,[2],1,0.1972039498490773,0.48404447842822773,0.5356244340906887,0.36788430095560803,0.594328714419765,0.4072504184159181,0.2559388902424694,0.3632954997335996,0.5418166196770329,0.13402411299934813,0.2476791065003837,0.09174802371967748,0.4041755834071504,0.47264195906520695,0.186337457181524,0.07317272452215703
144,74518.24901205301,68880.0,[3],1,0.14045255587289698,0.4798707074292865,0.5348005142976652,0.3688526483302987,0.5973159182576651,0.09705200383554503,0.3774754009250656,0.3317325313055708,0.5400749296180686,0.11438023970686384,0.22274459295016963,0.09995732365145892,0.39781529284890593,0.46851451435081387,0.18419367111799378,0.067224828777805
144,46310.68948614597,43469.0,[5],1,0.36421654329856873,0.26216914210323294,0.5129726213004857,0.500281573459967,0.4629694620902498,0.300375094720744,0.3003383710032455,0.36620980171470713,0.7476890560054048,0.462676734684387,0.3221055082349287,0.13595167056773566,0.3874177269193571,0.5523522492432839,0.25438953573155554,0.1735154874663847
144,63675.63935941458,59333.0,[6],1,0.19020743937776804,0.23778451932201103,0.3520696171052481,0.32978046013798507,0.26123315411332315,0.2251879468625537,0.2723604247809219,0.48067403828833305,0.16212683870367744,0.11238862832699896,0.25622975383980184,0.20948698336780167,0.15262195799957595,0.25552837883042073,0.20075980916707753,0.052410072969088346
168,45531.69176094979,42406.0,[0],1,0.15397517762577287,0.2278280668100468,0.29279855244299235,0.4905455548873084,0.27293123966413596,0.24673514270541264,0.2903945588869069,0.6374357707914713,0.22504769164908522,0.13106342348373015,0.2560611655396168,0.3383026977832237,0.17631333755192005,0.47477381517716355,0.2254482202716609,0.05924958810260546
168,83711.09445839748,82358.0,[1],1,0.17909141591157993,0.30824395000160804,0.4572657829643712,0.38561490013713273,0.4014787150320369,0.25569333735993444,0.27694221425851395,0.31399263749702505,0.5066735771205559,0.1541231726860085,0.26549713572379363,0.10080271003534103,0.23905365848077,0.25784014682615114,0.16332886170677802,0.09536202866698751
168,49497.301582288,45264.0,[2],1,0.200750463105307,0.4538829539485174,0.5368400467890553,0.38200518761565067,0.5843029445018503,0.4080311535244286,0.2530210098658443,0.3575991890540751,0.5182685373106163,0.14865188242024385,0.25351571133798656,0.0887863908624471,0.3766462624374,0.424135134899208,0.19560037370134348,0.08859638505503317
168,59053.39056325331,54396.0,[3],1,0.14763152050349018,0.43885111219513984,0.5317354289226769,0.38549529108989844,0.5795883750510035,0.08779108056509695,0.3755130503353954,0.3242360904146721,0.5182976809375408,0.1308102315402684,0.22954762831706574,0.09810099570675573,0.3640682587102523,0.41164352497055684,0.1883219857168967,0.07966926556206273
168,53230.41809288412,50336.0,[5],1,0.3374454880055936,0.2610932764841284,0.5415942055206723,0.5301358683542423,0.46527508879147506,0.321872104775425,0.3049282225473021,0.35212693943072015,0.712920575968681,0.4398480533988181,0.3270100450351003,0.13493934723384474,0.3820898186839171,0.5164785519005295,0.27525886449037285,0.2027610856630846
168,65434.72745996341,61455.0,[6],1,0.17360975897869232,0.24476080964215616,0.37678693554835063,0.36184225616580223,0.2798903926360088,0.23341488030866592,0.272759383725888,0.4271884304806994,0.20345665459698437,0.11617035860489379,0.2580142008563924,0.16530756500589713,0.15416461176239663,0.23793820332913806,0.19191985301282666,0.06451171363166268
