time_in_hour,cumulative_size,size,pcore_ids,pcore_power,AF700 CD48_[R 730_B-A],APCCy7 Ly6G_[R 780_A-A],BV421 CD117_[V 440_F-A],BV510 SCA-1_[V 525_E-A],BV605 CD11b_[V 610_D-A],BV650 CD150_[V 660_C-A],BV711 CD11c_[V 715_B-A],BV785 B220_[V 780_A-A],FITC Ly6C_[B 525_B-A],PE CD115_[YG 582_D-A],PECF594 CD135_[YG 610_C-A],PECy5 CD3-CD19-NK11_[YG 670_B-A],PECy7 CD16-32_[YG 780_A-A],PerCPCy5-5 CD45_[B 695_A-A],_FSC-A,_SSC-A
-1,0,0,[],0,0.0,0.0,0.0,0.0,0.0,0.0,0.0,0.0,0.0,0.0,0.0,0.0,0.0,0.0,0.0,0.0
0,118112,118112,"[0,1,10,13]",4,0.2967080051730582,0.1632315881366826,0.4888138143626448,0.4878712617769656,0.3217964740839223,0.16316923347330925,0.0662402124170205,2.3228948148452275,0.7966342010972677,0.3686212167349642,0.17523301967624416,0.8632160725497846,0.5921042464271159,0.9305160614078083,69174.82470875107,13892.112706583543
0,125345,125345,"[3,4,8,12]",4,0.21725203306872976,1.8936100574494352,1.8576258533088654,0.6738635746539541,2.5986581676333196,0.05485967674020009,0.3432755376042138,0.6124267166141557,3.8323578321672014,0.5459368062786708,0.1268093568072035,0.13893335415054564,1.995814351166775,1.523149488635366,66300.04292153635,18818.807738641317
0,28762,28762,[6],1,1.944052226722757,0.2747730395313335,1.6076277694874839,0.8783787343369687,1.6706521061817754,0.3843928171545823,0.07037167707392111,0.7817825248244121,5.667095632883688,3.245457357381258,0.44379473211181564,0.1890925940477085,2.4073882925735317,1.8122537973019897,72976.8377720605,27588.548223350248
0,65062,65062,"[4,11,15]",3,0.5107985339061218,1.9347958883372796,2.289438717807634,0.7602520803694945,2.95268298933325,1.0298383179889934,-0.2676333307921732,0.8061363315452867,4.1532920912975255,0.6559799797731368,0.2074347604592619,0.11586767669299858,2.2568114307276113,1.7583251718207216,69504.79186007185,22224.963511727165
24,185540.0,126484.0,"[0,1,10,13]",4,0.28226087891290175,0.15100477076101493,0.5353717305540591,0.5440601990109988,0.284173458448322,0.1883644382559022,0.04692416166595015,2.2632590180688785,0.7971529825751834,0.34007249466691813,0.16598205432251945,0.8232862046701543,0.5430992253476329,0.9123497712865136,71175.46499946088,14935.940153066671
24,176685.5,114013.0,"[3,4,8,12]",4,0.2558869485017239,1.7051106782192065,1.9274499783541832,0.7400517879990232,2.508941743006647,0.0619372823887685,0.3597815301963032,0.6839983545395563,3.894532280716295,0.5652811872536224,0.11149853194233961,0.14194487007705614,1.8784255034199147,1.4569426522578313,66056.6466857777,21223.60646459389
24,25280.0,17690.0,[5],1,0.17662763880537447,0.020766395431164764,-0.40974220294699304,1.0709115587816318,0.13517553641216828,0.6800822393196242,-0.25922324738923574,4.128169021182742,0.7840934611550566,0.36563004386867626,0.19712480332279547,1.8838190766218288,0.6980539965783191,2.1849774054390525,74404.47974683564,13299.88481012656
24,38225.0,23844.0,[6],1,1.9587808530935267,0.34520676103335335,1.8426787244996494,0.9684792348332469,1.7131175749902074,0.43105601165468466,0.11520113561807,0.9725071504643354,5.790671360065435,3.2027052102419886,0.4183771757357646,0.2119003313276685,2.4297079084238296,1.815105908698482,73418.27767168073,32936.129548724464
24,26491.0,18519.0,[7],1,1.2991048177494229,0.5610498519874803,2.8751297767543424,2.1967665617756658,2.127603307576161,1.6266638767317192,-0.6742601323279547,1.0780209996791088,4.458930012551456,3.267021899984915,1.3455369555320607,0.4954421068098631,2.3441576361028353,2.4126134267298185,117079.44041372488,96949.88577252725
24,89593.0,57062.0,"[4,11,15]",3,0.5406145722935964,1.8724087987063696,2.3103576524840217,0.8005946508153512,2.937689005536131,1.0427018409306699,-0.24177175951247154,0.8606341578080796,4.226071379996201,0.685070458138472,0.1798072198106957,0.1172736971582583,2.1973871924592276,1.7264116055439611,69158.1533378725,24385.761923364433
48,221642.0,128872.0,"[0,1,10,13]",4,0.2586301443803529,0.16850874522202375,0.5191047277118108,0.5274302572041814,0.29755579075830196,0.19634780232537152,0.0559635912812233,2.185657692338334,0.8659827748869783,0.32774369904283074,0.15757967131003614,0.7325376842351663,0.5458218650097847,0.8330564807177854,68696.01645897451,15490.964925420245
48,193189.75,104847.0,"[3,4,8,12]",4,0.18113518602695433,1.7285718485853945,1.8464863894914,0.6542403766361771,2.4697062212203513,0.06292786925678473,0.3253787885783277,0.6039602688833146,3.834815530261056,0.4413159805540965,0.09451960419613537,0.1142756660071248,1.8480473762207912,1.3179372419227748,64110.281792900474,20021.452525302146
48,26194.0,13554.0,[5],1,0.20229585135909467,0.04093340987439209,-0.38916982073183126,1.100311041116281,0.11795134882987623,0.7095799046728255,-0.27019740711611906,4.183024035418382,0.816051191685106,0.35081909931663857,0.19134974181111808,1.8470119070970545,0.7126708079999263,2.095327128454971,73590.82476903152,13860.779720546654
48,48563.5,29451.0,[6],1,2.013473587915815,0.32650497454361993,1.7547224426163441,0.9169385361794342,1.7555441184222778,0.4543233304796801,0.09999357977699397,0.8670181464525952,5.794979953138714,3.1406785341820442,0.387295136249433,0.19137885919466147,2.5022147124847116,1.7943998103925674,71936.38843987722,31903.6405530904
48,25355.5,12110.0,[7],1,1.2396581444853967,0.5769169381593935,2.7332409290686175,2.160032908757444,2.0945354781605494,1.4994622363293757,-0.5206932809745464,1.0487360051763663,4.3000770069314616,3.1707464997830934,1.297941052572424,0.47494401265012665,2.3141007722979214,2.3875272807773116,112610.6515746094,91986.8342568671
48,95728.5,50932.0,"[4,11,15]",3,0.5541602724240977,1.8811626032921236,2.3538739320421773,0.7505050468382,3.0052832604866864,1.0216658747734584,-0.2674235742856155,0.8283395403902665,4.231399977645132,0.5515271722005465,0.16560822600636538,0.08893768693492332,2.315602624766901,1.6725058780483326,68286.92412395499,24441.824367873625
48,18278.5,10565.0,[14],1,1.0977479800721996,0.3304916467981718,3.5589060329622577,1.2527284570807669,0.47845579025904783,0.6577397780999577,0.15703940030635266,0.9481485595645136,1.7059332877697866,0.8962689307246315,0.6400560604261942,0.2560663926744541,0.8391671793910928,0.9375204789780323,63588.005580326746,35324.524878955934
72,250422.0,139601.0,"[0,1,10,13]",4,0.25434495798441703,0.2318360639330721,0.47946039514799343,0.6212031613900764,0.358330750751215,0.20449144682775966,0.029627747052491937,2.2321458214199543,0.8865169032583048,0.3275668478912592,0.1690396433670056,0.6981940337894643,0.5989963475383556,0.8857436603238662,69064.18570253381,16852.07414684001
72,239762.875,143168.0,"[3,4,8,12]",4,0.2803824042957994,1.6195658451861008,1.6577015649279319,0.8634485091077071,2.3082356928048138,0.136485019412933,0.25392247860880834,0.693351531410991,3.6463585057679393,0.5416410805931718,0.21002229332783662,0.14401797037802244,1.753678023351719,1.3511404444552728,67599.02784782677,23367.806980125573
72,25670.0,12573.0,[5],1,0.2296445391215467,0.0947387647497,-0.44918192252141065,1.2556277201986927,0.1833354782479466,0.6879166026684882,-0.24652617054927228,4.051230855896926,0.8293545338332581,0.37870451214452294,0.1996215065251472,1.6807579878944434,0.7528457267384153,2.1154079212845702,73873.17896377099,15151.145149980406
72,42373.75,18092.0,[6],1,1.9436190066344106,0.3858109884214822,1.5021262170565177,1.3143913174046715,1.7412343288592114,0.43684286766865776,0.07761424787163973,0.8860191859022608,5.634381283911094,3.0468414714386514,0.4417583190211789,0.209318941072011,2.443122892636937,1.8760725882415301,74638.30904746437,34329.85449718314
72,25552.75,12875.0,[7],1,1.311851797839761,0.6521952658617876,2.5616173229691364,2.2449535386993387,2.0568661858801787,1.553855988675373,-0.6004045404457412,1.0936300230160807,4.378700424675439,2.940078378868207,1.3305533852227467,0.46114758737807793,2.332242681042154,2.380730883520335,115404.69123675681,92974.10666170936
72,91361.25,43497.0,"[4,11,15]",3,0.5901742794934899,1.7748184629875743,2.1619092930400083,0.9508900651219636,2.8650706800612737,0.9783005240145661,-0.24262279551232968,0.8656335181066912,4.0347010911956565,0.6595351580456664,0.2921991192614519,0.12526962002900466,2.2046633400320066,1.7149264534731554,70961.9146410544,27513.16532994007
96,173694.6875,81229.0,"[0,10,13]",3,0.3492125599717777,0.16947009278889835,0.37081239491061435,0.6978622140641888,0.2953699212220089,0.16019028883295472,0.10678602850440733,2.9104063412654737,0.6849372755319644,0.3616049237088076,0.18111346810010964,1.0528005489340928,0.6530622823136109,1.1091768446627701,71036.31765364096,15607.951578829865
96,48865.3125,16120.0,[1],1,0.2756475898483648,0.4038483138844491,0.9444119237496067,0.7353596597561078,0.5707053583817849,0.26454949689259233,0.11270937302920414,0.8073780443476717,1.4242604664658698,0.4096705518715392,0.266499774741769,0.24946477814656653,0.5572656247338005,0.5282213767869484,66393.65001502905,17490.259742020455
96,136470.4375,43353.0,"[3,4,12]",3,0.3695287967247516,1.5714709001514682,1.6067250779152364,0.9443616742682792,2.156075654007966,0.3861550435071288,0.2536726626751027,0.7736814096789142,3.5488511314785636,0.5985515617342939,0.27059309845951596,0.15447734535226487,1.6911147948708667,1.2959055078613564,66308.60586198376,22456.181925847366
96,25875.0,13040.0,[5],1,0.32075553154106484,0.09582484500723254,-0.44165635921013546,1.5012027298840547,0.18810902679468144,0.7305816997198133,-0.18329017082124732,4.167819651301949,0.8191349090531298,0.45537916971498316,0.24321991015460043,1.8855568134734444,0.7825645277173922,2.2284554010314035,74350.58751690797,14360.558222222086
96,43359.875,22173.0,[6],1,2.0902376761277264,0.3781868300891653,1.4998215182123653,1.603043060962213,1.737110078920883,0.42848979379985197,0.17417980895641394,1.0457016432891217,5.662252334873285,3.005332798103941,0.5252522291476276,0.24131341148067098,2.4721918523736055,2.042539567353475,73625.73134724231,32418.915598811396
96,22685.375,9909.0,[7],1,1.4362034298584414,0.663923266063474,2.631840601786379,2.3734985167315643,2.1343885147865183,1.5910065815227894,-0.40514639429313926,1.2040086558547944,4.416642233479177,3.025363140781774,1.4596873409465427,0.5364813603340302,2.463266294121209,2.5341721334532568,116768.57834618207,93031.55870246781
96,107365.3125,61262.0,"[4,8]",2,0.2022007828762158,2.303884014434934,2.037812116329476,1.0222848702164913,3.1619409050606673,-0.2656731832726492,0.8078213860342336,0.8231246641466319,3.8362407377010412,0.5486145037439295,0.10820748013297399,0.15199839319787045,2.37211702303117,1.9732360474891288,69351.3886247015,21740.2728465025
96,47976.6875,33217.0,[11],1,0.6479909959302994,2.5739898491650237,1.9958748531174,1.0257364024767335,3.33275855285579,1.5290474444306985,-0.4857723533343625,1.2055348762992741,3.885577759065287,0.6887655044845821,0.2530472639367747,0.09487060213489185,2.534444059148522,2.1327381367187037,69733.99887184787,21795.663237483775
96,15097.625,8073.0,[14],1,1.100995931971901,0.3891948129590004,3.599093248499336,1.457494821383341,0.534491666541089,0.6667955762578501,0.27701704795454507,1.1130344551212503,1.6425848225548756,0.9505426907253695,0.7028461356090818,0.3491213673094231,0.8849472314105645,1.0406930690919944,65242.81030956835,34974.358682243066
96,23392.625,11811.0,[15],1,0.9312627433726408,0.8914907525048088,3.1614210708075494,1.2902134597415733,2.964978385639711,0.8441827458787714,0.29954213082914327,1.0054036537931252,4.6545038100015725,0.7606868632501679,0.34734615569274974,0.16064550345995787,2.3235670243826867,1.63433659819066,72548.40155818361,34282.647800321734
120,154754.34375,67907.0,"[0,10,13]",3,0.34485173946328396,0.17850476286732908,0.43696709701928915,0.7440211061278701,0.3188344470478248,0.1453672545116338,0.15689766342485,2.941919126118667,0.6806606022024019,0.3777315398556057,0.20743997465237785,1.1018419598930815,0.6426311675936279,1.1604502128294452,70888.7484006403,15069.097354496633
120,48367.65625,23935.0,[1],1,0.28211417957441265,0.41980048146908366,1.027735403539928,0.781406782925075,0.545597727269981,0.25946764947261824,0.14771488809478628,0.7745508912341412,1.3820821892858364,0.4286597579477569,0.3124325285860623,0.2525914723217012,0.5512807420984404,0.5249503673012346,66135.30520201729,16857.42711587345
120,123427.21875,55192.0,"[3,4,12]",3,0.38414066997632257,1.6860426489039226,1.7322354220240261,1.01087129020974,2.2826707149859025,0.3804003677926593,0.38719283737833887,0.7610092455335882,3.5413158227923334,0.5922661677013096,0.29218091187545836,0.15783100155151886,1.7815583866129585,1.3904332588248336,65016.79823357441,21063.127309591073
120,25221.5,12284.0,[5],1,0.29319903127540825,0.07979168706385442,-0.36147878017885526,1.7145668785312047,0.22877518244973594,0.7604202352804064,-0.12922262839244025,4.249336134992707,0.8305629218276013,0.4991763862651887,0.26418695821521787,2.0178997918170247,0.7945088348172752,2.339019525715897,73858.2586285511,13836.83071982235
120,46597.9375,24918.0,[6],1,2.1804121991578267,0.38715064034020186,1.570347852627568,1.904548617317475,1.797341592524862,0.3966853993692112,0.2177602727575194,1.2355478908943898,5.671688010939929,3.035403901784105,0.5782107618101326,0.2615395588015671,2.517981986423092,2.1815645236551684,71609.54962867175,30996.316435679113
120,22629.6875,11287.0,[7],1,1.6041552759980593,0.7268136378346917,2.7435753451246243,2.4586837736933025,2.2773039564869504,1.6188570968846252,-0.3433065008617029,1.2263727344293085,4.427844019041654,3.074083121514897,1.532356941697191,0.5771951861396194,2.556507818567985,2.665740465570665,115543.58927846512,91192.25716219023
120,145076.65625,91394.0,"[4,8]",2,0.14214489305631117,2.5031316993893293,2.211546172005216,1.1449618858471804,3.386772635878001,-0.35183886798099284,1.0395607976860664,0.8952327627159731,3.86742223464535,0.46722739890311427,0.09085811199661142,0.1502579898452463,2.528906763731374,2.1474986110762804,67640.82295286586,20185.02067592288
120,81307.34375,57319.0,[11],1,0.6260257313876658,2.7647068722471033,2.1612155131259567,1.1565753996421666,3.5055406249655046,1.5390208343027314,-0.3429564358758106,1.3368697891361179,3.932188780792805,0.6223781735179147,0.25749301521503565,0.09301000150778327,2.6752956958946212,2.3037553629876535,68130.91207397869,20363.196848378302
120,27149.3125,15453.0,[15],1,0.9557174761273808,0.8608310472744516,3.259304636470994,1.4455060861612234,3.084392166585731,0.8844001477350993,0.4715637526030618,1.0972988248010584,4.643762878460349,0.7360276302473118,0.36006651507863996,0.1623112099500702,2.4062490887338357,1.7471146610296275,69975.98130707747,32313.66223362019
144,142465.171875,65088.0,"[0,10,13]",3,0.38624149775443195,0.14979438130756417,0.4639167815820384,0.9710510229676839,0.3220474484679472,0.12031312084038115,0.2371555470080442,3.129202685798762,0.7123885857745281,0.4002124467237622,0.21017338021179732,1.255670288550885,0.6933582734718721,1.2635502509022183,70904.77022596815,14743.909998178275
144,40147.828125,15964.0,[1],1,0.31712260254310176,0.4046473164889606,1.0626856533397304,0.9055196194867414,0.526155937823547,0.26433836298196356,0.1924002087021499,0.7793052322596239,1.3394411151428218,0.4439653207096701,0.3267834468688253,0.2777307427378719,0.5888944739406389,0.5500262736807402,66132.51042455994,16319.993349578008
144,101015.609375,39302.0,"[3,4,12]",3,0.3848855035130032,1.8367667608999136,1.8557481656861872,1.1525465248464877,2.471035014041768,0.4379711248765872,0.5631857855113358,0.7405046377924891,3.511442779853185,0.6123712992900693,0.2663776730329057,0.18251456768995433,1.9415445137702303,1.534652091268687,64777.054254146016,20094.206900882684
144,36398.75,23788.0,[5],1,0.2647872662840334,0.014583348978753019,-0.366376859016869,2.455103452658046,0.2729047577479258,0.7092360604708114,0.04428849611593888,4.375063553758237,1.109311540353381,0.5439466456154022,0.2619663988546983,2.188391274443655,0.862671336479177,2.4351757485331773,72726.88878052162,13608.026347058516
144,51992.96875,28694.0,[6],1,2.2026582720437258,0.3470524820690839,1.7114642379408544,2.2004320452029558,1.8930318582416397,0.39239092225301864,0.4081458286793449,1.1695378545599033,5.571894864238508,3.2590317046147907,0.6151660901134535,0.31096150900994324,2.4584537791320846,2.3154720004471807,71153.27745157844,31952.173994681023
144,23436.84375,12122.0,[7],1,1.5868789617482706,0.6720712177580972,2.6612830615657317,2.6292699371689268,2.397770793514226,1.6338335857970734,-0.14745434182491302,1.3038387614513294,4.597134932848163,3.098076659936468,1.5223068967864224,0.6247319456324836,2.541876770149558,2.766683379155269,114776.41169152802,87246.42220648822
144,155493.328125,82955.0,"[4,8]",2,0.14874816242415978,2.552690354259516,2.213373624293568,1.2901260742385978,3.407613043590788,-0.30827435801746816,1.1470761786129575,0.8812507809530161,3.7668494085210225,0.5015562760476132,0.0456989892525379,0.17826751503133897,2.544131628696412,2.158538258718186,66799.30689791427,19136.53505832715
144,23183.953125,15581.0,[9],1,1.1593825325026088,0.19540047676428607,0.522834156579854,3.12453612140872,0.3615583846214987,0.49462019310432703,0.8868679124630416,2.5350867570942617,4.503080926610066,0.6795507091583438,0.5395475246429098,0.7741313396260694,0.6904898616034895,2.481396721429097,65874.64910602919,19383.670402413267
144,83513.671875,42860.0,[11],1,0.6189098578194929,2.7845982314484665,2.138553656509085,1.2683764847185532,3.507717812615074,1.5432564228338828,-0.2734503048398911,1.3710129986562665,3.8284656483846278,0.6312635676379806,0.1980877162773509,0.12163065687728636,2.656087906810156,2.2837676589725735,67381.26586533802,19354.037329591385
144,21999.65625,8425.0,[15],1,1.0034236547922049,0.8476537990032624,3.1944858291194973,1.629857689886475,3.1131051167489763,0.9134110327725307,0.6185287638549442,1.1621218986639255,4.517681351889765,0.7957298165106271,0.3594591717917357,0.20536517867608772,2.39678886107312,1.7950706042878377,68664.8396153918,31109.17885364704
168,120943.5859375,49711.0,"[0,10,13]",3,0.3081580405155224,0.13819581981870055,0.4474722332762573,1.1643925834232993,0.3358489949680856,0.12737340142728182,0.28868923305157734,3.2100106600497202,0.7735727431831413,0.40141578922255805,0.20264051630962143,1.221218570885542,0.710241186985744,1.284788384280593,71093.08816875401,15082.906413430479
168,51392.9140625,31319.0,[1],1,0.27649432761188075,0.443814020062824,1.0613213045530006,1.061942542664788,0.7420673951464374,0.28229390244884756,0.2145041123118525,0.7166631258162282,1.563495958731545,0.45486324303828085,0.2921444410066645,0.2575277114494521,0.686937965335681,0.6159908179653995,64248.82043046737,17614.898406014905
168,165694.8046875,115187.0,"[3,4,12]",3,0.35396891283405174,1.462100452648071,1.7240121764735687,1.3900198394306043,2.2454843897605303,0.3854020099753188,0.48785560072832634,0.7315484730400565,3.536935320268199,0.7125168143469284,0.2691666578126721,0.1848508330015125,1.7406502283855332,1.3584500334369356,64444.54825628908,22751.62592218818
168,37755.375,19556.0,[5],1,0.1808298826942616,0.02235531727124851,-0.35039344553114304,2.6399621202999,0.28890966606846247,0.731298980318174,0.15984738967632062,4.416244752851185,1.3029514720942084,0.5841555086010067,0.27055678552142837,2.109738660689449,0.8830827550073518,2.399905042089008,73413.88148045183,14377.072151978255
168,57233.484375,31237.0,[6],1,2.038846755425217,0.3282668524305268,1.9256254790446135,2.4874776719090446,2.0225992309271663,0.39704565719519214,0.5581484533717607,1.0141535360966563,5.351007470900922,3.1902453249274076,0.6390419257898747,0.3212115227992929,2.4586307935732212,2.283606305707752,71930.3808680622,35994.45755393986
168,29226.421875,17508.0,[7],1,1.5584264611703775,0.6094312072792611,2.5986172736452393,2.881928527865704,2.3905518520799984,1.6561422816631988,0.04368905409141677,1.3342285872161384,4.705748931519336,3.0849814739159402,1.4604762698398082,0.6228757418397128,2.3904600550037753,2.7005743873151786,114124.65924722467,83479.8569915602
168,132195.6640625,54449.0,"[4,8]",2,0.16088918142465292,2.50189839401863,2.212773132675919,1.3661764197176103,3.4033191371415747,-0.22936128167965109,1.1377318116243917,0.8414129592327897,3.648918036935369,0.5489821948471892,0.044917836606241046,0.17481048220668394,2.4814444955392045,2.06728070092686,67726.75827527182,20074.56318117487
168,28298.9765625,16707.0,[9],1,0.9530542428337048,0.18419170966982534,0.5112714279682171,3.3397062430269764,0.3979690472421864,0.48445229489223074,1.0316667458918927,2.761948498297082,4.425864250309159,0.6930648337856679,0.6104116766154029,0.7426004569398301,0.7112574439891027,2.3561093029570728,67587.48834169957,20962.721520682135
168,63261.8359375,21505.0,[11],1,0.6342917365331275,2.744426974376349,2.13302993162745,1.3174559189796216,3.504960594417103,1.5736200523031993,-0.328114788966388,1.361666410111399,3.727414652728633,0.6596778148583918,0.19161183257159253,0.11079000546427187,2.593832504266287,2.2055018701785936,67875.4120927225,19952.01231192514
168,21487.828125,10488.0,[15],1,1.0289970963863355,0.8191205492779106,3.085428625842662,1.8663251068777242,3.0988197065308003,0.9944677581032375,0.6792425588043356,1.194174165082193,4.391883856400922,0.9347505196295839,0.4013028167621755,0.2277051319860559,2.3500312150192606,1.7661344503334295,68601.03391673046,33237.62570815925
