time_in_hour,cumulative_size,size,pcore_ids,pcore_power,AF700 CD48_[R 730_B-A],APCCy7 Ly6G_[R 780_A-A],BV421 CD117_[V 440_F-A],BV510 SCA-1_[V 525_E-A],BV605 CD11b_[V 610_D-A],BV650 CD150_[V 660_C-A],BV711 CD11c_[V 715_B-A],BV785 B220_[V 780_A-A],FITC Ly6C_[B 525_B-A],PE CD115_[YG 582_D-A],PECF594 CD135_[YG 610_C-A],PECy5 CD3-CD19-NK11_[YG 670_B-A],PECy7 CD16-32_[YG 780_A-A],PerCPCy5-5 CD45_[B 695_A-A],_FSC-A,_SSC-A
-1,0,0,[],0,0.0,0.0,0.0,0.0,0.0,0.0,0.0,0.0,0.0,0.0,0.0,0.0,0.0,0.0,0.0,0.0
0,162741,162741,"[0,4,5,6,7,9,10,14,16]",9,0.3094664187942817,NA,NA,0.7001314494810829,NA,NA,NA,NA,NA,NA,0.1453243286510424,0.13197430184771985,2.0684899430198893,NA,67343.99950842132,19892.550150238654
0,52407,52407,"[1,17,19]",3,0.4540638807220432,0.23921951439692535,NA,0.6575041814452383,0.43058189455607154,NA,0.0753434130173356,NA,NA,NA,0.30047781471941626,NA,0.6025451363749107,NA,68295.35291087054,17403.75751330926
0,91315,91315,"[2,11,15]",3,0.263156210206432,0.1059674008760858,NA,0.5495077573345104,0.24226573412909502,NA,-0.016070408125726132,NA,NA,0.3172682161638293,0.15239693817007183,NA,0.6302224011608158,NA,69881.1223566774,13222.650210808715
0,22739,22739,[20],1,1.9032765959364768,0.2768582537050919,NA,0.8296029185540208,NA,NA,0.21868241136375133,0.7599720541360551,NA,NA,0.41564368195610735,0.18513818985004082,2.3750435111922146,NA,71874.75825673963,26056.06086459379
24,312873.0,150132.0,"[0,4,5,6,7,9,10,14,16]",9,0.3388480665062277,NA,NA,0.7450699413340276,NA,NA,NA,NA,NA,NA,0.13302382186700923,0.13833608459342772,1.9921845688570183,NA,67257.71706730846,21741.755664438893
24,109575.0,57168.0,"[1,17,19]",3,0.4512831706319873,0.2277461586402043,NA,0.7037399582386663,0.4000333612046534,NA,0.07011726787132755,NA,NA,0.5139217189413675,0.28595261274014394,0.49748198055213266,0.5661857426328981,NA,69745.07864020087,18514.088213552324
24,190455.0,99140.0,"[2,11,15]",3,0.2521604603607206,0.1000694937964437,NA,0.5942457973326869,0.21366069999738535,NA,-0.02610621234937449,NA,NA,0.3071457621380296,0.14679058949357682,NA,0.5879502538552414,NA,71564.19580478326,13901.262051403166
24,19193.0,10584.0,"[3,8]",2,0.9242553256395476,0.2840772530610183,NA,NA,NA,NA,NA,NA,NA,NA,0.30858866597197343,0.7036094967436031,0.6328827084353646,NA,NA,19128.38388995987
24,64246.0,28991.0,"[12,18,20]",3,1.816498503268672,0.3650018967095181,NA,NA,NA,NA,NA,0.9403055608442394,NA,NA,0.5543203094978688,0.2519604231858804,2.391698548983602,NA,NA,NA
24,23709.0,13985.0,[13],1,1.3752341114766609,0.5842809245434295,2.9531644958876178,2.3044224513053924,2.121033669239543,NA,NA,1.101884138892387,NA,3.373578089712771,1.4765736578092663,0.5112405846724828,2.4111911321860724,2.4516843860559123,NA,NA
48,445899.0,133026.0,"[0,4,5,6,7,9,10,14,16]",9,NA,NA,NA,NA,NA,NA,NA,NA,NA,NA,NA,0.12110009854025228,NA,NA,NA,21495.50975445115
48,168863.0,59288.0,"[1,17,19]",3,NA,0.24044416760925458,NA,NA,0.39707818263325656,NA,NA,NA,NA,NA,0.2809132551654434,NA,NA,NA,NA,19090.897970544014
48,284661.0,94206.0,"[2,11,15]",3,0.2525251536986164,0.10442467058712968,NA,NA,0.21345385932039918,NA,NA,NA,NA,0.3035318465718887,0.1402250251281143,NA,0.6020516383768809,NA,NA,14265.281440028595
48,36614.0,17421.0,"[3,8]",2,NA,0.2711337498497848,NA,NA,NA,NA,NA,NA,NA,NA,0.3298139654230474,NA,NA,NA,NA,19893.919484350263
48,102280.0,38034.0,"[12,18,20]",3,NA,0.3702214499217886,NA,NA,NA,NA,NA,NA,NA,NA,NA,0.24707751395190036,NA,NA,NA,NA
48,29020.0,5311.0,[13],1,NA,0.5888015966919453,NA,2.2740091617160343,NA,NA,NA,NA,NA,NA,1.4444802557202094,0.49714407188146326,NA,NA,NA,NA
72,643164.0,176725.0,"[0,4,5,6,7,8,9,10,14,16]",10,0.3547480336943738,NA,NA,0.8194171712844631,NA,NA,NA,NA,NA,0.5589848688250613,0.18158057232214775,0.13961471818385163,1.875554091295542,NA,67157.00376264802,22868.789820325874
72,211810.0,42947.0,"[1,17,19]",3,0.42173566730560963,0.2722440329588003,NA,0.7279901294934361,0.42641949887164055,NA,0.05473885253292643,NA,NA,0.4707597203389854,0.2815064701761223,0.4396368096171056,0.5530262510599072,NA,68065.36273074949,19614.849383881643
72,391902.0,107241.0,"[2,11,15]",3,0.24875942992381606,0.1297120778638754,NA,0.6334878513276307,0.2357466362279661,NA,-0.02376627183582647,NA,NA,0.30607292271281095,0.1434874704976865,NA,0.6160035687110549,NA,70829.71820506218,14931.61176008276
72,19711.0,3637.0,[3],1,1.1153911200344735,0.2552173680686156,NA,NA,NA,NA,-0.29813818811829673,NA,NA,NA,0.2874450739181085,1.066893865354372,0.5682871814722704,NA,81474.3670031959,20991.688295875316
72,122404.0,20124.0,"[12,18,20]",3,1.8178330319025318,0.3938356375281895,NA,NA,NA,NA,NA,0.9013972078526749,NA,NA,0.5578612500000091,0.24983456382144986,2.403027594326995,NA,NA,NA
72,38346.0,9326.0,[13],1,1.3727669297449594,0.629538852292288,2.7857499290408128,2.3126464321180875,2.095935986282805,NA,NA,1.1314181934491279,NA,3.2034161062953173,1.4573061065039608,0.49188466194649183,2.403140628853076,2.4388680398476663,NA,NA
96,782330.0,139166.0,"[0,4,5,6,7,8,9,10,14,16]",10,0.37032997806169554,NA,NA,0.883812050644865,NA,NA,NA,NA,NA,0.5732750545588187,0.18537943894393072,0.14206557712985657,1.9491059846752656,NA,67256.89785129012,22563.390896424837
96,246226.0,34416.0,"[1,17,19]",3,0.44662408200597103,0.2819430146775903,NA,0.7738595837929534,0.43580701745551265,NA,0.07620640016894731,NA,NA,0.4914727840439267,0.3017067585267479,0.4610982957892348,0.5736412913989622,NA,68363.96221357609,19789.66367483517
96,476435.0,84533.0,"[2,11,15]",3,0.28290652615152956,0.13245901382560188,NA,0.6894396247735868,0.2441263261263571,NA,0.00849728584381415,NA,NA,0.3265752723288453,0.15648956775215384,NA,0.6318496012908462,NA,71027.43118368794,14759.757280636133
96,24759.0,5048.0,[3],1,1.1527978320206616,0.26734330558586805,NA,NA,NA,NA,NA,NA,NA,0.6080027159012932,0.3091427631164323,1.0858037381154384,0.588326195565246,NA,80853.8606567306,20759.31338099269
96,147670.0,25266.0,"[12,18,20]",3,1.875157841382803,0.3968877380713831,NA,NA,NA,NA,NA,0.9555285208843878,NA,NA,0.5863040742534005,0.2607152731089668,2.4173341228482528,NA,NA,NA
96,46055.0,7709.0,[13],1,1.4150949483009623,0.6359691549669022,2.7813001641515442,2.349990682249491,NA,NA,NA,1.1674249158397556,NA,3.196853096840751,1.4907290538920925,0.513276744001739,2.441972634914771,NA,NA,NA
120,984946.0,202616.0,"[0,4,5,6,7,8,9,10,14,16]",10,0.37411092909560306,NA,NA,0.9596374766941507,NA,NA,NA,NA,NA,0.5629698041841932,0.18875017819251516,0.13959211840547447,NA,NA,66922.16473187323,22035.721722815302
120,290450.0,44224.0,"[1,17,19]",3,0.4582453477190629,0.2972338708693649,NA,0.8067626533723575,0.4441530354828891,NA,0.09412818199345407,NA,NA,0.5001325896195618,0.32153997016699565,0.46641176640385484,0.5841593665587915,NA,68082.93183680497,19763.23084868298
120,546433.0,69998.0,"[2,11,15]",3,0.28655563816791263,0.13495301775149882,NA,0.7291482000592935,0.25295880938563453,NA,0.029406851593877903,NA,NA,0.3365981716349412,0.16640258774450878,NA,0.6341629914170658,NA,71066.03344966454,14614.566484820223
120,30490.0,5731.0,[3],1,1.1679294369957203,0.2725771495244498,NA,NA,NA,NA,NA,NA,NA,0.6216915844539265,0.3295594739258614,1.0994993955723162,0.6027812689734274,NA,79762.79908166616,20449.318202689396
120,176714.0,29044.0,"[12,18,20]",3,1.9243266592063961,0.4021221897982272,NA,NA,NA,NA,NA,NA,NA,NA,0.6141567247020516,0.27152165544326434,2.434971108706718,NA,NA,NA
120,54442.0,8387.0,[13],1,1.4745003518056146,0.6693794634473522,2.7894112036478895,2.392382955677601,2.166047116821589,NA,NA,1.1928827134932534,NA,3.1885291280445243,1.5221674500202056,0.5333861387347991,2.4767304255905307,NA,NA,NA
144,1104462.0,152207.0,"[0,4,5,6,7,9,10,14,16]",9,0.3702497320948994,NA,NA,1.0205498511012663,NA,NA,NA,NA,NA,0.5683142271051472,0.17143634154186183,0.14737541859204206,2.1371039444679796,NA,67032.36053028506,21690.291838016976
144,325864.0,35414.0,"[1,17,19]",3,0.4729665444449327,0.3013104514490941,NA,0.8667152292336722,0.44716978941215935,NA,0.11788957160348623,NA,NA,0.5114868404733431,0.330510515850182,0.488557106857461,0.602488334458558,NA,68173.13372449848,19696.074043159002
144,625681.0,79248.0,"[2,11,15]",3,0.29944248651789396,0.12688817515478013,NA,NA,0.260038672042179,NA,0.05895573531717524,NA,NA,0.3509799856364364,0.1730517361019297,NA,0.6529380995954831,NA,71062.46634946714,14507.734900052288
144,79192.0,16011.0,"[3,8]",2,0.9681162515405524,0.30273918792301924,NA,NA,0.3680141784397506,NA,NA,NA,NA,NA,0.3926669038918047,NA,0.7053376359985813,NA,67843.85331851676,19972.936256187495
144,208263.0,31549.0,"[12,18,20]",3,1.9499880834665853,0.3948572558159813,NA,NA,NA,NA,NA,NA,NA,NA,0.6368073109913763,0.29384806006828357,2.4335892244469495,NA,NA,NA
144,62358.0,7916.0,[13],1,1.4794912810225032,0.6646913731197359,2.7529065025016615,2.450206940649139,NA,NA,NA,NA,NA,3.1688141030822057,1.5289675112255199,0.5562729612720081,2.476747674652809,NA,NA,NA
168,1269537.0,165075.0,"[0,4,5,6,7,9,10,14,16]",9,0.36473711965700906,NA,NA,NA,NA,NA,NA,NA,NA,NA,0.17166404985835237,0.1457696966925789,NA,NA,66773.938580758,21823.583999520873
168,369762.0,43898.0,"[1,17,19]",3,0.47244142390511223,0.30733867833095463,NA,NA,0.4753473130283945,NA,0.13706954471524124,NA,NA,0.5236924993563564,0.3363439735316285,0.4870364004440644,0.6217534271937256,NA,NA,19957.940166918062
168,689517.0,63836.0,"[2,11,15]",3,0.2875897566441552,0.12336908468249774,NA,NA,0.2660196783270341,NA,0.08299370436839837,NA,NA,0.36178539973777724,0.17731156158732952,NA,0.6627857587833262,NA,71166.08932919838,14574.837284649167
168,114306.0,35114.0,"[3,8]",2,0.8801221033978821,0.2831829905516856,NA,NA,NA,NA,NA,NA,NA,NA,0.4342933296064908,NA,0.7319546804454654,NA,NA,20802.806221895662
168,247769.0,39506.0,"[12,18,20]",3,1.9357492597702175,0.38871288724982156,NA,NA,NA,NA,NA,NA,NA,NA,0.6533148655763785,0.3064507483785337,2.439041341842594,NA,NA,NA
168,74929.0,12571.0,[13],1,1.4755969841583634,0.6574205201057381,2.7438491192728782,2.537578173337375,NA,NA,NA,NA,NA,3.1761541843478462,1.5431693013919876,0.5634679748294951,2.438781642941976,NA,NA,NA
