time_in_hour,cumulative_size,size,pcore_ids,pcore_power,AF700 CD48_[R 730_B-A],APCCy7 Ly6G_[R 780_A-A],BV421 CD117_[V 440_F-A],BV510 SCA-1_[V 525_E-A],BV605 CD11b_[V 610_D-A],BV650 CD150_[V 660_C-A],BV711 CD11c_[V 715_B-A],BV785 B220_[V 780_A-A],FITC Ly6C_[B 525_B-A],PE CD115_[YG 582_D-A],PECF594 CD135_[YG 610_C-A],PECy5 CD3-CD19-NK11_[YG 670_B-A],PECy7 CD16-32_[YG 780_A-A],PerCPCy5-5 CD45_[B 695_A-A],_FSC-A,_SSC-A
-1,0,0,[],0,0.0,0.0,0.0,0.0,0.0,0.0,0.0,0.0,0.0,0.0,0.0,0.0,0.0,0.0,0.0,0.0
0,129264,129264,"[0,2,8,10]",4,0.16845729478652915,0.23263249913451237,0.31455322418226983,0.2870564464354088,0.26032526478987994,0.2242777996344203,0.25297383376145816,0.5024912950155064,0.16189134293831733,0.10703006648783496,0.24816094386149845,0.2238711775384584,0.1452203745085653,0.2826558858779719,0.20352331133439583,0.05001778335903384
0,112975,112975,"[3,6,7,12]",4,0.15473264301663023,0.4071490664023314,0.5013838556097047,0.2972786164513194,0.51162448693336,0.1735165912758266,0.29695942432765854,0.29940355101251326,0.5638377040656715,0.12043329371546359,0.24029445904537106,0.09296311023492763,0.3269681542277213,0.3474553742993702,0.1836456208401531,0.07028564089772611
0,46059,46059,"[4,9]",2,0.20184887321695816,0.41902999089606247,0.5268680817131284,0.30835299485742457,0.5458269632647477,0.3962406521785057,0.19043263305558944,0.34157140417288856,0.5956794726023573,0.13889206936562928,0.2536490951004524,0.08862855262839554,0.3598877621894116,0.40756388556156176,0.20262410624316346,0.08446452435552068
0,39698,39698,[11],1,0.3264235379542952,0.25801611638176775,0.531602497336907,0.3785802287520664,0.4280922069508884,0.3195165363613947,0.22678673881001007,0.33187441662326783,0.729074687988788,0.4635639996690472,0.3140580657044689,0.11822876499470006,0.3840320086843434,0.46234886582332735,0.2922227567231581,0.2022731752422337
24,163249.3125,154352.0,"[0,2,5,8,10]",5,0.17211001667331985,0.232440447878095,0.323062286335098,0.30235414314002473,0.25547121418202756,0.2314488502618643,0.25397854406239195,0.48264325705483224,0.20337605396550765,0.10609794168120515,0.24774271356110616,0.21214862438062546,0.13576209099013503,0.29218636141527393,0.21439786233930874,0.05544562037810603
24,118639.9375,111579.0,"[3,6,7,12]",4,0.16435485326404256,0.3802499423877473,0.5066863965166286,0.30284339048784614,0.49555255503429807,0.1877915278363626,0.29184740530063513,0.308625586690375,0.5759636077787389,0.12909752643366712,0.23763198353836582,0.09273890508988207,0.30584006410678877,0.32690680971568503,0.17809983674459273,0.08084454428570359
24,38747.6875,35869.0,"[4,9]",2,0.2120506477562612,0.4058116903959201,0.5474229492004561,0.3127667610301533,0.5508822575214041,0.3995386583463305,0.19387415629562732,0.34914190035206333,0.6244470998980102,0.14704478163009072,0.24837726737614055,0.08820316900333078,0.3554015115004522,0.4018288215765066,0.20374316488505442,0.09823017278275166
24,41886.125,39405.0,[11],1,0.3243271386255166,0.2667169646927408,0.5651814707340489,0.4065380180382202,0.43112709702279295,0.34839017340927736,0.22739095198746054,0.35242048445721685,0.7392012955601273,0.46719217367864074,0.322697421095076,0.12687970433869442,0.38195241558260634,0.47078730774803385,0.32106528446692095,0.2626845761660796
48,155288.953125,145741.0,"[0,2,5,10]",4,0.16732476322840034,0.23511484942827848,0.32104433838755925,0.2958520546884338,0.2558889234471259,0.22834389311757672,0.25714904432606106,0.4776535184582841,0.21556049928063364,0.10217973533251495,0.24707044077738527,0.18865828079518907,0.13714299036276742,0.2514365107652302,0.19253715506647248,0.05752438221821003
48,91743.3515625,86346.0,"[3,6,12]",3,0.15649285910078112,0.3771916713575344,0.47107227071973845,0.287930611274991,0.4572433929141885,0.2323482072598617,0.2645658727063876,0.29858256356814417,0.5380803987192714,0.10959769051120075,0.2435828701832317,0.08785780783262503,0.27902031679366324,0.2640335510625035,0.16468642201404454,0.07097259364699905
48,24098.64453125,22081.0,[7],1,0.13548463561720878,0.42109198322217434,0.5367301340573275,0.30109136925313607,0.5889217513915277,0.046009371949604,0.3560705563054752,0.30502637313400854,0.604599094887321,0.09536580954742008,0.21789509305833796,0.0885740949430821,0.380120645598974,0.3896515402074034,0.1906313578836662,0.08125574447474432
48,40284.8828125,37667.0,[11],1,0.33932467793218096,0.25907453673377234,0.5091757754996823,0.36648722290202024,0.4288285659015006,0.308061692810877,0.24544195856450518,0.3331163983554647,0.7459729974817113,0.44656665700442677,0.2986809181273033,0.11260772132280186,0.39188719659970056,0.44561528074446627,0.2609937708073065,0.19017139767440863
72,130217.15747070312,122539.0,"[0,10]",2,0.16294725182377326,0.2430002053494387,0.3216104297635266,0.2932059048337935,0.26422585157132655,0.22306202965556,0.2533986718380553,0.46888320799081906,0.16657778798193348,0.10010867960571622,0.24728466999426524,0.1671606878426372,0.14334247795395816,0.2231036886358499,0.19985942342729207,0.06511359099662767
72,140993.12475585938,133753.0,"[3,6,7,12]",4,0.16434932120471554,0.3779644928038886,0.4493960947130298,0.3255735182160432,0.4628313015632483,0.20425851792424604,0.2780280822878817,0.31451315688075066,0.5072712426770832,0.12301076987301168,0.25539049742320197,0.09435099178880875,0.27947199279883517,0.3077837584372461,0.1888939861730978,0.08704587102722657
72,36391.80517578125,33874.0,[11],1,0.32592926935962907,0.2736747684934995,0.4710461071715036,0.44288705393828054,0.42502086932460365,0.3197699072772477,0.2303016372640743,0.3431272714523984,0.7193924015501915,0.41974283677771923,0.32072050548369035,0.12182473803040735,0.3781502742083876,0.47819867970546825,0.31127411801019245,0.2353070943057717
96,73924.29002380371,68669.0,[0],1,0.18825575763826002,0.23623760147608083,0.3155996890935238,0.29815124789699793,0.25963743835544706,0.21765144076390072,0.26630541166814037,0.5525235819222858,0.14790710740560514,0.11031589208939332,0.25094937371897413,0.25181730074607506,0.15674675293435336,0.2863265946777763,0.2095337256531434,0.05341836115731034
96,20029.814849853516,18713.0,[2],1,0.16618138197249802,0.23332564147564439,0.2670220590969359,0.427765706389732,0.2706853206770749,0.23907306874667436,0.2679791515011087,0.6609159731046159,0.17966771256306008,0.12946052592566987,0.25912882330709436,0.383418695428574,0.17684625234305706,0.5140758590471278,0.22805673852658412,0.05368331134432721
96,35978.33740234375,29382.0,"[3,6]",2,0.17598969063131764,0.3685063915335732,0.45495358143726355,0.3240823572140376,0.4516728147729781,0.22173125626752951,0.28612625438793815,0.3171852942127092,0.49756058992814545,0.13078717526568506,0.2571633576555409,0.09800364555371066,0.27469371116894237,0.28180381996206455,0.17286036192454662,0.07415963074479641
96,54495.16636657715,52315.0,"[4,12]",2,0.1886068032466257,0.4987219762877615,0.5063578064332238,0.3388447156426731,0.5819968221662816,0.3556077081619065,0.2564460015064312,0.3523734049888224,0.5471302520562554,0.13722040910194058,0.25204561352039495,0.09036895345890038,0.40122623664223134,0.4793609114876634,0.19366677120584777,0.07519735185418593
96,37606.260330200195,36458.0,[7],1,0.13815655885391182,0.4766160682895529,0.5295375758168949,0.34344503471294946,0.6035699956037016,0.06007910543655544,0.3792133251887004,0.3378884454553109,0.56655052164697,0.1150689022006396,0.2265485662616564,0.09683152317850612,0.3997750660782637,0.4770565994799113,0.19662956344589008,0.07400615680191348
96,24459.282318115234,21576.0,[10],1,0.1721667297207203,0.2512958483673559,0.3970933655470377,0.3090108946173451,0.2731221859845351,0.23007347724181035,0.265092024176095,0.3430442948880409,0.202070368868154,0.11592257483538805,0.2616652975167426,0.11964190933233683,0.13328212659672403,0.15291195974586533,0.1943296651680465,0.06061100670954613
96,34371.48782348633,32097.0,[11],1,0.3636833560550096,0.26521315665072037,0.49008618793014336,0.44755998776548717,0.42858259696749335,0.3053938292440115,0.26124148977507156,0.3619303285942508,0.7538029824767993,0.43476033220535243,0.32380283111837876,0.1265565755906101,0.39397660870854867,0.5123617654630578,0.2744126694072701,0.18714086699350635
120,58569.26812648773,53949.0,[0],1,0.1784960822750889,0.23851602131502067,0.32521942103411833,0.3003500468675084,0.2618420904762731,0.21667511106882664,0.2656428835744079,0.5466034772941101,0.14958103993940938,0.10859858099393774,0.253889450966212,0.24474873591736582,0.14953852978160287,0.29628127214424704,0.20818598024202034,0.05286263989513316
120,41693.646087646484,39445.0,"[3,6]",2,0.177021008299275,0.3741323189775657,0.47729634476831934,0.33254361740951693,0.46367942075182383,0.21973903439095457,0.2874242704149764,0.3189597569709016,0.5029681840731103,0.12734318263985483,0.26068388380289786,0.09747687198658062,0.28061144729038123,0.2994662146703467,0.16709663878104752,0.07224025354860504
120,80054.94789791107,76649.0,"[4,12]",2,0.18421744005965185,0.5113576270217427,0.5280328789095787,0.34954815298411557,0.602018749331789,0.37942359170681916,0.2552894453919591,0.3603509323408873,0.5599406384235002,0.1247682665627547,0.25392954242324645,0.08744473091351869,0.41648107204462814,0.5049794593862788,0.1867084537728124,0.0721157538797467
120,61787.39127063751,59437.0,[7],1,0.13076746180897375,0.49265411534758,0.5457883023698318,0.3545399306138765,0.6173278892098788,0.06160664121058711,0.38231545217876717,0.34492313558744436,0.5722645052529883,0.10192541601961376,0.225856429635549,0.09533723939723561,0.41379289766366406,0.5045047040717818,0.18808162958296548,0.06968756716709473
120,36443.7051448822,34915.0,[10],1,0.17193594712528462,0.25669118319736517,0.4166469785717722,0.31243353211857844,0.2778794201004474,0.22974991617143864,0.26899255778962644,0.33777465369087906,0.21045356109333388,0.11700788791345842,0.2671427420760468,0.11611385639543621,0.13394078286616573,0.16184252550480463,0.18405410063958683,0.06129864647605202
120,40092.217988967896,37944.0,[11],1,0.37332423451879915,0.26980874210139266,0.5014628025707669,0.4689360473998073,0.4421668868476919,0.2975015339708316,0.2646999798924967,0.37956202876015793,0.7579067498156299,0.4344106986942039,0.3225903797866991,0.1271038977036028,0.3997099564003102,0.5292287234949411,0.2506935186369045,0.16764262947483094
144,61265.57925790548,57605.0,[0],1,0.19134911988178124,0.23086659102430052,0.32384694299579486,0.3458701953333673,0.2567758394801365,0.2182145692204013,0.2705647440614978,0.5752411774650089,0.15375246843451076,0.11072853073651545,0.2524025896321624,0.2793679651189593,0.1626280851679736,0.3250953159020626,0.20714870557603618,0.052200792479480236
144,29042.99146425724,27878.0,[2],1,0.15022180077561115,0.22048298757892418,0.2667331114249352,0.5418886247614949,0.27817212385803514,0.24498772695777987,0.29240603025420514,0.6795149880544423,0.24028558309912418,0.13287097471602669,0.2555823956690642,0.4121338323709119,0.187448920314296,0.5436335609633499,0.21300453747618198,0.05045860450628489
144,68658.43424361944,63655.0,"[4,12]",2,0.18408542029123656,0.50654256738143,0.5212534859891256,0.36451447070823445,0.5973279965495782,0.3836926815195359,0.26759313056733525,0.35787265937090496,0.5375837121787823,0.12991493862682063,0.24325543118351536,0.0921058240142177,0.4084449246355272,0.48402338930834193,0.18552514997512068,0.0679512339920192
144,52545.711954414845,48684.0,[7],1,0.1320838937492744,0.5001139438865169,0.5304287248937173,0.36962403117248904,0.607683578629798,0.06774232160545197,0.38346220566272626,0.3403928960791274,0.545656058156119,0.11187834944572325,0.21740345044420487,0.10030551996860125,0.40601171228649496,0.490407277288934,0.18659339968520347,0.06560639803619908
144,26022.731571555138,23745.0,[10],1,0.17884315721738453,0.2546302633148518,0.4278284950969306,0.33798519057389903,0.2752860374205799,0.2328138552955856,0.2751184581842143,0.3387212742224132,0.21510888861962407,0.12612625635396824,0.2673394924497318,0.12381181265375744,0.1400306556092359,0.17524149658750066,0.18416770987858627,0.06142990931770068
144,43564.76362431049,41059.0,[11],1,0.3641939593791345,0.26072823416306823,0.5075224753244173,0.49891910320234195,0.46090388433321483,0.2971447035609899,0.29630404436749996,0.36437266597238344,0.7540318360055961,0.4705189785965688,0.31990338102041505,0.1341944325972854,0.3878404027506967,0.5528688915190209,0.2527759401793542,0.17125379020280743
168,47290.09870361909,43461.0,[0],1,0.16714428608292803,0.23120641585228044,0.32031895320453047,0.3735788421173722,0.2578594537838738,0.22784947373769301,0.2720227385731535,0.5627125553366715,0.16440811981446854,0.10911772313355503,0.2512027370753377,0.23851778474983193,0.15672717810167602,0.3007648562219446,0.20981771994215676,0.0568947427598869
168,28476.186966516078,26661.0,[2],1,0.14229084929853403,0.22663946318323763,0.27618153616040453,0.5253824844166232,0.2785795061521456,0.2544631680951818,0.29918544362196897,0.6727282888514913,0.26531337073543987,0.1371849069970107,0.2570164342560956,0.36719090841037133,0.1872753609235776,0.5188133763773081,0.22357510680203915,0.05801860475364739
168,81535.80330502987,80147.0,"[3,6]",2,0.1708252588311438,0.3255872808209157,0.4568874474876551,0.3829033283982108,0.43819144699600826,0.22217324406602967,0.2870280461636954,0.31723753912183295,0.5295321509384447,0.1493327049159408,0.25697039183477977,0.09666817873244432,0.26143410958134183,0.27484356435761403,0.16685255645861594,0.09115380045605502
168,53992.152140226215,49701.0,"[4,12]",2,0.19119899826406195,0.46224043623508004,0.5297377750601313,0.3774575605714909,0.5859037939931894,0.3828934658570132,0.2677600032852142,0.349466718418835,0.5124726614541871,0.14410735832080032,0.2490736235661751,0.08879580627820031,0.3783187674928139,0.42216077209155906,0.19308148937997205,0.08259848937445434
168,36116.10699715093,32832.0,[7],1,0.13962380876927105,0.47150222777841355,0.5355523468952181,0.3822288051462255,0.6016242722530893,0.06774752570247732,0.38234387091578104,0.332947513122573,0.5179975173867736,0.12450685772340032,0.22126536507363348,0.09834862240518365,0.38305804826506146,0.44423004490802864,0.1938606934994575,0.07668404119458078
168,56828.074296951294,53463.0,"[9,11]",2,0.32936998566388026,0.26190376190389963,0.5404219700962153,0.5242714852615177,0.4713280333150324,0.31800932587090397,0.30408209093145117,0.35252201702578506,0.7114462071935357,0.42161370282284727,0.3226302125492486,0.13129189808749722,0.37885845754719466,0.5069741988776776,0.26778959265839564,0.19784379830841292
168,41033.420723222196,39407.0,[10],1,0.1679885661009785,0.26196974524678457,0.41421544379654307,0.3527461022489537,0.3105668607661452,0.23612818781326433,0.27147777933097017,0.31330689241857135,0.28342630919423834,0.12420342378699256,0.26116458530651315,0.11037901628564678,0.1579642913326614,0.1904884657958655,0.1683035022952966,0.07234574522434517
