time_in_hour,cumulative_size,size,pcore_ids,pcore_power,AF700 CD48_[R 730_B-A],APCCy7 Ly6G_[R 780_A-A],BV421 CD117_[V 440_F-A],BV510 SCA-1_[V 525_E-A],BV605 CD11b_[V 610_D-A],BV650 CD150_[V 660_C-A],BV711 CD11c_[V 715_B-A],BV785 B220_[V 780_A-A],FITC Ly6C_[B 525_B-A],PE CD115_[YG 582_D-A],PECF594 CD135_[YG 610_C-A],PECy5 CD3-CD19-NK11_[YG 670_B-A],PECy7 CD16-32_[YG 780_A-A],PerCPCy5-5 CD45_[B 695_A-A],_FSC-A,_SSC-A
-1,0,0,[],0,0.0,0.0,0.0,0.0,0.0,0.0,0.0,0.0,0.0,0.0,0.0,0.0,0.0,0.0,0.0,0.0
0,137415,137415,"[2,10,11,12]",4,0.2967477658334301,0.1529392304915853,NA,0.5628156435905844,0.3272057858821844,NA,0.021280457686573495,NA,NA,0.3922193082705634,0.18488585497942767,NA,0.626762368052982,NA,69851.83416657549,14107.284124731601
0,147308,147308,"[3,5,7,8,9]",5,0.32973825968039594,NA,NA,0.7135699477557282,NA,NA,NA,NA,NA,NA,0.15781873809296876,0.1310740151926586,2.066881410595482,NA,NA,21128.489857984558
0,40241,40241,[4],1,1.7327066989140325,0.36092472406252396,NA,NA,NA,NA,NA,0.836928877388718,NA,3.311488935960812,0.7325777733406276,0.27221986938694287,2.4397292970850435,NA,NA,NA
24,316539.0,151525.0,"[0,3,5,7,8,9]",6,0.3564834649790405,NA,NA,0.7580322845336638,NA,NA,NA,NA,NA,NA,0.14929658939024737,0.1358554132508163,2.001504526093154,NA,NA,22875.42562527841
24,286565.0,149150.0,"[2,10,11,12]",4,0.28794758554952615,0.1436591031040093,NA,0.6082373909479357,0.29499623688867826,NA,0.009799973360324898,NA,NA,0.37347486246749495,0.1781475088199782,NA,0.5842296137979176,NA,71546.68529652942,14946.989450909738
24,78683.0,38442.0,[4],1,1.7226962501556755,0.4037301283250945,NA,NA,NA,NA,NA,0.954459371236529,NA,3.3000533053264105,0.7485020687823156,0.2977136122923608,2.4320885447173977,NA,NA,NA
48,460117.0,143578.0,"[0,3,5,7,8,9]",6,NA,NA,NA,NA,NA,NA,NA,NA,NA,NA,NA,0.12100039046590172,NA,NA,NA,NA
48,142425.0,52408.0,"[1,12]",2,NA,0.2858188562822397,NA,NA,NA,NA,NA,NA,NA,NA,0.34263221192206217,0.26753263040196085,NA,NA,NA,NA
48,347796.0,113041.0,"[2,6,10,11]",4,NA,0.11763056972478347,NA,NA,0.23527936223819834,NA,NA,NA,NA,NA,0.16063665378264602,NA,0.5995048675689255,NA,NA,15296.913639029633
48,116942.0,38259.0,[4],1,NA,0.3994243187990705,NA,NA,NA,NA,NA,NA,NA,NA,NA,0.2858388124369331,NA,NA,NA,NA
72,632431.0,172314.0,"[0,3,5,7,8,9]",6,0.3713351722954805,NA,NA,0.821061788715288,NA,NA,NA,0.7332976697363076,NA,NA,0.19318192682363167,0.13548981421688855,1.9297999915026245,NA,NA,24234.975553064287
72,187855.0,45430.0,"[1,12]",2,0.46439302027094875,0.3413916563679136,NA,0.7972365358920559,0.5072781542040259,NA,0.09209829239573386,0.8258273187830798,NA,0.5223091806233519,0.3353013752308813,0.2784245842271946,0.5948348394400039,NA,NA,21680.8124564157
72,440756.0,115852.0,"[2,10,11]",3,0.2663493682627247,0.1338292344426688,NA,0.6436819247247834,0.2586948028432694,NA,-0.01963146707023178,NA,NA,0.3369971423417877,0.15277333270555227,NA,0.6223722090272094,NA,71557.54117017079,15506.23920718005
72,138315.0,21373.0,[4],1,1.7584342993601154,0.41960777374111125,NA,1.4751234521708008,NA,NA,NA,0.9300933790911863,NA,3.222886838094191,0.7274188257600254,0.28623737202038113,2.44714371329933,NA,NA,NA
72,27923.0,5031.0,[6],1,1.0514546162661536,0.25051562586398557,NA,NA,NA,NA,NA,NA,NA,NA,0.33364691501630706,0.8847456356766872,0.6167140537191521,NA,NA,22270.961716147922
96,768688.0,136257.0,"[0,3,5,7,8,9]",6,0.38208347588227887,NA,NA,0.8841522797129553,NA,NA,NA,NA,NA,NA,0.1968248915971027,0.13920274084153994,2.000093628175529,NA,NA,23883.83747892508
96,217431.0,29576.0,"[1,12]",2,0.4920371691617058,0.35034045421763027,NA,0.8458739194503075,0.5180943862650427,NA,0.11892073824799665,NA,NA,0.5506121018070008,0.35785792609608524,0.2893088521232049,0.6181304657845644,NA,NA,21928.731340057075
96,533812.0,93056.0,"[2,10,11]",3,0.2996371842446468,0.13788885679979845,NA,0.69745246291204,0.2677766006290283,NA,0.011728226283743926,NA,NA,0.3570712288371073,0.16571314361605793,NA,0.6387928003004896,NA,71772.4481877509,15340.978232036381
96,169141.0,30826.0,[4],1,1.8156352315463937,0.423302889914289,NA,NA,NA,NA,NA,0.9844787120390333,NA,3.188155871633729,0.7502230970137673,0.2967889947854191,2.4612116170236393,NA,NA,NA
96,34346.0,6423.0,[6],1,1.0860633749490434,0.2627342775578012,NA,NA,NA,NA,NA,NA,NA,NA,0.3567501476736732,0.9080192871950232,0.6369515007278898,NA,NA,22060.471670645624
120,965826.0,197138.0,"[0,3,5,7,8,9]",6,0.381315316057965,NA,NA,0.9567659063785894,NA,NA,NA,NA,NA,NA,0.1999775368865584,0.13846858446448818,2.0948180287422327,NA,NA,23320.567174625252
120,257162.0,39731.0,"[1,12]",2,0.5050207645491862,0.3639325444427626,NA,0.8768791948071528,0.5262698578716809,NA,0.1376142364151698,NA,NA,0.5612807687527644,0.3765249285314276,0.29355962357969145,0.6302270740661703,NA,NA,21788.419004362826
120,612495.0,78683.0,"[2,10,11]",3,0.30380455198003564,0.14133982566388914,NA,0.7365930654045987,0.2758563235226439,NA,0.03192866281188156,NA,NA,0.3658478200246337,0.1757799665025308,NA,0.640452785292943,NA,71781.53042881904,15185.532172507123
120,205973.0,36832.0,[4],1,1.8630689753753569,0.43806805038519014,NA,1.6969055558835069,NA,NA,NA,NA,NA,3.1545032830759774,0.7669032306030785,0.30730364856558734,2.4760449852553204,NA,NA,NA
120,41962.0,7616.0,[6],1,1.0977636676278537,0.26779867241790933,NA,NA,NA,NA,NA,NA,NA,NA,0.38199387374292204,NA,0.6462059844859721,NA,75830.5072208184,21668.099709260685
144,1118507.0,152681.0,"[0,3,5,7,8,9]",6,0.38632434298668006,NA,NA,NA,NA,NA,NA,NA,NA,NA,0.19180061713247865,0.14992687535348603,2.14506051731728,NA,NA,22998.18322817769
144,287715.0,30553.0,"[1,12]",2,0.5214407148879916,0.36805318029295986,NA,NA,0.5330235483342722,NA,0.1670265134803346,NA,NA,0.5805609870913985,0.38639285841891535,0.3067208535634218,0.6509578168847877,NA,NA,21634.429960203575
144,701587.0,89092.0,"[2,10,11]",3,0.3168805208605796,0.1330732420669416,NA,NA,0.2807532430646549,NA,0.06301488524866894,NA,NA,0.37919754022521,0.18228724383714212,NA,0.6580531005235294,NA,71740.8631573843,15052.421393212324
144,241934.0,35961.0,[4],1,1.8937884933452256,0.42883501849259176,NA,NA,NA,NA,NA,NA,NA,3.1955067364033494,0.7764492566981662,0.32143643723495274,2.470946932795696,NA,NA,NA
144,56020.0,14058.0,[6],1,1.1202757286147962,0.24913316146020392,NA,NA,NA,NA,NA,NA,NA,0.6778818322741883,0.40866644444842537,NA,0.6459215098000818,NA,NA,21387.20057122442
168,1283026.0,164519.0,"[0,3,5,7,8,9]",6,0.3805232975161905,NA,NA,NA,NA,NA,NA,NA,NA,NA,0.19178162250725883,0.14861123599599568,NA,NA,NA,23087.67643991548
168,333680.0,45965.0,"[1,12]",2,0.5158561979141632,0.38327064455762505,NA,NA,0.5855228015254168,NA,0.19392899582531475,NA,NA,0.5931032228512368,0.39158037157456516,0.3055006887976526,0.6806057732588332,NA,NA,21834.961783744646
168,776061.0,74474.0,"[2,10,11]",3,0.3055420827370601,0.13038265146814698,NA,NA,0.28825746172916356,NA,0.08961855618174797,NA,NA,0.3896305107832838,0.1863513027777186,NA,0.6691155767639344,NA,71901.05965381561,15140.147921361255
168,290926.0,48992.0,[4],1,1.8749688938114073,0.4241000321524324,NA,NA,NA,NA,NA,NA,NA,NA,0.7981733002619364,0.3331284248228268,2.462672805703168,NA,NA,NA
168,82070.0,26050.0,[6],1,1.021269386743043,0.23370565606192129,NA,NA,NA,NA,NA,NA,NA,NA,0.464233311636423,NA,0.6644630354819007,NA,NA,22118.641744851873
