time_in_hour,cumulative_size,size,pcore_ids,pcore_power,AF700 CD48_[R 730_B-A],APCCy7 Ly6G_[R 780_A-A],BV421 CD117_[V 440_F-A],BV510 SCA-1_[V 525_E-A],BV605 CD11b_[V 610_D-A],BV650 CD150_[V 660_C-A],BV711 CD11c_[V 715_B-A],BV785 B220_[V 780_A-A],FITC Ly6C_[B 525_B-A],PE CD115_[YG 582_D-A],PECF594 CD135_[YG 610_C-A],PECy5 CD3-CD19-NK11_[YG 670_B-A],PECy7 CD16-32_[YG 780_A-A],PerCPCy5-5 CD45_[B 695_A-A],_FSC-A,_SSC-A
-1,0,0,[],0,0.0,0.0,0.0,0.0,0.0,0.0,0.0,0.0,0.0,0.0,0.0,0.0,0.0,0.0,0.0,0.0
0,159796,159796,"[0,3,4,5,8,9,11,14]",8,0.28836622760269703,1.9020580674422325,2.0195441262484723,0.6833574942614411,2.758946294369069,0.32199140041677876,0.16270821175748384,0.6538868739580526,3.9352550229229695,0.5330257944253923,0.13458936131067212,0.11475568713234108,2.082754748754667,1.5620816423502453,66659.59418258266,19303.827179654018
0,134725,134725,"[2,12,13,15,17]",5,0.28560818559287293,0.1375845547300183,0.3490647810725376,0.5498251158508132,0.2926804863017245,0.22404880977546893,0.014431506468740363,2.5114844512822403,0.7748608038522912,0.3587241797587638,0.17394132008163288,1.002769693701985,0.6032964260011141,1.117769570354423,69792.42872518062,13550.446257190579
0,17922,17922,[10],1,2.0475555372726095,0.2676941222519864,1.767044807722336,0.8496150605401098,1.2913495467023623,0.8991156536100939,-0.2598719214373326,0.7832747958932895,5.669673924561998,3.3561118088383224,0.4728070859837201,0.16496463190491517,2.4198862318379777,1.6059275212029986,71431.43845552923,27620.056690101428
0,16923,16923,[16],1,1.2550135332978878,0.5789874454293127,2.7729973023104857,2.216697365597082,2.214704339774284,1.5497544684157682,-0.640434005731848,1.014428218696437,4.213813740944245,3.2263024453111155,1.4194758266855754,0.5041373553743518,2.399535897890439,2.4615607909354216,118227.73361697087,95480.58003899964
24,163884.3125,155022.0,"[2,6,12,13,15,17]",6,0.3074863096982676,0.12730594324502453,0.4100775508172889,0.6840877152484537,0.23250216238131127,0.27149181260027944,0.007185893899253504,2.3754939423720467,1.0108825386871634,0.33319781947250404,0.1658932282665857,0.9588234304065071,0.5219404121226513,1.1801512103004077,72959.15235327957,14941.94800371756
24,142595.625,133704.0,"[3,4,5,8,9,11,14]",7,0.33912117945063214,1.6520218557954518,2.089065810489451,0.7504594763570962,2.6454207565633543,0.332643053264257,0.19683154153353977,0.7032802632395816,4.026325587301935,0.5623327972890991,0.10176217988367142,0.11902744818520927,1.918214969608548,1.4637426709997203,65814.5492472157,22449.408023563083
24,17377.125,16257.0,[10],1,2.1048646118496395,0.375508700299243,2.1253781146910105,0.9986288639051155,1.270861887970519,0.9391804444923977,-0.22132746930231484,1.0296930184797533,5.853726445528262,3.2856712187358337,0.4502930461274546,0.20403995967758992,2.442127320913972,1.6079656917751073,72024.32278066695,36826.81985656441
24,20611.6875,19554.0,[16],1,1.300843256453404,0.5936179616388864,2.937116695282086,2.2888204615403054,2.1703984705946353,1.6225658263212488,-0.6061115357700602,1.1217318773905638,4.445240768865954,3.317665356251169,1.4247553499652725,0.5238556322505168,2.3560619571784174,2.4482054685266625,123125.16401192236,104803.22875067854
48,149997.328125,140230.0,"[0,3,4,5,8,9,11,14]",8,0.2876410056060883,1.683283385309073,1.9845006089270467,0.6390322051997241,2.5869457696550477,0.3322288042967485,0.11947501346278733,0.6308836157339641,3.924816447944934,0.3955005351359383,0.10658308670654293,0.08946134240070835,1.954182745134525,1.3011885774534355,64237.09109651849,21335.829892803245
48,165650.76953125,155408.0,"[2,6,12,13,15,17]",6,0.2951886561506696,0.1585634149116424,0.43183306670643784,0.6627666677801836,0.2506170023735188,0.2733925532446344,0.042004698069175284,2.2644738161680236,1.130437463145089,0.3249482589817797,0.16889248934428291,0.7999607973678522,0.5358435450713251,1.0178125440903945,68318.37735963598,16036.15737655155
48,33195.30078125,30821.0,"[10,16]",2,1.7304936441557828,0.4243057343952974,2.1242125257731854,1.3808702186617636,1.6751449380862335,1.130620066984377,-0.31277133001470236,0.9360778641335066,5.125083363500132,3.0965079907757245,0.767038082964016,0.28567832829571294,2.423564293670498,1.9224589393001639,86413.78722256549,55025.301571652926
72,171652.8330078125,162278.0,"[0,3,4,5,8,9,11,14]",8,0.33371565360735866,1.5958949825874984,1.6470740535970507,0.9539190491246248,2.3488981459713716,0.30980485000353,0.1310091631042125,0.73425924915048,3.504587598210047,0.5183604276333186,0.27087831489048586,0.13874188757826988,1.733749022504278,1.3647016177160158,68623.1634604097,24051.973055057155
72,154615.58715820312,145069.0,"[2,12,13,15,17]",5,0.23404967377519803,0.220365072689368,0.29143612069167446,0.7245533545857166,0.31703713781755427,0.24029611008703977,-0.023797033556443026,2.4807042720808097,0.8083203539472071,0.31245505962010534,0.16510394915803817,0.7846234340663631,0.6127493021697431,1.0343539811779048,70079.15448046058,17123.25852521282
72,15581.87939453125,14321.0,[10],1,1.9740091390166643,0.4245404892341935,1.2464952125948003,1.7172357120218003,1.3006869958696359,0.9711776755120571,-0.3239246264080857,0.9225269983040163,5.496649062672374,2.995455746405364,0.5169810647430708,0.19849049441420963,2.337691913932981,1.7612474894133554,75695.98541725562,36455.867476020794
72,16000.826904296875,15187.0,[16],1,1.3641794892419064,0.7685837036418368,2.4983287853719163,2.427768983200735,2.105218553659625,1.558674147482107,-0.5455651737299108,1.1800567133857425,4.298183303775387,2.800946949913882,1.519528865883462,0.5079571799534994,2.417639299055874,2.458135506114521,126217.21347988785,107763.59520945749
96,117764.89881896973,108282.0,"[2,13,15,17]",4,0.4020796676635625,0.18615196646883891,0.3910675311529359,0.8732609774881905,0.3104795844588977,0.22795343525693657,0.13368079431751578,2.9070664148354393,0.7600910547534049,0.421112167247668,0.23228569293145318,1.2054833289405564,0.678475797691115,1.2193072692860787,71641.7248590559,14893.98403798063
96,92937.1205444336,84851.0,"[3,4,5,8,11]",5,0.19046196768360013,2.191106970260167,1.9765077606475887,1.0312867758000164,2.9830211956525114,-0.11878255214398736,0.9305772883494949,0.7745055754601724,3.6481568041578973,0.5311659892495731,0.13103357081541,0.15863403483476024,2.2199578337917583,1.7890233248486458,67016.7595348082,19779.800583491895
96,27472.85890197754,25856.0,"[7,10]",2,2.2053548276693347,0.3781989707021114,1.527974064186878,1.8405888327922755,1.7237953163779443,0.38504875519931003,0.2397942345371904,1.1250249798552958,5.663049513589186,2.907325581924025,0.585337796180454,0.2726470333212423,2.4880528924226013,2.172228999247321,72164.44126496057,30444.49529626507
96,66340.15628051758,61679.0,"[4,8,9,14]",4,0.579363771003919,2.247637538784738,2.0914284364988567,1.0783754743464877,3.074118189356303,1.2591896090767831,-0.0007608869704491816,1.0489454054524159,3.810996012574201,0.6617585640326163,0.27155338594275413,0.12452244986922811,2.3615602897672914,1.9124583473230283,68204.60022354027,21406.273495282443
120,202499.08137893677,193672.0,"[0,3,4,5,8,9,11,14]",8,0.31914942630901955,2.3831655712047963,2.245610236672491,1.150423352364403,3.2646243080112947,0.3669931878914148,0.5563580122437704,1.0204831217957073,3.8239494690676668,0.46844409091385664,0.17366574751841934,0.12974501109806424,2.439139640397424,2.0346574416005017,65776.56030798185,19451.305552533602
120,110088.30617618561,102728.0,"[2,13,15,17]",4,0.3168203448184943,0.21652187576909476,0.5661125105613936,0.9103277146588522,0.35067016877604207,0.2351591990521984,0.15669115130580913,2.6520762436696383,0.8036812763670685,0.41993925301632273,0.26749725904760036,1.0916453114280549,0.6258317474235259,1.1994185097141394,70132.41629493672,14775.05572753207
120,32151.053681373596,30434.0,"[7,10]",2,2.2304091888325575,0.405301749114519,1.6901584676659378,2.142844129527069,1.853188533520449,0.34248575153238137,0.30330885590333256,1.3810744923119627,5.654303317450158,2.960515755803612,0.6161325595140688,0.2846180569062108,2.5516630959412256,2.290855244026259,69081.8504907978,29810.79084450904
144,155884.19258618355,143228.0,"[0,3,4,5,8,9,11,14]",8,0.3220850761656202,2.483641882020083,2.199347080989519,1.3224839861180238,3.324492994369591,0.36954401804995207,0.6824965014012219,1.009888883456612,3.674894023520952,0.5336271642583362,0.07675044080947124,0.16502824638444902,2.487990419028801,2.0536862025879565,65524.62890210883,18470.30607374589
144,112032.5191360116,105152.0,"[2,13,15,17]",4,0.3675509421796528,0.12400322276719322,0.42031047188079995,1.5305732540083055,0.32625596920049693,0.2533422208209879,0.24988537674508127,3.1853243317370286,0.9148459717117307,0.45341122761572206,0.24335438525317654,1.4474042897237247,0.7472295819702143,1.4936582234754523,70643.72042517131,14437.951571054058
144,32671.44085508585,30662.0,"[7,10]",2,2.2342043718049283,0.32429374918918175,1.8323901782916923,2.428395923518084,1.9715738122521462,0.34863252587897,0.5830857622490258,1.1151876067044348,5.512339841696854,3.4401130797799286,0.619021223243295,0.3386107980273031,2.4438077393507442,2.409723455284291,69412.38933354606,31853.618016463166
144,14550.519733130932,13709.0,[16],1,1.6232407620353315,0.6624945562955107,2.5720332905454115,2.849993788696604,2.6688809204623936,1.6034835619147125,0.24564308523118017,1.4135939517749136,4.786812958745201,3.071487286814022,1.4935831305440352,0.6814670180222524,2.5746254429308766,2.9259396178302444,113960.79104964047,81660.68221904822
168,186468.76203663647,176726.0,"[0,3,4,5,8,9,11,14]",8,0.355569030836417,1.701727637910741,1.9141589216853654,1.480032788981502,2.7032738929460556,0.348779237769298,0.5256601537298264,0.8478664353651975,3.576765725682147,0.7046139475674701,0.18764488125973022,0.15431536963383619,1.9682869894364292,1.5388717109751546,65200.90746643886,22974.51496985125
168,108368.03244600073,101366.0,"[2,13,15,17]",4,0.2159444636254726,0.17969316601671137,0.47724288289791783,1.6573929316013536,0.4456520583328709,0.3186774562907979,0.2706335427688531,2.78338265618284,1.190296138229633,0.4635288504308369,0.23833145987299753,1.1114369925849044,0.7470162229613736,1.3634232857059032,69924.48717105905,16395.112444618942
168,21022.052457876503,19858.0,[10],1,2.0617374721544843,0.2893637386457275,2.1249990063357296,2.4885423308113714,1.3062622941825888,0.856314955727594,0.010280106256977728,0.7718144873100674,5.0952795310409185,3.2972242622743,0.7397549579664844,0.2651534431317306,2.329061355253264,1.8796598465913068,69721.68313078761,40828.968559702946
168,16763.407483320683,15854.0,[16],1,1.4450382756804243,0.6262095491384252,2.6507489240469133,2.937328336965517,2.438790894383343,1.6052200389664895,0.19718638195867344,1.338424336248163,4.728720231481037,3.119711572339177,1.5445848342373476,0.6207203015961344,2.301161642281331,2.6347706618803644,121696.678089792,90329.10934186258
