time_in_hour,cumulative_size,size,pcore_ids,pcore_power,AF700 CD48_[R 730_B-A],APCCy7 Ly6G_[R 780_A-A],BV421 CD117_[V 440_F-A],BV510 SCA-1_[V 525_E-A],BV605 CD11b_[V 610_D-A],BV650 CD150_[V 660_C-A],BV711 CD11c_[V 715_B-A],BV785 B220_[V 780_A-A],FITC Ly6C_[B 525_B-A],PE CD115_[YG 582_D-A],PECF594 CD135_[YG 610_C-A],PECy5 CD3-CD19-NK11_[YG 670_B-A],PECy7 CD16-32_[YG 780_A-A],PerCPCy5-5 CD45_[B 695_A-A],_FSC-A,_SSC-A
-1,0,0,[],0,0.0,0.0,0.0,0.0,0.0,0.0,0.0,0.0,0.0,0.0,0.0,0.0,0.0,0.0,0.0,0.0
0,140447,140447,"[2,6,7,11,12,13]",6,0.17003291849216243,0.2381147565259824,0.32603526892249707,0.2887494263607934,0.26721317900248975,0.22573095731291332,0.2530891399910198,0.4806275172404127,0.18366637252774642,0.10833435218193578,0.24962003710069153,0.2109976466898503,0.1487618061980234,0.27569591251046327,0.19867892630486275,0.05142185178199482
0,140580,140580,"[3,4,8,10]",4,0.1714298964064948,0.4012742941962294,0.5069193225522856,0.3065129507519355,0.5147665002436078,0.220422852151255,0.2732494678031081,0.3178335914552596,0.5777711872766431,0.13486311752234978,0.24487554970001313,0.0968228722282914,0.33316675216903613,0.3779205665819677,0.19442512174699508,0.07818798549225152
0,27690,27690,[9],1,0.3470149397200997,0.24727934411039468,0.458649034501157,0.3233160290355953,0.4001174089278167,0.2533847523807599,0.25651143000929144,0.32499439596335206,0.7848685491075562,0.4417591729270838,0.2782291032009267,0.10301172589905846,0.37035910441580616,0.4057412629276388,0.2170420502728184,0.10720484844276146
24,194581.5,153204.0,"[0,3,4,8,10]",5,0.18007402148571877,0.38252899270780133,0.511387928876076,0.314133046323598,0.499119683216546,0.24382394922767595,0.26772513178733626,0.3253466564149262,0.5886703581536215,0.1395997225291895,0.2446389451741374,0.0982583196815039,0.3148098880351669,0.362954103638187,0.19412096325606612,0.0896663808137846
24,189562.75,154451.0,"[2,6,7,11,12,13]",6,0.1689069822632563,0.23594672809937267,0.3350003202209309,0.29668709887472444,0.2615078804890183,0.23052179946894574,0.25247482955993455,0.4753439617100905,0.18271292882882645,0.10488415981072324,0.24838059143576388,0.20669020167928803,0.139483167767384,0.27342621152327506,0.20922577105042708,0.05625476207006808
24,30564.5,23642.0,[9],1,0.3501498548491004,0.25590443852644645,0.49898956383723964,0.33779378430552126,0.40434371928044194,0.26471257205687776,0.26076522074516584,0.34669417604932123,0.8034063927319611,0.437199355300088,0.27629325181839853,0.10865538593123487,0.3742934895892533,0.41249562925527633,0.22183978231657303,0.13749653664681122
48,183283.375,134638.0,"[0,3,4,8,10]",5,0.17190597927628148,0.3881906225839326,0.5086214091690705,0.3007017526625163,0.5032527217181831,0.24054867035493457,0.2643906904174592,0.3146182658552887,0.579901231922664,0.11637496713668839,0.24179413263540078,0.09019294711067437,0.3211034675551207,0.3287010801707035,0.18221291939652148,0.08282938270160052
48,198269.8125,151870.0,"[2,6,11,12,13]",5,0.16571132042749834,0.23820603398935897,0.33289668767308805,0.2924645449522529,0.26217671574343976,0.22992782385993535,0.25372282945069186,0.4643523477951177,0.187627836444544,0.10196265181449593,0.24716307256518513,0.19032282838867526,0.13934614480941998,0.24736250971445004,0.19546505049095814,0.05784972426955395
48,36433.125,28792.0,[9],1,0.3577456744160357,0.2522857957597872,0.47692338870297357,0.3259331781006149,0.4157366566004923,0.26005103837075916,0.2610138635692092,0.33130285155281036,0.807919310553351,0.4344909514882903,0.26986204624305865,0.10181228661303965,0.39221601476333817,0.40683090060229726,0.2096690342128005,0.12269942577049768
72,265367.265625,203400.0,"[0,3,4,7,8,10,13]",7,0.1790171776221623,0.3533418408320209,0.4548896972501291,0.32949713239393164,0.44050804259071935,0.23957743166395704,0.26293807460831065,0.33060775318792746,0.49287292986082776,0.13077887567678323,0.25879651619614563,0.10235400837090584,0.2681741205339886,0.31116884926369076,0.19715054341324073,0.09324206973096694
72,157001.5,120448.0,"[2,6,11,12]",4,0.164419809425712,0.2387076955926548,0.3068928522629955,0.30342580370981564,0.2609281488420071,0.22550716977619964,0.24929580686751748,0.5104696163900606,0.15751501864920517,0.10050435990633606,0.24591196060322426,0.2016411380895386,0.14872998692460884,0.27990727659682707,0.20529137366439443,0.06130844128633663
72,27597.28125,18489.0,[9],1,0.3454195732517553,0.2626936536325505,0.4344042797797385,0.39141726089859014,0.40729292859062355,0.2580112808859843,0.25582617433594956,0.3357631245452019,0.773318286551752,0.4129341025674378,0.2789366808139834,0.10672105373970844,0.3744217062645004,0.4265980227563194,0.22912936354521052,0.13563800303660312
96,226965.81640625,160624.0,"[0,3,4,7,8,10,13]",7,0.18667228658771584,0.3935592249108416,0.4849221962853257,0.3476286428490921,0.489216076488412,0.24235708870831624,0.29068603906543866,0.34716610854791496,0.5203640919499222,0.13935568597596096,0.2562902407431487,0.10414821318102152,0.3165309875752615,0.3821699280806883,0.19716749813732035,0.08451344920013151
96,136177.375,96927.0,"[2,6,11,12]",4,0.18074208945715067,0.23659149250953998,0.31166392361837475,0.32119893828698554,0.26194411424035174,0.22455038238699251,0.26260574387159796,0.539201975149698,0.15801433680388657,0.11073844566040823,0.2513185602138973,0.2486128284248003,0.15482041272264294,0.31392793694697935,0.20792054412812358,0.05469310660246639
96,28221.3203125,21322.0,[9],1,0.3692863911608771,0.25802805233883147,0.44833994300320834,0.422928559293938,0.4045870795019318,0.2554010991845134,0.2766529609759779,0.360870608202577,0.7826533253326439,0.40750888065409413,0.29262390160431706,0.11297397692666164,0.3803512142720385,0.46639946135874644,0.21979612883391086,0.12421923289822975
120,149502.685546875,108171.0,"[2,11,12,13]",4,0.17383987788691202,0.24603975166328196,0.3441248011302845,0.32690373684833385,0.2737752143950768,0.22500725080813658,0.268372686514608,0.49602974549601175,0.18619346355399527,0.11342243975142886,0.2578156296860154,0.22160066216348903,0.15176542711914293,0.28930924561186877,0.20013524617014022,0.05541514205945684
120,229622.98046875,188825.0,"[3,4,8,10]",4,0.18135698558627128,0.4492005410564623,0.5308320070223108,0.35986258274392496,0.5689267676039279,0.23903661676191568,0.31012455576100656,0.3551978731910835,0.5682763891509078,0.13108877899591623,0.25107967339411186,0.09613715317282939,0.38264015522256334,0.46118694912997965,0.18925054745384165,0.0790591942949475
120,30047.330078125,22992.0,[9],1,0.37770723870853934,0.257976029019414,0.46631323379535156,0.452678774887333,0.41158990696142145,0.24762428786921234,0.2797546769708864,0.3779669923926937,0.7843282307650704,0.4214276513715516,0.29727218710414066,0.11572690508243945,0.38820371118124,0.48820427093956065,0.20801190916913295,0.12035853095670426
144,115931.50024414062,82988.0,"[2,11,13]",3,0.18403151298553855,0.24234273263554001,0.35234991280185796,0.3444824991219944,0.26833565844715274,0.23000060352910665,0.2730485621888117,0.502414098731638,0.18339520933833284,0.11493392770662131,0.25722386829409727,0.23047146391516476,0.1582439960301942,0.2845700384098967,0.1992878770774343,0.05474631694246384
144,173835.01049804688,128926.0,"[8,10]",2,0.17452394224785955,0.4782426056665238,0.5244440567089435,0.3755452988435176,0.5854554629482758,0.2347034609892665,0.3196278531401554,0.3550346726133553,0.5481139419830507,0.13306809567237646,0.23953178196088598,0.10116315309830014,0.3956443869294728,0.4830935274996035,0.1875426514205008,0.07115129067501409
144,34321.83251953125,26810.0,[9],1,0.37504166677225087,0.25258925928516535,0.48132208480514327,0.4798580146713807,0.42402870605443643,0.2451802924860221,0.3025488649479853,0.36235501128349146,0.7652336037339498,0.45499821417260383,0.2996806758434084,0.12554320309524947,0.37425493868054066,0.511762286140154,0.20876518740810723,0.1280321323390171
144,71868.41674804688,58487.0,"[11,12]",2,0.17507149347840847,0.2264254991418298,0.2910595028328885,0.42799999069819655,0.26725712113393396,0.22962936589639393,0.27757137428390916,0.6205433568774571,0.19635074842614678,0.12030617369934705,0.2540049724517823,0.3367012310513946,0.1738275902412919,0.447589123581242,0.20947112091761752,0.05108057135303851
168,223921.61297607422,184849.0,"[0,1,3,4,8,13]",6,0.19185072814716153,0.344767318676591,0.48139827109586847,0.39594825837844916,0.44432173296116323,0.2943255688037227,0.2809383128890214,0.34354746546048676,0.48278770518915376,0.15588293248868212,0.2646963854353416,0.1084935395577851,0.27642116503019276,0.327155131781782,0.1824879151610582,0.09108808509368577
168,68391.00805664062,46624.0,"[2,11]",2,0.17019872605205533,0.23216526779648847,0.32599608804046154,0.37064542781108345,0.25879189802857144,0.23530625477085174,0.2727510242406413,0.5539020538253461,0.16095022933985992,0.11088911192871177,0.2520336526799188,0.24474153871009405,0.15656728664930378,0.30654058282852753,0.20575337976716546,0.05481080564492373
168,35629.45812988281,27049.0,[9],1,0.3511373253704999,0.2510939257859183,0.5095466562270153,0.5123576877404106,0.44912907210847225,0.2448023889160942,0.32320232710044844,0.3432966525683833,0.7302958792732204,0.4398794522149731,0.3007488569067814,0.12743479568920246,0.3785972702188089,0.5052990349095152,0.21755185336843694,0.14766922729880783
168,200902.18627929688,150211.0,"[3,4,8,10]",4,0.17919188175098977,0.4076053145225703,0.5064310242997128,0.39489888360301967,0.5306526194019405,0.2264317731871431,0.31817992814230606,0.34286341533004366,0.5338854007856993,0.149326950077485,0.24883677691100936,0.10382909597537449,0.3397837032358908,0.40136556656387595,0.18857895234551247,0.0858918835209579
168,60701.10418701172,42734.0,"[11,12]",2,0.15797641599728843,0.2267105095133954,0.2867238227662784,0.45345977319579983,0.2675660602396373,0.23946418108163922,0.2842970231658372,0.6272124405863851,0.21434592835387314,0.12265045188858371,0.2541580530389162,0.3197045900543158,0.1730237697518089,0.44251011440800636,0.2132981934491102,0.05472251968152116
