time_in_hour,cumulative_size,size,pcore_ids,pcore_power,AF700 CD48_[R 730_B-A],APCCy7 Ly6G_[R 780_A-A],BV421 CD117_[V 440_F-A],BV510 SCA-1_[V 525_E-A],BV605 CD11b_[V 610_D-A],BV650 CD150_[V 660_C-A],BV711 CD11c_[V 715_B-A],BV785 B220_[V 780_A-A],FITC Ly6C_[B 525_B-A],PE CD115_[YG 582_D-A],PECF594 CD135_[YG 610_C-A],PECy5 CD3-CD19-NK11_[YG 670_B-A],PECy7 CD16-32_[YG 780_A-A],PerCPCy5-5 CD45_[B 695_A-A],_FSC-A,_SSC-A
-1,0,0,[],0,0.0,0.0,0.0,0.0,0.0,0.0,0.0,0.0,0.0,0.0,0.0,0.0,0.0,0.0,0.0,0.0
0,132224,132224,"[0,1,10,11,15]",5,0.3255369910984407,0.1779364191447823,NA,0.5620567189844414,0.3692641199479674,0.24273938929392846,0.005192216246667325,NA,NA,0.406961709553485,0.18807509471049633,0.9423450525850094,0.6548126491484086,NA,69584.76185866419,14594.67086156821
0,179553,179553,"[3,4,6,7,8,14]",6,0.3786125206484947,1.6762801757419639,1.903157169571108,0.7999957928076951,NA,NA,0.11132810696562245,0.7941569715794241,NA,0.7288059014274334,0.22568363353437526,0.21353247614910076,1.9663408580809087,NA,69968.23730040703,23627.17619867117
0,19668,19668,[9],1,1.7745356374821795,0.3461132176632118,NA,0.938066024913569,1.812490677852328,NA,0.15906876149075577,0.7912915318791875,NA,NA,0.4642966578706553,0.22794065095586713,2.3681202523896556,1.8456041983424754,75881.85316249772,31904.81025015234
24,180775.0,147719.0,"[0,1,10,11,15]",5,0.31490995630341745,0.16406955890608899,NA,0.6430562722265281,0.3240426307066908,0.27684532536855366,-0.0012446601396738366,NA,NA,0.3819152537353081,0.17968068300787277,0.9074274470820056,0.5904912575646536,NA,72003.28310883681,16042.184063061775
24,218994.0,172033.0,"[3,4,6,7,8,13,14]",7,0.43053356574153057,1.468437987422027,2.0133444748200833,0.8877155212711383,NA,NA,0.1199424791466801,0.8534438919856107,NA,0.7504829358589734,0.22335654682204842,0.2299834174794716,1.8033408949925485,NA,70580.8623797911,27289.152908298944
24,42595.0,34164.0,"[5,9]",2,1.757432750980158,0.43689736410377433,2.1574393167097248,1.2222401858962395,1.8165224932562496,NA,-0.04208826054701431,1.0447291589740462,NA,NA,0.560432266163867,0.28669818607818154,2.3591801777908166,1.9235787992428677,NA,NA
48,160577.1875,123500.0,"[0,10,11,15]",4,0.2632240758034994,0.13085699032318354,NA,0.5853564901459039,0.23615483866053388,NA,-0.008628417525065046,NA,NA,0.30866375068648544,0.14338019401649627,NA,0.5641145341107422,NA,70115.97228280047,15198.395425875735
48,45398.0,34201.0,"[1,13]",2,0.5109933152919766,0.3904977792950608,NA,0.8340141165056885,0.610240323707806,NA,0.14227450402000041,NA,NA,0.5651239428499021,0.3495293135875981,0.2510597271011361,0.6790400504702824,NA,NA,23483.390017181326
48,145843.6875,106100.0,"[3,4,6,7,8]",5,0.2333660612676569,NA,NA,0.7066582006707463,NA,NA,NA,NA,NA,NA,0.13169937927121023,0.14329766819655632,NA,NA,65208.55997966991,22112.577974963777
48,18626.25,14110.0,[5],1,1.6005086681632228,0.48936613377292115,NA,1.6829449746023788,NA,NA,NA,1.0115319656700787,NA,3.1606457681699323,0.933414954895655,0.34671879213811085,2.4451544074625935,NA,NA,NA
48,29849.5,23717.0,[9],1,1.9264706667322826,0.3353965132351413,NA,NA,NA,NA,NA,0.809661836146756,NA,NA,0.3678764524259268,0.20015283465175326,2.4798716014087288,NA,NA,32500.69622606723
48,74723.75,52758.0,"[4,7,12,14]",4,0.5880089301694571,NA,NA,0.793284987901282,NA,NA,NA,NA,NA,NA,0.21121065231268688,0.12106020557386499,2.240431354739114,NA,NA,26898.358286354618
72,179530.296875,139386.0,"[0,10,11,15]",4,0.27693223507739706,0.23803978166682072,0.3907793903314052,0.736908771243439,0.3678542395695783,0.2566064070673568,-0.02356835012997882,NA,NA,0.35149080001268806,0.175331148304799,0.8080464985516413,0.6614547006766577,NA,70701.96888181927,17775.756546662113
72,142135.8125,115195.0,"[1,3,6,13]",4,0.4260400960240316,1.1734091710006238,1.4560472291382442,0.975036316348628,1.6701937562829454,NA,0.04421255166459659,0.8527849494156969,NA,0.6348819034127949,0.32320213779360074,0.21202675767916201,1.3675927375960408,NA,68393.27421440677,25694.55883611306
72,187096.203125,144255.0,"[3,4,7,8,14,12]",6,0.4490040854440971,1.4953539598683037,1.7046889208988838,1.0237099553559394,2.342126155572624,NA,0.13507966859236387,0.7970824272706714,NA,0.7172966683849226,0.3013785327559182,0.1807052222316775,1.833389591873229,1.4943084494282968,71614.79303804028,28382.22162879595
72,22483.375,15021.0,[9],1,1.72458937875903,0.4653062398973984,1.459938149661287,1.5159136163984988,1.6840074224343353,NA,0.1145231663152444,0.9088734493605215,NA,NA,0.4949365248621267,0.2496790044414725,2.2670035115084914,1.843074008173393,76877.15238481777,38077.88603801675
96,149169.35546875,104635.0,"[0,11,15]",3,0.41520349468671136,0.22461914382200154,NA,0.8778387143998851,0.38225519357774607,0.24799719903744166,0.10430175071512293,NA,NA,0.43286476609919866,0.2249087393497402,1.0774308835526734,0.7142325000840263,NA,71177.52810311163,15958.899857609831
96,66726.57421875,38754.0,"[1,3,13]",3,0.4823516988361405,1.1857207411747277,NA,1.093535213396295,NA,NA,0.3024783579983463,1.102052891497515,NA,0.6498185431986424,0.3413867714536605,0.30532930382455536,1.3992237945276735,NA,67491.46091310268,23479.48757437859
96,192986.4296875,138651.0,"[3,4,6,7,8,12,14]",7,0.4908363072444808,NA,1.9142398614155174,1.179628857124961,NA,NA,0.4142176701260327,1.0566868620449603,NA,0.7454243077169606,0.2777131469494747,0.21672625717070626,2.145659477463006,NA,70807.16025798954,25423.590760733077
96,27872.84375,22252.0,[9],1,1.9532140529404838,0.4583573450543046,NA,1.806166683629952,1.741928485547664,NA,0.3289159866801685,1.1674197861271174,NA,2.6397945308531447,0.6031084360890895,0.3002096121828661,2.3736981427986024,2.115491388051455,75024.40957428329,34384.264208778266
120,133738.3388671875,96446.0,"[0,11,15]",3,0.38285266133404905,0.23006203740891795,NA,0.9260341547394826,0.4042531065705397,0.24447077858568056,0.14260020548818986,NA,NA,0.4411300027483117,0.2604613541492622,1.045210077816472,0.6727346608696722,NA,70068.53532894558,15250.060489108453
120,55732.6435546875,39051.0,"[1,3,13]",3,0.5506069137896064,1.1533260927700906,NA,1.2117272606692282,NA,NA,0.3789499595764285,1.1907209630251265,NA,0.6729313124733617,0.411386208877353,0.3375681358760855,1.4033169543232549,NA,65290.8021914825,22462.870639431578
120,153843.6201171875,117991.0,"[3,4,6,7,8]",5,0.3256062940327995,NA,2.0947201126411996,1.245948609156164,NA,NA,0.8116200927545183,1.0728369718723898,NA,0.5840824230876077,0.18753003983484584,0.20852898094141126,2.27938655943715,NA,67410.84287595269,21744.93476282443
120,29658.2109375,22690.0,[9],1,2.0208903135892093,0.43783173372983475,1.7640497579736754,2.053938882058317,NA,0.3597238356405701,0.36542038202308946,1.3272386648101553,NA,NA,0.6606369410530073,0.312308582492545,2.4272826873029647,2.2169644637354353,72667.5316969298,33657.24385874349
120,96401.9873046875,84008.0,"[12,14]",2,0.6453501054957438,NA,2.2424560596844594,1.326872195729551,NA,NA,NA,1.2653964376478593,NA,0.7592237342078813,0.35648767229491973,0.19027379387293974,2.5238289232869886,2.2008207997120164,70403.65841200372,25002.70472583194
144,135517.58471679688,102083.0,"[0,11,15]",3,0.4204941797738613,0.16488464713685014,NA,NA,0.37351215496824963,0.26362420929404307,0.23444758960559886,NA,NA,0.4693622852335603,0.25599967200754614,NA,0.7469827319703181,NA,70239.1389304159,14927.139349382433
144,43975.5458984375,33918.0,"[5,9]",2,1.9598572184416636,0.36032234199081214,1.867965891921226,2.457511081940392,NA,NA,NA,1.3607221859362721,NA,NA,0.8048826039850785,0.4311075615213077,2.329628222439612,NA,NA,40538.17903616038
144,187018.9697265625,141062.0,"[8,14]",2,0.4052814572661092,NA,2.080714715158281,1.4855395965266371,NA,NA,0.718343349661648,1.1959866720012409,NA,0.6932366745792279,0.14551657560126108,0.25478584996231346,2.450082462958319,2.1820874425903907,67711.5736171166,20700.132497525792
168,122615.39617919922,88736.0,"[0,11,15]",3,0.30146587065284725,0.2100144592493498,NA,NA,0.486369645266735,NA,0.2851940627782197,NA,NA,0.48426189737399095,0.2584602212627036,NA,0.7812855258766783,NA,69896.00518505945,16492.372498510696
168,134593.77990722656,124125.0,"[1,3,4,6,13]",5,0.4638167295101008,0.9021343482023556,NA,1.7370299653233956,NA,NA,0.3975215364412157,NA,NA,0.871444956250249,0.38500076391584237,0.3066205150472934,1.4232069946640613,NA,65658.45441195874,26710.879217780006
168,49115.886474609375,38122.0,"[5,9]",2,1.7642064796648975,0.3637439639483748,2.036774168210115,2.710479843762321,NA,NA,NA,NA,NA,NA,0.8148503284021893,0.435008763809161,2.31165435670679,NA,NA,44913.89309142029
168,135793.74243164062,89039.0,"[8,14]",2,0.42529919797937166,NA,2.091922963843165,1.5943458365955037,NA,NA,0.7471527906522462,NA,3.60208573606937,NA,0.16514356555169618,0.24743169326914227,2.3252991161345604,NA,69363.80607413518,22950.83207380909
