time_in_hour,cumulative_size,size,pcore_ids,pcore_power,AF700 CD48_[R 730_B-A],APCCy7 Ly6G_[R 780_A-A],BV421 CD117_[V 440_F-A],BV510 SCA-1_[V 525_E-A],BV605 CD11b_[V 610_D-A],BV650 CD150_[V 660_C-A],BV711 CD11c_[V 715_B-A],BV785 B220_[V 780_A-A],FITC Ly6C_[B 525_B-A],PE CD115_[YG 582_D-A],PECF594 CD135_[YG 610_C-A],PECy5 CD3-CD19-NK11_[YG 670_B-A],PECy7 CD16-32_[YG 780_A-A],PerCPCy5-5 CD45_[B 695_A-A],_FSC-A,_SSC-A
-1,0,0,[],0,0.0,0.0,0.0,0.0,0.0,0.0,0.0,0.0,0.0,0.0,0.0,0.0,0.0,0.0,0.0,0.0
0,158867,158867,"[0,4,5,6,7,8,9,13,16,17,19,21]",12,0.17230891928734152,0.4066119775123491,0.5100259649083162,0.30325130406785655,0.5168386227033155,0.2385265038582191,0.26606837088072316,0.3148014593414266,0.574908406006872,0.13000151070975993,0.24448099864055167,0.09504799415779644,0.33481656388134834,0.3746904119341536,0.1920862155038326,0.07436685976234698
0,128786,128786,"[2,3,14,15,22]",5,0.16786177351598883,0.23258519995113747,0.31691906915492396,0.2853024115627831,0.25890302600594167,0.22348953219889794,0.2519533109043738,0.49813941395830386,0.16128338166077624,0.10453164757499306,0.2473812719895844,0.22176768073384973,0.14412541071369836,0.2778978638491951,0.20128440183538057,0.04878931382957965
0,17185,17185,"[10,12]",2,0.2718746327789306,0.2735062600045802,0.585025355605689,0.4572731134865652,0.45111558282695796,0.40960168446184475,0.19741304992825656,0.3442277158868631,0.6084238981843069,0.4434561328376094,0.37200681688507675,0.14750714919284239,0.36686191577291005,0.5277129118490478,0.3879363333459432,0.344450367724993
0,84937,84937,"[5,7,8,11,18,20,14]",7,0.17526670882634163,0.3197232587827689,0.427406631186364,0.29765074656627216,0.37566837772408607,0.23542953062386268,0.26963765757593555,0.31456338594174627,0.4200293340860677,0.12579168019471546,0.2553710240874432,0.10362321303677624,0.22326419147465604,0.24514279487119345,0.18073523852749718,0.06087648786010873
0,26789,26789,[23],1,0.35571438201170985,0.24742186679626305,0.4595420056990284,0.3192954563880063,0.40623649345665996,0.24994458468118422,0.2560981610120384,0.32591775063905504,0.7985788242043433,0.45431976122732426,0.27462731458799433,0.10125593886824787,0.37918754650705444,0.41359991618871716,0.21472851072251603,0.10104326484874553
24,301375.0,142508.0,"[0,4,5,6,7,8,9,13,16,17,19,21]",12,0.1754135495601717,0.39654306807594686,0.515000447931468,0.30768973309900643,0.5127454198287328,0.2400609695684328,0.26721206650810825,0.3192738401738984,0.5825890779539914,0.13261720244154931,0.24282594693321344,0.09553553530284846,0.32683443736344736,0.368410265103221,0.19184753366219384,0.08135310389890095
24,52822.0,30045.0,"[1,18,20]",3,0.20409355574022647,0.2729217366014515,0.5340591038385757,0.33262915751529687,0.3134085483532127,0.2588255537915706,0.2696586491765581,0.33579710801839596,0.34190576329855404,0.1469298262795511,0.27681143486715265,0.11161572449644563,0.17404195534224506,0.21803205478269452,0.17223647278302828,0.09390314125916029
24,267478.0,138692.0,"[2,3,14,15,22]",5,0.16679131045690027,0.2318655585076436,0.3202311050431337,0.2900504498888498,0.2558288452313584,0.22674841282681038,0.2510640808898265,0.49383015161776367,0.16025854365424824,0.10235131842284274,0.24658144089485678,0.21855729073546423,0.13870904177757998,0.27692294349223856,0.20868184836794,0.05145787325886717
24,37096.0,19911.0,"[10,12]",2,0.27561259028085705,0.27422641878009696,0.5957736539638206,0.46108376835471,0.44963451649766956,0.4155990968376324,0.19914402764869524,0.3493980576345286,0.6279308824937924,0.4503059733487335,0.37044202287619815,0.1479326110127129,0.3641908083816905,0.5259005643712708,0.3970105228738663,0.36227777481404316
24,52090.0,27947.0,"[8,11]",2,0.19839127214388183,0.3341635347023417,0.4594779775417713,0.31526507129262016,0.404693241182455,0.3129374508673586,0.2502491381754214,0.3302474583627881,0.573074688248808,0.13979271370373106,0.25911681107715967,0.10660407041336091,0.25603203537617375,0.3003856832737704,0.18011229843977175,0.07935113459207833
24,49133.0,22344.0,[23],1,0.35698393591536004,0.25251658088017304,0.47835880168642375,0.3264754329735584,0.40717363134191803,0.25686205587181565,0.2585899468100765,0.3390743497229483,0.8094031549866685,0.45045613518165933,0.27300074748866204,0.10398448130636744,0.3804241434101535,0.41229286967880113,0.21591381525431727,0.11594840207719602
48,422903.0,121528.0,"[0,4,5,6,7,8,9,13,16,17,19,21]",12,0.1728778147906414,0.3975248197405546,0.5145439587273045,0.30385169395381656,0.5152873308674094,0.23950297051460076,0.26601380414942505,0.3167004720364549,0.5815336133003209,0.12416496350860103,0.24148511875942838,0.0928958465064505,0.32948010909844405,0.3571665490134175,0.18850735650300776,0.08072070319035808
48,90432.0,37610.0,"[1,18,20]",3,0.20122841235709574,0.27662656643988753,0.523099269436406,0.3288491801404612,0.3160077701303363,0.25775077805787094,0.26733858530629884,0.33141352382094286,0.36124196760760896,0.1400227963846166,0.2746914336155254,0.10731761065770593,0.1740774604470987,0.210170769546471,0.16378377595875504,0.09394833304007635
48,401840.0,134362.0,"[2,3,14,15,22]",5,0.16584603666634037,0.23243083908201656,0.3200947838863307,0.2895693882530312,0.2554625273051315,0.2272858126270587,0.2515748718917602,0.4893359149327198,0.16198380538254145,0.10106136873733447,0.2459461679884643,0.21108699925682678,0.13816862026178853,0.26719139792056285,0.204822235515354,0.05297686102117516
48,49883.0,12787.0,"[10,12]",2,0.2727807627559005,0.27537956709355327,0.5887899182059065,0.4587955709625406,0.4500936736671347,0.4063333104351739,0.20686211182972306,0.3481582100909726,0.6198046416296142,0.44551267432296326,0.36691772591614835,0.14549236508709237,0.3631503523253232,0.5227437211371802,0.3874692786109785,0.3534793098373979
48,25030.0,12903.0,[11],1,0.2302778555005074,0.2459325709316074,0.34388228477079497,0.36475385646157776,0.26287087129972314,0.26432217138301606,0.2818834470120294,0.3883370742527781,0.6554396062430057,0.15005978909267978,0.26572034961510965,0.1423251457383029,0.1546868183418228,0.3636852191655328,0.1778172375572388,0.0732927197428184
48,77229.0,28096.0,[23],1,0.3597510719338176,0.2519391120319514,0.4753185758656207,0.3239235241785294,0.4108564928660283,0.25879731597867445,0.2585840228183193,0.3347142427213917,0.8106645532985131,0.4454727913132021,0.27084692384755993,0.10225439069180173,0.3868484863457195,0.40850830959303147,0.2119018159650118,0.11601453183932621
72,574917.0,152014.0,"[0,4,5,6,7,8,9,13,16,17,19,21]",12,0.17682732392033035,0.39017443872023294,0.5007556642892738,0.31468054441817106,0.5034975578609733,0.23952567536839017,0.26496654878558146,0.3205043120422453,0.5689014087044653,0.13023436438549915,0.2474274007611939,0.0952247952123139,0.3210040659841995,0.3562986956573591,0.19393346319072471,0.08684999932441116
72,133292.0,42860.0,"[1,18,20]",3,0.19346264328301221,0.28961346398706134,0.4983872909007439,0.32869357049461456,0.3331717844803793,0.25432674041668324,0.2660962639113918,0.3329061538511736,0.3707630905113493,0.1341262055342188,0.27104254502582487,0.10679614080400877,0.18354974623884027,0.2159802418717971,0.16884088863777325,0.09216906565021174
72,537135.0,135295.0,"[2,3,14,15,22]",5,0.1654356599697934,0.2348108662292627,0.31863677406578156,0.293841813354305,0.2576042786924928,0.22688260904702512,0.25101693307736267,0.4898477876101463,0.1628124313149085,0.10105791664324745,0.2462626488083924,0.20521181206892267,0.14070246740801043,0.2671142127656386,0.20449831233872287,0.055684754942927094
72,62650.0,12767.0,"[10,12]",2,0.2752310422835165,0.2787953147793241,0.579084272914796,0.4630220570144285,0.44778004710830943,0.4063491152560553,0.2070166243973435,0.3501958998667626,0.6241693354363367,0.43350450543408275,0.3681395440674318,0.14528233242585836,0.3631270310652915,0.5220779761393634,0.39086551798832125,0.35393930480717023
72,131255.0,42990.0,"[7,8,11]",3,0.19579732716852818,0.33834670097193825,0.4393133415588293,0.3267527019476636,0.4037922612669835,0.30768220682584746,0.24455218553197924,0.3354109609087795,0.5596127582635365,0.1387287645147707,0.2610167187661279,0.10581321518955994,0.2525838388391299,0.30970573543054863,0.18555155996169712,0.08506254677433465
72,91249.0,14020.0,[23],1,0.35715614745306473,0.2543708438826902,0.46671235305202696,0.33973389758724626,0.40992376856970997,0.2590065283436147,0.2576916059798524,0.33519575491765835,0.8016043308295072,0.4409231760719974,0.2731200458301387,0.1032436958779744,0.38418916194200153,0.41350790029958523,0.21702198479607163,0.12114434350295011
96,699484.0,128294.0,"[0,4,5,6,7,8,9,13,16,19,21]",11,0.1784157396403505,0.4000402022593318,0.5042513432181228,0.32168473685383664,0.5137367312486317,0.24036145768578523,0.272710157595968,0.3266877712552499,0.5680666905433486,0.13189919607284056,0.2477201037995529,0.09501616380661541,0.3311793881238619,0.37149202319777297,0.19378877222398036,0.08549957665767642
96,158061.0,24769.0,"[1,18,20]",3,0.19704582920822952,0.29035519486837724,0.5045227569413433,0.3358228677067643,0.33353028832057185,0.2564634515253596,0.27042448751511267,0.33829234844748785,0.3683093075246778,0.1378909314716439,0.27400492179867547,0.11033580978664667,0.18651086661550026,0.222363421128999,0.17137538083312273,0.09322703632067236
96,642590.0,105455.0,"[2,3,14,15,22]",5,0.16870473849533416,0.23506952692465607,0.3184352047826546,0.2991517123407225,0.2582463207993719,0.22641666928149692,0.2534911928957291,0.49712300656715946,0.16222853331222234,0.10318273207181065,0.24752263317787418,0.21368545068331485,0.1429133766719017,0.2746742473760128,0.20539425085220075,0.05507914020924669
96,73861.0,11211.0,"[10,12]",2,0.2803402569440399,0.27974817373592786,0.5782483355976352,0.46873545212829715,0.44988270710395606,0.4071048577050957,0.2132866490600418,0.354210430325404,0.6267534286842169,0.43311471639418686,0.3720562989886739,0.14852820048999382,0.36808995928680993,0.5324029021296741,0.39221861329247987,0.3524010376187632
96,152026.0,17044.0,"[7,8,11,17]",4,0.19904719017222025,0.33589309795360245,0.43547263124213476,0.3348494493052397,0.40036855908680363,0.3022756496459326,0.25142187953352135,0.3374679484448749,0.5621007990729446,0.14075608957914917,0.2623952089466626,0.11036141098220474,0.2504037855630651,0.3242463074729488,0.18664999268671056,0.08387730254163311
96,111051.0,19802.0,[23],1,0.3625041327320278,0.2547814313329956,0.4634579254936548,0.35446228706149024,0.40885633854499964,0.25862521336513705,0.2607363012854944,0.34047177179824367,0.8011178447294955,0.4377559077056923,0.27661148443777756,0.10482850022346894,0.38506664339159036,0.42483683504346054,0.2160720921185485,0.11959425031415853
120,889700.0,190216.0,"[0,4,5,6,7,8,9,13,16,19,21]",11,0.1785553387860509,0.41245602849353824,0.5113964333582156,0.32963865133312387,0.528014433988449,0.24092597625419648,0.2804084468488464,0.3325328067258286,0.5689287336670475,0.13029168634914326,0.2478941967357765,0.09439700389603907,0.3439777118877715,0.391926825459364,0.19175264125408506,0.08303145878759678
120,185063.0,27002.0,"[1,18,20]",3,0.19987606445472667,0.29058199366570103,0.51013106161997,0.34076422020276587,0.33244475453330835,0.2581924697130173,0.2734849476131508,0.33998603467713023,0.36505182590003477,0.14034140030899878,0.27717293961647554,0.11121693447376949,0.18723537857923112,0.22587061794058405,0.17055473212314992,0.09349190052782619
120,741665.0,99075.0,"[2,3,14,15,22]",5,0.1693283058664725,0.23555860942782927,0.32038175867151447,0.30337395082489754,0.2592227111524364,0.22629247653159065,0.2553864691641439,0.4988973341977836,0.1623952328480152,0.10434560956127437,0.2487468329312045,0.21706373107209237,0.14328415246564563,0.2797733285635734,0.20523919077309857,0.05456052725984695
120,87890.0,14029.0,"[10,12]",2,0.28739875424617084,0.2825385978659875,0.5793625704175792,0.4750601588454967,0.4553523866323335,0.4069088599900554,0.21943527903852078,0.35749645869320484,0.6281541772410661,0.4325154162863984,0.37513690071814326,0.1512519665418769,0.37309676169891,0.5438836462659921,0.3900220469275633,0.34798366909791373
120,81163.0,11853.0,"[7,11,17]",3,0.21476816780059488,0.30880404882904783,0.3747655101773435,0.3682924205377507,0.34995768170708824,0.2709985893031198,0.26477237257012587,0.35991756432509064,0.5813549819431636,0.14734677030504556,0.26713987423277835,0.13218456847893634,0.21738909037072293,0.39616836662514854,0.1886465308197835,0.07611981036004534
120,131981.0,20930.0,[23],1,0.36689243592743115,0.2552956806311724,0.4633667238312649,0.37017399995233796,0.4081926746174839,0.25794337651236415,0.2619758820482779,0.34736157448629656,0.8007024048770482,0.4379384831289569,0.2793413705435834,0.10618344163613509,0.3866074563063738,0.4346816750217399,0.21283001461675616,0.11764908711291334
144,1036421.0,146721.0,"[0,4,5,6,7,8,9,13,16,19,21]",11,0.17882381180629456,0.4190522020387359,0.5129433493652558,0.33842630967388354,0.5347156110104408,0.24140809326967372,0.2867724419965878,0.3362058962207244,0.5659765540646458,0.13097740592331145,0.24668102804732456,0.09571809498111537,0.34979349435004026,0.40337501014462035,0.19038668025328848,0.08111974072718113
144,204699.0,19636.0,"[1,18,20]",3,0.20330705063473092,0.2898384643876331,0.5140919350929212,0.3490573520441388,0.33166896436171794,0.26027081791703394,0.2782200343129819,0.3432574091831447,0.3642303226498877,0.14505574374609168,0.2793394658170681,0.1138014215867418,0.18996361093227454,0.23147029858683707,0.17041591587194752,0.09386629272434954
144,845394.0,103729.0,"[2,3,14,15,22]",5,0.17080133852962212,0.2349739148320865,0.32054573805497016,0.3155478384510281,0.2597486231345145,0.22670742925721432,0.25783832838202875,0.5059101169787733,0.16446695762373026,0.10584900365793963,0.24946995079368336,0.2259504599580347,0.14561529084742875,0.2902718056881628,0.2054059567544731,0.05420091483058499
144,104377.0,16487.0,"[10,12]",2,0.29073316315189773,0.28136721661876596,0.5746845738331688,0.48628142526212803,0.4642943071344057,0.4023535741357335,0.23264976580729688,0.36190699257209924,0.636668198185064,0.43270408109318526,0.3742236085191204,0.154366432381428,0.375762253028758,0.557441542894413,0.38460562334391923,0.33724195661456713
144,60501.0,13345.0,"[11,17]",2,0.24268021838260567,0.25099059699981147,0.3503351167479077,0.42177266658290835,0.2775126706429399,0.2510316730940343,0.28783177040662383,0.39360350861083543,0.6457391760471912,0.15365782545610918,0.27125598812163526,0.16614461505519706,0.16744671835613156,0.4421710779161592,0.18808442527719652,0.0733557278778612
144,154408.0,22427.0,[23],1,0.37010716379615965,0.2545761770071686,0.46583937814866716,0.38378416044895414,0.4077615108453069,0.2577606014540715,0.2645716346054811,0.348600734441814,0.7965710442469061,0.44412504446238826,0.2816424872240466,0.10834022005928122,0.38483752684866196,0.4435694718945491,0.2115147369800983,0.11776455354499452
168,1180016.0,143595.0,"[0,4,5,6,7,8,9,13,16,19,21]",11,0.177980489154834,0.41784628629955994,0.5125539588890329,0.34362053741139903,0.5356403436528715,0.2410186913597928,0.2889732244338491,0.3355512037787129,0.5611134088592269,0.13203216866058648,0.24636816142564943,0.09529095259233109,0.34836238783411216,0.39905561973811154,0.18952438694266277,0.08141263959640237
168,228543.0,41161.0,"[1,20]",2,0.19012359436151552,0.2893101646959105,0.4953442135680574,0.3478168744473922,0.3349032733413018,0.25287499982109335,0.2746543824830628,0.33637042818007,0.36878652289299696,0.13971279710657825,0.2732850382395364,0.10909721714168136,0.1843472307105564,0.21384908324533924,0.16566698825278986,0.08944874302041182
168,935879.0,90485.0,"[2,3,14,15,22]",5,0.1697519722947027,0.23476618401409866,0.3205149917193816,0.3255493553123907,0.26064381114852647,0.22772599134928798,0.25994424184639725,0.5085657935611787,0.16790980482227147,0.10700142606899979,0.24991325090767338,0.22813516052165309,0.14687420782242025,0.29564052061618457,0.20570631177229431,0.05458568457443718
168,134083.0,29706.0,"[10,12]",2,0.2956943508796037,0.27893917234220056,0.5707325275997156,0.5041204011135495,0.4728689438531005,0.3926293566345175,0.25217292337288044,0.36425274006707414,0.6485599682011497,0.43355011657291825,0.3696008270706588,0.15476515426757081,0.37597869386478017,0.560891442071973,0.37578882679459685,0.32123251440408995
168,89372.0,28871.0,"[11,17]",2,0.233964363927965,0.24752366661676908,0.34989013870489183,0.46289807980514225,0.2775159980340936,0.2520713524777235,0.29753315884618126,0.41346782312561514,0.636304372279192,0.15352226545648467,0.2763085940449317,0.17175423918852906,0.16684827617044956,0.44842555827626157,0.19328154074785356,0.07730963248793878
168,24050.0,6733.0,[18],1,0.3205320122993886,0.2767169533547793,0.64340023872882,0.4751083717179326,0.3304954938307751,0.3482925201921277,0.3448246729502416,0.3837459323508143,0.41020963405784683,0.2471174542290895,0.34666002473291246,0.1552490601710342,0.2799295046390778,0.41331533516704994,0.19742577236339395,0.15201938042198399
168,173857.0,19449.0,[23],1,0.36876805317337763,0.25389283394213263,0.46983201960793286,0.39452766981181575,0.4082152985388925,0.25867467198562466,0.2657223756194428,0.345619860056198,0.7904371868129738,0.444546945002562,0.2828144143896674,0.10848567546910265,0.38417876178732685,0.44399791328659666,0.20912190901119165,0.12006653232637048
