time_in_hour,cumulative_size,size,pcore_ids,pcore_power,AF700 CD48_[R 730_B-A],APCCy7 Ly6G_[R 780_A-A],BV421 CD117_[V 440_F-A],BV510 SCA-1_[V 525_E-A],BV605 CD11b_[V 610_D-A],BV650 CD150_[V 660_C-A],BV711 CD11c_[V 715_B-A],BV785 B220_[V 780_A-A],FITC Ly6C_[B 525_B-A],PE CD115_[YG 582_D-A],PECF594 CD135_[YG 610_C-A],PECy5 CD3-CD19-NK11_[YG 670_B-A],PECy7 CD16-32_[YG 780_A-A],PerCPCy5-5 CD45_[B 695_A-A],_FSC-A,_SSC-A
-1,0,0,[],0,0.0,0.0,0.0,0.0,0.0,0.0,0.0,0.0,0.0,0.0,0.0,0.0,0.0,0.0,0.0,0.0
0,165555,165555,"[1,2,3,4,9,11]",6,0.3429633107849428,0.4103454762405172,0.7736316015100639,0.6044637381112046,0.6682502379028143,0.2712772873063307,0.03235606775392297,2.0906942144483667,1.3223341713388321,0.46054368573585214,0.20735613340581027,0.8052765958503179,0.8394325166681794,1.156202405013434,69020.8236779318,15791.938823955747
0,173359,173359,"[6,7,8,12,13,14]",6,0.6254250809303186,1.4660074452436849,1.9358746103923035,0.8102277324511529,2.4153118672984877,0.3613711691634116,0.11360188404409532,0.7946921578689303,4.175546734983455,1.0861508437981287,0.24497398042789564,0.20897977490064068,2.0663044277597407,1.6812432501687231,70655.93724006237,24240.098477725376
24,289130.5,193948.0,"[1,2,3,4,6,9,11]",7,0.3599529345693462,0.4607508133818472,0.9113589952270691,0.6958737143625555,0.7281285377347015,0.3643382435076912,0.005535882347248222,1.974072512140693,1.494692260728291,0.47361826067294577,0.2135742211423648,0.7430423040391825,0.8444805393083835,1.1721956803484905,70751.26881460115,18116.595073850705
24,249963.5,163284.0,"[6,7,8,12,13,14]",6,0.6494231902157761,1.378354606156512,2.0265248853672673,0.8818305918144134,2.3740438974030256,0.40085057434585236,0.11885458018470496,0.8617788425910304,4.246532430466854,1.0981868367661711,0.23252994394580417,0.2198839985017812,1.9957942675390608,1.6521458454574218,71470.2485442874,27938.939373148503
48,357222.25,212657.0,"[1,2,3,4,6,9,11]",7,0.3320836570433481,0.45349224750768125,0.8895524806188391,0.6612995688937273,0.68785369961908,0.35171028438527574,0.013880918037720846,1.857896436217925,1.596993353348664,0.4221352604317118,0.2005233519972518,0.651444227886137,0.8002775819682316,1.0189087844542104,67858.93279603968,17994.867318595032
48,258975.75,144449.0,"[4,6,7,12,13,14]",6,0.35733025048581846,1.5800922941742659,1.9696717162465922,0.7431978640818762,2.4666653880807563,0.3389615146997307,0.13986121060176782,0.7344065058755511,3.9161211504301154,0.5515011482802968,0.15284460827219526,0.1508593151279627,1.8930976535776058,1.4147192760982348,66676.69175974966,23335.949377499655
48,66378.75,39472.0,"[8,10]",2,1.764557038212515,0.4210293885957497,2.1009806903753048,1.2770808573978942,1.8679549991601152,0.8263853261585983,-0.11498635533210244,0.9319223252735283,5.319570647876821,3.0556182553716256,0.6399472374291388,0.27711883185507447,2.4404558041090088,1.9752690987401775,83641.57215976459,48780.657544771515
72,420087.125,241476.0,"[1,2,3,4,6,9,11]",7,0.35472898595886293,0.5450019235941208,0.8386851386146663,0.797110710739152,0.8133896727550951,0.36258698162463254,-0.009263519928748298,1.8435715422684993,1.755527376443919,0.4613963454292359,0.23125964204449367,0.5914045774992434,0.894281323253188,1.0885636317436467,69016.8162425828,20036.842195532518
72,358064.875,200165.0,"[4,5,6,7,12,13,14,8]",8,0.5940220553426223,1.360170250355127,1.7365213698582678,0.9949941909755275,2.216151063468232,0.3787719465435544,0.10660240506416807,0.7810794496063851,3.9153800319690553,0.9076376810961914,0.29145693534900863,0.1805100620128539,1.8422790948742218,1.4865714459649253,70398.99745541887,27588.79522041917
96,340805.0625,135785.0,"[1,2,3,4,9,11]",6,0.40974544354717457,0.4925197155219325,0.8168969001054736,0.8819512931973015,0.7469444338719393,0.32593054842531166,0.0860326198127237,2.1069873551558,1.5523603752372317,0.484406369130737,0.24999514854477578,0.7645174993600621,0.8871565336347874,1.1770955177213653,69731.3424327433,18777.240176706437
96,365226.375,176316.0,"[4,5,6,7,12,13,14,8,10]",9,0.6937179251702075,1.5136758621370494,1.849935806262303,1.2003763638293283,2.3975342028668085,0.43006383031482853,0.2777859094874682,0.9874885051466284,3.963736358709719,1.032509968890691,0.34029173147870795,0.22770332204666843,2.0435167860643655,1.757349784404606,71959.54372134266,28273.279650189572
120,305571.53125,135169.0,"[1,2,3,4,9,11]",6,0.42107521942325143,0.4808486376149128,0.8895052441252407,0.9550252132430384,0.7271971023965631,0.309419456140436,0.14794165580226037,2.1378352506792666,1.4894266464216752,0.497320135661366,0.2823478885068713,0.8030268006907877,0.8657140925569936,1.2186712112820475,69030.27654347259,17925.378485336136
120,376495.3125,214273.0,"[4,5,6,7,12,13,14,10]",8,0.515534352893235,1.92200071853153,2.047611402509045,1.2598392903533115,2.798734605390442,0.4189721011480121,0.4344073314596266,1.091035462623958,3.836395337325165,0.7487046155348004,0.29116620469404575,0.21900853464170378,2.2135216063081975,1.9558582121772672,69749.81790244742,24987.87932718291
120,77623.59375,43408.0,"[7,8]",2,1.4134955666318494,0.8438597862920103,2.0592825726532964,1.7145573448931581,2.3768313257740012,0.10411604845982225,0.5770153371490325,1.2056047311798932,5.04982082061432,1.9205054703201108,0.4487259568603421,0.2662318786362926,2.41224023929178,2.111840393650457,72788.24250519855,31760.733803953775
144,274378.765625,121593.0,"[1,2,3,4,9,11]",6,0.46202200493006207,0.3711414643577564,0.8215445146298541,1.2633727101691123,0.614807939767799,0.30916886941836697,0.21974994266132786,2.426036685469743,1.3774929785360017,0.5249609118499053,0.2904666012677204,1.003210841359863,0.8567664301287771,1.3519587721917796,69237.46966251748,17178.446857079005
144,354439.96875,169690.0,"[4,6,7,12,13,14,10]",7,0.5086497167864823,2.0191352531919513,2.059563118918858,1.455178670013956,2.9305170987371363,0.4215638763005116,0.5726328021799683,1.1810812617222326,3.783770854348918,0.7955872074273126,0.2474219269453659,0.2670435598232447,2.298842359343792,2.063920710205866,69254.70205453498,23915.503476919966
144,74238.796875,35427.0,"[7,8]",2,1.5553114677928164,0.6870719769803113,1.991217694071088,2.0505438048767055,2.259871824533469,0.20619562671556313,0.6750686955173997,1.2751212747087006,5.058366734001951,2.215292355751688,0.5229392300843902,0.3356088927226618,2.3440218627343232,2.235752669891063,72968.59010418906,32817.20959328256
168,341972.3828125,204783.0,"[1,2,3,4,9,11]",6,0.39866900131785377,0.4827050975601068,0.97898667931211,1.5420066441516846,0.9198432104894376,0.35187345920655844,0.2950591738869033,2.042512872283761,2.006878583681418,0.6240092247577113,0.3070822734774472,0.7812664179711135,1.002661873186507,1.3337973187648422,67948.48403661959,20129.968114338557
168,377031.703125,175483.0,"[4,6,7,12,13,14,8,10]",8,0.7157777591433028,1.6286546917801972,2.0068885722905816,1.73893061320398,2.6923227625019632,0.4699415086016905,0.5789198476150581,1.1604515826008055,3.9068020034608266,1.1699463598407154,0.34093947757637366,0.2908071264142892,2.205596925044682,2.0000078330766247,71029.79518839344,27635.39196475898
