time_in_hour,cumulative_size,size,pcore_ids,pcore_power,AF700 CD48_[R 730_B-A],APCCy7 Ly6G_[R 780_A-A],BV421 CD117_[V 440_F-A],BV510 SCA-1_[V 525_E-A],BV605 CD11b_[V 610_D-A],BV650 CD150_[V 660_C-A],BV711 CD11c_[V 715_B-A],BV785 B220_[V 780_A-A],FITC Ly6C_[B 525_B-A],PE CD115_[YG 582_D-A],PECF594 CD135_[YG 610_C-A],PECy5 CD3-CD19-NK11_[YG 670_B-A],PECy7 CD16-32_[YG 780_A-A],PerCPCy5-5 CD45_[B 695_A-A],_FSC-A,_SSC-A
-1,0,0,[],0,0.0,0.0,0.0,0.0,0.0,0.0,0.0,0.0,0.0,0.0,0.0,0.0,0.0,0.0,0.0,0.0
0,88848,88848,[0],1,0.32011028146947473,0.1430090030614286,NA,0.5915989526719589,0.3490400042432378,0.23847798612236693,-0.020820596524385948,2.9184591087811906,NA,0.40900894520978137,0.17451012487620066,1.1556146179992788,0.7055444371510912,NA,69959.42733657431,14426.098325229943
0,185152,185152,"[1,3]",2,0.4069648902847476,1.6556114079621116,1.9687607786899837,0.815202760337491,NA,NA,0.13055021862577698,0.7768148929258047,NA,NA,0.23476314601516446,0.2082136696227942,1.9739417449770924,NA,69937.25509851336,23956.300380228204
0,52034,52034,[2],1,0.3594601260137702,0.2563113759080613,1.1317274383480123,0.5435227664988465,0.42290681037398903,0.2673410205058353,0.0654940056117077,NA,NA,0.44043189070607935,0.24083012833914585,0.5182613950493993,0.575139789541454,0.6329612778759981,68535.33612637862,15532.663719875409
0,33703,33703,[4],1,1.7854943173604518,0.3762531693024518,1.9357498916119966,1.0861399808028973,1.8186646026763484,NA,-0.15564878363944867,0.8486865665964198,NA,NA,0.5866600775598689,0.24730612918731887,2.4159963513930447,NA,80551.56822834775,37480.95445509315
24,97263.0,75051.0,[0],1,0.30335690142192573,0.12012047638872447,NA,0.7248509333328133,0.28842665224443254,0.2830962589448185,-0.03355965429813779,NA,NA,0.39015226581535645,0.1708475260556579,1.220822175781144,0.6472622628645958,NA,72543.09737515845,15586.166332521094
24,215565.0,169277.0,"[1,3]",2,0.4485907447011295,1.5033255028958536,2.0570353927446736,0.8938837041843453,2.422159922102385,NA,0.13526119934010916,0.8317396822988252,NA,0.774149257744782,0.217709292031397,0.21691473510774306,1.8697930846032564,NA,70737.727182056,27717.368812191213
24,95008.5,82000.0,[2],1,0.34522200939127967,0.22194210773251655,NA,0.5877342490093223,0.3555938853234073,0.2922530479720107,0.03936166214600423,NA,NA,0.3954151143871317,0.21425099585301188,0.5446544169048058,0.5295218528894877,NA,71151.91150265545,17219.712173121312
24,42097.75,33672.0,[4],1,1.7673041796176545,0.4358029604491942,2.1829035865872135,1.263581091560706,1.7631529551104617,NA,-0.11616856522615349,1.0589065072479813,NA,NA,0.594075450433825,0.2988178746607625,2.3489096994435816,1.945992997375135,82553.30662565032,NA
48,93690.75,69375.0,[0],1,0.28184904583163095,0.10914544253033842,NA,0.7196255994128253,0.23085187937243834,NA,-0.017070977188269776,NA,NA,0.3248810827269625,0.1546125653779833,NA,0.6483524051013544,NA,71204.23405725734,15377.61313683597
48,79052.9375,53783.0,[1],1,0.5736521831154509,NA,NA,0.7795943493275894,NA,NA,NA,NA,NA,NA,0.2458199890255517,0.13487378477950074,NA,NA,NA,25479.825540955
48,129096.125,105344.0,[2],1,0.3407313581008864,0.3082309592687218,NA,0.6178346225980635,0.46311960492567916,NA,0.07620055850241592,NA,NA,0.39788789431761906,0.22267463873042947,0.3875305954932782,0.5626571374939696,NA,65355.961815275,18304.268482109655
48,107229.3125,78608.0,[3],1,0.222092593467063,NA,NA,0.7299464140309135,NA,NA,0.5638087914026504,NA,NA,0.4624850617426852,0.0799704800634844,0.16147242090927527,NA,NA,66181.11837656338,22734.545798752642
48,50700.4375,40176.0,[4],1,1.7999340000936834,0.38489968960449517,NA,NA,NA,NA,NA,0.8933107353733236,NA,NA,0.5849315832111985,0.26162819580698904,NA,NA,NA,NA
72,214144.71875,158448.0,"[0,2]",2,0.2959233031185342,0.3018325897242966,NA,0.7540775983442733,0.4544609363250536,0.267030548202017,0.012200206354010756,NA,NA,0.3725324790414727,0.19891872008816414,0.7063702785991213,0.6769556919744318,NA,69230.79586337003,18309.678645763775
72,221956.5625,175386.0,"[1,3]",2,0.43352520808590755,1.4769298677054636,1.6679209092806802,1.0330041023399676,2.2587548420211436,NA,0.09517690810103696,0.8415052160461585,NA,0.6781272903616343,0.31642005609341384,0.2052634025817206,1.7708993277937415,NA,71937.868433153,28478.744173198418
72,38841.109375,26166.0,[4],1,1.7306735336770755,0.48564295723443696,NA,1.6515302650602939,1.7144520971924355,NA,-0.13512225180349935,0.9723186981890435,NA,NA,0.6114788952032515,0.2804585236808139,2.321058010601283,1.9470809435094136,82737.38167397589,45079.2244138886
96,110016.921875,82418.0,[0],1,0.4486982376471005,0.19991001778888995,NA,0.9484031022092432,0.3524403962977325,0.24340585677371052,0.10104882702844531,NA,NA,0.43798110288744063,0.22602235176704477,1.267860687662239,0.7527819882675658,NA,71558.20934251169,15564.744364467797
96,98128.55859375,71960.0,[1],1,0.6824656922778416,NA,NA,1.2698883628840996,NA,NA,0.08341766657643568,1.1434261599858946,3.7491004094827223,NA,0.40336950713720787,0.2221963730169202,2.184179362828753,NA,72832.6075626796,28295.42148371912
96,65982.2578125,40045.0,[2],1,0.3647524591866953,0.42048781461459006,NA,0.8035053176896834,0.5547396831126519,0.30480101395067116,0.13067682544822912,NA,NA,0.448870075868926,0.28797318085850687,0.5362281956403139,0.6588569104199696,NA,68916.46123146982,18462.750164017634
96,104898.58203125,75578.0,[3],1,0.37786320402541174,NA,1.918867095107323,1.1596123213649676,NA,-0.295195700162475,0.7769329462260144,0.9651950376020411,NA,0.6797283050334261,0.17289764878512281,0.21271936757415089,2.120271740096607,NA,68912.43964428884,23022.977398593648
96,35847.27734375,26137.0,[4],1,1.9429035817314546,0.4422806495944447,NA,1.9223244731122597,NA,NA,0.09159813971890785,1.2037654472649395,5.325227373087001,NA,0.7488349383374802,0.3674674013047863,2.309879808049288,NA,NA,41274.42977919675
120,87509.23046875,60005.0,[0],1,0.4197237458314189,0.1740785368889508,NA,1.0726728226225721,0.3670789676380881,0.25137377804966055,0.13361075290638347,NA,NA,0.44911770715215504,0.2531043227719807,1.3453495584419748,0.7313351146184367,NA,70808.64965325297,14795.011740502418
120,130950.1396484375,106418.0,[1],1,0.6754599911820676,NA,2.2144573822246207,1.3477177281903048,NA,NA,0.14882344774061496,1.225510342098822,3.886274889295325,0.7986730516041244,0.3822017575267922,0.19844774268277965,2.424300310793431,2.137638306264964,70421.36370717161,25835.098277349072
120,75974.564453125,59479.0,[2],1,0.37435912435532726,0.4389717800265127,NA,0.8506848712539417,0.5556759607294097,0.2956252629109748,0.1754203858968726,NA,NA,0.4617595915040831,0.3420249280751775,0.522177409233376,0.6369867399513608,NA,67577.81082499881,17622.257540397462
120,131475.6455078125,105251.0,[3],1,0.3121846809382871,NA,2.1397525677945644,1.2666237573664505,NA,NA,0.9587323716362266,1.053735579794374,3.8955077257900617,0.5848245078329545,0.14260487641731068,0.2011988733434854,2.345691255457215,2.064100327958256,66925.73106421568,20875.19198108386
120,37808.8193359375,28847.0,[4],1,2.0301581407665186,0.36934286419713525,1.8235228103527192,2.1514058535482135,NA,NA,0.12917464886364183,1.3337988894114585,NA,NA,0.7958139461715312,0.37414786620681495,2.2978453931749443,NA,76198.61813429101,38462.69670454181
144,93830.3076171875,71953.0,[0],1,0.43270542263846323,0.09303644832636504,NA,1.6217777845613388,0.33043587500865224,0.2693482272102943,0.22826522904176638,3.5226722678414086,NA,0.4752544186109606,0.24159161788114147,1.6261459037967962,0.7980436496729745,NA,71442.49465504193,14508.410188751499
144,115186.53491210938,82449.0,[1],1,0.6561358353102948,NA,2.125456694931953,1.5731259910593725,NA,NA,0.28897172106573166,1.30272452691715,3.7773324342671697,NA,0.29701188648140553,0.2690829064087735,2.418553409524835,2.17978556388032,69274.2073282302,23662.820466751793
144,61693.64111328125,42700.0,[2],1,0.4707113951851871,0.3505294990771244,1.2090402962367057,1.1819047409311847,0.4541105435960664,0.31887264628502154,0.2437221123822213,NA,NA,0.5047954292965099,0.3580926720322921,0.6483065378002393,0.6615604524396995,0.8013050238448365,67554.27915785689,17313.538316968887
144,119746.91137695312,86878.0,[3],1,0.34945975092644566,NA,2.0869542938252654,1.5615294861776974,NA,NA,1.1201852916211683,1.122318993831429,3.814414340219329,NA,0.09588496060440654,0.27977151143888723,2.3457580431872755,2.1548571749839844,66731.29565766288,20253.445064386862
144,47817.204833984375,38365.0,[4],1,1.9267369431311068,0.29723065672089444,NA,2.504533410402465,NA,NA,0.29299346143419536,1.3734139590146768,NA,NA,0.8158011502426863,0.5089099104406478,2.062980886348405,NA,77319.2447259955,38973.28549815748
168,83068.57690429688,59611.0,[0],1,0.2958447640888191,0.0937437535915433,NA,NA,0.3432652567264389,NA,0.29645001019090955,NA,NA,0.4907697809081565,0.2393571715305245,1.4792003666859952,0.7897277047224399,NA,72454.4405707052,15465.71649159038
168,88558.63372802734,59762.0,[1],1,0.6437073255368213,NA,2.103234565076501,1.6950554548931231,NA,NA,NA,1.22289271795619,NA,NA,0.3237833113475985,0.2589757461453256,2.2845907598925477,2.025278548882374,71391.89137274979,26119.097512918073
168,129058.41027832031,113635.0,[2],1,0.34439912502231396,0.6827835081796829,NA,1.4609971864495193,1.220194551002058,NA,0.3168915429995818,NA,NA,0.5878739847487929,0.31125370605284974,0.36338087809600395,1.0338436472381036,NA,64118.941258165585,21288.268024587083
168,98327.72784423828,68391.0,[3],1,0.36200145738529943,NA,2.02462166407394,1.7478796153381029,NA,NA,1.0965198164873415,NA,NA,NA,0.14197860933067874,0.28406760304443257,2.1611029077062303,NA,68532.6400653907,23379.75083124525
168,70555.3012084961,58601.0,[4],1,1.5527972249735533,0.3220820409183385,NA,2.6930216062462935,NA,NA,NA,NA,NA,NA,0.8078251434262862,0.48090316699420443,2.0109727002865196,NA,NA,43614.087520317174
