time_in_hour,cumulative_size,size,pcore_ids,pcore_power,AF700 CD48_[R 730_B-A],APCCy7 Ly6G_[R 780_A-A],BV421 CD117_[V 440_F-A],BV510 SCA-1_[V 525_E-A],BV605 CD11b_[V 610_D-A],BV650 CD150_[V 660_C-A],BV711 CD11c_[V 715_B-A],BV785 B220_[V 780_A-A],FITC Ly6C_[B 525_B-A],PE CD115_[YG 582_D-A],PECF594 CD135_[YG 610_C-A],PECy5 CD3-CD19-NK11_[YG 670_B-A],PECy7 CD16-32_[YG 780_A-A],PerCPCy5-5 CD45_[B 695_A-A],_FSC-A,_SSC-A
-1,0,0,[],0,0.0,0.0,0.0,0.0,0.0,0.0,0.0,0.0,0.0,0.0,0.0,0.0,0.0,0.0,0.0,0.0
0,132879,132879,"[2,3,11,15,16,21,24]",7,0.17431701751467993,0.23736906636001368,0.34747495057830136,0.28906127518418984,0.2681543390626951,0.22678818615941418,0.2529586960915269,0.47881846725847865,0.18019262836804933,0.11258326399987369,0.25063201628871645,0.20907359766435485,0.15161672033670348,0.274734538279447,0.19955447104778498,0.054429072472562255
0,169375,169375,"[6,7,8,9,12,14,17,18,19,20,22]",11,0.17778184150785367,0.3881134373820788,0.4912438634919471,0.3103495304655869,0.4891871253242473,0.2414642169672431,0.26453198622206514,0.3261993554594717,0.5553327049143228,0.14795878009889035,0.25135488136285794,0.10426321571633904,0.3192747656585339,0.37342376717535464,0.19793850293146634,0.08369067106194344
0,25703,25703,[23],1,0.343220372782347,0.25267745717264317,0.4771972955675697,0.32565069438234984,0.4102897671052386,0.2657466660120684,0.251483816394457,0.3299345775882218,0.7824720001210913,0.42970583588176,0.27731806995714814,0.10494531438963084,0.37473234214369,0.4097990878215648,0.2235415901899831,0.1148328531002155
24,343926.0,170490.0,"[1,2,3,5,6,7,8,11,15,19,21,24]",12,0.17857834876035486,0.28207665478726174,0.4072320843300528,0.29938167037504726,0.3281929454256457,0.244840659602625,0.2556063874608066,0.40554292255613633,0.2948721887603459,0.1238915009093773,0.25331403688290527,0.15712242755817715,0.1906437950051838,0.2722697509314908,0.2005017202646739,0.06989660024890762
24,291058.0,145452.0,"[4,9,10,12,14,17,18,20,22,23]",10,0.2106225959448465,0.3562858655391152,0.5073236372729696,0.32053432961874956,0.48200714083592555,0.24183274851780817,0.2653469055717759,0.33132745611117737,0.6231730176015957,0.2002464118852005,0.2540601747905338,0.10507055187131709,0.3297832562662745,0.38335630983334795,0.20831911545718304,0.10320266817366323
24,17644.0,9002.0,[13],1,0.2748277876379391,0.27985372014183474,0.5860668198854715,0.43977247351510235,0.45138534863974844,0.4244249012940457,0.20233433751554245,0.35249884805150666,0.6321313136728001,0.4169304374727301,0.3528935423927283,0.14038243331221353,0.3586779672973363,0.49854816310073613,0.3573622274178196,0.30135161084406076
24,243117.0,130050.0,"[2,3,11,15,16]",5,0.17007277435743565,0.23458241401729926,0.3332086077101464,0.2918286763776134,0.26167046587739917,0.2285199778656281,0.25127892858225526,0.4844831853678702,0.1702040473471975,0.10611922094451204,0.24772610569279224,0.21120422924978655,0.1433175253202194,0.2757006705317397,0.20702964806081728,0.0542910012381777
48,529998.0,186072.0,"[1,2,3,5,6,7,8,11,15,19,21,24]",12,0.17565004420881686,0.27845183780583843,0.4021566011062761,0.2969665553838512,0.32074874992725366,0.24201395744628912,0.2566832058667247,0.4002378474526275,0.29412140193465436,0.11777498855133217,0.25217935982762285,0.14991931104021736,0.1816372398825017,0.2517671712918708,0.1931285483830429,0.06883864753881565
48,319893.0,84996.0,"[4,9,14,17,18,20,22]",7,0.17880018156207209,0.38786628354484615,0.5158136017657922,0.31166315978421305,0.513191083096517,0.2318196917500574,0.2692146845790047,0.3250446619181551,0.589103940349456,0.1377767047452227,0.24477557913263281,0.09900604184191597,0.33330727907793584,0.3738287856179818,0.19763445021696222,0.09149110733025101
48,105362.0,35563.0,"[10,13,23]",3,0.3289696524161225,0.2627155407985967,0.519916137146231,0.3665217789926045,0.4260114138009085,0.3184724401769873,0.23904730507958125,0.3406906837858216,0.7433673180521266,0.4322574052798219,0.2993673746702311,0.11588510336690695,0.3782263489444265,0.44193093881058537,0.2653775134535969,0.1873902447414602
48,323493.0,92497.0,"[2,11,12,6,7,8,9]",7,0.17879254335765682,0.2893141412989347,0.3886234608706055,0.2957000490927966,0.3372512876672108,0.24832411287102285,0.2536769784353721,0.42611148144683275,0.3262065239065044,0.12392112717835779,0.2500157039711646,0.1600903419059069,0.2054504479717858,0.2858705665794092,0.19798170725060626,0.06987566789436274
48,92357.0,27868.0,[16],1,0.16305951208002994,0.22909569124796114,0.28817325612165795,0.31838092630254605,0.2593227176375163,0.23265492160295498,0.24574593305643577,0.5900726851078621,0.17930279737899152,0.10623309199174244,0.24792192352579576,0.2890997649548964,0.15717978674850883,0.4043852683719128,0.21151553938431597,0.05319766520293919
72,719002.0,195338.0,"[1,3,5,6,7,8,11,15,18,19,20,21,24]",13,0.17356012582935681,0.323553812943584,0.4411817217971479,0.3112903537869885,0.3874455461166579,0.2249750585679033,0.2679153374609946,0.3496273421970114,0.40933487089105663,0.12680927736661185,0.25263037600849375,0.11897745300759098,0.22880692627600774,0.28327738873392055,0.1899898653302822,0.07837340118427676
72,329543.0,87774.0,"[2,16]",2,0.16513671047694833,0.23470528692534784,0.3023332830899157,0.2969641774283476,0.25870918592567044,0.2262554708828434,0.24774366837742867,0.5341730509805902,0.15495577570632146,0.10049609084759543,0.24566911144212233,0.23016901515147023,0.14989745099984086,0.3042325894988108,0.20663848465649,0.05616816922369946
72,232762.0,55947.0,"[4,9,14,17,22]",5,0.202609460174129,0.3763164514716057,0.5289713890543113,0.329566450269341,0.5189717376980486,0.29029703641562227,0.24709297412918288,0.33286658170876543,0.6127941315663241,0.15759586810330156,0.25661848940220755,0.09861640903355863,0.34532650330370923,0.3887551582253328,0.21437270362157773,0.11158078380319655
72,142809.0,20941.0,"[10,12,13,23]",4,0.31996223498653314,0.26572948383287626,0.5062149594087406,0.37443037959615777,0.4143580291000398,0.3155204139230237,0.2407381532803107,0.3440152149736932,0.7339105671231079,0.4015969022671842,0.30057660664399705,0.11904105598193822,0.362445514248238,0.43560702939496165,0.2656333190939081,0.18401733607560858
96,808093.0,89091.0,"[1,3,5,6,7,8,11,15,18,19,20,21,24]",13,0.1751531669657047,0.32821428470410924,0.44422791686499186,0.3158560491393405,0.3934115904648766,0.22307560684762287,0.2720674217392185,0.35121484897069905,0.41321053620092935,0.12859442422103645,0.25299575868571533,0.11926753898783149,0.23493344758513846,0.2923088998357243,0.19027210911083342,0.07816896159975231
96,423780.0,94237.0,"[2,16]",2,0.17000584605052996,0.23661614323940086,0.3080464004810829,0.30508938087449444,0.26146345620458894,0.22631809417760895,0.25216361888709166,0.5354121834303183,0.16200562101171775,0.10387085937519315,0.2478517448446994,0.23674697900074299,0.1527564039067098,0.3096094579246142,0.2072217855844549,0.0561726036834753
96,337754.0,88486.0,"[4,9,12,14,17,22]",6,0.20853183428584848,0.37993425898415034,0.5202531022424141,0.3384793655986114,0.5132324144153175,0.28686294960964914,0.25951567982171625,0.34236758816484447,0.6104871064018231,0.16490153631389973,0.25904262068825673,0.1022280719327398,0.3471550996837165,0.4046717736152247,0.21162099005396837,0.10631311922851606
96,150627.0,24324.0,"[10,13,23]",3,0.32945508554052094,0.26933920975544356,0.5158869808664872,0.39043578028850195,0.42509113245571095,0.3213066195781753,0.24429018094487334,0.3471519255275622,0.7267643069968823,0.41688050283730144,0.3070612287612182,0.11940393037198285,0.3767039968386176,0.4518034476506195,0.27266627106678754,0.19172568395370929
120,761419.0,99593.0,"[1,3,5,6,7,8,9,11,15,19,20,21,24]",13,0.17990511492261507,0.31164938602684056,0.4368599412266332,0.3183483503144911,0.36827874536219546,0.24410051063254842,0.2648643990641914,0.361816955517183,0.38162144934600634,0.12852564815439704,0.25789451020182513,0.1252934359349934,0.21564100439230252,0.2756768346047943,0.19069442328527053,0.0779104816553659
120,479494.0,55714.0,"[2,16]",2,0.17157290017384763,0.2370452506114195,0.3125614311867301,0.3099589131594223,0.2632663694643175,0.22645971134371712,0.2541540309603175,0.5352932712501801,0.16229402135597645,0.10548973658884474,0.24913042856890089,0.2394479922570434,0.15399995590369278,0.3170776099769481,0.2065231760711894,0.055946431482616084
120,657336.0,173315.0,"[4,12,14,17,18,22]",6,0.19146362017700846,0.40219660220433584,0.5135955376697467,0.34218656943940556,0.5243132529873142,0.2396282647556376,0.2848769826031321,0.34426373385840636,0.5830220220381676,0.14995816922194433,0.25259772819019416,0.10269364322884414,0.35125566700911726,0.4186453370146012,0.2006536087902485,0.09261491295872559
120,182005.0,31378.0,"[10,13,23]",3,0.3327935560960968,0.2717921864751098,0.5150007374194268,0.40323662983403286,0.42822264472222743,0.3217072885364787,0.24844636020838048,0.3542806979781024,0.7263443145176227,0.4114270020272165,0.30862129094075064,0.12111567855294492,0.3786740253437806,0.4642469313221431,0.26778934340003213,0.186054184983417
144,848985.0,87566.0,"[1,3,5,6,7,8,9,11,15,19,20,21,24]",13,0.181599044507452,0.31275470735439115,0.43803684608621385,0.3261630789816144,0.36970091866110105,0.24404457815531425,0.26859577263959267,0.36638425195674645,0.3822497625056821,0.12967673348517586,0.25815589919330206,0.1289115421349455,0.21858047337687633,0.2823799319250968,0.19024869043258452,0.07695441788689285
144,551795.0,72301.0,"[2,16]",2,0.17365207559055926,0.23640368406763376,0.31485982806724094,0.3235765959233625,0.26424871626530316,0.22701711912735198,0.2574347713391138,0.5398214367723174,0.16501476045939475,0.10754985935565747,0.24998459097176814,0.24736293205001433,0.15642521045748922,0.3275868261296092,0.2061840959089988,0.05574904097190721
144,787178.0,129842.0,"[4,12,14,17,18,22]",6,0.1919288623222157,0.4076694026346059,0.5127473429318556,0.3534253796985046,0.5289583440763599,0.24096271206538264,0.2910945798164024,0.3493443327257332,0.5786990824362229,0.15170934744065365,0.25175165017725354,0.10584221113290718,0.355166734908441,0.43211788323125194,0.19954867144666574,0.09038430673457491
144,214641.0,32636.0,"[10,13,23]",3,0.3343730015960096,0.27066020420879044,0.5122567629080325,0.41831621732410573,0.43001461140364283,0.3211209078533314,0.25488757545681073,0.3579098226154375,0.7249000474777605,0.41248341396480925,0.31016047379168826,0.12498145447452406,0.3763695673126694,0.47722363741128887,0.2654968095242614,0.18314450281560068
168,1057312.0,190048.0,"[1,3,5,6,7,8,9,11,14,15,19,20,21,24]",14,0.18335121010941974,0.31370064534254466,0.44284339857879057,0.34221739312348987,0.37793608923890243,0.24656455195163704,0.27320781751578943,0.36608752514179027,0.401259011156744,0.13538900180094474,0.2597841046698908,0.12831677817205545,0.22568052893807466,0.2906387183776142,0.18951011589410055,0.08035262622945229
168,612339.0,60544.0,"[2,16]",2,0.17217655501747564,0.23586120963928942,0.3147613881229253,0.3329489019015105,0.2643440270276282,0.22794030858729736,0.25958932534555296,0.5406987013507497,0.1656612646062393,0.10842292612605939,0.2503249062164611,0.2481993456052686,0.15670995367475143,0.3304188496851666,0.20636325816165624,0.05593847887906187
168,835933.0,67034.0,"[4,12,17,18,22]",5,0.1904097872897907,0.410120162591985,0.5122967127727791,0.3583064326072081,0.5322639595991683,0.23869577656031712,0.2944324651808479,0.34992543968192275,0.5757182217241165,0.15134730620033585,0.25087476471860093,0.1062133765878502,0.35594853634056794,0.4345341214897239,0.19949682740722924,0.08949350978747632
168,256109.0,41468.0,"[10,13,23]",3,0.3332608938805345,0.26865408733263074,0.5134354410514583,0.436924769418206,0.4346575266453449,0.32274545578544517,0.2613635232457058,0.3583690528290415,0.7230549502094528,0.41448894222004856,0.31251101890998984,0.12759310841380805,0.37504339620290505,0.4858044558286719,0.2671293292897364,0.18586169083345974
