time_in_hour,cumulative_size,size,pcore_ids,pcore_power,AF700 CD48_[R 730_B-A],APCCy7 Ly6G_[R 780_A-A],BV421 CD117_[V 440_F-A],BV510 SCA-1_[V 525_E-A],BV605 CD11b_[V 610_D-A],BV650 CD150_[V 660_C-A],BV711 CD11c_[V 715_B-A],BV785 B220_[V 780_A-A],FITC Ly6C_[B 525_B-A],PE CD115_[YG 582_D-A],PECF594 CD135_[YG 610_C-A],PECy5 CD3-CD19-NK11_[YG 670_B-A],PECy7 CD16-32_[YG 780_A-A],PerCPCy5-5 CD45_[B 695_A-A],_FSC-A,_SSC-A
-1,0,0,[],0,0.0,0.0,0.0,0.0,0.0,0.0,0.0,0.0,0.0,0.0,0.0,0.0,0.0,0.0,0.0,0.0
0,152693,152693,"[0,4,5,6,7,8,9,15,16,18]",10,0.2945790526612273,NA,NA,0.6839963541485257,NA,NA,NA,NA,NA,NA,0.12159901180800947,0.12831496588579483,2.1246089327408573,NA,NA,19383.009830182105
0,125774,125774,"[2,3,13,14]",4,0.27152765096125253,0.12539852026651443,NA,0.5300164855216565,0.2791911684926984,NA,0.008212399899841127,NA,NA,0.3572996546344972,0.166350293128938,NA,0.6097446437658024,NA,70161.17518724027,13434.907437149086
0,28840,28840,[10],1,1.990855541955608,0.26204184601248626,NA,NA,NA,NA,NA,NA,NA,3.319274174410505,0.42378519129681447,0.17560065260055724,2.431579203259352,NA,NA,26495.225520110896
0,17324,17324,[12],1,1.2540424085661515,0.5666468642346016,2.7395357232163513,2.2085384500115066,NA,NA,NA,NA,NA,3.210323285095827,1.4133312099399693,0.5177689603440419,2.3753054428538443,NA,NA,NA
24,288414.0,135721.0,"[0,4,5,6,7,8,9,15,16,18]",10,0.32327419120778256,NA,NA,0.7161092174305015,NA,NA,NA,NA,NA,NA,0.1034431741212316,0.1297088916696113,2.0658459573668395,NA,NA,21022.4047376341
24,52878.0,30425.0,"[1,19]",2,NA,0.5149940041605321,NA,NA,0.7741290053897738,NA,0.1731930871061662,NA,NA,NA,0.4592061320776173,0.22329738066871185,0.8247778542115834,NA,NA,25284.611369567687
24,259949.0,134175.0,"[2,3,13,14]",4,0.2558372704145859,0.11807294242334532,NA,0.5705779127059452,0.24799734491766623,NA,-0.002141690723939771,NA,NA,0.3334124588900037,0.15683071447475916,NA,0.5671159226502117,NA,71768.46289079764,13983.057907512508
24,52365.0,23525.0,[10],1,2.0032813665234386,0.31460361185905317,NA,NA,NA,NA,NA,NA,NA,NA,0.4020667607180153,0.19429285499856763,2.451553414647168,NA,NA,30337.93106082296
24,37880.0,20556.0,[12],1,1.2868893083421271,0.5730892500528006,2.8331692104012904,2.244986523680011,NA,NA,NA,NA,NA,3.2635566463041195,1.4030647128035736,0.5224813536430888,2.3523714047518545,NA,NA,NA
24,18441.0,10012.0,[17],1,0.8258471619218042,0.2971858097717144,NA,NA,NA,NA,NA,NA,NA,NA,0.3505809444173327,0.4652846663955251,0.6464957494712794,NA,NA,18442.251938615125
48,406040.0,121009.0,"[0,4,5,6,7,8,9,15,18]",9,NA,NA,NA,NA,NA,NA,NA,NA,NA,NA,NA,0.11255377930991861,NA,NA,NA,21252.80331001872
48,90020.0,37142.0,"[1,19]",2,NA,0.5634663748611497,NA,NA,NA,NA,NA,NA,NA,NA,0.41628436239726074,0.19842944548989894,NA,NA,NA,24530.801866251924
48,418536.0,140146.0,"[2,3,13,14,17]",5,NA,0.1345513218361325,NA,NA,0.24658750924174688,NA,NA,NA,NA,NA,0.16644405350314528,NA,NA,NA,NA,14772.927805493326
48,80977.0,28612.0,[10],1,NA,0.312557544031006,NA,NA,NA,NA,NA,NA,NA,NA,NA,0.18786646668806983,NA,NA,NA,NA
48,15486.0,5408.0,[11],1,NA,0.10563528748547135,NA,NA,NA,NA,NA,NA,NA,NA,0.1857008239054676,NA,NA,NA,NA,17138.69249644834
48,50187.0,12307.0,[12],1,NA,0.5779829323330752,NA,2.2143036597724293,NA,NA,NA,NA,NA,NA,1.3650367037479403,0.506285592723213,NA,NA,NA,NA
72,539257.0,133217.0,"[0,4,5,6,7,8,9,15,18]",9,0.3423160076735319,NA,NA,0.7796095871337734,NA,NA,NA,NA,NA,NA,0.1505565013657706,0.12443673557135027,2.037137136053875,NA,NA,22661.332611352216
72,41346.0,7042.0,[1],1,NA,0.3178868155565273,NA,NA,0.46256303502152196,NA,0.12370220122866948,0.93141852288006,NA,0.8486122775359103,0.5844264775068964,0.253299621003243,0.7633681235911446,NA,NA,33917.73695157947
72,521747.0,133809.0,"[2,3,13,14]",4,0.2432539255347892,0.14477327943431817,NA,0.6024545734561149,0.25695751067282213,NA,-0.009586993404838928,NA,NA,0.31814013279041264,0.15275306851594683,NA,0.5787786672084242,NA,70736.12760207539,15059.201214381479
72,98201.0,17224.0,[10],1,2.0102686538731636,0.3331452765246681,NA,NA,NA,NA,NA,NA,NA,NA,0.4015538091567312,0.19197321163735437,2.4686444466349466,NA,NA,31268.99840123885
72,17300.0,1814.0,[11],1,0.7799146367630139,0.11940056797688126,NA,NA,0.30993533976880183,NA,NA,NA,NA,NA,0.19389591161851172,NA,0.3867041036994242,NA,82165.20878612714,17502.546127167498
72,65071.0,14884.0,[12],1,1.2901810170275645,0.6177859398042167,2.6730997333221276,2.2615724457438833,NA,NA,NA,1.0831951873031547,NA,3.1171915500299745,1.3852303783712774,0.5016000213766454,2.3472071143827535,NA,NA,NA
72,36780.0,6182.0,[17],1,0.8577275376019575,0.3076041737900925,NA,NA,NA,NA,NA,NA,NA,0.6813056071506166,0.37046248790103364,0.4655781880369737,0.7040987775421453,NA,NA,20224.06438281685
72,454668.0,146096.0,"[5,7,8,19,13]",5,0.27620039429210075,NA,NA,0.6929205529067524,NA,NA,0.13596309361995207,NA,NA,0.4422113525781455,0.20697863366677183,0.1726842927520732,NA,NA,NA,19577.249896627793
96,663170.0,123913.0,"[0,4,5,6,7,8,9,15,18]",9,0.35133464773889855,NA,NA,0.8387259417675614,NA,NA,NA,NA,NA,NA,0.15109540499268403,0.12653705406456894,2.1113287696669114,NA,NA,22245.07149599646
96,50236.0,8890.0,[1],1,NA,0.3323883344812577,NA,NA,0.4756283932637695,NA,NA,NA,NA,0.8716049499761075,0.610770406162926,0.278825491380684,0.7844816033521756,NA,NA,33920.00764392071
96,626086.0,104339.0,"[2,3,13,14]",4,0.2738759760480227,0.1484293724440615,NA,0.6540621521947418,0.2649936306114751,NA,0.018523522060856834,NA,NA,0.3381124618870184,0.16600342586961814,NA,0.5965419340665662,NA,70987.17341707027,14948.109544055898
96,119791.0,21590.0,[10],1,2.059658474426284,0.33918838023726616,NA,NA,NA,NA,NA,NA,NA,NA,0.43508019631690464,0.2020259021128421,2.4781761148833903,NA,NA,31026.174854538567
96,20886.0,3586.0,[11],1,0.836697088863356,0.12979692813368926,NA,NA,NA,NA,NA,NA,NA,NA,0.22261643747009208,NA,0.4411947518433399,NA,81971.76137125328,17664.54543713474
96,76834.0,11763.0,[12],1,1.3447809100138068,0.6294020774396585,NA,2.30719802690214,NA,NA,NA,NA,NA,3.1234942949475664,1.4247886069708167,0.5239930623031417,2.393114041700292,NA,NA,NA
96,46385.0,9605.0,[17],1,0.9113551440767427,0.3008720710143211,NA,NA,NA,NA,NA,NA,NA,NA,0.4136250188207393,0.4794309951277307,0.7171475407351634,NA,64457.92596744699,20200.277848442413
96,506569.0,51901.0,"[5,7,8,19,13]",5,0.2875860981208944,NA,NA,0.7203179070985413,NA,NA,0.16250362173562838,NA,NA,0.454307131691831,0.21706103733549975,0.17620212635988308,NA,NA,NA,19422.259095996706
120,846555.0,183385.0,"[0,4,5,6,7,8,9,15,18]",9,NA,NA,NA,0.9122781084678317,NA,NA,NA,NA,NA,NA,0.15291074207818722,0.12383882856046058,2.2073833964207976,NA,NA,21638.516387003812
120,60049.0,9813.0,[1],1,NA,0.3496098676414494,NA,NA,0.4879572104114782,NA,NA,NA,NA,0.8689194986427781,0.6291974684840826,0.28584219873769645,0.7977129553531398,NA,NA,33608.12456493872
120,722376.0,96290.0,"[2,3,13,14]",4,0.27930893762805464,0.15456691801639133,NA,NA,0.27580887352021133,NA,0.03910131509764536,NA,NA,0.3490108618198794,0.1780873317191931,NA,0.600429552516966,NA,70974.18456870111,14846.748751342411
120,144735.0,24944.0,[10],1,2.0988656721801684,0.34690791695859957,NA,NA,NA,NA,NA,NA,NA,NA,0.46409977709605554,0.21275338672746347,2.4921019585587345,NA,71729.27515804669,30605.66757176902
120,25369.0,4483.0,[11],1,NA,0.13319623662739222,NA,NA,NA,NA,NA,NA,NA,0.5205374609168737,0.2401116956916045,NA,NA,NA,81290.09610154123,17545.750482872605
120,90635.0,13801.0,[12],1,1.4144276438903483,0.6644452736801298,2.7106714849451676,2.3515412871958943,NA,NA,NA,NA,NA,3.1234027262867787,1.4570147040877908,0.5436818243835111,2.434189050046897,NA,NA,NA
120,56353.0,9968.0,[17],1,0.944489739765402,0.2966599309176101,NA,NA,NA,NA,NA,NA,NA,0.7025157462424348,0.45132436528666764,0.4823735562791647,0.7232531206856873,NA,63746.730218445126,20067.520096534383
120,570675.0,64106.0,"[5,7,8,19,13]",5,0.2959982652823443,NA,NA,0.743587441124975,NA,NA,0.1822277320348622,NA,NA,0.46098590320935784,0.23068237956454407,0.17873578003241575,NA,NA,NA,19171.554022867585
144,986357.0,139802.0,"[0,4,5,6,7,8,9,15,18]",9,NA,NA,NA,NA,NA,NA,NA,NA,NA,NA,0.14052491282872248,0.13227561558644907,2.2564322495992855,NA,NA,21198.19150267088
144,67299.0,7250.0,[1],1,NA,0.35545042918915737,NA,NA,0.49450167357611274,NA,NA,NA,NA,0.8928102428119354,0.6379547684958147,0.30470036798466493,0.8130101307746166,NA,NA,33381.8832374925
144,821936.0,99560.0,"[2,3,13,14]",4,0.2917657066718189,0.14800465783104855,NA,NA,0.28166204630290403,NA,0.06666395799668212,NA,NA,0.3619232640801735,0.18480280912867952,NA,0.6203918872503423,NA,70979.46654727412,14747.547215354512
144,170764.0,26029.0,[10],1,2.126014121173055,0.3410350145405583,NA,NA,NA,NA,NA,NA,NA,NA,0.4860479606123391,0.2283474297510023,2.4825150458059166,NA,71408.85076479745,30579.48063994718
144,32037.0,6668.0,[11],1,0.8925922170927272,0.13102068224241448,NA,NA,0.32005281315356093,NA,NA,NA,NA,NA,0.25511239885133596,NA,0.44936669213721425,NA,80690.09807410171,17516.12697818124
144,106475.0,15840.0,[12],1,1.4477337990983956,0.657886659337851,2.684852301404131,2.4442053116036413,NA,NA,NA,NA,NA,3.114853289391904,1.4554809441089467,0.5705758780840535,2.445590660718489,NA,NA,NA
144,85265.0,17765.0,"[16,17]",2,NA,0.3020002652084628,NA,NA,NA,NA,NA,NA,NA,NA,0.4354420387028699,NA,0.7114150215915208,NA,NA,19618.344502433432
144,610109.0,39434.0,"[5,7,8,19,13]",5,0.30832315097139507,NA,NA,NA,NA,NA,NA,NA,NA,0.4724474538451352,0.23789685175107822,0.18952507620277503,NA,NA,NA,19066.656325345095
168,1121186.0,134829.0,"[0,4,5,6,7,8,9,15,18]",9,NA,NA,NA,NA,NA,NA,NA,NA,NA,NA,0.13806658435709984,0.13070116171358193,2.2447026607503195,NA,NA,21278.098813220942
168,76722.0,9423.0,[1],1,NA,0.35710723590368554,NA,NA,0.519307872618004,NA,NA,NA,NA,NA,0.668120385821545,0.30615045555381315,NA,NA,NA,33832.07737024604
168,906061.0,84125.0,"[2,3,13,14]",4,0.2809923110154915,0.1467396153007643,NA,NA,0.2919865047596222,NA,0.08979240929470267,NA,NA,0.37091417465601195,0.18787099115622663,NA,0.6334669797364646,NA,71013.94224009235,14833.237550230573
168,203846.0,33082.0,[10],1,2.0875367985537894,0.3356594695947388,NA,NA,NA,NA,NA,NA,NA,NA,0.5049680146728668,0.23797489543577777,2.475627722569999,NA,NA,31663.056385702723
168,40161.0,8124.0,[11],1,NA,0.13418107955479952,NA,NA,NA,NA,NA,NA,NA,0.5556276331266677,0.26903696050894244,NA,NA,NA,81095.56315828755,17968.605961006855
168,128704.0,22229.0,[12],1,NA,0.648037678922134,2.6774579482378775,2.5655315057651467,NA,NA,NA,NA,NA,NA,1.4531815716450591,0.5817877186878433,2.4222667288817603,NA,NA,NA
168,114530.0,29265.0,"[16,17]",2,NA,0.27650661148170164,NA,NA,NA,NA,NA,NA,NA,NA,0.4690192285602022,NA,0.7167318601589158,NA,NA,20323.947961232698
168,723594.0,113485.0,"[5,7,8,19,13]",5,0.3031506163566948,NA,NA,NA,NA,NA,NA,NA,NA,0.49201056260554743,0.23807455446424663,0.1849791595604745,NA,NA,NA,19359.614015594267
