time_in_hour,cumulative_size,size,pcore_ids,pcore_power,AF700 CD48_[R 730_B-A],APCCy7 Ly6G_[R 780_A-A],BV421 CD117_[V 440_F-A],BV510 SCA-1_[V 525_E-A],BV605 CD11b_[V 610_D-A],BV650 CD150_[V 660_C-A],BV711 CD11c_[V 715_B-A],BV785 B220_[V 780_A-A],FITC Ly6C_[B 525_B-A],PE CD115_[YG 582_D-A],PECF594 CD135_[YG 610_C-A],PECy5 CD3-CD19-NK11_[YG 670_B-A],PECy7 CD16-32_[YG 780_A-A],PerCPCy5-5 CD45_[B 695_A-A],_FSC-A,_SSC-A
-1,0,0,[],0,0.0,0.0,0.0,0.0,0.0,0.0,0.0,0.0,0.0,0.0,0.0,0.0,0.0,0.0,0.0,0.0
0,118112,118112,"[0,1,10,13]",4,0.2967080051730582,0.1632315881366826,NA,0.4878712617769656,0.3217964740839223,NA,0.0662402124170205,NA,NA,0.3686212167349642,0.17523301967624416,NA,0.5921042464271159,NA,69174.82470875107,13892.112706583543
0,125345,125345,"[3,4,8,12]",4,0.21725203306872976,NA,NA,0.6738635746539541,NA,NA,NA,NA,NA,NA,0.1268093568072035,0.13893335415054564,1.995814351166775,NA,66300.04292153635,18818.807738641317
0,28762,28762,[6],1,1.944052226722757,0.2747730395313335,NA,0.8783787343369687,NA,NA,0.07037167707392111,0.7817825248244121,NA,NA,0.44379473211181564,0.1890925940477085,2.4073882925735317,NA,NA,27588.548223350248
0,65062,65062,"[4,11,15]",3,0.5107985339061218,NA,NA,0.7602520803694945,NA,NA,NA,NA,NA,NA,0.2074347604592619,0.11586767669299858,2.2568114307276113,NA,NA,22224.963511727165
24,156089.0,126561.0,"[0,1,10,13]",4,0.27791666678465465,0.14898225963071088,NA,0.5523266120082142,0.2779001707855766,NA,0.04475524821255439,NA,NA,0.33403808774962385,0.16363265101319868,NA,0.5334771992805395,NA,71543.76951610946,15114.116689837165
24,144792.25,113456.0,"[3,4,8,12]",4,0.26366662474855773,NA,NA,0.7517683431347306,NA,NA,NA,NA,NA,NA,0.1053218712690045,0.14134093698385208,1.8518920667214522,NA,65866.68443925687,21634.64047281532
24,21395.0,17600.0,[5],1,0.18085394243982478,0.023708583746196776,NA,1.0898156345875147,0.12240696339097124,NA,-0.2547235470203244,NA,NA,0.36806358158448105,0.19767767123159397,1.8822978325543374,0.6842610380813235,NA,74830.66136947885,13432.609114279014
24,31074.5,23884.0,[6],1,1.9624277777357741,0.3610179557756412,NA,0.9950850366458202,NA,NA,0.12220277915975553,1.0154474236350781,NA,NA,0.4116264955590645,0.2172071746769939,2.440787369925541,NA,73552.62121675326,34418.790970087786
24,22604.0,18618.0,[7],1,1.3105781487126078,0.5654332125066541,2.8998039874358192,2.209467811958031,2.122405758870094,NA,NA,1.0937477315851116,NA,3.2816926730335365,1.3526070764023963,0.49686669400327643,2.3425113140815768,2.411779998285703,NA,NA
24,73545.5,57280.0,"[4,11,15]",3,0.5444434808553935,NA,NA,0.8083398413940936,NA,NA,NA,NA,NA,NA,0.1745754142843512,0.1171316991828174,2.1844406851336937,NA,NA,24801.41278528235
48,167604.25,128582.0,"[0,1,10,13]",4,0.24864906764260342,0.17239581808262416,NA,NA,0.2976295786618586,NA,NA,NA,NA,0.3213516505201248,0.1550822200093256,NA,0.5425862086052432,NA,NA,15729.305145901615
48,143089.0625,106891.0,"[3,4,8,12]",4,0.1645329079699045,NA,NA,NA,NA,NA,NA,NA,NA,NA,0.08971536244296585,0.10518170997696064,NA,NA,NA,19845.85087347246
48,18792.75,13444.0,[5],1,NA,0.052450851382171315,NA,NA,0.09987492535354026,NA,NA,NA,NA,0.3476399517899199,0.19035885588856472,NA,0.7161956093939107,NA,73240.81999707362,14110.274866637381
48,36642.625,28874.0,[6],1,NA,0.32310778151641006,NA,NA,NA,NA,NA,NA,NA,NA,0.3758167758467814,0.18616683077086016,NA,NA,NA,32007.46212914592
48,17523.0,11872.0,[7],1,NA,0.5810763878260228,2.6819293658619823,2.145653338890322,NA,NA,NA,NA,NA,NA,1.281270032000804,0.4656699362445089,NA,NA,NA,NA
48,53321.125,39189.0,"[4,11]",2,NA,NA,NA,0.638276667957586,NA,NA,NA,NA,NA,NA,NA,0.06519837926924088,2.322444880408558,NA,NA,19613.083557407896
48,19736.25,15482.0,[15],1,NA,0.6638107040819565,NA,NA,NA,NA,NA,NA,NA,NA,NA,0.12182681470644174,2.361291585394883,NA,NA,36927.694977515945
72,180180.0625,138279.0,"[0,1,10,13]",4,0.24759519507804773,0.2562778342815659,NA,0.6513150443107909,0.38177196937291535,NA,0.020598801524689403,NA,NA,0.325685656097057,0.1717385599100334,0.6769621686074643,0.6166385462065579,NA,69059.92571181414,17409.999277805782
72,175672.265625,139900.0,"[3,4,8,12]",4,0.2912452817860809,1.5938357182654332,NA,0.9173063028404531,NA,NA,0.2407180248085421,0.7092433603178967,NA,0.5465280175204633,0.24007817257268904,0.1483715454141592,1.7104057217589719,NA,NA,23898.81413587525
72,28499.65625,19339.0,[6],1,1.928850783917919,0.4122424967554581,NA,1.5395329482071736,NA,NA,0.058860146350447895,0.8818133134977639,NA,NA,0.45848350913059077,0.21582025558093443,2.4278891597129686,NA,NA,34929.07301294198
72,18065.75,13685.0,[7],1,1.3430920343657673,0.6947292275697974,NA,2.2958375920924214,NA,NA,NA,1.1199396178014576,4.371578304364805,2.832113598623282,1.367427082223975,0.4578972847074263,2.3554685937184208,2.3830489877573884,NA,NA
72,48159.28125,34829.0,"[4,11]",2,0.4623014632317113,NA,NA,0.9354403758296788,NA,NA,NA,0.860486897550897,NA,NA,0.3309069446258004,0.12512510879101169,2.126656641547548,NA,NA,24638.913563519764
96,116125.24609375,82320.0,"[0,10,13]",3,0.39467930497832926,0.17192217000465204,NA,0.7482896671916439,0.30446986013710786,NA,0.14758070592858674,NA,NA,0.3870597111421946,0.19887989651200533,NA,0.6736916604526214,NA,71372.70476532582,15260.288258673323
96,27732.76953125,16493.0,[1],1,0.3036073901223093,0.43780843601327657,NA,0.8067392537381814,0.596264626740767,NA,0.14069013559912547,NA,NA,0.44335404184974614,0.3034236876891079,0.2538298618686309,0.5920910383646144,NA,NA,17834.658721793407
96,77046.76171875,41626.0,"[3,4,12]",3,0.38464407121842337,NA,NA,0.9995433903549098,NA,NA,NA,NA,NA,NA,0.28494598769000845,0.1651695979313209,1.7230665201817734,NA,66190.22413772572,21807.29851286019
96,16728.046875,12230.0,[5],1,0.34825733346643983,0.10549020739052617,NA,NA,0.2028734801692167,NA,NA,NA,NA,0.5031562461920677,0.26710543495905625,NA,0.803737879001632,NA,74870.7251724508,14228.38643558007
96,29583.9140625,22459.0,[6],1,2.1567867996101535,0.3805260413990723,NA,1.797589182148596,NA,NA,NA,NA,NA,2.9631855409151355,0.5689956039645896,0.2577787180847604,2.479692458213919,NA,NA,31712.79369991215
96,75270.43359375,59462.0,"[4,8]",2,0.20149682477582975,NA,NA,1.0966827447992515,NA,NA,NA,NA,NA,NA,0.10052606958270571,0.15890058194657264,2.4359973597935265,NA,69328.48120238958,21202.744810314405
96,40364.69140625,35636.0,[11],1,0.636710727836469,NA,2.0166496667392004,1.0800703952183919,3.391978535002799,NA,NA,NA,3.8577895559953537,NA,0.24875372978588528,0.10403897270123896,2.5898064050697553,NA,NA,21085.46457556253
96,15113.015625,11224.0,[15],1,0.9691549944679838,NA,NA,1.3783049626328463,NA,NA,NA,NA,NA,NA,0.3952017155641303,0.17250147921648418,2.322919636928229,NA,NA,33663.273391209776
120,97109.3115234375,68078.0,"[0,10,13]",3,0.35406888182273843,0.1820838237219209,NA,0.7677883457037624,0.33101016660363314,NA,0.18398914167308833,NA,NA,0.3916574483916625,0.22492076159059016,NA,0.6439759842314309,NA,70898.31694101557,14571.201712551467
120,31820.1923828125,24887.0,[1],1,0.30630098584276544,0.43032410501999907,NA,0.8321543814183814,0.5312813124094036,NA,0.17303900960847285,0.7760861319157835,NA,0.4580908322765237,0.35481118839334513,0.2640048223082234,0.5604857864641432,NA,66095.1057294995,16945.12797135832
120,75110.6904296875,55849.0,"[3,4,12]",3,0.3914228557377626,NA,NA,1.0669806164686855,NA,NA,NA,NA,NA,0.5891423187478383,0.3059574418847806,0.16931009142638198,NA,NA,64440.43748131244,20131.97216550717
120,32913.978515625,25518.0,[6],1,2.2285128378169174,0.3896177969106849,NA,2.0826814556784403,NA,NA,NA,1.326503517532323,NA,NA,0.6159416178078634,0.27781900126110104,2.5385456760155187,NA,70806.51418609741,30427.7208056012
120,108733.6083984375,89916.0,"[4,8]",2,NA,NA,2.272810021514466,1.1811710059260867,NA,NA,NA,NA,NA,0.43570727969824397,0.07729924935850185,0.15207881658594924,2.587819526177587,NA,67141.76974034737,19522.14970217983
120,67668.1728515625,57577.0,[11],1,0.6123841265515215,NA,2.1893596309906527,1.1820740503289358,NA,NA,NA,NA,3.9291468193878667,0.607634369192254,0.2578335569812431,0.09587819471731851,2.7076566745870534,2.335263281690809,67752.97526773904,19899.642667186516
120,19604.25390625,15826.0,[15],1,0.9500053331625578,0.8631531581769178,NA,1.5343894847985804,NA,NA,NA,1.1671512553781138,NA,NA,0.377394832058807,0.16879196696328813,2.4526696778192636,NA,68887.42362158696,31131.971923344943
144,92319.32788085938,68042.0,"[0,10,13]",3,0.4153849299998047,0.12981469753291952,NA,NA,0.32035627388557897,NA,0.2750014974294266,NA,NA,0.4177236951762996,0.21615137068697976,NA,0.7231870204985315,NA,71085.0796384397,14382.443894167862
144,24652.048095703125,16697.0,[1],1,0.3559808035045151,0.399100078134655,NA,0.9761751833279542,0.5159476118246702,NA,0.22672096586742052,NA,NA,0.4738525955576296,0.34878460264976585,0.29633937900814156,0.6291887021745549,NA,NA,16174.912301485489
144,182148.5087890625,133147.0,"[4,8,11,15]",4,NA,NA,2.265613433668556,1.3609318692890175,NA,NA,NA,NA,NA,NA,0.09523906883163313,0.17175606608970584,2.5877891949467586,NA,66721.9348631502,19472.629461816814
144,24946.7529296875,21054.0,[5],1,0.21555756071063348,-0.013272988955840948,NA,NA,0.3097277410571415,NA,NA,NA,NA,0.5773962868567578,0.27051525677735855,2.3065136768610173,0.9069964322800047,NA,72271.13009846187,13547.078798417155
144,37182.49462890625,28954.0,[6],1,2.212831687292434,0.32918029689409467,NA,2.364481744950609,NA,NA,NA,1.1447823278416736,NA,NA,0.6423260157559412,0.33862015470841755,2.435539848714861,NA,70697.13358146485,32604.535153385932
144,16299.40234375,12552.0,[7],1,1.630894083016216,0.6398020291205677,2.5863089966953727,2.7273074981778875,NA,NA,NA,1.3411737895396243,NA,3.0781821704451198,1.480185434585469,0.6590713282568126,2.521321885284796,NA,NA,NA
144,16427.997802734375,13671.0,[9],1,1.1668648026199289,0.17334246037305734,NA,NA,0.41147410641116844,NA,NA,NA,4.517830649626347,0.6738022242817457,0.5992867378316662,NA,0.6957401826498001,NA,62944.546694835786,19203.29181357937
168,75999.83197021484,52920.0,"[0,10,13]",3,0.25781136909662794,0.12420258760602909,NA,NA,0.34719778083489494,NA,0.32716959884823327,NA,NA,0.41113135910473886,0.20271677167160673,NA,0.7253306279775774,NA,71252.89034542636,15169.854228760296
168,38896.01202392578,32733.0,[1],1,0.2795074748176696,0.45322171610939144,NA,NA,NA,NA,0.22416781225165128,NA,NA,0.4847524615477766,0.2947240429388782,0.25887118252112995,0.7373273197565572,NA,63243.97048029038,18483.570669346696
168,126507.41815185547,111422.0,"[3,4,12]",3,0.35447282064675445,NA,NA,NA,NA,NA,NA,NA,NA,NA,0.27683882952491246,0.1981251270312676,NA,NA,64533.38176284686,23765.079799174786
168,24304.688232421875,18068.0,[5],1,0.1600971199500154,0.02114538376528552,NA,2.8201463907491857,0.3109713385594257,NA,NA,NA,NA,0.6225741528129741,0.2839957691136421,2.114768416483302,0.926392573841542,NA,73747.61648815864,14854.523846315617
168,40122.62365722656,30827.0,[6],1,1.9831523395784527,0.312732295487395,2.0393998271885496,NA,NA,NA,NA,NA,5.228552559501338,NA,0.6659624476950303,0.3458651565629087,2.4474943924596544,NA,NA,37756.803474436776
168,20455.8505859375,16381.0,[7],1,1.5519846773130708,0.5787861864020818,2.556929377581421,2.9289320624080726,NA,NA,NA,NA,NA,NA,1.4327712325766,0.6172512244884123,2.33999681501859,NA,NA,NA
168,83212.85052490234,55900.0,"[4,8]",2,0.16906209659047255,NA,2.2200189413133864,NA,NA,NA,NA,NA,NA,NA,0.03959355330991343,0.1799903373252414,2.4428646251938564,NA,68261.82412093857,20605.70443729304
168,39256.760803222656,24410.0,[11],1,0.6477761908874091,NA,2.1219402578273754,1.370789023967205,NA,NA,NA,NA,3.6150955600288515,NA,0.18396670518094993,0.11104991120265151,2.519556896803257,NA,NA,20552.82998958585
