time_in_hour,cumulative_size,size,pcore_ids,pcore_power,AF700 CD48_[R 730_B-A],APCCy7 Ly6G_[R 780_A-A],BV421 CD117_[V 440_F-A],BV510 SCA-1_[V 525_E-A],BV605 CD11b_[V 610_D-A],BV650 CD150_[V 660_C-A],BV711 CD11c_[V 715_B-A],BV785 B220_[V 780_A-A],FITC Ly6C_[B 525_B-A],PE CD115_[YG 582_D-A],PECF594 CD135_[YG 610_C-A],PECy5 CD3-CD19-NK11_[YG 670_B-A],PECy7 CD16-32_[YG 780_A-A],PerCPCy5-5 CD45_[B 695_A-A],_FSC-A,_SSC-A
-1,0,0,[],0,0.0,0.0,0.0,0.0,0.0,0.0,0.0,0.0,0.0,0.0,0.0,0.0,0.0,0.0,0.0,0.0
0,130906,130906,"[1,2,7,9,13]",5,0.3127272318457577,0.15282662893983634,NA,0.5562051654622424,0.3276030310222575,0.23797502127479953,0.00037412334804809433,NA,NA,0.38719231767069817,0.17999920496387212,0.9793219745695376,0.6332006966143634,NA,69739.5228942905,14085.343192825334
0,175300,175300,"[3,4,6,8,11,12]",6,0.3771988297261837,1.7276859312892072,NA,0.772080529908723,NA,NA,0.12931892807186562,0.7470292343696485,NA,NA,0.1991897007244554,0.18449386610382112,2.007424691568735,NA,69133.53455790071,22527.597307472905
0,26208,26208,[10],1,1.8692084455509648,0.31924132177198095,NA,0.9105069602029792,1.7048038141788848,NA,0.09285188198260563,0.7812484449404491,NA,NA,0.45299523717949786,0.21242503166972015,2.3767583138736277,NA,74600.4224664224,29538.93772893756
24,180045.0,125735.0,"[0,7,9,11,13]",5,0.40237118624510826,0.4509409429087121,NA,0.6772641909272656,0.6983091688327829,0.3645409284123413,0.044947209208821004,NA,NA,0.4934518682523802,0.24408329712293764,0.5308719525729695,0.7840267512371996,NA,69862.89089949746,19379.226837734954
24,95246.0,64212.0,"[1,2]",2,0.2662917294584648,0.0982532451598841,NA,0.7197084660563218,0.25132302823742014,0.27949917191272955,-0.04291371977299496,NA,NA,0.3532644370629783,0.16292279915692331,1.2709376478539687,0.6348268022069153,NA,72264.80414925505,14558.83753648443
24,207357.5,131925.0,"[3,4,6,8,12]",5,0.402880845744672,1.6696338591056143,2.076429163133723,0.8288925421843802,NA,NA,0.15821920163727832,0.7908151885391117,NA,0.7010929399298355,0.15904127215315667,0.1889313422856692,1.9992044483078684,NA,70080.92531979783,25233.495889948612
24,37282.0,24178.0,[10],1,1.8838511909098143,0.38112887021886444,1.9390491735019721,1.029716318102599,1.6727393536022888,NA,0.10460410826943312,0.9763246319268917,5.6847052401561555,NA,0.45595679499490727,0.24680246140229045,2.3681664247894596,1.827025684593093,75781.1095971246,36512.59653452052
48,155395.75,100092.0,"[0,9,11]",3,0.3995804256985942,0.6444197781004402,NA,NA,NA,NA,0.08283984199215366,NA,NA,0.5020039113473286,0.26502386370445263,0.23416123310966297,NA,NA,NA,20592.50171256291
48,190628.75,108287.0,"[1,2,7,13]",4,0.28399149927804745,0.12184501744620757,NA,0.6180319309639755,0.2318606411073847,NA,-0.00831605940866531,NA,NA,0.3202590108273289,0.15193466736916061,NA,0.5972697917431115,NA,70708.02354838923,15329.460388320267
48,201553.75,97875.0,"[3,4,6,8,12]",5,NA,NA,NA,0.7591323598593283,NA,NA,NA,NA,NA,NA,0.12192878926465811,0.14360651869290464,NA,NA,NA,23828.346096264755
48,22734.0,12707.0,[5],1,NA,0.5515942369468818,NA,1.9843886401425226,NA,NA,NA,NA,NA,NA,1.15498129857263,0.4378755039478357,NA,NA,NA,NA
48,46966.0,28325.0,[10],1,1.9653170545873417,0.3393025110664931,NA,NA,NA,NA,NA,NA,NA,NA,0.39522752760505986,0.20572603664352784,NA,NA,NA,32941.92156027793
72,283315.25,155824.0,"[1,2,7,9,13]",5,0.2857160466988571,0.24301833351451085,NA,0.7109419245363653,0.3825187906470684,0.25777965815951154,0.009291327542811256,NA,NA,0.3564888445534622,0.18306803496239388,0.7768373750914439,0.6390967489770644,NA,69704.17130740399,17218.620543722915
72,308329.0,173732.0,"[3,4,6,8,11,12]",6,0.4174412018489182,1.5111802677152522,NA,0.9389806817032258,NA,NA,0.10589511231145732,0.7965647678603829,NA,0.632404047974732,0.2538446533317562,0.1814301872480354,1.8015566394103422,NA,69849.73972607151,25993.00033405867
72,22080.0,10713.0,[5],1,1.3619183818387468,0.6266764860224043,2.4745750791666636,2.0761719096693896,1.947399018817928,NA,-0.45238387963089677,1.0809721418704838,NA,2.8015137565670094,1.1491791074218938,0.4320590614300286,2.2635472673799852,NA,NA,NA
72,39950.0,16467.0,[10],1,1.8571316032258982,0.4156148455913464,NA,1.29248686587926,1.6597360634230198,NA,0.069296202506262,0.9093967540018704,NA,NA,0.44310402827907325,0.22558450514393125,2.3641165106320408,NA,74807.28130162707,35014.481101376994
96,256090.625,114433.0,"[1,2,7,9,13]",5,0.36697629828014344,0.23985346642862737,NA,0.8204698159167432,0.39013171788673073,0.25303281238892894,0.07940259857546028,NA,NA,0.40487572952128936,0.21337758954350328,0.9574162665450494,0.6794177599680219,NA,70495.73923293749,16279.495854250785
96,296975.5,142811.0,"[3,4,6,8,11,12]",6,0.4669075658074069,NA,NA,1.0827367588014485,NA,NA,0.3296104223241949,0.9513064473763206,NA,0.6813159757387398,0.2477679768888832,0.19050237604111853,2.033801791566566,NA,69599.74885470369,24548.616771417128
96,19050.0,8010.0,[5],1,1.4579298343569371,0.6128941584087668,2.4409515221522384,2.2055912442913628,NA,1.480762082004582,NA,1.1704259091994786,NA,NA,1.242919938579388,0.5028392272014477,2.3340333136942215,NA,106005.55191601101,NA
96,41069.0,21094.0,[10],1,2.0015646069891595,0.39301007296713797,NA,1.6068433969402705,NA,NA,0.19863797650444415,1.0522005049352554,NA,NA,0.5584155317118795,0.2756648582446679,2.363176865150728,NA,74544.44266965346,33899.85332002256
120,236101.3125,108056.0,"[1,2,7,9,13]",5,0.368081379494124,0.24753957063692322,NA,0.8892593216519118,0.41050600149446703,0.2506106637213026,0.12044409407469292,NA,NA,0.42130307855962834,0.2445997839829519,NA,0.669134368552717,NA,70052.6630744586,15670.358622000402
120,301941.96875,187323.0,"[3,4,6,8,12]",5,0.4546343392664425,NA,2.160591724942298,1.2320612699679567,NA,NA,NA,1.0831888492996717,NA,0.6461159416285761,0.22249559850864298,0.17971527051545766,2.417933087159231,NA,69037.90836463538,23105.034655769425
120,42919.5,22385.0,[10],1,2.1027133413767345,0.3721702308587953,1.6519484222097254,1.915663679876753,NA,NA,0.25447671139064587,1.234004242304596,NA,NA,0.6328432956101073,0.2968372854442749,2.393933649260547,NA,72572.17651650187,32728.9164598841
120,106980.0,48273.0,"[9,11]",2,0.41363395754697696,0.8504939079687941,NA,0.9773452371670075,NA,0.3390280516212223,0.23163071115775935,NA,NA,0.5419359213506579,0.3262821193885701,0.29745817189836354,1.0150901628750626,NA,65235.33484763522,19538.098822209595
144,112848.34375,42625.0,"[0,6,9,11,13]",5,0.5922577058174412,0.6974744910305724,NA,NA,NA,NA,0.32606254601986695,NA,NA,0.6661207894121987,0.414097142529922,0.4349356417030331,1.0061835723293684,NA,66257.94271792336,21130.55866626288
144,177666.75,89110.0,"[1,2,7]",3,0.38572087542002165,0.12729824097801412,NA,NA,0.3201443531725343,NA,0.190399337778008,NA,NA,0.43001239296428195,0.2238059198257445,NA,0.7205052440147753,NA,70827.97396811687,14471.789409104433
144,300822.046875,152771.0,"[3,4,8,12]",4,0.4532734259662117,NA,2.1321092220406928,1.4217993701265383,NA,NA,NA,NA,NA,NA,0.1695090520667062,0.21790017193220934,2.44188282389241,2.158890852686766,68034.13263291925,21633.114924931248
144,68622.25,37839.0,"[5,10]",2,1.9382592209120972,0.3766706018615351,NA,2.338867231199424,NA,NA,NA,1.2908981103848576,NA,NA,0.8582085803431556,0.4466242552723051,2.2920842748042776,NA,NA,NA
168,168435.0234375,75490.0,"[1,2,7,13]",4,0.33479253985728374,0.11883678341642545,NA,NA,0.33618065653091556,NA,0.25054116451080777,NA,NA,0.45990947760859846,0.23420474383899315,NA,0.7362421173362833,NA,71807.77021999797,15274.912939675454
168,260101.9921875,107984.0,"[3,4,6,8,12]",5,0.46434377907533353,NA,2.140852853930055,1.5323520070498975,NA,NA,NA,NA,NA,NA,0.17759387289575645,0.22077719639715132,2.366879731931739,NA,68846.99365005703,22679.303297098784
168,77599.125,43288.0,"[5,10]",2,1.822316188051315,0.36983756150982483,NA,2.610248566347717,NA,NA,NA,NA,NA,NA,0.8866990086579674,0.45138923993898095,2.2930889085198185,NA,NA,NA
168,222674.78125,148156.0,"[7,9,11]",3,0.3915662424531672,0.5817434163124893,NA,NA,NA,NA,0.29423141576327083,NA,NA,0.6277252053333012,0.31296146254008317,0.46478768910159296,1.004675957474205,NA,65527.15584625714,20963.722686939713
