time_in_hour,cumulative_size,size,pcore_ids,pcore_power,AF700 CD48_[R 730_B-A],APCCy7 Ly6G_[R 780_A-A],BV421 CD117_[V 440_F-A],BV510 SCA-1_[V 525_E-A],BV605 CD11b_[V 610_D-A],BV650 CD150_[V 660_C-A],BV711 CD11c_[V 715_B-A],BV785 B220_[V 780_A-A],FITC Ly6C_[B 525_B-A],PE CD115_[YG 582_D-A],PECF594 CD135_[YG 610_C-A],PECy5 CD3-CD19-NK11_[YG 670_B-A],PECy7 CD16-32_[YG 780_A-A],PerCPCy5-5 CD45_[B 695_A-A],_FSC-A,_SSC-A
-1,0,0,[],0,0.0,0.0,0.0,0.0,0.0,0.0,0.0,0.0,0.0,0.0,0.0,0.0,0.0,0.0,0.0,0.0
0,190417,190417,"[0,3,4,5,8,9,11,15]",8,0.3947096919760267,1.6223781371253607,NA,0.8008038767704599,NA,NA,0.12145277518288378,0.8048445770440726,NA,0.7272475736252536,0.2320142432818395,0.218935782645454,1.9303333303328905,NA,69754.55107474656,23449.177583934154
0,113459,113459,"[2,6,7,12,14]",5,0.34613631540908685,0.16216811402356512,NA,0.5820060637146436,0.35889568713806463,0.24697684747793724,-0.0012520854581974383,NA,NA,0.4205383330013496,0.19279910569457126,1.0296892020729984,0.682364508879855,NA,69675.55434121587,14911.148238570664
0,26623,26623,[13],1,1.8441303964241225,0.3303614183976369,1.7424954704954199,0.9306363087180194,1.7391583669759396,NA,0.039200949630028514,0.8093978659805288,NA,NA,0.45964583765917366,0.2189049858768719,2.382691120084148,1.8270802298764128,75162.70052210489,30847.031213612325
24,187539.9375,177752.0,"[1,2,3,6,7,12,14,15]",8,0.35128857117500867,0.294635570828079,NA,0.7121741899971883,0.5083790571215068,0.31152973571596254,0.025819916900034823,NA,NA,0.4386762794471497,0.20468446663826168,0.8035113839115602,0.6954183451548174,NA,71693.80275601294,17940.987614971287
24,136079.375,127494.0,"[4,5,8,9,11]",5,0.43705278657125124,1.5128798603360951,2.04902818931827,0.8713785318724763,NA,NA,0.14824939115635427,0.855443437144678,NA,0.74501187861175,0.17438692644367082,0.2142652942873443,1.8903730626977904,1.60916090958816,70433.23898276297,27019.383356221304
24,25535.9375,23872.0,[13],1,1.851897957319961,0.42874326010647446,2.0875200178547346,1.101505025650126,1.7041339208419637,NA,0.03470114250259959,1.0881480936278396,5.687677021205453,2.9614282255473428,0.469837646689105,0.2671261232111657,2.368602790816863,1.828062005281766,77905.03481612897,40873.16441779325
48,181124.9453125,172048.0,"[1,2,3,7,9,12]",6,0.3321430730630368,0.4621314701121566,NA,0.5919344896382985,NA,NA,0.014059094674736983,NA,NA,0.39934214767557175,0.2034585198037182,0.4723766219721497,0.7668492368839636,NA,65584.8257607739,18508.61109697531
48,107992.69140625,100304.0,"[4,5,8,11]",4,0.36171336464179027,NA,NA,0.7205997975099514,NA,NA,NA,NA,NA,0.4744028243270533,0.09533421329779035,0.1103508711802661,2.1914858886736015,NA,66652.07863393833,23356.596271977054
48,26144.99609375,24549.0,[13],1,2.0494591427655866,0.309025999253556,NA,NA,NA,NA,NA,0.7949542860639514,NA,NA,0.38331484016586526,0.189127566913872,2.575871388326108,NA,72343.72850803938,32392.357134543727
48,111854.94921875,104545.0,"[2,12,14]",3,0.24319107726363187,0.1199255863315174,NA,0.580984557752747,0.20848214348825778,NA,-0.005596591017309915,NA,NA,0.28730125257609596,0.13366566746975206,NA,0.5840216041201133,NA,69486.0277576985,15010.19154249951
72,278535.07373046875,262593.0,"[1,2,3,6,7,9,11,12,14]",9,0.3186823454014116,0.7711204036156789,NA,0.8622051785128657,1.0893209418240146,0.2922193630726051,0.03592372442449099,NA,NA,0.46651369536736054,0.24159421584817142,0.5059672162006792,1.0529971518021282,NA,69830.16705861127,21627.755516307796
72,150978.173828125,143220.0,"[3,4,5,8,15,10,13]",7,0.7002220405022441,1.2193585780641718,NA,1.240889442751461,2.0795376766891454,NA,0.04026203101967196,0.9176267268530904,NA,NA,0.41385315738996153,0.23885211913757054,1.8163193271427698,NA,75121.86168807396,32626.55754848668
96,115550.36918640137,107394.0,"[2,6,7,12,14]",5,0.4978663854132297,0.24379927570561355,NA,0.975225718736326,0.42504736696286116,0.2586049081132742,0.1664568308847434,NA,NA,0.4914642571847906,0.26324019785948494,1.1629361659401538,0.7692640776975289,NA,71385.72851130969,16119.991796067645
96,140241.75617980957,131599.0,"[4,5,8,9,11,15]",6,0.5099368197771357,NA,1.9948075667409184,1.239690087526121,NA,NA,0.5323715951443089,1.12679488921219,NA,0.7586741667220119,0.25607145406702125,0.2299600275168202,2.2761959737024613,NA,70812.26696076646,24287.008413580967
96,24120.69139099121,22769.0,[13],1,2.0326873551500446,0.4200071961245606,1.6354941999084045,1.9009834464068063,1.6536954465442162,NA,0.27730190475842464,1.2330422495857865,NA,NA,0.6460098140458572,0.31546502017482403,2.3533272744848177,2.158649194816155,74695.92390853324,33767.939994246735
120,140264.89834594727,131006.0,"[1,2,3,6,7,12,14]",7,0.4426056432302148,0.42335088493274053,NA,1.0436424747012056,0.6675442008206236,0.28388204126087246,0.21473478630655807,NA,NA,0.5091493630225138,0.32235846309490457,0.8844550710586827,0.8194586894096797,NA,68629.37251164363,16805.75460598028
120,196346.59984397888,187809.0,"[4,5,8,9,11]",5,0.41971093596531084,NA,2.1976537158518945,1.2783204805229218,NA,NA,0.5743541127118177,1.1644061350325883,NA,0.6125916429803445,0.22966225901512782,0.19280426077508472,2.4511530622345967,NA,68020.01611940375,22029.68108470426
120,30042.053129196167,28307.0,"[13,15]",2,1.9753912705817822,0.4187368265577316,NA,2.1445928530267424,NA,NA,0.2753492661250525,1.4063461479123944,NA,NA,0.6692290081526764,0.3724255482112103,2.2456003320633364,NA,71761.18468841354,32356.863175339116
144,93802.81431627274,87246.0,"[1,2,3,7]",4,0.5423054182433593,0.30904314563864865,NA,1.3720834841817724,0.5177344054436928,0.2925858350234136,0.30451666073059513,NA,NA,0.5426120813548526,0.3163096417241693,1.0370407714613736,0.839731610003183,NA,68874.8092349497,16704.78318555199
144,165254.66249024868,152983.0,"[4,5,8,9,11]",5,0.4439532720171331,NA,2.100509703735948,1.5362054951782649,NA,NA,0.7262443857350305,1.1844182897002584,NA,0.7297214773720403,0.15119054679535315,0.26013125468366094,2.425168377571995,2.156201930032855,67731.89597031238,21051.59708425529
144,25506.90895074606,23904.0,[13],1,2.017120060149349,0.32669962729497115,1.8512913042775136,2.45616999532426,1.8098290329845201,NA,0.6136408423173663,1.2617857499872995,NA,NA,0.7532899553917054,0.4106579430434665,2.2993975736245513,NA,75426.12215500175,38370.0318288208
144,96146.23034590483,90887.0,"[2,6,12,14]",4,0.45938309382329323,0.10984423620235528,NA,NA,0.35979254007754635,0.27345382027961884,0.27845424261396623,NA,NA,0.4852811096324344,0.2468363239437772,1.5346072759022644,0.7876064211935535,NA,70828.41965908388,14632.83637425408
168,305475.8195804469,289854.0,"[0,1,3,4,5,7,8,9,10,11,13,15]",12,0.6318644612754392,1.1681337125810054,1.7799786728069757,1.8547826898258033,NA,NA,0.5164499859919061,1.1053918274792744,NA,NA,0.37292420073716714,0.326008846349799,1.7699942778297801,NA,69706.41385154182,28077.834962200403
168,120306.06475693733,112661.0,"[1,2,6,12,14]",5,0.30314361051044725,0.3166627551771084,NA,1.7256422727366032,0.6750231629902523,NA,0.32993540472600635,NA,NA,0.5249642613313993,0.27598504187006956,NA,0.8522978769508193,NA,69039.87881930973,17979.634638125437
