time_in_hour,cumulative_size,size,pcore_ids,pcore_power,AF700 CD48_[R 730_B-A],APCCy7 Ly6G_[R 780_A-A],BV421 CD117_[V 440_F-A],BV510 SCA-1_[V 525_E-A],BV605 CD11b_[V 610_D-A],BV650 CD150_[V 660_C-A],BV711 CD11c_[V 715_B-A],BV785 B220_[V 780_A-A],FITC Ly6C_[B 525_B-A],PE CD115_[YG 582_D-A],PECF594 CD135_[YG 610_C-A],PECy5 CD3-CD19-NK11_[YG 670_B-A],PECy7 CD16-32_[YG 780_A-A],PerCPCy5-5 CD45_[B 695_A-A],_FSC-A,_SSC-A
-1,0,0,[],0,0.0,0.0,0.0,0.0,0.0,0.0,0.0,0.0,0.0,0.0,0.0,0.0,0.0,0.0,0.0,0.0
0,132996,132996,"[1,2,5,10,12,15,17,18]",8,0.17658935395385625,0.2601757068433349,0.3791707531139074,0.28930661407094527,0.29623496570388574,0.2300867950978125,0.25720465934259457,0.430819034411361,0.2294598379787031,0.11767252960482813,0.25309624817734466,0.17525259117872258,0.16852382715377226,0.2530646703605163,0.19515666846714652,0.05913469026060052
0,27552,27552,[3],1,0.16686942867330667,0.22897748516860153,0.30089052777031305,0.3099757327441162,0.2698957223392617,0.22437341157690735,0.2472191792790017,0.5766985933029315,0.18354135028509658,0.11517728027517597,0.2500286847447932,0.2844025864354415,0.16735323159154586,0.41453808545357984,0.20658129179711596,0.051449997295594754
0,163624,163624,"[5,6,7,8,9,14,16]",7,0.17567856623574205,0.3891161421415212,0.49019574743766414,0.31030178675556525,0.48739548532720106,0.23631992812885133,0.26631322809675273,0.3247768109241757,0.5491664354042998,0.146476882806566,0.2514463975807664,0.1038641632434991,0.3171862710377457,0.3708270212742662,0.1973494062695907,0.08357966715878357
0,26587,26587,[13],1,0.34205722816692496,0.25256917075699037,0.47362027408389334,0.323609353927359,0.410321167350259,0.25459114963030993,0.2547993217386971,0.32872453379680944,0.783611272267874,0.42604029036661667,0.27546179448628105,0.1045541114364687,0.37314686907579975,0.4081872736966606,0.22062558344398586,0.11078673714487183
24,214956.0,144735.0,"[1,2,5,8,10,12,15,17,18]",9,0.1772651500550247,0.25915795786044094,0.3886396085711476,0.2967185330150258,0.2950736804873349,0.23603875986435466,0.25619523308327563,0.4213857159648643,0.23997040035796316,0.11650544708505632,0.25246499654507404,0.16730334835402008,0.16322200737346018,0.250816017631914,0.20242652492107346,0.06595957654172299
24,66971.5,47046.0,"[2,3]",2,0.1674771271011398,0.23196092808648416,0.311454243331467,0.3121437243403116,0.26252207103153574,0.23301042251578358,0.24993774657292656,0.5496255139728434,0.1974408933307849,0.11036186274827511,0.24918964909307292,0.26076485713552044,0.1522701476398157,0.3640941651274165,0.21375568640448053,0.05673231407775517
24,212023.0,136737.0,"[4,6,7,9,14,16]",6,0.18240538299136486,0.37594359298148444,0.5073812188031678,0.31785755276416106,0.490999701812943,0.24619417780836386,0.26448572954254995,0.3295420729774603,0.5777918245929359,0.14997532881771214,0.24923777887444418,0.10409409267116136,0.3133867752067205,0.3704520425276457,0.20210059976688685,0.09724421059930263
24,54244.0,36452.0,"[11,13]",2,0.32368372789701544,0.2644076922902699,0.527789388812309,0.3674376161981372,0.4205223838989254,0.31269566077098465,0.24230585217518824,0.34862593213099646,0.7531869627129728,0.4212466309260824,0.2977554729310125,0.11828468973948399,0.36809401083515597,0.43464629627885387,0.2664751618675566,0.1869975641324969
48,278539.0,149366.0,"[0,4,5,6,7,8,9,14,15,16]",10,0.17821247697075498,0.374978098034233,0.5005625406571121,0.3091872210329076,0.4833608846416347,0.2449076435547126,0.2641034950518773,0.32178624130519556,0.5714260854241499,0.13026655118214306,0.24692962522604078,0.09807466187066329,0.3077726566983499,0.33871876824340835,0.18902908488983458,0.0885623257604231
48,148904.0,92764.0,"[1,2,10,12,17]",5,0.17762361913670652,0.24521548540797544,0.395445840063239,0.2977403557503224,0.27144724319424113,0.2357319909430828,0.26049862653544015,0.3919111410614577,0.2283077519176146,0.1122779202512006,0.25429405995228804,0.14346616915960894,0.1392896604018215,0.20097903010840773,0.1893846889158495,0.06758469052972331
48,150329.75,83607.0,"[2,3,18]",3,0.1675328576398166,0.23253316971069318,0.3042573611005625,0.29982494582727093,0.25634097882045714,0.23077433044951928,0.2514489470195432,0.5400133314095108,0.17737059650870435,0.10192337110302493,0.24637808204380732,0.2336345039217088,0.14710817763691048,0.310680259179176,0.2033693984100059,0.05591733628091329
48,20648.75,13004.0,[11],1,0.28249652351339655,0.2756384627528017,0.5774438403412746,0.4378701359331778,0.43938568766200337,0.4117433151909347,0.20610511349472715,0.3497405343900147,0.6346667030648484,0.42694639959203684,0.34899876788330325,0.13609557758728502,0.36210576534290045,0.5033799957289709,0.3541035532119806,0.30718205766789225
48,44779.25,25302.0,[13],1,0.3535276065787418,0.25423045790398086,0.48173213388830033,0.3300540033534159,0.4169202636006509,0.2596819921283229,0.2608506554617983,0.33483378639577893,0.8034928264548796,0.4317797200971292,0.2716710570993774,0.10451111773276867,0.3870804455314426,0.4112005877621731,0.21526941440216674,0.1271538875948494
72,324001.875,182426.0,"[0,4,5,6,7,8,9,14,15,16,17]",11,0.1884384443090927,0.36584494750615004,0.4780160575152184,0.33146508094141724,0.46940959907895213,0.24496717848363572,0.26232349800003957,0.3244506204516953,0.5501291261952423,0.14909700197326153,0.25845766634449285,0.09985200631587854,0.2996818911705812,0.3430821196908344,0.20203263298733937,0.10156312143305556
72,163123.625,90978.0,"[1,2,10,12]",4,0.17302864371189403,0.2514628199263078,0.37751617724473635,0.3061309526549593,0.27823812099220835,0.23537815904334805,0.2568286920762078,0.40476108501201014,0.22862953931598584,0.11028453601924011,0.2539425856223813,0.14321665850641657,0.14458677149290142,0.21139741652313102,0.19135269315641157,0.07036270561303756
72,161904.875,86740.0,"[2,3,18]",3,0.1672486585689279,0.24102815996335158,0.3039340444973019,0.3113275791847432,0.26470019658228716,0.23080324387090959,0.24935615102654363,0.5348370379450695,0.18969024433012407,0.10315496745950774,0.24817858644878177,0.2209095987812401,0.15637121107573013,0.3148188120289041,0.2065463201634194,0.06251817345269588
72,19131.375,8807.0,[11],1,0.2903152673465022,0.28300609603275095,0.5589954446519045,0.44902342620533886,0.43837843282603917,0.3917877665547874,0.2174958522322851,0.3529694613921251,0.6336558916780219,0.40698756997555385,0.3513123418266076,0.13587611449129755,0.36495797354379633,0.4948992081721804,0.3576531548108156,0.30176855733842733
72,28943.625,6554.0,[13],1,0.34549438236561764,0.259013167795951,0.47017009765147294,0.35029905584896415,0.41257592089087497,0.26146230477134974,0.2592358212613301,0.3352725552121726,0.7784406346243308,0.41564727162843074,0.2752727060448604,0.10743850527279099,0.3772827062109768,0.4118189956940679,0.22223174771662826,0.12708526250673657
96,307842.9375,145842.0,"[0,4,5,6,7,8,9,14,15,16,17]",11,0.19108129337880567,0.39013995830199916,0.489370929111014,0.34524756848092775,0.4944800662675668,0.24606526919059724,0.28203949807774636,0.34179641279762313,0.5497498826560284,0.1506486320890255,0.25822122546237175,0.1040609190886099,0.32468725434941836,0.38837465595847054,0.20189382345904855,0.09567589195607755
96,233729.0625,97727.0,"[1,2,10,12,18]",5,0.17850483561174502,0.24876105714078348,0.35509615904507114,0.31191383440878984,0.2752450048377231,0.23032537497916414,0.25934275828845,0.468588885710518,0.1971488661205785,0.11202933805043905,0.2540336844939178,0.19056759866270745,0.15564594563538361,0.2589154406120847,0.2005990706487249,0.06432011102652285
96,54923.1875,28411.0,"[2,3]",2,0.18168950195299605,0.24561479552800405,0.3232006047926815,0.3531644320897488,0.27937715978255395,0.23709868070250611,0.26521450957142495,0.5466753650713201,0.24333248174255262,0.12177509693248738,0.25742615790270085,0.2601390764134743,0.16863489923252073,0.38229544323908227,0.20896984965169174,0.061863526230626006
96,68862.75,35932.0,"[4,11,13]",3,0.3164595449569005,0.2881389283790035,0.5117924542753864,0.4069173349932294,0.4471068911406124,0.32317967051978325,0.25512997892419376,0.36059948635139105,0.7136846779608024,0.3459158362891678,0.29975450492789785,0.11804530533670374,0.3733545079185512,0.4597886956148133,0.25422411260453415,0.1633253539580888
120,363363.46875,209442.0,"[0,4,5,6,7,8,9,14,15,16,17]",11,0.18924673588265756,0.418106678809997,0.5109517545350722,0.3588144892381386,0.5281807461689696,0.24831863335214555,0.2962745869437259,0.3541653171038987,0.5563619586546851,0.14353390959045173,0.2569915659682729,0.10392360698967168,0.3530448569803885,0.4341950646050244,0.19556470379605626,0.08797300007837487
120,217565.53125,100701.0,"[1,2,10,12,18]",5,0.17999744557398392,0.25267684283468467,0.370291059617704,0.31797279936456835,0.28078674396724895,0.22948606810507025,0.2644082243610834,0.4587494430738106,0.2042854918582531,0.11483425482711292,0.2580892469108298,0.18905192858600178,0.15664437627643757,0.26181993197015124,0.1974136999202076,0.06251770206001647
120,36710.9375,18660.0,[3],1,0.17756706213468068,0.2339205081847065,0.3104638960184029,0.37534477577699055,0.2754982788876839,0.23142226523252418,0.2674846444125656,0.5983858209349923,0.19990323986257402,0.1231946808650487,0.2577669918878221,0.31423253548707347,0.16986056107199202,0.45671854127068856,0.21249419288462368,0.053836181384227716
120,57589.75,31197.0,"[11,13]",2,0.3488113939824045,0.2674364188708662,0.49869821612486315,0.44239125455048056,0.4223637624528016,0.30296670980652907,0.26408599733086763,0.37164662670193244,0.7345050754261895,0.39496273851380936,0.312100623666501,0.12470617956387811,0.378465068002532,0.4915830673302326,0.24678292219942702,0.16289596285759053
144,350326.359375,168864.0,"[0,4,5,6,7,8,9,14,16,17]",10,0.1908063473383827,0.4241979866940972,0.5104844372643429,0.38248068591475654,0.5367807501948544,0.2479344890590183,0.3095908399114847,0.3628954080198608,0.5520766529394541,0.15004994572222988,0.2527609877812933,0.11244977259374439,0.3603055982362211,0.4565529942611001,0.19374812911473727,0.08388404990203617
144,200641.765625,91859.0,"[1,2,10,12,18]",5,0.18657930937673148,0.24974456601339784,0.37283164146076836,0.34903386061183295,0.27931803411111344,0.2321312815676456,0.2712239753907048,0.47358293008023633,0.2063791484643985,0.11935647603863685,0.2595097061210045,0.2089175909242813,0.16238681612307432,0.28472576338606015,0.19707370856119036,0.06106452393147115
144,44052.46875,25697.0,[3],1,0.17553858150649992,0.22808486653181134,0.2971142773021749,0.42443019835764517,0.2721936336824109,0.23347890880416663,0.2738462427431894,0.6158360372820733,0.2107095924385797,0.12384180432287675,0.25632947319112853,0.3368134406204919,0.17433222997765288,0.47735432213952367,0.21235352317100867,0.05272873177426769
144,78372.1875,39355.0,"[4,11,13]",3,0.32773544802108,0.2757980684602188,0.5099270923774614,0.46078618911193986,0.44618102238459556,0.32398805982142326,0.2759882540600673,0.37662094800004187,0.7088075920623643,0.3606130784717724,0.3076145335014676,0.1307305224869279,0.3663923845108513,0.502187298321642,0.23871109386833986,0.15272827449962365
168,238283.7109375,159879.0,"[1,2,5,7,8,10,12,16,17]",9,0.1847834657620828,0.29451003950192933,0.4373403819151346,0.38942504427092456,0.3676078175443777,0.24803575164491853,0.2838463334817445,0.37068516162035736,0.41162793126181685,0.14811516411988132,0.26633088360272517,0.131312421087844,0.21817530311278388,0.28930853176516125,0.18390230159285345,0.08647139618831305
168,124516.015625,53600.0,"[3,18]",2,0.1731286114423444,0.2315730307477976,0.31274299776580966,0.40090054575699113,0.2669107619421771,0.23246616156880395,0.2758131640621139,0.5778957163412968,0.18193861440225137,0.11837542773531112,0.2542020852320906,0.28344400258767993,0.16696540136896515,0.3835555099836343,0.20886846353525754,0.05513962603173006
168,143943.53125,67932.0,"[4,6,9,11]",4,0.22441737426581795,0.40147278932356745,0.5245083003686086,0.4169653161186614,0.5371462554189572,0.36449875586450803,0.2779711374737441,0.3697506937557787,0.5679944569224376,0.19962540106939172,0.2738986529017627,0.11565352842570234,0.3681541829323559,0.468467448472918,0.21771004313365697,0.11326468050029606
168,67275.4375,36341.0,"[11,13]",2,0.3380681744933516,0.2579458047200917,0.5090322443818571,0.5028655865097994,0.43238513831627967,0.3215773744251009,0.2899325864526445,0.3693405550806099,0.7118253462436578,0.4129045076942331,0.3201783344288003,0.13779395340953102,0.3640717448640538,0.510548355358161,0.2544539849667139,0.17761548569399302
168,249020.0859375,98564.0,"[5,6,8,9,14]",5,0.18773025835119245,0.4256958163203166,0.510662624196478,0.3929140083874915,0.5414375187601576,0.2330510862600406,0.31808508089206605,0.3583677826378748,0.540909134641133,0.15513334393604342,0.25078112620990745,0.11113880458468042,0.3583206016471007,0.4456922780337915,0.1955270707756771,0.08495562510178467
