time_in_hour,cumulative_size,size,pcore_ids,pcore_power,AF700 CD48_[R 730_B-A],APCCy7 Ly6G_[R 780_A-A],BV421 CD117_[V 440_F-A],BV510 SCA-1_[V 525_E-A],BV605 CD11b_[V 610_D-A],BV650 CD150_[V 660_C-A],BV711 CD11c_[V 715_B-A],BV785 B220_[V 780_A-A],FITC Ly6C_[B 525_B-A],PE CD115_[YG 582_D-A],PECF594 CD135_[YG 610_C-A],PECy5 CD3-CD19-NK11_[YG 670_B-A],PECy7 CD16-32_[YG 780_A-A],PerCPCy5-5 CD45_[B 695_A-A],_FSC-A,_SSC-A
-1,0,0,[],0,0.0,0.0,0.0,0.0,0.0,0.0,0.0,0.0,0.0,0.0,0.0,0.0,0.0,0.0,0.0,0.0
0,121820,121820,"[0,7,8,13]",4,0.2878392233787588,0.13200909285831353,0.2918986154736487,0.5416542690527066,0.28721018114430663,0.2305976214578862,-0.0064377992529993655,2.6790292611968445,0.7689073465276727,0.3619223496880666,0.16966133486290813,1.0305206072319852,0.6183526926448822,1.1294079045558973,69802.10119848947,13656.341750123036
0,21662,21662,[1],1,0.5971079530514263,0.40013869162588955,2.3194783876373566,0.8567895722463197,0.6103066407534006,0.3865109824577633,0.14351818820975826,0.8325191993352381,1.618397683593396,0.7255266587111057,0.45620070178193073,0.31254664786261843,0.7552586126858062,0.7152565515649496,66133.16591265824,23406.50946357675
0,129872,129872,"[2,3,4,6]",4,0.27362489893125375,1.7766016152211388,1.889876931725079,0.7137329771467327,2.5226175621303795,0.032501583844093185,0.33867215161852293,0.6616752195623468,3.880021914846911,0.5902381352254539,0.1426752964457303,0.1675645904352001,1.9636901138197467,1.54939967085285,67139.25736109371,20088.09264506591
0,89193,89193,"[3,4,5,9]",4,0.5053794840290171,1.8222209404774032,2.076904228168121,0.7733033272342005,2.6698469393113657,0.992689232787326,-0.21965604082159151,0.7942017297433628,3.9951447748029536,0.7009321709775415,0.2510988534862584,0.15407123120648347,2.1048304052560183,1.6710008292242693,69440.89908400885,22513.07864966973
0,28294,28294,[11],1,1.9197520548172682,0.28098816077613264,1.6364252244291717,0.9141667035767345,1.6555909444405232,0.446393587509722,0.026046894253206165,0.7872245462642264,5.624659563723762,3.1915946713437244,0.47222463200680176,0.21052765600480805,2.3838594810206915,1.853016393652364,74645.3212695272,29270.228316957415
24,146218.75,138605.0,"[0,7,8,13]",4,0.2727945409121637,0.12587788077622397,0.3984462772220714,0.6285213162333809,0.24321169135071363,0.2659608861269538,-0.005989254531728161,2.5245247183103157,0.7914906925043844,0.3332791862051807,0.16281866837400294,0.9562764761380607,0.5413766870912607,1.094942229032266,72565.36675357967,15005.820115409244
24,120574.0,112457.0,"[2,3,4,6]",4,0.3326062364574838,1.4819346228934132,1.9569726034452812,0.8109115230439303,2.3488204787086038,0.012591404482419799,0.3684690748394108,0.7389306877120085,4.0099507177900175,0.6127534076884241,0.11323103525842493,0.18490647820062733,1.7712738573977398,1.4744072038110343,67033.52649825008,23324.940036823813
24,32035.0,30373.0,[9],1,0.5229837736245537,2.1115668649621666,2.044966030072606,0.7986219561163694,2.8500457201517677,1.2415707249766001,-0.3711550617976527,0.9025008232499929,4.040590826332503,0.7702724962580018,0.1884779468472213,0.14301523741415567,2.1353202285468975,1.7735943647241224,69057.84722959263,24220.13322928032
24,25480.375,23712.0,[11],1,1.955135787559531,0.3823962099777791,2.041495259086649,1.0644881686175118,1.7160189020128258,0.5274434102839087,0.08729880732229933,1.0664139112944606,5.801496927694405,3.125197880013068,0.44079393826131863,0.2474682582453267,2.42363010044985,1.8654612752412387,75573.14050519268,37994.66734692842
48,143555.359375,135016.0,"[0,8,13]",3,0.2373446249504907,0.15154361183784193,0.38188708022198403,0.566055049228027,0.25540778325791313,0.25556606120497705,0.008949087390915711,2.3886644913928397,0.8112208152124606,0.30916573954135296,0.15029273419733524,0.8137443830421842,0.5549831622626077,0.9110286802263536,68317.00870624521,15451.796659890482
48,82500.484375,78794.0,"[2,3]",2,0.23696618354358168,1.4582470922323156,1.667483004585534,0.6167180850978013,1.9983516060640576,0.25621218490771946,0.16937117438319493,0.5280949767610847,3.704716136030553,0.4585141728645663,0.1580769618942104,0.11453291846738212,1.5661273940787486,1.0189472428837578,62219.94774500384,19969.59689668472
48,54305.40625,50099.0,"[3,6]",2,0.09502442309690418,2.1216738761757066,2.0923634579122354,0.6613853946833701,3.0725251958590714,-0.33057600299305145,0.6542352091133234,0.5169894265680175,3.992670791596979,0.35593463526471414,0.009825302882852771,0.10142932148934558,2.3154587982474673,1.6380768488977127,65665.48690997036,20683.939603158637
48,24321.1875,22319.0,[9],1,0.5149439789177195,2.381668080452127,1.8337589804500962,0.6155931620017059,3.0519957692985673,1.4717843764377936,-0.7899798317945208,0.9586312657657499,3.869177388690327,0.5068481519910025,0.16034416223318226,0.044993843522656896,2.3294029045700837,1.7238649547486518,64329.28550466557,18890.54866256002
48,27775.5234375,26183.0,[11],1,2.067606819954605,0.30908999969411655,1.6980771604816396,0.902818135071016,1.8557161575597383,0.45699150658290666,0.09956840766473096,0.8019696243685823,5.808717370384828,3.1581629644939544,0.36661309457237623,0.1812574383925355,2.6051947820037045,1.8540220485654209,71439.58737501295,31619.858406133822
72,156813.2099609375,147841.0,"[0,8,13]",3,0.2521674122288893,0.2700420193502602,0.3711400693323075,0.734016233580042,0.39352250340016637,0.2474250473202293,-0.01657726569473983,2.4031129972779546,0.9035489858415923,0.33584623243802547,0.17699773539956754,0.7393786202518908,0.6570290520567085,1.0166901620031834,69692.12038155424,17675.901236870835
72,164765.60424804688,156176.0,"[2,3,6,9]",4,0.3469769286727249,1.5727372891971654,1.5492323887811774,0.9797606021304675,2.249963181826121,0.27096646482747744,0.1417364608985352,0.7812791515713866,3.4728267893631317,0.5905311627686499,0.28874098215088795,0.1730685933524556,1.714099693625148,1.4056405191355357,69960.35920797574,25286.673025401826
72,21762.97021484375,20027.0,[11],1,1.8894759696634658,0.4455140534338393,1.1646963891819277,1.741763137783913,1.6967076644502659,0.43489673006164065,0.0276756459297256,0.902004831478568,5.4446057656512465,2.8790231169019482,0.4777908746783628,0.23090731787339425,2.350623180724326,1.9482163797685297,77223.05490715957,35433.20441915901
96,119715.8256225586,109915.0,"[0,8,13]",3,0.41972979416581135,0.2118379545522564,0.4259373977074601,0.889493176759911,0.3546323778046587,0.2307120690251907,0.14018938225042277,2.816611026128937,0.8347885152607647,0.4347540242859147,0.2378152835114613,1.157225664966981,0.6967885783217976,1.212756783039778,71332.87358389847,15119.99176659439
96,46660.017517089844,41019.0,"[2,3]",2,0.4388904132545983,1.8303399229811683,1.8164091071174586,1.091436719519867,2.408441595090189,0.4074288084325255,0.5605565142925713,0.925657711268896,3.4988533932145196,0.7053376197522464,0.2958372884724221,0.20473347362542604,1.939425933408169,1.5602871173664845,66716.73346314253,21497.176764706397
96,71589.75549316406,67710.0,"[3,6]",2,0.2598212265957194,2.347211860849587,2.1188091860687,1.1547323999428794,3.23414692219967,-0.3312644582383011,1.0311334117191464,0.9704004695017359,3.828833216162638,0.6175454993443038,0.11033977404737261,0.18668337719183214,2.4484986023717847,2.0763634152382773,69330.55203123341,21420.84106510212
96,48245.75846862793,45620.0,"[5,9]",2,0.6996966691053668,2.2540866843866887,2.183584610962114,1.1635403880593773,3.2357971484782513,1.3845517653141501,-0.1633662029797165,1.1840712521048147,3.947246145791271,0.7616031866405956,0.30385649264463943,0.14628062168269373,2.5070581614774303,2.0714145990037034,71165.97756597918,24366.319947067837
96,23435.185638427734,22075.0,[11],1,2.167153513979909,0.3769424082014896,1.5310069303595202,1.8641787779107846,1.6972329205523686,0.43252628521139713,0.260550174184047,1.1932293461211803,5.626184963951737,2.837512434903545,0.6125363585501549,0.28350563273050655,2.4716216312704566,2.163127118531834,73734.53527958339,31678.218010660436
120,91101.54570865631,85050.0,"[0,8]",2,0.3557951549285687,0.2723748066147986,0.727107729862777,0.7549831034648093,0.381575018375401,0.21858681627664134,0.1486138975037572,2.226176828764644,0.8689938524433342,0.4109250139450433,0.2744542223459394,0.8423685307556026,0.6009739761595257,0.935634939567036,69135.62551493413,15159.95490889883
120,30212.611102104187,28561.0,[2],1,0.47380255282644,1.3455333605951108,1.7565104579813853,1.0907691881578598,1.9359017401404226,0.28537964267781946,0.4316952646984915,0.8928095363685173,3.3695766440993107,0.6234481356885525,0.3575552632149068,0.21178901147241957,1.5243280282833407,1.2517316716823519,62007.74256505231,19632.33464081644
120,180892.719622612,173403.0,"[3,5,6,9]",4,0.392716866707721,2.4662931451205017,2.3144414558138213,1.2481454924385917,3.4199044544600494,0.3870761657935453,0.6012847686316607,1.1247122675763714,3.9458867840236125,0.5589964902812613,0.1905596069417297,0.152732821652654,2.5952275376536447,2.212576774033446,67628.78255179057,21212.963908018264
120,25130.699102401733,23666.0,[11],1,2.2169235873891457,0.3879884587857694,1.7012132390930454,2.145398934507529,1.7868144309207952,0.37768031096306887,0.27339123246279984,1.365106388900465,5.621541705703853,3.0280075094761214,0.6528302723575599,0.2980253061113777,2.5396960000089717,2.2708262491766695,71301.83479331734,31875.11999653633
144,58547.2314760685,55010.0,[0],1,0.4802942994276036,0.11353663565306249,0.4094415616121583,1.1359342057829402,0.2779738862271053,0.1818742175186836,0.2435169247010074,3.2845104899313533,0.6791585291292138,0.4176083793238464,0.21261220647256973,1.394659637332694,0.7451674815771717,1.3611879150292951,70526.37456085335,14159.750556137153
144,151975.79497641325,140670.0,"[3,5,6,9]",4,0.3806702062572236,2.486043122341311,2.2146737737715436,1.426734522664574,3.3692871057691662,0.38319076342884784,0.7280413436150157,1.0914913038909946,3.723561322914207,0.6231011577491742,0.10014374594475317,0.2036715363296997,2.540835474016012,2.157668248760856,66779.48324343441,19692.49030248921
144,23299.615130722523,21143.0,[8],1,0.3846435194786142,0.36811656345832455,1.218621095263507,1.0617041915713985,0.4731906119700522,0.2972435151264732,0.2230074330009506,1.1299817995824415,1.2023752828535819,0.4781543691675406,0.34476917831338216,0.42237105149805065,0.6166331016620027,0.5799858410700514,67537.81696975132,16114.362329896008
144,27888.66869390011,26318.0,[11],1,2.1433289204498562,0.31594457976894663,1.8267801085260973,2.396571874439347,1.909880752612119,0.3131144271738653,0.5920610736297758,1.117964960575836,5.425476633945463,3.3363433591715257,0.6587009624177735,0.3742630018973224,2.3805565163014895,2.3866736911836326,71819.0814237612,34514.04696500973
144,29312.1683370471,28062.0,[13],1,0.19916289305660828,-0.013480641009512517,-0.20185609937819482,2.682201596056441,0.3862990601736018,0.3303276186132811,0.3048364492908586,4.330444838701188,1.2655746289379284,0.537508149400653,0.23803265552673647,2.209964256167883,0.883719985633712,2.439900398998136,72115.80835452309,13498.979595560011
168,41127.20196725428,37468.0,[0],1,0.2643366225346888,0.11735655271126788,0.40446809702667874,1.3648065668596896,0.2925333718765226,0.21879325898955693,0.2756460832650971,3.156002161746124,0.7267437657116694,0.39560030901490073,0.19972372452488507,1.1115754998596101,0.7114929684936878,1.2010732174245116,70776.89503054543,15295.338486476685
168,70350.5805121176,69630.0,[2],1,0.3974057493275456,0.8424778459326054,1.4253884471233023,1.6307632546179578,1.618187125615421,0.4694038207465778,0.27051383213286684,0.8771828727730062,3.705310557875428,0.8604643958093218,0.35535763556373867,0.21465668917999325,1.367736690999326,1.12435481021862,62870.97360556396,26525.7334839777
168,122239.48718602583,112741.0,"[3,5,6,9]",4,0.42670456994684325,2.0876604455490524,2.1818740066498497,1.593341735424552,3.178955235977249,0.34263451497055186,0.7149352346531668,0.9909950976750692,3.5673413293976544,0.7674011013374266,0.1738750738562156,0.19525028556986823,2.3011659397643363,1.8774929042551285,68909.68177131031,23701.454165870775
168,39544.22594567016,38088.0,[8],1,0.26768092237894336,0.49465305070363774,1.1535963172357726,1.2533342946574786,0.936661920839895,0.24383317901219215,0.2767893388039,0.8730416297721502,1.7399215968939163,0.4793867409988676,0.27955486224248016,0.3026900595130205,0.7835187601893542,0.7247385403184359,63391.86238793393,18711.546144291788
168,27558.041793368757,25815.0,[11],1,1.8405657388358077,0.3126794463313174,2.071886542577,2.7272026412284585,2.2358424469397273,0.2518334142065506,0.8987903878396604,0.9308672850978206,5.113709764378997,3.047733596850636,0.6497614386786976,0.3697979706769585,2.435903027026488,2.3149850345396605,73612.74664193013,39148.24465423014
168,28420.010521065444,26588.0,[13],1,0.09442299845373037,0.03776076103296733,-0.14623715810104354,2.49415874804319,0.3746374673093191,0.4147009471710865,0.36704177690479245,4.253948796281484,1.347586404974078,0.5544030667117995,0.24183952997440583,1.8963663464702276,0.8632741807808822,2.2540097672319552,73749.16987054163,15019.142668027036
