time_in_hour,cumulative_size,size,pcore_ids,pcore_power,AF700 CD48_[R 730_B-A],APCCy7 Ly6G_[R 780_A-A],BV421 CD117_[V 440_F-A],BV510 SCA-1_[V 525_E-A],BV605 CD11b_[V 610_D-A],BV650 CD150_[V 660_C-A],BV711 CD11c_[V 715_B-A],BV785 B220_[V 780_A-A],FITC Ly6C_[B 525_B-A],PE CD115_[YG 582_D-A],PECF594 CD135_[YG 610_C-A],PECy5 CD3-CD19-NK11_[YG 670_B-A],PECy7 CD16-32_[YG 780_A-A],PerCPCy5-5 CD45_[B 695_A-A],_FSC-A,_SSC-A
-1,0,0,[],0,0.0,0.0,0.0,0.0,0.0,0.0,0.0,0.0,0.0,0.0,0.0,0.0,0.0,0.0,0.0,0.0
0,104000,104000,"[0,5,6,15]",4,0.3207556470000057,0.15210198106730521,NA,0.46859823735577244,0.2848469835384524,0.2358470925576841,0.004337533701924023,NA,NA,0.36804223389423196,0.16897798609616022,0.8815737234999981,0.590880874375003,NA,69493.46707692291,13850.710153846077
0,15863,15863,[1],1,0.6564948976864451,0.3639355939607771,NA,0.9117891915148348,0.5580661332660961,NA,0.1296899041795454,0.8721650858601819,NA,0.7559026252915547,0.48715705068397863,0.3281504494736147,0.7489165846308997,NA,66712.00554750042,25297.856899703762
0,45314,45314,"[2,12]",2,0.6032491832546285,NA,NA,0.8060384158979681,NA,NA,NA,0.8623875761133486,NA,NA,0.25316986266936725,0.13350219892306858,2.253517064902678,NA,71059.22231539938,23875.937679304385
0,27416,27416,[3],1,1.9250260936314525,0.27812980398308573,NA,0.8912998387437954,NA,NA,0.04941251572074856,0.7758957936606414,NA,NA,0.4590288990005935,0.2052657366501336,2.389789899255912,NA,74321.77414648395,28576.845053982954
0,79034,79034,"[4,11,14]",3,0.3539068483184429,NA,NA,0.7291247934053673,NA,NA,0.13767460913025076,0.7131887464635449,NA,NA,0.22794908579851203,0.175921797795887,1.8265368242401956,NA,66202.9453652858,19691.73935268362
0,19851,19851,[7],1,0.14604348576898407,0.03223352037681071,-0.28942977890282195,0.9051499166792709,0.33653221777240505,NA,-0.04248973819960389,NA,NA,0.3655855039544649,0.1800925377059035,NA,0.7834209914865674,NA,71507.74711601429,12924.888821721781
0,49720,49720,[8],1,0.12806502069589132,NA,NA,0.6921590292839803,2.829833478600094,NA,0.698703408608194,0.5888849718825271,NA,NA,0.01569427934429468,0.15948532590506925,2.073406236403863,NA,67386.83700724009,19690.901367658793
0,14513,14513,[13],1,1.2600594461517283,0.5220897965961635,2.671549744367114,2.0660309655481046,NA,NA,-0.6611385006545885,0.9804053347343653,NA,3.1193742811272656,1.282380082684484,0.4934458043133756,2.3063045171225802,NA,NA,NA
24,131216.0,118216.0,"[0,5,6,15]",4,0.3064015741373014,0.14599630266030328,NA,0.5495698284555588,0.25230898001767565,0.2624890500186716,0.0015600791986147833,NA,NA,0.339116524902648,0.1639419343010724,0.8017776267871279,0.5281339100024062,NA,72039.24179978023,15328.06365077437
24,16456.875,14474.0,[1],1,0.7480555362576349,0.39946876942767995,NA,1.0957521957312757,0.5759186486498842,NA,0.11499124923475224,0.9209751405187765,NA,0.7894765834415726,0.5124588656032847,0.30542998385173237,0.7991170994341287,NA,68401.8330333067,31524.495385667135
24,72542.875,63003.0,"[2,4,12]",3,0.5948393439379791,NA,NA,0.8577653787001798,NA,NA,-0.26789806043668385,0.8845741787287968,NA,NA,0.23440043392958954,0.1666321839567324,1.9987954752155281,NA,69701.60540232252,26183.32234557829
24,27028.0,23601.0,[3],1,1.9477987087418522,0.374193801030418,NA,1.0515102932653164,NA,NA,0.09388048813729633,1.042400575472627,NA,NA,0.44123704716866863,0.24343672959523843,2.416752938535984,1.8646938365121397,NA,37498.096196536615
24,24600.375,22119.0,[7],1,0.12269484739562753,0.04029583120683,NA,1.0158030422503574,0.2496553726467461,NA,-0.03504488741026224,NA,NA,0.3430136123077425,0.17087470600549892,1.7596750502736214,0.6700989323435135,NA,74471.42021209036,13660.274690934591
24,77022.375,67282.0,"[8,14]",2,0.22368056301334605,NA,2.101099194458097,0.7754384023327545,NA,NA,0.545898507828086,0.7003622353650587,NA,NA,0.019474480543807626,0.16871981744266118,2.0345322676965716,NA,68569.5544444066,22928.256886391715
24,55776.875,49423.0,"[4,11]",2,0.47306038119291793,1.0785802934325415,NA,0.8527077039969528,NA,NA,0.09403758096657988,0.8008447659469042,NA,NA,0.2640454995842778,0.20316785186289277,1.394547643929498,NA,64509.64404154957,23298.412039039416
24,18614.125,16800.0,[13],1,1.293960241953356,0.5431834401160418,2.8102875640944682,2.1547175819102393,NA,NA,-0.6149649819962009,1.06829636004244,NA,3.2001541064514263,1.2917367824434423,0.5121011741218069,2.2554552979592053,2.4032563088649135,NA,NA
48,94866.359375,83503.0,"[0,5,15]",3,0.28287379178933714,0.13570500532443308,NA,0.5185368203408429,0.2189406460664065,NA,0.013159983434921863,NA,NA,0.2976491176098517,0.14051900682735763,NA,0.5999078656015496,NA,69396.2857684505,15720.093432751773
48,11616.109375,9559.0,[1],1,NA,0.31723297634749414,NA,NA,0.44233732005256776,NA,NA,NA,NA,0.76455983595115,0.5553204368596498,0.22365870915256292,NA,NA,NA,34085.2870972559
48,18667.625,16729.0,[2],1,0.9695575028751209,0.767537812081073,NA,0.9326217709947433,NA,NA,NA,NA,NA,0.5683047291843885,0.22643228463549692,0.10933551266397257,2.3824986847365976,NA,NA,36109.33860091995
48,30451.5,27073.0,[3],1,2.048474887656919,0.31491573501407766,NA,NA,NA,NA,NA,NA,5.80466295622599,NA,0.3723747596295648,0.18494013217534488,NA,NA,NA,31891.796660262968
48,68621.109375,61649.0,"[4,11]",2,0.319415552404956,NA,NA,NA,NA,NA,NA,NA,NA,NA,0.21059396635670424,0.12774841675564008,1.2551866014061526,NA,NA,20369.06557953752
48,46330.640625,41292.0,[6],1,0.24467572663407755,0.24286349932463658,NA,0.5598178838845529,0.3866126852140308,NA,0.08603827241184225,NA,NA,0.37363549105090954,0.20189022214068064,0.24307917582316774,0.4321556776620308,NA,NA,16289.823771457804
48,18133.046875,15058.0,[7],1,0.12805491145913672,0.04967740860307801,NA,NA,0.20281096926711006,NA,NA,NA,NA,0.30227820682283435,0.15934208104331615,NA,0.6993708300245972,NA,72061.32742101599,13598.178987776906
48,60879.796875,51252.0,"[8,14]",2,0.08289807107832736,NA,NA,0.6668241893462219,NA,NA,NA,NA,NA,NA,0.0006479065461242328,0.1083601160770955,2.254426448528066,NA,NA,20623.253960224334
48,23798.90625,19725.0,[12],1,0.5102329459803239,NA,NA,0.6245189854582405,NA,NA,NA,NA,NA,0.512125830785951,0.15606008916312275,0.04825713744985971,2.385679485389288,NA,64579.41662760264,19117.002824446874
48,14002.765625,11676.0,[13],1,NA,0.5773389950266448,2.650703874899699,2.090994587733215,NA,NA,NA,NA,NA,3.0744026895468197,1.2339053346783033,0.45095219748553994,NA,NA,NA,NA
72,142761.369140625,126313.0,"[0,6,15]",3,0.2633698493718226,0.2632924526820264,NA,0.6535819419116446,0.3748454375493897,0.24044831306190728,-0.006712216519547898,NA,NA,0.3307353318654379,0.17166015852096717,0.6597999311292717,0.6298120628970524,NA,69340.10202542276,17656.779139019047
72,23305.4375,19499.0,[3],1,1.8947602552059124,0.4389337623933556,NA,1.676149066890471,1.70396366731996,NA,0.031250114657624284,0.898210785440281,NA,NA,0.47473919694095823,0.22859183559060414,2.3716948362739623,NA,77128.72597864812,35581.07822477043
72,136407.7265625,121634.0,"[4,11,12,14]",4,0.3886475421471811,1.5322649289225563,NA,0.9536718712560819,NA,NA,-0.009838227118968312,0.79956392045999,NA,0.6018681773859106,0.3072532894914093,0.16448466157421082,1.6446459372906577,NA,69076.50201037369,24980.2990792368
72,11131.255859375,9930.0,[5],1,0.44251544437547063,0.8649119586665104,NA,1.0394799787147302,1.1552390119939502,NA,0.1272762649447663,NA,NA,0.5435182405808289,0.37230354463633075,0.38197873658702675,1.0562681595684515,NA,66436.82000869255,22565.468728171294
72,19317.630859375,17051.0,[7],1,0.18618952035012604,0.13889323141567234,NA,1.2636296667877547,0.31297026952072926,NA,-0.0951211677982422,NA,NA,0.364212380437256,0.1835586027553111,1.4877517667867681,0.7716474462626112,NA,73392.952522019,16074.69851688862
72,38810.75,34422.0,[8],1,0.2187801115479524,1.680858223944531,NA,1.0389081737855927,2.755908061500223,NA,0.6810972166194773,0.7003984752586603,NA,NA,0.1836742449655997,0.1778233647988583,1.985438442634837,1.6574873294361958,72041.38594654876,26344.783007929487
72,14482.345703125,12732.0,[13],1,1.3625086344872253,0.7063085716828543,2.4518477106250356,2.2744997172515125,1.9918232642092115,NA,NA,1.1308338052290412,NA,2.745319817199587,1.3159288709359314,0.4480180241646605,2.335523009176844,NA,NA,NA
96,87663.6298828125,74881.0,"[0,15]",2,0.4472183265781098,0.1776029492551161,NA,0.7471484475890064,0.3021297212088405,NA,0.14481864747184758,NA,NA,0.40238068958435236,0.20613614362596655,1.1789472672017152,0.6946018772397021,NA,71060.59728496365,14888.045806571301
96,12848.306640625,11537.0,[2],1,0.9028275422549774,NA,NA,1.4250623924228334,NA,NA,NA,1.189337677492325,4.518972517375412,NA,0.37109334876840805,0.16812013511823565,2.4183927730525787,NA,NA,31341.330993125404
96,24141.1796875,21228.0,[3],1,2.1452770928987945,0.3689187193852561,NA,1.8804695429359426,NA,NA,NA,NA,NA,NA,0.6146564635394167,0.27186759181322373,2.4325779450367615,NA,73643.74288487251,31962.023576804404
96,49819.73291015625,35661.0,"[4,11,14]",3,0.45565633939674166,NA,NA,1.0905716373650933,NA,NA,0.4471989745906426,NA,NA,0.6817753178373313,0.31939510460900733,0.18729379859407214,1.7386011819673253,NA,66064.30013976293,22282.085916927852
96,24197.541259765625,19135.0,[6],1,0.3427770384122337,0.41687645896641934,NA,0.82778129488951,0.5402169920531601,NA,0.13007968667439185,NA,NA,0.4618631058976631,0.3182046744837286,0.36385391449578397,0.5969450695731328,NA,NA,17972.103513672682
96,19214.703857421875,16800.0,[7],1,0.3393915137798036,0.10877928924529723,NA,NA,0.3430858394689147,NA,NA,NA,NA,0.5115153853472593,0.2603560039362165,NA,0.8210246959370427,NA,73807.1185528429,13961.159251070421
96,54992.34375,50141.0,[8],1,0.2252162040426282,NA,2.123803726553461,1.1755107781111356,NA,NA,1.152215912746779,NA,NA,NA,0.06334001273313916,0.17196458995113506,2.444445981186033,NA,68970.73077473868,21229.30311350153
96,42684.23291015625,39792.0,[12],1,0.6152704871143679,NA,1.963224595346682,1.128478561417471,NA,NA,NA,NA,3.8106688035699414,NA,0.26976808661648466,0.13437275044522812,2.5431502729321886,2.1831909493741124,70483.23396694801,22054.31581024766
96,10911.293212890625,9101.0,[13],1,1.556265594297834,0.6182837068803169,NA,2.436201965359873,NA,NA,NA,1.2949476465191783,NA,3.046084298607669,1.490795026430491,0.5698941030245315,2.5285878158298933,2.610222222416232,NA,NA
120,55233.82424926758,46275.0,[0],1,0.3699476207082386,0.1799270233543666,NA,0.6931659453977947,0.2696092660351681,0.23774835527924987,0.13169411126254005,NA,NA,0.36843556659747145,0.2207301601245879,1.0721313452025725,0.6057190018985209,NA,69848.11986819064,13860.022846353519
120,16628.038330078125,15022.0,[2],1,0.8511266480972381,1.0099491337753843,NA,1.5940267986415946,NA,NA,NA,NA,4.520328618530528,NA,0.3655472199125409,0.16619929869050698,2.5187000834577487,NA,70333.31178029397,29645.969843533858
120,26017.6474609375,23000.0,[3],1,2.2084170715150293,0.3751616580053847,1.6608250678922114,2.1547011530838254,NA,NA,NA,1.3664727342531013,NA,NA,0.6568964256360537,0.2911198614524344,2.5031399528397795,NA,71115.41074220583,31586.36170033479
120,34157.65060424805,29783.0,"[4,11]",2,0.5016982298438721,1.379535839512691,NA,1.1140503322671873,NA,NA,NA,NA,NA,0.6370650013443334,0.35044313176989617,0.18242817378070886,1.5805064293350521,NA,62620.201199031,20350.24136688763
120,34354.6926574707,31330.0,[6],1,0.3323996284901227,0.42219380039641363,NA,0.8083645898257092,0.5177454566876225,0.2854283674645366,0.15575192240897628,NA,NA,0.45886484191081633,0.35257240721813154,0.3647520271686183,0.564165777528396,NA,67810.37706356164,17007.506001077643
120,16099.837982177734,13698.0,[7],1,0.2376680955958015,0.060723087192922076,NA,NA,0.341283004056701,NA,NA,4.211636129160599,NA,0.5213027789649879,0.2756739992076387,2.0307938009740605,0.7964744396311622,NA,72953.39828857305,13182.683378515805
120,103873.85897827148,95147.0,"[8,14]",2,NA,NA,2.2748635169685243,1.249337270223061,NA,NA,1.1426824106615139,NA,NA,0.4855132923696217,0.10331556931289176,0.16052989522853645,2.548431897588426,NA,66814.33216553213,20041.143845872197
120,67368.52911376953,62033.0,[12],1,0.6117173927049335,NA,2.1582210444107868,1.2182085671948175,3.4125952779995337,NA,NA,1.2936564703417592,3.9149742367683404,0.650016223103466,0.28346903305338467,0.11698937151779543,2.665678084341848,NA,68031.14651833063,20910.930706395844
120,11848.911651611328,10485.0,[13],1,1.7108322035895933,0.6608038787048285,2.7477927312333077,2.4637431033814017,NA,NA,NA,1.2794023459743546,NA,NA,1.4369224642161598,0.5541745522599808,2.5839919142252405,NA,106773.27683333047,NA
120,15583.129486083984,13584.0,[15],1,0.39051495035354233,0.19956587785072788,NA,NA,0.579757350343995,NA,NA,NA,NA,0.5063210890909698,0.26486889311220496,1.5595797769034938,0.8332970532377725,NA,72068.98624031726,16008.253758954159
144,51240.22803115845,44336.0,[0],1,0.4783504301551824,0.11610407829540748,NA,1.0010566023685503,0.2268345857468308,NA,0.18648312793817068,NA,NA,0.39350026450539954,0.21343941229544994,1.2943202435457941,0.7067829093167018,NA,70040.18141635327,13735.10995736261
144,29355.205932617188,26103.0,[3],1,2.1602418377931736,0.31550789907982413,1.801241646889149,2.398947689235252,NA,NA,NA,1.1391379120574339,NA,NA,0.6640557199058499,0.35913106318236476,2.3816756947057542,NA,71635.96009318919,34132.120728825386
144,24417.336582183838,20123.0,[6],1,0.39275000204267996,0.38434885804297725,NA,1.0562720373707402,0.48978450539273144,NA,0.21973580996794695,NA,NA,0.48581344664556836,0.35377012464531,0.4100336879904096,0.627889407808829,NA,NA,16410.77084076873
144,23623.479747772217,21611.0,[7],1,0.20700467201659345,-0.0325739637436091,NA,NA,0.31390644194245976,NA,NA,NA,NA,0.5452328038734165,0.25293941172897716,2.2603212909138333,0.8839333886171198,NA,71820.99329574511,13228.410321304375
144,99152.23237228394,86168.0,"[8,14]",2,0.20857908814500048,NA,2.2113793291641746,1.4223517549701703,NA,NA,1.1987373928756444,NA,NA,NA,0.03238834666451629,0.20733874159440224,2.5268359017427695,NA,66252.01851201602,18841.091763692722
144,10645.160835266113,7919.0,[11],1,0.537979071963506,1.160163234957102,NA,1.3683860586159349,NA,NA,0.7311575081931618,NA,NA,NA,0.33506597494096635,0.284995784119484,1.5617077178671246,NA,61690.96961807913,19259.254565170595
144,53714.06613922119,45293.0,[12],1,0.6107617424726219,NA,2.0982415168109667,1.3422746656683842,3.3915609890015035,NA,NA,1.3107825742272188,3.7345008391889842,0.6713445451300549,0.1901917326326581,0.15690601265025195,2.599569905212579,NA,67393.2908183742,19684.1861081748
144,14174.113956451416,12693.0,[13],1,1.6801132890598713,0.5590358382592515,2.446927245697746,2.7404514678569654,NA,NA,NA,1.4259120169793649,NA,3.1317077593942835,1.3222707184852736,0.5981594077563821,2.5412426638578034,NA,NA,NA
144,21290.891185760498,19343.0,[15],1,0.3707335852611149,0.12898466036408873,NA,NA,0.5663508699287951,NA,0.5340805274142144,NA,NA,0.5303645137765381,0.22473722290571896,1.7676799583237637,0.8787542933681837,NA,72869.6681377918,15781.955835705417
168,38164.028503894806,31759.0,[0],1,0.30222223630864353,0.11468416832499573,NA,NA,0.24180098255181726,NA,0.2044841268039419,NA,NA,0.3850047253252542,0.2027306533904727,1.0812307612092722,0.6945432378956987,NA,70510.29254196996,14950.348198246564
168,29494.40074157715,25825.0,[3],1,1.8772288227417488,0.31312742702510876,2.0690785993433685,2.7032115731204613,NA,NA,NA,NA,NA,NA,0.6589056621745688,0.3675021512230604,2.431009750649893,NA,NA,39160.225129977975
168,89391.21329069138,87420.0,"[4,11]",2,0.39634848436494274,0.8857594194471026,NA,1.6272413711869018,NA,NA,0.33900990546351517,NA,NA,NA,0.33818251249846343,0.21789598291084533,1.414499972840464,NA,63239.333191088204,26020.157783544844
168,37561.16707277298,34509.0,[6],1,0.303447010817935,0.46732402787082217,NA,NA,0.8543029256238155,NA,0.2069097236205928,NA,NA,0.478111120843728,0.29789462244597775,0.31254455567014083,0.7613996368762231,NA,63899.46968924925,18624.236596367384
168,19801.934968471527,16849.0,[7],1,0.15998853883112485,0.012759035407508001,NA,2.606806647914531,0.2534805494125849,NA,NA,NA,NA,0.5779103721800981,0.26809994105383206,1.9848516681071722,0.868142499529383,NA,73343.49602126126,14576.791807197305
168,76022.02904653549,63628.0,"[8,14]",2,0.24657561408279172,NA,2.215790220785317,NA,NA,NA,1.138156622727113,NA,NA,NA,0.07879957507661439,0.20624519507622152,2.354191669305162,NA,68731.10401500968,22059.544208706742
168,35025.25826740265,28311.0,[12],1,0.655092331101075,NA,2.1240786819977484,1.4331395514878138,NA,NA,NA,NA,3.52176666982488,NA,0.23388187072539912,0.13665495503559866,2.431447359319634,1.9918763044625452,NA,22779.39649217274
168,18869.764244556427,17098.0,[13],1,1.6375687060464774,0.5031633648201042,2.475007689586332,2.844963966477611,NA,NA,NA,NA,4.853787530994193,3.1370979661588247,1.2664295691733227,0.5312135752888101,2.34821023507739,NA,NA,NA
168,19148.361398220062,16487.0,[15],1,0.1036221636709933,0.1170568976864983,NA,NA,0.6069960250571205,NA,0.6785699770325397,NA,NA,0.5193669296880487,0.20766450209959597,1.6155292486993504,0.8476281398887232,NA,73639.37271489434,16412.178228408222
