time_in_hour,cumulative_size,size,pcore_ids,pcore_power,AF700 CD48_[R 730_B-A],APCCy7 Ly6G_[R 780_A-A],BV421 CD117_[V 440_F-A],BV510 SCA-1_[V 525_E-A],BV605 CD11b_[V 610_D-A],BV650 CD150_[V 660_C-A],BV711 CD11c_[V 715_B-A],BV785 B220_[V 780_A-A],FITC Ly6C_[B 525_B-A],PE CD115_[YG 582_D-A],PECF594 CD135_[YG 610_C-A],PECy5 CD3-CD19-NK11_[YG 670_B-A],PECy7 CD16-32_[YG 780_A-A],PerCPCy5-5 CD45_[B 695_A-A],_FSC-A,_SSC-A
-1,0,0,[],0,0.0,0.0,0.0,0.0,0.0,0.0,0.0,0.0,0.0,0.0,0.0,0.0,0.0,0.0,0.0,0.0
0,141873,141873,"[1,2,3]",3,0.33758542758664656,0.3761687749325122,0.8422561569713576,0.5202079128727686,0.5987388832124596,0.22677623905183375,0.10869817456459607,1.7926166685768106,1.2461223828001082,0.42105016569748255,0.20611820533153002,0.651744256158677,0.7413767758206374,0.8635413093470958,67351.61999816714,15148.817096981162
0,114084,114084,"[6,7,11,12,13,14]",6,0.27858840033659216,2.0331687642789538,2.174078742558105,0.6954841337873852,2.997238411985903,0.22277080873741895,0.17312899999123044,0.6572365106763414,4.058767674730905,0.5402449264664618,0.09497429153080006,0.11279684127484879,2.2351065098523826,1.7400083998281934,68163.68009536827,19909.303600855455
0,29138,29138,[8],1,1.983879675338042,0.270756151760593,1.6322027114077682,0.829122336570816,1.654192146029251,0.38814020196994137,0.02195394687349239,0.7488715957512317,5.716052126158299,3.306105575296826,0.41775668141259237,0.17102647769236434,2.436101634875404,1.773736857402709,71866.77465852171,26270.567918182365
0,108999,108999,"[2,9]",2,0.2728830400645914,0.11167038618703451,0.18921290291651394,0.5348502756997671,0.2655894902522107,0.22202748228883462,-0.016368299323809676,2.990775257928953,0.6930550911384475,0.3513572757639871,0.15596370472205567,1.172406120459822,0.6333046794007339,1.2242794524812144,70630.1919100174,13552.426719511313
24,225990.5,146352.0,"[0,3,6,7,11,12,13,14]",8,0.32907648814441237,1.7495092764740043,2.10818675016206,0.7175955723802434,2.692101716211513,0.3323086021292989,0.1575745558817685,0.6745542789630528,3.968735593040408,0.5597366016469724,0.11202381150092044,0.12282153747392,1.9844319580469048,1.5007897143707352,66429.8969735454,21611.794973682405
24,181418.5,122847.0,"[1,2]",2,0.3534519504681386,0.16089015643665894,0.770238101447764,0.5515489866937155,0.27718489956925163,0.26165118746712723,0.04902579891523606,1.9648921785126578,0.8011089983380907,0.378610794797653,0.19406205889146033,0.703118131334467,0.5313501974330114,0.8168423309998796,70688.83740081641,16111.012096340757
24,38779.0,24210.0,[8],1,2.006227743134163,0.34104305771164567,1.8695217103200377,0.9205691861187946,1.6846709176745076,0.444351739382149,0.06489646354987366,0.9414347276489505,5.837091322365235,3.263799016155632,0.3895068766213683,0.1959290001934063,2.460332712486156,1.77364925979267,72284.54245854713,31647.204517908962
24,166298.5,111799.0,"[2,9]",2,0.2451899090611407,0.10068741099892042,0.1814299781747799,0.5935180552349788,0.20864617942437702,0.24541718875999385,-0.0377670201174225,3.003974488798768,0.678166936740258,0.3082691568504725,0.14329809948074335,1.1613646442872394,0.5666806786711868,1.222573457749181,72754.75326596445,14140.285041657029
24,29342.0,20578.0,[10],1,1.3014404294697137,0.58226569359622,2.91075703547812,2.2589877113693357,2.1588998593313176,1.5688344870151878,-0.5837453773260135,1.0868490238736155,4.3603991328982605,3.301604566440616,1.4111758209222174,0.5100331013393828,2.3591245636289364,2.4395743172585465,120243.67200599819,101097.36486947068
48,269161.75,151403.0,"[0,3,4,6,7,11,12,13,14]",9,0.3262988757838017,1.6300177049831546,1.9583390288590246,0.7314691906121475,2.5029974681673797,0.334049156829489,0.18225521129395306,0.7462982428660441,3.9298956057686607,0.46332717976365734,0.1288055559175887,0.11103580309052197,1.890086125904776,1.379403729031892,64596.49925741687,21405.144646295317
48,213936.25,123227.0,"[1,2]",2,0.3326407343870168,0.1674871413739023,0.7437187737503614,0.5334415007940279,0.2679190878602937,0.2664008205096202,0.032046643812132736,1.9421482936329513,0.8316230767740346,0.35255677587132084,0.18526511673222013,0.6438087424443004,0.5324778795342221,0.7640991240486308,68643.34824977093,16690.410979906344
48,76144.5,42084.0,"[8,10]",2,1.7533331057824142,0.41717754484237224,2.1227542925720093,1.3576372560953036,1.8593749895067773,0.8237681020789356,-0.11782451446592201,0.9262150139537382,5.244861094599785,3.1692972513182216,0.7187365495078364,0.29099278850081345,2.4383976944723753,1.9925495190492921,86696.12392227913,53720.799584999586
48,189197.25,106048.0,"[2,9]",2,0.2512316893612674,0.1085119009658082,0.19088275908211472,0.5688242549310232,0.21666610646032725,0.25155992468441823,-0.021505048157409945,2.9475786566968276,0.6917367169224072,0.3050431077896246,0.13318550922517325,1.0737271707701825,0.5892799360667368,1.1427136192452487,70960.9079413152,14666.571147307877
72,377050.75,206594.0,"[0,1,3,4,6,7,11,12,13,14]",10,0.3702256684292409,1.3363790680677599,1.7302765152854103,0.8763513900708282,2.010291321271404,0.3274308145501674,0.14802417232793585,0.7568767901903803,3.2229094161097636,0.5164941805154887,0.2383846937388454,0.15677940720546113,1.5484050510979048,1.2366795000477335,66711.10436990263,22987.131933831217
72,277664.5,147190.0,"[1,2,9]",3,0.28182370536025503,0.18672075277042532,0.5002682180711666,0.6912338278632846,0.2892958582727583,0.2651747106863622,-0.012430614230942272,2.390024586199792,0.8029913511130337,0.33856272471544135,0.18016596674450724,0.805311707020969,0.5917103016720852,1.0204168000613032,69824.79261122708,17083.378047967817
72,43909.75,19396.0,[8],1,1.9833997014615223,0.3725441309561144,1.4772456616952674,1.285360225590575,1.6914515822481926,0.4426463762006101,0.03608642303820364,0.8616149046937331,5.676950972164552,3.090614343166942,0.4082920257146472,0.1939771431316566,2.4486178063157973,1.838708908952453,73245.41287527242,32429.364867711898
72,29541.5,15983.0,[10],1,1.3211533488270846,0.6872643477607636,2.5976880728381935,2.3145012677335157,2.108619675223808,1.494659984801033,-0.48802741864410093,1.126157668318252,4.285411318750743,2.971042477857408,1.4128597284117408,0.4831069629292737,2.369266932569445,2.418196368286962,119300.47045681607,98686.84230658597
96,338736.25,155657.0,"[0,1,3,6,7,11,12,13,14]",9,0.39316790807449165,1.6377315837349493,1.9254817043125283,0.9481236957834103,2.3588025576425653,0.33581901508326806,0.2935897301837107,0.8047010107413874,3.2786378789936084,0.5575480006085111,0.22599407944492977,0.15953409493042137,1.8177172641920993,1.461224766887391,67287.4751609845,22007.331403119737
96,254085.25,115253.0,"[1,2,9]",3,0.3676119691855422,0.18741038122366804,0.5343008111659944,0.8032314153827356,0.30437713930535626,0.2607557355284933,0.06396030365964211,2.5876112631348605,0.7879927205949958,0.39771771700000547,0.2182154829631764,0.9860176819121225,0.6375370506446861,1.1295729620326758,70693.1244533087,16432.844220591192
96,45254.875,23300.0,[8],1,2.129743665906184,0.3727274799483009,1.495285257440476,1.559518865819744,1.697064437142107,0.4296538078977803,0.12225439652632764,1.0088203163678213,5.69806912625436,3.038325058249247,0.4992168826245207,0.22304217106583513,2.483282169477596,2.001918044706536,72291.61561047312,30958.185786614453
96,25830.75,11060.0,[10],1,1.450459095155485,0.6953393530070588,2.6977238434375477,2.418264213558427,2.1814287290075556,1.5288628136039388,-0.2921493179229451,1.2056062419524074,4.328646013973176,3.071097410443463,1.5351730559289831,0.5517871005173149,2.502679606254196,2.5513678910939306,120680.38845174908,98423.48131587307
120,396006.125,226638.0,"[0,1,3,6,7,11,12,13,14]",9,0.3744027210077854,1.8998387297455936,2.0952588794837896,1.0569444399475088,2.6575022761911176,0.34915709710550713,0.4236411562812883,0.9036968880314018,3.3679934043371977,0.5178964602468262,0.22146029663225786,0.15388411313319006,2.031663260224447,1.6849779778488914,66200.39772364637,20618.701470842178
120,236644.625,109602.0,"[1,2,9]",3,0.37152772880327367,0.20505097137491246,0.635780577493188,0.8721494016806508,0.3332149409915641,0.26292226954804754,0.10924035284858613,2.559335907769828,0.8011017631027112,0.424387212482387,0.2553209041459721,1.016468070578522,0.6359761546143646,1.177082279272788,70271.09976404477,16077.016894002842
120,51199.4375,28572.0,[8],1,2.2007557220587124,0.39003735000143447,1.5625152459029326,1.8845026180689577,1.7708278371203723,0.40884815423694,0.1866791136035486,1.2294715782832886,5.69832957858175,3.002848039399224,0.562654239580874,0.2501785695723068,2.515484592535183,2.1516039281431487,70037.19066249531,29571.207964931175
120,26115.375,13200.0,[10],1,1.6300249392587107,0.7789753718008314,2.8031363778018723,2.507379926851035,2.3280645204561234,1.5452243218123327,-0.1817958822712349,1.2406809605512232,4.345690300358298,3.095434363795535,1.5993908372450498,0.6002289529958453,2.591053276034723,2.6871709646687916,119194.05331150803,95073.68138500769
144,185257.578125,74598.0,"[1,2,3]",3,0.44739003433564806,0.3425588601699454,0.9190326085626546,0.894672328346982,0.49332464249783214,0.2772062099729451,0.21375787981802263,1.9971029727470526,1.1452046921706485,0.46651584476496355,0.2870243391582967,0.741613210292084,0.719311243121889,0.927299650272299,67764.9512805861,16699.249446695165
144,249048.46875,125172.0,"[6,11,12,13,14]",5,0.28927856837348753,2.596479191979099,2.241326303723198,1.2189901078438377,3.400249672993836,0.3600485977934733,0.6330706771122365,0.9947880395671711,3.7378473429753787,0.5142182728144874,0.09833259849054787,0.13957316312631252,2.5499073108676553,2.1142577067502866,66268.53089214186,18958.07530838325
144,82554.40625,43897.0,"[8,10]",2,2.027712020122536,0.4726033519888957,2.029190719180081,2.3494655501540582,2.082676314953256,0.7798684716789037,0.279185765039192,1.2212112123481984,5.246768377906665,3.1974226911093857,0.9122587944465255,0.41164371571021485,2.5052720328198257,2.4595248607045566,85215.16680401345,49771.86762820454
144,173261.328125,85159.0,"[2,9]",2,0.35046550458273384,0.11434371640418695,0.22490030689398033,1.2417990364389917,0.28991915779045163,0.24085103874594438,0.1599571326728757,3.4389025267203825,0.7447799175244175,0.4093179703496197,0.20785671948082562,1.478519812378786,0.712675472503823,1.5150518815927605,71890.46905500861,14247.63652520917
168,394910.53125,211646.0,"[0,1,3,6,7,11,12,13,14]",9,0.3671344809557717,1.7162870416167615,1.9882084722070963,1.3456449470831338,2.5327345694083436,0.35584562193857483,0.5054766404152944,0.8689837761473167,3.246344960725292,0.6150746048935426,0.20452038245224946,0.17971722227585574,1.9115511097213553,1.5608848787216756,65138.508954361954,21366.216756216218
168,212308.65625,98568.0,"[1,2,9]",3,0.33120774828952104,0.16765210282482457,0.6196119116423744,1.4525562861202248,0.3729218325257655,0.298380037308706,0.2307394503100224,2.7681044164411386,0.9538442596853393,0.4791051331646895,0.2658074722662995,1.155110537668582,0.7094016393215782,1.3565001669599137,70334.32400144974,16421.988900888187
168,47051.828125,28244.0,"[4,5]",2,0.8687456024983422,0.18948824207897008,0.5783290632769549,3.2142830481085265,0.3841891323233151,0.4905054630779542,0.8219577468818402,2.425162110111822,4.0203741462439835,0.6623762560172143,0.5453890656398865,0.9499518596962682,0.6719021253947987,2.3738187409126916,70815.20036050677,20814.921131186053
168,92932.203125,51655.0,"[8,10]",2,1.8881175264680607,0.44411252847506066,2.1680434166825537,2.6170255444581687,2.164770562259855,0.8237371541413501,0.42107431905489534,1.1271162146961569,5.112625007626286,3.165520090938967,0.9316031980807336,0.41692847791829557,2.4604383952087217,2.4072124076773442,86745.78213385126,52822.48999732876
