time_in_hour,cumulative_size,size,pcore_ids,pcore_power,AF700 CD48_[R 730_B-A],APCCy7 Ly6G_[R 780_A-A],BV421 CD117_[V 440_F-A],BV510 SCA-1_[V 525_E-A],BV605 CD11b_[V 610_D-A],BV650 CD150_[V 660_C-A],BV711 CD11c_[V 715_B-A],BV785 B220_[V 780_A-A],FITC Ly6C_[B 525_B-A],PE CD115_[YG 582_D-A],PECF594 CD135_[YG 610_C-A],PECy5 CD3-CD19-NK11_[YG 670_B-A],PECy7 CD16-32_[YG 780_A-A],PerCPCy5-5 CD45_[B 695_A-A],_FSC-A,_SSC-A
-1,0,0,[],0,0.0,0.0,0.0,0.0,0.0,0.0,0.0,0.0,0.0,0.0,0.0,0.0,0.0,0.0,0.0,0.0
0,152693,152693,"[0,4,5,6,7,8,9,15,16,18]",10,0.2945790526612273,1.9419946752503359,2.0651685748593613,0.6839963541485257,2.8239944183623256,0.3169262501227956,0.1435561167440529,0.6377697852095401,4.006082299234405,0.5288972336190948,0.12159901180800947,0.12831496588579483,2.1246089327408573,1.6322405578841217,67457.30353061369,19383.009830182105
0,125774,125774,"[2,3,13,14]",4,0.27152765096125253,0.12539852026651443,0.3114416694149664,0.5300164855216565,0.2791911684926984,0.22017226949925872,0.008212399899841127,2.6574483870513603,0.7181556531397547,0.3572996546344972,0.166350293128938,1.0314749360360649,0.6097446437658024,1.0996049092419682,70161.17518724027,13434.907437149086
0,28840,28840,[10],1,1.990855541955608,0.26204184601248626,1.6388070948682203,0.8413764834951429,1.6350730343620001,0.38967471671290266,0.02278368893897209,0.7532497122746129,5.7101075975381494,3.319274174410505,0.42378519129681447,0.17560065260055724,2.431579203259352,1.7838495327669863,72077.96282940384,26495.225520110896
0,17324,17324,[12],1,1.2540424085661515,0.5666468642346016,2.7395357232163513,2.2085384500115066,2.175857347494816,1.5263530567420907,-0.6413623208266015,1.0124119499538184,4.223969528399891,3.210323285095827,1.4133312099399693,0.5177689603440419,2.3753054428538443,2.4686398175940996,117660.50888940187,94985.3207111517
24,209682.5,134689.0,"[0,4,5,6,7,8,9,15,18]",9,0.3310435034778789,1.8190989460469948,2.1504541150525234,0.7235220820430821,2.7941520539577724,0.3380348573438432,0.1527545208565244,0.6917466769997489,4.0797835448642505,0.5558174971421109,0.09602429449524363,0.1245744630620097,2.0554782353105296,1.5743608006939067,67102.31493806108,21625.631514313216
24,41599.5,30373.0,"[1,19]",2,0.6411403827329654,0.5097871056863701,2.297490769023661,0.9816280696522743,0.7764897811872769,0.46953973647519787,0.17705323857257316,0.8305906887943326,2.1726929713217804,0.7134200972728016,0.44829284320725726,0.22359482023822852,0.818529761403379,0.7830355870142633,61371.68610199637,25804.691691005813
24,197234.0,134347.0,"[2,3,13,14]",4,0.25144998485556047,0.11599485306288093,0.3308048626580562,0.5832143136832353,0.23841948309623184,0.24565869085452618,-0.005559000266189162,2.6100816084524103,0.7103531562306745,0.32624220276422733,0.15369997396494073,0.9995069568608868,0.5539511161792628,1.0847733162005486,72278.25969153372,14162.998752750484
24,37912.0,23492.0,[10],1,2.010038238789809,0.33547438701465104,1.8707347388689448,0.9303316125501273,1.6902099680971823,0.4357305083351055,0.06950478306342589,0.9397374222409502,5.836731362721613,3.275953988156764,0.39224301942657336,0.20113303005644811,2.461971665040116,1.792442311814195,72619.42013082927,31755.12555391414
24,29299.0,20637.0,[12],1,1.2969580796272988,0.5767669971330198,2.862396856053086,2.2581863057100615,2.1459523669408482,1.5700693890747097,-0.6078492084712717,1.0836781678726108,4.416894740673758,3.2842789826103327,1.4017330983139247,0.524033976500911,2.3496935619304553,2.4584544138707853,120762.62316119987,100748.22048534117
48,226258.25,121417.0,"[0,4,5,6,7,8,9,15,18]",9,0.311221349802713,1.8108493136416035,2.12156878815578,0.6761811359939305,2.7910779827078263,0.3387418681904417,0.1335694008273669,0.663233904438846,4.043599575012183,0.4550110667003314,0.0924847630495198,0.101803292452319,2.0882092158308105,1.4794905506462237,66089.57436911148,21644.933751586883
48,19577.75,10373.0,[1],1,1.0602648286702865,0.3052649868473405,3.5804972474876107,1.1897381225370913,0.4519209143543099,0.6105480783542572,0.1323860937160637,0.9155375098389777,1.5801937847045808,0.8538656281365405,0.592963976567785,0.24478861341318547,0.7970019790195552,0.8999147285055686,63886.33382283479,34620.24471657869
48,244048.25,138450.0,"[2,3,13,14,17]",5,0.2796384489440158,0.13597440147185402,0.3583699732173846,0.6292150947865709,0.240393291062317,0.2663619491289071,0.03891908021775281,2.5027808745729496,0.9890457474689974,0.3339626606357555,0.16193619528821346,0.8731248492367754,0.5593989981141062,1.031033732368495,69667.30521525952,15170.740966181816
48,47834.0,28878.0,[10],1,2.0480954019839315,0.32039199906444926,1.7768281646527462,0.8975476827674922,1.7428779657617994,0.4630171168833901,0.07277509365200263,0.8489832747209145,5.815507818366701,3.184126046880872,0.37589113476292235,0.1864180699450143,2.52481996587159,1.7866261539438402,71639.79897144236,31506.6889660076
48,26787.5,12138.0,[12],1,1.2387328633317576,0.5854956810639447,2.7248366654876013,2.1996675890806903,2.1121900741950417,1.468379568464753,-0.476072066840882,1.0547347404666314,4.2752643016145875,3.1868846453289783,1.3351448339990717,0.4939828779374815,2.3167095163602505,2.4171328283340836,114868.27930937977,94229.3669808676
48,194251.5,121154.0,"[5,7,8,19,13]",5,0.23568128130928256,0.928875754135754,1.3953897318244528,0.5842396478405525,1.4118514465036456,0.2541840500523793,0.11326087378732375,0.6491809435242506,2.6708672762411076,0.3889181537774512,0.17073260369674736,0.16223717766915624,1.1041213996224055,0.7714561064946748,63397.250183396434,18105.561419088044
72,246091.125,132962.0,"[0,4,5,6,7,8,9,15,18]",9,0.35329967132906237,1.7275849377750858,1.9299787122366712,0.8620647456079498,2.6334076617533424,0.31789322393584984,0.1278864897154408,0.713354677067287,3.8330629111167647,0.5306061536763055,0.20158542583616113,0.12596398978732137,1.9693356051579634,1.4943204242915091,68575.87703741872,23952.153691036183
72,17361.875,7573.0,[1],1,1.038503739817841,0.3308659622952792,3.57506751606608,1.273896448525885,0.47304552650563725,0.6002769820367853,0.12952945457356568,0.9472192555023331,1.5315964893336695,0.8243328728392009,0.583993623449357,0.25331061778321584,0.7707511740739404,0.9100326614492917,64303.1105799346,35297.5295582994
72,248831.0,135026.0,"[2,3,13,14]",4,0.2351155818959405,0.17077509728993112,0.28452810726907174,0.6464563601490494,0.2720242907143664,0.24455215581659906,-0.01733389128013174,2.57677829082135,0.7350170821421046,0.31242002762918986,0.15294219059222014,0.8517918412632497,0.5939072932296431,1.0254197919185086,70445.07730949926,16011.709666399902
72,42970.0,19053.0,[10],1,1.992402650413083,0.36840119270711513,1.4982171279031538,1.2881578180533158,1.698796633956773,0.43621220994879484,0.03756656478650955,0.8549769136025414,5.665472147495424,3.1152827431289185,0.4123245669565674,0.1960292251076391,2.4564852539853286,1.8491386705346733,73429.26544100528,32858.858738655195
72,29261.75,15868.0,[12],1,1.3220003625295897,0.6835698719744885,2.556540071402924,2.313731358249252,2.104496070886038,1.5059613166377595,-0.5183336677830161,1.1210174142053546,4.336590653113715,2.973586052692483,1.4055155789170355,0.48784695837997316,2.3718500401975335,2.4248344914606634,119606.90279973102,98315.11430451056
72,240200.75,143075.0,"[5,7,8,19,13]",5,0.2760424747846275,1.1004180510729022,1.3572127112956474,0.7589972939936644,1.5743386110128763,0.27136914707125137,0.12171030804129801,0.716180782301894,2.7990207601865302,0.4540694462246706,0.22479433838779217,0.16873411959787954,1.2245723847089458,0.9182560295102051,65297.534133428235,20631.53754515754
96,246926.5625,123881.0,"[0,4,5,6,7,8,9,15,18]",9,0.3693913452334612,2.0276337452803004,2.048657231650345,0.971377039903313,2.9308678282444762,0.32889525584403345,0.341600943544456,0.8500595361414285,3.832624958435767,0.5580183442599956,0.17832770800757647,0.13166963106743468,2.2036417034556206,1.733007903417388,68276.08406851726,22232.759053615395
96,16966.9375,8286.0,[1],1,1.078942131417335,0.35947661565693956,3.6365608647553356,1.3814810440673244,0.4928859747523511,0.612968437512666,0.21871718703284282,1.058346567246586,1.5363142508849976,0.9086793223180428,0.6621024587119857,0.30932608616389534,0.825006978318119,0.9816013668347632,64724.09555348438,34861.881232249594
96,229097.5,104682.0,"[2,3,13,14]",4,0.3225292001980682,0.16924898835593227,0.3156864996690816,0.7630649166146455,0.2858480740574283,0.23666572259845342,0.0591091391108054,2.776999542145516,0.7250741509193633,0.3684664201900908,0.1893107403774663,1.045132584417933,0.635464792570034,1.1357100876545447,71247.11473499269,15295.89021268223
96,44025.0,22540.0,[10],1,2.1347200374361313,0.37005257252271795,1.510194280340683,1.5618939901618734,1.7076831252370672,0.4226231173594588,0.12857612253121165,1.0034774785178606,5.692577717636318,3.0676911709284647,0.5023206139707503,0.22424855728422177,2.489095722018735,2.0126092670854843,72484.55504826808,31315.378898353432
96,25603.875,10973.0,[12],1,1.4533296398347917,0.6914794747132809,2.6619677801577546,2.418980501471934,2.1839012168323984,1.539182004464659,-0.32466256965500495,1.202848625376515,4.380181651249086,3.079572500244099,1.5296516302195569,0.5535930992159437,2.508629282789242,2.557583193998939,121000.94614584823,98272.83174910027
96,13707.0625,7642.0,[17],1,0.9209058975984059,0.29095912918067013,0.3386845378522798,2.4471860432122114,0.40716387347762595,0.4725617319082742,1.2118173071181446,2.768183497964097,4.4939728777910934,0.6977199997720128,0.5384631170108478,0.33334047690743207,0.7312964820188429,1.8130076385029492,60617.48912285153,20827.25368765186
96,171475.375,51375.0,"[5,7,8,19,13]",5,0.30964222120851237,1.1018567940710158,1.3820274602482985,0.8077729445853294,1.5685074467492774,0.2636613356914219,0.18904863613289224,0.7319327956113155,2.7201240332857575,0.4880285630553408,0.24845072165755688,0.18105579334642252,1.2370109821902342,0.9282761718595829,65410.13124479249,19887.982749709718
120,249052.4375,159995.0,"[0,4,6,7,9,15,18]",7,0.34532635206880324,2.462688288214812,2.3073895371764084,1.1412708784372514,3.418003715546462,0.3906315622961207,0.5211931697408683,1.0385694138728279,3.938803825564864,0.504884267373286,0.15371827137194272,0.12023947267932245,2.570617463862787,2.1400869744623225,67478.18841965757,20629.242313679384
120,17611.46875,9128.0,[1],1,1.1145332574227862,0.3886483663255844,3.6557235187794794,1.4164133217487964,0.5252570354829125,0.6096396184659549,0.2635302946144682,1.0765984404853235,1.5196390412674972,0.8983808309375817,0.7127437385812274,0.32441902516116017,0.838238211738794,1.0261559867628811,61971.238032034824,33450.45256375891
120,210904.75,96356.0,"[2,3,13,14]",4,0.3162133874803119,0.181608840099309,0.39782308602800986,0.8268716273486554,0.31027024690618443,0.2340349902242571,0.10215497158656461,2.760145128383087,0.732990762603141,0.389327025999891,0.2195846875085219,1.0827823174553546,0.629749191101236,1.1791136270957245,71007.06698165857,14815.106060911301
120,92334.21875,38032.0,"[5,8,19]",3,0.354295489405845,1.3256947452440944,1.606904019722497,0.9205775858973482,1.9333683855626282,0.23586696191925238,0.32630647261256884,0.7121025497917519,3.2712997448762233,0.5408797478501163,0.291127616818327,0.16373845821040534,1.454696660578516,1.0440469006283126,62723.806367831356,20323.84482594658
120,49177.5,27165.0,[10],1,2.2082676951057536,0.3838771751036023,1.570400958853083,1.8821768837260868,1.7745756291653887,0.4021642191017345,0.18783698862728793,1.2192380940444947,5.6958980852517165,3.0406917993810425,0.5646651463378873,0.24865760128553183,2.520813206282085,2.1590913317822085,70304.11867215691,29872.11147374305
120,25643.9375,12842.0,[12],1,1.6306109750915725,0.7777994278691325,2.7728243875416188,2.5084816230566207,2.3407469056599832,1.5564819296288348,-0.21480758219413776,1.2359919634428467,4.390152523025692,3.1147214414262243,1.5997321797732371,0.6003043555847778,2.6013462000107435,2.693021961725828,119690.81947731404,95428.03705554194
120,14430.53125,7577.0,[17],1,0.9409401502456827,0.28477914437922225,0.3820283126487407,2.8532048947760225,0.46217459650004056,0.45475927237174085,1.5197731218401773,3.1690494635830824,4.379314652368992,0.6705226647277801,0.6251099786368632,0.3167129629669717,0.7226139377599977,1.9686836153013132,58123.39750139123,20159.214166145055
144,277440.765625,135060.0,"[0,4,5,6,7,9,15,18]",8,0.3166584382714779,2.463108002380369,2.2526710596855515,1.2282385655567039,3.370626819231353,0.3122075303045351,0.6559070773110984,1.0053333470909247,3.7909498012562906,0.5193594242068184,0.10424266528304793,0.1458910847542947,2.520340882202005,2.0701449036222725,66327.17493244194,19427.87425581674
144,16338.734375,7533.0,[1],1,1.1393459815010087,0.3831833865125076,3.644468398600346,1.7370413819174093,0.5264510106256237,0.6137758003479103,0.4130722122190309,1.2314954225120558,1.5478058310303697,0.9998802271873063,0.7424370569333512,0.4133433888306036,0.881092159596773,1.0768341861087338,61568.52629535423,32514.766676962772
144,148212.453125,64171.0,"[2,3,13]",3,0.39537485091302393,0.18038462971967917,0.5483898826483915,0.7879047247021806,0.28412692739296963,0.23848744761726204,0.14931166735347956,2.550776069218532,0.7195935293788055,0.3853110271198533,0.2223038698681723,0.9624577504131722,0.6332923279922172,0.9726206595788083,70325.17302853975,14694.88982928536
144,149581.25,57104.0,"[4,6,7,8,5,19]",6,0.5882412283494551,1.8486181990970723,2.034916918889057,1.1565587903945391,2.6971247590462917,0.9012010809775386,-0.03948576673850068,1.0751525305380665,3.607703277738494,0.605953251218088,0.2650090042026614,0.14796032278746796,2.0666397809699015,1.6331245806969539,64775.702496134974,20754.063413696673
144,53477.75,28889.0,[10],1,2.226499501325933,0.34583378587033886,1.6868437092996618,2.164109271177644,1.8894121513272162,0.3821381777924069,0.38047084583975543,1.1528459375522622,5.6137733868147635,3.276459924361628,0.5887054219935539,0.2913165109341652,2.4678385243763596,2.2969656399784926,69656.64303378522,30564.66887630857
144,27248.96875,14427.0,[12],1,1.6329769070263043,0.7119388627837915,2.6966645381505017,2.723037068908584,2.5002986966995224,1.557561398012205,0.07584032518086614,1.3371678266729359,4.556302255033755,3.125180676385128,1.5567728600525732,0.6458824784991986,2.59837885198751,2.8038771241686815,116702.77786200684,88738.29711445539
144,83244.640625,48853.0,"[3,14]",2,0.34635481100191745,0.0923183180527416,0.26123073881538517,1.8068401993228465,0.3098352760825174,0.46197206720795636,0.07272677064044686,3.945327886894801,1.0026617172764771,0.5182662851097565,0.25362429561810496,1.8749321983825262,0.825221320842351,2.0167554757220714,72926.4877044446,15066.24839249221
144,13306.9375,9011.0,[16],1,1.2334708366171758,0.20683388538757574,0.8379535900611055,2.5353319252293285,0.21143292245938428,0.46277541749369355,-0.29274190786173504,0.7514595571259832,4.40256737702255,0.625658329571979,0.37023723204179326,1.2449708808210957,0.5202280882270075,2.7906254790593397,78079.94867338914,19799.220669669343
144,19171.265625,11956.0,[17],1,0.9913463036298722,0.19379250028810358,0.31058431031628286,3.4607776402534367,0.49791922294513746,0.42980906726620516,1.7591395602403073,3.6575824851686587,4.327281053532261,0.6576354716066887,0.644491344723241,0.5417566907603417,0.7627302440167233,2.1819983910417546,58077.29451873364,19165.733352567826
168,206466.4765625,87830.0,"[0,4,6,7,9,18]",6,0.32918273781363006,2.517291801887798,2.224634239130413,1.3217524260770466,3.3768752124726933,0.49301931852840886,0.5812096530518049,1.0085313795765027,3.661406549989374,0.58185498975685,0.11089105058027693,0.13843011530072402,2.49403057949424,2.0367520095603027,66973.27170599619,20141.021323339137
168,16949.3671875,8780.0,[1],1,1.1096147349592254,0.38164950626244964,3.6218431269032103,2.099653450720655,0.6288501889257279,0.6484371882597213,0.5532434548639809,1.1990997961395946,1.7051068758457402,1.0770830373465308,0.8389516348540802,0.3774325024122872,0.946271151031631,1.1115631147733587,61254.15863700664,34671.39967522725
168,133617.2265625,59511.0,"[2,3,13]",3,0.3353305677686462,0.18043829165337533,0.5639026361985011,0.9745417321510836,0.3218149766248657,0.2635472229021847,0.17104780328330538,2.5112574611085927,0.8127162593085312,0.39089399660861235,0.2179093743840843,0.9005738781493613,0.6556797962087898,0.9825566397586152,70016.53093827638,15328.463190649743
168,136037.6875,96541.0,"[5,8,15,19]",4,0.35598736481451443,1.0426115737081023,1.6571196099038006,1.3689143739247047,2.0287652937754603,0.1423486767790143,0.4792419476867269,0.7389010301196239,3.452204270821676,0.6640623604295889,0.256156457181107,0.17643744965813635,1.5222365202999852,1.1209801261648302,62186.85556162505,23019.629990402387
168,58110.875,31372.0,[10],1,2.0576728770564294,0.3273033328643491,1.8781570087957102,2.4425778818398336,2.0092862419783155,0.3964031739965932,0.5168534434054273,0.9907557850827104,5.396442013037398,3.2263005846842994,0.6101896706685093,0.3008421648668159,2.47125709219632,2.2573558643830474,70605.50533785683,34678.08702760056
168,32840.484375,19216.0,[12],1,1.5869834057682486,0.6503459901831294,2.6748873211663047,2.9318772738074794,2.4797167708953682,1.5767310271689639,0.24763430306198853,1.3593195707929562,4.641453429186404,3.125630616843232,1.5050811760205636,0.6236887447674371,2.4583797817456805,2.701131639830067,116469.6898445189,86139.14673723585
168,79730.3203125,38108.0,"[3,14]",2,0.24841923390832799,0.08493615916955077,0.22520909236369002,2.0624937498079414,0.3232074425289917,0.4969709060173533,0.16254716241066314,4.021498436171513,1.1350202591168337,0.5393070681953153,0.2539686817371809,1.8153668714987612,0.8339021570114166,2.0278262513156267,73456.32376171196,15486.21828760446
168,16673.46875,10020.0,[16],1,1.0697220862616772,0.1990701660005354,0.8671795254015073,2.83291084408519,0.20614314104883658,0.5300284928151284,-0.22080007537563429,0.7628674028748161,4.344818805972156,0.67422312396659,0.41193571292575326,1.2588355354792657,0.5112075343584771,2.650044872388973,82542.81476372459,21496.197904230256
168,23923.6328125,14338.0,[17],1,0.7639158215585222,0.18423398729291396,0.32753575643917765,3.4794109673714693,0.5144272640318519,0.4296496751499348,1.6935038081356102,3.7486790493791746,4.257749361226876,0.6613174578582545,0.6768394440868892,0.5779159153504394,0.7969999747350281,2.1222267972389237,60622.949673521915,20617.715644016986
