time_in_hour,cumulative_size,size,pcore_ids,pcore_power,AF700 CD48_[R 730_B-A],APCCy7 Ly6G_[R 780_A-A],BV421 CD117_[V 440_F-A],BV510 SCA-1_[V 525_E-A],BV605 CD11b_[V 610_D-A],BV650 CD150_[V 660_C-A],BV711 CD11c_[V 715_B-A],BV785 B220_[V 780_A-A],FITC Ly6C_[B 525_B-A],PE CD115_[YG 582_D-A],PECF594 CD135_[YG 610_C-A],PECy5 CD3-CD19-NK11_[YG 670_B-A],PECy7 CD16-32_[YG 780_A-A],PerCPCy5-5 CD45_[B 695_A-A],_FSC-A,_SSC-A
-1,0,0,[],0,0.0,0.0,0.0,0.0,0.0,0.0,0.0,0.0,0.0,0.0,0.0,0.0,0.0,0.0,0.0,0.0
0,81235,81235,[0],1,0.29725839190004355,0.14534543359391972,0.41130033334153104,0.4472724708930751,0.32772448855791136,0.09618613249214936,0.1696906318459126,2.2023511453930062,0.6757004241890935,0.35969023821012125,0.15903785538252002,0.7663618020311427,0.554177170111417,0.7985793312365346,69308.8447097923,13336.454483904898
0,81658,81658,[1],1,0.12448365803717287,1.859881605341772,1.9547450337260597,0.6709239144603449,2.7604036628988964,-0.4789348849592219,0.6829253227362799,0.5239905580224726,4.045917114355054,0.4679189459085541,0.048633802848443874,0.14998188521638967,2.0517533941683395,1.5895787604398879,66421.2789928723,18802.123588625873
0,33644,33644,[2],1,0.5786690093032953,0.522703079895388,2.103395809119038,0.8595769817203411,0.750733491618123,0.47712558254071813,0.15224466858874353,0.6509287261918884,2.039448700481519,0.6628181465937534,0.43376954618952634,0.2293160940137957,0.8127463416062296,0.7946139475389433,62479.46736416591,21624.95589109491
0,24370,24370,[3],1,0.104824035453434,0.050254510299554855,-0.014244066516191367,0.9294980640541746,0.37284052441524684,0.03341146528518779,-0.02960092133770731,3.9418648450964566,0.8022158416085375,0.3688536926138781,0.1805710606072921,1.9101506315551986,0.7906957097250654,2.205289754780446,74192.73139105493,13684.836109971275
0,22264,22264,[4],1,0.5561371788537537,0.1427600317553095,0.1669886661426685,0.6579197627110971,0.1257307437118289,0.9488929409360389,-0.4478365353036451,3.096001370643158,1.077262838977723,0.46626723216851707,0.241511259611928,1.1786391296263068,0.7031578816475036,1.514349650062894,71836.40675529966,16670.05964786203
0,69858,69858,[5],1,0.48472221726932685,2.0403491706605044,2.0761679026025113,0.7001753785393303,2.8877641880242595,1.2109720692690755,-0.4803763207363496,0.7938836554868551,4.065365249577724,0.5933201405995038,0.2096052457270412,0.1091295310200685,2.20086969257637,1.7095567385982895,68506.20538807304,21204.758910933597
0,46723,46723,[6],1,1.714289917513841,0.3651594865697878,2.0859255070521763,1.3299840490122419,1.7775775803565699,0.803363726622859,-0.2126769589281583,0.8397913858699124,5.203113860432751,3.2196955080794996,0.7570386055475913,0.2976982161890309,2.3746566130171227,2.0122177891616615,87695.42777646973,48298.97532264685
24,102229.375,92075.0,[0],1,0.2796658811447492,0.13514262715832226,0.49791456810116186,0.489984699951711,0.2713924182017222,0.14822499617282037,0.1073780013400869,1.9746568842566141,0.6757767606314292,0.3149366583295944,0.14293300358874017,0.6815507853931502,0.47782244086644,0.733578344684445,71924.0719998533,14485.87160001694
24,83141.25,72934.0,[1],1,0.17534574580608941,1.7204893424999677,2.0485997871393624,0.7276794914904197,2.7551382989325144,-0.46379592954760807,0.6911092183061767,0.6113202755476066,4.188492685008945,0.4981174401109526,-0.00647720903734772,0.15655658426923735,1.964930102297266,1.5814985514230253,66418.1718701605,20969.141839941418
24,46472.5,42267.0,[2],1,0.633167736782513,0.5450112093926638,2.1779258920490396,0.9901752396282584,0.8288590296842258,0.5295994466916014,0.15777074906126298,0.7614857835924171,2.517912302455729,0.685794891247519,0.4142518435311313,0.21802550743719562,0.8798011539431915,0.839665219352844,62966.185507558075,26375.56352681692
24,30903.25,27857.0,[3],1,0.07371820420181763,0.05630479069353145,-0.05107494123190914,1.0514112652431198,0.30692930415083897,0.05727514171243886,0.05755261522249899,4.053741598225928,0.7781505745674034,0.33353639737325835,0.16356389901952806,1.8847024845080798,0.6802136864812002,2.1422372615986784,76442.30687710858,14126.978359881188
24,25356.0,22573.0,[4],1,0.535701484569727,0.12453761765953741,0.255197045743603,0.7832085149323569,0.09155838167494235,0.9911411716211245,-0.4611264960068713,3.0576937439856753,1.1420772045620406,0.4710720491451762,0.23082466881605557,1.1968206819194602,0.6284454441404351,1.6529824034597322,75430.92664458128,17831.050007887596
24,68087.25,59355.0,[5],1,0.569551510624255,1.8022051697711357,2.1395694378830625,0.759776185500967,2.758526534055575,1.2551352764412396,-0.4944080589794666,0.8667228445505861,4.238898341739789,0.6360677764155723,0.18030166411477744,0.1310529562473184,2.0570231089668,1.6690400800682113,68377.72323012027,23820.736716492673
24,48779.375,42939.0,[6],1,1.7084462940945653,0.4557368737376044,2.442020653775297,1.5987978841108204,1.8756809874229545,0.9823709801094063,-0.20520325590477428,1.0571557427549862,5.286012653413949,3.286840813643044,0.840411734075595,0.35724687924711707,2.4120316400169273,2.0991824918087523,94864.8502363957,63797.95198278047
48,99915.671875,87137.0,[0],1,0.23297880228342382,0.14931400845152432,0.4764831791263511,0.4134137737884691,0.25435748936721714,0.1636605243992566,0.0664069033136232,1.928428579699494,0.695352545532386,0.28655259093911123,0.1293046541800864,0.5754514807909172,0.4795357610694583,0.6188275983940044,67994.92384437352,15076.009235913612
48,66741.65625,56349.0,[1],1,0.07055567471121771,1.8703457683129834,2.0500834907818146,0.6419750171877783,2.9097832135236863,-0.5172604138654053,0.7399404374994374,0.5093011894564929,4.055774839044974,0.3258595872379638,-0.014742259666116198,0.11406444401781812,2.1359537953398204,1.4837730832580607,65089.40510447652,20532.229015518486
48,72076.0625,66267.0,[2],1,0.4973451473705972,0.6722339903565273,1.7156431406513,0.9000892507266909,0.9556421308686676,0.4289464483134917,0.14446995631831783,0.7783499149214932,3.018279057037626,0.5205693945259319,0.32820845769445794,0.21078231194022168,0.8817449550442323,0.8537452595346311,60566.28449979493,22940.338853832487
48,52450.40625,45418.0,"[3,4]",2,0.29850601656862374,0.09825221752304936,0.07097757359661117,0.895164881833606,0.19029284952452974,0.4466131630647494,-0.13584937981384426,3.5116256471175005,0.924892882708538,0.346478649853759,0.1694611486752593,1.4488653777231908,0.660295807337946,1.7320919067348155,72678.36014139566,15620.505780162594
48,57622.90625,49112.0,[5],1,0.5401198786545309,1.8959877431587824,2.136003379267001,0.6632089651809645,2.930212045465528,1.2495113480476323,-0.5211785684138222,0.8395131914871228,4.12703841416933,0.45252565860854743,0.16618352258132862,0.0724340507106328,2.2486411793140078,1.5562992103501052,66767.70975951929,22648.335357087333
48,49100.421875,43003.0,[6],1,1.7957324524286487,0.3972745597549241,2.0660738917639097,1.3017587124607912,1.8215167697728547,0.7761901697608178,-0.06553505431312567,0.8950029996897428,5.305623302171492,3.0454696300865196,0.6476589023474393,0.2816818966139798,2.443756134305753,1.9693859821274933,83316.82329358777,49067.88088569807
72,105353.458984375,92864.0,[0],1,0.2512843463001284,0.22454249564656648,0.5084686376399619,0.5801247056195118,0.32504349532460663,0.18614652618814342,0.05296737588882561,1.9814666858769137,0.7375580422151434,0.31183816775558393,0.16628839602189416,0.5424387980114915,0.5390976233048069,0.6715538623276944,68981.89081364487,17445.434755706978
72,64924.70703125,56582.0,[1],1,0.1435343879337434,1.8185220313792527,1.7645289610171724,0.9494873713655578,2.817056448384831,-0.572623045766656,0.6584152610508944,0.6022413134722981,3.7348808427299613,0.45550546711617645,0.1530144820036905,0.15210147491879,1.9811372873488096,1.6166913315443396,70130.48852778663,23889.179609673767
72,91288.5078125,82279.0,[2],1,0.4573360321925011,1.0646631023542703,1.4970600831471206,1.009714900080235,1.3901734624655444,0.4693802398899498,0.1068199401851384,0.730578256874681,3.1156069225148997,0.5917828248095477,0.34041081648034455,0.18178372521156294,1.1925064246717656,0.9954597874938518,64460.85635950401,24865.849344228005
72,58664.30078125,52108.0,"[3,4]",2,0.2702269827905863,0.18655029925802946,-0.046908770958313806,1.0362674857030645,0.30043190291696487,0.37457389290048204,-0.1535683788782931,3.563800337555147,0.8866902871379693,0.3746905106000705,0.1941351073614177,1.2817132711300387,0.7774482275272087,1.784580366511135,74730.99890378669,18471.215778921036
72,46936.86328125,39734.0,[5],1,0.5780354576926185,1.8373940638114918,1.9487636024814035,0.999613470162148,2.903318885478128,1.2928429047494279,-0.5410269921796553,0.8982972374494271,3.8261436587192166,0.5923466966809675,0.3713796105057021,0.10773956312065402,2.105768826986589,1.6756691851900525,72979.19898214325,26960.076806633962
72,42570.552734375,36433.0,[6],1,1.7249928858995875,0.5138688175842625,1.6960206447711008,1.933666611702026,1.7595723089247657,0.8470812770934957,-0.21839143705289477,0.9778047972209651,5.154838804702843,2.8899098809739434,0.8160115997271178,0.3334179909138413,2.3688275206449294,2.1309731074831446,93221.12168443987,58171.24344031289
96,67897.18237304688,54728.0,[0],1,0.38334991530149987,0.22668029853001048,0.7658599747093162,0.6763906680705705,0.3632981128962385,0.1595532779543054,0.24542256558376252,1.9984672742663134,0.7556701995929497,0.4127242256546698,0.24017800724241445,0.6836995614218315,0.5886213953414764,0.7310787637930307,69808.52575767637,15952.890562141727
96,64457.58837890625,56342.0,[1],1,0.10128940611785264,2.3528079470667747,2.1000109827498368,1.0511322265687761,3.31521978597891,-0.6463000783682866,1.146220006382645,0.8178350537725683,3.8545878822417676,0.47258583185567427,0.04024072001742507,0.15022740171945048,2.414673590055713,1.9826739620060276,68169.85841718351,20456.663514476106
96,45013.0634765625,33602.0,[2],1,0.6569444697952187,0.9426827661754613,1.6709578234590379,1.313941722647725,1.2439105766658645,0.4725900815238788,0.3237484100277426,0.9633587003997524,3.211268135840157,0.6982922937384007,0.4458019094260042,0.2692338656689178,1.1688913654706923,1.2028597509398413,63745.0890487801,23608.093988513992
96,68532.03759765625,61199.0,"[3,4]",2,0.5059480102323737,0.15706592781477546,0.1547965119056247,1.2324331826634083,0.310881027610864,0.3447262196177143,0.07546560794292967,3.6669655841142577,0.8614176120465767,0.49715498283799253,0.2625539178470455,1.6292891012397157,0.7897242846393832,1.8186609818227317,74372.34804829705,15895.821895400557
96,58882.10791015625,53015.0,[5],1,0.5857264866570693,2.438386821034583,2.194912244944415,1.079112544592273,3.3515797267450904,1.3564829841675399,-0.11736166954092342,1.1493802392702221,3.877061162922303,0.6385311978643712,0.264339783745823,0.10614172355307194,2.5279273346309434,2.0686046569372705,70116.65074770346,22988.913133952865
96,42573.319091796875,37252.0,[6],1,2.0185508884251195,0.46212249261725313,1.8578421194165204,2.0808821391398324,1.7992403463942708,0.764317905445429,0.1527368605323871,1.230170981162551,5.343184806383392,2.8863464633387554,0.8695485503005664,0.38413764358696556,2.467347539130964,2.325262863614271,85709.5398813112,47135.906880682436
120,67023.14779663086,58536.0,[0],1,0.38512976108361463,0.33553792694798057,1.1513569023501096,0.7425486179071794,0.4818624339069406,0.18853808445072673,0.26983775583946956,1.4900043939363927,0.9647158830356283,0.44301107233094694,0.3194392995973576,0.5098583219929929,0.5879865319083523,0.7036489843537308,67042.2133141913,16511.64626499359
120,93719.19854736328,85662.0,[1],1,0.0127296769213463,2.570698631546409,2.3254448059169586,1.1611721984583276,3.5504001299864254,-0.6369554459049439,1.2652353484911258,0.9047348571956362,3.895931824160431,0.35442400228320536,0.02658025188520874,0.13567883053846674,2.5826680766783303,2.167383587290444,66347.2658387116,19204.941436232344
120,41081.63293457031,35455.0,[2],1,0.7327841557534871,0.9477848857670157,1.7137810503999051,1.444200381938305,1.3078636068556762,0.49188572324857915,0.32508730360470706,1.022722838242303,3.43321384728033,0.7044074492850475,0.4941655972196872,0.2943074396027684,1.208014787823346,1.3463060256488621,61827.501684374314,22414.671992829277
120,24573.11700439453,20122.0,[3],1,0.2657269886799658,0.12371909235819123,0.16144708978934696,2.0540448671167097,0.5439049027742495,0.03048382614645373,0.5623404836968842,4.073705000351752,1.078234690067935,0.53974745633124,0.29442531446276465,1.9870324238181842,0.8210335632720164,2.3799177327323315,73732.15937206116,14928.311828357973
120,41890.3876953125,37775.0,[4],1,0.48464680728359544,0.17361816817005638,0.2813087296072818,0.7933732950661159,0.22402144922125045,0.5042436799455239,-0.1275741919352087,3.314239207685384,0.7020801780276237,0.43329556190150476,0.26042026008834185,1.3482759634440227,0.6817616364819091,1.5195137663482607,72837.94077153128,15085.406712696682
120,85419.26348876953,78059.0,[5],1,0.554139340786652,2.6264239382941392,2.3666900102586212,1.177423065892635,3.534195254822731,1.4338008597511303,-0.09658251442763,1.2246458020861737,3.9166173691391557,0.542017367512997,0.2674558270095586,0.08982726766909221,2.661618029874941,2.2297115348600056,67757.14259364974,21625.3441500256
120,49712.66488647461,44391.0,[6],1,2.1097631209874805,0.5077107823096982,1.9713406685259742,2.2870619035087834,1.9747118368510965,0.7257385390202382,0.21641886640222863,1.4229688693687361,5.3666605437533,2.8749745268641456,0.8733225034176835,0.38824114083454286,2.5353031270510833,2.4319337446545295,80793.54977236496,42864.642589675444
144,42899.89347457886,34522.0,[0],1,0.4587557654172436,0.40303503587714085,1.4490934634592327,1.102570378328564,0.5571603176086621,0.2715888316443955,0.32785351633046833,1.1564801662375506,1.2332233642178347,0.5577776102457394,0.3650227385506333,0.45254532224628363,0.6688495213588,0.7292597825435136,65750.45159768846,17460.987634897658
144,80626.89981842041,68912.0,[1],1,0.040423063235647705,2.6014981824341525,2.2673216029053145,1.3142139280129634,3.5053305591260293,-0.6009157279231556,1.3157362582116772,0.8626165663929974,3.729841403113553,0.4341063904703787,-0.05512495414091845,0.17096951382581838,2.57373893784654,2.130150943828738,65940.01992511158,18398.667842679406
144,26785.20411682129,21650.0,[2],1,1.1067580227155902,0.43033664638056557,1.3045519108588777,2.5991777802478118,0.6592672769320456,0.5144685943004446,0.6832618266404888,1.5613169309038666,3.8500700743481864,0.7576160402579847,0.6034293288093102,0.6003784778462906,0.8412816752984967,1.9701281886917863,63412.62862042929,21699.367806189897
144,34766.63962554932,31695.0,[3],1,0.28668100732066537,0.03725826230188778,0.02159725088516362,3.1399176685245735,0.5270476171480656,0.3253054443610526,0.5906689530811597,4.2210512787388605,1.7095650970816285,0.6104469105797613,0.283020290676522,2.1908629269501123,0.925962899882751,2.591631546990066,72745.27149140873,15101.967627860451
144,63070.29846191406,57834.0,[4],1,0.5267280901898794,0.10532257636228826,0.32666309398563076,1.1733694791910243,0.2446968509957621,0.27553703319196887,0.11429334646866973,3.4567707903312606,0.6719007110761571,0.4247605437211631,0.22362709846487006,1.4753809010561392,0.7628354038399742,1.4933135341108226,71908.83867419226,14495.396823262463
144,74416.40793609619,63739.0,[5],1,0.5556477589529272,2.642420567654325,2.2785871988126734,1.294765828171189,3.472969444016828,1.415695913059379,0.029048717398653334,1.175036543596573,3.730400116601771,0.5958712364410893,0.17873321650095697,0.1167382832983227,2.6242738529350214,2.1487087067522834,66587.1352499545,19966.36438733012
144,50207.083110809326,43993.0,[6],1,2.066209198410969,0.42685779323659867,2.0444257735387548,2.577549334749309,2.191291884797907,0.7322840020808532,0.5138247771262447,1.263086281280049,5.326693817167858,3.265793367471915,0.879592962258128,0.44078697094069064,2.4868130101688677,2.583900078240834,81961.45551855114,44850.81849103864
168,82146.48668432236,76784.0,[0],1,0.32468601659011376,0.6954328316284615,1.4366131288565427,1.2614694857435986,1.2466214022121318,0.3369109790618243,0.2793364786239625,0.6455401799338429,2.37168504019048,0.5995053182615849,0.3094931093724238,0.21577717940285945,1.006302472615408,0.8162059195660922,61722.82182517779,21377.503342725595
168,68883.36247730255,58805.0,[1],1,0.10165927922054929,2.199020970303616,2.203641327217658,1.4449995713555923,3.3138058790154212,-0.6210266489882404,1.2580722157595403,0.7631385443815706,3.566065866999008,0.5626320687908305,0.0015901126002577648,0.15955855897026505,2.3087374072943727,1.8195987347535907,66638.45377871036,21210.238395366374
168,45863.15051460266,42515.0,[2],1,0.8241303250473464,0.36485885398786744,1.2952434319302433,2.5755771024686154,0.8530903127569243,0.5306666778813027,0.4560553431847989,1.3231153633316626,4.323420471813252,1.0373654799600578,0.586722254115787,0.47771478811908585,1.0627992033725686,1.6833127183275505,66047.50871145059,28574.85364136895
168,34309.829953193665,29964.0,[3],1,0.17942489435314934,0.08668393846233124,0.045114611349421185,3.0577656781616063,0.5091921289669843,0.4233269232128367,0.6901797220804236,4.2336478355407,2.030895112476195,0.6537950473503856,0.31729677804976353,1.9155086232994813,0.9374081739470234,2.462211939196395,73858.21705492593,16746.398103783922
168,59870.78730773926,51987.0,[4],1,0.32189628532873216,0.11412359409310335,0.3731710532790209,1.4393041462341998,0.2715296889209937,0.2970502524324259,0.18324179292744924,3.1605968893466754,0.7799659185708948,0.41950829736576767,0.22196625142471138,1.1565680494212687,0.7024457998943391,1.3307466545608633,72908.44850957207,15907.002602131555
168,61482.050992012024,52180.0,[5],1,0.5653406001516346,2.2872478589878433,2.2223767039401072,1.4164810852630598,3.3106241001360392,1.38611557227547,0.0005606193830072215,1.0848019007316467,3.557328162257529,0.7054625034497374,0.2259660174586977,0.10388827867487416,2.3692824838249336,1.85183511278738,67997.82733419575,23379.609047895938
168,54040.885388851166,47765.0,[6],1,1.847339188935811,0.41714662743739384,2.298496929537125,2.8443203382398585,2.2951625444149504,0.8666641818901557,0.5791000023780746,1.0972043865287153,5.090871365494033,3.1757980077493415,0.9327175486908428,0.433063507715053,2.4859763095228398,2.445136741144959,87889.44553668842,53054.754225722405
