time_in_hour,cumulative_size,size,pcore_ids,pcore_power,AF700 CD48_[R 730_B-A],APCCy7 Ly6G_[R 780_A-A],BV421 CD117_[V 440_F-A],BV510 SCA-1_[V 525_E-A],BV605 CD11b_[V 610_D-A],BV650 CD150_[V 660_C-A],BV711 CD11c_[V 715_B-A],BV785 B220_[V 780_A-A],FITC Ly6C_[B 525_B-A],PE CD115_[YG 582_D-A],PECF594 CD135_[YG 610_C-A],PECy5 CD3-CD19-NK11_[YG 670_B-A],PECy7 CD16-32_[YG 780_A-A],PerCPCy5-5 CD45_[B 695_A-A],_FSC-A,_SSC-A
-1,0,0,[],0,0.0,0.0,0.0,0.0,0.0,0.0,0.0,0.0,0.0,0.0,0.0,0.0,0.0,0.0,0.0,0.0
0,130729,130729,[0],1,0.3268887196796617,0.1348707532605551,NA,0.5923667761858362,0.3254100644233864,NA,0.005694343688113168,NA,NA,0.427681665927213,0.1998338294716624,NA,0.6502024586817164,NA,71576.22403598293,15701.69936280395
0,73543,73543,[1],1,0.39207579678557725,NA,NA,0.7853100486382498,NA,NA,0.2726099673388389,NA,NA,NA,0.3191335710944738,0.19469929569095556,NA,NA,NA,21554.249350719896
0,155435,155435,[2],1,NA,NA,NA,0.8567898511146943,NA,NA,NA,0.7377335439701378,NA,NA,0.26814311753468667,0.1723081851063185,2.2882365944735836,NA,NA,NA
24,211100.5,145736.0,[0],1,0.31265505098046376,0.1272943030712641,NA,0.6463938671769998,0.28037095884181884,NA,-0.00537889026790106,NA,NA,0.40209007482926284,0.19055984506666102,NA,0.5863679412483517,NA,73565.6697355053,16521.974850840583
24,147048.5,110277.0,[1],1,0.3722858049384814,NA,NA,0.8333415560206485,NA,NA,0.25936513249713755,0.6889600046140978,NA,0.5830070236826635,0.24413920615648266,0.19050475531882827,1.4468763066097212,NA,64716.3842677754,24394.547594840496
24,181704.5,103987.0,[2],1,NA,NA,NA,0.9923633352393697,NA,NA,NA,0.8686198540734447,NA,NA,0.3060057141677843,0.20783099322801246,2.2757403022049756,NA,NA,NA
48,248113.25,142563.0,[0],1,0.28677166235880147,0.1367344755136477,NA,NA,0.24739584458503572,NA,NA,NA,NA,0.34784918334973236,0.1743811053167863,NA,0.5527375776656308,NA,NA,16230.516346869234
48,195339.25,121815.0,[1],1,NA,NA,NA,NA,NA,NA,NA,NA,NA,NA,0.17889235403153192,0.1540794219146877,NA,NA,NA,21538.998148092687
48,173760.25,82908.0,[2],1,NA,NA,NA,NA,NA,NA,NA,NA,NA,NA,NA,0.2013944313184386,NA,NA,NA,NA
72,273580.625,149524.0,[0],1,0.2809971993260665,0.18720199375362157,NA,0.7091536632629394,0.2940523072320831,NA,-0.0173897840672681,NA,NA,0.35263734141763536,0.18641043165379845,0.8229162150069995,0.5990418592978713,NA,70805.9983706822,17640.927050297523
72,264969.625,167300.0,[1],1,0.3450998404586352,1.4565217147309322,NA,0.919774401821039,NA,NA,0.19232841675155976,0.6974979271458706,NA,NA,0.26703867754131494,0.16416401232640498,1.611590725022228,NA,NA,25061.996898700643
72,130056.125,43176.0,[2],1,NA,NA,NA,1.28941735111664,NA,NA,NA,0.9179814041755043,NA,NA,0.4564690406430736,0.23292869296428986,2.335706732781726,NA,NA,NA
96,257551.3125,120761.0,[0],1,0.37934421733700585,0.1983923517422701,NA,NA,0.3280213318758305,NA,0.09207577054039406,NA,NA,0.42061185599930684,0.23159324206190535,NA,0.6523701472184823,NA,71340.49951308314,16949.878708149816
96,251777.8125,119293.0,[1],1,0.33640887594869406,NA,NA,1.0184896153849192,NA,NA,NA,NA,NA,NA,0.23522336480828798,0.16907134704457094,NA,NA,67489.40523104908,23557.316719478073
96,121112.0625,56084.0,[2],1,NA,NA,NA,NA,NA,NA,NA,NA,NA,NA,0.5447423475531195,0.2777525167414753,2.371820827830451,NA,NA,NA
120,251658.65625,122883.0,[0],1,0.39446555641465886,0.2283433461176334,NA,NA,0.3741048792050514,NA,0.15897175905721683,NA,NA,0.4509026745780451,0.27864394063969433,NA,0.6510515942960658,NA,70376.55555311443,16598.65562442724
120,310958.90625,185070.0,[1],1,0.319755953437902,NA,NA,1.123946470521151,NA,NA,NA,NA,NA,0.5192714805804851,0.21210685426433384,0.1503133438991231,NA,NA,NA,22058.135844114382
120,112603.03125,52047.0,[2],1,1.6702156115720912,NA,NA,1.8256435742798565,NA,NA,NA,NA,NA,NA,0.6328183033227761,0.31444840905703775,NA,NA,NA,NA
144,248115.328125,122286.0,[0],1,0.42656684684061585,0.18202045992110794,NA,NA,0.3525147173881593,NA,NA,NA,NA,0.4759701804333033,0.28273212645874723,NA,0.690357476333303,NA,70255.17425597388,15980.569241583979
144,299522.453125,144043.0,[1],1,0.3320971552722851,NA,NA,NA,NA,NA,NA,NA,3.6824453664732952,NA,0.15856627184563177,0.1691212878377789,2.3680668860401832,NA,66928.22030151408,21189.955997558503
144,112317.515625,56016.0,[2],1,1.7754884493603849,0.5827844011304055,NA,NA,NA,NA,NA,NA,NA,NA,0.7009812508512314,0.42896409213360565,NA,NA,NA,NA
168,261938.6640625,137881.0,[0],1,0.3567527683437022,0.2097943342578681,NA,NA,0.4497918076756293,NA,NA,NA,NA,0.5016073355310747,0.29440801676188366,NA,0.7213864440108434,NA,69610.47962796976,17467.290531068695
168,299189.2265625,149428.0,[1],1,0.3221008978087818,NA,2.119389998909234,NA,NA,NA,NA,NA,NA,NA,0.1680595560467366,0.16184175378488186,2.2192509982999717,NA,NA,22631.25128800425
168,128849.7578125,72691.0,[2],1,1.6603015959473144,0.4600459123814997,NA,NA,NA,NA,NA,NA,NA,NA,0.7614107170416538,0.45343915596962425,NA,NA,NA,NA
