time_in_hour,cumulative_size,size,pcore_ids,pcore_power,AF700 CD48_[R 730_B-A],APCCy7 Ly6G_[R 780_A-A],BV421 CD117_[V 440_F-A],BV510 SCA-1_[V 525_E-A],BV605 CD11b_[V 610_D-A],BV650 CD150_[V 660_C-A],BV711 CD11c_[V 715_B-A],BV785 B220_[V 780_A-A],FITC Ly6C_[B 525_B-A],PE CD115_[YG 582_D-A],PECF594 CD135_[YG 610_C-A],PECy5 CD3-CD19-NK11_[YG 670_B-A],PECy7 CD16-32_[YG 780_A-A],PerCPCy5-5 CD45_[B 695_A-A],_FSC-A,_SSC-A
-1,0,0,[],0,0.0,0.0,0.0,0.0,0.0,0.0,0.0,0.0,0.0,0.0,0.0,0.0,0.0,0.0,0.0,0.0
0,160155,160155,"[1,2,4,5,9,12,17,20,21]",9,0.17350390959299514,0.2556613831823116,0.36581046683833424,0.29193615532234846,0.292627480645947,0.2222815749772988,0.25744944162882033,0.4545430951530408,0.2216492603252002,0.11545981728331028,0.25165603121124486,0.19327888926271958,0.16835569488935045,0.2799784733689043,0.19627807366437733,0.05662940103389751
0,211992,211992,"[4,5,6,7,8,15,16,18,19,10,11,13,14]",13,0.20407826684730224,0.36247877001197837,0.4963605076950787,0.3187535003229199,0.4769785277249208,0.25359507319495034,0.2599632882658361,0.3282737278658009,0.5870502768525371,0.19544128740144004,0.2599363687236076,0.10621795839950911,0.32756362017318547,0.3816128149038563,0.20883741677934745,0.09779053557127233
24,334404.0,219744.0,"[0,1,3,4,5,6,7,8,9,12,13,15,16,17,18,19]",16,0.18488990544199502,0.3443198003149768,0.48622405084192255,0.3155060632410656,0.4379932253164991,0.24464407139786398,0.2640902630582593,0.3431300488022241,0.5004545385309136,0.14682685703568688,0.25256720042373476,0.11550737608006025,0.2734832179837675,0.3358023133549957,0.20119593857322085,0.09072814853792287
24,191681.5,133025.0,"[1,2,20,21]",4,0.16914930929264094,0.23549433901057704,0.3389316875656172,0.29412736298959324,0.2616792633371138,0.2296054169209075,0.25131482300347846,0.47983477003507413,0.1749001376052257,0.10532247937869404,0.24788463452503692,0.20786648327571208,0.14143375892777008,0.2713002467406617,0.20851019814868507,0.05606194811424758
24,95561.0,63611.0,"[6,10,11,14]",4,0.26455012758967605,0.32456349860425543,0.5222865588064148,0.3473411901494543,0.4600152554185297,0.34949889144299545,0.2269461858384482,0.3438857226189362,0.6674860592506486,0.3020881182689424,0.2816036399936046,0.1108680623067764,0.35049731017404095,0.41250326606893273,0.2428928262529607,0.15314930804972512
48,347950.75,209412.0,"[1,2,4,5,7,9,12,17,20,21]",10,0.1707430715227426,0.26245756078654664,0.37703532690884894,0.2978481390843691,0.2984166530940009,0.23339511366406387,0.25650875601754664,0.43053729792028095,0.26147408072518463,0.10998474248106332,0.2501549975901145,0.16973619555584646,0.16538507794853075,0.25511429183043627,0.19171308548603092,0.06508817402592931
48,250440.25,141585.0,"[4,5,6,8,16,18,19]",7,0.17333309993959087,0.3779551107413076,0.5016283807968647,0.3065513800420436,0.48769767880547776,0.23780622499997642,0.2664139233892151,0.32087729281586735,0.563403779799581,0.12464434582454764,0.24514336596240566,0.09564733271367733,0.3081640342378286,0.3311306891771084,0.1859780313615715,0.08631335096211537
48,71890.25,42550.0,"[10,11,13,14,15]",5,0.3255522867711463,0.2629594420070788,0.5136301845545561,0.36225212287178066,0.42675956486302047,0.30262838339018133,0.2468750896294427,0.3399774781311335,0.7454712253736941,0.4173956487073094,0.29504980015621274,0.11392622867006882,0.37604633814687566,0.4342332410762085,0.2565722237517136,0.18166900285572474
72,412570.375,238595.0,"[1,2,4,5,7,9,12,17,20,21]",10,0.16947228676552017,0.27374443086961503,0.37016767819279156,0.30965413503201694,0.31186300593303573,0.23263955715781603,0.2554745886319965,0.4273858422989603,0.27798840291114596,0.11082397705679384,0.25222311209767345,0.1600309239220792,0.17540085219022702,0.264882291505505,0.1942553926800254,0.07158387027013717
72,348324.875,206689.0,"[4,5,6,8,15,16,18,19,10]",9,0.19804434109757918,0.35824909030245117,0.47564741366084173,0.3340754799273634,0.4650125629868988,0.2443391795434257,0.2627994244848463,0.3247312233532054,0.5597171244704268,0.1645717648951128,0.2594360624479089,0.09886841529820208,0.30270191491331433,0.3433841232759648,0.20152121629084102,0.10237855292771396
72,49777.625,21330.0,"[10,11,13,14]",4,0.3296151603511149,0.27046021561117767,0.5077033262209519,0.40648352760018985,0.4175982020538921,0.3487124717954772,0.22781814239823062,0.3444256579979643,0.7117751844375361,0.4248146880396841,0.3165780843586612,0.12065378172694319,0.3771841993383397,0.4519768636122746,0.29336742837738,0.2158473672449401
96,350825.1875,139820.0,"[1,2,4,5,7,9,12,17,19,20,21]",11,0.17776721129166168,0.26997310644317085,0.3691317043632763,0.32144694455606376,0.30711387522432365,0.23286717819109037,0.26207881921930615,0.4509364148566539,0.2655704799936636,0.11612593255883366,0.25504448862742884,0.18363670979172333,0.17714788001057255,0.2855472493507471,0.19799808371132618,0.06791818688109617
96,342304.0625,171943.0,"[4,5,6,8,15,16,18,10,13]",9,0.2073450824911722,0.3773376270518862,0.4889979010307995,0.35112171786080204,0.48671818820977275,0.24695177954798536,0.28230045989940084,0.3411881122247798,0.5649501592928997,0.173693682635895,0.26134377975618567,0.10331614790808333,0.32923202940859275,0.3910470810756444,0.20257523806357772,0.09794861938315931
96,43031.1875,19061.0,"[10,11,14]",3,0.3390717607592245,0.2724589261223942,0.5052790647028564,0.4247121912050758,0.41869754059145864,0.34326185869173786,0.243428879246935,0.3578568461678237,0.7139148489858533,0.41305802325117885,0.32166699931963083,0.12620116014875926,0.3785490177310769,0.4740010852733449,0.2857539319130063,0.20598496463065968
120,310090.65625,139142.0,"[1,2,4,5,9,12,17,20,21]",9,0.18021071531395993,0.26902552871851043,0.3795582516489752,0.32931332038757305,0.30730953328017413,0.23169817464583964,0.26820166848534244,0.45404749683973245,0.25624875458812857,0.11806682272486982,0.2585613050589401,0.1888118523616841,0.1766467458087036,0.2946389234426404,0.19534283999439836,0.06483179785504728
120,403038.96875,227423.0,"[4,5,6,7,8,13,15,16,18,19,10]",11,0.20034284128788385,0.40492253239846754,0.5057115029052831,0.3619364108129584,0.5170786004950128,0.24864090103567965,0.2943689842749517,0.3546593694534911,0.5643385676925612,0.1594143773607916,0.2595555036166533,0.10419437456084489,0.3514313508553594,0.43006238185885654,0.19550217360439406,0.0891421638282582
120,48871.59375,27356.0,"[10,11,14]",3,0.34794314788311764,0.27281233368185476,0.5128916591975358,0.4477298303401753,0.4273427880159034,0.33920167775469445,0.2512584475085697,0.3714391406609343,0.7223811614679341,0.4072840597922445,0.32153792835780975,0.12718566058033032,0.38436070362982816,0.4968234139679757,0.2662780630945159,0.18757889707363556
144,277735.328125,122690.0,"[1,2,4,5,9,12,17,20,21]",9,0.18533005726729504,0.25848778603401595,0.3730433517413478,0.3620944537549665,0.29666928023431355,0.2331625893055518,0.27442977699209775,0.48131510137384054,0.2424794525224923,0.12219822511104003,0.25952925992251,0.21741977069169055,0.1767089850757769,0.32019264369507044,0.1967347903226815,0.06233267357634756
144,124985.140625,55007.0,"[3,7,10,13,14,15,16,18,19]",9,0.2872834927632615,0.31350944425044874,0.49536209236661355,0.43353450850909986,0.45347837363004945,0.29814883690541194,0.28388701094705787,0.37259572018238957,0.6577438073540748,0.2777383879616809,0.28647704762435877,0.12741953212561774,0.3434925593147938,0.47456683372554154,0.21373928998113553,0.11763347134790997
144,288119.1875,146875.0,"[4,5,6,8]",4,0.1779648446023437,0.43724922646201997,0.5049604901663775,0.3750312394242816,0.5409762379743528,0.23056159052637723,0.3156361522244895,0.3615782871009544,0.533574804057917,0.13768804985345315,0.247044229483126,0.11056316322654829,0.35968358687431146,0.4497931173374554,0.18799268021162513,0.0757885948264711
144,29987.625,12846.0,"[10,11]",2,0.3331710058945057,0.27032125377943284,0.5163674233428197,0.47709189138579394,0.439640728585107,0.38399933704972733,0.2509354834584427,0.3797845449634717,0.6995671570375855,0.3929694397094873,0.33452615482951387,0.14094634144623255,0.37153713623084955,0.5279068693638321,0.28565860356912953,0.20666911678329
168,492046.765625,272857.0,"[0,1,3,4,5,6,7,8,9,10,12,13,15,16,17,18,19]",17,0.19677385857512905,0.36255330201912395,0.48438107385374835,0.4042986053317794,0.46912391175428064,0.250602634925538,0.30260998471309636,0.36221219250850695,0.5126427570247266,0.1658971555357384,0.2614518599310573,0.120703893861727,0.30474157332853546,0.3938313906452064,0.1933684191836084,0.09111744442551752
168,198735.8046875,92570.0,"[1,2,20,21]",4,0.17287169388989518,0.2419868245516281,0.3460343868704343,0.3818068516112656,0.2788959981745692,0.2328938977087906,0.274690421752887,0.5067691463946529,0.20611626060045507,0.1178508026163707,0.2562856288280543,0.23184853155652158,0.16296483460858127,0.31872471702031097,0.20045365991104766,0.059396986672551604
168,63752.8984375,35304.0,"[10,11,14]",3,0.33642320250771834,0.26027667017886863,0.5127407298401241,0.5034799250040595,0.43479806982309926,0.33931438515810336,0.28289288810315044,0.3688428647917056,0.7076314575256298,0.41618435365248085,0.3220764196957177,0.13770895779490605,0.365085120036829,0.5094302831016239,0.2609105443898656,0.18518783246821013
