time_in_hour,cumulative_size,size,pcore_ids,pcore_power,AF700 CD48_[R 730_B-A],APCCy7 Ly6G_[R 780_A-A],BV421 CD117_[V 440_F-A],BV510 SCA-1_[V 525_E-A],BV605 CD11b_[V 610_D-A],BV650 CD150_[V 660_C-A],BV711 CD11c_[V 715_B-A],BV785 B220_[V 780_A-A],FITC Ly6C_[B 525_B-A],PE CD115_[YG 582_D-A],PECF594 CD135_[YG 610_C-A],PECy5 CD3-CD19-NK11_[YG 670_B-A],PECy7 CD16-32_[YG 780_A-A],PerCPCy5-5 CD45_[B 695_A-A],_FSC-A,_SSC-A
-1,0,0,[],0,0.0,0.0,0.0,0.0,0.0,0.0,0.0,0.0,0.0,0.0,0.0,0.0,0.0,0.0,0.0,0.0
0,175993,175993,"[0,3,4,5,6,7,12,13,15,16]",10,0.1750517311565009,0.3934166807823628,0.49870556351737183,0.30702369889403797,0.4972083897441832,0.239950658665981,0.26701755752749123,0.32035637958085755,0.5632123712937479,0.1359839002267959,0.24789639802639668,0.10023681408007086,0.3211319890185801,0.3681865992003016,0.19215213103491374,0.07641500519346511
0,113830,113830,"[1,2,14]",3,0.1770100696483097,0.23815273651536648,0.36207850496970095,0.28299493040842455,0.26233771400529865,0.22917750969140577,0.2547057928968609,0.44820009671683964,0.17487715600380432,0.11025118909576558,0.25198395133189083,0.1837847476041864,0.14285115105709767,0.2232716924608011,0.19581698114939847,0.055383941237341576
0,102595,102595,"[2,9]",2,0.16729895469379574,0.2317055614793364,0.3001935063577598,0.2859441461686068,0.25795681775502943,0.22369038815084547,0.24984102126160881,0.5324879421789951,0.1598549097688141,0.103096408600024,0.246253933041755,0.24066202805306222,0.14878449746810632,0.3005378892591062,0.20013992049103588,0.049197095999767654
0,15806,15806,[17],1,0.341207106632018,0.24804357246736947,0.4577837797587892,0.3170012841706852,0.4099301096120327,0.17494037973028367,0.283582967444471,0.3199313632694812,0.7886164146366352,0.437517634378704,0.27159881509432354,0.10207450524591902,0.3713959869980701,0.4037651591870283,0.2119885760675752,0.09913853761789118
24,365177.0,176766.0,"[0,3,4,5,6,7,10,12,13,14,15,16]",12,0.18347822381453827,0.3734118991395241,0.5116341537714529,0.3168624631282559,0.47935889881595783,0.2471385949885946,0.2666615751415031,0.3264229338577382,0.5549871783770673,0.14498703158847911,0.2509633312300914,0.10368917910208598,0.30454706936759807,0.3610833938831571,0.1955334299231952,0.0888942820079887
24,220597.0,114411.0,"[1,2]",2,0.17028495010991715,0.23617807394687532,0.3429938682052386,0.2817498109908067,0.2575874302638734,0.22786961143736584,0.2525860492380672,0.44987728883691375,0.1682855915198397,0.10241065856040668,0.24762313271732017,0.18336934800596918,0.1352345786837104,0.21856538701394854,0.20366164187976657,0.053976449426879076
24,77272.0,39200.0,"[8,11,17]",3,0.3286372276063322,0.2618437266332503,0.5213550792504695,0.37249935473630075,0.4247818705757654,0.31743538541267957,0.23539704369834866,0.3454631525792542,0.7498165916287224,0.44427871725418105,0.3069334646696615,0.11789147128194315,0.37607277340538803,0.44786690396810447,0.2797310128730423,0.20720738422054927
24,206439.0,103844.0,"[2,9]",2,0.16610561553022388,0.23077531604882476,0.3035596953632815,0.2915422001397443,0.25470939850589946,0.2269119475811699,0.24917162347498922,0.5328955067733552,0.15786346200823437,0.1012911371215485,0.2456095166632448,0.24045221122690041,0.14350685332652513,0.3043391315122146,0.2068318068404285,0.05164721297089043
48,514947.0,156724.0,"[0,3,4,5,6,7,12,13,14,15,16]",11,0.17999639011619814,0.3742733757375632,0.5079806270001854,0.31130391007458974,0.4775546431987772,0.2440481838397497,0.2663881175180674,0.32357890505607373,0.5549905430191918,0.1299205809063304,0.24775987780734826,0.09989714895613154,0.3015810176866677,0.3445001391273357,0.18769217422468004,0.08433981176621008
48,345230.0,124633.0,"[1,2]",2,0.16929354308668168,0.23673250383247965,0.34289894952866895,0.2831373213529737,0.2583641466250561,0.2278417994709931,0.25447310317930855,0.44646639338977545,0.17256600874547634,0.10220083235558221,0.24753780451721313,0.17636789282436163,0.13507787508440236,0.21424212808328807,0.1984677307697762,0.05611082527681635
48,128036.0,43810.0,"[8,10,11,17]",4,0.32564317801634396,0.26188380995719285,0.5174802757241818,0.3716842805873416,0.4250638792720764,0.3153156364904879,0.23945314871108936,0.3415149701337055,0.739031304671571,0.43585016400357696,0.3050479972846892,0.11666405993643583,0.3762567017474827,0.4441541342005496,0.27200000705027555,0.19968896493542296
48,303733.0,97294.0,"[2,9]",2,0.1658658901276818,0.2310363094246709,0.30216281257733596,0.29186862041770917,0.2537063108567159,0.22775469207213608,0.25006282657216267,0.536457579839209,0.15882275065852816,0.09965811743750615,0.24517453470016315,0.2360248658631301,0.14440300604390977,0.2974298068873261,0.20472861868193015,0.0529498743510888
72,773269.0,201642.0,"[0,3,4,5,6,7,10,12,13,14,15,16,17]",13,0.19378218678726383,0.36042770172299254,0.49293233761280086,0.3234969807286251,0.465595795338054,0.24152369487668163,0.26636065539342185,0.32739804427407543,0.5589511659864981,0.15799018357707903,0.2552990712762981,0.10246289344423683,0.301656924138671,0.34929859706618144,0.1968403406929054,0.09475985625821498
72,565156.0,140801.0,"[1,2,9]",3,0.16631563226433263,0.23736865488207629,0.32975988077424834,0.2957005735356204,0.26074837809008283,0.22774465056311835,0.25219471458595694,0.4790527204126634,0.17387969588092533,0.10247350517216627,0.24779727071370045,0.19750902549678845,0.14171880799835626,0.2590984373352168,0.20138836155855108,0.05772438304137671
72,88913.0,17557.0,"[8,11]",2,0.32513366888228873,0.268225180402827,0.5229407973380582,0.40099131178172814,0.4267411561265034,0.3884142502809708,0.20729297386796292,0.3509156126453993,0.7238284041673603,0.4366166997199368,0.32225857371707983,0.12175919967235749,0.3795879213749969,0.4645156427758906,0.3058588707549701,0.2428973445659942
96,941301.0,168032.0,"[0,3,4,5,6,7,10,12,13,14,15,16,17]",13,0.1959774122983068,0.36794187707412973,0.49576179660165953,0.3309834903185862,0.4731199803341735,0.24137715123291248,0.2735349257529749,0.3329631483704218,0.5581264121382462,0.15910279849573186,0.2561270367844373,0.10344218372675935,0.30958688561209774,0.3635015161246559,0.19694637565382314,0.09338638788278224
96,548914.0,81887.0,"[1,2]",2,0.17093991744820244,0.23953648670017544,0.34065319759248763,0.2902640845793396,0.2609052996248504,0.22730504726540404,0.2551317692235449,0.45688034634188673,0.17262630215594685,0.10325816785904995,0.24876846251545556,0.18087394797080897,0.13978612545682226,0.22278110393892567,0.1994827866879942,0.05812363423932723
96,108113.0,19200.0,"[8,11]",2,0.33030962908238737,0.2686744652529574,0.5195455602225224,0.411705905667872,0.4271672069988919,0.38879486855831424,0.21227903973239973,0.35572741814359154,0.7249259518747247,0.4334352961489051,0.3251858370828078,0.12413247241596875,0.38151013348109536,0.4770864279018422,0.30439939968652024,0.2383265615543389
96,502228.0,92423.0,"[2,9]",2,0.1695488158882214,0.23410162186939834,0.3051147575482139,0.3023991886954297,0.25734415539557765,0.2266080864516194,0.2527796267366619,0.5337208925733479,0.15875677601129043,0.10267721055034366,0.24711251455710137,0.23395193437120465,0.1487279036031054,0.3016071903028903,0.20546228539589087,0.05500366530984099
120,1176132.0,234831.0,"[0,3,4,5,6,7,10,12,13,14,15,16,17]",13,0.19632581893486256,0.3789611837988968,0.502425617081518,0.3391473788871668,0.4858735617905558,0.24175133195380527,0.28035859483835557,0.33825358767945984,0.5591914125343329,0.15691438997225757,0.25660114657179006,0.1031734439996107,0.32065159165153834,0.38183913361332233,0.1948406529746905,0.09096394998063802
120,627034.0,78120.0,"[1,2]",2,0.17124666487115883,0.24040021498235947,0.3428805213992266,0.2924306278914198,0.26140498050114946,0.2270569401469366,0.25629813113650884,0.45641889635102145,0.1726407987123721,0.10392740523745958,0.2499962087116534,0.18197961349166322,0.13956523909064245,0.22368165072572785,0.19930605539024845,0.05766034975714736
120,129173.0,21060.0,"[8,11]",2,0.3357814216693735,0.26988002467059063,0.5199016020293865,0.42279042451071425,0.42874187379525225,0.38997718745868337,0.21514905363462924,0.3605367495815256,0.7247488344969016,0.4326411891085389,0.32787858405144155,0.12584688201104635,0.38412773141854073,0.48823512087457516,0.3010198822750806,0.23434883887380575
120,576101.0,73873.0,"[2,9]",2,0.1700250022435792,0.23426134256172423,0.3061308720333377,0.3066909005415345,0.25812008258549096,0.22648678166575315,0.25460049693428355,0.5369861679824525,0.1583937861559119,0.10376514168993725,0.24814358745050075,0.2385901467249169,0.14903912940978503,0.3082041394637129,0.20541345504902903,0.05440232980832562
144,1369797.0,193665.0,"[0,3,4,5,6,7,10,12,13,14,15,16,17]",13,0.1978714768552902,0.3834016865501852,0.5037389788620781,0.34995157580045466,0.4910554487398886,0.24229012417216542,0.28661913506718634,0.3422891959816231,0.5581335677414627,0.15906581274553214,0.2562115119787745,0.10561417455138498,0.3254813073542714,0.394727200492703,0.1940080335997852,0.08941276079393158
144,698343.0,71309.0,"[1,2]",2,0.17284754601640503,0.24033439372143017,0.3441968874158095,0.30076536133379134,0.26175806556569753,0.22756826150639264,0.25849226610191284,0.4607243425968428,0.1733779496072245,0.1049804562235425,0.2506963476003697,0.18759135225555593,0.14130556079396614,0.22900324877091546,0.1991241363773518,0.057290468432264464
144,151430.0,22257.0,"[8,11]",2,0.33725170791023346,0.26838816135753,0.5168647917706999,0.43450669943061077,0.42901526638485604,0.3887579514890963,0.21974907173136232,0.3649407581585257,0.7248511843594768,0.4334568704412779,0.32886793059597325,0.12974013812004673,0.38228306580844734,0.4982248169938319,0.2981967364411233,0.23008190883697477
144,661499.0,85398.0,"[2,9]",2,0.1716497814876121,0.23350835703613348,0.3066319156116474,0.32003636177478484,0.2587242941629067,0.22684742182036066,0.25756953106522856,0.5441883421335699,0.1610019727262366,0.10543617911553115,0.24884391716916487,0.24819084449748371,0.15138739230689022,0.31922694190728274,0.20552985192191547,0.054024904240510825
168,1496595.0,213238.0,"[0,3,4,5,6,7,10,12,13,14,15,16]",12,0.18806920576329883,0.3875637594446864,0.5041658083037585,0.3579814129667541,0.4933565889254516,0.24756454729101313,0.2889165567061136,0.34295628616722884,0.5412944269149028,0.14464567313815144,0.2556272001223915,0.106140855176776,0.3190250311627025,0.3893245727436761,0.1923863377240866,0.0884404192409097
168,773057.0,74714.0,"[1,2]",2,0.17239115537321234,0.24119586085039416,0.3463635402092874,0.308835750334626,0.2645807943243203,0.22844335391124415,0.26067013820376134,0.4584322407437911,0.17734549335021094,0.10597167293018454,0.25124697623519604,0.18679398390306493,0.14309851485870032,0.231268339159491,0.1984962982929084,0.0578459597237031
168,278697.0,40827.0,"[8,11,17]",3,0.3401075432558932,0.2628188892158361,0.5017096570517551,0.4303828422659006,0.4266496114966022,0.31128982066320127,0.2544023296767346,0.35732885603934333,0.7421303793964222,0.4289118056093795,0.31297848730912753,0.12443817211069705,0.37701198998191354,0.48020584852765946,0.2674037959086208,0.1926204412270796
168,729152.0,67653.0,"[2,9]",2,0.17014474626059187,0.2330103129600364,0.30577090400571066,0.33024948330557485,0.25919766738814276,0.22768358182330553,0.26000102611783116,0.5500126239110937,0.16464787364768205,0.10655155665182862,0.24918962922868565,0.25140256140999767,0.15267074574040318,0.325103735552138,0.20603594972360223,0.054238243377856356
