time_in_hour,cumulative_size,size,pcore_ids,pcore_power,AF700 CD48_[R 730_B-A],APCCy7 Ly6G_[R 780_A-A],BV421 CD117_[V 440_F-A],BV510 SCA-1_[V 525_E-A],BV605 CD11b_[V 610_D-A],BV650 CD150_[V 660_C-A],BV711 CD11c_[V 715_B-A],BV785 B220_[V 780_A-A],FITC Ly6C_[B 525_B-A],PE CD115_[YG 582_D-A],PECF594 CD135_[YG 610_C-A],PECy5 CD3-CD19-NK11_[YG 670_B-A],PECy7 CD16-32_[YG 780_A-A],PerCPCy5-5 CD45_[B 695_A-A],_FSC-A,_SSC-A
-1,0,0,[],0,0.0,0.0,0.0,0.0,0.0,0.0,0.0,0.0,0.0,0.0,0.0,0.0,0.0,0.0,0.0,0.0
0,173460,173460,"[0,3,4,5,7,9,10,12,13,16]",10,0.17529455355476614,0.3960530159910416,0.5010182678550253,0.3062202566378438,0.5030492685786087,0.23946931457847276,0.26727445750052875,0.3201813493536568,0.570217590013443,0.13678200730253676,0.24759155591273752,0.09782225705442839,0.3259640435161796,0.3682428323887038,0.19211302401447172,0.07702838704037829
0,133971,133971,"[2,6,8,15,17,18]",6,0.1701516098137977,0.23482404255576297,0.3244409511713686,0.2873999394489152,0.2624139991425126,0.22469490596719077,0.2523977685982822,0.48663595948660593,0.17151321370727998,0.10733386687838972,0.24890647855426828,0.2149735052929649,0.1462505634671704,0.27661683651111324,0.1998857893507715,0.05036769312256345
0,27136,27136,[11],1,0.34923045252734586,0.24758104742899503,0.4622173885839971,0.3239092274454099,0.40308258193363555,0.2567688116652851,0.2551819697528009,0.32616832551640157,0.788599662811635,0.4456323973356857,0.2786106810010131,0.10389978146047715,0.37390532625400763,0.4145071257981155,0.22044071063995063,0.10781816149932408
24,157364.1875,148991.0,"[2,6,8,15,17,18]",6,0.1685540122343605,0.2337278390917473,0.33382725077010345,0.2970548626801301,0.2577761675271228,0.23052940971012603,0.25205649053912943,0.47884720183425716,0.17343093683703623,0.10373098493136305,0.24769520864520814,0.2091049360632431,0.13672963125418655,0.27466686730111356,0.2124761129275047,0.05605430200429917
24,159116.5,149206.0,"[3,4,5,7,9,10,12,13,16]",9,0.18140276220833945,0.3731060466343515,0.5081046489733357,0.31567525412646097,0.489425038159907,0.2406773663594792,0.269030306348728,0.3276393055539575,0.5853731244195105,0.1398201673520415,0.24448305846353716,0.0994596598980955,0.30501435450785686,0.3540610872279954,0.19212686046831554,0.09067962791821364
24,24889.0,23193.0,[11],1,0.3529046683620356,0.2582558920451518,0.5094251579787321,0.3412205826677499,0.4076706443335011,0.274905798171589,0.25866650168814204,0.35204280493251,0.8096178755040084,0.43830950400127494,0.2760970744253359,0.10933551972205108,0.37830322754083284,0.4161664397581668,0.22466596016782991,0.14404902433806557
24,17721.5625,16825.0,[14],1,0.27906607185014287,0.27463131307621064,0.5980655492291347,0.4601005094966521,0.4416819440175389,0.4346726019930957,0.1924914679600471,0.3540644078394602,0.6513520994299797,0.44861594502010066,0.36683216791541606,0.14854432252532454,0.35725459348769534,0.5216670513959406,0.3989062522771087,0.3656868804944354
48,156992.05859375,147336.0,"[2,6,10,15,17,18]",6,0.16736819499428157,0.23562222399798552,0.3301024195154293,0.29276358059457136,0.2565314976449271,0.2302148187909517,0.25208000392032276,0.46577165926989145,0.1906603481152126,0.10071578684840607,0.24660785566298016,0.19286955866522343,0.1367634408866847,0.25343019855040044,0.19667184635834456,0.05827914543691582
48,121088.65234375,113485.0,"[3,4,5,7,12,13]",6,0.1636104778342528,0.3717693522650192,0.48683289159266935,0.29761638272980573,0.47054605854775255,0.19755613674728142,0.27889829842640357,0.31010575779064425,0.5584327062209512,0.11425657390163352,0.24201054770996744,0.09058503526856097,0.2926207925734917,0.28844542909850507,0.17285701756725186,0.07851944355798304
48,46889.46484375,43548.0,"[4,9,16]",3,0.20733438115078,0.3894068852329988,0.5281283231821079,0.303935294746968,0.5215714712873082,0.3952126777738773,0.19295734801385606,0.33953032400141936,0.5913712058454423,0.12570126752362865,0.25201015032048957,0.08484929001177256,0.3449639040930489,0.34640660880330504,0.1865532095884819,0.09102528098267786
48,27470.5625,25915.0,[11],1,0.36452260922940877,0.2508238408489243,0.47222846471195096,0.32370110033250965,0.42371755539688954,0.26082997426470983,0.26099057529649333,0.32685453602785425,0.8098691869562852,0.44317919058283534,0.26822943974213476,0.0999959802426507,0.40190105418082334,0.4147746040935767,0.20740929310483844,0.11998189333330087
72,159570.72534179688,150115.0,"[2,6,15,17,18]",5,0.16505875149894894,0.24685748356007448,0.32399204373151747,0.30747614706907705,0.2712171939134102,0.2271480310094307,0.2506460873968182,0.47753991654772765,0.1834504527259114,0.10323141526806297,0.24877081996022757,0.18067320257320288,0.150838517726048,0.25946087481979696,0.20053435199116018,0.06570499384674638
72,174884.6240234375,165211.0,"[3,4,5,7,8,9,12,13,16]",9,0.17907599839694457,0.36986363646442044,0.4605622485779166,0.33682537863063,0.465479502369955,0.23772342686527553,0.2643002304589969,0.3292987077034344,0.5165443890144027,0.134736741092107,0.2617504589351555,0.09960945654557148,0.28757710477688975,0.3325085970385968,0.20301155391749134,0.09852909277923246
72,21249.91015625,19533.0,[11],1,0.34451989262493443,0.26431670888639575,0.4135765729436041,0.4136072760797204,0.4062798928013934,0.2594396655273521,0.25317058830039163,0.33644530093716013,0.7634628457895678,0.40792082469791036,0.2804137165164338,0.10715973875145673,0.3696329813407742,0.43274800175404987,0.23271319330031504,0.134981530794509
96,120599.91242980957,110743.0,"[2,15,17,18]",4,0.18306219163396856,0.24094659850591454,0.32896575493229413,0.3237629552968661,0.2670523018814182,0.22450577003913996,0.266034010968949,0.5191801737954065,0.17444219742097639,0.11488543528194836,0.2551808095960268,0.24039278633565467,0.1561661585101503,0.29532504795478237,0.2070385589048895,0.05546300055193414
96,145712.02862548828,134895.0,"[3,4,5,7,9,12,13,16]",8,0.18604496598069578,0.43158158611742103,0.5108316586832176,0.35002194783978285,0.5417029105551519,0.24082121704507742,0.3019693952259905,0.34918722261553614,0.5498833747975232,0.14389667860849992,0.2524908613189381,0.10052913464946181,0.36222912670923796,0.42761810239005393,0.19746382333234033,0.08357035103101416
96,22646.119384765625,21318.0,[11],1,0.37611462283817776,0.2578082479457187,0.453779578436141,0.4274792530798102,0.40535265355498734,0.26158711902202486,0.275174775769139,0.3631402688237408,0.7850502068487988,0.4056940023715273,0.2952672518410819,0.11435251723471647,0.38353211413455796,0.4734955208082901,0.21808303009522995,0.12144564560522049
120,111766.4945268631,104229.0,"[2,15,17,18]",4,0.17358632803097504,0.24332792169933506,0.3473725197300847,0.3271835765894817,0.2706324721805814,0.2248886212028043,0.26755733405731,0.4960900894433403,0.17843195684040433,0.11415740481132741,0.25879419775359663,0.2245085344495614,0.1487755668575746,0.29085730411387417,0.2003727297668301,0.05444463154354864
120,159750.21451091766,152765.0,"[3,4,5,7,12,13,16]",7,0.17406955282716277,0.4319539141206351,0.533461767945711,0.36126802879579445,0.5573247943390065,0.18735361034621595,0.3373011708193784,0.34998999235363504,0.5601840753925025,0.12834731961890872,0.25013759916031125,0.09971380733609665,0.370532812220503,0.4447704782375326,0.18586784547122157,0.07829931697285059
120,115105.27356624603,110308.0,"[5,9]",2,0.1713988824981831,0.4990551850861809,0.526320174119375,0.35451097742550025,0.5911390151435888,0.2328869964708087,0.2966065727935669,0.35981642766539423,0.5592133224655822,0.12494765554091143,0.24519644861337395,0.0945379411001896,0.4062283053880657,0.4991119698531745,0.18826662875660133,0.07203895513842345
120,34468.86991214752,32463.0,"[11,14]",2,0.36435437661332226,0.26698284655298876,0.5087047073051727,0.46727970059116464,0.43153515025073197,0.3112479027409896,0.256618603945446,0.3769289375572097,0.7434753037286111,0.42737638019722074,0.324488273269975,0.12759783458599944,0.3944256990338225,0.5183575959859571,0.2545263923176775,0.17850115352071044
144,111961.40590792894,104976.0,"[2,15,17,18]",4,0.17944673330253313,0.23333700331064128,0.3293859738717483,0.3919734260163453,0.2665841175474846,0.22678736859947735,0.2772397808063947,0.5477927282117292,0.1879681765812188,0.11839808455935237,0.2561001725471418,0.2768698071115704,0.16426666296371398,0.34642996061633524,0.20279764171267625,0.052920809705803186
144,139690.96712976694,129738.0,"[5,7,9,13]",4,0.1747666753609689,0.4770203273062826,0.5253713080625764,0.3788768257059386,0.5844882382136781,0.23754661588707293,0.32174198825147793,0.3558262855970402,0.5411825627770781,0.13487723428497975,0.238419135066397,0.10308422765156956,0.3950861699456357,0.4788690248140501,0.18712839614104496,0.07099785066735853
144,40142.30436950922,37988.0,"[11,14]",2,0.3568862824624046,0.25917651883067355,0.5069569644274216,0.49638768013502343,0.44942623839613494,0.3047628074737889,0.28833378514274255,0.366995731587449,0.7415895405405437,0.4575799990536334,0.32117260582966456,0.13858569938550389,0.3796050397304706,0.5444632453525214,0.25532752356802474,0.17708143049931332
168,105461.58786924556,98464.0,"[2,15,17,18]",4,0.16165659463395354,0.24101758978000618,0.33811996363398233,0.40358830669495827,0.2829106019776217,0.23745487044667765,0.2795558224597545,0.508623096413796,0.2221525146950271,0.1183339230746051,0.25559090533194506,0.2262420732182192,0.1653827109995012,0.31572453450881083,0.1979911188459208,0.060446151897950794
168,160713.17213502154,153548.0,"[3,4,5,7,12,13]",6,0.17616153760452613,0.3663143326034264,0.4829200920970851,0.403935717558351,0.48268753993633323,0.200861395927712,0.3205783411503933,0.3369514399985855,0.5308473161593977,0.16076064363987277,0.2542312178766816,0.1060453447653946,0.3031351284439777,0.3567825141830077,0.18401316488054156,0.09254447007785745
168,76570.66961527988,69927.0,"[5,9,16]",3,0.18124680986911373,0.44196927532663166,0.5281151518317312,0.39620609630223147,0.5755867180972546,0.22562776396454506,0.3180587414313227,0.34795871993118055,0.5188979573554271,0.14975616308316242,0.24291110377710465,0.10224710755789566,0.37076949895302125,0.4349282155773457,0.19763098919845515,0.08575433941897959
168,40165.894023094326,37657.0,"[11,14]",2,0.3345623075531749,0.25904432808829475,0.5349972502473387,0.5230538652437807,0.45708797681216246,0.3299702781845585,0.2912953969712965,0.3516527696828818,0.707111320638525,0.4430790782264977,0.32835831937110543,0.13675590071220897,0.37410120850724904,0.5206656029432704,0.2785438870317598,0.20791939855132893
