time_in_hour,cumulative_size,size,pcore_ids,pcore_power,AF700 CD48_[R 730_B-A],APCCy7 Ly6G_[R 780_A-A],BV421 CD117_[V 440_F-A],BV510 SCA-1_[V 525_E-A],BV605 CD11b_[V 610_D-A],BV650 CD150_[V 660_C-A],BV711 CD11c_[V 715_B-A],BV785 B220_[V 780_A-A],FITC Ly6C_[B 525_B-A],PE CD115_[YG 582_D-A],PECF594 CD135_[YG 610_C-A],PECy5 CD3-CD19-NK11_[YG 670_B-A],PECy7 CD16-32_[YG 780_A-A],PerCPCy5-5 CD45_[B 695_A-A],_FSC-A,_SSC-A
-1,0,0,[],0,0.0,0.0,0.0,0.0,0.0,0.0,0.0,0.0,0.0,0.0,0.0,0.0,0.0,0.0,0.0,0.0
0,129709,129709,"[0,4,5,6]",4,0.17171421893260616,0.23626439718002473,0.3343843872350404,0.28701897245744534,0.2667275187785569,0.2251340545939856,0.25218313013674176,0.4841489990832327,0.17553543146598063,0.11074693211332835,0.24914569408191486,0.21194212102751028,0.14975140045666321,0.27467606900180486,0.1999053059341984,0.05246413012807224
0,183376,183376,"[1,2,3,9]",4,0.1806813345349593,0.3848579964982842,0.49839375771469224,0.3138047462091361,0.49032004253918837,0.24550470797956914,0.2636352898033216,0.3261153956437508,0.5616324162506385,0.15164831843248894,0.25376383367935074,0.10417806671411589,0.3208000346233755,0.3751487557665563,0.2011631830849211,0.0888588316664856
0,14810,14810,[7],1,0.20511681253582795,0.2793630018240144,0.5160966723401536,0.33058395725428774,0.3341726325326415,0.25374097917163746,0.2697951545046529,0.3488655180851171,0.32293602399887,0.16470351590110788,0.2807375892020866,0.1338691594927748,0.2020603107358616,0.2728529873024185,0.19480745575553035,0.0960559678139761
0,31870,31870,[8],1,0.3343397381356281,0.25608022508043593,0.49710043759689143,0.34247774857217733,0.41774185381975104,0.3030831676954253,0.2383803158592552,0.3306850800294351,0.7636549275746025,0.4309923679535112,0.2906326697077299,0.10893517576091438,0.3774944640271025,0.4255767588446961,0.24557608540865855,0.14146383522569705
24,120603.8125,114336.0,"[0,4,6]",3,0.17343550354321582,0.23786126458065698,0.3611130648075431,0.2898939740855809,0.2632364707969953,0.23037242970009209,0.2529844186546134,0.4397908698623434,0.1831723690537127,0.10747272945129818,0.24886099607158035,0.17771419348962106,0.13754094634956737,0.22940389764801913,0.20968538645050389,0.06131201989387273
24,171782.0,160321.0,"[1,2,3,9]",4,0.1864813669826189,0.3680492002525446,0.5111144304862587,0.32311288786422854,0.4845975094954532,0.25046478845953035,0.2643893254202856,0.33183545261870523,0.5817070867423222,0.15537364390060138,0.2508586304919685,0.1052257178563624,0.3069738171066635,0.368284112061526,0.20505592160933095,0.10555718550130246
24,37239.0,35400.0,[5],1,0.16366393355608547,0.22905282270892016,0.30049425454594475,0.3246634935170673,0.26116323289367066,0.23667561686960337,0.24792443572027334,0.5846048653423547,0.17853767654644861,0.11175544632406488,0.24870499095769133,0.2900415142392638,0.15323036468755802,0.41347399313788546,0.22072176455886494,0.05695979814871193
24,54830.1875,52064.0,"[2,7]",2,0.19168772151049374,0.3332339964083915,0.49719541791399996,0.3306209569045856,0.4109855694064176,0.2712569064752346,0.26047711489851066,0.3382316983894533,0.48169684132518276,0.1573836108098205,0.2642895460337938,0.11329560540654017,0.25289113745246417,0.3174529896946856,0.1994677020577388,0.10831476736250843
24,33123.875,31132.0,[8],1,0.33097874836870655,0.2639925376795818,0.5341214246491583,0.36737241252347547,0.41400575486358765,0.32725321771341886,0.2403345321403496,0.35458606898432316,0.7736031335103233,0.4253583072875661,0.29341520164168167,0.1179568803037268,0.3690300914292,0.4323177550431547,0.2591856426377597,0.18372690332410477
48,75020.3203125,71175.0,[0],1,0.16346235384601582,0.2322744924335362,0.3115239667918611,0.27089549439779886,0.24821959100980653,0.22307306170356983,0.25162792985702553,0.48729758023061426,0.13673422217181394,0.09250698464210586,0.2418967767640814,0.18448650404269706,0.13328884280240408,0.19760146639030524,0.19757235813948143,0.054459034661134526
48,17744.55078125,16287.0,[1],1,0.24051713823085868,0.3022207533343283,0.6294080270286151,0.3272581242103343,0.5314801208609868,0.34396482344517837,0.24479854501565776,0.33348806085156724,0.6841645676391622,0.14063983657372744,0.25714100567357,0.09298735726744134,0.3689262230662035,0.3459370980779569,0.20888423974891634,0.13701693912394394
48,59811.34765625,57618.0,[2],1,0.17463001876842116,0.32758891669515017,0.4482923694337426,0.30459102385413245,0.3910713234413385,0.2546610042515142,0.25798362382651985,0.3163386117896892,0.5640038745809369,0.13049995834589273,0.2540461563237645,0.09869165900976969,0.2304970103448289,0.24219066563803565,0.17314636086872925,0.0813860783259372
48,33844.19140625,31315.0,[3],1,0.19400673889987785,0.438849714476325,0.4977157587357892,0.3037815093622606,0.5365853323030064,0.39713262231762836,0.19507005539951755,0.3329513001562236,0.5618676360252173,0.13061211710770476,0.25206625840587865,0.08673688547661058,0.36234710413825955,0.3941920815978979,0.18983555702629656,0.08498718834866373
48,47255.73046875,44766.0,[4],1,0.17362825027283413,0.2534041081669238,0.43610698052918306,0.30043350050214973,0.2854584492234109,0.23475925614942067,0.26358417342689205,0.31851036385240955,0.2524636008390613,0.11630334056334403,0.25750085423028424,0.11080018330798157,0.13660375565306485,0.1741490874088631,0.1700980979946103,0.07245485626031446
48,34058.4375,31731.0,[5],1,0.16103493933254753,0.22827584429072248,0.2772593526993116,0.326023277998098,0.25470838701829135,0.2380675813860997,0.24554050443945194,0.6107164150014608,0.1731977689476354,0.10138431520212902,0.24615987350361876,0.29282727417387056,0.1552938974012861,0.41768278461025965,0.20866443417611322,0.053453195353372035
48,34240.2421875,32170.0,[8],1,0.34556483922900927,0.2552213866977378,0.4971462158887975,0.35574038365811284,0.4257956099881832,0.3026205370108622,0.24384347088054567,0.32977227348060206,0.7662899552436775,0.4460593703565843,0.28988736870204634,0.11000753999368704,0.3927334442311716,0.44601588500573314,0.2472364341481333,0.17072252984086414
48,52090.28515625,47534.0,[9],1,0.15095188244541924,0.41172699079357816,0.5139372284043248,0.30235566665127783,0.5431280905361588,0.09967255150843332,0.3221959177271244,0.3051387700411675,0.5839216746597665,0.10955534179528514,0.2302616638557245,0.09246447187824415,0.35291492479743714,0.3688375313694085,0.18661201154867246,0.08219838586263498
72,162255.90551757812,152485.0,"[0,4,5]",3,0.1683431457563787,0.25158363030915926,0.33938616743386046,0.3104716959589111,0.2802310904969294,0.22786742219019362,0.2518814350302718,0.4691281793025508,0.1987953331884259,0.10749380338063348,0.2504774960231693,0.1762345790822444,0.15797075820082906,0.2640662907003448,0.20119600329668444,0.06941986678418967
72,186005.78198242188,176285.0,"[2,3,6,9]",4,0.1828935919234426,0.36173528644601377,0.4517099921450753,0.3423453856683757,0.4513810782906389,0.2425719386693271,0.26108094321179076,0.3353741962209903,0.5058221689587424,0.14484458698135882,0.2659184173481636,0.10637593125047094,0.28174817536356467,0.34023167048246966,0.21117914350112443,0.10754230606820608
72,25874.01513671875,23734.0,[8],1,0.3284961693540783,0.2692830983320321,0.44275071130185634,0.4194474437272817,0.40475126620619517,0.29826781485744513,0.24081190298235197,0.3430222777550983,0.7374791047596002,0.386335564376075,0.2919491454357443,0.11377507779704472,0.35930932259080456,0.43205674053450116,0.25438402530125864,0.1646351043355676
96,105657.27639770508,97900.0,"[0,5]",2,0.1875697729178194,0.23938479329804507,0.32766712464427755,0.3270985710588355,0.267294018693591,0.2250439202373055,0.2657452576413506,0.5321818622258965,0.16772489728477696,0.1162127361273572,0.2542657937403403,0.25055818138159586,0.15999716126956406,0.3175550639135502,0.20740885185196706,0.054959217298856666
96,65461.58102416992,62275.0,"[1,3]",2,0.21186545766266232,0.4267395003441189,0.5154022867927922,0.3671197684603811,0.541997226204711,0.3676226314163389,0.2659836668275309,0.36610439237977516,0.561724275638986,0.16970903725507977,0.2698797124682229,0.10618551043111898,0.3735372534992656,0.46004393814802863,0.2164284593789614,0.10344930406486454
96,91675.7200012207,82750.0,"[2,6,9]",3,0.1810869599686281,0.4075706294137264,0.4931581269140244,0.3574241956971435,0.5124658768875874,0.1619758718196873,0.3260126864182824,0.3518650306985285,0.5482042635829936,0.1460907050468689,0.2509308111775975,0.10850716659127344,0.3381967906489639,0.4204139693467093,0.19677898440680675,0.08525641547702723
96,22808.717697143555,20425.0,[4],1,0.18431149716208195,0.2841463746066541,0.43105397315496413,0.3356860680812409,0.32147142884893504,0.238807911840108,0.27324909198312264,0.38453532622356407,0.3132658984846636,0.13025028877423275,0.26867867242277294,0.14301869121915234,0.17848489200087622,0.22574094748532186,0.19814528553064492,0.0757830327051878
96,27705.125946044922,26088.0,[8],1,0.3571252840636772,0.26097471785810433,0.47203068631161793,0.4368983168522677,0.39726231296689385,0.300023734035178,0.2693547968643569,0.36844090307366284,0.750200517527159,0.38266551229048323,0.3069006380782843,0.12461963227120607,0.3667538623942275,0.48139725230164865,0.2376117132157602,0.1461887366703255
120,54061.721757888794,49803.0,[0],1,0.1775759159690421,0.24091621295441576,0.3463573959711252,0.30588190163333445,0.26412113923219654,0.22193168318168982,0.26408973158600874,0.48511335683021783,0.1479787166020503,0.10842455984949669,0.2547705337031727,0.20809140078541166,0.143044692306539,0.2557233766827035,0.1994492628173539,0.05194971125656853
120,113686.21681880951,108747.0,"[1,2,3]",3,0.2067678702734849,0.43836536969994605,0.5309977397633172,0.3713313772711848,0.5557583222376705,0.3644934219226934,0.2691557236012365,0.36883449027247084,0.565786780452266,0.15169645104826165,0.26767139609084417,0.1024485889026554,0.38136393771436033,0.4728713640176826,0.19961184422021094,0.09256415667709461
120,38377.54485607147,36952.0,[4],1,0.1824174393649859,0.28154774198939614,0.4459273031578954,0.3351172105206982,0.31672603113499426,0.23729251838119703,0.27459878083236317,0.37518855804724693,0.30421293225137075,0.12770293905317048,0.27215003655750264,0.13897680783272312,0.17094193396679708,0.2254040175855021,0.18493826697842297,0.0724979089294029
120,31397.858016967773,29053.0,[5],1,0.17829812120952948,0.2327918884750659,0.3146549974715177,0.37633954121273244,0.27599889338179073,0.22871760875113925,0.26995411624051885,0.5927507516385132,0.1865381639234789,0.12309598011791618,0.25891419366002993,0.3071337817428972,0.16771471442400487,0.4500004788968423,0.20756224537384332,0.052260783185255386
120,30507.570371627808,28776.0,[8],1,0.36421531786270267,0.26140708906138427,0.4927827754012502,0.46152759089906,0.4128029403839912,0.298633695387896,0.26797916056287296,0.38162288181685744,0.7519333916188818,0.4039157413453411,0.3118303843923812,0.12357177312573918,0.3807990980221562,0.4989490361290198,0.22639208099044708,0.14591062627342852
120,96024.42438602448,92137.0,[9],1,0.1612461161158741,0.45034306049582484,0.5263477651085976,0.3628415046171423,0.5687550761566768,0.11387059537898224,0.35085061129222356,0.35247034143481815,0.5634149924300109,0.1232151810181437,0.24078427379324577,0.10274899637756088,0.3791028339507825,0.4709173061710416,0.18712467550004697,0.07418713515677233
144,61200.85760986805,57822.0,[0],1,0.19063068427713178,0.23416431149755487,0.3406511453912158,0.3637879540601813,0.26160664680541773,0.22458023573068228,0.2735961291512949,0.538041662802429,0.15865433897044953,0.11444566965303972,0.25421026536435776,0.26015680410113184,0.1602157137549615,0.3133074478037821,0.20146574804050496,0.052517279340840134
144,79119.07672411203,73765.0,[3],1,0.20013988176181968,0.45666295555276454,0.5139573466717284,0.3922704955466803,0.5614611098556718,0.3694225778242835,0.28379285251226266,0.3721823436372196,0.5419684852201467,0.1580354849748716,0.2553503732358281,0.1101249304123357,0.383730392595567,0.47939012139955434,0.19566676409329295,0.08190064465517875
144,28369.596553504467,25971.0,[4],1,0.19408055528483553,0.2777845818829107,0.4565195269296523,0.3782751162095107,0.3137113054844647,0.24444293178207027,0.2857373701659195,0.3779861016616138,0.3001321058479351,0.1365810602068445,0.2738927037198783,0.14805843334883975,0.18404389733369625,0.24353943056426505,0.18397108928798747,0.07212766455452017
144,33459.366126060486,31497.0,[5],1,0.17001690087883575,0.22120387275055317,0.2811579987730085,0.479340446424357,0.27060883388104773,0.23679562084759706,0.28164555589585216,0.6350280751558915,0.21888985482278817,0.1250798008336716,0.255664312609397,0.3623347425534435,0.17611144254218908,0.5022630656708986,0.21077921097200836,0.051445833415873464
144,33874.72314822674,31968.0,[8],1,0.35667131429963883,0.25288927052924287,0.49191307120498,0.4972294641779512,0.42285601986939175,0.3084797990120676,0.29223275463276466,0.37626629288776064,0.7349123424401068,0.4374633667180382,0.3158435660302995,0.13785310001841788,0.36346534224310717,0.5264294007550208,0.23677332934271644,0.1578699634087062
144,81832.52652412653,75831.0,[9],1,0.16867153165909493,0.443204635204819,0.5160374329549481,0.39538367529011964,0.5636841309139947,0.11620467466318805,0.3639780803640475,0.3561866025216574,0.5501825813285848,0.14185658334055248,0.23518990261593115,0.11287417870157984,0.3748818425325882,0.4753622121712833,0.18677763972481545,0.07313483919552768
168,42503.05360061675,38678.0,[0],1,0.1729477882468268,0.23653604829424904,0.34913392387642844,0.38167182819685186,0.26689735907830364,0.23337270944594654,0.27324945575591986,0.510981822860656,0.17148956700641121,0.11458683489772963,0.25541415282510005,0.21500647528985517,0.1576685927513652,0.2800455663465973,0.20293543826480112,0.06015204410206169
168,129399.70473773777,127445.0,"[2,4]",2,0.17853124164205078,0.3019040653955645,0.4418416232025957,0.4017798244728291,0.39079594359599384,0.24341368714331338,0.2876232030106457,0.35054215598268545,0.463737478501427,0.15558396490287657,0.26539251754288984,0.11646664851160081,0.23079581627245788,0.29033766456197835,0.17759088742081316,0.0936996541075352
168,56554.942295257,51610.0,[3],1,0.20652302653010202,0.42626579489351113,0.5220257029747606,0.40540318594880426,0.5497937444405017,0.37113210897518784,0.28115111671821164,0.3622542306019387,0.5160597300497672,0.17415431488351057,0.26298064300444646,0.10874828617522946,0.36301475617342527,0.4340566979176091,0.209575574456173,0.09910110822404833
168,32055.21038287878,29964.0,[5],1,0.15462097882487616,0.2267525619003124,0.2898132473222017,0.4746536917410028,0.27250545000708004,0.2427778723815806,0.29282673875558285,0.6277578058059265,0.22481491209305704,0.12796055205450085,0.25613764298673064,0.3216731047561967,0.1758137605664311,0.46014435327179565,0.21648660363443523,0.056905877638460466
168,35568.17019676417,33451.0,[8],1,0.3319920164828695,0.25594957468254725,0.5168968909633437,0.5243336138543082,0.44823777057941244,0.3365558873060248,0.2992017724642672,0.3631545090204375,0.7037626151090245,0.4150905910379627,0.3175299039573099,0.1368870383355064,0.36648025959152686,0.5091459494353151,0.25279322830861906,0.17946630715171427
168,58129.53290775791,53015.0,[9],1,0.174109548198526,0.40362490774542464,0.514997051602442,0.41600230595876264,0.5464487537734543,0.10879972533611407,0.3651496049894371,0.34847407063039365,0.5356021984274392,0.1595527253472977,0.24228615661834163,0.1137780025909199,0.3488617508196975,0.4294777979143907,0.19707400555754856,0.08858692360153657
