time_in_hour,cumulative_size,size,pcore_ids,pcore_power,AF700 CD48_[R 730_B-A],APCCy7 Ly6G_[R 780_A-A],BV421 CD117_[V 440_F-A],BV510 SCA-1_[V 525_E-A],BV605 CD11b_[V 610_D-A],BV650 CD150_[V 660_C-A],BV711 CD11c_[V 715_B-A],BV785 B220_[V 780_A-A],FITC Ly6C_[B 525_B-A],PE CD115_[YG 582_D-A],PECF594 CD135_[YG 610_C-A],PECy5 CD3-CD19-NK11_[YG 670_B-A],PECy7 CD16-32_[YG 780_A-A],PerCPCy5-5 CD45_[B 695_A-A],_FSC-A,_SSC-A
-1,0,0,[],0,0.0,0.0,0.0,0.0,0.0,0.0,0.0,0.0,0.0,0.0,0.0,0.0,0.0,0.0,0.0,0.0
0,129264,129264,"[0,2,8,10]",4,0.2938115198121618,0.1277497704233186,NA,0.5564003154784074,0.2928854076386225,NA,0.009420877607076772,NA,NA,0.3773240330795873,0.17469652173844707,NA,0.6139960367310288,NA,70534.94937492261,13809.345711102795
0,112975,112975,"[3,6,7,12]",4,0.16942328524009675,NA,NA,0.6517847945563315,NA,NA,NA,NA,NA,NA,0.09992879308696123,0.13162174709448704,2.0255839691347663,NA,NA,18990.134383713157
0,46059,46059,"[4,9]",2,0.5964435690744436,NA,NA,0.7551213477279188,NA,NA,NA,NA,NA,NA,0.2268591600989991,0.10152276979526287,2.2812620379947526,NA,NA,NA
0,39698,39698,[11],1,1.7254793274220213,0.38251874006247455,NA,NA,NA,NA,NA,NA,NA,NA,0.8010217788301697,0.3070653420575373,2.468784147161046,NA,NA,NA
24,205668.0,141036.0,"[0,2,8,10]",4,0.27574487193195596,0.12043152269679158,NA,0.6139206694040955,0.2530441212123531,NA,-0.002780387753569258,NA,NA,0.34818202000311416,0.16319276722191756,NA,0.5554102215949973,NA,72656.17083843867,14631.010599607109
24,30358.5,20969.0,[1],1,NA,0.35282831770345124,NA,1.1005459924567873,0.5307140626348654,NA,0.16499414799807433,NA,NA,NA,0.5342631482451452,0.27157246145231373,NA,NA,NA,30134.53233855416
24,166089.5,109602.0,"[3,6,7,12]",4,0.217976348541,NA,NA,0.6957977719091244,NA,NA,NA,NA,NA,NA,0.08169018672161377,0.13193474713934128,1.9108966287001934,NA,NA,20973.82493173866
24,58376.5,35347.0,"[4,9]",2,0.6485967526487566,NA,NA,0.7985172620575205,NA,NA,NA,NA,NA,NA,0.19650907491028002,0.10350584531446738,2.252863943367624,NA,NA,NA
24,60365.0,40516.0,[11],1,1.7083195409425767,0.44012095889174097,NA,NA,NA,NA,NA,0.9963864820094472,NA,3.343404767920124,0.8299777548910354,0.3424300540793517,2.452239079499689,NA,NA,NA
48,237576.0,134742.0,"[0,2,8,10]",4,NA,0.13226774997054092,NA,NA,0.24321636710674133,NA,NA,NA,NA,0.31753928890965544,0.1498412724243825,NA,NA,NA,NA,14953.311243559998
48,33439.25,18260.0,[1],1,NA,0.34720323851463286,NA,NA,NA,NA,NA,NA,NA,NA,0.5418681897769893,0.2624201205918243,NA,NA,NA,NA
48,141781.5,83637.0,"[3,6,12]",3,NA,NA,NA,NA,NA,NA,NA,NA,NA,NA,0.13632663851772442,0.10751412071744704,NA,NA,NA,19612.007941797776
48,36793.75,17378.0,[4],1,NA,NA,NA,NA,NA,NA,NA,NA,NA,NA,NA,0.060998217020553636,NA,NA,NA,NA
48,28520.25,18982.0,[5],1,NA,0.24889316640807513,NA,NA,NA,NA,NA,NA,NA,NA,0.3721376890454957,NA,NA,NA,NA,21764.033625231248
48,48419.25,23519.0,[7],1,NA,NA,NA,NA,NA,NA,NA,NA,NA,NA,NA,0.11723260149630066,NA,NA,NA,21630.276388006896
48,24229.5,14457.0,[9],1,NA,NA,NA,NA,NA,NA,NA,NA,NA,NA,NA,0.1111535822035088,NA,NA,NA,NA
48,66493.5,36311.0,[11],1,NA,0.4153682429523209,NA,NA,NA,NA,NA,NA,NA,NA,NA,0.30274891692044337,NA,NA,NA,NA
72,260783.0,141995.0,"[0,2,8,10]",4,0.2526516999981685,0.18330695537477482,NA,0.6782322933444744,0.29442277794131844,NA,-0.017309566373690632,NA,NA,0.3285696863445803,0.16360283068202763,NA,0.598501794000179,NA,70915.58796393941,16494.979810800425
72,30476.625,13757.0,[1],1,NA,0.38851796850045384,NA,NA,0.5403232004733463,NA,0.1539410782853725,NA,NA,0.7684126966855721,0.5545556370989164,0.2739488529241637,0.7652318785626621,NA,NA,32659.420260609462
72,233618.375,138518.0,"[3,6,7,12]",4,0.24517402191393223,NA,NA,0.8294502457902873,NA,NA,NA,NA,NA,NA,0.1893769280514639,0.13361741362702917,NA,NA,NA,22865.51160198757
72,35643.875,17247.0,[4],1,0.5344769897808499,NA,NA,0.8164634663739503,NA,NA,NA,0.9898168763462079,NA,NA,0.2856805976061598,0.08766810975939143,2.2446390636855473,NA,NA,NA
72,22891.125,8631.0,[5],1,1.0666595998066872,0.29375351305910424,NA,NA,NA,NA,NA,NA,NA,NA,0.3766338522462136,0.49245914707664595,NA,NA,NA,22962.56142937478
72,22720.75,10606.0,[9],1,1.0240759876819723,0.8257348997997287,NA,1.219380037504246,NA,NA,NA,1.0099447435163849,NA,NA,0.35838729191926744,0.13078451604809893,2.3161932083392904,NA,NA,NA
72,62492.75,29246.0,[11],1,1.7553930547503456,0.48032728637120137,NA,NA,NA,NA,NA,NA,NA,3.138502781720728,0.8059973013189041,0.31640339928431527,2.4676743310464064,NA,NA,NA
96,238939.5,108548.0,"[0,2,8,10]",4,0.34164412310777115,0.17969628085666178,NA,NA,0.30740713907049644,NA,0.06421553174836037,NA,NA,0.3861737894236884,0.1976300283497614,NA,0.6418895504484349,NA,71693.08234092724,15671.411683710656
96,27156.3125,11918.0,[1],1,NA,0.40660162748072715,NA,NA,0.5484144768849961,NA,NA,NA,NA,0.8761811723908594,0.6418231256820972,0.30830386124312714,NA,NA,NA,33050.50860642458
96,110583.0,30913.0,"[3,6]",2,0.3234621137149227,1.4032885633545686,NA,NA,NA,NA,NA,NA,NA,NA,0.24801248357625605,0.14842248153874937,1.52708831099152,NA,NA,21720.152681696065
96,86278.8125,52588.0,"[4,12]",2,0.4260164330777769,NA,NA,0.9551665503313789,NA,NA,NA,NA,NA,NA,0.21869210983793774,0.10988307136239783,2.4685576713423942,NA,NA,20576.518620953433
96,23827.5625,12382.0,[5],1,1.1564316353304018,0.2751919162236054,NA,NA,NA,NA,NA,NA,NA,NA,0.471875864075471,NA,NA,NA,NA,21725.204330069373
96,56261.3125,34991.0,[7],1,NA,NA,NA,1.0180002123117564,NA,NA,NA,NA,NA,NA,-0.017805797737333595,0.14495207004812916,2.476807628302549,NA,NA,21531.88601847867
96,25102.375,13742.0,[9],1,1.0314000015760392,0.9186850294568671,NA,1.3574979685612267,NA,NA,NA,NA,NA,NA,0.3886923165412597,0.15682992248740968,2.399926119069936,NA,NA,NA
96,62302.375,31056.0,[11],1,1.9201456212082657,0.4709688389357205,NA,1.9046392045067093,NA,NA,NA,NA,NA,NA,0.8651737127356198,0.34711973592198797,2.529406726144059,NA,NA,NA
120,189735.8125,85059.0,"[0,8,10]",3,0.3591307423408967,0.2041444577838889,NA,NA,0.3262556317325087,NA,0.11336089933585569,NA,NA,0.38746132493289653,0.22065357086383397,NA,0.6026999786823605,NA,70820.42020928444,15186.534972147083
120,27709.15625,14131.0,[1],1,NA,0.43890796932646925,NA,NA,0.5672017931584015,NA,NA,NA,NA,0.872186371572799,0.6983703603524449,0.3240809225808696,NA,NA,NA,31760.78268352168
120,31039.9375,16247.0,[2],1,NA,0.10418809386695926,NA,NA,0.3461699520979904,NA,NA,NA,NA,0.5276202890077147,0.27732677781849135,NA,0.8309609054353352,NA,75252.42207720311,14657.392528577011
120,91655.5,36364.0,"[3,6]",2,0.3510726533428894,NA,NA,NA,NA,NA,NA,NA,NA,NA,0.2743326078484918,0.15623622626028832,1.535501511771669,NA,NA,20514.95085401322
120,124172.40625,81033.0,"[4,12]",2,NA,NA,2.096986379935673,1.075144317557735,NA,NA,NA,NA,NA,NA,NA,0.10107989848590548,2.628691630726888,NA,NA,19640.321885120953
120,23649.78125,11736.0,[5],1,NA,0.26741418276990947,NA,NA,NA,NA,NA,NA,NA,NA,0.5369450395973545,NA,NA,NA,63628.19994370988,20598.08126132242
120,87581.65625,59451.0,[7],1,NA,NA,2.341301499920601,1.1460512762679138,NA,-0.8528548429540564,NA,NA,NA,0.3620350520706769,NA,0.14635354970522085,2.612058204564474,NA,NA,19801.009643500573
120,30739.1875,18188.0,[9],1,NA,0.8858711032344795,3.381160030524946,1.5164327139837912,NA,NA,NA,NA,NA,NA,NA,0.16633282193128818,2.4653484770081944,NA,NA,NA
120,68942.1875,37791.0,[11],1,2.0489346433569695,0.49800066071802407,NA,2.1180367881340776,NA,NA,NA,NA,NA,NA,0.8896889788636031,0.36740962644471176,2.5727530211436123,NA,NA,NA
144,173220.90625,78353.0,"[0,8,10]",3,0.4269710317768829,0.18034917822457341,NA,NA,0.3120294510451709,NA,0.15139072507080176,NA,NA,0.41253660801832037,0.23332845384785772,NA,0.6448043897213714,NA,70877.25805614171,14984.96272876994
144,24479.578125,10625.0,[1],1,NA,0.4316120174035376,NA,NA,0.5698833966303543,NA,NA,NA,NA,NA,0.7326079500272153,0.4065980013991224,0.8766928804200879,NA,NA,30875.995703050707
144,45862.96875,30343.0,[2],1,NA,0.03820514490649929,NA,NA,0.4085179550604039,NA,NA,NA,NA,0.5639042052912356,0.2549367358666865,2.266664317251481,0.8974842592985853,NA,73658.36593384531,14160.62474150238
144,62358.75,16531.0,"[3,6]",2,0.3758485070055866,NA,NA,NA,NA,NA,NA,NA,NA,NA,0.2694122832213335,0.1738304113215854,1.579454628421745,NA,NA,19859.379333293262
144,131027.203125,68941.0,"[4,12]",2,NA,NA,2.1267747069606533,NA,NA,NA,NA,NA,NA,NA,NA,0.12013921668031602,2.638966009802004,NA,NA,18883.445475361223
144,29620.890625,17796.0,[5],1,NA,0.21000941472629364,NA,NA,0.4084018312545421,NA,NA,NA,NA,0.7216520957406044,0.5542685059583561,NA,0.6971198021714019,NA,NA,19781.742872560815
144,91683.828125,47893.0,[7],1,NA,NA,2.294723540513439,1.2627592569612145,NA,NA,NA,NA,3.858135035538347,NA,NA,0.1748055706811641,2.6118174257635016,NA,66927.4431542499,18832.318210426078
144,24959.59375,9590.0,[9],1,1.0836807247970957,0.8759697076230788,NA,1.6621734584178052,NA,NA,NA,NA,NA,NA,NA,0.2023532127951806,2.4510453233156753,NA,NA,NA
144,76744.09375,42273.0,[11],1,2.0536598477688504,0.45139766820388205,NA,2.3736581857769186,NA,NA,NA,NA,NA,NA,0.8871524985562602,0.4079532560227481,2.5219043706074875,NA,NA,NA
168,75816.1171875,31956.0,[0],1,0.3334339427594095,0.1176620034023741,NA,NA,0.3388775286299368,NA,NA,NA,NA,0.3951675245371131,0.18858764714984977,1.3131486782734865,0.7500548021232941,NA,72248.35756826478,14863.691953691821
168,24454.7890625,12215.0,[1],1,NA,0.4251504778588493,NA,NA,0.6814803688710378,NA,NA,NA,NA,NA,0.8032094028962002,0.37990507755414515,NA,NA,NA,32853.50090105661
168,48218.484375,25287.0,[2],1,NA,0.05757685463265938,NA,NA,0.4470013602200873,NA,NA,NA,NA,0.6103303969647561,0.2625924869738401,NA,0.9320112215972974,NA,74885.11815133161,15322.697147716062
168,127588.375,96409.0,"[3,6]",2,0.3244586740768276,NA,NA,NA,NA,NA,NA,NA,NA,NA,0.26114366349728124,0.16626646749752805,1.5116699863607939,NA,NA,22665.66843178334
168,107492.6015625,41979.0,"[4,12]",2,NA,NA,2.130491085229433,NA,NA,NA,NA,NA,NA,NA,NA,0.11156790641681613,2.568783052623408,NA,NA,19592.83995722677
168,37047.4453125,22237.0,[5],1,NA,0.20009018963076652,NA,NA,NA,NA,NA,NA,NA,NA,0.6168255479205,NA,0.7027690054659542,NA,NA,21686.948890074
168,73603.9140625,27762.0,[7],1,NA,NA,2.277013094535938,NA,3.608643809274709,NA,NA,NA,NA,0.4341268168849448,NA,0.17374518874027878,2.548976460578997,NA,NA,19485.86472972277
168,22669.3203125,12195.0,[8],1,0.7927056722959513,0.18960884606465545,NA,NA,NA,NA,NA,NA,NA,NA,0.4065915409293024,NA,0.6258274172117303,NA,NA,21135.145403358456
168,24741.796875,12262.0,[9],1,NA,NA,NA,NA,NA,NA,NA,NA,NA,NA,NA,0.24075785468541855,2.3987947626943713,NA,NA,NA
168,62782.015625,30506.0,[10],1,0.2671310334677315,0.26329102511602676,NA,NA,0.4182945948041019,NA,0.18433197317131844,NA,NA,0.38010438316868145,0.23047519777059344,0.4437060658177674,0.55567258042796,NA,NA,15273.68923176392
168,85564.046875,47192.0,[11],1,1.9277353172864504,0.4265400745350898,NA,NA,NA,NA,NA,NA,NA,NA,NA,0.41085285995494636,NA,NA,NA,NA
