time_in_hour,cumulative_size,size,pcore_ids,pcore_power,AF700 CD48_[R 730_B-A],APCCy7 Ly6G_[R 780_A-A],BV421 CD117_[V 440_F-A],BV510 SCA-1_[V 525_E-A],BV605 CD11b_[V 610_D-A],BV650 CD150_[V 660_C-A],BV711 CD11c_[V 715_B-A],BV785 B220_[V 780_A-A],FITC Ly6C_[B 525_B-A],PE CD115_[YG 582_D-A],PECF594 CD135_[YG 610_C-A],PECy5 CD3-CD19-NK11_[YG 670_B-A],PECy7 CD16-32_[YG 780_A-A],PerCPCy5-5 CD45_[B 695_A-A],_FSC-A,_SSC-A
-1,0,0,[],0,0.0,0.0,0.0,0.0,0.0,0.0,0.0,0.0,0.0,0.0,0.0,0.0,0.0,0.0,0.0,0.0
0,191028,191028,"[0,3,4,5,6,7,9,10,11,12,17]",11,0.4026437033890298,1.611141224255085,1.8941819974924905,0.7896069953671714,2.4163133285015648,0.3550865335134099,0.13489769975605492,0.8066918018458056,3.765353427293364,0.7262772555279865,0.22062277246789952,0.22173476208199805,1.9278833735577972,1.6122302715151715,69331.5754339677,22639.304813953942
0,133366,133366,"[1,2,8,15,16]",5,0.3366513500367463,0.17566535041164855,0.5847617419957101,0.5660106472114408,0.35787445638316706,0.24551426908656837,0.005169253895288328,2.385361756917063,0.8878272509635102,0.4106962089887958,0.19523428816189003,0.9323208352503629,0.6524510266709685,1.0895936163339959,69453.42087188647,14772.363330983902
0,35634,35634,"[13,14]",2,1.7109547577033,0.4032345451254451,1.9737269657349583,1.1854370005612562,1.828023127181908,0.7968122427456941,-0.1679875891003042,0.8814311442442686,5.265678860891301,3.0209486268451373,0.6499118693944017,0.27933480639276886,2.374962341948709,1.9462001976763792,83023.35073244659,42098.976932143385
24,272885.0,177371.0,"[0,3,4,5,6,7,9,10,11,12,17]",11,0.4465760583414342,1.470821587872198,1.950512692758839,0.8530016525221233,2.33569085623795,0.38827246765854073,0.13386491462886685,0.8595764971819633,3.83825170439015,0.7528964035344571,0.20623821863970626,0.23335977862286295,1.8300882267438623,1.578086945187536,69801.52102167568,25381.08052842781
24,215541.0,148858.0,"[1,2,8,15,16]",5,0.32620404393364333,0.17037912888267037,0.63498357184712,0.6378396846539722,0.3266261913093169,0.27545730235778687,0.00040769682565544585,2.333627829102112,0.914005698442527,0.3881826574990386,0.18854757169400838,0.9004645805809581,0.6033623798279703,1.0837703672665493,71560.94567622858,16078.64757053177
24,91917.0,65839.0,"[9,10,11,13,14]",5,1.2702735289935394,0.8972713173623994,2.2471557254534065,1.1656639107183615,2.1839137866716567,0.9997373134186287,-0.21346234049740742,0.9950424599203531,4.9293976295788875,2.129714114472837,0.5139185528357113,0.26355233774492204,2.2424258114331517,1.8631737909581523,80835.00897548872,42155.73893839001
48,287584.5,154846.0,"[0,3,4,5,7,9,10,12,17]",9,0.3819249230617481,1.523212508894781,1.919747803188256,0.7708715228863214,2.3642317985913777,0.35234095687615863,0.14207698029447924,0.7750607915969048,3.9084214872203034,0.5651854886694169,0.16587123406250104,0.17061785514691974,1.8375703980577924,1.4319739319321863,66775.03373095563,23357.110164143043
48,218010.5,131022.0,"[1,2,6,8,15]",5,0.34501712893988934,0.18877384132875275,0.7338159236848623,0.5812094474830349,0.3134805971031218,0.28111839062109745,0.03650820613800487,1.9534110712763697,0.9294507052412654,0.37089668184330793,0.19061903660029156,0.6710283712699654,0.56519671072036,0.8359427560667982,68735.23482584557,16957.92032035157
48,35128.75,16680.0,[13],1,1.9444661806497316,0.3498922156566917,1.872455289271603,0.9815448758139773,1.7383389767569146,0.31613544765326695,0.21371740977121112,0.8498451938369338,5.72122433483973,3.101631815201203,0.4047932212076919,0.22260326324591662,2.477152916250955,1.7980360595666107,74298.84000996329,34945.8482866599
48,19385.25,12040.0,[14],1,1.2383728409744543,0.5816916531899436,2.6427266726634753,2.0405437026734536,2.014134769102783,1.4361744059400736,-0.4456261959995449,1.0396797545040832,4.300147444229536,3.0143327983131556,1.188599740318042,0.4541448717968607,2.2540124245753974,2.335008877600231,106935.23457267757,82759.0172940764
48,191844.0,108266.0,"[2,6,15,16]",4,0.28255454582238837,0.12609509858271917,0.3092389983254469,0.6077981389175577,0.2388507185317228,0.26461845686860785,-0.012179100640369533,2.7713481916909055,0.7497772549845251,0.3196979840104437,0.1486694060225875,1.0202647582163118,0.5895588362797403,1.1561529559629198,70863.84679218536,15187.4389608224
72,398519.5,252369.0,"[1,2,3,6,8,15,17]",7,0.36722374226982724,0.5488480532216937,0.8566601416106736,0.8040580208725627,0.8084527891323376,0.3666737454519231,-0.005604689593943668,1.746955934491572,1.7983173338117604,0.46823327016870386,0.24159164984870163,0.5411095306882721,0.8795845602363915,1.0441273249750005,68907.92052082738,20554.918933703295
72,307103.0,188788.0,"[3,4,5,7,9,10,12]",7,0.4542273689942753,1.4917104155007026,1.7726019406774989,0.972274078748002,2.3297181455818374,0.3495793966889795,0.12031511312205012,0.7462571105146343,3.7429986202804844,0.6949482818187195,0.2712201269879455,0.16744427992114885,1.8164241974325344,1.462672981543252,69937.93819011815,26652.811128513844
72,102832.25,41911.0,"[9,10,11,13,14]",5,1.3154359343505948,0.9698670195585541,2.150872919542502,1.3455042840001576,2.283107295190708,1.0268736400922338,-0.2656422722091092,0.9615811410634718,4.747095226555899,1.9894051713105538,0.5736573708564223,0.2335732683533126,2.3395927311410136,1.8931014904018502,82506.99942868124,44675.34494285584
72,246655.0,150733.0,"[2,6,15,16]",4,0.2649731915524751,0.19672154796477992,0.3487537956958744,0.7076303302031257,0.29844125191462023,0.25762805169062375,-0.025746571675546726,2.5925433549466392,0.8420191098320481,0.321007136969644,0.1674690485637913,0.8685448076974904,0.6137139642846322,1.097058414566396,70513.03234071874,16948.301392633348
96,354292.25,143825.0,"[1,2,3,6,8,15,16,17]",8,0.41496016095803645,0.5171398636812188,0.8327941316293335,0.8980596600382551,0.7712465910673023,0.34277752108200477,0.08415135156389919,2.0814149105522866,1.6068278433214265,0.488444849503474,0.2545667315718956,0.7518969655494494,0.9001007476735289,1.191793588441816,69713.05705953208,19012.470738493394
96,295615.5,142064.0,"[3,4,5,7,9,10,12]",7,0.4898953695936896,1.7287399754909964,1.8628239898244332,1.088879193553356,2.5566588082671626,0.35522561401106834,0.32179819955841316,0.9368273155676312,3.7709358303133658,0.7243486202032213,0.26460846954638395,0.19836274085192807,2.0167620062820273,1.7057414633415313,69832.76713162879,25042.115071773922
96,115006.125,63590.0,"[9,10,11,14,13]",5,1.3069641187202892,1.177200933828535,2.0868148612546666,1.5070001868438525,2.3813778744039866,1.0100461862112777,-0.02351128603965469,1.1385783074385047,4.647507962871562,1.8471109555230179,0.5770188531708609,0.2653507791199159,2.3837590908348374,2.0576704070516922,79621.91345895742,38853.02936691404
120,319248.125,142102.0,"[1,2,3,6,8,15,16,17]",8,0.42769768600549174,0.5175258571406078,0.9174183219928911,0.9709024421540295,0.7719430636625813,0.320759571674174,0.15412738958156336,2.1014115245612413,1.5645319571242462,0.5015262029612523,0.2842134172279853,0.7850253226650721,0.8931751015889872,1.239861089932206,68927.44787772796,18105.88269547391
120,343526.75,195719.0,"[3,4,5,7,9,10,12]",7,0.4581143563348722,2.032738035010043,2.0529955023123523,1.2081224167868396,2.891868517242567,0.3790214193140655,0.4676413251508862,1.0727167388117311,3.817088037717592,0.6540328577464206,0.24575335083394068,0.1991894512935517,2.246456958434918,1.9533195648845874,68516.72818492302,23104.640544004284
120,79847.125,42527.0,"[10,11,13,14]",4,1.7100963748859164,0.667109481276325,2.09926544119585,1.9015041385358287,2.105287501401898,0.8493363729779728,0.10761355152266505,1.2447027589644009,5.0086180419806015,2.376186305841091,0.7254279484460198,0.3222856032899589,2.4233892501272027,2.200631464115408,79887.09106307829,41899.664239632824
144,248560.9375,103220.0,"[1,2,3,6,8,15,17]",7,0.4978862911873956,0.44904999305145044,0.9583100763482877,1.2137586857463853,0.6843379885629863,0.3302202826141134,0.2272973098847193,2.154902708218011,1.5696278701867579,0.5359127518211685,0.3046022799589485,0.8567270582697253,0.8823437042752945,1.2619686267795793,68694.45520175481,17875.197215974502
144,334393.375,162630.0,"[3,4,5,7,9,10,12]",7,0.46689953225009373,2.100086029336566,2.0428493527570004,1.4210992188121692,2.9787377870055827,0.3823193239778726,0.6018661475586637,1.1735182353427098,3.777654786466688,0.7023150738510361,0.20108197782266046,0.25838168523099025,2.305461222974336,2.0684110980850217,68075.77423147194,22004.949918639984
144,81606.5625,41683.0,"[10,11,13,14]",4,1.7518630435484959,0.5479780071128317,2.0082089160374985,2.216480247649731,2.0144701380319376,0.8172766225646282,0.28244892970539626,1.309540645820456,5.008582115876264,2.528808245561017,0.7530559221144979,0.40878004393086564,2.3145362524034954,2.323655807828915,79026.64201791376,40775.95509552313
144,180656.3125,85744.0,"[2,15,16]",3,0.40234681496839864,0.15752981921274012,0.42005907829584865,1.2424632467016994,0.34450884448605645,0.2582191897836239,0.17240620387072658,3.032298205340278,0.8490235386745125,0.4367241841184263,0.23278948081396278,1.290594084080055,0.7206386136550372,1.4531169303006526,70664.07904235265,15001.294565890195
168,299465.46875,175185.0,"[1,2,3,6,8,15,17]",7,0.4359661792524041,0.555859465054338,1.1286632154660126,1.467454395621186,0.992284823901064,0.3590199983016966,0.28735979878845086,1.7307311685897977,2.176664091451703,0.6318575564496963,0.32009234574434364,0.6356367140061778,1.0205140198654226,1.2329784862180684,67294.65380138243,20915.576420695445
168,316178.6875,148982.0,"[3,4,5,7,9,10,12]",7,0.4855806636160849,1.8830036804302006,1.9837487824396365,1.5841145648984605,2.8149668924203435,0.41529489474631376,0.5981813533848381,1.146099211374418,3.693898243026719,0.7842989768063001,0.2321766886419252,0.2717836199041409,2.1597741651420135,1.939951502306913,68789.71086405031,23543.946980929868
168,73820.4375,40270.0,"[11,13,14]",3,1.7965686113691481,0.38368257007523354,2.001960845900784,2.5973889048134455,1.9267032021596644,0.8058350028229293,0.4190044945801552,1.2603877884220833,5.029554754788198,2.8571364026509154,0.847633563509361,0.4558558728973502,2.2886173863355683,2.359777601575118,82042.38736731978,45833.51935566617
168,153491.15625,63163.0,"[2,15,16]",3,0.3286720619720138,0.13652700218604563,0.37676273693156226,1.4806910625637824,0.3441456355583834,0.28237266446758946,0.22966428663999494,3.1733830035407724,0.8959994884872725,0.4489212464395891,0.23387085218677228,1.3048009339372533,0.7365364925382548,1.4937642631167296,71175.04888168426,15291.847640244743
