time_in_hour,cumulative_size,size,pcore_ids,pcore_power,AF700 CD48_[R 730_B-A],APCCy7 Ly6G_[R 780_A-A],BV421 CD117_[V 440_F-A],BV510 SCA-1_[V 525_E-A],BV605 CD11b_[V 610_D-A],BV650 CD150_[V 660_C-A],BV711 CD11c_[V 715_B-A],BV785 B220_[V 780_A-A],FITC Ly6C_[B 525_B-A],PE CD115_[YG 582_D-A],PECF594 CD135_[YG 610_C-A],PECy5 CD3-CD19-NK11_[YG 670_B-A],PECy7 CD16-32_[YG 780_A-A],PerCPCy5-5 CD45_[B 695_A-A],_FSC-A,_SSC-A
-1,0,0,[],0,0.0,0.0,0.0,0.0,0.0,0.0,0.0,0.0,0.0,0.0,0.0,0.0,0.0,0.0,0.0,0.0
0,186348,186348,"[0,3,4,5,6,7,12,13,14,15]",10,0.3903023405349113,1.6634519994740966,2.01420510948332,0.7584928555551982,2.4504440391525546,0.3381321847833023,0.15894448122330784,0.7436316309431876,3.7727535282804125,0.6401459513007904,0.19342673465772364,0.19082326417777473,1.9219958794567118,1.5755532414031852,67769.17337454652,20855.09657200505
0,105681,105681,"[1,2]",2,0.3164677834331604,0.17122343752426428,0.4871661150348414,0.45883718909737903,0.2943660106547119,0.22917219358257568,0.019560967013972697,2.1694597485167444,0.7878219882287208,0.3568503153168422,0.17217167869342687,0.8018306744447881,0.5727976495964303,0.8336744601394785,68950.46337563005,13807.680396665482
0,32445,32445,"[8,10]",2,1.8069012070889074,0.3278881636924029,1.7698261333333192,1.0425846813376554,1.7718659984281104,0.5851614507011955,-0.03988485930034891,0.8250937635691118,5.444352493881954,3.145106152904912,0.5587364253351876,0.23196080711974287,2.3995116220681143,1.9123927635382902,77942.00696563422,33337.094036061
0,101333,101333,"[2,9]",2,0.2887460431942199,0.11777837297821803,0.1749007716242268,0.5518433991197429,0.2768334111592514,0.22944850535363526,-0.020332774150532362,2.9632233543366713,0.7390573293398931,0.3524046110645035,0.15867218604008126,1.1654605459919254,0.6494310458291007,1.266052389547334,69758.49873190353,13644.605725676809
24,372286.0,180174.0,"[0,3,4,5,6,7,10,12,13,14,15]",11,0.44239026942189774,1.5207627751540436,2.0612096553053196,0.837048685051283,2.3671222876874345,0.38130797017883467,0.15127012399338646,0.7928903743466167,3.82275535299206,0.713359309111815,0.2055328353792354,0.20668548788028462,1.847691540904028,1.5629979678177486,68767.8908366148,23790.029300054277
24,219660.0,113979.0,"[1,2]",2,0.30812727482928226,0.15933623918785234,0.530678602303575,0.49886763506329324,0.2655367877901984,0.24817882791588497,0.005655119389090579,2.1109993351816883,0.7878409025493939,0.33699779079940084,0.16508148906036757,0.7699962668077798,0.5337947658972849,0.8291601558453889,70575.84703632875,14621.560447964865
24,49624.0,22943.0,[8],1,1.9532468371554035,0.33876812344833107,1.8017994033935056,0.9496954617926914,1.6956840661172161,0.4689613818313758,0.06775947303724017,0.9474619746896629,5.762451041451747,3.1428591196195184,0.4313588263340211,0.21395417894566993,2.4259793925519975,1.820033740125705,74398.42269869405,32208.944059326197
24,204330.0,102997.0,"[2,9]",2,0.27789433200215674,0.10847115741204538,0.20794194870065175,0.6048116690451888,0.24450053718004883,0.2509646507806196,-0.0285730850388779,2.9695269925562027,0.7263251659129842,0.33684401616501114,0.15218385099593013,1.163871531850421,0.6077119007536741,1.2864632877991464,71277.03428767156,14269.427220672285
24,23622.0,13903.0,[11],1,1.3319907592921958,0.5835500835661787,2.9019962701718565,2.2600860778511227,2.107136002201338,1.6873247023537428,-0.7360203868851118,1.0834615066040048,4.405326677461715,3.343167806832604,1.4246841838116922,0.5104643623317244,2.3682845104563452,2.4356733316823282,119405.40038946625,105074.14986030046
48,519752.0,156552.0,"[0,3,4,5,6,7,12,13,14,15]",10,0.4031310307935394,1.5391495458487574,2.0290780341008694,0.7811992448206104,2.356330557562076,0.3542232770051845,0.1529365828375875,0.7609044923425095,3.8155046879280783,0.5743243234696597,0.17094392585887652,0.17996762099809127,1.824112901787779,1.4753845508973447,66872.82870291975,22511.43653126886
48,345702.0,126042.0,"[1,2]",2,0.3009936983500199,0.1675403295699871,0.5342136766840104,0.5159523901452934,0.27532646809678285,0.25254974442729394,0.024670060537660188,2.0690024008713106,0.8329941942569056,0.3362426897414482,0.1663428675159344,0.71824711461026,0.5350948726128361,0.8045447246472339,69337.44711919429,15210.667036927614
48,129479.0,45421.0,"[5,8,10]",3,1.6135435407054384,0.36472717680086086,2.2477171647525904,1.1074531770866294,1.4492793257980106,0.5879098606337838,0.07027984036792922,0.9298379460916166,4.507423278106869,2.4917314224082614,0.5357658981379183,0.26385905712895397,2.010392213378237,1.6378614898168558,73985.69442148926,35880.004263240146
48,299801.0,95471.0,"[2,9]",2,0.27395559821347915,0.11126822691385918,0.19572597141773995,0.6079816735334687,0.23238809931254423,0.25651295098082616,-0.020640326993606184,3.0123453082745426,0.7345092016370841,0.32115757969452285,0.14819484022064877,1.1349701623776929,0.6118010795360994,1.2493237971487796,70811.16959583072,14601.70691892276
48,31158.0,7536.0,[11],1,1.324538894986856,0.5911946858591808,2.8399967008472706,2.219718359586594,2.0898639142756106,1.6696835777328365,-0.7413870058091097,1.0872954477180836,4.371688283458526,3.2750902139739284,1.3836753009820915,0.4903993752166387,2.352930553116364,2.421447933211356,118075.24488092853,101810.97939534023
72,729724.0,194192.0,"[0,3,4,5,6,7,10,12,13,14,15]",11,0.4414310078714754,1.4748482710682365,1.9153162512483948,0.889422175459492,2.2856740231772608,0.37326025638733906,0.1312232257551984,0.7955336868048728,3.7400865540683808,0.6657841023715813,0.2354283518522129,0.19546082252330899,1.7959788053483252,1.4868193800985003,68813.41359746948,24883.267777954425
72,564288.0,142505.0,"[1,2,9]",3,0.27438160953271984,0.17418396786927648,0.4198431301817571,0.6367709832514499,0.2974885204647304,0.2551614475870372,0.0012091710066419736,2.4003838939548867,0.8412706927650407,0.33904729238792575,0.16980692604125913,0.8603967979896676,0.5863401276404957,1.0348572844841606,70004.80208687749,15674.82601791957
72,92849.0,14000.0,[8],1,1.951881952589687,0.3543434973343813,1.664660204934885,1.0508442064427217,1.6860849886051499,0.4682176617949676,0.06595496053806826,0.9025910214003012,5.705856776045002,3.0604181168994744,0.41564397553017196,0.20498838234121852,2.4333592397871966,1.8031463902141873,73513.7296901417,32083.56070609344
72,58625.0,11687.0,"[10,11]",2,1.3035080619701673,0.6025088151641937,2.6776480925202306,2.149867539633257,2.0538361169125463,1.5033851132963842,-0.5231337353347563,1.0565831664136516,4.377042541270797,3.06855128018763,1.2857996933390243,0.4652980407505355,2.3208893133987205,2.351319113705747,110975.2336375266,89418.50200426477
96,888827.0,159103.0,"[0,3,4,5,6,7,10,12,13,14,15]",11,0.46026233618128276,1.553999574691134,1.9417501138736681,0.9553934221305171,2.3627617282677194,0.3722880759326612,0.2095023012734707,0.8547354463073189,3.735653211666629,0.6781276349447102,0.24169841753232646,0.2019024301568254,1.8610321055098442,1.562916297276082,68826.3053755115,24519.13504877776
96,552106.0,82398.0,"[1,2]",2,0.31626419416018425,0.19608620222025808,0.5195025041350645,0.58504792678217,0.29990027128484575,0.2491500376087139,0.03214571746365458,2.175661243288424,0.8319221120907961,0.345364924731835,0.17828798285290093,0.7486662294921416,0.571607858815158,0.8498060206699414,69587.05002300252,15765.30257595412
96,138602.0,24302.0,"[3,8]",2,1.8336660696093927,0.3430210897966992,1.4931743257240337,1.2446921291395552,1.4229208576355403,0.47422441011674565,0.07246682730407183,0.9768109923305275,5.505580185004556,2.592205011298531,0.4322325054688876,0.3476225749628381,2.1050787232940156,1.9738107604291197,74013.44696324656,29864.43162436366
96,497534.0,92045.0,"[2,9]",2,0.30765971683945303,0.14183008835981692,0.22113708702518853,0.7062361136706392,0.26722220067170577,0.24707197705682882,0.008644606034934554,2.9845617139632825,0.7291176099020417,0.3461481033436786,0.1657942797637615,1.1207090500106207,0.6453128709434913,1.2715220969360974,71012.48368151666,15107.665180670627
96,68342.0,9717.0,"[10,11]",2,1.3399762054812696,0.6136888046004207,2.6642699776564647,2.1928574602001754,2.071169009174406,1.5216109284188357,-0.5048613694214392,1.0905711540194853,4.395759689180891,3.0602491222674355,1.3116696295250434,0.48422331776945793,2.3507483805858795,2.406022810102108,111328.3277633074,88923.63419273755
120,1115400.0,226573.0,"[0,3,4,5,6,7,10,12,13,14,15]",11,0.46572818241169434,1.664977081209425,2.0016263215267913,1.0271496753146927,2.486616898003413,0.37411049858704937,0.2829909936453223,0.9104390272072651,3.7479821405020854,0.6663213640711877,0.24522267468980408,0.20004542779540668,1.951492348277743,1.661737453100252,68348.6876528597,23904.294064909314
120,630129.0,78023.0,"[1,2]",2,0.3193481624873473,0.20441963686961495,0.5365166064789859,0.605665784093393,0.3051548259007446,0.2474486126888149,0.04436850656131286,2.173425280945647,0.8306439576896146,0.3508540939807371,0.189360061657168,0.7578555427967681,0.5699870660007672,0.8561873378800202,69555.1676815383,15629.66181210464
120,166244.0,27642.0,"[3,8]",2,1.867563688097006,0.3461620843819997,1.4947361837058635,1.3957227880043788,1.4090512525083416,0.4770222731948208,0.09454689538869987,1.037945337395605,5.485041604136098,2.5860785046076806,0.46438597896466405,0.36488949951275684,2.1073038393084795,2.0341844069800787,73440.28911720015,29541.672625779225
120,571620.0,74086.0,"[2,9]",2,0.3124603642559558,0.14366543572130475,0.23106933018788256,0.7466087022392514,0.27536225850742513,0.24631798907313573,0.027566949363164728,3.0128197208180394,0.7256918867674401,0.3555082609915442,0.1756719957663786,1.151209622338235,0.6478067948899525,1.3054466254749744,70995.66520415606,14953.803659773508
120,79952.0,11610.0,"[10,11]",2,1.3890525148339166,0.6407884009781224,2.676400637920223,2.2383097115644257,2.1164018213803035,1.535089464053437,-0.48075759590754785,1.1136846211726996,4.398077432171823,3.049391317928259,1.339717860866532,0.4993630303432073,2.3858178906719063,2.4661451832849504,111111.47248348959,88127.65979587883
144,1299033.0,183633.0,"[0,3,4,5,6,7,10,12,13,14,15]",11,0.4801428935384999,1.7124136918738837,2.0124209744710035,1.1260266830719594,2.5378784635671283,0.3789347725708161,0.34677585907900843,0.9539917325756706,3.7417013508348336,0.6833786867100385,0.23962728606895345,0.21713535358609415,1.9924833647212852,1.7302518458491922,68146.55329618236,23467.42952334513
144,700809.0,70680.0,"[1,2]",2,0.33294555729733477,0.20321302524799778,0.5490289455243986,0.681477467291367,0.3075542007865346,0.25010857324889746,0.06691639302000763,2.215566085288607,0.8368630433299432,0.3593878624461073,0.19601418863050668,0.7949503659099704,0.5822181136486458,0.8821429653828763,69505.81568444512,15546.399706624097
144,157785.0,23092.0,[8],1,2.0577008147986113,0.34894937658842284,1.6544557291758015,1.5029175491143119,1.6639867971036533,0.46947417848969986,0.202503977462984,1.0675673325157429,5.648905748068588,3.0694443348100338,0.5159234876002419,0.2510837294229541,2.426739624476355,1.9883746270874572,72643.35808853702,31672.63078239384
144,656767.0,85147.0,"[2,9]",2,0.3262649675546845,0.13553467864253355,0.23468234149096867,0.8716252968008544,0.28060004900065705,0.24804158530039278,0.05912081664571556,3.0874691605897304,0.7463482133648928,0.3693532639642233,0.1822676818247082,1.2173294513183457,0.6655710618560121,1.3629448224454275,71011.55530652456,14860.110523213869
144,93452.0,13500.0,"[10,11]",2,1.4068387633223665,0.625645253178142,2.6225419491289528,2.3378644515366003,2.162500290159642,1.5347703273124174,-0.3974869983949012,1.1855304493001673,4.446154030828685,3.0323005964987324,1.3447267318837692,0.5319763862196629,2.3898180700466582,2.5322166903544012,110406.49300175448,86161.71347857859
168,1478382.0,205904.0,"[0,3,4,5,6,7,12,13,14,15]",10,0.463302137459064,1.695412109647589,1.9830953800228692,1.1945230231848063,2.517785952507523,0.3609942438212739,0.3847926734125493,0.9590947339117939,3.7119912925955707,0.657905599982285,0.22871573984938598,0.21698385389906416,1.9587923045714715,1.7010686629213734,67406.47770873815,22856.67698876161
168,777498.0,76689.0,"[1,2]",2,0.3284602444777771,0.21277070109252438,0.5682201379771983,0.7590845852580936,0.3364461123848823,0.2564277697743105,0.08970013177134861,2.189759655074406,0.8729628498195666,0.36807880034545826,0.20154972727900544,0.7882184223959345,0.5968175826831622,0.8937660461351609,69341.84737195498,15698.197695684521
168,297963.0,46726.0,"[8,10,11]",3,1.8025267463611498,0.44646460225267237,2.0462499798766793,1.9630040044434867,1.8972432424965118,0.8846442548940618,0.04635477629434748,1.1131522473696127,5.172998549286367,3.063314628967339,0.8452035927648884,0.36921437931219725,2.4072638336639316,2.2201638306400238,87051.86617130229,52658.404754953066
168,725151.0,68384.0,"[2,9]",2,0.31276812387900454,0.13066887881701117,0.22838279511023218,0.9696353343703659,0.28538159449826805,0.254036162727467,0.08546808130025907,3.147014713157751,0.7762291629054064,0.3788417290302195,0.18579606029086815,1.2391756029213203,0.6755445772107872,1.3936250698764883,71132.2214766307,14918.589126953417
