time_in_hour,cumulative_size,size,pcore_ids,pcore_power,AF700 CD48_[R 730_B-A],APCCy7 Ly6G_[R 780_A-A],BV421 CD117_[V 440_F-A],BV510 SCA-1_[V 525_E-A],BV605 CD11b_[V 610_D-A],BV650 CD150_[V 660_C-A],BV711 CD11c_[V 715_B-A],BV785 B220_[V 780_A-A],FITC Ly6C_[B 525_B-A],PE CD115_[YG 582_D-A],PECF594 CD135_[YG 610_C-A],PECy5 CD3-CD19-NK11_[YG 670_B-A],PECy7 CD16-32_[YG 780_A-A],PerCPCy5-5 CD45_[B 695_A-A],_FSC-A,_SSC-A
-1,0,0,[],0,0.0,0.0,0.0,0.0,0.0,0.0,0.0,0.0,0.0,0.0,0.0,0.0,0.0,0.0,0.0,0.0
0,100054,100054,"[0,4]",2,0.30245466939852994,0.15179128678512432,0.36300952001919473,0.45684617420593376,0.2992297273672122,0.18565490728007394,0.076362598636738,2.286013969706323,0.733864921952153,0.36568046724768555,0.16735632234591957,0.8096208882703302,0.5677654941931344,0.8378244112479194,69277.37101964944,13623.710716213216
0,41756,41756,[1],1,1.729020812242544,0.34630817724399066,2.0574222503352453,1.2934075513698535,1.802232120078553,0.7683080473943882,-0.20939545330012654,0.8215685494539766,5.278318870341967,3.266721542676468,0.7155547069163606,0.28260103101350875,2.406220827617571,2.01618624719801,85767.58080275897,45899.812625730585
0,129860,129860,"[2,8,9]",3,0.298374895818573,1.9993177219852019,2.1158432517788293,0.717874545402744,2.929207972000589,0.24275139023563064,0.17308739364699832,0.67159446032651,4.075260050261841,0.5768977602725959,0.1256178076466834,0.13654155837825666,2.199290871669479,1.7513899045048553,69141.97320190954,21330.649992299466
0,36881,36881,[3],1,0.4709480956590204,1.2529702444076958,1.4313280539844242,0.7199699272524893,1.7994833113526902,0.6897670348960283,0.054536047205889115,0.725314063908221,3.7811279209891153,0.6249292768363209,0.298217915783197,0.15747303454353634,1.5387596106125248,1.0785640838100996,62725.96946937471,19627.870393969784
0,15145,15145,[6],1,0.33717902799604293,0.05929553667875931,-0.28778009065699317,0.9251326466160474,0.13045819603830067,0.961371936876853,-0.47243235767580405,3.9181089558270106,0.9058340693298109,0.4462459249257231,0.2405583492902008,1.6991062337405105,0.796013607725316,2.0569214173654693,73121.5783426871,15342.509343017447
0,17596,17596,[10],1,0.7751801250284227,0.3938524538531363,2.9062689331098004,1.0293803799727175,0.6107283732666504,0.5130930961582163,0.16149250056828812,0.8482180129006616,1.6141468185951333,0.830689641907255,0.5623417335189735,0.2798978783814484,0.8067059461241107,0.8429347416458264,64431.67629006584,27653.135712661926
24,210197.0,110143.0,"[0,4]",2,0.2960377428650325,0.1487385122575695,0.42850867997642705,0.49019398617487964,0.2741660175930245,0.21698840659953667,0.046881427836738876,2.180983685147721,0.7494437731318798,0.347198764868186,0.16430433798293054,0.7571777654010297,0.533472420810006,0.808395444287977,70876.09920217737,14702.4210621464
24,81159.0,39403.0,[1],1,1.7191541935460093,0.39096825478384245,2.220416848839831,1.3973312004090608,1.8245385278650699,0.8435027508224733,-0.20762556147809397,0.9357539012802634,5.348271237287339,3.2587593924518243,0.7323893885705637,0.311309473736739,2.3997405721854377,2.0441942841336385,88436.61533532917,52405.99613105171
24,239986.0,110126.0,"[2,8,9]",3,0.32508653853975145,1.932162617002632,2.1694917061578463,0.7542626480836172,2.924432924283066,0.2540926382538875,0.18929953925644982,0.7157389677314581,4.143269639712311,0.5979689484344938,0.1052729972039792,0.1400365910219764,2.155436099343293,1.7351286362079585,69184.71524172203,22893.104231080473
24,80692.0,43811.0,[3],1,0.48355703173797204,1.0847150783596735,1.498539424527833,0.7863967282382274,1.6947836778118996,0.6532006384647902,0.054929644165471636,0.7780093152356913,3.848912015540528,0.6199735697219347,0.27563210993652554,0.17307675454817062,1.4250490117359824,1.0761916713800528,62914.025677886355,21739.72101323559
24,59951.0,31693.0,"[5,6]",2,0.19963357129989867,0.07155275932010241,0.10944736830076618,0.9820019685076149,0.2994475823756111,0.36685906837250726,-0.14209152147587378,3.917281054611297,0.891156762472688,0.43220342991776795,0.20360596602225955,1.7694534986739123,0.7522943066671036,2.12137796804056,75342.01144267805,15518.456873112875
24,35862.0,18266.0,[10],1,0.8465567410908477,0.38778809268863546,3.043128593608824,1.1388487022753706,0.6052320589203104,0.5636099911605634,0.17060743751044471,0.9245554883720666,1.6929587997880677,0.8749547518543263,0.577342068791491,0.29891545460375424,0.8330473180246524,0.8907118709218655,66283.56611455002,31582.477720149363
48,325031.0,114834.0,"[0,4]",2,0.2768559570471807,0.15930145143389396,0.4396091377068698,0.478497631616718,0.27799480155122946,0.22050783847388677,0.04447993613221124,2.133415972181079,0.7873834401980201,0.32894435187413085,0.1563129641603287,0.7048982105122266,0.5327111908925714,0.767128137986836,69456.18139808218,15008.998206324852
48,121678.0,40519.0,[1],1,1.7574936414224374,0.39064455764393946,2.164492727912941,1.3573346328917362,1.8354403545587439,0.8150859909187156,-0.15652252245268405,0.9107533497345592,5.330975025896197,3.208184898313583,0.7014204838590237,0.29569368976314525,2.429657973364114,2.0215320254277813,86464.91520241924,51161.96439783693
48,329244.0,89258.0,"[2,8,9]",3,0.3135582720414076,1.9487867086020945,2.172338685433935,0.726797640193876,2.9697406787549503,0.2576454057264488,0.18924732325264104,0.7015273163611426,4.128932752250563,0.5303465996160929,0.09182332997410425,0.12389056265869391,2.2032102803270344,1.6966702396308027,68431.50179198386,22563.01199110717
48,138143.0,57451.0,[3],1,0.4235270736628014,1.0558980126752666,1.462735128656523,0.7513983283554158,1.612200017438476,0.5638810026349546,0.05855388132585171,0.7687819751127196,3.843741209427915,0.5534716502681957,0.2458888725668249,0.158548492648926,1.3297348143156,0.9915523235704762,61677.00565356163,20886.4773459383
48,82968.0,23017.0,"[5,6]",2,0.19118740552985747,0.07369247353196151,0.06870896047870945,1.0041931114285032,0.2761722410929486,0.3613948039485173,-0.11983520281314686,3.96435970145117,0.897805731643527,0.39908781968952156,0.19263360910230576,1.7534649083622575,0.7376744983969671,2.073716138438915,74356.57429370345,15277.837816989588
48,19928.0,7995.0,[7],1,0.8102297005720576,0.14321934323563212,0.8241640338719227,1.1782943121236462,0.32103581588720775,0.392129159474111,-0.05297842859292512,0.44169158104175077,1.8876886659474064,0.5108612172822199,0.24414366820554623,1.1378077201425107,0.42411861747290724,2.374632847501023,82080.65837013256,19516.521878763666
48,50074.0,14212.0,[10],1,0.9045741340416062,0.37969046239567517,3.0911033288333347,1.1728000453528669,0.5728846845269291,0.5778865482086606,0.17122430820383494,0.9355082366497203,1.7182488598274688,0.8656655799616596,0.5959430716939189,0.29224113975317156,0.841071262591368,0.8953849243719112,65065.39793106211,32327.308223828706
72,453336.0,128305.0,"[0,4]",2,0.27360458828992584,0.19894363249335445,0.44316418397614354,0.5300761143324553,0.31911048098320904,0.22751587556470687,0.03268300404779323,2.1330751187330845,0.8205586017832264,0.33061273559567206,0.16487448768902668,0.6763119092395034,0.5624405100014106,0.7899324724222263,69420.41611519986,15951.067111369643
72,143508.0,21830.0,[1],1,1.760285418959193,0.4054898067355368,2.074598527008876,1.4524987052429448,1.8257597825765859,0.8135794323174317,-0.17469661547090132,0.9177831325361638,5.326892534332605,3.1624762846043284,0.7047115568400497,0.2965316563954662,2.4203381178191976,2.042150887337297,86803.48211946357,50721.93327201259
72,431911.0,102667.0,"[2,8,9]",3,0.3468821147389314,1.8852145394259399,2.088264720766585,0.8224281431845735,2.894765108587175,0.24404272991193898,0.1857225821199182,0.7234634951413801,4.050288823551605,0.5778592872767628,0.15172687237183435,0.13749784841552926,2.157545406016487,1.7029175851599165,69848.09977981562,24321.285894547782
72,206647.0,68504.0,[3],1,0.4428555906933178,1.1156730210600476,1.4166121779943937,0.8494246928240052,1.6460901797170835,0.5814174504541572,0.03333336951418442,0.7650343920259663,3.764028569067054,0.6177910343532674,0.28131271354047227,0.1572555410579476,1.3717505182703045,1.02291154693752,64204.08662114542,23551.920095621957
72,109882.0,26914.0,"[5,6]",2,0.20010848086130228,0.10670099632332297,0.03938297338961316,1.0749181546204105,0.31544935933092333,0.339735429833836,-0.09803877181887177,3.8887458357510782,0.9139285392511985,0.4074677289728985,0.1941882195991882,1.6644452043919964,0.7604803596039328,2.066006741895851,74393.70262645357,15895.513805718845
72,23200.0,3272.0,[7],1,0.8117895440517267,0.19176586629309123,0.8404469596120547,1.230457410732761,0.3957613878017381,0.40659629206896897,-0.06682787672413149,0.4859020618103491,1.9802731535775835,0.5636001355172434,0.283140736551728,1.1084147060344756,0.4925129453017275,2.3787418553017337,83090.08000000037,21458.648275862077
72,58582.0,8508.0,[10],1,0.9079062007613186,0.39511101266602244,3.1067430789320993,1.209405456829744,0.5883523325253579,0.5771602248643077,0.17035972559830226,0.949579381106799,1.719621746167768,0.8573502854119152,0.5966254333583909,0.2936863403093126,0.8415331719470153,0.9055679205728546,65223.52831927892,32741.98572940498
96,532240.0,78904.0,"[0,4]",2,0.2972676051386609,0.20043810029500353,0.444917496525993,0.5658544007929023,0.32067230859574103,0.22667059746730933,0.05684844770967956,2.1936612712516617,0.8103684598264073,0.3437570327821906,0.17484501566586985,0.7224644225424728,0.5733082754528137,0.8123788259018556,69645.57571020648,15760.450082668927
96,174132.0,30624.0,[1],1,1.818766441067653,0.40957138083750744,2.0362175463383267,1.5535511769404966,1.8178254945845649,0.8033316951795777,-0.12819549242527062,0.9708670394585512,5.34881137457221,3.1428167115004646,0.7299531657478671,0.3066378896928931,2.437340872125732,2.0922807010199245,86236.22318700698,49658.638366297164
96,544991.0,113080.0,"[2,8,9]",3,0.3566878084720695,1.990987048729246,2.108256493421035,0.887047148138211,2.9884573795695704,0.25892103569783,0.26908706846533637,0.7887668135639161,4.024523762276801,0.5861656934297844,0.15470855425134156,0.13909370038771796,2.23322136991067,1.783281329853166,69818.12458554318,23929.105265958427
96,231007.0,24360.0,[3],1,0.4651913426303069,1.1101546925071029,1.400181660161862,0.9100433125749023,1.6258115921898257,0.5790738470825676,0.08697483234704917,0.8187312866276617,3.765783601509909,0.6278537414494018,0.29777789347073824,0.16509648753934336,1.3679184082733467,1.0502069081456333,64034.53955940614,23321.13018220197
96,139956.0,30074.0,"[5,6]",2,0.25005798543828983,0.11544186511474708,0.05255484639457597,1.1368669102217916,0.33171341330133863,0.31592129521421697,-0.051284276494035996,3.9083547901483024,0.9020480125396552,0.433859578824767,0.2074236479179019,1.710514736988776,0.7807545349109738,2.0875720430706957,74530.42819171719,15657.19557575247
96,28832.0,5632.0,[7],1,0.8765110630896122,0.20507872041482145,0.8546364878953674,1.3397455707546908,0.3843401243410325,0.42724243281770713,-0.06443886105715535,0.5254761248265858,2.1301598719825243,0.592651268833246,0.31061954234878897,1.1207951839622596,0.5255698911626009,2.434493252081023,82943.27857935641,21507.89567147607
96,72046.0,13464.0,[10],1,0.9428963989673209,0.4115374995558536,3.145712457999078,1.2867790499680756,0.6168897079227498,0.590819991713643,0.23529091320820328,1.0120107701607206,1.724853073716802,0.899751199053395,0.6305164171224003,0.3261908945673577,0.8836547204563755,0.96047241712238,65641.53879465908,32930.57879687988
120,379524.0,49870.0,[0],1,0.322264790861732,0.1586401705952789,0.20802211848524355,0.6095309246925029,0.272191618277156,0.21212541865068912,0.08506776844150332,2.8453248568469505,0.6742678028030006,0.3398431657602333,0.16623422642569352,0.9632132405829696,0.6250593140143875,1.0289679129752094,70594.84398351639,15233.409091387368
120,209105.0,34973.0,[1],1,1.8695595024652436,0.42184615580688156,2.0253816484541187,1.6722214231940753,1.8282022147915886,0.7944958922025165,-0.09052882044428134,1.041846746806594,5.36294657407525,3.135209107515385,0.7513859873126312,0.3159133737404737,2.4555944365510243,2.1449705330336215,85151.2704909014,48470.27948638322
120,718777.0,173786.0,"[2,8,9]",3,0.3575915838319894,2.113911136341306,2.166512002221865,0.9745928809032662,3.112033656388556,0.2811663559546249,0.35528317621316985,0.8662400567631017,4.014267845168994,0.5671774708595184,0.16170438118913966,0.13590379726953228,2.326317076036091,1.8887602105201224,69217.45006309295,23293.63126532943
120,255231.0,24224.0,[3],1,0.474909263310489,1.12035273105143,1.406022223475985,0.9338926253903113,1.6278772450485848,0.5767182607363692,0.11305931059313101,0.8348155965968003,3.7551853379800844,0.6322780984520039,0.3087090590602024,0.16565673760632105,1.3707194038185175,1.0595068151282447,63681.04965305819,22990.962445783796
120,230615.0,28029.0,[4],1,0.27311049002450183,0.29205729883570886,0.895478720256722,0.5883207201526601,0.42339380459640497,0.2509546647399514,0.07538398709100358,1.1172523510352592,1.0563918847299618,0.37422987060685375,0.22529108975131074,0.34418099680852854,0.48845809591746236,0.487702619469679,67805.58850031512,16266.66504780673
120,167226.0,27270.0,"[5,6]",2,0.2553373739430542,0.11727221704759483,0.07697415799575058,1.1868546069630415,0.3460171464724682,0.30403986685682804,-0.024368417447043544,3.929640574994325,0.8952767766495612,0.4446486592096861,0.21608602327388038,1.7458839888354687,0.7860277437778836,2.1148896760252787,74377.9750995654,15442.02820135621
120,36950.0,8118.0,[7],1,0.9181550662516977,0.21452914127198142,0.8858353001352834,1.4592070210283916,0.3731190844113863,0.4458754582408744,-0.08235461182676662,0.5486367050608858,2.26135561447903,0.6077448066035344,0.33924902922870936,1.1327372893369396,0.5432532037889092,2.492073362273336,82050.37640054147,21457.6757780784
120,85776.0,13730.0,[10],1,0.9663782041246722,0.42981278654869115,3.1826119504990014,1.312517300363743,0.6303855233981701,0.5962843975354486,0.2565963000023239,1.0230011567221342,1.7262009871059534,0.9040050961691107,0.6498486374043995,0.3293726816475495,0.9045293648223424,0.9843431199053232,65028.66107069607,32744.37530311544
144,421710.0,42186.0,[0],1,0.33673549863651453,0.153460564459039,0.2226473170021892,0.6785986545090221,0.27206421036259965,0.2173164942021184,0.11515244500481225,2.8904182926845365,0.6793518071518506,0.34772714943915584,0.17181066448266513,1.0034323584264513,0.634933815252183,1.0490485109435663,70516.89807687828,15119.425956224808
144,245561.0,36456.0,[1],1,1.899100688228154,0.4142310715545112,2.0152272134744575,1.79352960541366,1.8557867573433433,0.7867242465375421,-0.023711967482642926,1.0691907353976777,5.368504323638575,3.177210154491169,0.7638658097621716,0.3308466145927229,2.451309483554001,2.2010957712625245,84409.84397359482,47525.86034427317
144,860513.0,141736.0,"[2,8,9]",3,0.36667966658029405,2.170029223615466,2.1731622344311137,1.0701293183333722,3.1589783312872535,0.29489213122402713,0.4292204657790779,0.9130691857822195,3.9820043005962975,0.5773600490137684,0.15429662099466368,0.14585540964053423,2.361979810931355,1.9422959370411006,68864.79111878603,22910.208845188095
144,266872.0,11641.0,[3],1,0.48492290590245846,1.1122075780635994,1.4086054747032315,0.9677883056633632,1.6176663932933852,0.5776200394046647,0.14055138260286704,0.85468232053943,3.754454008131208,0.6414139066856245,0.3158900933668458,0.17026089621990492,1.3687318928737446,1.0675458950995185,63509.41718876327,22870.58532929569
144,253496.0,22881.0,[4],1,0.2874153212989492,0.2985317215656109,0.9196283684082052,0.6614810840684249,0.43248230465970705,0.2541647104609266,0.1005484869859492,1.1129619278410492,1.0670331588743056,0.38822647317118153,0.2383002374080827,0.3530035962066419,0.5029945132388963,0.5061087603552035,67713.69962445178,16230.3874775142
144,212228.0,45002.0,"[5,6]",2,0.27077450456585495,0.09987310341709899,0.06976227819607361,1.3953840703300382,0.35093902757886974,0.2929708673313678,0.027476559219339336,3.9756472041342326,0.9498600848427102,0.4587626108477638,0.21810344337223198,1.8067410915854518,0.8067786577878521,2.1515870860159856,74014.93910322814,15133.870365833116
144,50272.0,13322.0,[7],1,0.9675835832272683,0.21563183666851504,0.9046816480545763,1.773803955004765,0.34344384205921186,0.4787188869947656,-0.08188034386933829,0.6311910448161901,2.494170465806016,0.6273754730665323,0.3649080908855984,1.1481521737945626,0.547965571849148,2.5469525550007814,81001.19414385752,21284.692552514396
144,94897.0,9121.0,[10],1,0.9806479859110164,0.4378200338893765,3.2019924111510574,1.3606860401909504,0.6389485338630467,0.6053486519489713,0.2854118923569775,1.0523081786779191,1.7430195252642244,0.9336784105504033,0.6550133237088502,0.34186256155621664,0.9291591338925639,1.000151878204783,64804.501385713,32585.910534580154
168,453190.0,31480.0,[0],1,0.3306018765727392,0.15306648492250474,0.2299382545973816,0.7141871483991187,0.2743291692667733,0.22267400288614558,0.1319358581036214,2.9109052921512237,0.690497588355894,0.349951413583683,0.17382280082965895,1.0008833644078983,0.640617073929238,1.0493574944901927,70538.59299631573,15148.5325271948
168,299010.0,53449.0,[1],1,1.8746994236312828,0.41138744040999464,2.0547153105582026,1.9764261077120877,1.9109714732148597,0.7966832626801874,0.073259389254547,1.068253907641901,5.318207391518724,3.1648224138958327,0.7885931973445515,0.34296796358317905,2.43874543756064,2.2235520448245945,84522.99136483767,48275.7798334499
168,958206.0,97693.0,"[2,8,9]",3,0.35794695338685845,2.1817581327428908,2.177922679843397,1.108908843178841,3.1843385366089785,0.29006634284588384,0.4606585131109049,0.9140914687990231,3.940284380373322,0.5790674005265973,0.14769419619266566,0.1431761465300796,2.3610929841359303,1.9313917355569268,68735.82427160759,22833.39550785423
168,333971.0,67099.0,[3],1,0.46422418760612505,1.0691884947764372,1.4022458264880373,1.076406964739399,1.626096645541046,0.561298945243752,0.1588880458931663,0.8499744722895,3.738293871060621,0.6603522251543102,0.3179203926627987,0.1662640185734665,1.3664820396741244,1.06202148753033,63001.7308089611,23188.231121863024
168,288819.0,35323.0,[4],1,0.2830832948905535,0.32107969737441255,0.9365509480643976,0.7359456817003585,0.4960623641312405,0.250619835274013,0.12689431098712323,1.062333233173684,1.1316279122010702,0.39653686327423276,0.24088170813209553,0.3421363224960884,0.5381887621590228,0.5301100672947445,67133.39607158842,16446.087660437486
168,252943.0,40715.0,"[5,6]",2,0.2481933453979861,0.09639678129856,0.07262117220478759,1.576274540635613,0.3646214408028934,0.3023451656381304,0.09319304099739734,4.018583368351749,1.0402241822940295,0.4791549766587676,0.22375582544685102,1.8073189464464345,0.8214639486919936,2.1592946776704713,74074.46578873473,15329.637681216871
168,71804.0,21532.0,[7],1,0.9417912743579808,0.21222536354522292,0.9034388649378822,2.180077696228635,0.3453823246198078,0.5028106434739266,0.06548886063449277,0.8271189441813886,2.757592067865313,0.6588178771099239,0.41998081704361256,1.1311850528522254,0.5636943289371109,2.5230278987521753,81174.75349562768,22320.794161885216
168,107606.0,12709.0,[10],1,0.9863586560879434,0.4433377670018488,3.2220366247421244,1.4641636466553658,0.6733783172964438,0.6179409661636146,0.3255228773674266,1.0581118137278516,1.7844487312138733,0.9627326682898983,0.6786671293701021,0.34017244824637916,0.9498561751296625,1.0160642980038246,64514.57056297985,33081.58905637276
