time_in_hour,cumulative_size,size,pcore_ids,pcore_power,AF700 CD48_[R 730_B-A],APCCy7 Ly6G_[R 780_A-A],BV421 CD117_[V 440_F-A],BV510 SCA-1_[V 525_E-A],BV605 CD11b_[V 610_D-A],BV650 CD150_[V 660_C-A],BV711 CD11c_[V 715_B-A],BV785 B220_[V 780_A-A],FITC Ly6C_[B 525_B-A],PE CD115_[YG 582_D-A],PECF594 CD135_[YG 610_C-A],PECy5 CD3-CD19-NK11_[YG 670_B-A],PECy7 CD16-32_[YG 780_A-A],PerCPCy5-5 CD45_[B 695_A-A],_FSC-A,_SSC-A
-1,0,0,[],0,0.0,0.0,0.0,0.0,0.0,0.0,0.0,0.0,0.0,0.0,0.0,0.0,0.0,0.0,0.0,0.0
0,108478,108478,"[0,10,11,15]",4,0.297447205507112,0.1258225861741522,NA,0.5489395401095196,0.28653447453860625,NA,-0.00833168994635436,NA,NA,0.36909910485075226,0.16910045857224487,1.11887441529158,0.6483541974962669,NA,69632.80473460059,13950.047161636403
0,25763,25763,[1],1,0.3082511726118933,0.2947709556340339,NA,0.5743113075728741,0.4564922071575541,0.25144483220121683,0.08720295124788979,NA,NA,0.42907005038233104,0.2562346442572907,0.29280768256802137,0.530681266234524,NA,68410.96456158071,14489.082793152918
0,157711,157711,"[3,4,6,8,9,14]",6,0.31593689388184876,NA,NA,0.7185456076938324,NA,NA,0.20339009447660628,0.7021695147833729,NA,NA,0.15822927989169022,0.166387589768628,2.0071906003576205,NA,67394.9067851956,20039.051277336403
0,14520,14520,[5],1,1.2600809048898178,0.5217785708677805,2.663978309159796,2.084027060537158,2.054282270936645,NA,-0.6770821154270046,0.9751534809917439,NA,3.1273851742424235,1.295577254614317,0.4961406683884315,2.3081075537190077,NA,NA,NA
0,27229,27229,[12],1,1.9283446234896482,0.28074421271438554,NA,0.8948411851702107,NA,NA,0.04222232707774776,0.7834449383745299,NA,NA,0.461624947923176,0.20734750185464157,2.385644709831432,NA,74271.03044548114,28441.53277755319
24,222334.0,113856.0,"[0,10,11,15]",4,0.2852447572796015,0.11834564864123154,NA,0.601257726537554,0.25590777562585787,NA,-0.011130578076222086,NA,NA,0.35181418917934226,0.16337125619112758,1.1050282177084894,0.6070226012125929,NA,71218.28772927201,14642.066080761391
24,57960.0,32197.0,[1],1,0.30737444924085566,0.26753254646307756,NA,0.5998091267771195,0.41586983428226354,0.2707898532091033,0.06663543583506115,NA,NA,0.3993322352484395,0.2375361787267285,0.3047377739820455,0.4994712866459684,NA,69998.0576949627,15556.727122153166
24,301429.0,143718.0,"[3,4,6,8,9,14]",6,0.34812713812539964,NA,NA,0.767273216389273,NA,NA,0.211390307448851,0.7431754753457738,NA,NA,0.14725102617861552,0.17355518952058324,1.9260354657116578,NA,67541.77786477063,21950.50822581771
24,31572.0,17052.0,[5],1,1.2787492695742937,0.5327506237172135,2.7371097689408415,2.11773837777142,NA,NA,-0.6260823604776338,1.0280092587736003,NA,3.1558755926137025,1.2801725661345573,0.5105640946724928,2.2664993743823807,2.4149303193019085,111793.94197390099,NA
24,113117.0,54541.0,"[4,6,7]",3,0.5180181344713877,NA,NA,0.8236370565520694,NA,NA,-0.09678879993281031,0.8215772105077113,NA,NA,0.23126223428838744,0.1694921445671289,1.9411046082728554,NA,69157.10763192078,24389.334229160984
24,49960.0,22731.0,[12],1,1.940866666973576,0.3292574874299312,NA,0.9700877661929432,NA,NA,0.06196147117695805,0.9179484165332261,5.71974442401924,NA,0.45031884337468187,0.22597289025220624,2.3929055541032773,NA,74754.94123298605,32885.94651721377
24,19503.0,10514.0,[13],1,0.9356941905347858,0.3523324845921234,NA,1.1839949940522092,0.5107289217556321,NA,0.1043252002256092,0.9630527579346855,NA,0.9609111281854069,0.6099455988309486,0.305034160539408,0.8119596618468997,NA,NA,34371.9870789111
48,326058.0,103724.0,"[0,10,11,15]",4,0.2780075132277302,0.11926783274754182,NA,NA,0.24252449668157672,NA,NA,NA,NA,0.3319918452575995,0.1561240417134373,NA,0.6110224042164322,NA,70518.91145747059,14871.612191695942
48,103869.0,45909.0,[1],1,0.2869032403315519,0.29410019655527586,NA,NA,0.46401180684321375,NA,0.09561701144711465,NA,NA,0.41425385311306395,0.2384299474049132,0.2500126108078332,0.4887606959343159,NA,NA,16463.14153404754
48,313049.0,99342.0,"[3,4,6,9]",4,NA,NA,NA,NA,NA,NA,NA,NA,NA,NA,0.1323147906046711,0.1637761075422719,NA,NA,NA,20246.705199505606
48,43950.0,12378.0,[5],1,NA,0.5488684172013625,NA,2.1134363088281876,NA,NA,NA,NA,NA,NA,1.2660171114675816,0.4938285034812202,NA,NA,NA,NA
48,172837.0,45177.0,"[4,7,14]",3,NA,NA,NA,NA,NA,NA,NA,NA,NA,NA,NA,0.12867794504070096,NA,NA,NA,NA
48,43960.0,11357.0,[8],1,NA,NA,NA,NA,NA,NA,NA,NA,NA,NA,NA,0.15508232295268798,NA,NA,NA,28030.0753412193
48,80230.0,30270.0,[12],1,1.969282289043986,0.32389827651749625,NA,NA,NA,NA,NA,NA,NA,NA,0.4193260859653334,0.210650365960368,NA,NA,NA,NA
48,28678.0,9175.0,[13],1,NA,0.33745799557152667,NA,NA,0.49005918805357096,NA,NA,NA,NA,NA,0.6098766050979862,0.2781231546132953,NA,NA,NA,NA
72,448195.0,122137.0,"[0,10,11,15]",4,0.2755613285935983,0.15056665444951722,NA,0.6460247071207945,0.2724959310300439,0.2505619719296248,-0.006868954812040862,NA,NA,0.33426178211716684,0.16112441742320494,1.0008501090931168,0.626122588235034,NA,70579.53642499378,15622.067501868501
72,134821.0,30952.0,[1],1,0.28676528959877734,0.3392450112519749,NA,0.6614195873046649,0.5097071094117456,0.281147137604677,0.08616380787116107,NA,NA,0.40876943668272026,0.2412428928208903,0.28699600695736915,0.5322567127376446,0.5609462007699109,66662.28103930443,17396.062631192355
72,14996.0,1697.0,[2],1,0.7965192890770807,0.13727827100560797,NA,NA,0.326341781208324,NA,-0.07216395885569149,NA,NA,0.5103176585756185,0.22418230654841853,1.1860888002800765,0.43364487936783,NA,80521.73913043475,17948.760736196306
72,459474.0,146425.0,"[3,4,6,9]",4,0.3063113918959608,1.6135642517770354,1.6860509071090068,0.817357242087696,NA,NA,0.24439388224140046,0.7097781912338945,NA,0.5800851511663291,0.18448844891550165,0.17269414725534116,1.7530537782790763,NA,66814.93081218904,22262.8659380076
72,53231.0,9281.0,[5],1,1.2847804752869727,0.574199455787046,2.6168391708778427,2.1453259840318597,1.9956860055982628,NA,-0.5699317917942643,1.0456465639007817,4.408396011647344,3.0581483389566393,1.2694081075876853,0.4885227329375683,2.2709693655764447,2.3811522810204555,NA,NA
72,320576.0,83519.0,"[4,6,7,14]",4,0.5444418693664022,NA,NA,0.8717251709610228,NA,NA,-0.24404740239755762,0.8458099792997706,NA,0.6862237845378368,0.26980470047039606,0.15669810090898972,1.9660910930450264,NA,69610.66140946274,25348.76662008405
72,48350.0,4390.0,[8],1,0.401980463474664,1.0985866980558265,NA,0.9231111124922506,3.1802575013443737,NA,0.804462677724926,0.7323990123681559,4.646977377042403,0.5099833573319571,0.016827202812827124,0.1627849515408536,2.2160201178076564,NA,73276.30825232659,29081.01360910039
72,94174.0,13944.0,[12],1,1.9372451922823488,0.3580384374986685,NA,1.073875064253417,NA,NA,0.062480844362554855,0.884499494722502,5.674619892390733,NA,0.44359827793234263,0.21645486854121387,2.4212337930851433,NA,74528.40435789041,33543.4191178035
72,31499.0,2821.0,[13],1,1.0022624977300858,0.3567827626273963,NA,1.2158594374741925,0.5081590724467473,0.6236101236547229,0.09977220956220201,0.9537490226991587,NA,0.910284595764954,0.6135632487698031,0.2793532515317978,0.8279426199561867,NA,66448.1386710689,35134.28718372015
96,545076.0,96881.0,"[0,10,11,15]",4,0.30901848643125795,0.1535700165059617,NA,0.7012015171866142,0.2800270902645021,0.24714934454093673,0.024748828592741745,NA,NA,0.3535179534541969,0.173950247881002,1.0600623998341414,0.642094551084618,NA,70774.75017795696,15411.040691572973
96,150593.0,15772.0,[1],1,0.29335258966218114,0.3576290392979895,NA,0.6836056578194332,0.524557424342428,0.28394678316390487,0.09189321941919681,NA,NA,0.41774719212048583,0.2533275441023597,0.29362545750467006,0.5455861351258185,NA,67086.85115510042,17494.271845304764
96,17694.0,2698.0,[2],1,0.8455224120605804,0.16686665118119537,NA,NA,0.39692383593308245,NA,NA,NA,NA,0.574361744094042,0.2398548986662159,1.17101638120267,0.49915479088956205,NA,80238.00158245716,18041.53634000224
96,547352.0,87878.0,"[3,4,6,9]",4,0.3208121164771538,NA,NA,0.8808315432993754,NA,NA,0.3342487777791816,0.7623284162659649,NA,0.5953185180980379,0.18953296192578595,0.1783458089456167,1.8134230419200068,NA,66830.86534442139,21994.218565018542
96,62649.0,9418.0,[5],1,1.3280087026927843,0.5745083954732046,2.58516139759613,2.1833290353716905,NA,1.5243996355568081,NA,1.0783033032291298,4.429030775990044,3.018913984931948,1.2862313411387012,0.5149063096617565,2.2793653533496054,NA,NA,NA
96,281211.0,59770.0,"[4,7,14]",3,0.5833628271795974,NA,NA,0.946119068955328,NA,NA,NA,0.9331399094416684,NA,NA,0.26383284502027937,0.14757488010426767,2.256661637912462,NA,71027.44948099431,25644.25294885349
96,62062.0,13712.0,[8],1,0.40978983400470415,NA,NA,1.0049457866327343,NA,NA,0.9202184705778111,0.8181967556636951,4.608373921836205,NA,0.023027432841351114,0.1653540541555253,2.277808427153488,NA,72804.87357803536,28236.328316844505
96,115215.0,21041.0,[12],1,1.983828009347717,0.3600813619233634,NA,1.2300880078114904,NA,NA,0.10757049905827021,0.9434760585600159,NA,NA,0.4876656116911704,0.2342363280215265,2.4242632419302925,NA,74731.78929826751,33654.06962635074
96,39506.0,8007.0,[13],1,1.0058939772439566,0.3708814077355389,NA,1.2804048459221247,0.5195513065356954,NA,0.14781440434366244,1.0195252834759452,NA,0.9243727139928178,0.6403853959145573,0.3168181487875288,0.8443914801296007,NA,66842.3591353212,34889.49486154003
120,623456.0,78380.0,"[0,10,11,15]",4,0.31209430093864987,0.15566954570812186,NA,0.7358318624554125,0.287555835197689,NA,0.043745582612097156,NA,NA,0.36119228545879767,0.18297696675624708,1.0888296996195344,0.6441251802709388,NA,70754.53061643487,15230.008109633714
120,177961.0,27368.0,[1],1,0.2971367308735884,0.3799827961238762,NA,0.710761897865257,0.5362367583628069,0.28422165562681245,0.10381616598016041,NA,NA,0.4239644464236565,0.2723851762970959,0.29693184911301307,0.5537128072555341,NA,67075.07447137323,17401.88702018969
120,22479.0,4785.0,[2],1,0.8884931535655414,0.17399254166111477,NA,NA,0.42803957938521764,NA,NA,NA,NA,0.6014605778726879,0.26146108105342725,1.169971961964486,0.5382718118243627,NA,79405.42835535406,17976.62315939315
120,666539.0,119187.0,"[3,4,6,9]",4,0.31691079891350427,NA,NA,0.9517936438393138,NA,NA,0.44202989810797666,0.8137435780936726,NA,0.5896036761719926,0.1915515449523606,0.17967372206277887,1.8939569450534908,NA,66498.68236967354,21520.419912413203
120,73807.0,11158.0,[5],1,1.385152391534673,0.5926387156773791,2.5928685263728517,2.231460384678965,NA,NA,NA,1.0988323258905033,4.431894951630633,3.000796220290779,1.3120329169590748,0.5362121271830536,2.3054457662281282,NA,NA,NA
120,370085.0,88874.0,"[4,7,14]",3,0.5893549473256183,NA,NA,1.0187760091141111,NA,NA,NA,1.0035977029979408,NA,0.7031226684410282,0.2658181793074714,0.13941453940851745,2.353244810759699,NA,70275.7689071427,24714.500160773554
120,79061.0,16999.0,[8],1,0.41719017086805543,NA,NA,1.1102752437485206,NA,NA,1.0273800869075842,NA,NA,NA,0.03790740067797138,0.16725645291611413,2.3246568446515945,NA,71938.54831079862,27734.005489432373
120,137528.0,22313.0,[12],1,2.0257442721918144,0.36188072007882566,NA,1.3875803130271875,NA,NA,0.1441637631391277,1.0156635197922554,NA,NA,0.520154297117676,0.24606357851491978,2.4336717236053884,NA,74020.27991390704,33208.12378570157
120,49455.0,9949.0,[13],1,1.0047889472449671,0.3942709621474192,NA,1.3233355182893627,0.5443379149934113,NA,0.20786352589223256,1.0622275362653255,NA,0.9169801821858287,0.6607495556162322,0.34319396404813174,0.863706214700234,NA,65932.06883024951,34122.84848852491
144,712477.0,89021.0,"[0,10,11,15]",4,0.3236951420242449,0.1488583765482927,NA,0.8527685906253875,0.29333161273981245,NA,0.07477846729088489,NA,NA,0.373623456699659,0.1887802782222936,NA,0.6620328084878476,NA,70751.888299552,15109.654099711062
144,197089.0,19128.0,[1],1,0.30631990353088034,0.389838199914776,1.0518987284830552,0.7624616804286433,0.5471917655526348,0.2887335080090774,0.12437255598229235,NA,NA,0.4306962654638351,0.28093630889094356,0.306849585918037,0.5707514254017402,NA,66977.29841848084,17293.284556722938
144,28789.0,6310.0,[2],1,0.9276001236235867,0.16988974563201786,NA,NA,0.4086176366320595,NA,NA,NA,NA,0.6202693043871,0.2755690610302506,1.1983081757615677,0.5455958182639137,NA,79204.63176907855,17997.634096356083
144,456578.0,34948.0,"[3,4,6]",3,0.43600654035016606,NA,NA,1.01215977935425,NA,NA,0.2578107412577628,NA,NA,0.6385471030645312,0.2694413252412513,0.20098127496507423,1.6749832085186198,NA,65869.91933908279,22205.514168444482
144,85998.0,12191.0,[5],1,1.4067667086908793,0.5822669787204386,2.54986055604784,2.321346232900766,NA,NA,NA,1.152888781390275,NA,NA,1.3209207214702579,0.5636145011628113,2.3123350671410905,NA,NA,NA
144,444051.0,73966.0,"[4,7,14]",3,0.5962366777194417,NA,NA,1.1179209546380524,NA,NA,NA,1.0591040023510647,NA,NA,0.2527494224785123,0.15497519178878816,2.3795668509743355,NA,69763.76389198483,23946.38684295202
144,391169.0,67199.0,"[8,9]",2,0.2180502583027153,NA,NA,1.1068237255764317,NA,NA,0.9647087874729237,NA,NA,NA,0.04885529603317673,0.18194288178000706,2.3325260687170775,NA,68073.69590126039,21432.727276445326
144,162079.0,24551.0,[12],1,2.0405262375137676,0.35164342906238444,1.6900324212698874,NA,NA,NA,0.20208734203687007,1.0442746532554303,NA,NA,0.5465052881249224,0.2711025256695878,2.4143656139228677,NA,73879.89590261402,33276.89356424933
144,59159.0,9704.0,[13],1,1.0219641263881873,0.4192985683497157,NA,1.462326847174599,0.597362802802599,NA,0.32267518230532666,NA,NA,0.958325936493189,0.6777575757196765,0.39283333110769636,0.929773558697735,NA,NA,33526.7124866884
168,787740.0,75263.0,"[0,10,11,15]",4,0.3101191512529604,0.14430041191001441,NA,NA,0.29814543735498544,NA,0.10162372937138953,NA,NA,0.38216692688196774,0.1925892854571165,NA,0.6721689561898535,NA,70807.77523548374,15151.801355777023
168,236098.0,39009.0,[1],1,0.30163386050282326,0.4178971383027603,NA,0.8559776607001761,0.6313359886572654,NA,0.15359483250174533,NA,NA,0.44031518671907666,0.28480791165959696,0.2940860499623108,0.6139151571296845,NA,66193.02831874893,17590.917127633016
168,36137.0,7348.0,[2],1,0.8946843774801325,0.1686320402634478,NA,NA,0.38431165625260366,NA,NA,NA,NA,0.6361149864128243,0.2893484332401659,NA,0.5306109109223117,NA,80571.47322688637,18620.6385698868
168,542065.0,85487.0,"[3,4,6]",3,0.43137449598295996,NA,NA,NA,NA,NA,0.27786005906667954,NA,NA,NA,0.2785226230249256,0.2023726569378298,1.6458856158745077,NA,65543.3084666965,22541.84064272711
168,106864.0,20866.0,[5],1,1.4305706216780025,0.5706312116615799,NA,2.469599257111827,NA,NA,NA,1.2034363149423521,NA,NA,1.327288277296415,0.5739130459275217,2.29985700250785,NA,NA,NA
168,495073.0,51022.0,"[4,7,14]",3,0.6010496983535756,NA,NA,1.1805388358807343,NA,NA,NA,NA,NA,NA,0.25434941347034457,0.1565676753630295,2.372446100973013,NA,69743.13157049526,23951.619902518476
168,446008.0,54839.0,"[8,9]",2,0.22211101751765572,NA,NA,NA,NA,NA,1.0157189343374924,NA,NA,NA,0.05246218509085265,0.18907952085165336,2.3220559978296156,NA,68137.13935176044,21604.075550213867
168,188731.0,26652.0,[12],1,2.021558469223395,0.34226791306147764,NA,NA,NA,NA,NA,1.0315870296347032,5.547762098712042,NA,0.5580125995941101,0.2808652150945099,2.4059684369340815,NA,73428.93612601924,33742.72470341356
168,68071.0,8912.0,[13],1,NA,0.4281720144848946,NA,NA,0.6378455379970647,NA,NA,1.1344374330038036,NA,0.9955232755652298,0.6849047135197068,0.37962813507955007,0.9703806616473917,NA,65686.42834687332,34028.93096913544
