time_in_hour,cumulative_size,size,pcore_ids,pcore_power,AF700 CD48_[R 730_B-A],APCCy7 Ly6G_[R 780_A-A],BV421 CD117_[V 440_F-A],BV510 SCA-1_[V 525_E-A],BV605 CD11b_[V 610_D-A],BV650 CD150_[V 660_C-A],BV711 CD11c_[V 715_B-A],BV785 B220_[V 780_A-A],FITC Ly6C_[B 525_B-A],PE CD115_[YG 582_D-A],PECF594 CD135_[YG 610_C-A],PECy5 CD3-CD19-NK11_[YG 670_B-A],PECy7 CD16-32_[YG 780_A-A],PerCPCy5-5 CD45_[B 695_A-A],_FSC-A,_SSC-A
-1,0,0,[],0,0.0,0.0,0.0,0.0,0.0,0.0,0.0,0.0,0.0,0.0,0.0,0.0,0.0,0.0,0.0,0.0
0,168975,168975,"[0,3,4,5,7,8,9,11,14]",9,0.3421932026690364,1.8119405363870413,1.9846024985589588,0.7181012065927002,2.6582409540405396,0.32268263106968376,0.16297665483651924,0.6862086043497615,3.9658524746264177,0.5817081873413216,0.1552875113063985,0.14558993984909074,2.0357960948424276,1.600698696712533,67463.71030034023,20034.60734428166
0,135809,135809,"[2,6,13,15,16]",5,0.2925534365910887,0.1441833978602367,0.35536712697242123,0.5583212504178725,0.2970632838839906,0.23220521400643346,0.009025937765541947,2.488816116118948,0.8122033060474635,0.36323238750008546,0.17710091872408196,0.9938685269164766,0.6070797570485013,1.1225893134549219,69732.88568504265,13644.120551657083
0,28750,28750,[10],1,1.9470126275825994,0.2721244233391267,1.607607967060836,0.8918367903652342,1.631416957669579,0.4114378988174001,0.05577666400000103,0.7877659771478256,5.655813515965211,3.2640160861217127,0.45194271436521527,0.19168707686957065,2.398807662573905,1.8089025997217287,73019.13822608707,27739.605704347807
0,15614,15614,[12],1,1.2498891382093016,0.5458599976943885,2.703256178237495,2.1742327047521104,2.1135317190982676,1.5791305443192123,-0.703353109196877,1.00288429601639,4.241958212181371,3.189668491994363,1.376281635199165,0.5145723408479597,2.341414742538747,2.4546064086076584,115008.42218521814,92104.90277955646
24,327480.0,158505.0,"[0,3,4,5,7,8,9,11,14]",9,0.37472923115610723,1.6879205630908665,2.0114691029589555,0.767103923830466,2.577044875855027,0.33783549510504574,0.16898510332233085,0.7345192608281415,4.019467471164666,0.5982447546903654,0.1430229327348158,0.15801347756504147,1.9459163923567857,1.5692645778032215,67498.55370709652,21782.12756809577
24,81839.0,45111.0,"[1,16]",2,0.4772158046530297,0.2666352808441057,1.6897645516807498,0.7416325380197932,0.41903507288702313,0.35712681310866934,0.09543137446694017,0.8102267465266895,1.244595609049477,0.5473837775143832,0.33307527710507046,0.2729659485086535,0.5536045217561293,0.5976258655653155,67821.38002663778,19738.805410623194
24,224199.0,114230.0,"[2,6,13,15]",4,0.2782027450702296,0.10717235497484134,0.23517896177949194,0.6083174306932628,0.2336901711381656,0.25121245733925446,-0.020986043858373993,2.902719831065305,0.7227140337780268,0.3304799609364739,0.1528918436165987,1.15943560983323,0.5885672958041624,1.2774265153501962,72085.51402994661,14299.602906346436
24,52483.0,23733.0,[10],1,1.9554387010651009,0.32391558173121027,1.7730947536154251,0.9609086442657646,1.6643482856353553,0.44371594470590425,0.09339162357335296,0.9258414877198287,5.743872975001525,3.2303120197587667,0.4331733538860001,0.2082982655907657,2.4124913938227532,1.8113240226930316,73339.07345235601,31672.29800125755
24,34035.0,18421.0,[12],1,1.2853863763772504,0.5533383669457943,2.8150124604965536,2.2029508048185398,2.0922855387982895,1.612470510738951,-0.6831914918466202,1.0569088155722088,4.391372564272081,3.248485990979878,1.3612267297487533,0.5108550721022458,2.3252282250918386,2.4314728166299093,116908.0092845598,96300.62042015555
48,459070.0,140050.0,"[0,3,4,7,8,9,11,14]",8,0.3307910018385143,1.711957977944504,2.0006874453372974,0.7195961940248754,2.617195745666231,0.3343182170997956,0.1599335094538903,0.7049875281547475,3.976975711601724,0.526652992236481,0.1280223818328463,0.12385504204587616,1.969175678188523,1.471328168224885,66244.21582765147,21524.88159104279
48,153281.0,62982.0,"[1,5,16]",3,0.5150263060653228,0.26800396630372436,1.5493151785609496,0.8051035864523404,0.39738973299365465,0.356934490491323,0.09928356442742237,0.8349245870394646,1.685988723175111,0.5178455564029519,0.3226857574128634,0.3069926930017378,0.5366720304799687,0.7583094998336402,67026.8207540398,20429.947299404233
48,326893.0,102694.0,"[2,6,13,15]",4,0.27841039331218864,0.10970614737545237,0.2282045095000389,0.6076842569770702,0.22930918525327293,0.2553971480637516,-0.015392127115025911,2.919282020725455,0.7289027372687636,0.32258373587993494,0.146432330701455,1.1249809135527549,0.5977130608823077,1.2397960312242886,71348.95433062132,14609.122960723993
48,81797.0,29314.0,[10],1,1.9927708174382748,0.3193971086103198,1.7473731385380984,0.9315193137890145,1.6991250023105962,0.4568773974840419,0.08902222855364128,0.8801428526962791,5.762578210814612,3.1842036261721236,0.40887647207107314,0.19695339168918558,2.46115532567209,1.7960552722348877,72421.63071995304,31446.97903346136
48,46281.0,12246.0,[12],1,1.2568902547481733,0.5634246778807777,2.754017818154311,2.179753848404277,2.080832234696748,1.542811813033427,-0.5944320933212315,1.04558918819819,4.324488455737806,3.200206781811095,1.3301441860374226,0.49492665432898186,2.3132144703442035,2.410746918022492,114432.28625137651,93737.29902119633
72,655531.0,178695.0,"[0,3,4,5,7,8,9,11,14]",9,0.38390559244796796,1.6034850960900342,1.8638689723552226,0.8335420501761162,2.4447427606901617,0.3353982380375642,0.14741119510594514,0.7490013807325697,3.897642178107518,0.5720281896340577,0.18753231523299263,0.15814203907671787,1.8666502780768681,1.4844460104266624,67762.61530881043,23157.508011062862
72,172158.0,36643.0,"[1,16]",2,0.43346981097015047,0.3132927609463594,1.549912941205172,0.7573528756433427,0.46009671848536016,0.35391084337643375,0.08035136524586983,0.870300003641963,1.3306090081843545,0.49370618356393436,0.31604143039535026,0.26802568139731653,0.5506643728958264,0.5933498340419889,66157.54997153775,20592.980866413403
72,444313.0,117420.0,"[2,6,13,15]",4,0.2697116284286032,0.13413677885185749,0.21286075868363197,0.645861056851829,0.24898300332198087,0.250785290961548,-0.02014594672000447,2.870507049141084,0.7198455971308434,0.32178142581467795,0.14877425376927178,1.0556875699563137,0.6124642425114671,1.2197138932891889,71294.8122247154,15214.046674303698
72,98175.0,16378.0,[10],1,1.9626434577947414,0.34888941453525213,1.6648738126407063,1.0893747597351724,1.6912820300484022,0.4574036562363175,0.08390148313727908,0.8840060808759369,5.691355376582715,3.141196591494827,0.4338241622510557,0.20529181563534904,2.439998986116622,1.8243619158339388,73722.52210847971,32875.94568882134
72,57145.0,10864.0,[12],1,1.2825042551579446,0.5922307001137534,2.675881900288719,2.213110217149333,2.05456451036835,1.5580948245515718,-0.6168807695511505,1.0635220358036896,4.354205907323505,3.112711856995365,1.3374010406159398,0.4887624272114761,2.3131598420684187,2.403420601189934,115137.6888966655,93399.69719135514
96,771647.0,137589.0,"[0,3,4,7,8,9,11,14]",8,0.3757869679127941,1.7393305291305432,1.9172271320215004,0.877710737352698,2.6040244656831244,0.3362804385450884,0.22739202776529188,0.795340027125099,3.8646823977609155,0.5821991872423592,0.18556337215203156,0.14062647133339656,1.9788290725318682,1.5435351939876771,67601.09341188378,22824.22349079307
96,198829.0,26671.0,"[1,16]",2,0.4565416600847887,0.32538450810998754,1.607821324992822,0.8063327437949477,0.4715180385356432,0.36017616073109204,0.10385976502923144,0.8920713585040159,1.3332579472260178,0.514968807623634,0.33900290984716763,0.2815114827213322,0.5715618366485858,0.6132746321311338,66395.68883814706,20841.81281402596
96,538618.0,94305.0,"[2,6,13,15]",4,0.30372345476013574,0.13753781836293122,0.21968795085755088,0.6993086436899847,0.25872772727053617,0.24788457599820224,0.011375074902781002,2.9334233790850712,0.7179130784786242,0.3432932507157017,0.16176943159345125,1.115263660479221,0.629790261801512,1.257099474614672,71498.88284461343,15055.374339513055
96,190160.0,23408.0,"[3,5]",2,0.3850875160759484,1.0724913405237806,1.352190349174367,0.9275035645719396,1.5738109229122537,0.04616414869583396,0.3676160811527325,0.764373525915004,3.662696509839081,0.5319819215134597,0.23567812245475173,0.2461445399137625,1.2540449426746059,1.1686217121634537,64713.57341186336,20772.47858645356
96,119100.0,20925.0,[10],1,2.011906293585204,0.35283429619648565,1.6416028869689625,1.218294020512201,1.6848317704870044,0.45050532981529257,0.11523503767424881,0.9350705971116064,5.690930724945511,3.1164763845676253,0.46450265405537294,0.21569299310663526,2.4511031463476027,1.8831047788496778,73509.52678421422,32486.797649034426
96,67595.0,10450.0,[12],1,1.333647285464912,0.603088603151126,2.6736416172793294,2.263998862045993,2.0719618191582074,1.5666827212367698,-0.54781794322066,1.1123371899253005,4.376072268303931,3.1087346245136547,1.3760351214290543,0.5083801949700388,2.355304182972115,2.4526691597455166,115399.31036319163,93033.05960500124
120,971709.0,200062.0,"[0,3,4,7,8,9,11,14]",8,0.3791558652775644,1.8599697633890235,1.984873094469616,0.950918503610648,2.739305986503131,0.34069903359133114,0.3046549749523857,0.8547134582184452,3.872150599839054,0.5725605312403287,0.18856533145931653,0.13812390583909184,2.077221708045318,1.65147215120064,67254.19070935836,22274.079503225716
120,233875.0,35046.0,"[1,16]",2,0.4666991251052808,0.3396841817851408,1.642339443604444,0.8328178586681059,0.4779997883698761,0.3640763374708782,0.12343566251201787,0.8907324297679997,1.3284323543260386,0.5224625324895819,0.35896987100372746,0.28280404652485247,0.5815877206969676,0.6230437856376323,66106.8334794226,20779.935948690487
120,619852.0,81234.0,"[2,6,13,15]",4,0.3102290447913356,0.14074416348095653,0.23767150633860323,0.7414618843885408,0.2675619921401009,0.24660948190050314,0.030292086372192273,2.9587876263979664,0.7186965953033954,0.35384515002288086,0.17255762570096644,1.145788041145313,0.6323221511990008,1.2902407506049929,71519.56510909024,14936.706181475203
120,35957.0,8286.0,[5],1,1.1315770614901262,0.28417279439331766,0.979675675390054,1.7628705004588747,0.3699605551909433,0.40169636551992793,0.19694815051314052,1.3586023886030474,4.69502682292743,0.713543671691199,0.42337851975971086,0.7837373365686748,0.7299233138192823,2.327557033567872,72874.89034124119,22061.55485719044
120,142122.0,23022.0,[10],1,2.052115945314564,0.3579136323440557,1.6445740588719588,1.3630173686480909,1.6852569885239475,0.44431381432149375,0.13033905894230857,1.0073647667566727,5.689764686396256,3.1134345479658565,0.49035424681607775,0.2263422362899461,2.4669185622985896,1.93858594473056,72807.66485132393,31992.565711149342
120,79945.0,12350.0,[12],1,1.3993092883482465,0.6342613544812039,2.6897827572455806,2.316686338745376,2.1201392700106365,1.5729447491900788,-0.4932930690224602,1.1466778008005378,4.385707110938822,3.1073448797923797,1.4084884743010484,0.5278950653699377,2.3954804450935017,2.50922760710487,115004.03327287461,92145.32591156477
144,1125368.0,153659.0,"[0,3,4,7,8,9,11,14]",8,0.3856714133225756,1.9245612693252303,2.0067631078935784,1.0338309954850367,2.8069683198899953,0.34415893333912995,0.37219665156642145,0.8934125044172068,3.855460427057651,0.5833375329385669,0.17920303243828606,0.14824446100209265,2.1276090847980336,1.7153167470205373,67011.13668062346,21863.779229549607
144,260142.0,26267.0,"[1,16]",2,0.4788870810595727,0.34559312194877245,1.6590544656725768,0.887810936665379,0.48320184686825307,0.3692608311998904,0.14806815545739882,0.9048974582074183,1.331046151724835,0.5367566048850404,0.3694032511704961,0.2941455469551234,0.6005653036495663,0.6389111308516151,66124.04142352981,20699.47619377095
144,711740.0,91888.0,"[2,6,13,15]",4,0.3253130606583863,0.1327236113819832,0.24268113842554095,0.8704450188524078,0.2735386726192539,0.24893652437826552,0.060044564547409696,3.0307046269059583,0.742538215707982,0.36898917078143845,0.1795968173996103,1.2131319263649838,0.6504246762174432,1.3509490417498085,71523.78790007607,14851.064579761744
144,48774.0,12817.0,[5],1,1.1543850682741004,0.2588382953007846,0.9048848639234133,2.0899219411776877,0.3467787353303313,0.43124368829705073,0.2681235645220843,1.5298596222167706,4.642458794111661,0.7071811236929585,0.4399994324435266,0.8191833968712783,0.7064254790462127,2.4062909193012674,71865.59133964828,21330.392750235762
144,166748.0,24626.0,[10],1,2.076057796759139,0.35254151962843583,1.6656683055928956,1.4949644297982942,1.705770276003344,0.43578333727539564,0.17426988797467224,1.018668738857373,5.6593397224375215,3.1681890757071103,0.5129216726197474,0.2436976423465399,2.4579662903423154,1.9989965641027025,72632.2297118995,32000.85283181785
144,93033.0,13088.0,[12],1,1.4274487543022254,0.6288344646738224,2.664531116453283,2.395697714724832,2.175125262423013,1.5774602170735215,-0.4124436287661597,1.189635277933637,4.442179741457397,3.110953885309544,1.4165543621402885,0.5499689712467546,2.413013731267419,2.56441670111681,114471.77049004099,90538.03170917906
168,1292172.0,166804.0,"[0,3,4,7,8,9,11,14]",8,0.37786300244782134,1.8994720348235505,1.9959797715566832,1.0859507504016594,2.7982458349669694,0.3433435816501107,0.39274204604108354,0.885347082013844,3.8153753057836064,0.5935384512541767,0.17854307872095898,0.14692626340301818,2.1072306981230065,1.6867001035489249,66739.17337320413,21957.212730193503
168,299728.0,39586.0,"[1,16]",2,0.48282661919806813,0.357533238673057,1.6658433476085235,0.9794451722561974,0.5309892921882504,0.37492641680458805,0.17740687182710513,0.8813792679095522,1.3763697596721003,0.5587059971741138,0.3778352038147812,0.2909385924471546,0.634181653719397,0.662331576042279,65660.86435701649,21023.56910265288
168,788397.0,76657.0,"[2,6,13,15]",4,0.3140288001209972,0.1296067076790175,0.24402099675162603,0.9713303781369182,0.27976443867495826,0.2564373008851979,0.08509176367233495,3.068922310709003,0.7766756001722485,0.37950419334926644,0.18400602411984002,1.2325076126482102,0.6597142545747862,1.3834728867398152,71690.71963490482,14947.95362234957
168,73495.0,24721.0,[5],1,1.0281572842370654,0.23895372958706673,0.8151702139873294,2.460719531043004,0.37447393939727336,0.44392859510173444,0.4434788223552819,1.796739570188448,4.5486926842098825,0.7192739477923648,0.4935126311449567,0.8079050913803585,0.7192803923123955,2.34580887924351,71664.38119599942,21858.09821076268
168,195311.0,28563.0,[10],1,2.049310416545927,0.3452858615695358,1.7134676537982947,1.6486353630312895,1.7523088603508987,0.4240617935907267,0.23311782013812943,0.9871940256565059,5.598502348597908,3.164269977497434,0.5231487175120502,0.24965631857397552,2.4555107987415097,2.018016638832418,72147.14157420605,32675.18425485474
168,116702.0,23669.0,[12],1,1.460358543109791,0.6132766491319979,2.650290880790361,2.5429733435159183,2.210483742857915,1.563531145070353,-0.2550193488715067,1.2222322938424357,4.500488925673992,3.107206402246781,1.4071109777381996,0.5643191798426674,2.3909887778015797,2.5756535419787143,113634.65099141392,88022.64859214041
