time_in_hour,cumulative_size,size,pcore_ids,pcore_power,AF700 CD48_[R 730_B-A],APCCy7 Ly6G_[R 780_A-A],BV421 CD117_[V 440_F-A],BV510 SCA-1_[V 525_E-A],BV605 CD11b_[V 610_D-A],BV650 CD150_[V 660_C-A],BV711 CD11c_[V 715_B-A],BV785 B220_[V 780_A-A],FITC Ly6C_[B 525_B-A],PE CD115_[YG 582_D-A],PECF594 CD135_[YG 610_C-A],PECy5 CD3-CD19-NK11_[YG 670_B-A],PECy7 CD16-32_[YG 780_A-A],PerCPCy5-5 CD45_[B 695_A-A],_FSC-A,_SSC-A
-1,0,0,[],0,0.0,0.0,0.0,0.0,0.0,0.0,0.0,0.0,0.0,0.0,0.0,0.0,0.0,0.0,0.0,0.0
0,146825,146825,"[1,2,3,4]",4,0.3563917764890152,0.4375386100868366,NA,0.5463222519666253,0.6518861364277293,NA,0.078475459540289,NA,NA,0.4455084465315796,0.2162332019410842,0.6351610205142166,0.794492870587436,NA,67488.25172824746,15710.930536352811
0,159604,159604,"[3,4,6,7,11,12,13,14]",8,0.35000771981904744,NA,NA,0.7487693267462014,NA,NA,NA,0.7296135742274696,NA,NA,0.17786040151874793,0.16285667239542811,2.007714038125607,NA,67895.95769529598,21021.612891907433
0,41986,41986,"[8,10]",2,1.7061906654599055,0.3780616669842365,NA,NA,NA,NA,NA,0.8745009652741391,NA,3.1825585144333695,0.7439960247463402,0.28846292285523767,2.3940494194493365,NA,NA,NA
0,104839,104839,"[2,9]",2,0.28652383440322726,0.11885517400967949,NA,0.5492918361487593,0.2743807602323707,NA,-0.023913672039950207,NA,NA,0.35279353562127713,0.15842587320557389,1.1459502526445298,0.6414188087734537,NA,69714.04702448474,13611.35546886182
24,164412.5625,155236.0,"[1,2,3,4]",4,0.3617087778948618,0.35501473981116627,NA,0.6317145322414901,0.5657924145900486,0.2851303461159618,0.06215573454242218,NA,NA,0.42189008039987985,0.20324249407759387,0.5829487727393847,0.6924786622843976,NA,69792.21598106247,18082.69910031957
24,154511.25,144536.0,"[3,4,6,7,11,12,13,14]",8,0.4094018234732075,NA,NA,0.8392009824891371,NA,NA,0.21818327547791894,0.8110599346281493,NA,NA,0.1511394998244464,0.17342505776966,1.8554275461354002,NA,67936.9083092656,24669.2735448065
24,43436.125,40812.0,"[8,10]",2,1.690261240660847,0.4639998824451923,NA,NA,NA,NA,NA,1.0896190767822755,NA,3.171754913282154,0.7887874765402665,0.33731108236376106,2.3868519170347904,NA,NA,NA
24,115932.4375,109380.0,"[2,9]",2,0.2609575278893639,0.10245824871273834,NA,0.644076947287727,0.20865977142613312,0.27000502073136246,-0.036550578248948806,NA,NA,0.31775241933960674,0.14527136647638406,1.1315241064310517,0.5553803112421588,NA,72710.88463054149,14738.865022138365
48,222009.83984375,208064.0,"[0,1,3,4,5,6,7,11,12,13,14]",11,NA,NA,NA,NA,NA,NA,NA,NA,NA,NA,0.17842895023065086,0.16464676099670972,NA,NA,NA,21638.747995949332
48,154902.66015625,144997.0,"[1,2,9]",3,0.2618757751587508,0.1561607382912542,NA,NA,0.2555823531878074,NA,0.00900117167402481,NA,NA,0.32040755755495465,0.16111689464948897,NA,0.5464126257808904,NA,NA,16011.068231483401
48,39559.7578125,36845.0,"[8,10]",2,NA,0.3958146843841175,NA,NA,NA,NA,NA,NA,NA,NA,0.639316092990557,0.2637211971452811,NA,NA,NA,NA
72,232145.61499023438,218270.0,"[0,1,3,4,5,6,7,11,12,13,14]",11,0.40131931414786326,1.270948102250253,NA,0.9959587830749905,NA,NA,0.10644179432373635,0.8890852243274381,NA,0.5767223986332718,0.3021299484440676,0.22247783452274972,1.48675992972542,NA,69825.73799770858,25266.481575838723
72,156864.41625976562,147183.0,"[1,2,9]",3,0.2577112592872284,0.2573298892209199,NA,0.7389270874752474,0.3753079791809988,0.2510131834844065,-0.01894069397024767,NA,NA,0.33857069575623466,0.17778126250379733,0.7444440216735091,0.645618630773891,NA,69783.84508682179,17779.878310284665
72,35217.48486328125,32745.0,"[8,10]",2,1.6851190630812563,0.547773896083021,NA,1.9606263524695886,1.8010126946201912,NA,-0.2015601954352073,0.993829171960571,NA,2.834250399024248,0.8137242719638427,0.32036791820506905,2.343307539442126,NA,NA,NA
96,125348.7569732666,113443.0,"[1,2,3,4]",4,0.4824208123037039,0.3890418477412916,NA,0.8659849769156223,0.5660064922872707,NA,0.22018114659653865,NA,NA,0.48864898121238387,0.2834425517215151,NA,0.7883747976099066,NA,69450.14353596124,17262.299698188883
96,141101.20651245117,131960.0,"[3,6,7,11,12,13,14]",7,0.4655684621001466,NA,NA,1.1905782803692633,NA,NA,NA,NA,NA,NA,0.21384525390122278,0.17492839189261977,2.302051965442786,NA,68891.23954102545,22314.39139698094
96,32320.092803955078,30119.0,"[8,10]",2,1.9778812178327756,0.442031416757386,NA,2.0683924085912593,NA,NA,NA,NA,NA,2.92443057831604,0.8927312702794157,0.3726475360524196,2.4713989641683467,NA,NA,NA
96,98992.77647399902,91753.0,"[2,9]",2,0.4418756746744372,0.15718828864202017,NA,NA,0.29757805317717034,NA,0.14691503671671313,NA,NA,0.4243684156784976,0.2184705949559782,NA,0.7095486366371458,NA,71759.05300517342,14478.761026324804
120,122800.29731082916,114966.0,"[1,2,3,4]",4,0.4283452885327921,0.4412942154154056,NA,0.8866616828725697,0.6334955020143833,NA,0.24666731271836628,NA,NA,0.4744082637519297,0.32056244013877544,0.7244519393896545,0.7572656717553373,NA,67524.50271151954,16841.72160324129
120,178820.94154453278,171496.0,"[6,7,11,12,13]",5,NA,NA,2.2738680105081985,1.2625051014112922,NA,NA,NA,NA,NA,0.5445575131718278,0.18213544392998227,0.1546711265754298,2.5860513483626897,NA,67589.24490013786,20800.372442749533
120,40619.79463863373,38300.0,"[8,10,14]",3,2.004302686203191,0.46439968244148755,NA,2.207357626515994,NA,NA,NA,1.315896633435345,NA,NA,0.8716615428502128,0.36407198783228545,2.467681199302848,NA,NA,NA
144,101907.01858192682,94232.0,"[1,2,3,4]",4,0.5364394889251027,0.25839496562484987,NA,NA,0.43504603927634555,NA,0.3069706892221302,NA,NA,0.5169359803060537,0.3096818511706476,NA,0.7756139233789311,NA,68869.97726661945,16438.533140970612
144,151997.3088465333,140821.0,"[6,7,11,12,13]",5,0.37949424229462503,NA,2.194109411571327,1.4469515524498724,NA,NA,NA,NA,NA,NA,0.09263841468720013,0.21131556982813315,2.529012150520485,NA,67014.074505703,19618.1319338609
144,43632.73716491461,41094.0,"[8,10,14]",3,1.9795055748107686,0.3889968524788512,NA,2.4992818234970264,NA,NA,NA,1.2012942303705851,NA,NA,0.858484893085766,0.4514375207717394,2.370637553951255,NA,NA,NA
144,89470.69053310156,84623.0,"[2,9]",2,0.4015682669940852,0.0676953388140773,NA,NA,0.31147248330055666,NA,0.2559373270486973,NA,NA,0.46009706281310525,0.22398566919218332,NA,0.7900672182777363,NA,71291.50089773332,14083.171017370607
168,274659.83376487717,261024.0,"[0,1,3,4,5,6,7,11,12,13,14]",11,0.493141387297267,NA,NA,NA,NA,NA,NA,NA,NA,NA,0.3059559207813827,0.28485937962935015,NA,NA,66898.69832108269,24553.360288604246
168,104143.900152836,96923.0,"[1,2,9]",3,0.23728905658746635,0.1854626303084621,NA,NA,0.4527930708430645,NA,0.2578495568272685,NA,NA,0.4574777333838933,0.24216597902811499,NA,0.7414647397443471,NA,69975.6712268542,16299.365817978642
