time_in_hour,cumulative_size,size,pcore_ids,pcore_power,AF700 CD48_[R 730_B-A],APCCy7 Ly6G_[R 780_A-A],BV421 CD117_[V 440_F-A],BV510 SCA-1_[V 525_E-A],BV605 CD11b_[V 610_D-A],BV650 CD150_[V 660_C-A],BV711 CD11c_[V 715_B-A],BV785 B220_[V 780_A-A],FITC Ly6C_[B 525_B-A],PE CD115_[YG 582_D-A],PECF594 CD135_[YG 610_C-A],PECy5 CD3-CD19-NK11_[YG 670_B-A],PECy7 CD16-32_[YG 780_A-A],PerCPCy5-5 CD45_[B 695_A-A],_FSC-A,_SSC-A
-1,0,0,[],0,0.0,0.0,0.0,0.0,0.0,0.0,0.0,0.0,0.0,0.0,0.0,0.0,0.0,0.0,0.0,0.0
0,158867,158867,"[0,4,5,6,7,8,9,13,16,17,19,21]",12,0.17230891928734152,0.4066119775123491,0.5100259649083162,0.30325130406785655,0.5168386227033155,0.2385265038582191,0.26606837088072316,0.3148014593414266,0.574908406006872,0.13000151070975993,0.24448099864055167,0.09504799415779644,0.33481656388134834,0.3746904119341536,0.1920862155038326,0.07436685976234698
0,128786,128786,"[2,3,14,15,22]",5,0.16786177351598883,0.23258519995113747,0.31691906915492396,0.2853024115627831,0.25890302600594167,0.22348953219889794,0.2519533109043738,0.49813941395830386,0.16128338166077624,0.10453164757499306,0.2473812719895844,0.22176768073384973,0.14412541071369836,0.2778978638491951,0.20128440183538057,0.04878931382957965
0,17185,17185,"[10,12]",2,0.2718746327789306,0.2735062600045802,0.585025355605689,0.4572731134865652,0.45111558282695796,0.40960168446184475,0.19741304992825656,0.3442277158868631,0.6084238981843069,0.4434561328376094,0.37200681688507675,0.14750714919284239,0.36686191577291005,0.5277129118490478,0.3879363333459432,0.344450367724993
0,84937,84937,"[5,7,8,11,18,20,14]",7,0.17526670882634163,0.3197232587827689,0.427406631186364,0.29765074656627216,0.37566837772408607,0.23542953062386268,0.26963765757593555,0.31456338594174627,0.4200293340860677,0.12579168019471546,0.2553710240874432,0.10362321303677624,0.22326419147465604,0.24514279487119345,0.18073523852749718,0.06087648786010873
0,26789,26789,[23],1,0.35571438201170985,0.24742186679626305,0.4595420056990284,0.3192954563880063,0.40623649345665996,0.24994458468118422,0.2560981610120384,0.32591775063905504,0.7985788242043433,0.45431976122732426,0.27462731458799433,0.10125593886824787,0.37918754650705444,0.41359991618871716,0.21472851072251603,0.10104326484874553
24,221044.5,141611.0,"[0,4,5,6,7,8,9,13,16,17,19,21]",12,0.1762609858740438,0.39340752301561893,0.5168122102322023,0.30874054230119713,0.5118668803786278,0.24034997982913317,0.26764224778789525,0.3206038287708701,0.5853579785436451,0.1332503024040013,0.24211670938442081,0.09538056963650511,0.3243574658669652,0.3654611098528298,0.19141728228908092,0.08355018373170016
24,41723.5,30335.0,"[1,18,20]",3,0.2048742522221004,0.2723115037182765,0.5327760031784492,0.3345539255755661,0.31331872501140035,0.26056764558876827,0.2697124741733683,0.3365843583065745,0.3472078653925948,0.14682939581406992,0.2760882132705148,0.11137730265205949,0.17358234408483045,0.21903960076017487,0.17305082200011124,0.09641622487417885
24,203201.0,138808.0,"[2,3,14,15,22]",5,0.16630528296307118,0.2316169210417692,0.3210785798320217,0.2914986113338502,0.25490987814322896,0.22764091141460496,0.25084259284468174,0.492495490873842,0.15981531866349127,0.10157033614982869,0.24624871148144234,0.21763836984676144,0.13692851563831956,0.2766590066988029,0.21101826331390275,0.05219174793952574
24,28577.5,19985.0,"[10,12]",2,0.27590661412778783,0.27486416699658206,0.5983425859180794,0.4628199676799998,0.45066927014687086,0.41711476121294694,0.20027575631206326,0.3510579445298546,0.6342254590405872,0.4532890795817372,0.3703550607076262,0.14797868420136814,0.36390115891326713,0.5254907583544889,0.4008691291442657,0.3688755949075405
24,35725.5,22331.0,[23],1,0.3578323016782768,0.2543461597269018,0.48721791455552327,0.3293371610604754,0.4078698204711835,0.2599145388176477,0.2590534007903996,0.34435559327237936,0.8135045552024903,0.4489755348198643,0.2721622270426011,0.10470358534585233,0.38172638962798944,0.4113369662847464,0.21603288982008742,0.12194642539728598
48,231484.0,121556.0,"[0,4,5,6,7,8,9,13,16,19,21]",11,0.17149110007936438,0.39694282235765505,0.5154954041587861,0.30107842859725903,0.5173575842186541,0.24055988061951822,0.2647394520242396,0.31587029332239663,0.5823195667360861,0.11801158242911966,0.24015745356137133,0.0900012251098777,0.33116477044412335,0.34502954630066024,0.18524789424507834,0.08151249333435763
48,59164.75,38303.0,"[1,18,20]",3,0.19994492740328054,0.27822037429208163,0.5149163817423347,0.32676940130909443,0.3162001158276685,0.2568596991907526,0.2665373686923404,0.32961802398348666,0.37803207954028656,0.13726409015128224,0.27288012131325434,0.10454784031536035,0.17405492693244795,0.20485001329342223,0.1587820387262312,0.09477370742815347
48,236040.5,134440.0,"[2,3,14,15,22]",5,0.16503837664324175,0.23276425921691052,0.3205384447054742,0.2900216753921653,0.2548869257429401,0.2280674264102577,0.2519265091303325,0.48554404912352633,0.16301039579756077,0.09991979048482062,0.2454260222202081,0.20540951743857752,0.13711022613235016,0.26035235587258543,0.20316152467590168,0.0543985566831886
48,26728.75,12440.0,"[10,12]",2,0.2694814190529566,0.27665348001900386,0.583250974502227,0.45832825019903495,0.4519659195004777,0.39994361185950916,0.2133278294173915,0.3478214901056454,0.6157400409166551,0.44390540495589353,0.364506198794732,0.14361638718182898,0.36203151502379743,0.5212171434616296,0.3825207552058488,0.3507407301852085
48,17764.0,12298.0,"[11,17]",2,0.2277057532669666,0.24681116970682904,0.35078594416334263,0.3769183270462476,0.2625365073378385,0.250427867332521,0.28770078867305393,0.38725799647293546,0.6494217787296255,0.13505608554638032,0.26492460429804765,0.15532374644999528,0.1450940912211165,0.4042099602603003,0.18823658892891693,0.07453053242890671
48,46111.75,28249.0,[23],1,0.36157784204787397,0.2523209738563147,0.47595866445794777,0.323466359142929,0.41350112687579105,0.2613474538928382,0.2587675664001452,0.3340428962715152,0.8132861280043838,0.4411380334230561,0.2690789525514024,0.10136299221658931,0.3914957676363301,0.40557186055543176,0.2095290351194135,0.11855022092470126
72,259595.0,143853.0,"[0,4,5,6,7,8,9,13,16,19,21]",11,0.17841403999771144,0.384964410130603,0.488785942489997,0.3237114893243716,0.49518542081092465,0.2393805296505516,0.2638340002590916,0.32330260278802664,0.5547851345164506,0.13103100591873681,0.2527289575961052,0.09512504325455977,0.313926860165448,0.3487142453116975,0.19733378177058825,0.092670290225106
72,124740.375,68161.0,"[1,14,18,20]",4,0.17757104208393704,0.27910751626686053,0.42961004570326883,0.313480479141281,0.31643514884500096,0.24137507539659173,0.2617117314358293,0.333814111825529,0.308964264398697,0.11850925866861092,0.26056734072492616,0.10819182172171149,0.16402982312461692,0.19262509697875677,0.18028177849485535,0.07862062152063255
72,204262.25,113239.0,"[2,3,15,22]",4,0.16457175614273187,0.2356382769758932,0.30457661474506315,0.30076014928289796,0.2570926320865643,0.22667701075954233,0.24895528448101364,0.526729172040417,0.15678867008041536,0.09964682088248027,0.24534738621796384,0.21632803102163722,0.14776847069462165,0.2905539239603958,0.20566306640686563,0.059295443172714284
72,27607.375,14243.0,"[10,12]",2,0.2779820508108959,0.2849832951291222,0.5633876371982364,0.46931085747041584,0.4464386255465423,0.4045318457674562,0.20949208677619363,0.3536479733368396,0.6271638525735274,0.41706186378745264,0.36972486888079625,0.14307461943261038,0.36520146805819853,0.5199840437813477,0.39541814060126085,0.357900807400342
72,39200.875,16145.0,[23],1,0.3552446202419556,0.2577544654317866,0.4486731702012666,0.3647021104464106,0.4106399819498666,0.2607134550268482,0.25557423832234716,0.3356393167682168,0.792494381540084,0.43061654513608894,0.27428950482934394,0.10382272043127425,0.3835237795327282,0.4190084773253429,0.22045201384133867,0.12645268735035567
96,247600.25,123721.0,"[0,5,6,7,8,9,13,16,19,21]",10,0.17769741710098702,0.4199959941436863,0.4966878590576964,0.33490235712629557,0.5287619636113452,0.23763228261165364,0.28522311424098945,0.33594294585513457,0.5521690422971763,0.1326739142663407,0.24945224594106818,0.09491923173934261,0.34408314311787436,0.3957761477852603,0.19529101668372992,0.08317828318506035
96,91998.3125,31657.0,"[1,14,20]",3,0.17820388501709813,0.27719548514093467,0.43640776528915426,0.3196544080565067,0.3115464579523488,0.2403027539130062,0.265714811751269,0.3367514192091271,0.2960235656109209,0.12126286709120537,0.2639683251196488,0.11125460037562765,0.16025656181018444,0.18940148403285467,0.18332518665709693,0.07605383950483192
96,195046.125,92915.0,"[2,3,15,22]",4,0.17529997337663417,0.2352731495867125,0.3071767375477109,0.31403687125350205,0.25884937854389134,0.22508822730504077,0.25780670409216017,0.5443008429414613,0.15646678697820823,0.10673266181404564,0.24909413699581331,0.2455106537856252,0.15270872274136277,0.31151153717311164,0.2081014949471377,0.0558145390864659
96,10506.25,4588.0,[4],1,0.2596417268854386,0.2848551591801404,0.6624430172655696,0.3735199306395926,0.48108128482028323,0.30098811694200317,0.2787016376663917,0.3415286249880625,0.682151600254497,0.17297401075447186,0.2751807286857957,0.1023446014813588,0.34658076537888766,0.349888846239457,0.19980828308759746,0.14240779819342317
96,24775.6875,10972.0,"[10,12]",2,0.2914769547348562,0.28501858271109454,0.5704366450468276,0.48272930968124034,0.45680717783164243,0.4079750222198748,0.22968698922397607,0.3635401611142082,0.630901581037112,0.4270932126573871,0.3818117979883888,0.15286304513273402,0.3823446517664558,0.5491860265271878,0.3995247860457629,0.3547117397175641
96,15511.5,8891.0,"[11,17]",2,0.25317807750934695,0.24940122150699254,0.34554576746449134,0.43445845615759543,0.2733813176984017,0.24812910618572717,0.29618006378860207,0.40621979514404216,0.6572786096954827,0.15231525359867204,0.27550189351252735,0.1695685864900543,0.16387257705500327,0.4689482797663113,0.19825020314350186,0.07768450757398401
96,39843.4375,20243.0,[23],1,0.3707236490866472,0.2571068507174316,0.44738043883886724,0.3966686260126542,0.40835016453257933,0.2588488360127027,0.2640474768441212,0.3506854969905987,0.7951982453839977,0.4254692360735868,0.28339392447184913,0.10809483668928385,0.3863087207576685,0.4486387129499003,0.21588829804593757,0.1194826966211867
120,257844.75,164125.0,"[0,6,7,9,13,16,19,21]",8,0.17591001059997477,0.46189361168169335,0.5261509719190939,0.35096906623422147,0.5809447212833773,0.2504266345846916,0.29850150003596976,0.35204332822308837,0.5652931955632503,0.12573266006697034,0.24714459339698397,0.09298529540601325,0.39022192561280356,0.46700986098390906,0.19191143561815574,0.07668945007848602
120,87132.15625,41133.0,"[1,14,20]",3,0.18125367209091497,0.2749273453938417,0.44774854028573674,0.32511511302881707,0.3052562163213042,0.24076972226806917,0.2690800089960786,0.3372449042752252,0.28283589471443993,0.124718064480982,0.2692405390149081,0.11317682618145637,0.15690680043693644,0.18980246838025477,0.180558943431277,0.07378761200728419
120,176368.0625,78845.0,"[2,3,15,22]",4,0.1749963801987727,0.235487494106535,0.31341094780782963,0.32289919716394927,0.26129202932655915,0.2250560103442746,0.2617813414202667,0.5476814136767566,0.15636658033110387,0.10932319811466479,0.25181765624744074,0.2557364168342289,0.15186324831677864,0.3276914310977124,0.20758581010228394,0.053726279815411976
120,25097.875,10784.0,"[4,8]",2,0.23248172751268636,0.3187851607109959,0.5756720166914048,0.3576710037289329,0.4499492462231958,0.318983822386823,0.2655383401134541,0.33699701684290456,0.6113570363596675,0.1601455159970367,0.2728820646948756,0.09990772402953584,0.3098095533561508,0.31099292420224284,0.18273097709078348,0.11020668460792667
120,37682.625,16663.0,[5],1,0.16542198992257004,0.3734893044941163,0.4749876976214626,0.3285011879370401,0.4640049132861626,0.14026429877512292,0.3176839463963165,0.3104120890010527,0.5157895034303557,0.12529837765538712,0.2517201638636826,0.09797339396961235,0.279145154160773,0.3039524427220814,0.17543514475319297,0.07434769616550901
120,25329.84375,12942.0,"[10,12]",2,0.3105167866109638,0.29099326546612303,0.5810710455315186,0.49217151534897013,0.4753111787005153,0.40792357206483887,0.24162022540948364,0.36630518903380355,0.6334989867962241,0.43173692201936625,0.3864257426837012,0.15753016759482677,0.3947512632126693,0.5753469908465765,0.38892061104182374,0.33977838839734636
120,11528.46875,6478.0,[11],1,0.24854009445567876,0.2478952890729265,0.3271101322182504,0.5076161687291354,0.27643857445067427,0.27669384280683795,0.365614746561655,0.5223651495019607,0.649393056465708,0.1533272553836676,0.29218383573328893,0.12438752743002718,0.1701487600742862,0.43941446216208635,0.15558893135788457,0.07447171988632077
120,42115.71875,22194.0,[23],1,0.3803755453758807,0.2577691830521712,0.4547881376529478,0.4290823601200436,0.411827782835394,0.25508732630937575,0.2664270132135973,0.36844231283096374,0.7965341448779033,0.4294584383237845,0.28933263054930963,0.11081064343113826,0.3913018191929,0.47265950393370104,0.20700623528613904,0.11503781059601301
144,262199.375,133277.0,"[0,6,7,9,13,16,19,21]",8,0.17432461981104305,0.4694688586245125,0.5268370398768513,0.3651472989122533,0.5852873488686947,0.24843843238357308,0.3098357282519935,0.3528180086494672,0.5528136565653053,0.12828102966285262,0.24142909860137932,0.09705113416355372,0.39334870717592213,0.47071552380760284,0.18827957656878738,0.07248944469505238
144,69871.078125,26305.0,"[1,14,20]",3,0.18663669498807606,0.2698998658264052,0.4551899996242907,0.34156135854836955,0.2988034282783025,0.2420606533712907,0.2740383031057679,0.3413429062899954,0.2736124088823178,0.13044229671397786,0.27139731537715706,0.11872986729734608,0.1585112518311408,0.19467936699149485,0.17990915845009967,0.07281959540425748
144,170433.921875,85414.0,"[2,15,22]",3,0.1749465694274371,0.23126755292502452,0.3071363885613084,0.36316915181182263,0.26158331518068906,0.22378909200358796,0.2703346002278222,0.5783861076505452,0.16585853412085408,0.11223395654192964,0.25198768424265916,0.28656371972613537,0.16012151445221737,0.3532328627915664,0.20660972665234803,0.05174719769727119
144,33484.1875,7706.0,"[5,8]",2,0.17636383497646854,0.36475507872427654,0.4827318266920681,0.3388825339361462,0.45863307141489146,0.19196202363642562,0.3061681132706648,0.3151194765622827,0.5176066746681038,0.1318983380784718,0.25600421990889644,0.10081985432942217,0.28149733793504306,0.2971493379045636,0.17410330316231537,0.0761489189763865
144,28739.921875,16075.0,"[10,12]",2,0.31497481151891604,0.2823094239356723,0.5661577787829849,0.5185705460867165,0.5019028234679092,0.39633371004972745,0.27975155098778254,0.3758359553170567,0.6661399367555182,0.43816928145965583,0.37484564332620507,0.16217453426384734,0.39785845241257456,0.6038055454149157,0.3685688035417193,0.3030779898518966
144,15395.234375,9631.0,[11],1,0.24940325961059687,0.23834718786914255,0.31302152222904556,0.5910872895480692,0.2807445775626196,0.2646370723905065,0.41054980219553455,0.5929679251183138,0.6397525978510756,0.1407543640416115,0.29389064294119455,0.14363817266498738,0.16472919253875065,0.4806253508111311,0.14780413431689296,0.0698310828992712
144,11554.640625,8206.0,[17],1,0.27004965521245244,0.24138379782665007,0.383001128983921,0.4939342468674292,0.2623735456494096,0.23874971010468657,0.22932480588200077,0.31989230013195574,0.6313539343726671,0.14161584851487638,0.26816750110551,0.24950020414294088,0.14076265141989586,0.5945037811706345,0.23228531801169588,0.07353301963514601
144,55135.03125,30522.0,"[12,23]",2,0.37140424053057397,0.257578083738535,0.4823875768389708,0.47058894317144817,0.4375517288506555,0.26170634644828034,0.3021383383869751,0.3631092017527029,0.7642518714138229,0.4520645293189415,0.3023911181620575,0.12474079364364858,0.3855845107608829,0.5152296953343157,0.2210890494496035,0.135235856424179
168,232683.6875,101584.0,"[0,6,7,9,13,16,19,21]",8,0.17655305419671882,0.45375222874518334,0.523900004567397,0.37475896968718264,0.5770575033602299,0.25734576308022744,0.3069971178845438,0.3491357785257331,0.5363134216200668,0.13529374996746987,0.24260106318977256,0.09683320317496341,0.37834199965863125,0.4438293698828727,0.19085776941450358,0.0774883249390984
168,88854.5390625,53919.0,"[1,14,20]",3,0.1787218572473491,0.270517686008822,0.44124480239786074,0.3596245971924102,0.3161415503822207,0.2460788165136308,0.2743156136213181,0.33132575463040453,0.3174815273587785,0.13336918192632113,0.2681209998775591,0.11269557536252886,0.16854180223063828,0.20045142174183192,0.17163533808919304,0.07780991608668021
168,151864.9609375,66648.0,"[2,15,22]",3,0.16555346369617324,0.23009890571314817,0.3034381788276082,0.389088933395517,0.2623431680380145,0.22891628626170377,0.27555268839225594,0.5883378032223778,0.17902472652297158,0.11393537280965528,0.2520024866959662,0.2833358172120653,0.16242585496718095,0.36042326171735944,0.2081550544670889,0.053403531691720386
168,72474.09375,55732.0,"[5,8]",2,0.16976807651612286,0.33732064882183443,0.4672241689093294,0.3802944545428732,0.44779266116981875,0.18646827647843825,0.30652020871399754,0.3162039661959956,0.5364224065234496,0.15139428803834945,0.2563747106513535,0.10082859428606532,0.2730245670146181,0.29268293666072387,0.17282329958257397,0.08979963233292207
168,23270.875,13948.0,[10],1,0.3027077483191559,0.2814900998031744,0.5740282264010488,0.5239006382500989,0.4724251634767053,0.4497135516789447,0.22431059009473023,0.3771749608655962,0.6689443585531633,0.44039783159422974,0.39056016418059397,0.15952506601497887,0.36944945202173124,0.5659473746593938,0.41130522888303206,0.3507219852961586
168,19113.6171875,11416.0,[11],1,0.22211459716847445,0.23783578208516826,0.31140514758083504,0.6004674173157267,0.2826683701051842,0.2591020448962455,0.4155660047227003,0.6117166943050517,0.6270345575433542,0.13599718147234227,0.29819060763800204,0.14678028752297606,0.16594820716066336,0.4693294543789893,0.15831180596402383,0.0753519337772434
168,59086.515625,31519.0,"[12,23]",2,0.3605104419009935,0.25432615555362564,0.500687657562715,0.503432583520105,0.4511049141169439,0.2644772443368284,0.31594948453847155,0.3514409821044492,0.7460331716743656,0.4491948005919707,0.3019475262386112,0.12451878052817648,0.38765283199764394,0.5105380053577153,0.21893811874809394,0.14273831661263245
168,15178.3203125,9401.0,[17],1,0.25013779251295726,0.24072215559079643,0.383293838524543,0.5253396948049041,0.2600376863164595,0.2566308966598536,0.2323488637345821,0.3218405325348685,0.6223357677858651,0.14804610340857627,0.27242466995688674,0.25124021095407767,0.13959424464271517,0.5660013823653166,0.25559329123365815,0.08295710728601077
