time_in_hour,cumulative_size,size,pcore_ids,pcore_power,AF700 CD48_[R 730_B-A],APCCy7 Ly6G_[R 780_A-A],BV421 CD117_[V 440_F-A],BV510 SCA-1_[V 525_E-A],BV605 CD11b_[V 610_D-A],BV650 CD150_[V 660_C-A],BV711 CD11c_[V 715_B-A],BV785 B220_[V 780_A-A],FITC Ly6C_[B 525_B-A],PE CD115_[YG 582_D-A],PECF594 CD135_[YG 610_C-A],PECy5 CD3-CD19-NK11_[YG 670_B-A],PECy7 CD16-32_[YG 780_A-A],PerCPCy5-5 CD45_[B 695_A-A],_FSC-A,_SSC-A
-1,0,0,[],0,0.0,0.0,0.0,0.0,0.0,0.0,0.0,0.0,0.0,0.0,0.0,0.0,0.0,0.0,0.0,0.0
0,101044,101044,"[0,5,10,11,15]",5,0.17281814432348722,0.23811649770373045,0.332134112287154,0.2807316315924715,0.26478391868363943,0.22584607383705335,0.2528869074357341,0.47415445689481045,0.17518661038796604,0.10825593840219723,0.24867897436763456,0.1996666322630736,0.1464845138088778,0.2473119961420701,0.19788133263829522,0.05217517598990608
0,16644,16644,[1],1,0.18624517972647786,0.3154568961046597,0.4909232287009456,0.3167811880431699,0.373505917363933,0.25439066858820725,0.27023830961385,0.3243891675259741,0.4175699411734023,0.14688994042300202,0.2711968245907272,0.10967190554861424,0.2237697666339926,0.24137221164657396,0.18027829741989496,0.0848360680891563
0,164120,164120,"[2,4,8,14]",4,0.17716228900784425,0.39594561812732026,0.5053611448315809,0.30962406364000267,0.5048268033056099,0.24265064564035366,0.2641273130681202,0.322185528631447,0.5728662444752733,0.14325018888991245,0.24962037585308208,0.0998458354141494,0.32991518773979317,0.37901303927513186,0.198817265775021,0.08447403923335645
0,26311,26311,[3],1,0.34252167283557866,0.25205956093144116,0.46822952064539697,0.32518481258254134,0.40839422373538903,0.24542906397387443,0.2591621342209913,0.32620678705772554,0.7816541893514648,0.43454251410953393,0.27757425193702406,0.10424274294562097,0.37268087389444643,0.4106162751000341,0.22100561919680028,0.11179459699221521
0,34225,34225,"[5,6]",2,0.17741495498121637,0.24213683470664144,0.4245328880825034,0.28056249413071793,0.2686326495878274,0.22909799913545562,0.2565758722017909,0.43013608548489846,0.18531250742071176,0.11270427243120582,0.2531262124107685,0.17633528795241368,0.14390262572157572,0.20311181850054963,0.19512195971513113,0.060351542653644265
0,20943,20943,[7],1,0.15781178058895276,0.22517599656587386,0.2616062245188582,0.3221852398684224,0.26622867764542224,0.22698132860792425,0.24633158834519406,0.6116947967336454,0.1767335949702385,0.11097508563893643,0.2500246017739422,0.309795280573059,0.16742889348890766,0.4536525243892782,0.2068047692152273,0.048465191699596136
0,12021,12021,[12],1,0.289089856941329,0.2724407310829226,0.5681330778153215,0.4206990140280515,0.4476653789077206,0.4190451845609797,0.19750549660665143,0.3434073877162876,0.663317799122884,0.43179793079898693,0.34503711582056584,0.1328543422408691,0.3720056983563762,0.5011445113761417,0.3339761876378102,0.2642027053557619
24,114287.5,102408.0,"[0,5,11,15]",4,0.17012762146622856,0.2345741856432571,0.34115108950529954,0.28555874575585216,0.2566697833466373,0.2283031805081605,0.250994466992945,0.46343224177199915,0.16283188789680758,0.10246991641082762,0.24636309073175922,0.19011623716566795,0.13445000032607013,0.2383500363710821,0.21032480319705882,0.056106629319457646
24,50388.5,43995.0,"[1,2]",2,0.18440956625608063,0.3404066887927004,0.48254648420549856,0.31979465108328364,0.4174936231871912,0.2661484227681481,0.2608851127777315,0.3296812821594912,0.5198462625476663,0.14264971834521983,0.257588949049671,0.10614289198952082,0.25521331005432113,0.3044280454009771,0.1872201297828814,0.09385199930938158
24,26701.875,23413.0,[3],1,0.34603089484733507,0.2601150534899929,0.5078669305680865,0.3409644844232863,0.40401563811533364,0.2691103795666036,0.25938073861932737,0.35172503603247635,0.79977187494023,0.4276988921260358,0.27658763440056955,0.11059316906395006,0.3721635153349518,0.4086054821573229,0.2264474197362225,0.14585992698290606
24,86850.0,75150.0,"[2,4,14]",3,0.19692071594974964,0.37950667515956077,0.5189912220023205,0.32120365638404647,0.5004175421581336,0.3346815762082901,0.2348859183094052,0.33547443118731496,0.5968203422062582,0.15457920926339205,0.25453134349494,0.10070978560534552,0.32222548168552895,0.3785747888565615,0.20591441488029702,0.1040682108366926
24,49391.125,44362.0,"[5,6,10]",3,0.1812112678735885,0.24696988563383482,0.4237414155655316,0.30184608196106744,0.27552507183078506,0.2382564436558637,0.2581583655659241,0.41841709383366904,0.24271436114983586,0.11700701936866101,0.2565885895534595,0.16384974328694887,0.14795675662524374,0.21744793514988048,0.2012043915964922,0.07352902007257978
24,28855.875,26238.0,[7],1,0.15567843747845583,0.2266631790716298,0.27407912427381703,0.33055678932322213,0.25714130041338495,0.2352675440524216,0.2479893128161816,0.6111161620922205,0.17745029546524219,0.10582061881192947,0.24797731556876215,0.3101802015239397,0.15294734843470073,0.43643386845605003,0.2196179804234376,0.052091930581069694
24,66636.0,57821.0,[8],1,0.162051211363518,0.38551422777868377,0.5102837553100829,0.3122405169936185,0.5109542735639226,0.12604375338521734,0.30741815438129977,0.3197454113221867,0.5894343249080265,0.1357661865606737,0.23360312608071654,0.10160495183894559,0.3172654559576313,0.37389891506460454,0.19413843540332315,0.08756154239312701
24,16255.625,14753.0,[12],1,0.28437595801884985,0.2746338912455729,0.5912348752892287,0.4426921526394498,0.44118444975064564,0.42593964309442006,0.2012562631845602,0.3544252261466144,0.6725545475727506,0.4358348872751612,0.3514722186822925,0.14165863931705008,0.35769997868420195,0.5053348656710861,0.36605819083567165,0.3181884807679819
48,86165.875,76321.0,"[0,5]",2,0.16659030792870838,0.23346126425436448,0.31698526377524355,0.2774380256872193,0.2518231887292134,0.22675309184013487,0.25317949565263503,0.508820321590213,0.15390387849432127,0.09637842572658294,0.24389975657414606,0.19591336225154635,0.14018774246402427,0.22440991518224718,0.19768612525508195,0.05707437651231854
48,67156.5625,60858.0,"[1,2]",2,0.1671391667387417,0.340308844950565,0.4581120309810101,0.2962806400992298,0.4085365029863682,0.24604015628549508,0.2594733617553247,0.30656011933568716,0.5351659733058733,0.12111606795241318,0.25063380200319235,0.09326581045365813,0.23829502476944012,0.23073480323039064,0.16779088413380813,0.07651211928478518
48,28428.734375,25091.0,[3],1,0.3627677746156566,0.2511542612164441,0.4718069779174275,0.3240128537496127,0.4241239000223944,0.2565181406350676,0.2624350969313963,0.3279858720733656,0.8085358699943701,0.4391165873447021,0.26804263184275334,0.10073302026524512,0.3985198483864665,0.41614060974300965,0.20644872067445205,0.1191404497051045
48,34800.75,29179.0,[4],1,0.1916840794977327,0.4456310136260341,0.5007990686143421,0.29681304173610185,0.5503014187044055,0.3980491832200161,0.1927757510281837,0.33453365138316443,0.5738447657587444,0.12373576478402465,0.24666094719845463,0.08282713185418686,0.36946108617734547,0.3903176623612194,0.18365590932084902,0.0763945961865722
48,20760.078125,18170.0,[6],1,0.1887432905148643,0.2588231141794302,0.5303203019473175,0.3205010156343413,0.28615660066986165,0.25970146040872394,0.2591056051538251,0.32826900838536677,0.2706409157989474,0.12893297055200884,0.2707237193891007,0.10898309483032606,0.1472024049678131,0.17500432766115542,0.1544728614146409,0.09590729342209751
48,28737.0,24299.0,"[7,15]",2,0.1561530951738994,0.2294106203532896,0.2832777265015004,0.3309636583424152,0.25740305551993564,0.23484028557106323,0.24635065077292342,0.621750573939761,0.1908514952717123,0.10258426624079273,0.24709795521593633,0.3035130447848433,0.1584742351209858,0.42892094832656713,0.20979236929630782,0.05441364764353427
48,46815.5,38486.0,[8],1,0.14188483202339214,0.4238532886239767,0.5138396399693707,0.29955346517874554,0.5510794329718612,0.08939348923297105,0.3270079626186721,0.3032063922352509,0.5795536798222213,0.10476217651870001,0.2270189579470116,0.09106249531936077,0.35605010430413037,0.37315237152737574,0.183384081969226,0.07781256962100423
48,12376.25,11511.0,[10],1,0.21892871234837932,0.24980025690012198,0.33708244755726346,0.37813189701499156,0.26363826506315846,0.2535800066391934,0.2912032073537129,0.42165474769618,0.6006205144734149,0.1304181862434328,0.2675855326485061,0.1435900342749411,0.14580892913393753,0.36490236775720153,0.17263348269296594,0.07475292672115916
48,56651.609375,50323.0,"[5,11]",2,0.16312078805581023,0.2389016935936211,0.3617650036534628,0.2793374374414461,0.2619786426326927,0.22238064460921,0.25810232929334936,0.39548152449025825,0.19576277285309693,0.10062679160549977,0.2460636374291137,0.14105164662866654,0.12723905525977028,0.17003739477505167,0.19231421804718274,0.056847720822111314
48,13934.953125,11903.0,[12],1,0.27756153956456003,0.27536618669797835,0.5722135061665439,0.4432940106572886,0.43956314193843987,0.4106838551798416,0.20402150677874345,0.3477431697716366,0.6246667279627964,0.4296024492843117,0.3529264214651922,0.13677593451317588,0.36289905493877,0.5126567732523125,0.3643945608695957,0.3215127362749855
48,18938.875,16213.0,[14],1,0.23133057486940992,0.3016593292871674,0.6288826404066163,0.3252769848683377,0.5433353968466177,0.3058778147170481,0.2587027862094977,0.330833489019538,0.6892679467269438,0.13003746250860523,0.2508717387261405,0.09193763434456462,0.3706953677673606,0.34467924054859106,0.21176011439791215,0.13300265565233466
72,154346.990234375,136257.0,"[0,5,7,11,15]",5,0.1658657532239443,0.24440233719652202,0.3235000244330499,0.3060328769958102,0.26892662055812044,0.22666576214130546,0.2501950458231916,0.48704746290258866,0.17767585330121227,0.1035915087270434,0.24826967883094575,0.18493745604702078,0.15159138397875535,0.26435109540751545,0.20202682083028267,0.06544190539809897
72,202810.611328125,181619.0,"[1,2,4,6,8]",5,0.17705758530608087,0.3627567552663993,0.45213027398210975,0.3332586545422725,0.44802079736246625,0.23733681443875734,0.26237074739597366,0.33209781425895774,0.4913129870032272,0.13309714145747684,0.2611262965967299,0.10356908303730525,0.27423648535126327,0.3219504659390759,0.2011193146734437,0.0967086366377934
72,22625.591796875,19072.0,[3],1,0.34207009367651403,0.26397721021509657,0.4273301937143651,0.4064258873868657,0.4061994744999325,0.2600542071135601,0.2530954695321674,0.33648087364293283,0.759869157917672,0.40157881246431754,0.2805909602992137,0.10905838293355884,0.3670744826542864,0.43035755785157426,0.234674855744979,0.13977637682232832
72,13654.869140625,11913.0,[12],1,0.28735767035509,0.28876638279032224,0.5460857140942479,0.4639467760835769,0.43576999821999124,0.40962859210486274,0.21048723903453873,0.3588265411267034,0.6429535807982846,0.37915651804156947,0.3570496659887702,0.13786668687785283,0.36036215213313033,0.4938576833211906,0.3660226431410296,0.3188428174998716
96,103200.7333984375,86909.0,"[0,5,11,15]",4,0.1847008326918665,0.24240087876139918,0.3431061501998233,0.31092567253578185,0.26634705889166094,0.2255048656691614,0.26401507073140684,0.49750967202432184,0.17231760084209233,0.11256505201689065,0.25393969236904107,0.21839454546222556,0.15359063012837795,0.2627928626706609,0.20456528982996225,0.05695364907888793
96,49087.572509765625,34750.0,"[1,2,6]",3,0.18796264374127963,0.3491932115705293,0.45793322571844536,0.3464624924211433,0.4147396958249272,0.25038334187494876,0.28464322348978766,0.35091813178219694,0.46428528189125784,0.14088869245498253,0.2670305624718284,0.11159897101154434,0.25630227567161595,0.30227512303417375,0.18624813752899064,0.08416574818569067
96,24440.198974609375,21612.0,[3],1,0.366729606141144,0.2584509205621469,0.45624729456533775,0.43069373627691826,0.40247668664347697,0.26330928061789804,0.28157183972717326,0.36641641652470136,0.769986085581005,0.3927691286692368,0.2970502361236108,0.11685069526497173,0.3735797988272882,0.4744954959777592,0.22137957264466554,0.1266270323949157
96,74130.72265625,64616.0,"[2,4,14]",3,0.20797339706987028,0.42890485815924745,0.5111314452814061,0.3583584410548048,0.5408959551821022,0.36049459049531096,0.2604743629550119,0.36170124674575094,0.5579866125765865,0.15871152101201513,0.2652136477793138,0.10123783995971843,0.36956177860231026,0.44566023932078264,0.2087448879160686,0.09568305192321237
96,23952.640380859375,20951.0,[7],1,0.18052088929013124,0.23367920775392714,0.274455449052301,0.37999217671647906,0.27198384604757064,0.22630485899108113,0.2690041729030878,0.6169567338814685,0.18163693089858082,0.12308692774119945,0.25612402974024634,0.32283260001385733,0.17369785881985664,0.46227778853725104,0.2156745910995504,0.05301138018333201
96,63335.7421875,56632.0,[8],1,0.16412288683178716,0.44013882996102693,0.5079974609594673,0.353080128158645,0.5577979296599068,0.10748444496906569,0.35043315600911434,0.3457179850457846,0.5600442679517776,0.13537946285710264,0.23987068030603015,0.10309389502192813,0.3696380727287587,0.4492615015517537,0.19752278545407373,0.08008348618736123
96,9325.858642578125,7619.0,[12],1,0.30769680177333786,0.27810450420314964,0.56417214808864,0.47688940685538483,0.443993972520985,0.42423604409050997,0.2183290652806146,0.37048124000110727,0.6486148165676218,0.40985953479307285,0.3720788884841744,0.15044720195566758,0.3819589524926821,0.545412629740563,0.36181514016688837,0.30328466068994264
120,64884.08963012695,54520.0,"[0,5,15]",3,0.18285674234512894,0.2415726553008347,0.34386748638573117,0.320302555983026,0.26966536277649505,0.22224457440806886,0.26794946093428323,0.5238730168363813,0.17024855924805143,0.11362382880540473,0.2568208225800599,0.23619181408209278,0.15525269991237414,0.30928017506815536,0.20071370089650017,0.055069375601325625
120,41045.9465637207,34910.0,"[1,2,6]",3,0.19365128693193767,0.34734135513528186,0.4756731854508977,0.35528705498184165,0.4207438682110404,0.24903687625880844,0.29074498708600205,0.35383785157412934,0.4801153373842984,0.14045839655135758,0.2718022257133042,0.10945981383349464,0.25731986484177566,0.3164410870402877,0.17480709623254806,0.07888843418965788
120,26462.024871826172,23407.0,[3],1,0.3724627133970235,0.25867520225009744,0.47592219343950715,0.4571163425086269,0.41440603179354246,0.25436599534072063,0.2842024803356177,0.381198020936063,0.770737294716897,0.408890046811107,0.3018761459763872,0.11833024556271708,0.3843956495967354,0.4921959838350481,0.21079601674330556,0.12577825193952868
120,97050.78833007812,89414.0,"[4,14]",2,0.2060424669550399,0.4557939766557966,0.5374217272102549,0.3669467475201095,0.5763223054465809,0.38643491823801873,0.2604256529097693,0.3696940551860977,0.5752034254551114,0.14591530797097982,0.26375882873701306,0.09700519737726702,0.39743497009627926,0.4813899681267595,0.19771721539643886,0.08839763456187841
120,19454.080047607422,16460.0,[7],1,0.16866411699802103,0.2272580334522168,0.2781673058058792,0.39883648334449845,0.27466197419195953,0.2346628692560819,0.2741729477570313,0.6285803079732452,0.1772544896813301,0.12280233693813858,0.2578430594856452,0.3380387290271178,0.1698310712826447,0.4886899446042923,0.21037439154517648,0.0493593294259216
120,95854.9677734375,87938.0,[8],1,0.155369025241023,0.46079511174422033,0.5297363885020123,0.36177076447433737,0.5800616768361415,0.10267925470735334,0.36020917772006134,0.35229139982504143,0.5642799850071878,0.11872603502217853,0.23832953467836537,0.10048315412117403,0.3876041384314359,0.4772567930251742,0.18600844074665662,0.0726816497818267
120,33896.002044677734,31360.0,[11],1,0.17099091839046515,0.25252681449756087,0.3973898545039607,0.306177169147329,0.2719637099562376,0.2296496526872603,0.26499433419918944,0.3772877903744465,0.1990316582623763,0.11272362161886944,0.262149801728378,0.1397106946908553,0.13094847752594288,0.1680842186735141,0.19577899243777785,0.057647621797307466
144,57426.90315246582,50982.0,[0],1,0.19006968907303776,0.23239963324527044,0.32827598496598737,0.3553189678335825,0.2618489961285208,0.21903143969046274,0.2746988115268666,0.5594123090379503,0.152795231476422,0.11325482079852342,0.2530578106196565,0.27350545366016477,0.16391942148993122,0.33423946654561304,0.20306138000431123,0.05170373254235049
144,27701.75310897827,24394.0,[3],1,0.36634981181531306,0.25157255055894334,0.4837072553463015,0.487734033183095,0.42269349519093197,0.246648320355012,0.31490949627890574,0.3666403072638233,0.7507801382685972,0.4466194015865986,0.304903837787738,0.12851007538639275,0.3667870033705357,0.5132032555936492,0.21483489859336274,0.1378679121158502
144,84353.34854125977,72222.0,"[4,14]",2,0.20408785686073733,0.45748187143874913,0.5242485917084332,0.3864253126057944,0.5726490390329181,0.3840870527980347,0.2744214413268479,0.37103048901975305,0.5524733225143299,0.1525837150591456,0.25440915197737185,0.1041876112517701,0.39093527321468075,0.47648926351972315,0.19331924839609163,0.08162515885382342
144,23945.760005950928,21514.0,[7],1,0.1607681689043605,0.21792709238691763,0.24539939923033532,0.4959175474124719,0.2661950446228402,0.2583400041252568,0.2789845275208583,0.6557806420905319,0.19082358153989723,0.12506492621046014,0.25553760728886066,0.3826933606912403,0.17462553067109798,0.5170090750324021,0.2105572771710958,0.048486049338872204
144,85811.87097167969,73830.0,[8],1,0.1608391267515378,0.45776711672506204,0.5213733702070633,0.386926316428762,0.5756984303694977,0.10762943577195865,0.3705375807644573,0.35024573666800973,0.5490503727006943,0.13249237532444824,0.2321032399034497,0.10728304624322038,0.3825559008963629,0.47649763903207215,0.18443274261806702,0.07011591992752007
144,9973.320373535156,9329.0,[10],1,0.27687908736417605,0.24208308667856235,0.37457950183752453,0.55224772041369,0.26102394141274304,0.30486649098036445,0.26815132558801363,0.42111486213034494,0.6330907751459295,0.15725024651956102,0.2832495079483622,0.21564253058556154,0.15998999654510135,0.5561192359532571,0.2053145919995771,0.0788800946094761
144,26316.000255584717,22079.0,[11],1,0.1790002104433509,0.25166634965041906,0.4083341420756577,0.34108416002870456,0.2729154844767454,0.23476900876112722,0.2712597090931756,0.37840954120675935,0.20492034632253392,0.11727043098113814,0.2636198240196503,0.1478941760269053,0.14181290020496537,0.18075464170463046,0.19312511374135208,0.057861771530993276
144,12844.341541290283,11563.0,[12],1,0.3298733743822159,0.26707591755680593,0.5384019116792852,0.512553639429736,0.47287775390001563,0.4296658766409178,0.23278742731876578,0.38708460148229573,0.7008008805728092,0.4293452338315639,0.35251982473851073,0.15315748243264726,0.3830667299645049,0.5807388676344705,0.3189382605437943,0.23657704347061154
144,10028.093753814697,9333.0,[15],1,0.17730561771439934,0.2306300664924856,0.33919358333392285,0.5021998133398353,0.2944483005541452,0.16782882801795618,0.3278886963156568,0.632409637133346,0.3836571828341858,0.12655944581546805,0.25755241002586765,0.33276423041185116,0.19324064303619054,0.4918907630190393,0.2026163099357972,0.057560319005662476
168,41495.36289405823,34317.0,[0],1,0.16947335004922648,0.2323821620826038,0.32914686033708307,0.3812709830332654,0.2642879259437301,0.21969111517853454,0.2796744732785719,0.55267634696345,0.1622976306194465,0.11235839185960941,0.25234337248956507,0.24276177384876696,0.16193417510619826,0.3101536526099622,0.20554503648691244,0.05643211738373387
168,111235.71791505814,109171.0,"[1,2,6]",3,0.18336785014437487,0.3090811836079688,0.4489084704989021,0.4082306018439748,0.4108718565229587,0.2569478671287216,0.28689925645634146,0.34442878822820133,0.5217545800590417,0.16588832677556328,0.2680910742159851,0.10926654011156098,0.24914870589390348,0.3004358908492337,0.17789482690057412,0.1003230554344401
168,28167.719138622284,24705.0,[3],1,0.33518311482678725,0.2515887717694164,0.5095551514765253,0.5186985751445009,0.4515672882815659,0.23842501086102696,0.33583005343090133,0.34888479618395135,0.7142924604349664,0.42041034764424134,0.30395136731436656,0.1289749952009374,0.371037649218595,0.4996334991538774,0.22445072591932635,0.15645585275070203
168,66798.34906768799,55824.0,"[2,4,14]",3,0.20826829758381063,0.4243266150010576,0.5250348645660738,0.4025084574883551,0.552863893593181,0.3781898715880016,0.277192621312259,0.3614550989138024,0.5269266850069749,0.16793716835289144,0.26200131412898653,0.10391724981605927,0.36471690264402473,0.4286315699268786,0.20336592304074275,0.09666276725187999
168,22564.220000743866,19571.0,[7],1,0.15075399987646657,0.22305334314378175,0.2544720139355779,0.4893233620672185,0.26422723236852297,0.2769175581455515,0.2854379050888334,0.651488772860561,0.2006598849131025,0.12913239933840762,0.256651615893641,0.3465741911956425,0.17351514350791788,0.4868684228576686,0.21751010867315454,0.053954807243067615
168,61208.48387145996,50482.0,[8],1,0.16228557170341856,0.4338677937803275,0.5228192939543358,0.40060398987871265,0.5654089795051116,0.10261664027184209,0.369685153603418,0.341663023468238,0.5258654971665512,0.1448720655920108,0.2361827076825948,0.1072847455278392,0.3618696662193907,0.4351055686673558,0.1949153242217755,0.08278221872148919
168,32792.50003194809,29503.0,[11],1,0.1698562517135028,0.2605840418079273,0.4078743757148429,0.3622435281210581,0.3064080489972774,0.2405163356485264,0.2715673407963764,0.35514183143887534,0.2506308776066217,0.11762732376943727,0.2605615140144083,0.12882705954523047,0.1584940671787412,0.20253024165919942,0.18012856223676818,0.06806728481620641
168,17019.542692661285,15414.0,[12],1,0.3267390818052377,0.2633430856599681,0.5413314623249825,0.5286891120102983,0.46314927299509834,0.4288935766319225,0.24429997456011784,0.37465512050229227,0.695505673020217,0.4279965723141795,0.3439934985567392,0.14410460831104982,0.36943451419574613,0.5396504717050696,0.31252845896116177,0.2311427532781553
168,11303.511719226837,10050.0,[15],1,0.16109894058971777,0.23250323003545942,0.3167242216155369,0.5224859069847069,0.29440711650009005,0.17656002737157708,0.3404626966798777,0.6333012999302817,0.4325328847849194,0.12606714820924583,0.26315811980411835,0.28068063334136834,0.18846195526440823,0.47581020064675145,0.20066475970429698,0.06273461783208421
