time_in_hour,cumulative_size,size,pcore_ids,pcore_power,AF700 CD48_[R 730_B-A],APCCy7 Ly6G_[R 780_A-A],BV421 CD117_[V 440_F-A],BV510 SCA-1_[V 525_E-A],BV605 CD11b_[V 610_D-A],BV650 CD150_[V 660_C-A],BV711 CD11c_[V 715_B-A],BV785 B220_[V 780_A-A],FITC Ly6C_[B 525_B-A],PE CD115_[YG 582_D-A],PECF594 CD135_[YG 610_C-A],PECy5 CD3-CD19-NK11_[YG 670_B-A],PECy7 CD16-32_[YG 780_A-A],PerCPCy5-5 CD45_[B 695_A-A],_FSC-A,_SSC-A
-1,0,0,[],0,0.0,0.0,0.0,0.0,0.0,0.0,0.0,0.0,0.0,0.0,0.0,0.0,0.0,0.0,0.0,0.0
0,110362,110362,"[0,8,9,12]",4,0.1686427051806132,0.23229130996384284,0.31059228585908605,0.28635061964605624,0.25973817368326985,0.22387808195495393,0.2512903977460538,0.5257248360684332,0.16077211228686564,0.10560429370174902,0.24737455349889312,0.23495111950276865,0.14916475953810915,0.2929588189163738,0.19992519061712022,0.05056448638816004
0,26412,26412,[1],1,0.17193536952748784,0.2512280909414375,0.4071754952808818,0.29009341679252804,0.28219527457857896,0.22763578138268345,0.26135061627437506,0.322320041999455,0.2280803860602309,0.1155703767665427,0.25827024217756683,0.11494100956308811,0.1384348266151581,0.16635079052751287,0.1909641218353872,0.05413765810005286
0,129966,129966,"[3,4,5,7]",4,0.16513791287101381,0.40226237721983804,0.49165134795263316,0.30325095044709227,0.5028125296162277,0.19762304914164106,0.2824330866988346,0.31446883259890906,0.5667425304481724,0.1317802574726761,0.24354844300589817,0.09737153295478677,0.32487492466670753,0.3659249502095225,0.18997870936631628,0.0735698383917688
0,27553,27553,[6],1,0.34856619293996527,0.24736260519281594,0.458218720927946,0.32265240944535667,0.4012946643561772,0.2542720247723411,0.2561097790851178,0.3254304939776365,0.786829320939184,0.44420597551811414,0.278235913066891,0.10324641252218524,0.37177160309171675,0.410614325445624,0.21851480008219906,0.10657188192189196
0,83478,83478,"[4,5,10]",3,0.185573348765185,0.4121259401693477,0.49870208433958546,0.305693980397625,0.5110112696150664,0.33835520289367305,0.23135967582340536,0.32452185769955216,0.5703571165543403,0.14275041646751016,0.25410831037408504,0.09491532260655153,0.33666578328903385,0.3792583050518381,0.1959661493131707,0.07905266942316726
24,142945.5,115355.0,"[0,8,9,12]",4,0.16601577389742705,0.2308108569897933,0.3151807165613831,0.2942115341815614,0.2540594685802387,0.22855061002700117,0.25040089751262257,0.5238032888496674,0.15682832073501785,0.10186288815979021,0.24613036877222244,0.23159238612096322,0.14022133850028887,0.29273986762284454,0.211099078760125,0.054179909292952556
24,39135.0,32532.0,[1],1,0.17206158777663738,0.24746175693512612,0.40445785322497435,0.2958261694052822,0.2762060731002554,0.2325171960011588,0.25937908635561585,0.330961917936408,0.23942867683563354,0.10999882672308721,0.25517725183700446,0.11767843853222393,0.1325903157570477,0.166982643897477,0.2000753223586188,0.06124080716705476
24,155729.5,123238.0,"[3,4,5,7]",4,0.17205169733061695,0.3782895846948505,0.5003120320257015,0.3121037539545055,0.48781341417339563,0.20367248347815528,0.2825983546551286,0.32139271605118624,0.5788782979116127,0.13537178085350574,0.24224091114719615,0.09921555050606266,0.3047923825556549,0.3518348335219467,0.19014830665237217,0.08530431556073285
24,30339.25,23451.0,[6],1,0.350763305422527,0.2556601426360853,0.4974019521763207,0.33803261598066403,0.405816685724045,0.2670486885343518,0.25969488197694574,0.3471791829383065,0.8049381266171108,0.43804922912827193,0.2764068328396666,0.1085127620530149,0.3751367180787029,0.4154354181444951,0.22352271186982187,0.13732908087627155
24,98868.5,77999.0,"[4,5,10]",3,0.19124935112210514,0.3932566204529732,0.5073616492928542,0.31462532177009916,0.5016715360582318,0.33773461655824877,0.2342994011701117,0.3314853512950731,0.5843889798504339,0.14618310809965454,0.2515743813862426,0.09657569262555206,0.32073524338455367,0.3702312546080704,0.1962443949882887,0.09078965348197751
24,20567.5,16948.0,[11],1,0.2769197383206084,0.27370286040671177,0.5909633110412649,0.45685189809618526,0.44436724424822005,0.4311678837250591,0.19296451604776324,0.3524805940819913,0.6462952406924796,0.44514740995965574,0.3643122018008005,0.14731183088691635,0.3570481411028698,0.5219540411261967,0.3903936199849614,0.35295615113444617
48,144966.375,109230.0,"[0,8,9,12]",4,0.16397864769692447,0.23170612990405737,0.30861499846594725,0.2904865167676513,0.2525363331420979,0.2277552586037529,0.25225698922876105,0.5266794840144214,0.15805568507761908,0.09772054220141364,0.2445329337850305,0.21787008072024713,0.14195379443252196,0.2687379566142672,0.20160074885027293,0.05498698343748106
48,51411.75,41628.0,[1],1,0.16702197810988526,0.25607557587231333,0.40287575313548585,0.29944195049062616,0.2877831031208951,0.2346896127610959,0.2638736835330954,0.31238514182486204,0.2793693350751713,0.11284502150096909,0.25611452213248526,0.102613345868436,0.1332262533854599,0.16309427965659803,0.1689198595213376,0.06665189934556237
48,146242.375,107310.0,"[3,4,5,7]",4,0.15930237635750014,0.3853809957825754,0.48355861455773425,0.30059382649246147,0.48135260541193087,0.197935322837532,0.28369636124038805,0.3120099809898296,0.5672428925505827,0.11261214158778508,0.23992594436101444,0.09279265200103606,0.29968786427394406,0.31687530929005203,0.17576355607874425,0.07548242804075149
48,35944.8125,28360.0,[6],1,0.3582762524447689,0.25226139522113433,0.4728312185084031,0.3263389543206273,0.41719681758149824,0.2612307033701106,0.2606930831329728,0.3318972120368996,0.8092042486287359,0.4364622867185607,0.27000233109262106,0.10195229345195472,0.39222573237498715,0.40966966332596916,0.21066280652019861,0.12229456445303565
48,87171.125,62454.0,"[4,5,10]",3,0.18270484342232376,0.4092231678667113,0.4884046433034881,0.30023980963348307,0.4995775014080255,0.3458466777242282,0.22049208140964202,0.3260401034139106,0.5693805647346769,0.12174205075155327,0.24829723657885502,0.08866832032121871,0.3241467617211631,0.34531533456444496,0.18045759421636315,0.07662814972305344
48,18183.5625,16338.0,[14],1,0.2560286042854283,0.2798431071772429,0.6632097922790425,0.3350299053079699,0.5011868118722732,0.311913348826126,0.253229429232487,0.3332008861820687,0.6988786796056299,0.14688103581481068,0.2590033845858521,0.09517000950826571,0.362447577826474,0.32892964318504453,0.21197715105296597,0.14761095609392996
72,157152.59375,120911.0,"[0,8,9,12]",4,0.16424552932345582,0.23879460537613884,0.3081473056041956,0.30363025701538515,0.2606198217341863,0.22577780427739502,0.2497568163377727,0.5131664101792521,0.15851805205575387,0.1005071428387113,0.24633738650009163,0.20027459901683536,0.14895205026959177,0.2760617338698352,0.2042960086997102,0.06171918295771144
72,114292.375,90105.0,"[1,3]",2,0.16724367046391125,0.31984858521739795,0.42153956367722545,0.3192576232626827,0.3790129015768033,0.20934898687327858,0.2721558930356389,0.33030044782542184,0.4174575030836827,0.11844982862918826,0.25536478927637624,0.10536655022588982,0.21070597125859936,0.2419743111973229,0.18335257567979138,0.08165771653327158
72,209306.34375,161691.0,"[3,4,5,7,10,14]",6,0.1807195401046815,0.3732595986449349,0.4708358968155998,0.33272240445228923,0.4737742133227677,0.23991785985235256,0.2634396408193829,0.3258867704140035,0.540917780238916,0.13498961606212864,0.25863395947607526,0.09840568932112216,0.29678337397590987,0.339255182978473,0.20176019245679905,0.09801597580507944
72,28012.203125,19026.0,[6],1,0.3459711825336231,0.2626830560252705,0.4317729812164965,0.39255314699648414,0.4082617808586637,0.2601589051775423,0.25513816943557505,0.3363178523950111,0.7723284665018498,0.4135068506443753,0.27949612655695155,0.10715733229958738,0.3741407912010772,0.42882517305180157,0.23046038343396982,0.13626024912051043
96,136322.1484375,97034.0,"[0,8,9,12]",4,0.18042667596674664,0.23681166086446112,0.3130568110014793,0.3212812165476054,0.2618878888238149,0.22404691233583524,0.2633118827677037,0.5420726539843749,0.15850308346321074,0.1107149439112896,0.25167933505593526,0.2476113748729728,0.15513918276405492,0.31042340251117767,0.20732909165107516,0.055012252899228946
96,31809.234375,18733.0,[1],1,0.17397227119942887,0.2796110608224804,0.41409478307386915,0.32323984502520264,0.3149484675692942,0.23503902130884974,0.2688861592081994,0.3423082870492199,0.29965980760930916,0.11992211751007412,0.2649551159405868,0.11651192400074548,0.1625276709454078,0.1907324164296531,0.19058353455041235,0.0723894730631159
96,75669.08984375,41376.0,"[3,4,5]",3,0.1848693953049321,0.38020717991534114,0.4623588552756345,0.3434586867834775,0.4567287236457771,0.2514948567303338,0.2870884933220515,0.33724902131028217,0.5285485620064904,0.1417911365267338,0.2621513139351663,0.10148713851362302,0.2920075668516307,0.340978397816188,0.1888295556600319,0.08559771320581668
96,28650.05078125,21647.0,[6],1,0.36960172851426304,0.2571418761174183,0.4442069202238455,0.42402233400830847,0.39981255959714956,0.2600786810273174,0.2744680260515729,0.3619229342983453,0.78189809318812,0.40674120152745796,0.29309103111710755,0.11381949913438959,0.376748388044722,0.46752630581440896,0.219713936122253,0.12350638787114557
96,82542.87890625,64851.0,"[4,7]",2,0.16589433390100847,0.44360198973921244,0.5097009324754102,0.34990358283758144,0.5615334242302613,0.14092903619612823,0.3417727435114988,0.3400620438319075,0.5605916105792759,0.13487176191000597,0.24303094330513564,0.10021042319600573,0.37336125433837375,0.45096049980330266,0.20007121712813153,0.08246338356917057
96,56079.9375,48016.0,"[10,14]",2,0.2179207676608189,0.4337738862232418,0.5339654066687569,0.35696805642184515,0.5641774079379893,0.3911327267502105,0.24070714621853115,0.3647410115280712,0.5849750701046197,0.1555105265204121,0.26264037765831333,0.09530674318963582,0.38638245196519355,0.45640109606083873,0.20788412979031407,0.0961549374969974
120,116554.537109375,82474.0,"[0,8,9,12]",4,0.17559577000021506,0.23660278625002842,0.3208341782969779,0.3297589924149075,0.2643444782238743,0.22349392225292689,0.267380445929537,0.5441773833915713,0.157219569877593,0.11179753410332822,0.2544410181010687,0.2546841950022452,0.15118389138988292,0.32689126772449756,0.20509152100119887,0.052087854062641194
120,37600.30859375,29648.0,[1],1,0.1756877999496537,0.27626282448708933,0.43025378572086803,0.327874172998552,0.3053634048478791,0.2348677154295793,0.2729196503113409,0.3386183318058821,0.2838576326549496,0.12229505531264051,0.2710963539647368,0.11789145408722973,0.15625944617836166,0.1898981566782224,0.1852615078104945,0.06863344313043783
120,67810.2724609375,48893.0,"[3,4,5]",3,0.1855525425433286,0.3959672244562676,0.4889318266641157,0.3538718335220602,0.4804355680526292,0.25240599535525876,0.30765187480942013,0.3381480797237761,0.5341280152652562,0.13896769770510045,0.2644330612229297,0.100138470831153,0.3114962847689307,0.37077932420033194,0.17966706972686705,0.07889785032239525
120,30902.5126953125,23740.0,[6],1,0.3775752386570596,0.25703213796966773,0.45996717088085415,0.4540744665858927,0.4055215368088624,0.25240446163832414,0.2777095816683703,0.381675300922325,0.7844987652211832,0.4169518131274877,0.2974029918324879,0.11540110997493945,0.3840444057894981,0.4868169091794683,0.2059031176474201,0.11764117839963145
120,118796.7197265625,98161.0,"[4,7]",2,0.1587654556059332,0.46445373690763386,0.5327134227816347,0.36025640265916087,0.5843351876590825,0.131928573399122,0.35839570115645986,0.34666375917816655,0.5657358704097852,0.12181811627815282,0.24147689423426066,0.09739721690461502,0.39270036404913655,0.47866975461694955,0.1891236172338056,0.07539949607996661
120,90411.984375,76392.0,"[10,14]",2,0.21211618628035772,0.4543962865666036,0.5443938692208014,0.3659529754238518,0.5847525918727822,0.39974475817490046,0.24676697178458262,0.37307392732934214,0.5853908017875581,0.14330139364222574,0.2617952687930265,0.09259119070265716,0.40197204749541016,0.4846002302403528,0.19571147512378262,0.08662873681345307
144,96502.36450195312,71642.0,"[0,9,12]",3,0.18463865635491103,0.23319405698845286,0.33453400662802096,0.3565161566518519,0.26374502918939197,0.21179587658646912,0.2782308619116639,0.5544896535125176,0.16448823181078306,0.11341188466194942,0.2532140136962839,0.26882966243372325,0.15845460678569034,0.32976826110896046,0.20474619995985532,0.052373428712424556
144,29521.0771484375,20121.0,[1],1,0.1835097928641514,0.27062147281821275,0.433603851388671,0.35095941043245543,0.300995884795738,0.23709933302650413,0.28061508779341776,0.3376836523287557,0.27350471168894946,0.12740758774413097,0.2713044224028822,0.1246873931595199,0.16473630614590845,0.20245217690815306,0.18427217174359578,0.06580303712951768
144,193097.17602539062,140795.0,"[4,7,10,14]",4,0.17976721730703418,0.4646122013572848,0.52924054662585,0.38018577486896277,0.5830315531656952,0.24718257333209318,0.3221484190310996,0.35686124974950234,0.5536383437509045,0.13562948552400206,0.24246397198913353,0.10037156426267575,0.39277755407092274,0.4775751544519794,0.18744007891938225,0.07429037845626742
144,34217.628173828125,26492.0,[6],1,0.3764877206785006,0.25135677374933935,0.47657987631181875,0.48528738036229246,0.42274305276967067,0.2448809731687587,0.30586383124698424,0.36840605943225957,0.7683265167089379,0.4523863036185089,0.3003784704234502,0.12297058625265544,0.37214502184197423,0.5133694911362372,0.2066845530390031,0.12643705216277135
144,26798.269775390625,22520.0,[8],1,0.16238401138097006,0.21795130190526782,0.2342607281274371,0.5295669848944559,0.26388782371145875,0.2782655024837284,0.27441907274239147,0.6704942875265721,0.23522064335947906,0.12795493722020201,0.2574314887154225,0.3949931785528465,0.17928909217318523,0.5372872735901482,0.2089079567138802,0.04843548855874618
168,105916.15856933594,75091.0,"[0,8,9,12]",4,0.16457283524984262,0.22981873386553045,0.3080282235635843,0.4202102871076408,0.2654109269067239,0.2326999971084746,0.2827989074980611,0.5834009902912792,0.1994782811238851,0.11775884415279934,0.25409045412030484,0.2789738808981153,0.16406522296160136,0.37387983157561516,0.20928999677125834,0.05550470335176358
168,102484.12646484375,92028.0,"[1,3]",2,0.17097504455814747,0.29648037664645255,0.43522517364736474,0.384350335129926,0.382003740894238,0.2053638848134552,0.29745717082395895,0.3260247718055166,0.43044098265603514,0.14055458486494984,0.26074357151780897,0.11050829193510933,0.21582924093528275,0.2565765677795688,0.171010934693869,0.08138909705050976
168,143968.29400634766,95694.0,"[4,7,10,14]",4,0.18220453649621474,0.4476399403723476,0.5308835933611638,0.39274031712718876,0.5772936329452725,0.24919609799392445,0.32226880337333824,0.3490970113065574,0.5307511426720363,0.14629255205664077,0.2450076312238486,0.10068586786276223,0.37720905115939324,0.44621783570714474,0.19587461994263905,0.08406872170906979
168,91112.62139892578,86328.0,"[3,5]",2,0.1834787002779752,0.31134400550565644,0.45010336794566386,0.4082758800090431,0.4141301591838332,0.23814156875396741,0.29049209741478405,0.3362536381017484,0.5491703228834359,0.16649152256186525,0.26717687889397324,0.10567167120868667,0.2537022217237886,0.29839721761363575,0.1741154379986573,0.09860879974043626
168,34547.40704345703,25993.0,[6],1,0.352980806663953,0.2507021513906936,0.5068440024189518,0.5152601344782386,0.45168165641001007,0.23925841557131286,0.3280432887496992,0.34644974737317535,0.7336197925728394,0.4404324872886805,0.30062407670073177,0.12494567316270824,0.3786313594889831,0.5082331556293774,0.2154819116487584,0.14608857864784608
168,20668.087768554688,16713.0,[11],1,0.314447199191949,0.27111259536675936,0.5570012533889136,0.5348725885322214,0.4722355671567487,0.4376990707735296,0.24993853774219246,0.37875975916932636,0.6866245423684416,0.43384883807891383,0.3655034946992663,0.15351008501848806,0.3690703041671475,0.5603512201559216,0.3570825441896699,0.28059482380237605
