time_in_hour,cumulative_size,size,pcore_ids,pcore_power,AF700 CD48_[R 730_B-A],APCCy7 Ly6G_[R 780_A-A],BV421 CD117_[V 440_F-A],BV510 SCA-1_[V 525_E-A],BV605 CD11b_[V 610_D-A],BV650 CD150_[V 660_C-A],BV711 CD11c_[V 715_B-A],BV785 B220_[V 780_A-A],FITC Ly6C_[B 525_B-A],PE CD115_[YG 582_D-A],PECF594 CD135_[YG 610_C-A],PECy5 CD3-CD19-NK11_[YG 670_B-A],PECy7 CD16-32_[YG 780_A-A],PerCPCy5-5 CD45_[B 695_A-A],_FSC-A,_SSC-A
-1,0,0,[],0,0.0,0.0,0.0,0.0,0.0,0.0,0.0,0.0,0.0,0.0,0.0,0.0,0.0,0.0,0.0,0.0
0,133248,133248,"[0,1,10,11,15]",5,0.30782327489343664,0.16403712569044027,0.4580304815531999,0.5513396362797249,0.33458725318952975,0.23506561432816508,0.004388215710551702,2.456658598755711,0.8451756557696962,0.38306241552593634,0.18163977583904023,0.9562384410122473,0.6343543006048887,1.0873056335929963,69357.10710854937,14140.244956772243
0,184466,184466,"[3,4,6,7,8,9,13,14]",8,0.39278714512159363,1.6670743177875593,1.9899183306300379,0.7716181938677034,2.471584292156819,0.35067181579802487,0.14304756895579018,0.7541566750458051,3.8125883410601697,0.6858500882655895,0.20795571213122122,0.1895141443138595,1.95095292948836,1.5847250071774739,68652.57788427125,22142.22015981267
0,26789,26789,[12],1,1.9082068423606355,0.31677539217589334,1.680140583485723,0.8998040584941429,1.704570944044209,0.46606137448206786,0.01721522945985665,0.8023360578595478,5.622502118817379,3.1199317893911576,0.45861170088469194,0.20570412923214754,2.397705492776902,1.8437673256560505,74761.1022434581,29193.29336668026
24,179374.0,146062.0,"[0,1,10,11,15]",5,0.29494733982210253,0.15144591145315722,0.5161065857286888,0.6275717470745388,0.28637071490432975,0.27062122855319126,-0.003514303925039819,2.409518816493761,0.8636860934026122,0.35691292979473543,0.17380991349220398,0.9200652757144259,0.5702794623398587,1.073145129997931,71751.95415166064,15471.902951375258
24,217321.5,171205.0,"[3,4,6,7,8,9,13,14]",8,0.43744456467492165,1.4978719858930183,2.059594071757751,0.8502056107725258,2.3822185466336774,0.37956399425850895,0.15083124917575175,0.8178602706485476,3.886480813552733,0.7058484629385499,0.18920397010649914,0.19876646713854806,1.8304642988970143,1.5358886800132496,69114.92276650034,25428.245617667846
24,17641.5,14489.0,[5],1,1.291407136099551,0.553473559561271,2.7630594493381957,2.0729463970609125,2.016019117875446,1.5482074718703045,-0.5272401633506352,1.080458752430344,4.573610313111107,3.088397082150049,1.2092574061162558,0.4904332856758169,2.2301503254258384,2.3519227446362256,109107.7924212788,84689.01805402068
24,30582.25,23885.0,[12],1,1.9130235818489598,0.3909204862706308,1.9971818039467322,1.0546736321150494,1.663651147544749,0.5626602251060728,0.04299224806872726,1.029598982759543,5.723783157002857,3.060532933531704,0.4568129112066459,0.2478116116211272,2.381009701460846,1.828757616713944,76087.22366732331,37711.9805115709
48,153011.8125,116863.0,"[0,10,11,15]",4,0.2530625849270589,0.12452248976242686,0.2893058912685951,0.5806539910513395,0.22620969206094532,0.25238488192864406,0.0025631902826925845,2.7365414146273075,0.7227928145719119,0.30154234559545723,0.1417825530312209,0.9468744742983595,0.5747096138513043,1.0408934970502706,69936.24848408364,15028.650288029223
48,42860.6875,34166.0,[1],1,0.3141085441452107,0.4107972624491243,1.2384275723805676,0.710186381606988,0.6281560645404869,0.32060094850614673,0.1304707851688005,0.7098750402218652,1.8215256990424082,0.4551934847565703,0.2721997725188081,0.2182477298602591,0.5842884234853921,0.5544483206653537,61510.07428427271,19259.70142219471
48,74333.3125,60271.0,"[3,4,6]",3,0.35266525110628577,1.1876680924467875,1.5778135471528967,0.7385540281308933,1.6872372371842292,0.38433344711868656,0.11468752473106791,0.7133199131614121,3.869789822017894,0.5278854343316833,0.2134958046283053,0.17223824315393443,1.3690743191402346,1.064417645479442,63365.35544544744,21461.099180801128
48,16554.375,12144.0,[5],1,1.272522199833907,0.5603875942311389,2.6444074423151034,2.0486084739494967,2.0017403150526483,1.441752272903684,-0.46899491925474157,1.0286071416921412,4.327136470672451,3.0711173718239184,1.195519417283959,0.4470570074866884,2.279941527874062,2.3546971719485024,107661.20786801011,84374.10074376126
48,99117.8125,75977.0,"[6,7,9,14]",4,0.519688871229629,1.6501155944995922,2.187081615559143,0.7415431497700014,2.7110803606289404,0.8931236844191195,-0.20020841033871095,0.7682097200793248,4.1101622699804885,0.5288724777023553,0.18508926953720195,0.11227629043341802,2.0933714656371696,1.4856840670023364,67604.39262115485,24647.0505591514
48,50911.625,34068.0,[8],1,0.029814337657414258,2.072785302225931,2.000369246462576,0.6648874496934423,2.989744583593413,-0.6375211601562014,0.764192133095841,0.5612419539238558,3.956968098937326,0.3673210643320689,-0.03022487859844647,0.1269369615362902,2.18203938791364,1.622497003232315,65485.116689950264,19928.507251536186
48,34349.5625,26704.0,[12],1,2.0278458318355685,0.32561111147521205,1.74806988575,0.9262656876470463,1.7942859309707386,0.4783425883608343,0.0843623826540667,0.8440192718211357,5.790657824370032,3.1311707568218576,0.3801979927528194,0.19340856058574274,2.550168221578528,1.8250050428426399,71945.45223101441,32462.999084777097
72,216036.125,167068.0,"[0,1,10,11,15]",5,0.27822837592938554,0.3363469970858395,0.537176473167543,0.7449858266330791,0.4952041064322059,0.26018904498683626,0.00926918743097227,2.2235992501074255,1.1042086869539771,0.36503924089923934,0.19458943210040536,0.699135814977125,0.7006674824747915,1.0186139884499137,69159.95841436242,18170.53388640447
72,243521.09375,190009.0,"[1,3,6,4,8,9,14]",7,0.37322125679846696,1.3335771042325013,1.513459479436444,0.9621666080767359,1.9716008137807557,0.2679594870855697,0.14767979372738393,0.8532546136473087,3.3064327942501714,0.5889526847653132,0.27615745813486203,0.21218230121511517,1.5556022662015376,1.3109350063269132,69226.10204891153,25228.38429063178
72,15011.59375,10873.0,[5],1,1.3714235977754725,0.667817824943651,2.398675913889471,2.167241445931387,1.9548975948673042,1.436561637346972,-0.4342714970293793,1.1278976762085908,4.491584090524829,2.703932073138264,1.1893300671939029,0.442553907047884,2.2680870056601994,2.260114247227666,106814.05083987114,80597.4029239899
72,63110.765625,49817.0,"[6,7]",2,0.497097591739631,1.4977842098495544,1.699184051113996,1.0000468776092633,2.2949409701546712,0.7230869528849146,-0.12967403387893128,0.855932787544675,3.626002633528999,0.6691349776964571,0.33565376727426965,0.17461523194165596,1.7880866717670951,1.4536564980187334,71797.05126576812,28200.394391903534
72,26929.390625,18342.0,[12],1,1.8656991837983685,0.4416103900263648,1.4111703536453497,1.5314330952618738,1.6853924911339337,0.4801772349732816,0.021878704539243454,0.9003488864559581,5.47590822035461,2.8703241572665643,0.47686340038039665,0.23450368067765126,2.365820527962878,1.8966670350151775,76974.07204140944,36974.503131743084
96,141635.73828125,100634.0,"[0,10,11,15]",4,0.40947598695260434,0.19222010865938088,0.3728196588968635,0.8710224304434249,0.3360742899361724,0.2392301644319892,0.10793975360462005,2.89513525009544,0.7834118378399092,0.4168684176010873,0.21684000323083819,1.137975784401558,0.6966325372633474,1.2612762406862454,71233.17780654831,15364.547494564684
96,55488.3203125,33703.0,"[1,3,13]",3,0.5160458957424174,0.7991349071714886,1.636901820280388,1.0829170892690616,1.142168132681705,0.3483453729774926,0.2879075456165845,1.0977684617484953,2.5755452986150016,0.6517353704388164,0.3916914920133028,0.31831338507920703,1.0587528026728634,0.9406607839859384,66475.86344254609,23307.695691027147
96,188797.48828125,137012.0,"[3,6,14,7,8,9]",6,0.47857740330134235,1.9416689412591248,1.9348543020756712,1.1636531227088613,2.787294639097912,0.3549529425110485,0.4469531670612872,1.0310519877960984,3.819087764217582,0.7105321575300453,0.2481315868427738,0.19517434107674825,2.1789246040383774,1.8561178552959243,69939.12248493283,24106.245821555192
96,27783.34765625,21051.0,[12],1,2.0669788869518735,0.4008561177747012,1.5328237894814785,1.8527906292102307,1.646481771654198,0.5184315853750896,0.25475769956881855,1.1730158071217192,5.509320576410488,2.803935462159006,0.6201361676452453,0.289588466967274,2.3930003438798177,2.138690519517138,75165.40970289535,34166.11263857004
120,124158.9345703125,88750.0,"[0,10,11,15]",4,0.3732005771995317,0.1857662716375561,0.46490927821804906,0.9284459161862881,0.35779392404464616,0.23395716686153523,0.1526346112143071,2.822691284165006,0.7780925319874762,0.42582568636109897,0.24540300976384044,1.133893189907711,0.6585385132811813,1.2986430642431008,70484.61659625128,14564.289031599623
120,53666.080078125,39794.0,"[1,3,13]",3,0.5593721495034791,0.7630697727110554,1.786832369522068,1.1656020908783984,1.0866415926289004,0.3530034103517472,0.34991470794126345,1.1191743407787484,2.4326890590885704,0.6562872479264649,0.457751299319177,0.3346669665384905,1.027146476123677,0.9841735092989128,64281.35045294012,22252.893211577735
120,235359.8974609375,192210.0,"[6,7,8,9,14]",5,0.4246595719671229,2.292525126006667,2.1926931367099534,1.261120552165901,3.200818315605153,0.3784398703810139,0.5681636298591495,1.129353655182181,3.891160450676575,0.6073591716531132,0.2222104720978817,0.177744538966928,2.45011175044129,2.122199553887265,68051.012410295,21990.87762915943
120,30618.8369140625,23673.0,[12],1,2.143017516986152,0.3880721748646705,1.6933181413864289,2.104550318232445,1.7363061557204267,0.4937950664667645,0.29245999081999985,1.3459169841934258,5.521019642793694,2.8838867525094796,0.6740926877760058,0.29997087765047536,2.464102639353801,2.2368532072086076,72340.09245980617,33177.68108652197
144,130268.73364257812,99229.0,"[0,10,11,15]",4,0.40074867075752296,0.12670172107213906,0.3969337232579879,1.4582036402008498,0.34551314963859836,0.24721980815838474,0.2644322798073957,3.1790736657345198,0.9047820867251152,0.4562382899022124,0.24041752343342448,1.40328728675934,0.7436440862350112,1.5185935551401455,70708.71208681357,14348.157627468147
144,36432.52001953125,23016.0,"[1,3,13]",3,0.6986113301395831,0.6937052826795371,1.9453944931408436,1.5317595213880155,1.0276239889112828,0.4293116118116964,0.5034336128928083,1.207124090313465,2.4134006452866745,0.7983255154399477,0.520772447613032,0.4095351821515709,1.1023918232220349,1.107163591938655,63752.966854590246,22972.045491691257
144,13906.68115234375,10987.0,[5],1,1.6916903532632255,0.4916990959158789,2.3886341367191073,2.6150043167653068,2.271660841455789,1.5702394113920575,-0.23007287234300788,1.403988242335104,4.8184257749805885,3.01512030388052,1.240502647734218,0.5612118016167691,2.455916553666555,2.694745171082474,99926.8628911541,65953.19463150075
144,103098.64208984375,74846.0,"[7,9,14]",3,0.6276026283676965,2.3232060882590435,2.1830802751476344,1.4814641381163947,3.246974058711,1.2269576404911435,0.23748152261617195,1.2574480296234003,3.837572657660863,0.7533909219814307,0.2497068722446567,0.2110138148342391,2.5072723058122723,2.172061204675459,68306.79572221525,22274.723503074834
144,99029.52978515625,73217.0,[8],1,0.21983167414293536,2.4000055349967724,2.136067805429104,1.4665295937352,3.295901557391123,-0.5382932133097752,1.2289344651665526,1.0389183188246567,3.7841575226167232,0.5843069584070143,0.03495651945599665,0.22461016832119896,2.4589279935912027,2.1800387892668467,66255.87760429532,19067.504014045393
144,32536.709228515625,24882.0,[12],1,2.1024849283525846,0.32002743433995295,1.77605287534849,2.3923520572151484,1.8101095823822768,0.4507442144279781,0.5757664325279261,1.260346407705613,5.38072239244995,3.1578830539008385,0.7095668883674571,0.37162536314028105,2.3466162601519795,2.3495620080427564,73088.64054572511,35537.70375094875
168,115503.18341064453,82936.0,"[0,10,11,15]",4,0.27610735780112905,0.13738592646563585,0.40071267214049966,1.7057533653599268,0.39240409777218055,0.2807096249959333,0.3311290424715514,3.118398503540562,1.083179343683025,0.46840072433205604,0.24508027858547266,1.2455156436013821,0.7539466965949592,1.4872487813928164,70753.38491933378,15631.399964446335
168,146233.86029052734,134306.0,"[1,3,6,13,14]",5,0.47081667972217556,0.8617561677696961,1.6052793707170792,1.6808281422943425,1.6342441698339458,0.4456485165943418,0.395810500335247,0.985275971576073,3.313762527163286,0.8572042127248177,0.3901182954643585,0.26872523781263213,1.3803801675116305,1.2271714768888877,64564.02291472987,26221.006698294153
168,50813.847595214844,39203.0,"[5,12]",2,1.821170762403187,0.37151916865067225,2.1425679780527473,2.7108819381106986,2.1219651879241224,0.8537635705266451,0.45146394412111945,1.1579932439748766,5.022717535797943,3.052146175085491,0.8764539514640477,0.4277518430755517,2.365772336994588,2.394885537564356,83710.44771921248,49033.44480870907
168,82964.3314819336,56520.0,"[6,7,9]",3,0.6446397533792827,2.084243051224262,2.1789851595170515,1.6010723473350579,3.1102727034195268,1.1693850892655162,0.29715266655359995,1.1685422681597912,3.649068020990009,0.8500839930775831,0.28944585615375296,0.20873672411170008,2.348265969518216,1.9610084616621422,70011.33951517573,24901.8612316326
168,72640.38244628906,47883.0,[8],1,0.22647174837944894,2.243091194606521,2.148262813684878,1.5787309031129628,3.2507538952352157,-0.5698750000078918,1.2411513961840468,0.9639604715101457,3.6209283578442997,0.6576327346931562,0.044917765122935105,0.22782937125489566,2.347786438174747,2.0192465886048754,68002.93785370135,21159.381784758167
