time_in_hour,cumulative_size,size,pcore_ids,pcore_power,AF700 CD48_[R 730_B-A],APCCy7 Ly6G_[R 780_A-A],BV421 CD117_[V 440_F-A],BV510 SCA-1_[V 525_E-A],BV605 CD11b_[V 610_D-A],BV650 CD150_[V 660_C-A],BV711 CD11c_[V 715_B-A],BV785 B220_[V 780_A-A],FITC Ly6C_[B 525_B-A],PE CD115_[YG 582_D-A],PECF594 CD135_[YG 610_C-A],PECy5 CD3-CD19-NK11_[YG 670_B-A],PECy7 CD16-32_[YG 780_A-A],PerCPCy5-5 CD45_[B 695_A-A],_FSC-A,_SSC-A
-1,0,0,[],0,0.0,0.0,0.0,0.0,0.0,0.0,0.0,0.0,0.0,0.0,0.0,0.0,0.0,0.0,0.0,0.0
0,78983,78983,[0],1,0.29081679222111423,0.15142901121762664,NA,0.44503270683563656,0.3371837495157468,NA,0.17850649078920267,NA,NA,0.3625044432472738,0.1584998686046215,0.7402911210260401,0.5497177124571201,NA,69167.11575908726,13237.061747464808
0,71526,71526,[1],1,0.08159491807174901,NA,NA,0.6645577949976516,NA,NA,0.706625837443684,NA,NA,NA,0.014084091952567324,0.13644211327349465,2.194845350404022,NA,NA,19170.52685736672
0,61981,61981,[2],1,0.5052086309191499,NA,NA,0.7037448585534452,NA,NA,NA,NA,NA,0.6055857695584091,0.21955715906485196,0.09758714293089932,2.241807427147044,NA,NA,21495.60723447489
0,21634,21634,[3],1,NA,0.36273785176112794,NA,NA,0.5417705681797247,NA,0.1286235467319794,NA,NA,NA,0.5080344958861076,0.28727038286955764,0.7074965596283594,NA,NA,24762.03309605243
0,22405,22405,[4],1,0.08326599513502053,0.05107020589153999,NA,NA,0.3976781480472975,NA,NA,NA,NA,0.3660904346797659,0.17826034309303518,NA,0.7935633902700224,NA,74218.51051104681,13690.28984601649
0,26599,26599,[5],1,0.5068445446821308,0.12657067228091723,NA,NA,0.12389082506861548,NA,NA,NA,NA,0.44620072634308994,0.22726789537200087,NA,0.7116574246776236,NA,NA,16266.26444603179
0,31464,31464,[6],1,0.44032428705822846,0.9657965541571367,NA,0.7252945940121949,NA,NA,NA,NA,NA,NA,0.26837813122933873,0.21536191936817217,NA,NA,NA,16970.40223747769
0,45164,45164,[7],1,1.7287705961385138,0.3681840532946672,NA,NA,NA,NA,NA,NA,NA,NA,0.7676931516473275,0.29437185240457187,2.4129147600522245,NA,NA,NA
24,164113.0,85130.0,[0],1,0.27587833731026734,0.143579382687554,NA,0.46990727540166644,0.3012952835058633,NA,0.14664822466232863,NA,NA,0.33203165626731834,0.1474854535777217,0.6957054313795998,0.504029417096738,NA,NA,13870.160584475278
24,130833.0,59307.0,[1],1,0.10607544063042518,NA,NA,0.703390886144919,2.987407513677763,NA,0.7258865486153967,NA,NA,NA,-0.008854681815735788,0.138627850458223,2.1506879996713404,NA,NA,20538.47087508498
24,111827.0,49846.0,[2],1,0.5322166000161088,NA,NA,0.7334872546522648,NA,NA,NA,NA,NA,NA,0.196544572276808,0.0981311204807509,2.2086895288079336,NA,NA,NA
24,46017.0,24383.0,[3],1,NA,0.36919619783993163,NA,1.0482932916096113,0.5566220942260394,NA,0.1272231520090621,NA,NA,NA,0.5196008948866857,0.2825575111154589,NA,NA,NA,28520.24669144005
24,46583.0,24178.0,[4],1,0.06784033035656822,0.05613475332202933,NA,1.008315299336695,0.364548150097705,NA,NA,NA,NA,0.3503357453792172,0.1698583650473302,NA,0.7330954201318057,NA,75877.45366335314,14110.679003069774
24,56840.0,30241.0,[5],1,0.4798776233638278,0.11633561242083879,NA,0.6934886196692358,0.10113016395145591,NA,NA,NA,NA,0.4346523357318771,0.22181728590779715,NA,0.6659724870689717,NA,NA,16856.452638986633
24,75162.0,43698.0,[6],1,0.45593859560682337,0.8866890356562904,NA,NA,NA,NA,0.20539733760409762,NA,NA,NA,0.23925976404300142,0.22974644868418648,1.1908544318804668,NA,61694.91604800249,19227.27761368763
24,88381.0,43217.0,[7],1,1.7169513938290104,0.41293319693148467,NA,NA,NA,NA,NA,NA,NA,NA,0.791293907876089,0.3242114495423172,2.4110897220103724,NA,NA,NA
48,248100.0,83987.0,[0],1,0.24907916848850364,0.14614314247479454,NA,NA,0.2814941322047235,NA,NA,NA,NA,NA,0.13768223874242747,NA,0.48884334495767645,NA,NA,14174.19711406651
48,179017.0,48184.0,[1],1,NA,NA,NA,NA,NA,NA,NA,NA,NA,NA,NA,0.1271268527514191,NA,NA,NA,20637.08720400821
48,154238.0,42411.0,[2],1,NA,NA,NA,NA,NA,NA,NA,NA,NA,NA,NA,0.08503237659980822,NA,NA,NA,NA
48,208845.0,87666.0,"[3,6]",2,NA,NA,NA,NA,NA,NA,NA,NA,NA,NA,0.32156409471141734,0.2348804037635609,NA,NA,NA,22539.408422514058
48,65466.0,18883.0,[4],1,NA,0.06416524392813683,NA,NA,0.36482226264014805,NA,NA,NA,NA,NA,0.160734967784796,NA,NA,NA,NA,14218.535667369464
48,81752.0,24912.0,[5],1,NA,0.11083529051278651,NA,NA,NA,NA,NA,NA,NA,NA,0.20702487046189955,NA,NA,NA,NA,NA
48,129624.0,41243.0,[7],1,NA,0.40654971013854757,NA,NA,NA,NA,NA,NA,NA,NA,NA,0.30633803534838655,NA,NA,NA,NA
72,337543.0,89443.0,[0],1,0.2440795143078076,0.17435163251793995,NA,0.48465422510022593,0.3038810799422924,NA,0.10403922435959956,NA,NA,0.3043127702011179,0.14334809335107668,0.6246234921269282,0.5069002034525788,NA,69551.84675137643,14974.710493181045
72,230283.0,51266.0,[1],1,0.12029625212459383,NA,NA,0.7676571918595725,2.9758963660451605,NA,0.7277683960995858,NA,NA,0.4572050919737852,0.03396095365267149,0.13752831241993668,2.1514435896570743,NA,NA,21906.12781664273
72,192608.0,38370.0,[2],1,0.5631194965266317,NA,NA,0.796006955759891,NA,NA,NA,0.8699300171851734,NA,0.6041149442027308,0.24139837579956103,0.09576673996407692,2.229554910159499,NA,NA,NA
72,88823.0,19504.0,[3],1,NA,0.400851238789496,NA,NA,0.5972847104128198,NA,0.13479043226419662,NA,NA,0.7425562689731408,0.5071272358060592,0.2741525141123351,0.7693114462132674,NA,NA,29222.28918185589
72,85482.0,20016.0,[4],1,0.06832229529024625,0.08582796584075503,NA,NA,0.37905982765963575,NA,NA,NA,NA,0.3334514103086038,0.15966266357830294,1.8051438921527185,0.7464980155003428,NA,74804.83320465134,14768.740085631971
72,114658.0,32906.0,[5],1,0.4503358784995366,0.14391067131818946,NA,NA,0.1179480337961678,NA,NA,NA,NA,0.40415830762790417,0.21404729130110978,1.1799872534668283,0.6925454812747635,NA,73689.99229011433,17509.64712449188
72,219899.0,80373.0,[6],1,0.4159283727757108,1.0251030249978,NA,0.8548431286226985,NA,NA,0.13710797176883682,NA,NA,NA,0.25522132805972264,0.1977023431348104,1.2332179841472692,NA,NA,21395.639852841392
72,157746.0,28122.0,[7],1,1.7520267946762373,0.4281284685190596,NA,NA,NA,NA,NA,NA,NA,NA,0.762859614563915,0.3071960082410956,2.4291919097346377,NA,NA,NA
96,395096.0,57553.0,[0],1,0.2720240455382892,0.17962952299441426,NA,0.5455508707352306,0.3185954197864924,NA,0.14593122980492446,NA,NA,0.3266743592823066,0.15885723563642395,0.6583630996618353,0.5233463200741048,NA,69795.40235284524,14946.689938647227
96,291311.0,61028.0,[1],1,0.1333258755419755,NA,NA,0.847141456175712,NA,NA,NA,NA,NA,NA,0.037596922282346235,0.14273589936872055,2.21659618450728,NA,NA,21488.232823339727
96,242959.0,50351.0,[2],1,0.5778078773949953,NA,NA,0.8690940971316539,NA,NA,NA,NA,NA,NA,0.2481468488058165,0.10024603410862509,2.2954926647459373,NA,NA,24116.110586559425
96,102715.0,13892.0,[3],1,NA,0.4129301160492389,NA,NA,0.6034127805481169,NA,NA,NA,NA,0.7701744691525191,0.5333333314608546,0.280487503130018,NA,NA,NA,29604.20425449053
96,110719.0,25237.0,[4],1,0.12688906287087431,0.09648804164595726,NA,NA,0.39769348679990335,NA,NA,NA,NA,0.3634857726767695,0.1763170260117981,NA,0.7664876867926936,NA,74779.90545434883,14635.610220467763
96,143114.0,28456.0,[5],1,0.4910739982112102,0.15173042290060224,NA,NA,0.12321185407438318,NA,NA,NA,NA,0.4218571640370583,0.22594423719553314,NA,0.7097867812932529,NA,73711.9823357596,17212.09508503694
96,246189.0,26290.0,[6],1,0.43589721406318405,1.0330636348820952,NA,NA,NA,NA,NA,NA,NA,NA,0.26631649092769694,0.20665374943235104,1.2424776496065997,NA,63167.013960817065,21201.635881375234
96,191077.0,33331.0,[7],1,1.8079707294964413,0.43311832013797025,NA,NA,NA,NA,NA,NA,NA,NA,0.7875065753335302,0.3192001831670024,2.446526139205675,NA,NA,NA
120,450397.0,55301.0,[0],1,0.27621382735229605,0.18920368498012685,NA,NA,0.3293465231583905,NA,0.16559889582967768,NA,NA,0.3340500394918279,0.17048071547101706,0.6612934947479638,0.5269569105078321,NA,69793.38139463522,14821.506750710258
120,377244.0,85933.0,[1],1,NA,NA,NA,0.9238056791387477,NA,NA,NA,NA,NA,0.4429912152744462,0.0369174021746943,0.1407494169980128,2.3060918996458404,NA,NA,20934.227226940086
120,321787.0,78828.0,[2],1,0.5711642126282541,NA,NA,NA,NA,NA,NA,NA,NA,NA,0.2514443031539546,0.09591544906723315,2.3893728388219673,NA,NA,23443.645691093287
120,122362.0,19647.0,[3],1,NA,0.43189050621105185,NA,NA,0.6162124087543597,NA,NA,NA,NA,0.7794347358984192,0.5607570285873327,0.28961745042578846,NA,NA,NA,29422.156028832746
120,138115.0,27396.0,[4],1,0.15742586065960795,0.10198065020453706,NA,NA,0.4238477797197788,NA,NA,NA,NA,0.3930220507765195,0.19630401556675015,NA,0.7761489307750721,NA,74521.15190964066,14615.954067262446
120,162162.0,19048.0,[5],1,0.5039568025739627,0.15553088806255078,NA,NA,0.1238204601386168,NA,NA,NA,NA,0.42754598590298265,0.23415297172582417,NA,0.7054742348454127,NA,73502.13006746239,17011.797683797577
120,278498.0,32309.0,[6],1,0.45547253245624875,1.0366758728464287,NA,NA,NA,NA,NA,NA,NA,0.574593443317375,0.28105669076974715,0.21438235895050362,1.2440948937299416,NA,NA,20914.965737634782
120,232615.0,41538.0,[7],1,1.8630495888743257,0.4501400785589995,NA,NA,NA,NA,NA,NA,NA,NA,0.8082123984266172,0.33378953773402475,2.4630250827289886,NA,NA,NA
144,488259.0,37862.0,[0],1,0.2841951639580429,0.19109888314807622,NA,NA,0.3345436245455278,NA,0.1883271965841904,NA,NA,0.33941384307099043,0.17575034402848422,0.674771368433559,0.5367857335758038,NA,69753.9209968478,14736.517397527863
144,442782.0,65538.0,[1],1,0.1044914678397697,NA,NA,NA,NA,NA,NA,NA,NA,NA,0.022162430997603177,0.14492891902110094,2.354560271594125,NA,67434.71349783886,20631.775203146553
144,384298.0,62511.0,[2],1,0.5679582553409317,NA,NA,NA,NA,NA,NA,NA,3.9772030321104626,NA,0.2349959282145231,0.09994994498278742,2.4327620857512002,NA,NA,22840.1845651023
144,137754.0,15392.0,[3],1,NA,0.4367997728631985,NA,NA,0.6221479005255675,NA,NA,NA,NA,0.8085754505059916,0.5756890131248635,0.3149554423174703,NA,NA,NA,29220.560012776732
144,183163.0,45048.0,[4],1,NA,0.08668389743559324,NA,NA,0.43816184391496416,NA,NA,NA,NA,0.4232695581694972,0.20429380973778244,NA,0.7998734748229551,NA,74006.05161522893,14504.749190611283
144,188702.0,26540.0,[5],1,0.5302188517238722,0.1461489661105948,NA,NA,0.11574325953620557,NA,NA,NA,NA,0.4345630442125673,0.23954881285838558,NA,0.7128598650835837,NA,73260.28637746174,16747.03182796138
144,303304.0,24806.0,[6],1,0.4896089762977114,1.0040281901425292,NA,NA,NA,NA,NA,NA,NA,NA,0.29470913520427633,0.24004796965420094,NA,NA,NA,20773.846859915266
144,277263.0,44648.0,[7],1,1.892760435741499,0.442698698077324,NA,NA,NA,NA,NA,NA,NA,NA,0.818932771238897,0.35661829807799184,NA,NA,NA,NA
168,527861.0,39602.0,[0],1,0.27897838392110463,0.1950267884404835,NA,NA,0.3500652352607787,NA,0.20378308451469263,NA,NA,0.34339507189771024,0.1772098560852502,0.6679313887974225,0.5463909142179301,NA,NA,14820.28058143998
168,495184.0,52402.0,[1],1,NA,NA,NA,NA,NA,NA,NA,NA,NA,0.45167684850276946,0.01599358602860379,0.14448236296608308,2.350238205610378,NA,NA,20613.141620083254
168,431005.0,46707.0,[2],1,0.565719060996968,NA,NA,NA,NA,NA,NA,NA,NA,NA,0.2315686158605641,0.09895542173522409,2.4269493441305507,NA,NA,22863.009236550413
168,162293.0,24539.0,[3],1,NA,0.4553543398913895,NA,NA,0.6854102208474728,NA,NA,NA,NA,NA,0.5817559519880957,0.3188708405784706,NA,NA,NA,29106.997541483684
168,220372.0,37209.0,[4],1,NA,0.08595340836403897,NA,NA,0.45023341034247766,NA,NA,NA,NA,0.45200854082642883,0.2144555872343208,NA,0.8154251672535419,NA,74276.431488575,14848.945020237825
168,209340.0,20638.0,[5],1,0.5227879257093553,0.14257630729433357,NA,NA,0.11398612018249121,NA,NA,NA,NA,0.43896746873505743,0.24230405655873355,NA,0.7142274723368697,NA,NA,16786.395949173457
168,383713.0,80409.0,[6],1,0.47261635079607256,0.9484230176928818,NA,NA,NA,NA,NA,NA,NA,0.6022381371077162,0.30482636647438355,0.24627824992376413,NA,NA,NA,21178.77509492683
168,335757.0,58494.0,[7],1,1.8673391281253526,0.4377543777940818,NA,NA,NA,NA,NA,NA,NA,NA,0.8368824287088472,0.37091706053780815,NA,NA,NA,NA
