time_in_hour,cumulative_size,size,pcore_ids,pcore_power,AF700 CD48_[R 730_B-A],APCCy7 Ly6G_[R 780_A-A],BV421 CD117_[V 440_F-A],BV510 SCA-1_[V 525_E-A],BV605 CD11b_[V 610_D-A],BV650 CD150_[V 660_C-A],BV711 CD11c_[V 715_B-A],BV785 B220_[V 780_A-A],FITC Ly6C_[B 525_B-A],PE CD115_[YG 582_D-A],PECF594 CD135_[YG 610_C-A],PECy5 CD3-CD19-NK11_[YG 670_B-A],PECy7 CD16-32_[YG 780_A-A],PerCPCy5-5 CD45_[B 695_A-A],_FSC-A,_SSC-A
-1,0,0,[],0,0.0,0.0,0.0,0.0,0.0,0.0,0.0,0.0,0.0,0.0,0.0,0.0,0.0,0.0,0.0,0.0
0,158887,158887,"[1,2,3,4,8,10]",6,0.339077100077422,0.3427432884628634,0.7374732734710712,0.5996597694461907,0.5788113343948917,0.22901214543040105,0.048672745215168955,2.147397045673963,1.186142923662734,0.44659413964011874,0.20745511761187485,0.8357558224209631,0.7802915385840269,1.1333975914391914,68886.73132477791,15412.134258938648
0,177397,177397,"[5,6,7,11,12,13]",6,0.6290952643731285,1.4670052713969124,1.922814434268894,0.8114287817155974,2.412968384544252,0.39324724559039725,0.09700020262462061,0.7947056430041051,4.184834574863164,1.0846163225815486,0.24669555757424844,0.20598079948928294,2.066265655574779,1.6814392447899367,70714.80848041389,24309.552743281965
24,426282.0,207015.0,"[0,3,4,5,6,7,10,11,12,13]",10,0.6141294719856811,1.3586353534842996,1.961024169936787,0.8683943865187786,2.2601602646980026,0.40852626999497765,0.11872858079628124,0.859906314772863,4.01018650911133,1.0266107307369277,0.2506799172918286,0.23329784235083662,1.9087934330490168,1.6101520324503404,70713.71803641695,26458.03737432037
24,275564.0,143904.0,"[1,2,8]",3,0.3118065493678377,0.16183040094134515,0.5562336176423703,0.6078172405502515,0.31735109183346344,0.26242753047568557,-0.004779854411302242,2.3818017753407474,0.8760274490281753,0.37763208242730173,0.17895449749604753,0.923734435989455,0.6006772789043581,1.0852525037631953,71074.11627063021,15310.970896053164
48,611629.0,185347.0,"[0,3,4,5,6,7,10,11,12,13]",10,0.6145665205508573,1.3526588803310156,1.942830345724294,0.8313502105115944,2.25490822026423,0.3940225291819075,0.12331958237591145,0.8165637813102404,4.0598538472063685,0.9625600484525757,0.22893763512030496,0.20522723296311896,1.9123158246584104,1.545261221910661,69072.1045077978,25473.866438641726
48,424441.0,148877.0,"[1,2,8]",3,0.3004994558678309,0.16403129893200985,0.5395919518873198,0.6095549895721528,0.304150010929642,0.26729613574325994,0.0063655668278852495,2.34281034958219,0.8832710180237037,0.3618544267401138,0.17558192746223522,0.8745619152178945,0.5875774447237755,1.0322785946951492,69923.50646615143,15639.29245289676
48,112781.0,41085.0,"[7,9]",2,1.7342475537368836,0.42369798306451845,2.0872779066598004,1.2690809801739569,1.8263628739149298,0.8275438435197462,-0.12223556271003266,0.9531073788669899,5.322984689291632,3.0150407944423088,0.6469327820554795,0.2867013375568602,2.3973312374336118,1.9531395296104528,83819.77928906461,47540.53707628052
72,800742.0,189113.0,"[0,3,4,5,6,7,10,11,12,13]",10,0.6000822342802059,1.3622272605782952,1.8573889313823817,0.9041730618288932,2.2384406990378847,0.3858702255770232,0.11772154750592811,0.8094750792602308,3.9675968087785844,0.9398476344615351,0.25870620868642913,0.20082742693901467,1.8799786841179773,1.5337160941389296,69857.25907221,26346.43008609519
72,582756.0,158315.0,"[1,2,8]",3,0.2950880278246666,0.19743581049015058,0.5167858121374893,0.660091218129006,0.33349713707450146,0.26994660146957616,-0.004113988796321966,2.3500471308437856,0.9285651566590402,0.3611475596373068,0.18126288803031,0.8365037357161487,0.6108164111943929,1.0405526872722148,69999.60013453328,16477.043455579595
72,234427.0,53471.0,"[5,7,9]",3,1.1935455622731135,0.9832488964325887,1.9273055141941682,1.1718508321481722,2.018352135475007,0.9307099593860715,-0.21935995445490608,0.9256410864831937,4.487804595498819,1.9888814740580112,0.5340055321016739,0.25097160340319635,2.1423034713322346,1.7827071094327678,78971.35152520792,39668.422084487116
96,971885.0,171143.0,"[0,3,4,5,6,7,10,11,12,13]",10,0.620181671908717,1.4311168657927502,1.8647400648965893,0.9743041760578577,2.302262471843901,0.38477307052582876,0.184759564685117,0.8742454473039407,3.96164245307314,0.9475184008344592,0.267515076684985,0.20995288699486292,1.9378599930382814,1.6081655160806039,69930.751658889,26015.327821707255
96,699188.0,116432.0,"[1,2,8]",3,0.3287713979659128,0.20889396928721737,0.5404611236820069,0.7170107357320115,0.3547018860578093,0.26860254826170205,0.028067108764718185,2.406763001948029,0.9393802505892509,0.3863179381396684,0.19650818783358526,0.8870086398393582,0.6379008346996781,1.086293052954306,70243.8629495925,16441.130042277102
96,296893.0,62466.0,"[5,7,9]",3,1.1919985721387765,1.072970749835807,1.9231510087338104,1.2597143542892675,2.0846906819493998,0.9186403504427523,-0.12235377931779468,0.9991859358994493,4.450014591836132,1.9064362584297996,0.5307535151855913,0.2608991392151445,2.1793286857958987,1.852032732691568,78180.84969332334,37922.514252609704
120,1209507.0,237622.0,"[0,3,4,5,6,7,10,11,12,13]",10,0.6206387965534803,1.5381117313202557,1.9134349032655407,1.0543859755544998,2.416551484561895,0.3839367720178357,0.25595081104694994,0.9399917563296416,3.96428477057763,0.9224184126714362,0.27113357924508197,0.2115670620533805,2.018463271321304,1.7048063672405516,69415.82237390886,25301.02098127558
120,809728.0,110540.0,"[1,2,8]",3,0.3356246013648798,0.2225401420229849,0.5779364762710646,0.7525291031432566,0.37272974276669,0.2682538497087814,0.0477357235256366,2.402230733154883,0.9472075881901033,0.39575006432900883,0.20980004468781743,0.898542767889962,0.6448407706019753,1.1039107837483937,70099.98000316112,16354.714037305695
120,372965.0,76072.0,"[5,7,9]",3,1.192197541010531,1.203002266252862,1.9565096641025446,1.344337947724331,2.191896332685404,0.9391852333757782,-0.07218953907741055,1.0535785095893573,4.441942575933418,1.8448944161060563,0.5405289661228192,0.26209077867896147,2.2494602538575963,1.9459700608019295,77139.90929979974,36552.853935355866
144,1412056.0,202549.0,"[0,3,4,5,6,7,10,11,12,13]",10,0.6348271790637285,1.5771573385056978,1.9202792876174795,1.1596414496655862,2.460272846389232,0.3869537845453539,0.3215212244832699,0.993368516791834,3.9516555398836988,0.9417563558732723,0.26854708265393734,0.23344694558785561,2.0528520954211613,1.7741621093788298,69230.65691445617,24921.774569846628
144,919558.0,109830.0,"[1,2,8]",3,0.3496980009591333,0.2201350427313833,0.5840235558148801,0.8550517290611168,0.3791962419390478,0.27172153401850774,0.07415891253729479,2.458906766912003,0.961947160958852,0.4085355434252117,0.21690845506861267,0.9483415043771233,0.6628099619403972,1.1512696781704213,70084.44777164706,16242.284123458572
144,427544.0,54579.0,"[5,7,9]",3,1.2198778038564175,1.1924300874483245,1.9518949544584996,1.4588506720361036,2.2061060896586153,0.9347956741411398,-0.008224506446152802,1.0903940263107437,4.4523337297752255,1.8798107477616246,0.5527163115702614,0.2870730113064388,2.256569715832758,2.0086858564170984,77070.60516812254,36340.7780251857
168,1667300.0,255244.0,"[0,3,4,5,6,7,10,11,12,13]",10,0.6397386301613621,1.520838555029688,1.9053354958309652,1.281850421318285,2.4223270424332495,0.3951343823552891,0.36129382605466764,1.015335596924381,3.923961195313995,0.9726603515240176,0.28456032436694345,0.2494362966304834,2.0211021940016876,1.7704023546434635,69310.89096863172,25430.259471000343
168,1017673.0,98115.0,"[1,2,8]",3,0.3375447041239843,0.22669747284046515,0.5880202011009481,0.9251904440266969,0.40060541026535645,0.2753502735122051,0.09253051469477613,2.460940200290339,0.9837348078980191,0.41260027363602736,0.218625915821673,0.9494316974008532,0.6742422477947191,1.1616604090833065,69969.37196132762,16295.328939648718
168,499283.0,71739.0,"[5,7,9]",3,1.2258767372411847,1.1852622381254831,1.976423460822844,1.5843338968540932,2.2497203458539503,0.9742695113412709,0.039371440625812326,1.0992364114920736,4.441111406533011,1.9102345628651247,0.5718373632048315,0.2975679917401566,2.2659018263149484,2.0383470954228153,77531.96932401008,37072.93949123008
