time_in_hour,cumulative_size,size,pcore_ids,pcore_power,AF700 CD48_[R 730_B-A],APCCy7 Ly6G_[R 780_A-A],BV421 CD117_[V 440_F-A],BV510 SCA-1_[V 525_E-A],BV605 CD11b_[V 610_D-A],BV650 CD150_[V 660_C-A],BV711 CD11c_[V 715_B-A],BV785 B220_[V 780_A-A],FITC Ly6C_[B 525_B-A],PE CD115_[YG 582_D-A],PECF594 CD135_[YG 610_C-A],PECy5 CD3-CD19-NK11_[YG 670_B-A],PECy7 CD16-32_[YG 780_A-A],PerCPCy5-5 CD45_[B 695_A-A],_FSC-A,_SSC-A
-1,0,0,[],0,0.0,0.0,0.0,0.0,0.0,0.0,0.0,0.0,0.0,0.0,0.0,0.0,0.0,0.0,0.0,0.0
0,147586,147586,"[1,2,3,4,9,12]",6,0.34714224269918015,0.2580356821581944,NA,0.5906372043215384,0.47175292813004877,0.24932184888133024,0.028090588477226675,NA,NA,0.437238873978556,0.20810225104683866,0.8759037191739032,0.7197541376079036,NA,69086.55292507408,15114.246608756883
0,190410,190410,"[6,7,8,10,13,14,15]",7,0.6036281226668743,1.4880118816816195,NA,0.8033637161966269,NA,NA,0.10616814103251215,0.7966707365526982,NA,NA,0.2404189556588392,0.20669779413896217,2.057311202652172,NA,70529.44227719132,23965.73625334794
24,198613.5,161717.0,"[1,2,3,4,9,12]",6,0.3405013275117361,0.22290211213612965,NA,0.6757381989353606,0.40498715437143806,0.2866350457911968,0.019806676961789282,NA,NA,0.4109689328910149,0.19921081906693106,0.8524136294285152,0.6409904471410565,NA,71516.7761305246,16789.48534716914
24,218905.5,171303.0,"[6,7,8,10,13,14,15]",7,0.6329789377208419,1.3803770807346116,2.0220371501949415,0.8785407301929391,NA,NA,0.11755595763696958,0.8732859634671124,NA,NA,0.22071879356502944,0.21738785646089143,1.97339234611397,NA,71182.22633967623,28053.556114396368
48,284974.1875,216703.0,"[0,1,3,4,5,6,7,10,12,13,14,15]",12,0.4443765989660944,NA,NA,0.7558046245969123,NA,NA,NA,NA,NA,NA,0.19595536134280955,0.1901374087723311,NA,NA,NA,22723.144312851033
48,182261.9375,139225.0,"[1,2,9]",3,0.2682045432785507,0.14947316772015729,NA,0.5945254297067528,0.2606487892229987,NA,0.00470008934943511,NA,NA,0.324797627916003,0.15657877415573296,NA,0.5573726764004842,NA,69245.7713832873,15692.52015660158
48,40077.0,28806.0,"[8,11]",2,1.7374084911498693,0.42463860851453905,NA,NA,NA,NA,NA,NA,NA,NA,0.6664486090291923,0.2902910809098703,2.4605363528208226,NA,NA,NA
72,321012.796875,239750.0,"[0,1,3,4,5,6,7,8,10,11,12,13,14,15]",14,0.5776609415784599,1.1760313996117917,1.578757782609078,1.066239233538059,NA,NA,0.07363281058766091,0.8964895034516003,NA,NA,0.3452345096834457,0.22878854454692177,1.638020477545366,NA,71957.15425324543,28962.360683148225
72,199885.484375,154320.0,"[1,2,9]",3,0.2841659701636783,0.27062045289768655,0.4792070904352861,0.7513762868096907,0.410666076955855,0.26285275147818354,-0.008298467166721224,NA,NA,0.3626788725280219,0.18853475863485292,0.7539298126993172,0.6692984134935466,NA,69992.32580467396,18142.91832815829
96,281210.19921875,200957.0,"[0,1,3,4,5,6,7,8,10,11,12,13,14,15]",14,0.686601357286448,NA,NA,1.258258107227229,NA,NA,0.35046561261978004,1.1272652694557053,NA,NA,0.3522428594304272,0.28014355693482773,1.9544886857830432,NA,71695.582775846,26690.21869975461
96,162917.37109375,112946.0,"[1,2,9]",3,0.41849016728873,0.2563281705808862,NA,0.8883015573577571,0.41828765000117896,0.25567709081899803,0.11327903328418287,NA,NA,0.44345212525795197,0.23696436013933742,1.0268984323333203,0.7223141421514042,NA,70911.34471996852,16386.016878235823
120,183619.896484375,131721.0,"[1,2,3,4,9,12]",6,0.43605059487996733,0.4534884817421334,NA,1.0157029697458362,0.6830716068515104,0.2849495408350544,0.1985120220535075,NA,NA,0.5012129095217598,0.3095109632075794,0.8671707613282793,0.8358761278899324,NA,68816.8382909979,17139.81541526625
120,262860.6689453125,214659.0,"[3,5,6,7,13,14,15,10]",8,0.4991044571306944,NA,2.0911772376979587,1.3021072190586662,NA,NA,0.5283850734422288,1.170351001461409,NA,0.6843575854865666,0.2580308010911567,0.21734640782112125,2.3194113703110197,NA,68164.67235909603,22521.037625665547
120,55280.5478515625,42451.0,"[7,8,11]",3,NA,0.8147897376756257,NA,1.8966213281307192,NA,NA,0.5587128244800645,1.251376116834909,NA,NA,0.5780565866384126,0.3077760616729339,2.4267193107656753,NA,76090.5824750001,36414.75863092582
144,167950.97412109375,122046.0,"[1,2,3,4,9,12]",6,0.48987033376854283,0.29778786007829394,NA,NA,0.5396390201049188,0.3027089898995965,0.28343870718348896,NA,NA,0.5397065522728014,0.303523861448308,NA,0.8453834687071048,NA,69505.87818816106,16457.875695827606
144,215930.55590820312,158067.0,"[6,7,10,13,14,15]",6,0.4809619585463789,NA,2.094626147929161,1.5247923640260779,NA,NA,0.6922448766294966,1.2213335436219475,NA,NA,0.17901060197538543,0.2635796659571975,2.4215138545244135,2.168762579200248,67931.32176522375,21621.917038994994
144,39970.45703125,31410.0,"[8,11]",2,1.9399764566169055,0.38798927028444075,NA,2.4546341590970457,NA,NA,NA,1.336685341429333,NA,NA,0.8322852633573099,0.4414609163136395,2.3386644119867213,NA,NA,42327.99238969183
168,237374.74353027344,195387.0,"[1,2,3,4,9,12]",6,0.3630109689128467,0.5233536131806611,NA,1.6669564583584902,1.0102187159415088,NA,0.3345756487511369,NA,NA,0.6375178466496764,0.3088688331219127,0.7419130625374459,1.0373211881971143,NA,67627.87230210801,20802.25115078327
168,274630.2620239258,215252.0,"[3,6,7,10,13,14,15,11]",8,0.5382876341148759,NA,1.874379692789209,1.7635189506738618,NA,NA,0.566452264894111,NA,NA,NA,0.31234302606952724,0.28286761588480247,1.978195794782267,NA,69262.44467394325,26945.912393972685
168,29197.109436035156,21582.0,[8],1,1.8744354642697008,0.3453072469857408,2.012815410566795,2.668483116524888,NA,NA,NA,NA,5.070193271519731,3.031733003539693,0.754598238939558,0.4150752305357316,2.3332321507525755,2.3218322564615232,NA,42416.21320673969
