time_in_hour,cumulative_size,size,pcore_ids,pcore_power,AF700 CD48_[R 730_B-A],APCCy7 Ly6G_[R 780_A-A],BV421 CD117_[V 440_F-A],BV510 SCA-1_[V 525_E-A],BV605 CD11b_[V 610_D-A],BV650 CD150_[V 660_C-A],BV711 CD11c_[V 715_B-A],BV785 B220_[V 780_A-A],FITC Ly6C_[B 525_B-A],PE CD115_[YG 582_D-A],PECF594 CD135_[YG 610_C-A],PECy5 CD3-CD19-NK11_[YG 670_B-A],PECy7 CD16-32_[YG 780_A-A],PerCPCy5-5 CD45_[B 695_A-A],_FSC-A,_SSC-A
-1,0,0,[],0,0.0,0.0,0.0,0.0,0.0,0.0,0.0,0.0,0.0,0.0,0.0,0.0,0.0,0.0,0.0,0.0
0,146825,146825,"[1,2,3,4]",4,0.3563917764890152,0.4375386100868366,0.8759246064498405,0.5463222519666253,0.6518861364277293,0.25278434058913835,0.078475459540289,1.7673221782393798,1.4009723539996646,0.4455084465315796,0.2162332019410842,0.6351610205142166,0.794492870587436,0.8952126092899679,67488.25172824746,15710.930536352811
0,124902,124902,"[6,7,11,12,13,14]",6,0.338949898192177,1.8839134544202594,2.1203216077244575,0.7523332145842367,2.839043598269027,0.3009883555427426,0.16791260141550923,0.7310736804614861,4.010977315022978,0.6321724501769376,0.14748866611421851,0.15223102303405844,2.1551335529695224,1.72446250387504,69090.1413268004,21541.815247153736
0,41986,41986,"[8,10]",2,1.7061906654599055,0.3780616669842365,2.0052555595436385,1.3026686159672098,1.8440857303148772,0.8169165112894887,-0.20392224589148356,0.8745009652741391,5.186884887295768,3.1825585144333695,0.7439960247463402,0.28846292285523767,2.3940494194493365,2.0281867332205956,86574.8590482543,48253.192206925974
0,104839,104839,"[2,9]",2,0.28652383440322726,0.11885517400967949,0.16816944877381657,0.5492918361487593,0.2743807602323707,0.23333045536489272,-0.023913672039950207,2.9250192147483043,0.7359067410410235,0.35279353562127713,0.15842587320557389,1.1459502526445298,0.6414188087734537,1.2416308387336692,69714.04702448474,13611.35546886182
24,400310.0,193160.0,"[0,3,4,5,6,7,8,11,12,13,14]",11,0.6061118197297086,1.4374591538032973,1.98703350065199,0.8279323199520401,2.356923983617692,0.3733265250830655,0.1513809818115961,0.7983118366191184,4.14053328690765,0.9723634191076892,0.21097974967897892,0.1978780556568659,1.9535016024655931,1.6079398300092431,69160.27854412839,24246.60663985412
24,230560.0,118437.0,"[1,2]",2,0.3355898897510323,0.16896331420887556,0.6878497305560609,0.5226340812803496,0.2793094363245716,0.26054338550487555,0.010808496777432008,2.0252089476404986,0.8210637864156781,0.3652190578157447,0.1839848617843427,0.734059156683708,0.5439157807642202,0.8128600193355222,70247.38487161684,15487.996113809671
24,212657.0,107818.0,"[2,9]",2,0.2734302749591977,0.10941976184183355,0.1881758445525068,0.6013842622297667,0.24046223907512987,0.25370042941452664,-0.030452877972486636,2.9214638649797102,0.723031901653831,0.33543546539261804,0.15160251587295326,1.1386529282318327,0.5967389513300733,1.2558310356536502,71257.976553793,14215.392035060979
24,82473.0,40487.0,"[8,10]",2,1.6971784075879233,0.4220860748608599,2.1996939956591617,1.4061730186970034,1.8499797645653744,0.895908614964896,-0.19633667539679278,0.9876240300219385,5.240356312756917,3.169478475028178,0.7629194009796993,0.314228441708194,2.380720582263298,2.038589470614596,88734.83171462192,54583.39170395193
48,501081.0,152157.0,"[0,3,4,5,6,7,11,12,13,14]",10,0.3879398454661087,1.588179383983796,1.9853084570598223,0.7780635728075933,2.430129390731239,0.3542436224243233,0.15362722808488138,0.7524783150528638,3.9092564565249934,0.5695947498827586,0.16427156739529236,0.17562273642185766,1.8690047384674449,1.5024872842334887,67160.10519656504,22532.84494921985
48,360294.0,129734.0,"[1,2]",2,0.3284684990313278,0.17466836315342382,0.6853772676675511,0.5357616687511078,0.2856119819369414,0.26280552885978126,0.028704885499029498,1.9911535099946107,0.8568402525631781,0.358525519359187,0.18257914388801622,0.6866496969197113,0.542400179628311,0.7913856217339177,69033.69661443066,16030.049592832307
48,125306.0,42833.0,"[8,10]",2,1.7238873597672797,0.4129054911815788,2.117186217411771,1.3468975032639916,1.8405238081017763,0.8409009560835179,-0.1459002869136321,0.9465811397059736,5.263178299889869,3.128510282548311,0.71321028710515,0.2938859032448543,2.4035076482530804,1.998133960528597,86175.34930490152,51997.169935997066
48,318438.0,105781.0,"[2,9]",2,0.27509599433796583,0.11388601065199877,0.19194593713691877,0.608139355287383,0.23628975835169852,0.2577066564574704,-0.014004012796874576,2.924365207048142,0.7373386186541774,0.3266432737110463,0.1491522305440527,1.0950264614021914,0.6038142294701107,1.2116011248186551,70702.14042293836,14602.24400354208
72,788928.0,206191.0,"[0,3,4,5,6,7,8,11,12,13,14]",11,0.5992900291357408,1.390493075245141,1.843606130394655,0.8914932645032381,2.2698109526636228,0.3706351106932506,0.12898833272870824,0.800831926752509,4.02785278642667,0.9115091857368466,0.2399961451159074,0.18992189293572959,1.89481295391721,1.5316256795943277,69168.74543684573,25205.324490954918
72,483707.0,123413.0,"[1,2]",2,0.3148397316950031,0.19989032930267747,0.6428851444469692,0.5714691617281105,0.3092361618975512,0.25943702467816343,0.0194523165924676,2.040791865356489,0.8652327095410949,0.35280518784924764,0.1819371774875682,0.6730354166261647,0.5648335280366036,0.8125467958929711,69083.38239471373,16561.056871204484
72,432460.0,114022.0,"[2,9]",2,0.27066547852286216,0.1401025271470484,0.18937324171485548,0.6487631349951606,0.2585124617675385,0.2533933113351472,-0.02004809684133413,2.8522230143319414,0.741174183480546,0.32743689676731813,0.1530580655620759,1.0236310177981658,0.617804099953749,1.1929634720020492,70688.63813531824,15307.261194098288
72,148564.0,23258.0,"[8,10]",2,1.7140965465859648,0.43808834053337,2.0480524545246275,1.4499550266417067,1.8147808823941332,0.8528565140882034,-0.1589501027032303,0.957687964856889,5.2221933417517565,3.071901019439422,0.7295874771411515,0.2986299522428002,2.384823730345155,2.0046063709040975,87032.2733367437,52570.34414797673
96,961753.0,172825.0,"[0,3,4,5,6,7,8,11,12,13,14]",11,0.6233903558075697,1.4630707724665215,1.8672391843508618,0.9693423827594003,2.3409014005217625,0.3719943423332277,0.20405386403785242,0.8586303323826399,4.025426323847216,0.9240528947702763,0.25094606375233797,0.19627907860957738,1.957117516309275,1.6114903815293553,69236.11476959242,24934.453715247055
96,566792.0,83085.0,"[1,2]",2,0.3358435836161944,0.20365242172616105,0.6508922514908284,0.5972914036366457,0.3090905698933115,0.2572994154469386,0.035081250589248825,2.0942330158911995,0.856771900333806,0.3630608157436912,0.1924972923259176,0.7147957644814964,0.5749664624289129,0.8262651533031642,69305.75460486385,16441.987212239626
96,523852.0,91392.0,"[2,9]",2,0.30393279010291296,0.14249733094274042,0.19472002298548707,0.7022816992719698,0.2656543063727561,0.25055662992599936,0.00906705619141368,2.919188774029716,0.7365386531253088,0.3468762419652819,0.1652393565663317,1.0864816853290584,0.6339483147778447,1.2332661564048835,70876.71650771567,15115.273413100922
96,178674.0,30110.0,"[8,10]",2,1.765842406057936,0.4420897786695446,2.020340261056455,1.5538183653749242,1.8112705150777502,0.8499583378891187,-0.11556291243270911,1.0077281465349954,5.235553374917514,3.0484303098492127,0.7564577474842142,0.31039283856632016,2.4018519033434864,2.0611531598385557,86737.91472738006,51753.60891903714
120,1201739.0,239986.0,"[0,3,4,5,6,7,8,11,12,13,14]",11,0.6258081796837693,1.5710774717804723,1.9251168776514507,1.052568899106212,2.457996077386188,0.3750151804102284,0.2748424304279049,0.9184091325204409,4.027194383460173,0.9038031031205617,0.2569708574249554,0.19556500923660924,2.038951302747104,1.709016567894541,68759.16845171858,24336.564635082905
120,648792.0,82000.0,"[1,2]",2,0.3396078021584399,0.21341072444945652,0.6779232060721827,0.6196951687783026,0.315111215076612,0.256016202710563,0.04807422101376746,2.0848699363200947,0.85781142047374,0.36925080966626656,0.20537110520009527,0.7208248616613595,0.5742497033748947,0.8301313307100131,69211.52694854465,16356.735150864415
120,599642.0,75790.0,"[2,9]",2,0.30815120317785993,0.14421961566571184,0.20450505636528282,0.7410017320434803,0.2733691954699484,0.24955899430657413,0.026975815951796545,2.9539665621754265,0.7323235128193185,0.3556637284496281,0.1747866584394946,1.1185700236591143,0.6361780890347911,1.2672243649277568,70872.15478568853,14954.136608175613
120,212231.0,33557.0,"[8,10]",2,1.8147894664680992,0.44867004445157166,2.0213229429442623,1.6701020331525505,1.8183140321347895,0.8484961409925942,-0.08032964696960043,1.0648250988733672,5.238353485193079,3.0466058139668317,0.7849225354307223,0.3216887194236385,2.420289859761275,2.1182600485367025,86027.24570868479,51009.818697551294
144,1235881.0,174318.0,"[0,3,4,5,6,7,11,12,13,14]",10,0.45253602798651205,1.7803665899880419,1.9730046510384098,1.1057501354960553,2.6111574137364353,0.3638322797292004,0.35581651199831876,0.9450397796721384,3.799840643697116,0.6375571037284405,0.21771929019057312,0.20642151796087205,2.025204155853195,1.7453483216224044,67918.78775383714,22846.805684365805
144,722110.0,73318.0,"[1,2]",2,0.35463066621840333,0.21455897851023176,0.6931810144257975,0.6954013405492612,0.3202923879948938,0.2599077117488777,0.07210270495068238,2.122917242728959,0.8649889626442105,0.3792795350722149,0.21247315533086342,0.7558394572710663,0.5886059318427878,0.8559876328620537,69166.22586586565,16272.783171538242
144,248989.0,36758.0,"[8,10]",2,1.830827671322785,0.43663722813056527,2.0047238043488274,1.799703361586244,1.8329350429777889,0.8436776767326888,-0.015162262798775306,1.113472335388276,5.230315221411446,3.059766211587673,0.803435406033993,0.3503261719674322,2.4082620530585537,2.1814863215643876,85680.49872082626,50380.59107832084
144,686996.0,87354.0,"[2,9]",2,0.32198550575691187,0.13712230562918704,0.21002139379558837,0.8626734670551572,0.2790365275794904,0.25186696403323183,0.05798190332831954,3.029463376313707,0.7513174269515596,0.36952807734687176,0.181376892820293,1.18444964960642,0.6540732200885983,1.3249838114312433,70900.03239611327,14850.714286545273
168,1714269.0,244453.0,"[0,1,3,4,5,6,7,11,12,13,14]",11,0.4424601921197886,1.5125880929206734,1.8786783346534253,1.1465277081018308,2.2495839450634443,0.3541819218734028,0.3502597602056432,0.9510697322882145,3.3780349336848756,0.6290965150206979,0.23855163617380581,0.2344526360734529,1.7711099405163453,1.5514133351288732,67631.81789555785,22376.996693050736
168,1032153.0,111222.0,"[1,2,9]",3,0.3274766503279689,0.18958373815609564,0.54764429136184,0.9360412002097016,0.34764566290561305,0.2686071852254275,0.10066849609015316,2.5126181321529204,0.9073489929419553,0.402589541024439,0.21750039848839453,0.9779305624456931,0.6443477218251471,1.1596283849051634,69959.5841159213,15976.775412171575
168,293294.0,44305.0,"[8,10]",2,1.8196476541626978,0.4330082940462652,2.041877125860086,1.9404120440956647,1.8819122344507266,0.8633620456913411,0.042732258944917945,1.106837728541981,5.201581327616743,3.073699267847266,0.8268245553574292,0.36262010409690904,2.404574410253874,2.211018640988206,86179.05277298501,51331.70173273224
