time_in_hour,cumulative_size,size,pcore_ids,pcore_power,AF700 CD48_[R 730_B-A],APCCy7 Ly6G_[R 780_A-A],BV421 CD117_[V 440_F-A],BV510 SCA-1_[V 525_E-A],BV605 CD11b_[V 610_D-A],BV650 CD150_[V 660_C-A],BV711 CD11c_[V 715_B-A],BV785 B220_[V 780_A-A],FITC Ly6C_[B 525_B-A],PE CD115_[YG 582_D-A],PECF594 CD135_[YG 610_C-A],PECy5 CD3-CD19-NK11_[YG 670_B-A],PECy7 CD16-32_[YG 780_A-A],PerCPCy5-5 CD45_[B 695_A-A],_FSC-A,_SSC-A
-1,0,0,[],0,0.0,0.0,0.0,0.0,0.0,0.0,0.0,0.0,0.0,0.0,0.0,0.0,0.0,0.0,0.0,0.0
0,144029,144029,"[0,4,5,6,7,8,9,17,20,22]",10,0.27835858219525433,NA,NA,0.653727745294352,NA,NA,NA,NA,NA,NA,0.13065256778148981,0.11837654349471172,2.1054810362357594,NA,NA,18627.743690506737
0,55508,55508,"[1,3,15,21]",4,0.4843302662499147,0.238235727444692,NA,0.6255938741983278,0.35135110776825007,NA,-0.02584279022843816,NA,NA,NA,0.31166748066946326,NA,0.5881443882323273,NA,NA,17521.765223030936
0,85376,85376,"[2,16]",2,0.22610337375844236,0.10121944555847806,NA,0.5463441925482533,0.28271201327070195,NA,0.039922855568324866,NA,NA,0.3205331297085816,0.14308906187920023,NA,0.6481183380575309,NA,70147.51274362794,13149.701649175295
0,11443,11443,[13],1,1.3635213305951337,0.6070524174604648,2.858220294415806,2.3119841448046556,NA,NA,NA,NA,NA,3.3186028887529466,1.5160549653936748,0.5198012989600587,2.4523734664860455,NA,NA,NA
0,27431,27431,[23],1,2.011772748131671,0.2667471738179463,NA,NA,NA,NA,NA,NA,NA,3.31778027053332,0.40511905045386865,0.16991416864132125,2.4514722031643035,NA,NA,25643.60380591293
24,216043.5,138695.0,"[0,4,5,6,7,8,9,14,17,20,22]",11,0.31984493738298037,NA,NA,0.7078467840781983,NA,NA,NA,NA,NA,NA,0.0948234077905572,0.1215685618636978,2.0322286624221526,NA,NA,21293.466843482838
24,104952.5,73828.0,"[1,3,12,15,21]",5,0.4770963077249155,0.25350996747576504,NA,0.6963325502775111,0.3772761941259204,NA,0.009474894699974534,NA,NA,0.5262385025892699,0.29186342371549046,0.44450716525571077,0.5873734883447309,NA,NA,19032.306614897156
24,129415.0,86727.0,"[2,16]",2,0.20437994081832223,0.0912464641965931,NA,0.6100205771857814,0.23447621626165027,NA,0.025112663188175066,NA,NA,0.2927698933662981,0.1336275234594182,NA,0.5884762449097866,NA,72253.90515782553,13823.281443418331
24,21471.5,15750.0,[13],1,1.379481839787614,0.6005960381668949,2.945693992944094,2.3216291690147046,NA,NA,NA,1.1342179450434178,NA,3.394330299699614,1.4935354475700278,0.5248362932259028,2.4213741590247495,NA,NA,NA
24,36380.5,22665.0,[23],1,2.030716653949227,0.33785902226466913,NA,NA,NA,NA,NA,0.9521233397286726,NA,NA,0.37845210012231956,0.1947804701144884,2.474163856145494,NA,NA,30974.461593435684
48,232128.75,124107.0,"[0,4,5,6,7,8,9,14,17,20,22]",11,NA,NA,NA,NA,NA,NA,NA,NA,NA,NA,NA,0.0994450488209655,NA,NA,NA,21295.769007501138
48,144479.25,92003.0,"[1,3,12,15,21]",5,NA,0.3048196313847855,NA,NA,NA,NA,NA,NA,NA,NA,0.26911801675845304,NA,NA,NA,NA,19395.390272305427
48,138330.5,73623.0,"[2,16]",2,NA,0.09670289153876022,NA,NA,0.24193107846606443,NA,NA,NA,NA,0.2830570728147419,0.1218850721803828,NA,0.6139169842551025,NA,NA,14153.25551487193
48,28585.25,13189.0,"[10,13]",2,NA,0.5840015051119112,NA,2.1839931970071915,NA,NA,NA,NA,NA,NA,1.3175960446209203,0.4851291225019887,NA,NA,NA,NA
48,46985.25,28795.0,[23],1,NA,0.3214850505584068,NA,NA,NA,NA,NA,NA,NA,NA,NA,0.18254773482103237,NA,NA,NA,30994.613160513207
72,256276.375,140212.0,"[0,4,5,6,7,8,9,14,17,20,22]",11,0.34066914086354916,NA,NA,0.847748703004712,NA,NA,NA,NA,NA,NA,0.1979928454495692,0.1268351481257285,1.940799269936618,NA,NA,23534.014635566713
72,156309.625,84070.0,"[1,3,12,15,21]",5,0.4072730334176493,0.453050956688521,NA,0.7713295558142912,0.5919966437767386,NA,-0.010247656022464469,NA,NA,0.4775879194755295,0.275063024010028,0.3828281783855284,0.6953784694440622,NA,NA,20561.894534645482
72,161479.25,92314.0,"[2,16]",2,0.19464244182300527,0.1410667004026882,NA,0.6641670962964166,0.26193070453863676,NA,0.021759168633876946,NA,NA,0.27928225761823067,0.12834544995487907,NA,0.6311244620671183,NA,70930.85002562273,15301.315655107233
72,20867.875,12601.0,[13],1,1.4225716390743954,0.7004026303528992,2.5962693967102513,2.3692063960573244,NA,NA,NA,1.182998897192439,NA,3.038168533739037,1.4813842907639172,0.47835066466997866,2.435452377224542,NA,NA,NA
72,41301.625,17809.0,[23],1,1.9959394959096557,0.3686966084476069,NA,NA,NA,NA,NA,0.8686513077451781,NA,NA,0.39905376595045317,0.19166953689473976,2.461554698286684,NA,NA,32101.260713107713
96,170520.4375,97437.0,"[0,4,6,7,9,17,20,22]",8,NA,NA,NA,0.9819516166559219,NA,NA,NA,NA,NA,NA,0.1698788828278306,0.1221154560395441,2.3811290048425366,NA,NA,21351.34165369466
96,94572.0,33477.0,"[1,12,15,21]",4,0.481770591208285,0.4961244363209891,NA,NA,0.6664196160332843,NA,0.13718376604663884,NA,NA,0.5636533201185344,0.35702684971832443,0.24195604443770746,0.713675679170365,NA,NA,21249.348221460827
96,186436.4375,88637.0,"[2,3,16]",3,0.33301009576085483,0.15254259111063595,NA,NA,0.267972424129447,NA,0.04880696218651748,NA,NA,0.36337667486740455,0.17935914915472928,NA,0.6786483193343779,NA,71820.70086487266,15172.866173223041
96,82585.75,27531.0,"[5,8,14]",3,0.32454414761021133,NA,NA,0.8962232046145955,NA,NA,NA,NA,NA,NA,0.17865651375767744,0.15295104365764645,1.757026625977414,NA,NA,22933.30968114955
96,27849.8125,12490.0,"[10,13]",2,1.4436749712699914,0.6885594713788477,2.6372736344970993,2.4303086420487614,NA,NA,NA,NA,NA,3.0606697867355477,1.5038479776703961,0.5519029638619679,2.5078835989627266,NA,NA,NA
96,9041.5,4628.0,[18],1,1.2268307499032247,0.2457862157620445,NA,NA,NA,NA,NA,NA,NA,NA,0.3484907301332738,NA,0.5887129671030801,NA,81580.61250898616,21234.793784217236
96,10478.875,6996.0,[19],1,NA,0.27780397885031727,NA,NA,NA,NA,NA,NA,NA,0.5949760903305429,0.602504262116633,0.2993671058975772,0.6558834891507931,NA,58198.1073349953,20830.488387350713
96,42563.8125,21913.0,[23],1,2.1435481450909935,0.36726168337100074,NA,NA,NA,NA,NA,NA,NA,NA,0.4911248510471773,0.2193139747849232,2.488405039746217,NA,NA,30612.774924708647
120,238950.21875,153690.0,"[0,4,6,7,9,17,20,22]",8,NA,NA,NA,1.0984824078969417,NA,NA,NA,NA,NA,NA,0.15579527293027562,0.1147429105071176,2.5505431655891515,NA,NA,19757.300833188714
120,92343.0,45057.0,"[1,12,15,21]",4,NA,0.47588984250970334,NA,NA,0.6210109280264944,NA,0.18632378545511896,NA,NA,0.5792070576451346,0.41400594037209126,0.25966379005751994,0.694349371779667,NA,NA,20633.37470084351
120,165997.21875,72779.0,"[2,3,16]",3,0.3249652955320592,0.1572880562605241,NA,NA,0.2929024240983811,NA,NA,NA,NA,0.3842777212400601,0.204107326386882,NA,0.6762091157146773,NA,71756.10409436432,14678.654259079136
120,73801.875,32509.0,"[5,8,14]",3,NA,NA,NA,1.0063745155153594,NA,NA,NA,NA,NA,0.4942089718846109,0.18782925068681466,0.15972602193202579,1.839071918716927,NA,NA,22282.2811751056
120,28565.90625,14641.0,"[10,13]",2,1.622291205916351,0.7575512291510149,2.7336914994240407,2.5297079077998395,NA,NA,NA,NA,NA,3.0825348615887354,1.5587058829373817,0.5969740303574351,2.5953333817115842,NA,NA,NA
120,11994.4375,6755.0,[19],1,NA,0.26946577323344467,NA,NA,NA,NA,NA,NA,NA,0.5995185106664022,0.6629577271000562,0.31710729493619216,0.6605010512320822,NA,56795.03369791195,20013.048381801942
120,47365.90625,26084.0,[23],1,2.2188588331335577,0.3807898105342411,NA,1.865530636475786,NA,NA,NA,NA,NA,NA,0.55287099883224,0.24431256126737622,2.5207990713553943,NA,70014.09052529224,29313.635480161054
144,244455.109375,124980.0,"[0,4,6,7,9,17,20,22]",8,NA,NA,NA,NA,NA,NA,NA,NA,NA,NA,0.096715047109873,0.1402202267421645,2.577510882068971,NA,66454.713900373,18698.809551114562
144,76840.5,30669.0,"[1,12,15,21]",4,NA,0.43599047035660554,NA,NA,0.5838529108787092,NA,0.2827731730681271,NA,NA,0.6445815901518362,0.4532736853467898,0.3147422590904645,NA,NA,NA,20589.19247011664
144,110670.640625,49159.0,"[2,3]",2,0.4258094574903457,0.15031707667740513,NA,NA,0.25087316432583284,NA,0.13985365169499042,NA,NA,0.37636982544701547,0.20305909077680173,NA,0.6805784487044347,NA,70977.08723505394,14665.615477004421
144,51059.9375,14159.0,"[5,8,14]",3,NA,NA,NA,NA,NA,NA,NA,NA,NA,NA,0.16893760060449692,0.18017240321606864,1.9039300975951723,NA,NA,22191.414413697566
144,31441.953125,17159.0,"[10,13]",2,1.6347041041905028,0.6801011469528504,2.6352238450989725,2.76751238016633,NA,NA,NA,NA,NA,3.111776214259908,1.4857765707153847,0.6392771300983726,2.608374049273837,NA,NA,NA
144,10187.046875,6635.0,[11],1,1.001345990195879,0.11744864888316586,NA,NA,0.30565485710714047,NA,NA,NA,NA,NA,0.3023038851329183,NA,0.4251944810336611,NA,78727.26569740029,17315.62386670564
144,84446.921875,49215.0,"[3,16]",2,0.3411739887320202,0.08789955086745449,NA,NA,0.29855473808288036,NA,NA,NA,NA,0.4983507168713387,0.24539413244319386,NA,0.8170085347819241,NA,72925.38171036768,14843.890294254694
144,13339.875,8786.0,[18],1,1.2551324105969932,0.2065017968274354,NA,NA,NA,NA,NA,NA,NA,NA,0.37089473822843466,1.2366204111756107,0.526246800627112,NA,77963.22236902514,19656.992962827513
144,17338.21875,11341.0,[19],1,NA,0.17180871683943,NA,NA,NA,NA,NA,NA,NA,0.5881890287686385,0.6328877980283627,NA,0.74051291213775,NA,57616.12120622242,18678.279797340685
144,50091.953125,26409.0,[23],1,2.252172940144172,0.34137929596571404,NA,2.1162805540517193,NA,NA,NA,NA,NA,NA,0.5751464355686635,0.2786665216169685,2.4517613253167045,NA,NA,29885.418667232443
168,219969.5546875,97742.0,"[0,4,6,7,9,17,20,22]",8,NA,NA,NA,NA,NA,NA,NA,NA,NA,NA,0.10491890526628689,0.13480172696874837,2.450970325728215,NA,NA,19915.158664677434
168,86890.8203125,52864.0,"[1,12,15]",3,0.3684669820720552,0.4512028384742903,NA,NA,NA,NA,0.18853475560172672,NA,NA,0.5852158375803845,0.3657323961861181,0.25513673096581,0.733608018230493,NA,NA,20477.971822577136
168,96759.3203125,41424.0,"[2,3]",2,0.35777229805373345,0.13868001413245157,NA,NA,0.25705765780961354,NA,NA,NA,NA,0.3832741158298507,0.20210030116316435,NA,0.7001982635164482,NA,71225.03559080535,15098.413809457687
168,82425.96875,56896.0,"[5,8,14]",3,0.3352884409540213,NA,NA,NA,NA,NA,NA,NA,NA,NA,0.19715393622391453,0.17030258245789376,1.7172882481261666,NA,NA,24035.138276733833
168,14565.609375,8109.0,[10],1,NA,0.5402853821989808,2.457081917011265,NA,NA,NA,NA,NA,NA,NA,NA,0.6517878453120034,NA,NA,NA,NA
168,11800.5234375,6707.0,[11],1,NA,0.12564680352036373,NA,NA,NA,NA,NA,NA,NA,0.618572761616767,0.3106465481456948,NA,0.4198798554897202,NA,NA,18602.11719951513
168,24594.3671875,15330.0,[13],1,NA,0.65108466870335,2.674412061946034,2.8028667116628943,NA,NA,NA,NA,NA,3.18424365164662,1.5767244995735266,0.5965329030091122,2.384587090914512,NA,NA,NA
168,80355.4609375,38132.0,"[3,16]",2,0.24392226604688716,0.08068604280072078,NA,NA,0.3084929670234957,NA,NA,NA,NA,0.5195009172240438,0.247446529203184,NA,0.8214651276695483,NA,73372.16613797737,15306.878408135535
168,16256.9375,9587.0,[18],1,NA,0.2003951734744973,NA,NA,NA,NA,NA,NA,NA,0.6718522269382062,0.4113762711496194,NA,0.5133077170751114,NA,NA,21412.489683250504
168,21985.109375,13316.0,[19],1,NA,0.17038795500008863,NA,NA,NA,NA,NA,NA,NA,0.5991811490621811,0.6515196513645249,NA,0.7861468305713967,NA,NA,20057.56801016589
168,52593.9765625,27548.0,[23],1,2.0749139203776537,0.3215083391457383,NA,NA,NA,NA,NA,NA,NA,NA,0.6033820420965448,0.2792771887616706,2.426593453131686,NA,NA,34402.792064027206
