time_in_hour,cumulative_size,size,pcore_ids,pcore_power,AF700 CD48_[R 730_B-A],APCCy7 Ly6G_[R 780_A-A],BV421 CD117_[V 440_F-A],BV510 SCA-1_[V 525_E-A],BV605 CD11b_[V 610_D-A],BV650 CD150_[V 660_C-A],BV711 CD11c_[V 715_B-A],BV785 B220_[V 780_A-A],FITC Ly6C_[B 525_B-A],PE CD115_[YG 582_D-A],PECF594 CD135_[YG 610_C-A],PECy5 CD3-CD19-NK11_[YG 670_B-A],PECy7 CD16-32_[YG 780_A-A],PerCPCy5-5 CD45_[B 695_A-A],_FSC-A,_SSC-A
-1,0,0,[],0,0.0,0.0,0.0,0.0,0.0,0.0,0.0,0.0,0.0,0.0,0.0,0.0,0.0,0.0,0.0,0.0
0,88848,88848,[0],1,0.32011028146947473,0.1430090030614286,NA,0.5915989526719589,0.3490400042432378,0.23847798612236693,-0.020820596524385948,2.9184591087811906,NA,0.40900894520978137,0.17451012487620066,1.1556146179992788,0.7055444371510912,NA,69959.42733657431,14426.098325229943
0,185152,185152,"[1,3]",2,0.4069648902847476,1.6556114079621116,1.9687607786899837,0.815202760337491,NA,NA,0.13055021862577698,0.7768148929258047,NA,NA,0.23476314601516446,0.2082136696227942,1.9739417449770924,NA,69937.25509851336,23956.300380228204
0,52034,52034,[2],1,0.3594601260137702,0.2563113759080613,1.1317274383480123,0.5435227664988465,0.42290681037398903,0.2673410205058353,0.0654940056117077,NA,NA,0.44043189070607935,0.24083012833914585,0.5182613950493993,0.575139789541454,0.6329612778759981,68535.33612637862,15532.663719875409
0,33703,33703,[4],1,1.7854943173604518,0.3762531693024518,1.9357498916119966,1.0861399808028973,1.8186646026763484,NA,-0.15564878363944867,0.8486865665964198,NA,NA,0.5866600775598689,0.24730612918731887,2.4159963513930447,NA,80551.56822834775,37480.95445509315
24,120062.0,75638.0,[0],1,0.30635826161483415,0.1241122407422992,NA,0.6937738216213609,0.3004819059361066,0.27421848332947985,-0.028848666022533997,NA,NA,0.3913241524378811,0.169934989326324,1.2015263310956064,0.6576547589662022,NA,72044.00579700532,15324.966100847987
24,262651.0,170075.0,"[1,3]",2,0.4397410011612335,1.5263690662952327,2.037389819402961,0.8829174685799512,2.426420317702991,NA,0.13132279771829625,0.8268336754381229,NA,0.770666726890434,0.22327273359895727,0.21848990880293784,1.8841664777290092,NA,70651.86822056596,27152.405404890662
24,106483.0,80466.0,[2],1,0.34680326414076923,0.22565666754319613,NA,0.5827402502089565,0.3620029543448595,0.28713715241399274,0.04186666672611539,1.4912934056374976,NA,0.3988834170290214,0.21631667595766757,0.5415453328794362,0.5325176231651957,NA,70838.5300940054,16936.44213630348
24,50672.5,33821.0,[4],1,1.7734158749025435,0.4275321888697041,2.1367376079037155,1.2250153396714096,1.7713721642903337,NA,-0.1109642581775061,1.0254326294341123,NA,NA,0.5851652714786133,0.28908464425477265,2.359219151896998,1.9364315554491747,81927.98034436858,NA
48,131199.0,71168.0,[0],1,0.2924462491253801,0.11619504852172735,NA,0.7107431064928038,0.25640844022631226,NA,-0.015808357594174982,NA,NA,0.3472022426695246,0.1605726681015316,NA,0.6536461497991649,NA,71450.84154604809,15417.098849838849
48,117808.75,55894.0,[1],1,0.5671555723174044,NA,NA,0.8212990410007688,NA,NA,NA,NA,NA,NA,0.26942802865873583,0.16302588596560752,NA,NA,NA,NA
48,155083.5,101842.0,[2],1,0.34129555856523197,0.2870028942279528,NA,0.607258295869701,0.43718609127822994,NA,0.07149049005528685,NA,NA,0.3983985783062092,0.2221177046236389,0.41569780659774436,0.5531752469137757,NA,66265.19416959236,17996.285613878892
48,146807.75,77397.0,[3],1,0.24074350905007336,NA,NA,0.7523569181633483,NA,NA,0.5404036234957545,NA,NA,NA,0.08991155019406483,0.17665425963035575,NA,NA,NA,22952.096520789437
48,66321.25,40985.0,[4],1,1.7874086403000387,0.39776018475600283,NA,NA,NA,NA,NA,0.9172072027819356,NA,NA,0.5892463374936101,0.2637307813408216,NA,NA,NA,NA
72,298606.25,155465.0,"[0,2]",2,0.3031227966925494,0.2683530914205714,NA,0.726100119097052,0.4166874514448402,0.27276229034388133,0.017305801563880063,NA,NA,0.3730881125608546,0.1974403548640753,0.7394869240521513,0.6528312206162109,NA,69253.80298637421,17754.37287062782
72,309833.25,177525.0,"[1,3]",2,0.4214739879644862,1.5024262628135707,1.7525673383957314,0.962461188637759,2.312628707497517,NA,0.10391131706449519,0.8204791582129114,NA,0.6589796531363973,0.277205679594152,0.19845301775632707,1.8051250768098632,NA,70892.57874033743,27310.169892998525
72,60170.625,27010.0,[4],1,1.728596521521103,0.46130983652942437,1.7984675539954122,1.5024164332658652,1.7359046823553932,NA,-0.11853967435313706,0.9638016019403204,5.3249225928017,NA,0.6029162818276679,0.2762712976140762,2.3344096761771427,1.9288882818380768,82250.72097888321,45518.106418207004
96,156616.75,81279.0,[0],1,0.40220685997982897,0.1959496020939544,NA,0.8911213375528981,0.3502691583551272,0.24842136748742916,0.06465742758991988,NA,NA,0.41494398499839946,0.21043473071086582,1.2001732409544361,0.7357377006538267,NA,71457.75319689629,15890.4008670845
96,303858.625,148942.0,"[1,3]",2,0.48463699241957636,1.7329705872243975,1.8905001233304772,1.1151824052361343,NA,NA,0.32801752033840215,0.9764989912502613,NA,0.7249313201708855,0.27518514654162685,0.21230298261198444,2.0282894217212055,NA,70506.48119005916,25813.062834730565
96,112833.375,38868.0,[2],1,0.34350065590249,0.36487469116075877,NA,0.7374188354277593,0.5012776324131809,0.2942012971788166,0.09984536512018494,NA,NA,0.42173975397074104,0.25512136353498116,0.5173251312421991,0.6226669419459238,NA,68367.63657915912,18315.835469779948
96,57134.3125,27049.0,[4],1,1.8644889320122002,0.47269572613324184,NA,1.7481084339807103,NA,NA,0.037407522763778456,1.122531840535852,NA,NA,0.6910907700013706,0.3297981455277026,2.3512727615093754,NA,81552.2471194522,42982.325060794785
120,138969.375,60661.0,[0],1,0.4012506004785106,0.18596221933698587,NA,0.9997971246368844,0.3584231128794353,0.2534988383895327,0.09574066110066815,NA,NA,0.42858716054706036,0.23520115853967472,1.2864626098780492,0.7283826349613799,NA,71057.89198519435,15261.36749193795
120,178614.59375,105537.0,[1],1,0.6558957162635566,NA,2.1399973265444703,1.2948918800682305,NA,NA,0.10480752982455277,1.1754110015122756,3.8514601876097587,0.8009400040086155,0.37908258766883485,0.1956752982532114,2.332600845003412,NA,70930.65299990303,26558.23375014608
120,117272.6875,60856.0,[2],1,0.3507270344008655,0.4133805170182874,NA,0.7910562192406712,0.53221708828486,0.2977496064890002,0.14313282288603357,NA,NA,0.4371326801655818,0.303706036293649,0.5145474392167295,0.6240866461710878,NA,67722.3497244403,17736.725936292616
120,183993.71875,105142.0,[3],1,0.33680675389139414,NA,2.0585487065760995,1.1970163272764394,NA,NA,0.8513120817359727,0.9858410379358857,3.8864942688745354,0.6090527199214982,0.15264685616407547,0.19746111023983515,2.2255987052652735,NA,67225.10855278836,21690.31430590566
120,56371.15625,27804.0,[4],1,1.9647995639292593,0.4057565772771716,1.8327271310853823,1.991031311823948,NA,NA,0.06064284162556355,1.2364598332181425,NA,NA,0.7670426624354252,0.3617321943835423,2.327456480110919,NA,78911.9460717109,40922.50983409657
144,144840.6875,75356.0,[0],1,0.4312395315193531,0.13315834694887752,NA,1.374837971649344,0.3363207933696777,0.2700087270651197,0.16820659130485005,3.331251094042581,NA,0.45639336363358396,0.23882200052919877,1.473897025687639,0.7696459960928844,NA,71204.24834354673,14923.376105902473
144,173176.296875,83869.0,[1],1,0.6512103292045246,NA,2.125245109179535,1.4686666150267857,NA,NA,0.23439889250014545,1.2454337356622838,3.7977163568454517,0.8338282625958128,0.31872890467176074,0.24300345818446578,2.3851559784982186,2.1277554553802247,69926.79649306022,24693.34170534061
144,98730.34375,40094.0,[2],1,0.4046954461611334,0.3894907050846417,NA,1.0172894173779938,0.5044811178153585,0.31181819159337,0.20441415336056012,1.5543107404634,NA,0.47232478203084094,0.3286551100767019,0.5719609121647984,0.6497449702404455,NA,67450.43605705054,17451.820600999374
144,177882.859375,85886.0,[3],1,0.36653532278141077,NA,2.048619125484248,1.4427856092137183,NA,NA,1.007749338342903,1.0870076527186612,3.850081336508189,NA,0.11927694089867646,0.26331032034979673,2.280149088611313,2.0532386606722883,66957.52755407941,20874.0190934986
144,65325.578125,37140.0,[4],1,1.9033213760187404,0.32594378670226565,1.770993791216656,2.3652128317805636,NA,NA,0.21526432919506,1.350370212718199,NA,NA,0.8101551422937368,0.4889133362740492,2.1298544698903386,NA,78672.87602362905,40371.74144794501
168,126980.34375,54560.0,[0],1,0.33788081151120064,0.11343929688501264,NA,NA,0.3364001695585448,NA,0.23315112208711275,NA,NA,0.4663479184317524,0.23325626764485463,1.466838071852344,0.7768332615720662,NA,71966.60849723079,15220.7333073943
168,148017.1484375,61429.0,[1],1,0.6426641881184423,NA,2.0994663300714405,1.6066519041106266,NA,NA,NA,NA,NA,0.8797724798084282,0.3242133205011539,0.258009826065719,2.3098117839444816,NA,70896.80087257619,25728.58699955227
168,162571.171875,113206.0,[2],1,0.357601876976553,0.6081486202992865,NA,1.3452942093303735,1.036382956267257,NA,0.27715035151482237,NA,NA,0.5471874586914621,0.3126892632454501,0.4138346522871309,0.9295353541711046,NA,65008.096719177745,20232.46580291009
168,164534.4296875,75593.0,[3],1,0.37120092753927025,NA,2.0054492229707317,1.6327694629826537,NA,NA,1.0324088065304804,NA,NA,NA,0.14934186232600943,0.273449861107115,2.167795765215685,NA,67871.62041531315,22733.61151586426
168,87874.7890625,55212.0,[4],1,1.6672055028074817,0.3177114874487259,NA,2.6047632986927742,NA,NA,NA,NA,4.925716787433641,NA,0.8249445209373794,0.4882220775409034,2.0557907681162666,NA,79329.42784695508,43758.37415968258
