time_in_hour,cumulative_size,size,pcore_ids,pcore_power,AF700 CD48_[R 730_B-A],APCCy7 Ly6G_[R 780_A-A],BV421 CD117_[V 440_F-A],BV510 SCA-1_[V 525_E-A],BV605 CD11b_[V 610_D-A],BV650 CD150_[V 660_C-A],BV711 CD11c_[V 715_B-A],BV785 B220_[V 780_A-A],FITC Ly6C_[B 525_B-A],PE CD115_[YG 582_D-A],PECF594 CD135_[YG 610_C-A],PECy5 CD3-CD19-NK11_[YG 670_B-A],PECy7 CD16-32_[YG 780_A-A],PerCPCy5-5 CD45_[B 695_A-A],_FSC-A,_SSC-A
-1,0,0,[],0,0.0,0.0,0.0,0.0,0.0,0.0,0.0,0.0,0.0,0.0,0.0,0.0,0.0,0.0,0.0,0.0
0,130552,130552,"[2,3,11,16]",4,0.2945062579661819,0.14099337009007407,NA,0.5444792388933068,0.29843007909490904,NA,-0.003448733110178015,NA,NA,0.3664699372893542,0.1730202458483978,NA,0.6143456354479425,NA,69712.01225565278,13652.421839573517
0,155556,155556,"[5,6,7,8,10,13,14,15]",8,0.3174147081886878,NA,NA,0.7247619167438137,NA,NA,0.20085388888246536,0.7126435048278372,NA,NA,0.1652310158978083,0.17470039090745337,1.9713417960348654,NA,67381.29054488419,20086.270976368593
0,27562,27562,[9],1,1.9318490358101628,0.27832323916987,NA,0.8926361697989962,NA,NA,0.03569825513388514,0.7780565226398739,NA,3.1855804243886507,0.45686277167840217,0.20438385411073534,2.39227995591757,NA,74256.59792467908,28325.928161962027
24,88203.0,49006.0,"[1,16]",2,0.4620928353570708,0.25220739372811973,NA,0.717393376461132,0.39683908758205977,0.34372549474507963,0.07497320651225259,0.9378649061143003,NA,0.5209317506207268,0.3133343761210061,0.3414317311202526,0.5542745706381859,NA,NA,19519.453624026337
24,210979.0,107520.0,"[2,3,11]",3,0.2835475700188217,0.10841007531554858,NA,0.6042748440034074,0.245492524066385,NA,-0.027484974604107038,NA,NA,0.34236880039718987,0.15398820106264788,1.1563990045644457,0.6063895118139696,NA,71421.18402305443,14398.043103816017
24,285804.0,134764.0,"[4,5,6,8,10,13,14,15]",8,0.3874734705567504,NA,NA,0.792855657524044,NA,NA,NA,0.7693168353067104,NA,NA,0.1456925640123874,0.17664383785041715,2.027482256994294,NA,69091.20689703443,23131.908580705673
24,117192.0,56443.0,"[5,7]",2,0.2373553225817484,NA,NA,0.7378159429312703,NA,NA,0.4683465839733221,0.6867012419106966,NA,0.5833201660437625,0.12582130152225224,0.19298073589494213,1.6766748051146627,NA,64895.3610485357,20090.103078708544
24,50639.0,23077.0,[9],1,1.948401409842205,0.32858512871500833,1.7959212440806396,0.9661345486680024,NA,NA,0.05600762840895124,0.9212516743814088,NA,NA,0.44455208850884054,0.22535836637769613,2.402816836114445,NA,74748.28049527065,32732.918106597685
24,31324.0,16937.0,[12],1,1.2778157094240739,0.5326799250095777,2.7402244541246303,2.1073488123802657,NA,NA,-0.6242092268867268,1.0301596695824302,NA,3.1548902279083104,1.2705749371408306,0.5042879735346697,2.264860235825581,2.412670688002807,NA,NA
48,143872.0,55669.0,"[1,16]",2,NA,0.26029561027163695,NA,NA,0.4143824420596185,NA,0.08799844802322809,NA,NA,NA,0.302862898687732,0.30412832715191007,NA,NA,NA,19829.180160142278
48,311550.0,100571.0,"[2,3,11]",3,0.2792313250553824,0.11215181780452221,NA,NA,0.233342602901625,NA,NA,NA,NA,0.32495418490130334,0.14985592286949911,NA,0.6095635137794969,NA,70869.82984432657,14717.25285828905
48,296720.0,83373.0,"[4,6,8,10,13,14,15]",7,NA,NA,NA,NA,NA,NA,NA,NA,NA,NA,0.1695649091230811,0.15882136681383152,NA,NA,NA,NA
48,179410.0,62218.0,"[5,7]",2,NA,NA,NA,NA,NA,NA,NA,NA,NA,NA,0.10926474143582432,0.16860581322669377,NA,NA,NA,19417.359567471307
48,80837.0,30198.0,[9],1,1.9738420701411339,0.32344210147579533,NA,NA,NA,NA,NA,NA,NA,NA,0.4155194581194084,0.20920143332880015,NA,NA,NA,NA
48,43702.0,12378.0,[12],1,NA,0.5488978733009939,NA,2.1053001076609505,NA,NA,NA,NA,NA,NA,1.2588413096196804,0.4889079624959889,NA,NA,NA,NA
72,183921.0,40049.0,"[1,16]",2,0.4211214940436241,0.2923474797603358,NA,0.7371028470375847,0.4386153893519924,0.3372632434795493,0.07723064149280168,0.9746796155523256,NA,0.4849278514579636,0.29328654896941186,0.3206638808945168,0.5563403132595114,NA,67659.96826898528,20149.74794612886
72,422426.0,110876.0,"[2,3,11]",3,0.27636904130664774,0.13830203219261827,NA,0.6504928415296352,0.2586753054262818,0.252441840090329,-0.02215102467889274,NA,NA,0.32802450767234015,0.15480138313690484,1.0545880501626457,0.625118262069576,NA,70937.53524641067,15413.482011050262
72,380034.0,83314.0,"[4,6,8,10,13,14,15]",7,0.5174324324218389,NA,NA,0.8877102768252172,NA,NA,-0.052879130225193194,0.8329187090260377,NA,0.6643155936626707,0.2287868780398652,0.16975083158612037,2.0324826418925697,NA,70593.58267944463,25920.117884189338
72,281566.0,102156.0,"[5,7]",2,0.23067466883076526,1.487462686162388,1.562516080830037,0.8024115271233145,NA,NA,0.41194594589900024,0.6892985806915672,NA,0.527715488088056,0.16166781777985673,0.17795536633684716,1.59610325506983,NA,65251.666579060766,21196.60879509599
72,95039.0,14202.0,[9],1,1.9395489530403174,0.35445684407452305,NA,1.0697071605446231,NA,NA,0.05926942495186083,0.8876174889781718,NA,3.065242710203163,0.4363308030913742,0.214282715937667,2.421338904512876,NA,74353.30556929257,33383.14990688083
72,53105.0,9403.0,[12],1,1.281235681498939,0.5730278116749892,2.6178487325863498,2.1361429685152085,1.9979288294322815,NA,NA,1.0440005455795447,NA,3.0505736595047606,1.2591478112230128,0.48415841312493746,2.2645030624611624,2.3800154353074103,NA,NA
96,208100.0,24179.0,"[1,16]",2,0.44136400694856914,0.30763110725131426,NA,0.7796755695627091,0.4511540343777347,0.34597834667950833,0.09275785824120897,1.0037900138202716,NA,0.5057937993993239,0.31636479196062206,0.33458625430562683,0.5749769723018011,NA,67981.18289284012,20520.622931282815
96,517701.0,95275.0,"[2,3,11]",3,0.31142834475497794,0.1421485236883817,NA,0.7058235426337132,0.26850662137026093,NA,0.010608658938251914,NA,NA,0.3495359214797542,0.1676616039760228,1.1092276152393035,0.6417219314952175,NA,71111.18697472135,15207.51414426434
96,474541.0,94507.0,"[4,6,8,10,13,14,15]",7,0.5339497697037805,NA,NA,0.9646395194408814,NA,NA,NA,0.901116022803091,NA,0.6818975131126687,0.2362171732600573,0.17237400345597076,2.1091956598207537,NA,70577.34223175672,25468.74579014252
96,334044.0,52478.0,"[5,7]",2,0.24630246455257776,NA,NA,0.855861989636097,NA,NA,0.48311102469733225,0.7356299152117676,NA,0.5411826489923569,0.16458559092815062,0.1843249641454433,1.6529134635706244,NA,65287.262276825306,20978.08930560031
96,115957.0,20918.0,[9],1,1.9895903382288125,0.3569883489655763,NA,1.221103777089787,NA,NA,0.10030994459153586,0.944954787619491,NA,NA,0.4778226406340216,0.22975588028320493,2.4270350288554985,NA,74470.02568193318,33336.79898583099
96,61886.0,8781.0,[12],1,1.3202854791552363,0.5744682429628805,2.5910793086481383,2.1755346110429064,NA,NA,NA,1.075024477232334,4.432010760398191,3.024450804689288,1.281495309472204,0.5089339748893058,2.278878816565941,NA,NA,NA
120,249336.0,41236.0,"[1,16]",2,0.4553390978919851,0.32949381059293037,NA,0.8192996113236544,0.46851176598249245,0.35156076119776203,0.11944476357604072,1.013974407149378,NA,0.5171946725663404,0.34155670889884915,0.34332272304039624,0.5921802042785823,NA,67752.15785927461,20486.234799627568
120,592163.0,74462.0,"[2,3,11]",3,0.3154257929370834,0.14337917520008103,NA,0.7428757185758053,0.275393121620247,NA,0.02775415470397702,NA,NA,0.35777795703038817,0.17665933718416227,1.1387122388075845,0.6432213292218555,NA,71085.1182799333,15040.864194486434
120,616543.0,142002.0,"[4,6,8,10,13,14,15]",7,0.5340364315838406,NA,NA,1.0429125477346917,NA,NA,NA,0.9704766238332043,NA,NA,0.23726171063495594,0.168518010360997,2.2078752395469605,NA,69930.59632174899,24626.68591809475
120,399168.0,65124.0,"[5,7]",2,0.23975430828373412,NA,NA,0.9159341886774452,NA,NA,0.5725064436653251,0.7754190481275804,NA,0.5329905706093848,0.16473788900413844,0.18600350694193857,1.7237651266333716,NA,65020.12025012022,20550.716530382942
120,139561.0,23604.0,[9],1,2.0300200027156325,0.3601371263820319,NA,1.388971973896735,NA,NA,0.14247426647843664,1.0245198672909268,NA,NA,0.5135515486704709,0.24267496941122246,2.4361945324983405,NA,73837.22157336125,32980.21745329995
120,72495.0,10609.0,[12],1,1.3746580617697914,0.5897397670736013,2.596604238650951,2.222177706903946,NA,NA,NA,1.0935169619835867,4.430680779709001,3.0026182096558474,1.3073060427063607,0.5304953028760553,2.300728176688045,NA,NA,NA
144,279967.0,30631.0,"[1,16]",2,0.47598484203493885,0.3401872346990853,NA,0.8938996865487634,0.4844737105980754,0.36060697211459747,0.15643303066073866,NA,NA,0.5374365120139329,0.3571073462265315,0.35861960648219593,0.6206143874421123,NA,67704.0248886478,20503.08729243057
144,679957.0,87794.0,"[2,3,11]",3,0.329338396022101,0.13573125561325527,NA,0.8694089433493701,0.2807560416026531,NA,0.058190148316674684,NA,NA,0.3717172092146772,0.18353396080484297,NA,0.661136237762091,NA,71095.04743388238,14937.772076763029
144,726449.0,109906.0,"[4,6,8,10,13,14,15]",7,0.5410909111444717,NA,NA,1.1370877149724157,NA,NA,NA,NA,NA,NA,0.22533130933350387,0.18484674670211154,2.2371997141533657,NA,69492.54253498898,23946.941376476174
144,454979.0,55811.0,"[5,7]",2,0.2494881723552167,NA,NA,1.0054236887812311,NA,NA,0.6503122373955681,NA,NA,0.551172080731212,0.15824308686775046,0.19893812567833558,NA,NA,64994.89370718196,20321.282802062953
144,164599.0,25038.0,[9],1,2.047235378659612,0.34959823492854625,NA,NA,NA,NA,0.20311174111626462,1.0524569643921722,NA,NA,0.5401288487900868,0.2656223617640523,2.4168414625240877,NA,73663.56101798822,33042.851730569135
144,84391.0,11896.0,[12],1,1.3971111421360074,0.5798159790025057,2.5550759970376284,2.312654408538823,NA,NA,NA,1.1478340865850845,4.476478452417985,NA,1.3168051682288264,0.5580553126518148,2.3077820124894917,NA,NA,NA
168,1387861.0,191030.0,"[0,4,5,6,7,8,10,13,14,15]",10,0.43025191484881886,NA,NA,NA,NA,NA,NA,NA,NA,NA,0.20709274523603538,0.1953321497131264,NA,NA,67616.8651702154,22739.009304245454
168,329050.0,49083.0,"[1,16]",2,0.47065526545811864,0.3650059347545991,NA,0.9868327991946426,0.5549251091718914,NA,0.1822529031302098,NA,NA,0.547351795502211,0.35908882758245264,0.3522909067710125,0.6570075023461767,NA,67181.10944841252,20685.226537000013
168,752408.0,72451.0,"[2,3,11]",3,0.3163318679360059,0.13111873971305643,NA,NA,0.2855325115814997,NA,0.0858772783316506,NA,NA,0.38149607802147656,0.18781577759936852,NA,0.6719609129036385,NA,71201.70613815941,15002.283271841123
168,190956.0,26357.0,[9],1,2.0251419556703967,0.34177205863134796,NA,NA,NA,NA,NA,1.0379072908837093,5.564535080756818,NA,0.5518523353547269,0.27465893203671454,2.4111350070330575,NA,NA,33606.373321602594
168,105470.0,21079.0,[12],1,1.422505960974678,0.5683912070920947,NA,2.4708470552099953,NA,NA,NA,1.20619831376696,NA,NA,1.321712592699377,0.5689365378780584,2.29510739429222,NA,NA,NA
