time_in_hour,cumulative_size,size,pcore_ids,pcore_power,AF700 CD48_[R 730_B-A],APCCy7 Ly6G_[R 780_A-A],BV421 CD117_[V 440_F-A],BV510 SCA-1_[V 525_E-A],BV605 CD11b_[V 610_D-A],BV650 CD150_[V 660_C-A],BV711 CD11c_[V 715_B-A],BV785 B220_[V 780_A-A],FITC Ly6C_[B 525_B-A],PE CD115_[YG 582_D-A],PECF594 CD135_[YG 610_C-A],PECy5 CD3-CD19-NK11_[YG 670_B-A],PECy7 CD16-32_[YG 780_A-A],PerCPCy5-5 CD45_[B 695_A-A],_FSC-A,_SSC-A
-1,0,0,[],0,0.0,0.0,0.0,0.0,0.0,0.0,0.0,0.0,0.0,0.0,0.0,0.0,0.0,0.0,0.0,0.0
0,145938,145938,"[1,2,4,5,9,15]",6,0.17448195488195928,0.24437109854688494,0.356026274973519,0.2906639476748141,0.27711913660035736,0.22741909337022873,0.2543379148346861,0.46648997108004214,0.1966230558570223,0.11376052969955017,0.2518501745964906,0.20087724111706423,0.15726136724787648,0.2739330680687101,0.19743845861406023,0.05509896187728794
0,193492,193492,"[6,7,8,10,12,13,14,16,17,18]",10,0.20282497861447332,0.3675946764267711,0.4957160813293761,0.31400821201667356,0.48263095558693664,0.24748902022138067,0.26209071835571807,0.32712094500221217,0.5964488620919702,0.1898530086772426,0.25548997874471313,0.10414108855437186,0.33115728931649924,0.3813178948335572,0.20404496843506048,0.09041190188524256
24,558959.0,278419.0,"[0,1,2,3,4,5,6,7,12,13,14,15,16,17]",14,0.17901429294239585,0.3250665431951661,0.4517010786139126,0.30556398677112145,0.4020791742723791,0.2399774727813672,0.26150682952093757,0.3687422290997613,0.4210482342816275,0.13325217668586106,0.25060710981496775,0.13138850489439094,0.2461422313046682,0.31282524877812506,0.1997104782756937,0.07903657926782923
24,152599.0,66843.0,"[6,7,8,10,18,11]",6,0.2583352970840181,0.3201325509376855,0.513818894741109,0.3429375017567046,0.4515020827671223,0.3171207482846479,0.23931650900094187,0.34063642469910765,0.6481502947749225,0.2886407252231107,0.279930202604079,0.11193377521232391,0.34085421828686785,0.40166475678203256,0.23707085704290132,0.1435594649781081
24,297829.0,156702.0,"[1,2,4,5,9]",5,0.17131917388377826,0.24159144707677016,0.3515097280446693,0.29497388087057796,0.27061268293910345,0.22967033596027947,0.2529455037099978,0.4689035404761965,0.19474161709229085,0.10893901193582278,0.24988462953792792,0.20117531429406363,0.14855899262436445,0.2710602191742522,0.2043696220527322,0.05744811056001878
48,629473.0,204497.0,"[0,1,3,4,5,6,7,12,13,14,15,16,17]",13,0.18013327618515734,0.35000586947884166,0.4863618052474974,0.31022017378321937,0.44153476381644735,0.2425520550883485,0.2650396939204922,0.33032473491093856,0.4989357226041536,0.13347897555552127,0.25064089535688056,0.10676799341025467,0.27413416073713437,0.3204117331935114,0.19121049543324156,0.0842837898608561
48,416219.0,143879.0,"[1,2,9]",3,0.16843956697356607,0.23562462623070748,0.33782699882809497,0.2921593641044506,0.26043612866828986,0.22931785280402378,0.2522134196619777,0.47691887114633114,0.17633703590298744,0.10421392367910405,0.2477394830470748,0.20163661740718503,0.14109589601927275,0.26044272167980664,0.20165457550236673,0.0564769644790783
48,218781.0,66182.0,"[6,7,8,10,18,11]",6,0.26554095082884316,0.31274873990341195,0.5182378721331439,0.34258569425259083,0.4556498701872428,0.3079423410778878,0.2433374607637363,0.33695851402777777,0.6637392256095683,0.29499528592354507,0.2785573309006755,0.10900387191340691,0.35096657054584357,0.4003367362136585,0.23461017747242008,0.14616922664382057
72,1138936.0,308628.0,"[0,1,2,3,4,5,6,7,12,13,14,15,16,17]",14,0.17738452638008867,0.32037975083418874,0.43699059873825175,0.3086024930596818,0.39255309699136515,0.23792057800384764,0.2606754445047618,0.37063644571521576,0.4063825909134352,0.12587233400081882,0.25161462359061376,0.12702031166149516,0.23774367737492605,0.29602823343993456,0.19603490512321486,0.08057629433396095
72,245884.0,27103.0,"[6,7,8,10,18,11]",6,0.27169083904754926,0.30915471834797636,0.5133220870917734,0.353911950587468,0.4506106032289677,0.30940234501375524,0.24255950220233427,0.33815344697291133,0.6671507498575808,0.3059062280603887,0.2835347902476331,0.11080355834810773,0.35226430332430453,0.4063680107510053,0.24238591534483742,0.15433113209532334
72,581591.0,145470.0,"[1,2,5,9]",4,0.16821189305252449,0.23925340257369732,0.33734445206161046,0.2976251455648842,0.2636971103165547,0.22996916408165785,0.2515196946064619,0.4772712102900792,0.18263894859999527,0.10456307467122869,0.2487179203307729,0.1960178072185938,0.14456178297669078,0.26260107327027504,0.2018015196278589,0.05983858652396926
96,1361743.0,222807.0,"[0,1,2,3,4,5,6,7,12,13,14,15,16,17]",14,0.18088645755065558,0.3271307669292132,0.4416940415918637,0.3146152638561282,0.4012542432663989,0.2383497528881482,0.2658717619526092,0.3727988556710725,0.4137579466997342,0.1298446752177138,0.25270485255131475,0.12705551382980326,0.24706716204848667,0.3083959327968034,0.19646659789432488,0.08030005390477857
96,278449.0,20512.0,"[3,6,8,7,10,18,11]",7,0.275687230965473,0.3043733951513828,0.5072286124255341,0.3621220583979599,0.44073956094717154,0.30883019705337633,0.24656673769797294,0.3426258098944907,0.6705172335589822,0.3048434149373522,0.2862666036193509,0.11494492552623448,0.34570794446327313,0.4154033484233201,0.2432963772035743,0.15424699004196668
96,700366.0,118775.0,"[1,2,5,9]",4,0.17175160062474326,0.2399964835020511,0.33743218472152287,0.30427113031172465,0.26495107932919315,0.22973890502676353,0.25434436058679477,0.4852349551767421,0.1843580936239371,0.10712884997075303,0.25025217480190765,0.20477760484491,0.14728347413549978,0.2723853345747308,0.20320665463836227,0.059500196500018324
120,1652610.0,290867.0,"[0,1,2,3,4,5,6,7,12,13,14,15,16,17]",14,0.18223950717645002,0.33757292405964856,0.44975610440806935,0.32211103424632276,0.4147556403331412,0.23906314117776778,0.2711818493715147,0.37467942310883073,0.42429842564691517,0.13103829052986318,0.25360103814160034,0.1263449272962092,0.25900485879920565,0.32595667187100613,0.19524152474076148,0.07934283172418219
120,321790.0,43341.0,"[3,6,7,8,10,18,11]",7,0.2804430244953386,0.3043936672368813,0.5095499941920989,0.3729336894136815,0.443545825051431,0.30554708306918515,0.25143854395357595,0.3475750926037074,0.6713532432976144,0.30705863488480395,0.2888860067859413,0.11640920035852956,0.34968479760134197,0.42631403434121606,0.24223425911336285,0.153796797312256
120,810804.0,110438.0,"[1,2,5,9]",4,0.17309296998105722,0.24185088582719785,0.3428857722273566,0.3087665537954232,0.2678201691081911,0.23019504033861246,0.2564595697830712,0.4838225972847564,0.1878099234979792,0.10883957877120388,0.2519213720815455,0.20575174867710153,0.1490285286114601,0.27694910436276765,0.20244812137560475,0.059535734551845944
144,1902447.0,242758.0,"[0,1,2,3,4,5,6,7,10,12,13,14,15,16,17]",15,0.18428204476181553,0.34193951120377386,0.4528979646158237,0.33231034213674365,0.4207151865295412,0.24027969607260258,0.27604093055699264,0.37824901268820754,0.4288910720939916,0.13420672907025377,0.25388004023673044,0.12932714790324507,0.26543023412256683,0.3385934548730377,0.19518112488540906,0.07908647520337346
144,371732.0,57021.0,"[3,6,7,8,18,11]",6,0.2822736262280867,0.3063806975708365,0.5055465401396597,0.38645026163473956,0.44577020927977234,0.3036023499975382,0.2584132018305679,0.35305798334188043,0.6685661787208466,0.30630669167801844,0.28867247626400333,0.11997465025374242,0.3495172736594012,0.43842415016064706,0.2387114836907691,0.1485290545440153
144,921635.0,110831.0,"[1,2,5,9]",4,0.17486102366646797,0.24203510187504082,0.34459784301265334,0.3199633417672254,0.2691252916828824,0.23087404610043036,0.2592355324245705,0.4880496435943465,0.19040993644353998,0.11068073245415666,0.2527155748146285,0.21228612684368345,0.1516963323305629,0.285846155606843,0.20215894899923445,0.05928124474982586
168,2189923.0,287476.0,"[0,1,2,3,4,5,6,7,10,12,13,14,15,16,17]",15,0.18391272924322138,0.3404922060345528,0.4529612171154121,0.34232340758004864,0.42117033590599456,0.24095441786759275,0.27923154641805203,0.3783414087172276,0.43081506957049126,0.13606081902074682,0.25461331917890284,0.12981161779151512,0.2648161806528827,0.33900876187114015,0.19441781941136102,0.07998773848776487
168,458293.0,86561.0,"[3,6,7,8,18,11]",6,0.2811299985266751,0.30614610889118443,0.5054948073777756,0.40543956313770496,0.44817331182861114,0.3093776731474586,0.26343486760569246,0.3553396607430847,0.6613116100437669,0.3060523859995889,0.2907870653249931,0.1236472674149557,0.34753668214437405,0.44570549844463464,0.23951407338231934,0.14925985421892593
168,1015957.0,94322.0,"[1,2,5,9]",4,0.17371239862782853,0.2427746579863149,0.34589186811849204,0.32702281735986555,0.2714880809736281,0.23099418058061538,0.26102297169367134,0.4874938208348129,0.19289478831863588,0.11130197887396673,0.25294339679531835,0.21191699554052812,0.15322375040456251,0.2873474079323886,0.20160913348121526,0.05957368639180223
