time_in_hour,cumulative_size,size,pcore_ids,pcore_power,AF700 CD48_[R 730_B-A],APCCy7 Ly6G_[R 780_A-A],BV421 CD117_[V 440_F-A],BV510 SCA-1_[V 525_E-A],BV605 CD11b_[V 610_D-A],BV650 CD150_[V 660_C-A],BV711 CD11c_[V 715_B-A],BV785 B220_[V 780_A-A],FITC Ly6C_[B 525_B-A],PE CD115_[YG 582_D-A],PECF594 CD135_[YG 610_C-A],PECy5 CD3-CD19-NK11_[YG 670_B-A],PECy7 CD16-32_[YG 780_A-A],PerCPCy5-5 CD45_[B 695_A-A],_FSC-A,_SSC-A
-1,0,0,[],0,0.0,0.0,0.0,0.0,0.0,0.0,0.0,0.0,0.0,0.0,0.0,0.0,0.0,0.0,0.0,0.0
0,101044,101044,"[0,5,10,11,15]",5,0.17281814432348722,0.23811649770373045,0.332134112287154,0.2807316315924715,0.26478391868363943,0.22584607383705335,0.2528869074357341,0.47415445689481045,0.17518661038796604,0.10825593840219723,0.24867897436763456,0.1996666322630736,0.1464845138088778,0.2473119961420701,0.19788133263829522,0.05217517598990608
0,16644,16644,[1],1,0.18624517972647786,0.3154568961046597,0.4909232287009456,0.3167811880431699,0.373505917363933,0.25439066858820725,0.27023830961385,0.3243891675259741,0.4175699411734023,0.14688994042300202,0.2711968245907272,0.10967190554861424,0.2237697666339926,0.24137221164657396,0.18027829741989496,0.0848360680891563
0,164120,164120,"[2,4,8,14]",4,0.17716228900784425,0.39594561812732026,0.5053611448315809,0.30962406364000267,0.5048268033056099,0.24265064564035366,0.2641273130681202,0.322185528631447,0.5728662444752733,0.14325018888991245,0.24962037585308208,0.0998458354141494,0.32991518773979317,0.37901303927513186,0.198817265775021,0.08447403923335645
0,26311,26311,[3],1,0.34252167283557866,0.25205956093144116,0.46822952064539697,0.32518481258254134,0.40839422373538903,0.24542906397387443,0.2591621342209913,0.32620678705772554,0.7816541893514648,0.43454251410953393,0.27757425193702406,0.10424274294562097,0.37268087389444643,0.4106162751000341,0.22100561919680028,0.11179459699221521
0,34225,34225,"[5,6]",2,0.17741495498121637,0.24213683470664144,0.4245328880825034,0.28056249413071793,0.2686326495878274,0.22909799913545562,0.2565758722017909,0.43013608548489846,0.18531250742071176,0.11270427243120582,0.2531262124107685,0.17633528795241368,0.14390262572157572,0.20311181850054963,0.19512195971513113,0.060351542653644265
0,20943,20943,[7],1,0.15781178058895276,0.22517599656587386,0.2616062245188582,0.3221852398684224,0.26622867764542224,0.22698132860792425,0.24633158834519406,0.6116947967336454,0.1767335949702385,0.11097508563893643,0.2500246017739422,0.309795280573059,0.16742889348890766,0.4536525243892782,0.2068047692152273,0.048465191699596136
0,12021,12021,[12],1,0.289089856941329,0.2724407310829226,0.5681330778153215,0.4206990140280515,0.4476653789077206,0.4190451845609797,0.19750549660665143,0.3434073877162876,0.663317799122884,0.43179793079898693,0.34503711582056584,0.1328543422408691,0.3720056983563762,0.5011445113761417,0.3339761876378102,0.2642027053557619
24,124507.0,100748.0,"[0,5,11,15]",4,0.17016845741578407,0.2347190621768222,0.3402050594537313,0.28507258495110777,0.2574438745726942,0.22771125481774757,0.2512154837464162,0.46509252252516836,0.16280142718043294,0.10314310950526788,0.24654376730765265,0.19124332115843715,0.13558607763147804,0.23950759591319884,0.2093063976956104,0.05580143237658401
24,58586.0,45799.0,"[1,2]",2,0.18467978468121038,0.34340854670962123,0.4839912387020726,0.31959941853072776,0.41906107346113136,0.26692895824326074,0.260208217940087,0.3295706062553221,0.514328160231515,0.14376447060816833,0.2586609839884021,0.106409894288403,0.25776265479493576,0.3066539757800987,0.18891424165457218,0.09326217930999837
24,30148.75,23571.0,[3],1,0.3446460136469245,0.2591297214177832,0.503867703311454,0.34001849014007596,0.40407731644941114,0.26419917470414034,0.26020164073171964,0.34819452528602335,0.7964034068414804,0.42829271284222253,0.2771110605033346,0.11011065664735516,0.37108559754305553,0.40887748621669956,0.226062187518078,0.14318519530612206
24,101856.0,78456.0,"[2,4,14]",3,0.1964948502072822,0.3804767350778288,0.5182656210845232,0.32033026202903947,0.4989739982116414,0.33261674456258833,0.23540944057749158,0.33414545058079015,0.5937428940563034,0.15439081576484942,0.255030791039435,0.10061649561723161,0.32259946143639007,0.3774392285914198,0.20581055871938456,0.10282150271432895
24,55640.25,45582.0,"[5,6,10]",3,0.17990265828401925,0.2448505049559527,0.41763890314006796,0.2975535431383751,0.2721447515054719,0.23621432479934976,0.25781139204167197,0.42300117239155344,0.22756313232646047,0.11457487658818508,0.25519816118381156,0.16654098079298232,0.14527840718392765,0.21426578863016,0.2009692431263084,0.07027039406616903
24,31753.75,26518.0,[7],1,0.15612840146997906,0.22647204278807642,0.2731854303201484,0.32939780364971943,0.2574013117265962,0.23610847501942284,0.24787800338165902,0.6109734533158384,0.17614567747636437,0.10621756559944678,0.24843375431191025,0.31004040703991975,0.1539913996337728,0.43735936155808386,0.21863650223438466,0.05183918065028105
24,75369.0,57739.0,[8],1,0.16137859078345476,0.38656112219534644,0.5083932199627622,0.31149366992742367,0.5097257686684541,0.12631223210461592,0.3065221047383012,0.3187626456973301,0.5856143157868189,0.13495171739349726,0.2341390209757868,0.10159160536341848,0.31743292974111975,0.37370864091009476,0.19421254285950082,0.08662155189291278
24,17594.25,14589.0,[12],1,0.2862014378606331,0.2740852961832903,0.5875722327181883,0.4393450251050482,0.44186045248736283,0.4252762684152905,0.20160033709533906,0.3540715953252094,0.6749485234562601,0.43497053709898165,0.3496237270881162,0.14027251469150095,0.35952256494823753,0.50366746315621,0.3583193409076774,0.3087818386573566
48,97449.5,75581.0,"[0,5]",2,0.1672330804973422,0.23318206639707914,0.31946112953085265,0.27800197121525144,0.2525583019704907,0.2265207050774707,0.2527771335322932,0.5126288669123049,0.15131532775822396,0.09740531617221267,0.24394858692456414,0.20019936994477788,0.14132646933891785,0.2319746139809902,0.19926506299333197,0.05694084215307493
48,75179.5,60533.0,"[1,2]",2,0.16822677303842978,0.34401520345883363,0.46218205807792306,0.29797958247203993,0.4120179207123015,0.24832010230818521,0.25792907304511165,0.3073767502308076,0.5330719450382678,0.1222115876163939,0.25094318301307633,0.09481786100250045,0.24119222743349208,0.24350198478950127,0.17031842727913682,0.07766237125625707
48,34308.1875,26771.0,[3],1,0.3574058350980414,0.25294216378228784,0.47556045990640433,0.3264333208038302,0.4206767268366629,0.25747297880720893,0.2619802292982651,0.3314289454167556,0.8072753030139919,0.43466957659841216,0.26948481979839284,0.10210592587057385,0.3941130586481222,0.4125021363267365,0.20919283367749467,0.12244183636835806
48,56222.5,36765.0,"[2,4]",2,0.18590630982551906,0.4266194441851107,0.49676163177934096,0.3007957342910325,0.5201095582658171,0.36333406626772163,0.209212087386907,0.32891935035156034,0.5686326670212546,0.1251641748098306,0.2488609836129903,0.08894025958780276,0.3456442950149294,0.3756531077970522,0.18542550661153742,0.07884767978594201
48,24870.8125,19380.0,[6],1,0.18849407283518874,0.2576104726240287,0.5205787342930015,0.31818697394119266,0.28688878949776886,0.256055639163041,0.2605270975951103,0.32940135733226067,0.2657893133695598,0.1289765679174625,0.26965888713496927,0.11073752122373527,0.14737318123717413,0.17720726931192396,0.1599308862982506,0.0927248309520268
48,27038.4375,19100.0,[7],1,0.15314888577424837,0.2266829552148591,0.26065594326103114,0.3349081924521624,0.253734537790108,0.24018398992686651,0.24370170968627838,0.6358991829349311,0.175339396261727,0.10022474711735535,0.2467613796494167,0.32096506871755714,0.15714370329601357,0.442741855952196,0.21129200416032123,0.05095081800723116
48,56073.25,37231.0,[8],1,0.14317595411375506,0.41858901960010325,0.5110783918117269,0.29971928052159363,0.5427478379025157,0.09548923326907904,0.3237218705813571,0.3050198047362148,0.578180999719075,0.10607013011632649,0.22744626779817295,0.0925892564573652,0.34852763600204434,0.37002409616947074,0.1829894663520021,0.07699987370988375
48,13869.75,11846.0,[10],1,0.2086804594369539,0.2514434324778967,0.33140703645481373,0.37279272135397395,0.26643618313781076,0.2497049750368382,0.29234106396421683,0.4372094005067129,0.5445807382776799,0.12508379672949768,0.2670976455955259,0.13889544528947642,0.1415807628296907,0.33053088243089135,0.16480660405486414,0.07347358097114298
48,68290.4375,54594.0,"[5,11]",2,0.16415569876752684,0.2381164050977185,0.36262480205466496,0.2776998059937541,0.2617292826933402,0.22245334588946677,0.2578767339424222,0.4023276705478091,0.18460123374986448,0.10094665966876161,0.24556718319450546,0.14627745966603772,0.12851328661177974,0.17370032357661203,0.19568162590720828,0.05625052688945373
48,16477.5625,12079.0,[12],1,0.27789804686248193,0.27578910988548877,0.5730295111186966,0.4432754144482382,0.4425210366511515,0.41126279289640094,0.20471271582091316,0.3488595087128691,0.6315230500418518,0.4326916892630221,0.3529260412765187,0.13712745665248938,0.3627194710389746,0.5106711469674067,0.36241938715111205,0.3205325614663749
48,23039.5,17033.0,[14],1,0.22574627328459532,0.3104241327095502,0.6163033067517769,0.3259956787966514,0.5439280628033893,0.3002571256723027,0.2590400179513963,0.3318790246985051,0.685310641700856,0.12895697050904686,0.249583499350334,0.09403447401931139,0.365396239986812,0.35427348815069765,0.21781787913529713,0.12997881634404965
72,179817.046875,138738.0,"[0,5,7,11,15]",5,0.1660421308442376,0.24367067017737176,0.3241113750528034,0.3045340845755888,0.26824326687104544,0.22688305501685702,0.25075086359098014,0.48651992720710013,0.17777998550301374,0.10343694941386185,0.24810059428957917,0.18698752886468673,0.15070173516171306,0.2643132351859061,0.20202683776052982,0.06455124557832151
72,197401.328125,154903.0,"[1,2,6,8,10]",5,0.172683839761931,0.3552346882236565,0.4513806572050627,0.33015255692592593,0.43594727449842685,0.2115254896572944,0.2733378163167991,0.3297718409468166,0.49005296991489083,0.12953625462562307,0.2576002469611522,0.10407451567482393,0.2633855201726855,0.30998937031348167,0.19525506109360266,0.0927883087473364
72,27165.046875,18588.0,[3],1,0.34093754902900913,0.2633490290190542,0.43832627058911,0.392006038281336,0.4066281988864899,0.25688082654926325,0.25585131654980164,0.33777983597301314,0.7679741144419937,0.4044511082691529,0.2793347748317264,0.10788368200754446,0.3701335755353232,0.42346348397306427,0.23055878861283707,0.13965861544975774
72,81693.5,61878.0,"[2,4,14]",3,0.2013795254101297,0.37460555933770134,0.4836996526276164,0.34115194256968534,0.48650831921343257,0.33013070184887,0.22932473478614654,0.3368682901649397,0.5499286304697276,0.1508573526141092,0.26901839359609864,0.10024354860837996,0.3182513993781384,0.36886624335873675,0.2158333227373857,0.11280623409913981
72,15400.390625,11281.0,[12],1,0.28646991846408726,0.2871150922926808,0.5460513961576714,0.4572457111441054,0.4331467924365317,0.4100143933603104,0.20925952065786876,0.358149049160462,0.6456819796432514,0.3839464367890508,0.35335911396277364,0.13633639756124494,0.35768284830994496,0.4898992313167569,0.35734665326122766,0.30753856618789815
96,122813.109375,84452.0,"[0,5,11,15]",4,0.18143826055665066,0.24275378747737383,0.33953938278284557,0.3075633339988618,0.26641131097388043,0.22578863588233042,0.2616492076691451,0.4919009045255469,0.17100729527985795,0.11041307075522958,0.25265314108127945,0.2098606172574897,0.15231713021442753,0.256995294246203,0.2035815967226593,0.05803614727726045
96,74110.39453125,41772.0,"[1,2,6]",3,0.18487701739768278,0.3505313743269864,0.46144928254172934,0.34070569065779355,0.41693114177662444,0.2535029937098862,0.278849032584056,0.346548397995655,0.46404792007199136,0.13833440422596113,0.2652144790676154,0.11029341413168295,0.2562391635618696,0.29816433397025627,0.18875510968293985,0.08649674332094096
96,28397.26171875,21606.0,[3],1,0.3634783523372417,0.25985313671052807,0.4548583398367092,0.42452435806302463,0.40413327438910396,0.2621490084485945,0.2785701016120699,0.36230850313395796,0.7717324265644391,0.39605064738807017,0.29492076950067114,0.1160241513606738,0.37460269690484443,0.46998290723800196,0.22318843244369554,0.12954178490419696
96,83876.375,63453.0,"[2,4,14]",3,0.2083360509339427,0.4219664996970506,0.511244185478869,0.3569069522706416,0.5371088393522643,0.3574046635039433,0.2572110550505895,0.35852185275968856,0.564395861411086,0.15924189073492856,0.2662043594935639,0.10105249676627233,0.36641644269538476,0.4396590842435789,0.21068394497632545,0.09955600776587885
96,28900.15234375,22307.0,[7],1,0.1786957967836069,0.2346334319012846,0.28010146315819656,0.3757311754842617,0.2718992799251796,0.22712274441466165,0.26648782795842363,0.6136721382644538,0.18774334742197274,0.12167715436372341,0.2555479178031266,0.31713924821093004,0.17303251344781287,0.4584961970591719,0.21603047900272104,0.05449791344259833
96,70601.328125,54868.0,[8],1,0.1639436289017301,0.43434242747917273,0.5040022343685111,0.3498355011778127,0.5516565600956636,0.10785019561123363,0.3439586780294667,0.3416859491029963,0.5590137335314864,0.1343343858763619,0.240206875261092,0.10259183438241909,0.36413904718638956,0.44067212815441115,0.19811586435255607,0.08127682155048467
96,11382.09765625,7532.0,[12],1,0.30261967294302955,0.28062676419415056,0.5560172023689975,0.4727830956672208,0.44319617014857615,0.4216813262736895,0.21573450156830204,0.3694021280572869,0.6491982473175187,0.40468354459033884,0.36726544154267604,0.14916556158584654,0.3766498714407992,0.5399701895039635,0.35948745945281296,0.30041175271408016
120,73784.0234375,50145.0,"[0,5]",2,0.18127762324242233,0.24122117335348164,0.33715215118325287,0.31440169748871044,0.2667372784473724,0.22327530961511421,0.26501637720699456,0.5199083139877767,0.16132840238127366,0.111376261150874,0.2549088921978062,0.23146468082842722,0.1533204291457948,0.2925352562789321,0.19985204899551384,0.05489935481239055
120,58416.5986328125,39889.0,"[1,2,6]",3,0.19007216009002617,0.34152374660639395,0.47388168801254166,0.3508369997385077,0.40907408152491714,0.2505552145457717,0.2864753540304988,0.35312651343543633,0.45828875302336447,0.1395631604600153,0.27109370269015504,0.11218539727118275,0.24819569677201636,0.3010123530578967,0.17876616139792792,0.08151379191914378
120,30796.3154296875,23697.0,[3],1,0.371262849333051,0.25859832901768814,0.4719757778394926,0.4523301846018086,0.4120304307685148,0.25826313381173277,0.28274497654251113,0.3791289871727574,0.7714171402169879,0.40553566064618707,0.3007612927516496,0.11820357972382263,0.3824285492837252,0.48868865519820714,0.2120393134008536,0.12554966892088276
120,116632.09375,95663.0,"[2,4,14]",3,0.20595929673595603,0.44797242700940504,0.5322891449742374,0.36557024047375053,0.5663406619823896,0.3764382549145013,0.26027327696949715,0.36725683635385387,0.5721652464160941,0.14703868328885952,0.26445224717193094,0.09820748561290833,0.38886147678290817,0.4725535652151531,0.1990571071249454,0.08994128747119952
120,25200.0380859375,17975.0,[7],1,0.17008476081073182,0.2293386614453923,0.28422852362749557,0.38997926032566976,0.27481463050511273,0.2305144908717943,0.2724752797521186,0.6228269658456584,0.18552786485539044,0.12211942642727155,0.2574566395206964,0.3307506068696483,0.17039003781908482,0.4804603943251343,0.21110694347313932,0.05076277891156414
120,105804.33203125,88154.0,[8],1,0.15651926772772187,0.45724878448533834,0.527287604839436,0.3608299339107192,0.5770682718988044,0.10347897016407835,0.35842919512419646,0.35112987491297104,0.5644115042584019,0.12086376937666753,0.2387826479344948,0.1009648203704682,0.3851259655656615,0.4739139209471166,0.18756181331426747,0.07375270393975446
120,47541.1005859375,37113.0,"[5,11]",2,0.17450455823211208,0.2507524854028748,0.38777701874054943,0.30813610294549143,0.2724475524838935,0.2287165985696485,0.265634190261869,0.4084432855306625,0.20641077919022494,0.11269106378646992,0.2600987665284388,0.15747104219956132,0.13696225614493843,0.19265809832379832,0.1976501890959746,0.058325889346717806
120,11773.5244140625,8928.0,[12],1,0.3218665517177152,0.27895267578086114,0.5748834274169519,0.4811245439843219,0.45776375718781287,0.4285680191412076,0.2118784266105984,0.3719885297351761,0.653905317816014,0.4125470829118575,0.3678862767446204,0.14736727362555657,0.38988646235602875,0.5582027633014583,0.33889801462831143,0.27947077709797813
144,73330.005859375,54884.0,"[0,5]",2,0.18961455557437223,0.23578121040802694,0.3369412518933184,0.3510096991454532,0.2646878931605507,0.2236986649628178,0.2742522491819454,0.5490812351813902,0.16641211334649367,0.1147003374253026,0.2543595025205625,0.2628764030547355,0.16407856576462923,0.32297651792532944,0.20146151445159446,0.053732248385524047
144,30963.149658203125,16359.0,"[1,2,6]",3,0.2044168569468541,0.32718335841003304,0.4828086254127513,0.3840321784550274,0.396756467796026,0.2550945055652844,0.3005139907097112,0.35880076395907495,0.45801374631368236,0.15660683750592244,0.2770187297503821,0.1214880107323126,0.2505980510906958,0.313792068539944,0.17484257327556124,0.08247158655609556
144,32005.078857421875,24306.0,[3],1,0.3672216943709778,0.25219447075438817,0.48016736721811343,0.4826994585265651,0.41997048071915066,0.25317323193610114,0.30812214976102614,0.3708669394080093,0.7548887829998648,0.43976662560627533,0.3047336517609186,0.12769973149670366,0.36856236746838117,0.5103577332653274,0.21549146182961873,0.13561870529096656
144,98976.7900390625,72550.0,"[4,14]",2,0.20476060530864884,0.45574358882870614,0.5245900156543458,0.3850031758303074,0.5726286028309748,0.38374756245225894,0.271803555734115,0.3716215595007874,0.5569254036782723,0.15211408481839114,0.2555101374216617,0.10383087843120903,0.3911051306535415,0.47803797811388526,0.1942346177023938,0.08259136442451494
144,30268.009521484375,23968.0,[7],1,0.16117373341470279,0.2208080838995852,0.25811401681360124,0.47875432616731367,0.2700720062923304,0.24102903235202697,0.28145163376740845,0.6495689174090292,0.19690593928659694,0.12420702917900295,0.25535497484452,0.3731001922220099,0.17443533988301027,0.5095221295035545,0.21087623424348906,0.04936749025174511
144,100205.0830078125,73754.0,[8],1,0.1613822744159411,0.45639745897994943,0.5222404736421202,0.38518869473334955,0.5753949863043119,0.10676644427991311,0.36959419197149795,0.3510030618477444,0.5527634540722844,0.13223815678756928,0.2335527773908375,0.10678138159606544,0.3826297890512871,0.4774883895566072,0.1850287178193818,0.07111733656250592
144,10934.8505859375,9475.0,[10],1,0.27275472116498195,0.24417893669645876,0.3777342779655554,0.5335407126462357,0.2644683515184781,0.2955555675617584,0.2646205920117009,0.4127337246652198,0.6279995509387332,0.1566564659354135,0.2804664353008148,0.21443724035961254,0.16163432775115544,0.5474118941858739,0.20524084506476584,0.07693804548389699
144,40151.275146484375,28266.0,"[5,11]",2,0.18185765536646206,0.24904810398224456,0.3973607966679418,0.34224750532113846,0.2711198642393377,0.23467375974591329,0.27343221606980916,0.4195006640284465,0.21255048884598374,0.1181686774126211,0.2616920891067015,0.17338360307753628,0.14559555349217562,0.20833747723877594,0.19663630554550135,0.05866303122011726
144,13899.381103515625,10956.0,[12],1,0.32538276081523987,0.26928312630267753,0.545721137773112,0.5087359374239137,0.46669274224761503,0.43118129164523344,0.22590510330460226,0.3855003303859994,0.6884327579835408,0.42746982312974374,0.3584076135393523,0.15500282997308718,0.3825281847273063,0.5765041761149927,0.3291297082640959,0.2517584253700226
168,55705.50146484375,37373.0,"[0,5]",2,0.1754014388466847,0.23631411992599863,0.33990021980146706,0.37673794632477525,0.26872067409807693,0.22619574394716152,0.27957433863460335,0.5450077051609641,0.18004587669054728,0.1150020860655785,0.25434285360404274,0.24074700857302958,0.1652351579665999,0.3120135311678033,0.2039556658686421,0.05796616436299765
168,122669.78741455078,114929.0,"[1,2,6]",3,0.18406770172709813,0.3093968941010554,0.45056114278656073,0.404882163805989,0.40825401232327935,0.2590687569962095,0.2866102938862525,0.3442462743485759,0.5088459028415824,0.1635236126507161,0.26836392271658926,0.1102281750449692,0.24719877808496807,0.29699320583215366,0.1768738911206478,0.09782039318651961
168,33366.26971435547,25365.0,[3],1,0.3425638838786461,0.25203214913602956,0.5057976609196024,0.5129815932301044,0.4458540105911775,0.2516220388667503,0.3278435240330721,0.3517865958700844,0.7212899421392517,0.42568691607715203,0.3043311207679969,0.12842935041142595,0.3720389333568834,0.5007076169714002,0.2234042260618064,0.15358368563444266
168,81382.755859375,55411.0,"[2,4,14]",3,0.20841518814096274,0.4285492214175085,0.5243636100487478,0.3993634342317959,0.5565270254969511,0.38060488519744534,0.2747522255823889,0.36342511127018984,0.5352118161262084,0.16502618842061906,0.26109578965351243,0.10378257411796482,0.36921748619989936,0.43789505286885333,0.20167657726889282,0.0940401749460329
168,28862.002380371094,21295.0,[7],1,0.15127286113691973,0.223245238640186,0.2580516978422592,0.48614552097915525,0.26834558707447603,0.2582321524256881,0.28753151320785636,0.6500469648708184,0.2036708341179019,0.12809029879323103,0.25561747464338785,0.3479779255772826,0.17367377833714362,0.4889230661618904,0.21570954380666957,0.05318799326965895
168,76357.27075195312,51306.0,[8],1,0.16182648697144647,0.4386346155061534,0.5223943592459216,0.39769303985441534,0.5678503096275629,0.1016446667066924,0.3699382902467391,0.343456867512712,0.5318134555630576,0.1419001995403076,0.23547105250878367,0.10709316312641684,0.3659132119197017,0.44403183637150584,0.1927341639860379,0.07996794115838177
168,10895.712646484375,8162.0,[10],1,0.2619071783708345,0.24585390410230457,0.3943994195794538,0.5430009316347546,0.26308054298134936,0.3099087499432431,0.2455601865192031,0.38211527493995734,0.619575871945002,0.16436211081698443,0.2843777511402634,0.2353182511087124,0.1593800016283083,0.5425220328850281,0.2508058043676778,0.09129628851603573
168,44563.818786621094,34526.0,"[5,11]",2,0.17322062309914793,0.2520074811463969,0.3995143928615216,0.36734803340381905,0.2896395133693219,0.23933864965826274,0.275294324873704,0.4028272147938051,0.2383383131665504,0.11811222867432677,0.26060895840842996,0.1550164834191952,0.15547406913250233,0.22189596956782148,0.18847515129275474,0.06601769517418604
168,18602.845275878906,15128.0,[12],1,0.32025384161150816,0.265681576845175,0.5447956507735596,0.5264656165206747,0.4609273672129528,0.4340221273542042,0.2365999532967847,0.3778230441047261,0.6891011073719387,0.42596909452348547,0.35124721498241923,0.1482143061821992,0.3659930366735002,0.5433176474302494,0.3253115567297489,0.24724930974089065
168,11782.784484863281,9648.0,[15],1,0.1659184558105002,0.23447478412975126,0.3267332704394817,0.5211935067024758,0.2936104164978265,0.1855379120609363,0.34346464430282725,0.6267001777823619,0.44832640966359305,0.12578442756460176,0.26533590007744334,0.26685758319700503,0.18696789517124243,0.4649984029730274,0.1959492161218908,0.06388031085025496
