time_in_hour,cumulative_size,size,pcore_ids,pcore_power,AF700 CD48_[R 730_B-A],APCCy7 Ly6G_[R 780_A-A],BV421 CD117_[V 440_F-A],BV510 SCA-1_[V 525_E-A],BV605 CD11b_[V 610_D-A],BV650 CD150_[V 660_C-A],BV711 CD11c_[V 715_B-A],BV785 B220_[V 780_A-A],FITC Ly6C_[B 525_B-A],PE CD115_[YG 582_D-A],PECF594 CD135_[YG 610_C-A],PECy5 CD3-CD19-NK11_[YG 670_B-A],PECy7 CD16-32_[YG 780_A-A],PerCPCy5-5 CD45_[B 695_A-A],_FSC-A,_SSC-A
-1,0,0,[],0,0.0,0.0,0.0,0.0,0.0,0.0,0.0,0.0,0.0,0.0,0.0,0.0,0.0,0.0,0.0,0.0
0,118112,118112,"[0,1,10,13]",4,0.2967080051730582,0.1632315881366826,0.4888138143626448,0.4878712617769656,0.3217964740839223,0.16316923347330925,0.0662402124170205,2.3228948148452275,0.7966342010972677,0.3686212167349642,0.17523301967624416,0.8632160725497846,0.5921042464271159,0.9305160614078083,69174.82470875107,13892.112706583543
0,125345,125345,"[3,4,8,12]",4,0.21725203306872976,1.8936100574494352,1.8576258533088654,0.6738635746539541,2.5986581676333196,0.05485967674020009,0.3432755376042138,0.6124267166141557,3.8323578321672014,0.5459368062786708,0.1268093568072035,0.13893335415054564,1.995814351166775,1.523149488635366,66300.04292153635,18818.807738641317
0,28762,28762,[6],1,1.944052226722757,0.2747730395313335,1.6076277694874839,0.8783787343369687,1.6706521061817754,0.3843928171545823,0.07037167707392111,0.7817825248244121,5.667095632883688,3.245457357381258,0.44379473211181564,0.1890925940477085,2.4073882925735317,1.8122537973019897,72976.8377720605,27588.548223350248
0,65062,65062,"[4,11,15]",3,0.5107985339061218,1.9347958883372796,2.289438717807634,0.7602520803694945,2.95268298933325,1.0298383179889934,-0.2676333307921732,0.8061363315452867,4.1532920912975255,0.6559799797731368,0.2074347604592619,0.11586767669299858,2.2568114307276113,1.7583251718207216,69504.79186007185,22224.963511727165
24,156089.0,126561.0,"[0,1,10,13]",4,0.27791666678465465,0.14898225963071088,0.5423256513943882,0.5523266120082142,0.2779001707855766,0.19256410106413901,0.04475524821255439,2.2542028542674455,0.7971717658259069,0.33403808774962385,0.16363265101319868,0.8159994660562278,0.5334771992805395,0.9095479806088136,71543.76951610946,15114.116689837165
24,144792.25,113456.0,"[3,4,8,12]",4,0.26366662474855773,1.6606674783198048,1.9437884272794146,0.7517683431347306,2.487371989519469,0.055581582627872717,0.36946173402408045,0.69686116935471,3.9096567945884453,0.5676196709267852,0.1053218712690045,0.14134093698385208,1.8518920667214522,1.4393980104201045,65866.68443925687,21634.64047281532
24,21395.0,17600.0,[5],1,0.18085394243982478,0.023708583746196776,-0.40015890227856676,1.0898156345875147,0.12240696339097124,0.7003371874036048,-0.2547235470203244,4.127303344367839,0.7854597387473748,0.36806358158448105,0.19767767123159397,1.8822978325543374,0.6842610380813235,2.174066561357785,74830.66136947885,13432.609114279014
24,31074.5,23884.0,[6],1,1.9624277777357741,0.3610179557756412,1.9132874199906733,0.9950850366458202,1.7295388216866225,0.44313548651628376,0.12220277915975553,1.0154474236350781,5.816155262361459,3.1935031904374918,0.4116264955590645,0.2172071746769939,2.440787369925541,1.8184238989042398,73552.62121675326,34418.790970087786
24,22604.0,18618.0,[7],1,1.3105781487126078,0.5654332125066541,2.8998039874358192,2.209467811958031,2.122405758870094,1.636790197763691,-0.6662140154729275,1.0937477315851116,4.497548612513297,3.2816926730335365,1.3526070764023963,0.49686669400327643,2.3425113140815768,2.411779998285703,118175.21217483588,98373.56290922029
24,73545.5,57280.0,"[4,11,15]",3,0.5444434808553935,1.863052037320438,2.3056595991937123,0.8083398413940936,2.9333024728909547,1.0497715339789735,-0.23770324265931686,0.8727081358852717,4.237839820206524,0.6916136209965255,0.1745754142843512,0.1171316991828174,2.1844406851336937,1.7190696438701154,68986.54400337217,24801.41278528235
48,167604.25,128582.0,"[0,1,10,13]",4,0.24864906764260342,0.17239581808262416,0.5165546472367102,0.5262316986140618,0.2976295786618586,0.19723926001131087,0.058980673417062146,2.1659976766516165,0.8804951594902887,0.3213516505201248,0.1550822200093256,0.7058436227918656,0.5425862086052432,0.808258044269839,68050.99500758504,15729.305145901615
48,143089.0625,106891.0,"[3,4,8,12]",4,0.1645329079699045,1.720711959734425,1.8281987880830157,0.6328184606584539,2.4499091310377303,0.065561742078033,0.31913127017350673,0.5762117090824068,3.8171325108169145,0.4043441729967101,0.08971536244296585,0.10518170997696064,1.8342119460978163,1.2660309956714062,63371.672730052414,19845.85087347246
48,18792.75,13444.0,[5],1,0.22340156904259012,0.052450851382171315,-0.3704893874266557,1.10586855391041,0.09987492535354026,0.7579139406486535,-0.29567337090766665,4.179298779965035,0.830978206256393,0.3476399517899199,0.19035885588856472,1.8212887659802464,0.7161956093939107,2.04926859560535,73240.81999707362,14110.274866637381
48,36642.625,28874.0,[6],1,2.038246938280568,0.32310778151641006,1.7479651001292793,0.9047996526944382,1.7853876346092812,0.466017787561273,0.09327654465938151,0.8418009257098023,5.80770392050414,3.131864026848835,0.3758167758467814,0.18616683077086016,2.5434251665017857,1.8001352660085261,71721.39910827894,32007.46212914592
48,17523.0,11872.0,[7],1,1.2207406048835912,0.5810763878260228,2.6819293658619823,2.145653338890322,2.0747905776621978,1.4571534372289279,-0.46807980245606595,1.041097371065888,4.245464405656197,3.1388151041096024,1.281270032000804,0.4656699362445089,2.3003832964603728,2.377516940153644,111331.79638189748,90489.85379215899
48,53321.125,39189.0,"[4,11]",2,0.3848958480199012,2.3498568195109995,1.9754094427583735,0.638276667957586,3.0283590246525507,1.0780849563282906,-0.3714487005302751,0.78919206982926,3.9360963406869716,0.4755574946597171,0.14121870990625673,0.06519837926924088,2.322444880408558,1.7103173663006477,65647.89583865702,19613.083557407896
48,19736.25,15482.0,[15],1,0.9717703455855233,0.6638107040819565,3.308054024935091,0.9797170702926077,2.933069985819247,0.7884035943536729,0.03502537340234735,0.8551911910095722,4.93787328902085,0.580637931335109,0.22126776877889576,0.12182681470644174,2.361291585394883,1.4495883130850584,72926.95826208105,36927.694977515945
72,180180.0625,138279.0,"[0,1,10,13]",4,0.24759519507804773,0.2562778342815659,0.4596852491797345,0.6513150443107909,0.38177196937291535,0.20355139434024938,0.020598801524689403,2.2458810680190355,0.8953807483319652,0.325685656097057,0.1717385599100334,0.6769621686074643,0.6166385462065579,0.8944070366446815,69059.92571181414,17409.999277805782
72,175672.265625,139900.0,"[3,4,8,12]",4,0.2912452817860809,1.5938357182654332,1.5820858477278832,0.9173063028404531,2.2521932699904137,0.14876994118834208,0.2407180248085421,0.7092433603178967,3.5623213787749246,0.5465280175204633,0.24007817257268904,0.1483715454141592,1.7104057217589719,1.3414898491586609,68196.64768013972,23898.81413587525
72,28499.65625,19339.0,[6],1,1.928850783917919,0.4122424967554581,1.3219566217849104,1.5395329482071736,1.7517065490099064,0.4247913816586537,0.058860146350447895,0.8818133134977639,5.563615373449087,2.9904078815231907,0.45848350913059077,0.21582025558093443,2.4278891597129686,1.9319073434229999,75786.86142924978,34929.07301294198
72,18065.75,13685.0,[7],1,1.3430920343657673,0.6947292275697974,2.485057506358688,2.2958375920924214,2.0442228168824266,1.558503514669521,-0.6072934399407361,1.1199396178014576,4.371578304364805,2.832113598623282,1.367427082223975,0.4578972847074263,2.3554685937184208,2.3830489877573884,117738.31028327039,95777.77811604775
72,48159.28125,34829.0,"[4,11]",2,0.4623014632317113,2.0600438616037913,1.7132398830157771,0.9354403758296788,2.80121795342605,0.9898300867654692,-0.2977651128881069,0.860486897550897,3.677554202315926,0.6368638943995742,0.3309069446258004,0.12512510879101169,2.126656641547548,1.7695429404596152,70618.47890431306,24638.913563519764
96,116125.24609375,82320.0,"[0,10,13]",3,0.39467930497832926,0.17192217000465204,0.3791453326338754,0.7482896671916439,0.30446986013710786,0.15008584016254933,0.14758070592858674,3.00096827084179,0.6809865120166102,0.3870597111421946,0.19887989651200533,1.1433631360911403,0.6736916604526214,1.1588093224936067,71372.70476532582,15260.288258673323
96,27732.76953125,16493.0,[1],1,0.3036073901223093,0.43780843601327657,1.0178232128482518,0.8067392537381814,0.596264626740767,0.27152988708895154,0.14069013559912547,0.7954998374003255,1.4546198780121022,0.44335404184974614,0.3034236876891079,0.2538298618686309,0.5920910383646144,0.5404597560867264,67043.6373621067,17834.658721793407
96,77046.76171875,41626.0,"[3,4,12]",3,0.38464407121842337,1.6188668727109379,1.6176383900279965,0.9995433903549098,2.186849345466024,0.3553249398305258,0.34434068761989645,0.7821411253665853,3.4824921238048763,0.615717073368495,0.28494598769000845,0.1651695979313209,1.7230665201817734,1.337494171367016,66190.22413772572,21807.29851286019
96,16728.046875,12230.0,[5],1,0.34825733346643983,0.10549020739052617,-0.43718057355233153,1.7071311713822652,0.2028734801692167,0.7633987170279202,-0.15183940299785714,4.24574831832839,0.8372689686823719,0.5031562461920677,0.26710543495905625,1.9911063553589314,0.803737879001632,2.3120049342433355,74870.7251724508,14228.38643558007
96,29583.9140625,22459.0,[6],1,2.1567867996101535,0.3805260413990723,1.4547455228083965,1.797589182148596,1.743200849166353,0.41543261377936314,0.2179502287233297,1.1095984382083532,5.653223847132029,2.9631855409151355,0.5689956039645896,0.2577787180847604,2.479692458213919,2.136161042487173,73391.64946744473,31712.79369991215
96,75270.43359375,59462.0,"[4,8]",2,0.20149682477582975,2.377839435173076,2.0799133403501604,1.0966827447992515,3.250841687697242,-0.32666573709034086,0.9510843618884697,0.8747898074935656,3.81198273237267,0.5517027011743175,0.10052606958270571,0.15890058194657264,2.4359973597935265,2.052760120673778,69328.48120238958,21202.744810314405
96,40364.69140625,35636.0,[11],1,0.636710727836469,2.6770961329670877,2.0166496667392004,1.0800703952183919,3.391978535002799,1.4996551553398858,-0.33866954754827905,1.2575128179614228,3.8577895559953537,0.6936753040522766,0.24875372978588528,0.10403897270123896,2.5898064050697553,2.199439481400157,69711.86441584694,21085.46457556253
96,15113.015625,11224.0,[15],1,0.9691549944679838,0.8827843264753761,3.1901917778306967,1.3783049626328463,2.9377491725101144,0.8939485706838519,0.3956755489269246,1.0658717810809253,4.591525345675503,0.810841341270674,0.3952017155641303,0.17250147921648418,2.322919636928229,1.6549493018708956,72138.97805389175,33663.273391209776
120,97109.3115234375,68078.0,"[0,10,13]",3,0.35406888182273843,0.1820838237219209,0.46364814413790567,0.7677883457037624,0.33101016660363314,0.13426462359244606,0.18398914167308833,2.990739640993765,0.6716586153416563,0.3916574483916625,0.22492076159059016,1.1620716690390738,0.6439759842314309,1.212223742397394,70898.31694101557,14571.201712551467
120,31820.1923828125,24887.0,[1],1,0.30630098584276544,0.43032410501999907,1.1522375138804533,0.8321543814183814,0.5312813124094036,0.26392425909427586,0.17303900960847285,0.7760861319157835,1.355776331491442,0.4580908322765237,0.35481118839334513,0.2640048223082234,0.5604857864641432,0.5298099217408652,66095.1057294995,16945.12797135832
120,75110.6904296875,55849.0,"[3,4,12]",3,0.3914228557377626,1.7664772563932432,1.8408859390439827,1.0669806164686855,2.3784333646082607,0.362691808997079,0.5050638490641024,0.7322777771910731,3.510465332233703,0.5891423187478383,0.3059574418847806,0.16931009142638198,1.8525876177873806,1.481911486815313,64440.43748131244,20131.97216550717
120,32913.978515625,25518.0,[6],1,2.2285128378169174,0.3896177969106849,1.6085838763387348,2.0826814556784403,1.8282340906398589,0.3708028191854287,0.24848519452699636,1.326503517532323,5.66574284885917,3.0289738715145678,0.6159416178078634,0.27781900126110104,2.5385456760155187,2.2696478984965975,70806.51418609741,30427.7208056012
120,108733.6083984375,89916.0,"[4,8]",2,0.11451632737627748,2.591754999639133,2.272810021514466,1.1811710059260867,3.4715723702113874,-0.39672626124650456,1.13312711373852,0.9101213469135474,3.867775549987561,0.43570727969824397,0.07729924935850185,0.15207881658594924,2.587819526177587,2.210348860244576,67141.76974034737,19522.14970217983
120,67668.1728515625,57577.0,[11],1,0.6123841265515215,2.832070961992856,2.1893596309906527,1.1820740503289358,3.5374262859674173,1.5272601332678961,-0.28792245081905454,1.358344419565368,3.9291468193878667,0.607634369192254,0.2578335569812431,0.09587819471731851,2.7076566745870534,2.335263281690809,67752.97526773904,19899.642667186516
120,19604.25390625,15826.0,[15],1,0.9500053331625578,0.8631531581769178,3.2583221469556194,1.5343894847985804,3.2019225688363044,0.9335928033628436,0.5960203683964784,1.1671512553781138,4.609977335027896,0.7299798058340045,0.377394832058807,0.16879196696328813,2.4526696778192636,1.8305879121978859,68887.42362158696,31131.971923344943
144,92319.32788085938,68042.0,"[0,10,13]",3,0.4153849299998047,0.12981469753291952,0.4595627311470505,1.137781128576989,0.32035627388557897,0.11543671853316706,0.2750014974294266,3.2789601106861337,0.7247077149651159,0.4177236951762996,0.21615137068697976,1.38155996568691,0.7231870204985315,1.3694779750487789,71085.0796384397,14382.443894167862
144,24652.048095703125,16697.0,[1],1,0.3559808035045151,0.399100078134655,1.1796081264607317,0.9761751833279542,0.5159476118246702,0.26823367653051866,0.22672096586742052,0.7844465405358685,1.299798019038243,0.4738525955576296,0.34878460264976585,0.29633937900814156,0.6291887021745549,0.5685276110374087,65901.13708450529,16174.912301485489
144,182148.5087890625,133147.0,"[4,8,11,15]",4,0.35754227590806686,2.5522129148333983,2.265613433668556,1.3609318692890175,3.4494279314413894,0.39659438678733827,0.6973728702560766,1.06075491170491,3.79650695018336,0.5667682280922831,0.09523906883163313,0.17175606608970584,2.5877891949467586,2.188456678034165,66721.9348631502,19472.629461816814
144,24946.7529296875,21054.0,[5],1,0.21555756071063348,-0.013272988955840948,-0.38780280631987774,2.8451097080184415,0.3097277410571415,0.7065489062685528,0.16375923784903046,4.484810827099075,1.311052018889094,0.5773962868567578,0.27051525677735855,2.3065136768610173,0.9069964322800047,2.5233529965954604,72271.13009846187,13547.078798417155
144,37182.49462890625,28954.0,[6],1,2.212831687292434,0.32918029689409467,1.7923771140354527,2.364481744950609,1.948044546260825,0.36573037537612585,0.5144321796703011,1.1447823278416736,5.516618172577766,3.3412067553228013,0.6423260157559412,0.33862015470841755,2.435539848714861,2.3945560332864306,70697.13358146485,32604.535153385932
144,16299.40234375,12552.0,[7],1,1.630894083016216,0.6398020291205677,2.5863089966953727,2.7273074981778875,2.442494516588727,1.6521682841708383,-0.06889484982612748,1.3411737895396243,4.722552035567001,3.0781821704451198,1.480185434585469,0.6590713282568126,2.521321885284796,2.8473579160993623,112733.03908526171,82024.84192983448
144,16427.997802734375,13671.0,[9],1,1.1668648026199289,0.17334246037305734,0.45277013072757777,3.5372938983633513,0.41147410641116844,0.4643907094076134,1.3243417514183222,3.052387408326558,4.517830649626347,0.6738022242817457,0.5992867378316662,0.7012630779206945,0.6957401826498001,2.4757172122123223,62944.546694835786,19203.29181357937
168,75999.83197021484,52920.0,"[0,10,13]",3,0.25781136909662794,0.12420258760602909,0.42489395573009103,1.3915316412000154,0.34719778083489494,0.13785977809851824,0.32716959884823327,3.295114648461558,0.8121048378251926,0.41113135910473886,0.20271677167160673,1.2394927064279329,0.7253306279775774,1.3471626970591464,71252.89034542636,15169.854228760296
168,38896.01202392578,32733.0,[1],1,0.2795074748176696,0.45322171610939144,1.0974817093495455,1.1707874179053634,0.8225114504209974,0.3079072184909888,0.22416781225165128,0.6931866192056919,1.7244516787671773,0.4847524615477766,0.2947240429388782,0.25887118252112995,0.7373273197565572,0.6624627523229709,63243.97048029038,18483.570669346696
168,126507.41815185547,111422.0,"[3,4,12]",3,0.35447282064675445,1.3361786966859714,1.686537616998732,1.5104271431776026,2.1588402021944284,0.36851680646682117,0.48882726331441617,0.7379364291557713,3.5933474118642663,0.7540921560911421,0.27683882952491246,0.1981251270312676,1.6820143560172043,1.3382266128748408,64533.38176284686,23765.079799174786
168,24304.688232421875,18068.0,[5],1,0.1600971199500154,0.02114538376528552,-0.3465307000087443,2.8201463907491857,0.3109713385594257,0.7665783713490166,0.2502157659661175,4.462245532050574,1.5275375487340304,0.6225741528129741,0.2839957691136421,2.114768416483302,0.926392573841542,2.4237363150180786,73747.61648815864,14854.523846315617
168,40122.62365722656,30827.0,[6],1,1.9831523395784527,0.312732295487395,2.0393998271885496,2.672377203830511,2.0974641028091434,0.3905606158108248,0.6906463929706486,0.9476486911695492,5.228552559501338,3.1914644104885257,0.6659624476950303,0.3458651565629087,2.4474943924596544,2.31418403631359,72437.5407811722,37756.803474436776
168,20455.8505859375,16381.0,[7],1,1.5519846773130708,0.5787861864020818,2.556929377581421,2.9289320624080726,2.373296516227249,1.668671918550589,0.04192680383614089,1.3458806764591769,4.786372911012479,3.106563972634156,1.4327712325766,0.6172512244884123,2.33999681501859,2.685165550659202,114020.2048588731,81666.6645163922
168,83212.85052490234,55900.0,"[4,8]",2,0.16906209659047255,2.464598158214651,2.2200189413133864,1.4378619367848011,3.399142083303532,-0.2098625017149074,1.1635676551959269,0.8092114632252212,3.55958030215174,0.5853132904828887,0.03959355330991343,0.1799903373252414,2.4428646251938564,2.0107231623472197,68261.82412093857,20605.70443729304
168,39256.760803222656,24410.0,[11],1,0.6477761908874091,2.6679157512380067,2.1219402578273754,1.370789023967205,3.451667532268949,1.570233379702202,-0.3615101742029547,1.314168540032933,3.6150955600288515,0.6884940826510396,0.18396670518094993,0.11104991120265151,2.519556896803257,2.1093568649240906,68224.97067515789,20552.82998958585
