time_in_hour,cumulative_size,size,pcore_ids,pcore_power,AF700 CD48_[R 730_B-A],APCCy7 Ly6G_[R 780_A-A],BV421 CD117_[V 440_F-A],BV510 SCA-1_[V 525_E-A],BV605 CD11b_[V 610_D-A],BV650 CD150_[V 660_C-A],BV711 CD11c_[V 715_B-A],BV785 B220_[V 780_A-A],FITC Ly6C_[B 525_B-A],PE CD115_[YG 582_D-A],PECF594 CD135_[YG 610_C-A],PECy5 CD3-CD19-NK11_[YG 670_B-A],PECy7 CD16-32_[YG 780_A-A],PerCPCy5-5 CD45_[B 695_A-A],_FSC-A,_SSC-A
-1,0,0,[],0,0.0,0.0,0.0,0.0,0.0,0.0,0.0,0.0,0.0,0.0,0.0,0.0,0.0,0.0,0.0,0.0
0,140447,140447,"[2,6,7,11,12,13]",6,0.30809159440927947,0.18277380633264073,0.4074238308828053,0.5721977447934008,0.3586050359637394,0.24186452761540367,0.010624841491813974,2.4075627766417265,0.9203544366914239,0.388184925701506,0.18856460766693584,0.9512483747178659,0.6415014194322423,1.1171949085776087,69416.63277962495,14168.248065106389
0,140580,140580,"[3,4,8,10]",4,0.3207525798691131,1.820364969725417,2.0111962964646533,0.7379516422535137,2.720584549708335,0.20733566448996754,0.22112783584436047,0.7006118124982232,3.997978444892586,0.609092103521126,0.1434701906743472,0.15842376454687734,2.073726873908092,1.6560877106629632,68434.65050505032,21010.100099587366
0,27690,27690,[9],1,1.9121017755507286,0.27475646244131546,1.583217393246644,0.8947434845431466,1.626683633333342,0.42175058407368127,0.046358501336226876,0.7756953397255413,5.615233015131823,3.1646404154568337,0.46048210845070203,0.20139889212712236,2.3625902409895225,1.8027487401950129,73655.72322137958,28427.274539544913
24,194581.5,153204.0,"[0,3,4,8,10]",5,0.39909536597775475,1.6322231025020395,2.050816305181882,0.8090558056058854,2.5712936369952977,0.35955820969748453,0.16344577412548755,0.7793889131469336,4.083091716045712,0.6485341970780859,0.14122136119054485,0.16839144850229704,1.9311538646081403,1.5771897263524557,68364.43612573635,23944.161598096365
24,189562.75,154451.0,"[2,6,7,11,12,13]",6,0.29788709362467447,0.16101385135792246,0.48691067417516054,0.6462652624196981,0.30416909407834813,0.27302863006312816,0.004210551684090458,2.352162858228974,0.9129088508765594,0.3594548943608371,0.17678418231562976,0.9213376660921022,0.5694366379088197,1.105229834829096,71851.35079544899,15403.617261302523
24,30564.5,23642.0,[9],1,1.9405139032292527,0.3613243615714343,1.940888668839683,1.029837416897053,1.667008111395604,0.49543728077508975,0.0907742318539504,1.0032250854503983,5.759997835209188,3.1266704447316123,0.44208263088713595,0.2405882190695139,2.393147591625927,1.838355408954836,74763.27006821625,36170.314711511295
48,183283.375,134638.0,"[0,3,4,8,10]",5,0.32506737842834843,1.6890474548380405,2.02628750873714,0.6837265509358068,2.6107281807188145,0.33825274334926525,0.12862938128730894,0.6668980046492194,4.014612285170104,0.4551397777195424,0.11418257869336923,0.11238585624684982,1.9800344667025258,1.3966197066840493,65615.48801684819,22196.51548865232
48,198269.8125,151870.0,"[2,6,11,12,13]",5,0.2689244109494706,0.18368993523063049,0.46825923481258913,0.6068640290566747,0.3105506492160188,0.26916485911685695,0.01724147639943885,2.2369119612488415,0.9512901065987477,0.3351272606341046,0.16521216219847812,0.8076833461265118,0.5683724160832592,0.9678310690612,68674.7159757367,15811.315118886301
48,36433.125,28792.0,[9],1,2.0093557654418337,0.3250049560204529,1.7452433181805644,0.9191644636354153,1.7757114986756508,0.465114321131179,0.09337042272312912,0.8418416919235572,5.795239891927013,3.1041173468100642,0.380956645825405,0.19307003850033622,2.532347202719024,1.8084929308219018,71953.67720995657,32387.936417751534
72,265367.265625,203400.0,"[0,3,4,7,8,10,13]",7,0.3895170579368594,1.3392790142871043,1.5498859776185179,0.9524202129720463,2.0120626247386606,0.3319349017086872,0.11346197030472194,0.8345533436735288,3.334995133095614,0.5750822908495038,0.27578329746575614,0.19683173055120173,1.568945937090271,1.304195886558634,69063.8086458598,24858.164896350845
72,157001.5,120448.0,"[2,6,11,12]",4,0.2572192853014059,0.18872498632418688,0.23770140291225017,0.7091450471772016,0.2986377028336471,0.24040880490663374,-0.02898304527057949,2.7204675712762896,0.7161345653994596,0.3229839457932129,0.15332085345372048,0.8862771906836799,0.6412542873768233,1.1393957544862165,70943.10302767812,16695.418527848225
72,27597.28125,18489.0,[9],1,1.8976427698273148,0.4294660027091939,1.3682561002153761,1.5302054770267484,1.695147390390002,0.4518458373962275,0.03920344054157798,0.8886092064237836,5.525035270743902,2.9246117197413626,0.4672073449711398,0.2271563014421708,2.394143417334452,1.9126983198593968,76446.05531568476,35695.243784204344
96,226965.81640625,160624.0,"[0,3,4,7,8,10,13]",7,0.4588962673802919,1.7429307635054396,1.8161631538467806,1.1216078391775914,2.4768003937345795,0.3500163817655648,0.403190870541708,1.0081734619306628,3.5496777690148273,0.6465020849323909,0.25196217184540526,0.20929060980763337,1.944521198971274,1.6784888657064168,69067.72261000413,22626.98983074082
96,136177.375,96927.0,"[2,6,11,12]",4,0.40515014951133854,0.1674851892621403,0.2800031576415205,0.8749886186093452,0.3083313294250112,0.2341849680013839,0.10999195653086558,3.0217363517319358,0.720033816266408,0.4082040068283179,0.20470837686052645,1.2124465416173624,0.6885570471298724,1.3187408366624176,71550.04177088907,15004.433137296048
96,28221.3203125,21322.0,[9],1,2.113950723889924,0.38263853825566185,1.49181388498929,1.8242417509129178,1.669330083303464,0.4348667829205153,0.25666522942374215,1.1518699099756744,5.597933998174742,2.879435457425975,0.597298794197179,0.2705763249237536,2.4401963702864267,2.1225176532707586,74291.49674905065,32776.4234365139
120,149502.685546875,108171.0,"[2,11,12,13]",4,0.34259454327381933,0.26231498542694176,0.5678110683862432,0.9282208812474879,0.4212153580068887,0.23715686601387342,0.17020718248989475,2.569060499877116,0.9400888721061461,0.430553843027768,0.2664603713886642,1.0248752476341325,0.6648297651887592,1.1889596632482993,69752.82130788453,15188.99695267012
120,229622.98046875,188825.0,"[3,4,8,10]",4,0.41072302999157473,2.3013886320473658,2.223213354693922,1.235764420619982,3.237343692032287,0.3284169375463215,0.6061571123770952,1.0923893092683805,3.923832132614202,0.5776628808900931,0.20243785510428847,0.15366216159738766,2.457973981813447,2.095039102754956,67240.11037862443,21232.795008897298
120,30047.330078125,22992.0,[9],1,2.1902699178203306,0.38211639330854563,1.65117049111296,2.1018451181446385,1.736146132931383,0.3842791541376511,0.2890516325936314,1.3311314477507463,5.611013587607282,2.9953381886106714,0.6414788513725185,0.28969253690863583,2.5011846799834947,2.2374650213070773,71571.133207876,31789.566249028918
144,115931.50024414062,82988.0,"[2,11,13]",3,0.43496260612705884,0.2252089370942909,0.640737384225027,1.0922507378922086,0.3693149445991848,0.26963828591579864,0.21903009052068168,2.6360026653075828,0.9182368823996515,0.4431401256611799,0.26083592079713025,1.0864737046824917,0.7151471319715464,1.1639762121236088,69557.20784757155,15018.034551564837
144,173835.01049804688,128926.0,"[8,10]",2,0.348794304085132,2.592876515938272,2.1665758644425632,1.382102008760103,3.395048866806532,0.30023005389983126,0.7053852882867169,1.0906780944171,3.766380538150884,0.5941448111796283,0.09267985857118122,0.18856248393585973,2.5589744813850004,2.2105229604303402,66845.84599511977,19211.408317184403
144,34321.83251953125,26810.0,[9],1,2.1661115061652563,0.32805074295186465,1.7842434818299275,2.3554583553046773,1.8548283969623705,0.36838113036168463,0.5270559382645468,1.1674343928513347,5.461900761832578,3.27488298427062,0.6643705541758527,0.35785647839247603,2.392848176702641,2.3616546792553152,71745.02598278674,33751.0615399702
144,71868.41674804688,58487.0,"[11,12]",2,0.35375682933150054,0.06545167566076193,0.09731816102674307,1.871563977203588,0.35902430084671977,0.26722341035916153,0.26625479330260093,3.874629045948331,1.0194086434227931,0.4878752531945326,0.2302416291254299,1.824128533566718,0.8361808720582417,2.023356098505302,71907.98932159017,14081.011326978292
168,223921.61297607422,184849.0,"[0,1,3,4,8,13]",6,0.5058291305387432,1.2532186961926373,1.784918972415571,1.5724848397889648,2.048450173415415,0.6880678109295373,0.3014105043001343,0.9702307298711839,3.2562380907655863,0.7841258053507877,0.331859147437664,0.23946436497351908,1.6329985957077642,1.3884700047676948,65678.97023909996,24307.57195930758
168,68391.00805664062,46624.0,"[2,11]",2,0.30959432905053386,0.12306028722586992,0.40707644138923316,1.3363806359742574,0.27825510149241683,0.304151186459066,0.21592336380437205,3.175871792273485,0.7429606443995967,0.4094586170484492,0.21150503899233453,1.1855644761751898,0.7021245644779003,1.279797276549173,71049.75621249061,15034.518895732825
168,35629.45812988281,27049.0,[9],1,1.9494634719985118,0.3130424574439643,2.0344910276522437,2.658717289666679,2.094318419192278,0.36592289333674644,0.742707968695997,0.9676008694145928,5.189066795922349,3.1489878288297106,0.6745231793653388,0.3709916141348115,2.426573941096502,2.3275826679788163,73773.41024639693,38770.61720521206
168,200902.18627929688,150211.0,"[3,4,8,10]",4,0.39110042329443884,1.8839078253237789,2.006866897179569,1.5626929789457136,2.8721587148892582,0.24642328722178908,0.6902668561616978,0.9630582262040428,3.6552677114310463,0.729533608778174,0.1811200391341643,0.20707467397277746,2.1251190190540257,1.7796815917075899,67085.07399105687,22979.339698093176
168,60701.10418701172,42734.0,"[11,12]",2,0.1988220052354246,0.06831225293755194,0.05887671651647741,2.109132721138709,0.3619719803002104,0.33119821437174957,0.33648029964386206,3.944556709477572,1.1599357207505774,0.5073962475628396,0.23169659764925843,1.7061046063352063,0.8299378065059339,1.9965813296391957,72791.46136134019,15011.951590911714
