time_in_hour,cumulative_size,size,pcore_ids,pcore_power,AF700 CD48_[R 730_B-A],APCCy7 Ly6G_[R 780_A-A],BV421 CD117_[V 440_F-A],BV510 SCA-1_[V 525_E-A],BV605 CD11b_[V 610_D-A],BV650 CD150_[V 660_C-A],BV711 CD11c_[V 715_B-A],BV785 B220_[V 780_A-A],FITC Ly6C_[B 525_B-A],PE CD115_[YG 582_D-A],PECF594 CD135_[YG 610_C-A],PECy5 CD3-CD19-NK11_[YG 670_B-A],PECy7 CD16-32_[YG 780_A-A],PerCPCy5-5 CD45_[B 695_A-A],_FSC-A,_SSC-A
-1,0,0,[],0,0.0,0.0,0.0,0.0,0.0,0.0,0.0,0.0,0.0,0.0,0.0,0.0,0.0,0.0,0.0,0.0
0,129709,129709,"[0,4,5,6]",4,0.3233294304635761,0.1642022158678187,NA,0.5560506406186212,0.3539712080117696,0.23798171601816387,0.0011647876168923155,NA,NA,0.4082746742091864,0.18405617080541514,0.9578067629617062,0.6491873417341848,NA,69699.74006429783,14434.671086817314
0,183376,183376,"[1,2,3,9]",4,0.40459952005715283,1.6555987266381615,NA,0.8059923919324259,NA,NA,0.12074190581102373,0.7874494114824113,NA,NA,0.22794970347808752,0.2094979114278852,1.9776777817107898,NA,69990.11848878786,23737.739115260385
0,14810,14810,[7],1,0.6260613116137754,0.596772049831173,NA,0.9625615257258597,0.9974850020931623,0.424067815124918,0.18505980661714538,1.0259923623227465,NA,0.8575755178933132,0.48432424442943844,0.41567155327481053,1.0554570998649564,NA,68522.91154625267,25577.442268737315
0,31870,31870,[8],1,1.7972248391904644,0.36308868691561536,1.924139106965757,1.0735441338562892,1.7948436788829754,NA,-0.14295656611232666,0.8353641425164771,NA,NA,0.5783729474427317,0.2425310673360559,2.418008731032322,1.90731457191716,80242.74816441801,37184.419705051776
24,274049.0,144340.0,"[0,4,5,6]",4,0.3151519956321689,0.15821210974680744,NA,0.608527567763423,0.326736550025744,0.26146371432845994,-0.003360799773019174,NA,NA,0.3900358374013335,0.1788254289086968,0.9319585324595319,0.6076365653623982,NA,71285.41106152568,15404.676156453805
24,351336.0,167960.0,"[1,2,3,9]",4,0.4305501565168415,1.5553895483269646,1.984199738421355,0.8587432262107741,NA,NA,0.12082719445490442,0.8265594206343749,NA,NA,0.22067244930493457,0.21957109041771927,1.906258705646438,NA,70560.31513992263,26112.26978163328
24,31209.0,16399.0,[7],1,0.6339511918677225,0.5935136157518568,NA,1.0155732541253921,0.99727449072383,NA,0.17664997048927944,1.06202698625395,NA,0.8398869634400296,0.4707304356756179,0.41351978698451664,1.0412896294338232,NA,69529.10455317367,27316.616617001473
24,63171.0,31301.0,[8],1,1.7887738888414069,0.4088059524148915,2.0784175048044164,1.1611853552421225,1.7885330355859925,NA,-0.10992804600211681,0.9652909049564435,5.506203119706881,NA,0.5721839059536493,0.26566142730050235,2.392396514824832,1.9042205129252106,81201.53969384672,41787.83403777121
48,344390.0,132813.0,"[0,4,6]",3,0.3188454808008454,0.1926421792531685,NA,0.5580994947995044,0.33184752706815646,NA,0.04009525149105064,NA,NA,0.36696358348965186,0.18023754497515654,NA,0.5676342980487282,NA,69020.84878190432,16052.311112401583
48,187270.0,46469.0,"[1,3]",2,0.5907480111229741,NA,NA,0.8639353887755288,NA,NA,NA,NA,NA,NA,0.2857372923746464,0.18073715914455335,NA,NA,NA,NA
48,303252.0,92717.0,"[2,9]",2,0.2869156326421629,NA,NA,0.774298862731309,NA,NA,NA,NA,NA,NA,0.1349985320756586,0.19913096868940705,NA,NA,NA,22989.223906189894
48,89107.0,26635.0,[5],1,0.25367344628364186,0.09600635173444605,NA,0.8706030839327661,0.31399316186161164,NA,NA,NA,NA,0.40461633652798923,0.17792419249892744,NA,0.7134588020245335,NA,72976.04040086592,15173.21440515363
48,40345.0,9136.0,[7],1,NA,0.5588502504399404,NA,NA,NA,NA,NA,NA,NA,NA,0.476017678745849,0.3768536340562658,NA,NA,NA,NA
48,102687.0,39516.0,[8],1,1.7970917761644258,0.3948331407870316,NA,NA,NA,NA,NA,NA,NA,NA,0.5790611522295728,0.25932437000788877,2.423519038106081,NA,NA,NA
72,497335.0,152945.0,"[0,4,6]",3,0.3049789081263199,0.22282482511584112,0.5664710707511444,0.6284191618245609,0.356512852296734,0.26662816519045807,0.02090955635342029,NA,NA,0.3614939952969326,0.185254539266273,0.7021909695034554,0.5979612382780185,NA,69265.78619240559,16846.475619049234
72,567323.0,177954.0,"[1,3,9]",3,0.45543695906390536,1.5728669631285737,1.9296029337062577,0.9232512768634185,2.496604537602035,NA,0.12635128238411752,0.7911238384324508,NA,0.7427817871142081,0.2424249802599494,0.1892198824673158,1.9580490902343066,1.5955372589794727,71007.694565529,27258.896001042805
72,112219.0,11066.0,[2],1,0.39097346734509997,1.3095477801531183,1.6268418031171188,0.8153306305082206,1.8487263107762817,0.4881168894126908,0.03846443715414205,0.772567194173905,3.491336597777574,0.6216223940330844,0.2514285299013861,0.22057932079237463,1.4924943582369825,1.2775065897307694,66780.9913116316,22813.207460412366
72,94255.0,5148.0,[5],1,0.26064861536254624,0.11510880276909408,0.20800071834916922,0.8820959171714886,0.3403058761339173,0.2810584402312759,-0.06329336217704151,3.472861561614743,NA,0.4110702855763575,0.18215316821390415,1.4855914562410248,0.7274835080155021,1.849514146496224,73111.71303379115,15279.769646172883
72,40345.0,0.0,[7],1,0.7013490722518227,0.5588502504399404,NA,1.0358277617300748,0.9026414479613418,0.4747559201388023,0.1542689217251203,1.0163320856611562,2.157271239608394,0.8051804398562447,0.476017678745849,0.3768536340562658,0.9930625704052528,1.089676864047578,68025.94978312068,28107.743512207217
72,115574.0,12887.0,[8],1,1.7754810994946724,0.42394376940314205,1.97847028814436,1.2481865892069486,1.7805056709726848,NA,-0.10512973990686225,0.92138844638934,NA,3.00127700576254,0.5895920882551424,0.26199585532213654,2.401707465537222,1.9092368745825168,81535.43405956423,43841.28748680476
96,580905.0,83570.0,"[0,4,6]",3,0.33206180422960396,0.23400897998120707,NA,0.6639880121448565,0.37111796982810397,0.2671101316222022,0.04564392559371955,NA,NA,0.3801427712328054,0.1990711737254811,0.7371743904493917,0.6185856996376372,NA,69471.22091219752,16838.978242569494
96,684495.0,117172.0,"[1,3,9]",3,0.47582839954274636,1.6495362510039917,1.94523419677869,0.9871338346050638,2.5620700409484685,NA,0.19797359662964187,0.8541081264611243,NA,0.7607876796893888,0.24883042538516342,0.19731104923630816,2.0220135944090174,NA,71067.08196845825,26882.883340271885
96,141828.0,29609.0,[2],1,0.40448310040330093,1.3857667676269574,1.6490980438911937,0.867825772217031,1.9513391338593373,NA,0.12077333427109371,0.8398096114942102,NA,0.6190816694728699,0.2520323791987833,0.22384770916179597,1.5649225754293643,NA,66627.38573483331,22382.27667315343
96,130350.0,36095.0,[5],1,0.33180574736475843,0.1391400332259427,0.26189494978136185,0.9943551395627379,0.37844279769852873,0.2719912207824957,0.00915153454545381,NA,NA,0.45292365856539396,0.207535133417736,1.5051827171691383,0.761209555205229,NA,73170.47186804767,15329.089006520948
96,44256.0,3911.0,[7],1,0.6905745347975236,0.6380675246972114,NA,1.0587460469766712,0.9946563404736248,NA,0.17973176590745377,1.026641959327522,NA,0.8091290582745857,0.4774268003208917,0.37194530009490534,1.0528123049304048,NA,68292.82140274771,27862.89370932756
96,141355.0,25781.0,[8],1,1.8053675860139176,0.4477264780163166,1.939776187393369,1.3783884471437275,1.7969427790880568,NA,-0.040408596017087905,1.0011303961091005,5.39853660095515,NA,0.6139941382406437,0.27849895148385706,2.4021580906582427,NA,81121.94392840768,42863.8731137913
120,669053.0,88148.0,"[0,4,6]",3,0.3391859609896326,0.24817867913300162,NA,0.6874845100672227,0.38306897936187134,0.2665171707383309,0.06293432506693941,NA,NA,0.38791097086926174,0.21191969043856096,0.742289435641138,0.6218012954250308,NA,69333.37507193058,16725.1606076048
120,870096.0,185601.0,"[1,3,9]",3,0.4773394176597008,1.7790759916871082,2.0092641799226825,1.0627155797578305,NA,NA,0.28036745054335865,0.9249716488353656,NA,0.7390901428003157,0.24704302740845963,0.19697705909578433,2.1266980918001943,NA,70476.66891009704,25957.80533642126
120,221685.0,35601.0,"[2,7]",2,0.4888569024697136,1.22290539285471,1.808154161318979,0.9652430834923327,NA,NA,0.1749478006540559,0.9220148087917073,NA,0.6671807612377848,0.32228710888877465,0.26262377033176765,1.452374320815558,NA,66478.75405192004,23357.91040440265
120,153533.0,23183.0,[5],1,0.33481470289120874,0.13954324686551844,NA,1.0690799742270762,0.39212559516847545,NA,0.0291267153250363,NA,NA,0.4633858836276198,0.21898268036188773,1.5415960475662964,0.767661686171701,NA,73007.09429243224,15168.70030547172
120,168822.0,27467.0,[8],1,1.8477359569901692,0.4680474521092939,1.9379356448330163,1.5268985560412642,NA,NA,0.0032446436424429237,1.074689960301403,NA,NA,0.6503429208101226,0.2966817891803213,2.4174416688701665,NA,80744.30413097859,42529.732475624936
144,740690.0,71637.0,"[0,4,6]",3,0.3534488223224266,0.2512030629210469,NA,0.7518200493337517,0.3890084494943924,0.2718132670361366,0.08542098318864833,NA,NA,0.3973880305809381,0.21775526384719468,0.7690659615129389,0.6366321960685347,NA,69248.81826405184,16636.09246513353
144,1020139.0,150043.0,"[1,3,9]",3,0.48824662199470126,NA,2.0190652988014244,1.1532890462182213,NA,NA,0.35074276138448335,0.971194665268249,NA,0.7578788645262932,0.2354926335744345,0.21249672694407062,2.174564608766043,NA,70174.05645309109,25321.31546779306
144,256438.0,34753.0,"[2,7]",2,0.5295450969669,1.1870197615953555,NA,1.0940363817764815,NA,NA,0.2306870707773303,1.0103439943494754,NA,0.7048686894921875,0.33551600768610257,0.3008139672591359,1.4546589471490097,NA,66223.12661929938,23250.375810137408
144,193424.0,39891.0,[5],1,0.3502647206551317,0.13262689996073007,0.27758831671869544,1.2827680823631384,0.39987904557865495,0.2731987816454855,0.07037908162378637,NA,NA,0.4803551926906553,0.22477968016899386,1.6079633280771537,0.7865122813404627,NA,72994.90148068557,15078.006783025712
144,194843.0,26021.0,[8],1,1.8573934152317382,0.4626838870372181,1.927738294816852,1.6720896599722863,NA,NA,0.051515902675498104,1.1117485093229305,NA,NA,0.6839520351052215,0.3276981679762714,2.3961406722335097,NA,81025.20679726743,42704.59362666304
168,823521.0,82831.0,"[0,4,6]",3,0.34588429344120963,0.26116786606047215,NA,0.8231869230705762,0.41665306075498076,0.27514682881430885,0.10035497492352752,NA,NA,0.4010957460343979,0.21961973998840367,0.7653843475224258,0.649751253228524,NA,69062.8980681737,16688.358829950455
168,533474.0,55975.0,"[1,3]",2,0.667534504532546,NA,2.106706752687089,1.274398651626861,NA,NA,-0.02321064060102529,1.1018626658262751,NA,NA,0.3493815559707998,0.21643498436473685,2.247353668656749,NA,72250.03445341322,28099.75680914103
168,359533.0,103095.0,"[2,7]",2,0.5461700826349902,1.062347851938446,NA,1.3205612947072556,NA,NA,0.27409090309651907,1.0274048979342476,NA,0.7901815499995833,0.37087705212039435,0.31997268667410494,1.425617463996351,NA,66413.53871828156,24743.104950032153
168,215160.0,21736.0,[5],1,0.31920956560233193,0.12251598094444294,NA,NA,0.3969924586261522,NA,0.09833849129951266,NA,NA,0.4826658713747769,0.22434784002143493,1.6261521067809919,0.787116717559006,NA,73135.01870236157,15094.170068785623
168,230564.0,35721.0,[8],1,1.8502811884379187,0.44080930054993006,1.9454623401701716,1.8567651703994588,NA,NA,0.11248824814366198,1.1185661696058924,5.319445238792711,NA,0.7063601450183201,0.34823496726723224,2.387506217332251,NA,81060.87541853893,43071.0051525812
168,603282.0,60642.0,[9],1,0.321727387845242,NA,1.9507484198052683,1.1705826928584657,NA,NA,0.762855842806474,0.8852242798908003,NA,0.6816532150900959,0.13244257439304707,0.2182299885791268,2.1181404827260546,NA,68489.98453128063,23049.28818031834
