time_in_hour,cumulative_size,size,pcore_ids,pcore_power,AF700 CD48_[R 730_B-A],APCCy7 Ly6G_[R 780_A-A],BV421 CD117_[V 440_F-A],BV510 SCA-1_[V 525_E-A],BV605 CD11b_[V 610_D-A],BV650 CD150_[V 660_C-A],BV711 CD11c_[V 715_B-A],BV785 B220_[V 780_A-A],FITC Ly6C_[B 525_B-A],PE CD115_[YG 582_D-A],PECF594 CD135_[YG 610_C-A],PECy5 CD3-CD19-NK11_[YG 670_B-A],PECy7 CD16-32_[YG 780_A-A],PerCPCy5-5 CD45_[B 695_A-A],_FSC-A,_SSC-A
-1,0,0,[],0,0.0,0.0,0.0,0.0,0.0,0.0,0.0,0.0,0.0,0.0,0.0,0.0,0.0,0.0,0.0,0.0
0,128747,128747,"[2,10,12,13,19]",5,0.30179972530622634,0.15787551559259416,NA,0.5461304036288288,0.3230340524283988,0.23535452634235465,-0.0017026620892202082,NA,NA,0.37324897415085645,0.17709980735085162,0.9731062141020734,0.6301692056047893,NA,69544.05374882519,13944.06232378225
0,171717,171717,"[5,6,7,8,14,15,16,17,18]",9,0.36483870740229674,1.710760647571286,NA,0.7602961958920771,NA,NA,0.14655330452430482,0.7513864902368472,NA,0.6644102113943285,0.19364748522859676,0.18644875719352094,1.9796327378652028,NA,68542.19200195659,21790.566758096193
0,14552,14552,[9],1,1.7887804536146292,0.316597254672895,NA,0.8553370470038537,1.79819489815831,NA,0.29702143375482315,0.7474774654342915,NA,NA,0.39592420155304,0.20382328367234637,2.341743679631678,NA,72535.24354040691,27120.892798240788
24,104932.5,86627.0,"[1,12,16,18,19]",5,0.42339505475424244,0.5651207034569778,NA,0.769629768777544,0.867472104538634,0.38976148340123373,0.07445497075261542,NA,NA,0.541696971388752,0.2736310874681367,0.43418546847020634,0.8711601538536663,NA,69297.93030757862,20972.773316179366
24,125287.25,102094.0,"[2,3,10,13]",4,0.29045493404556577,0.11704335558286472,NA,0.6438899759831909,0.2466672755966708,0.27254228840325134,-0.02279041779390134,NA,NA,0.3367210338362515,0.1546848120279538,1.0827202992782436,0.5762731746845767,NA,72144.50211015106,14836.808182795861
24,33597.0,26382.0,"[4,9]",2,1.887062860456288,0.4016870850150327,1.995270037175929,1.0503378054811416,1.729222807586976,NA,0.06287120485458342,1.032865743496429,NA,NA,0.44755686096229885,0.24942564855492877,2.379670187390239,1.8445884082284094,76299.95440069053,37502.848944846184
24,162399.5,125474.0,"[5,6,7,8,14,15,17]",7,0.39466608385801716,1.645775040999196,2.078923197405168,0.8276290079295405,NA,NA,0.16079635859254449,0.8018456592123235,NA,0.6836792576716638,0.14594833965775678,0.188192471942644,1.9746536751837178,NA,69822.0139840332,25230.131472079673
24,16989.75,14082.0,[11],1,1.2844752761959406,0.5554047164172577,2.793572091496357,2.0812921771803814,2.0042928718933495,NA,-0.5098796627672582,1.0747842268279308,4.554420199429071,NA,1.21510559597698,0.4921453553613191,2.2218320552686186,2.3484615129416344,109392.16880766352,NA
48,184876.6875,141367.0,"[2,10,12,13,19]",5,0.26030102479457806,0.1625500166989582,NA,0.59791216570098,0.2804150822450193,NA,0.023841696586270444,NA,NA,0.325706358913899,0.16220852892855975,NA,0.5673924449296831,NA,68690.02935808248,15632.545385150257
48,35154.25,26755.0,"[4,9]",2,2.017813309334925,0.33365752712154606,NA,NA,NA,NA,NA,NA,NA,NA,0.3808428815132685,0.19639621063242652,NA,NA,NA,32507.97920592809
48,186559.0625,142253.0,"[5,6,7,14,15,16,17,18]",8,0.32703523275135904,NA,NA,0.7247480531396757,NA,NA,NA,NA,NA,NA,0.1434615022658714,0.14486878619036647,NA,NA,NA,21825.619047587086
48,41639.0625,28003.0,"[6,8]",2,0.620639255015949,NA,NA,0.7549008925257992,NA,NA,NA,NA,NA,NA,0.1781413978310713,0.08795040029869816,2.3720990696671476,NA,NA,24840.257150362086
48,15725.4375,11478.0,[11],1,1.2353703211079379,0.5666503623945371,2.634550051874563,2.0770577598755238,NA,NA,NA,NA,NA,NA,1.2172864424797383,0.4584580795804555,2.257041070701547,NA,NA,NA
72,202432.546875,154660.0,"[2,3,10,12,13,19]",6,0.28318903343336044,0.2717258438711454,NA,0.7456104603352132,0.40932510162001545,0.2589097716951787,0.00037693335775168535,NA,NA,0.3550922965612855,0.18717637992864056,0.7470321108075881,0.6615108834438114,NA,69720.10194939168,17851.096623466157
72,50562.53125,34833.0,"[4,7,9,11]",4,1.6102636897594562,0.5332249615862499,NA,1.702460316914821,1.804122731859246,NA,-0.07543178417844265,0.9614691019263795,NA,NA,0.6848910161677852,0.2993550621532354,2.270983843074879,NA,NA,NA
72,215518.34375,167729.0,"[5,6,8,14,15,16,17,18]",8,0.38434668038553177,1.5118937999581643,NA,0.9745356096591657,NA,NA,0.10000895801546994,0.8129414205528134,NA,0.6006775375251544,0.2808904396650096,0.1840179608777499,1.732916881188702,NA,70331.68091521217,26032.39547213709
96,164751.13671875,114143.0,"[2,3,10,12,13,19]",6,0.41383945513309883,0.24287184211638335,NA,0.8889025470797036,0.3973700539375362,0.252992054524787,0.11561904087751973,NA,NA,0.4312707818243654,0.23373488380043828,1.0419034472404405,0.7060559802257612,NA,70905.15722171965,16042.249268433694
96,47545.6328125,34905.0,"[4,7,9,11]",4,1.8420228359548687,0.4510487770652367,NA,1.9286838207538533,NA,NA,NA,1.1718043737629702,NA,NA,0.7775756917728396,0.3600768259149403,2.3191306322342258,NA,NA,NA
96,190475.5859375,136596.0,"[5,6,8,14,15,16,17,18]",8,0.4434045287427979,NA,NA,1.1410597308680912,NA,NA,0.4301375380664174,1.0314135769415138,NA,0.6669179870143297,0.2401645211001675,0.20096990124874425,2.1246977108255045,NA,69608.3920085723,23406.5837417238
120,149442.7841796875,108255.0,"[2,3,10,12,13,19]",6,0.38774882457616,0.25475411923962454,NA,0.9523148794710266,0.424649645376975,0.25577755928304113,0.1548399873820907,NA,NA,0.44316520631170353,0.27215005073336185,NA,0.6721847388732581,NA,69847.82807796341,15414.876812353366
120,46287.3076171875,35632.0,"[4,9,11]",3,1.9984301691125619,0.44078417618152965,NA,2.1802986144842706,NA,NA,NA,1.3324060772246726,NA,NA,0.830821166895714,0.37712950813378143,2.4304036493014487,NA,NA,NA
120,247495.9970703125,198646.0,"[5,6,7,8,14,15,16,17,18]",9,0.42878246858357083,NA,2.124935050305219,1.2520677906679105,NA,NA,NA,1.1279879891103448,NA,0.5951929754708593,0.23053048223864847,0.19141557946646304,2.338383029095736,NA,67447.5191976846,21623.384744247378
144,146300.69018554688,109777.0,"[2,10,12,13,19]",5,0.40625551460669307,0.17931172263008577,NA,NA,0.38951366017868017,NA,0.26852814498682687,NA,NA,0.4633116086750201,0.26304318508677316,NA,0.7528358134220544,NA,69942.5474670555,14889.325223490601
144,50589.826904296875,39018.0,"[4,9,11]",3,1.9588790933751599,0.35454702843434394,NA,2.502890046886803,NA,NA,NA,1.3394608125081677,NA,NA,0.857180010237593,0.4597810026634209,2.2876770565597226,NA,NA,NA
144,198599.47021484375,144825.0,"[6,8,14,15,16,17]",6,0.41430304791552763,NA,2.1089993756061003,1.456274398849037,NA,NA,NA,NA,NA,NA,0.13713369554291122,0.22221955675476468,2.458515024885062,NA,67219.80430580385,20228.7865606349
168,144177.17254638672,107602.0,"[2,10,12,13,19]",5,0.2816651097634453,0.2401603228877791,NA,NA,0.5432781501524389,NA,0.3312956643818823,NA,NA,0.4721095719791113,0.259998135860501,NA,0.7873994299998192,NA,68965.37080266526,16543.50272669569
168,63192.65051269531,49581.0,"[4,7,9,11]",4,1.6931375967375313,0.3823423724053794,2.1062742062050366,2.705346219790733,NA,NA,NA,NA,NA,NA,0.8378207126080808,0.4336946183650905,2.2594192177885946,NA,NA,NA
168,182693.75616455078,151926.0,"[5,14,15,16,17,18]",6,0.36751937922009725,NA,NA,1.672259470331309,NA,NA,0.7048206842849258,NA,NA,0.7674273481849888,0.23501723579574296,0.26909220182491844,1.7939523052347028,NA,66756.37628322894,24078.355130134674
168,58726.049865722656,36186.0,"[6,8]",2,0.6435781599262966,NA,2.1483861866656055,1.5414932905269714,NA,NA,NA,NA,NA,NA,0.253655198578294,0.19247287911605437,2.434555436141388,NA,69900.36404819663,23577.897248211313
