time_in_hour,cumulative_size,size,pcore_ids,pcore_power,AF700 CD48_[R 730_B-A],APCCy7 Ly6G_[R 780_A-A],BV421 CD117_[V 440_F-A],BV510 SCA-1_[V 525_E-A],BV605 CD11b_[V 610_D-A],BV650 CD150_[V 660_C-A],BV711 CD11c_[V 715_B-A],BV785 B220_[V 780_A-A],FITC Ly6C_[B 525_B-A],PE CD115_[YG 582_D-A],PECF594 CD135_[YG 610_C-A],PECy5 CD3-CD19-NK11_[YG 670_B-A],PECy7 CD16-32_[YG 780_A-A],PerCPCy5-5 CD45_[B 695_A-A],_FSC-A,_SSC-A
-1,0,0,[],0,0.0,0.0,0.0,0.0,0.0,0.0,0.0,0.0,0.0,0.0,0.0,0.0,0.0,0.0,0.0,0.0
0,168115,168115,"[0,4,5,6,7,12,13,16,17]",9,0.32041309877762125,1.8160761620022035,1.980279094411554,0.7120102414121354,2.65277501164084,0.3209161265264837,0.17371006444993453,0.6815892914493147,3.9034188935728475,0.585236836623738,0.15408799390892503,0.133225130910387,2.0314532727418744,1.5618304111292916,67052.13131487367,19840.011420753584
0,121583,121583,"[1,2,9,14]",4,0.37126301858812694,0.17543991270162307,0.751475626872165,0.5245188098829594,0.30782968704506164,0.26076950904320073,0.04064513884342835,2.144277787453839,0.8367370775766351,0.4074037156345842,0.21145552838801507,0.7910873349481373,0.5918672651275286,0.8966873233675734,68832.94565852109,15133.573081763008
0,106755,106755,"[2,9,15]",3,0.28163999247810634,0.11591358401950114,0.2033438599878017,0.5555014549107775,0.260055257308788,0.22828906874618915,-0.0188315857617809,2.9975772305653194,0.7293704610463235,0.3380575208093277,0.16120271589151924,1.1796320579176567,0.6344455773593737,1.2546393095780013,70193.0273991848,13705.66819352718
0,15997,15997,[18],1,1.8715726141151252,0.2961568124023253,1.4817911605300975,0.865810633493779,2.055161608864164,-0.15329109389260331,0.37185112927424857,0.777326868850404,5.715527900418841,3.169994074826533,0.38737930805775234,0.19349691660936286,2.425072054510218,1.9982373861973992,73559.62442958052,26020.830905794875
24,194314.875,171821.0,"[0,3,4,5,6,7,12,13,14,16,17]",11,0.43387862192163307,1.487020702708688,2.099337466342322,0.8364851462767584,2.336077221218264,0.37024199115482626,0.16912861981165506,0.7896242372946221,3.874510411984009,0.6220588669421204,0.16144020724223962,0.18675590302273493,1.7705263040258736,1.4984779570568063,67349.43177149977,23676.959038776553
24,131101.25,116812.0,"[1,2,9]",3,0.3091144884478654,0.14743190698410036,0.5913338959115575,0.5340164121013404,0.24682318533098702,0.25641439975400293,0.005379922548421234,2.0656515902470236,0.7802007343427354,0.32867173665392446,0.16266388849649616,0.7548323630209484,0.5050034134848115,0.8520121704741548,72011.18701766744,15249.848739047124
24,35305.0,30736.0,"[8,10,18]",3,1.7965682710133104,0.416307949578675,2.1104031062951445,1.230296701377286,1.844485886524557,0.6402257276872925,0.0638872046593959,1.04737230679437,5.546859989112747,3.16001456284874,0.5565544449582269,0.2732436434853417,2.4065685724047503,1.9454146330512636,79922.56077042894,43031.4543549071
24,123819.375,110475.0,"[2,9,15]",3,0.2665160492340253,0.1004978824820455,0.2433978768720615,0.6432218058149233,0.21218416172144972,0.2641409981091385,-0.027893981246862598,2.967736984911478,0.7068702281700686,0.3192747606685147,0.14897016793111284,1.1621378151753254,0.5639616463205009,1.2830601762022238,73077.38854278653,14733.913880602322
48,184738.0,161334.0,"[0,4,5,6,7,12,13,14,16,17]",10,0.3838146631564878,1.5030742544858375,2.02876236069461,0.7432999007943883,2.3138061904158858,0.35334229334441125,0.16436179999385248,0.7472039345137613,3.804415804599801,0.47251864314283665,0.16080225635478262,0.11279715583995986,1.811455426439243,1.289015541734866,63847.03296019234,22592.12403511993
48,135220.65625,118833.0,"[1,2,9]",3,0.2770797784127679,0.1675220219243556,0.539387135515184,0.5072488271507942,0.25888177612458785,0.2558195911707828,0.010273422041442881,1.9864183325263047,0.8316574481083164,0.31424357583957885,0.15327505922355966,0.6556162925038527,0.5131937247070192,0.7621657382730551,68234.09277012777,15937.458749021542
48,45135.421875,39075.0,"[8,10,11,18]",4,1.7802653990072177,0.41252142030598105,1.9593591181766556,1.2978720507580133,1.9413253112245141,0.7756820310890811,-0.05773516691678049,0.9026872306942963,5.281847811741187,3.1165871983330082,0.6581842940193563,0.2739441161023406,2.4928640586391593,2.0236322051271345,84279.78049114002,49538.74210353769
48,114778.421875,99301.0,"[2,9,15]",3,0.2610560046128314,0.11129588058487583,0.20542047826293652,0.5925337322538007,0.19998070751620256,0.26389819018601846,-0.027461630949773053,2.997890336236333,0.7036638743406322,0.28904496542944635,0.1309027795330855,1.0811292428336492,0.5976507098880267,1.164276159944331,70561.99309675393,15165.003983898941
72,245788.83984375,215015.0,"[0,1,3,4,5,6,7,9,12,13,14,16,17]",13,0.3917123771172786,1.2740781330693984,1.5590331988088324,0.9656262810673062,1.881415343962105,0.32725826101559075,0.10917092540572515,0.8451073763954882,3.111695355237836,0.5398788055970215,0.2824768273358589,0.21141361778191636,1.4673949978140994,1.2645837512375526,68753.02051444937,24188.055745958136
72,161011.05859375,141817.0,"[1,2,15]",3,0.23668072458611622,0.229851044514084,0.3131339652937406,0.709894649894677,0.33088404489183576,0.2469730853529588,-0.023605705177028202,2.467124621615927,0.8246923304344117,0.31763923119971305,0.16744343685208296,0.767215662870923,0.623111741971096,1.0039326988351553,69743.10765407179,17148.01889534401
96,189250.02416992188,160024.0,"[0,1,4,6,7,12,13,14,16,17]",10,0.43674663712428274,1.821177921618533,2.0102676362197456,1.0713787322591384,2.5339913021439266,0.35460136953181487,0.4190741046587432,0.9667930603761903,3.326116118376902,0.6245545111063874,0.24061287808560694,0.18936250374463293,1.9853285501437847,1.6391706926515215,68306.62928262749,21857.983204048145
96,129205.142578125,108676.0,"[1,2,9,15]",4,0.4055177161271992,0.18619490129826222,0.37440091982173795,0.8749053175418764,0.3069113423274157,0.2339272543161901,0.1107876601497022,2.828485858599331,0.773484618224794,0.41241931505112794,0.2263643858054043,1.1695792050352747,0.6674966690656577,1.2296065159151703,71609.51303901656,15018.907730625071
96,29522.533203125,25901.0,"[8,10,18]",3,2.1137697750207503,0.4283992752834318,1.5617097012497712,1.9356594783236658,1.8543204622443672,0.4839746152079134,0.40709810509705635,1.1858552354126273,5.458177215961261,2.8938698323081318,0.6827156466419484,0.3143344038389959,2.4955372523406036,2.2495953266869586,76294.36948803092,34688.08131236082
120,259473.25302124023,235817.0,"[0,1,4,6,7,12,13,14,16,17]",10,0.3955327046352155,2.0151198825402936,2.1678737510712893,1.1438048270069774,2.7674744960412476,0.36827867234354206,0.49466030912230385,1.0344440007019484,3.4231017620056665,0.5335001484949126,0.23649592256871,0.17231569964808058,2.1399472407356024,1.8083836012799142,66272.53903480465,20356.044870553935
120,118039.64282226562,101889.0,"[1,2,9,15]",4,0.3409176684553694,0.20177069940865522,0.5091660008143624,0.9247942930350086,0.3359564095576215,0.237914128197928,0.13198956911154758,2.6312644056770758,0.789564986466435,0.41634719724112357,0.2590073256478562,1.1097713852380764,0.6180608617393205,1.2490464570066064,70544.82088113221,14520.677946465084
120,40717.225036621094,36257.0,"[8,11,18]",3,2.073499492467758,0.5016447302022153,1.901336860042353,2.234503146231473,2.054239417052307,0.7027440563871006,0.0669250253968734,1.3519634061528216,5.351396493924052,3.0236530266481694,0.8794919463984607,0.36807931740998245,2.566986792181317,2.4454749865450345,83004.75831657495,46737.94020560111
144,101460.81378173828,85955.0,"[1,2,4,14]",4,0.4872450078381261,0.29431021007916947,0.9160765125541639,1.09995684048425,0.462251891465693,0.22135408394649891,0.29305353294684977,2.3989359501857255,1.0691596645632435,0.4814849651242463,0.2904460493938448,0.9736093954668161,0.7785503269694992,1.0995785636177615,68381.56347350283,16105.629623493305
144,154860.47509384155,132966.0,"[6,7,12,13,16]",5,0.32725342104778976,2.57791852845014,2.244313388056858,1.3633081051803284,3.455769088403722,0.3646298499574294,0.7253793673258002,1.0541097644696134,3.7289740536901097,0.5581327437478486,0.07434316324868906,0.17066509217985026,2.583066906550605,2.161319790685444,66495.08913658193,19031.93083063651
144,48473.66389465332,42595.0,"[8,11,17,18]",4,2.008623779592309,0.4088576888794333,2.1051028931148124,2.4647640067559595,2.069902662958658,0.7116415996894068,0.36750375443635663,1.2058367777666792,5.262677628250183,3.212564081900416,0.8632745416412364,0.42025567161005917,2.4186130723602615,2.4749345075945133,81477.5023434055,46204.90444449746
144,100482.28379440308,89383.0,"[2,9,15]",3,0.40867345277326317,0.08022543631650958,0.2573670816074456,1.6737459479134489,0.3067358636886208,0.25843622284652024,0.2293695914205327,3.4962298759902524,0.8649042777331389,0.45844326807215785,0.22616771581906026,1.6546657568205778,0.7600863849656395,1.7502266866408898,71730.20826617841,14164.054362568068
168,260331.33639240265,233564.0,"[0,1,3,4,6,7,12,13,14,16,17]",11,0.42519414985686854,1.411710541172316,1.8298470814979741,1.5639296100171114,2.2383457497483286,0.3764392803261176,0.4664198739846057,0.8901324946907949,3.2925160280065313,0.7326270092716057,0.25376079245995387,0.2404860342064148,1.7223162868192543,1.4780874443490908,66299.58918892346,23412.824317232098
168,112520.4944190979,97428.0,"[1,2,9,15]",4,0.24595428338414727,0.16217265279863824,0.4308160934039966,1.6948881532379532,0.4131375196552489,0.31826711922060413,0.25189559975705844,2.781554018648552,1.1089984760944969,0.45638224055033094,0.2358642391160477,1.168534961117991,0.727551368356666,1.4281753242839537,70719.634493166,15957.938965865926
168,48100.081641197205,42464.0,"[8,11,18]",3,1.8215921453906205,0.4006295298207281,2.2470579916165723,2.7669847587699548,2.2219995754112625,0.8236065248287538,0.43395128516771875,1.069076448307559,5.060917610875592,3.2052148375369613,0.9222646672455559,0.42550093179975423,2.4130186180030706,2.4339599823059195,88022.76258229211,54391.85337502381
