time_in_hour,cumulative_size,size,pcore_ids,pcore_power,AF700 CD48_[R 730_B-A],APCCy7 Ly6G_[R 780_A-A],BV421 CD117_[V 440_F-A],BV510 SCA-1_[V 525_E-A],BV605 CD11b_[V 610_D-A],BV650 CD150_[V 660_C-A],BV711 CD11c_[V 715_B-A],BV785 B220_[V 780_A-A],FITC Ly6C_[B 525_B-A],PE CD115_[YG 582_D-A],PECF594 CD135_[YG 610_C-A],PECy5 CD3-CD19-NK11_[YG 670_B-A],PECy7 CD16-32_[YG 780_A-A],PerCPCy5-5 CD45_[B 695_A-A],_FSC-A,_SSC-A
-1,0,0,[],0,0.0,0.0,0.0,0.0,0.0,0.0,0.0,0.0,0.0,0.0,0.0,0.0,0.0,0.0,0.0,0.0
0,79952,79952,[0],1,0.29208376134429836,0.14841376226987357,NA,0.4134856169076264,0.2902557995672552,NA,0.08683894266563152,NA,NA,0.3570857117895634,0.1544299511206506,0.7824514451420845,0.5376037735141156,NA,69639.89273564129,13439.580548329088
0,78817,78817,[1],1,0.14204349986677256,NA,NA,0.6881937349683769,NA,NA,0.6471383399520141,NA,4.060602725351194,0.5099026278214195,0.046218645723624,0.15209718010073947,2.1199478583553915,NA,NA,20000.55987921407
0,72777,72777,[2],1,0.5157221239814835,NA,NA,0.7396864867059811,NA,NA,NA,0.787420941300149,4.061043350138089,NA,0.24888000039847036,0.12901175200955872,2.153356703601424,NA,NA,22440.6924165602
0,39684,39684,[3],1,0.5933089330460695,0.57738691097168,NA,0.8789131921429116,NA,NA,0.21982816049291243,NA,NA,NA,0.44054543801029533,0.23975804520714006,0.9183171325723253,NA,NA,22168.60235863327
0,45492,45492,"[4,5]",2,0.2883749625208818,0.07998675112107811,NA,0.8132787106963915,0.28415176235382056,NA,NA,NA,NA,0.39989642414050697,0.19484275716608757,NA,0.7457614102259732,NA,72595.89272839183,14568.844807878291
0,43030,43030,[6],1,1.7182321373692628,0.3451055596328052,NA,NA,NA,NA,NA,0.815346929886124,NA,NA,0.7165152830118546,0.28479763829886684,2.379133806925388,NA,NA,NA
24,111600.0,91612.0,[0],1,0.2912030993884567,0.14138825195568305,NA,0.4706223938776959,0.2427033601142794,0.21926308469083722,0.02716240490142141,NA,0.6897069091913032,0.3267546789538458,0.15318614455198176,0.6816548389560939,0.4793307128494727,NA,72299.20344086032,15092.90322580639
24,86640.25,66936.0,[1],1,0.1845856217433708,NA,2.0904225887650525,0.7420997120882324,NA,NA,0.6621293931746282,0.6331986724933971,NA,NA,0.002013677361257127,0.15822304049214964,2.0339607990858597,NA,67878.82426470348,22060.682050202257
24,79249.25,61055.0,[2],1,0.5640449786117958,NA,NA,0.799590014426002,NA,NA,-0.3995566007817182,0.8559382242891997,4.208731512692524,NA,0.21152291643453225,0.14083510666662213,2.0783166504477735,NA,69147.2880815905,24894.906134758614
24,60449.0,50528.0,[3],1,0.6253108875208984,0.6016176877326416,NA,0.9821963124989441,NA,NA,0.19983781508795406,NA,NA,0.7008630076428118,0.40507985335573427,0.24591930370230697,0.9580765962919074,NA,64020.758788399835,26206.7805919039
24,60667.0,49294.0,"[4,5]",2,0.24740234918077975,0.07657208768357959,NA,0.9221065254874978,0.25286192368585025,NA,NA,NA,NA,0.3838624066420008,0.1807035483087973,NA,0.667779727998748,NA,75062.5561837575,15026.283943494727
24,51332.5,40575.0,[6],1,1.7027583596892566,0.4241453079384305,NA,NA,NA,NA,NA,1.010878497954523,NA,3.242611760697402,0.7681563622266339,0.3381937168850091,2.3837468971314664,NA,NA,NA
48,122630.0,94730.0,[0],1,0.2720496517812723,0.15783201634645083,NA,NA,0.262187273466457,NA,0.0440132050945774,NA,NA,0.3152178233125176,0.14732059190244584,NA,0.4977224999143842,NA,NA,15637.765897414964
48,75478.0625,53818.0,[1],1,NA,NA,NA,NA,NA,NA,NA,NA,NA,NA,-0.012732982547085214,0.12029070563383837,NA,NA,NA,21104.582964090052
48,66420.3125,46608.0,[2],1,NA,NA,NA,NA,NA,NA,NA,NA,NA,NA,NA,0.08361460366886664,NA,NA,NA,22997.298303888725
48,82276.25,67164.0,[3],1,NA,NA,NA,NA,NA,NA,NA,NA,NA,NA,0.32048622503913915,0.2128701083286646,NA,NA,NA,22934.095270506627
48,57437.75,42271.0,"[4,5]",2,NA,0.08963808578635435,NA,NA,0.22270443283489305,NA,NA,NA,NA,0.3441248306198852,0.16336492918528833,NA,0.6762912242667086,NA,NA,15157.656488981458
48,55528.125,42695.0,[6],1,NA,0.39789615721649385,NA,NA,NA,NA,NA,NA,NA,NA,NA,0.2853982436467992,NA,NA,NA,NA
72,121419.5,90762.0,[0],1,0.2697594870303479,0.23666686442574303,NA,0.5728732690984595,0.3358587273320799,NA,0.01866325031137972,NA,NA,0.3289613285197315,0.1767570755789043,0.5307508491137711,0.5440576094294917,NA,69095.65227990536,17907.884318416556
72,73722.515625,54853.0,[1],1,0.1934888263030743,NA,NA,0.9647408615509532,2.7800190369777575,NA,0.6292355059345076,0.6408151692840818,NA,NA,0.15991166421727732,0.1656472981418321,2.0106039440367773,NA,NA,25470.041032664518
72,53380.078125,36775.0,[2],1,0.6221582348953723,NA,NA,1.0056109372905015,NA,NA,-0.48099987520450593,0.8917543835990522,NA,0.6707160413333048,0.3747839432855171,0.12193908208732751,2.1539299285149913,NA,NA,NA
72,111138.0625,90569.0,[3],1,0.45685802934510744,1.1094971212820437,NA,0.9959364421404859,NA,NA,0.09103414031548818,0.7484922085441368,NA,0.6048589366384894,0.3435985611699697,0.18361460964458398,1.2524396570151541,NA,NA,25652.55048422322
72,70996.4375,56637.0,"[4,5]",2,0.25606189898062337,0.16831745124492903,NA,0.9980466308694824,0.31482260681412866,NA,-0.0792159169936153,NA,NA,0.367326119236398,0.18069432178661815,1.2772369957007157,0.7613002843087185,NA,73908.55029873892,17509.70196215829
72,44286.03125,30404.0,[6],1,1.7529766864054317,0.4743233275782388,NA,1.783998470736758,NA,NA,NA,0.950449055829897,NA,NA,0.7295105933600659,0.3041174221499069,2.3862055350593816,NA,NA,NA
96,87520.875,57166.0,[0],1,0.37578535705762306,0.23179452831436276,NA,NA,0.335430008256008,NA,0.15024901859465345,NA,NA,0.40847849869017616,0.2429569504825757,0.6938242577098537,0.5689334427475764,NA,70175.92874842676,16760.605078502653
96,79118.62890625,60688.0,[1],1,0.19546804001650786,NA,NA,1.1207892770363288,NA,NA,NA,NA,NA,NA,0.09635214610458576,0.17306202684072503,2.3518231707790016,NA,69403.01331569473,22288.917829827285
96,65269.01953125,51924.0,[2],1,0.6338842514463816,NA,NA,1.1396843118405284,NA,NA,NA,NA,NA,NA,0.31066571438899127,0.1275801332221813,2.4757673986907185,NA,NA,25047.336630624053
96,61914.515625,34130.0,[3],1,0.6048704470947173,1.0590853036032666,NA,NA,NA,NA,NA,NA,NA,NA,0.417046238283572,0.2352876778667068,1.2921054505900846,NA,NA,25004.507361838958
96,75912.109375,58163.0,"[4,5]",2,0.43881785445087473,0.15230970177303993,NA,NA,0.32092473224160223,NA,NA,NA,NA,0.4587397366419277,0.23063627861194158,NA,0.7847394772833537,NA,73634.99053078458,15376.776865515654
96,45138.5078125,34067.0,[6],1,1.976074026309928,0.4314689405293164,NA,2.0001529617744693,NA,NA,NA,NA,NA,NA,0.7961428782485287,0.35971805795392253,NA,NA,NA,NA
120,87680.21875,65800.0,[0],1,0.37691707011700126,0.2825751574618436,NA,NA,0.38696068405915307,NA,0.19970167725916577,NA,NA,0.428841414335704,0.30115459582370807,0.6266971214387793,0.5575646298727811,NA,68749.79672652739,16437.602164399184
120,108922.6572265625,89143.0,[1],1,NA,NA,2.2974020690487955,1.2229880279535896,NA,NA,NA,NA,NA,0.43721537431115454,0.07905996960835715,0.15919337631267794,2.5339380974282384,NA,NA,20810.335813880913
120,95952.2548828125,79635.0,[2],1,0.6145424257415022,NA,2.373862956604017,1.2436804908648278,NA,NA,NA,NA,3.9365753257718246,NA,0.3131887390842407,0.11689169611978834,2.6376579229752393,NA,NA,23451.44912629444
120,55422.62890625,39944.0,[3],1,NA,1.0911090205740774,NA,NA,NA,NA,NA,NA,NA,NA,0.45368425880108676,0.24978860209481668,1.340663176084898,NA,NA,23620.694656183674
120,65701.02734375,46723.0,"[4,5]",2,0.3893900626065139,0.14176508156007106,NA,NA,0.34766487929112344,NA,NA,NA,NA,0.47214169861235356,0.2573447166890821,NA,0.7588358441756767,NA,72700.51578888106,14663.503734453343
120,50039.626953125,38755.0,[6],1,2.0823221778466774,0.44672507052609545,NA,2.2268227905295617,NA,NA,NA,NA,NA,NA,0.7973943722002428,0.36380589724152146,NA,NA,NA,NA
144,66913.0546875,44993.0,[0],1,0.4364077255476224,0.3045689210434541,NA,NA,0.4389870586341189,NA,0.30927220008641676,NA,NA,0.4808339929743798,0.31322928123266935,0.665501397498683,0.6549418934510748,NA,68003.51168021047,16493.813464791274
144,98740.66430664062,71510.0,[1],1,0.12951560764624248,NA,2.2454075782407164,NA,3.431673149589026,NA,1.2914636492280076,NA,3.7926953557136422,NA,0.011346092345676961,0.18999011187479642,2.5286377507801365,NA,66981.58137694371,19761.096994412565
144,90095.06372070312,66107.0,[2],1,0.6024399555898272,NA,2.2889628959865003,NA,NA,NA,NA,NA,3.7837180889481368,NA,0.23502693937151076,0.14632217964582295,2.600411698281637,NA,68121.88466314037,22155.33634753055
144,35235.6572265625,21380.0,[3],1,0.8635542945413268,0.7609537403398243,NA,NA,NA,NA,NA,NA,NA,NA,0.5214907289477941,0.44999515722882133,NA,NA,64335.57528419197,22921.29349017869
144,35617.646484375,28849.0,[4],1,NA,0.05102550862333066,NA,NA,0.5607395070808647,NA,NA,NA,NA,0.5627324998175974,0.2617050139268233,NA,0.8929963495000292,NA,72281.03715399612,15031.896958555208
144,57052.6103515625,47396.0,[5],1,0.5302701067269031,0.083269080851605,NA,NA,0.19112967378650447,NA,NA,NA,NA,0.450986687468659,0.2397024635942948,1.5864640543990274,0.7576118010591256,NA,71635.06212736452,14073.578932602946
144,54619.90673828125,42110.0,[6],1,2.0653342715221683,0.3897206191312197,NA,2.5582794433859584,NA,NA,NA,NA,NA,NA,0.8208991355788893,0.4260762886842733,NA,NA,NA,NA
168,71829.263671875,55101.0,[0],1,0.34558570360400864,0.3961448072676781,NA,NA,NA,NA,0.30351911300412215,NA,NA,0.5036287897524477,0.3053696063405553,0.43368064995988864,0.736990934283163,NA,NA,19050.56951223545
168,82980.16607666016,58295.0,[1],1,0.1574157520990871,NA,2.2207815930063775,NA,NA,NA,1.262937859419885,NA,NA,NA,0.03344609304964541,0.18748102932428645,2.342646112375029,NA,NA,21794.034293608707
168,68082.76593017578,45559.0,[2],1,0.6096547589335521,NA,2.2798565838268794,NA,NA,NA,NA,NA,3.597902055572511,NA,0.25320949161159323,0.13103856952411674,2.446516537680258,NA,NA,24423.600587870682
168,88310.91430664062,79502.0,[3],1,0.5207029882408252,0.7887707240025152,NA,NA,NA,NA,NA,NA,NA,NA,0.4150379870798595,0.2754857012119387,1.2954936959946575,NA,NA,26740.367854789354
168,35632.41162109375,26728.0,[4],1,NA,0.10409344473788718,NA,NA,0.5531671248035379,NA,NA,NA,NA,0.6395578558722156,0.3608941989965051,NA,0.9210644020696329,NA,NA,17760.612688651174
168,60360.152587890625,46097.0,[5],1,0.3156557326673275,0.08979340859264573,NA,NA,0.2407123205186661,NA,NA,NA,NA,0.4450478393731283,0.22548887218469593,NA,0.7381059891792231,NA,72700.66389205883,15170.485767743634
168,62372.97668457031,48718.0,[6],1,1.8720096883777588,0.3857903450146627,2.181394960922264,NA,NA,NA,NA,NA,NA,NA,0.8755724516708221,0.4300144398506335,NA,NA,NA,NA
