time_in_hour,cumulative_size,size,pcore_ids,pcore_power,AF700 CD48_[R 730_B-A],APCCy7 Ly6G_[R 780_A-A],BV421 CD117_[V 440_F-A],BV510 SCA-1_[V 525_E-A],BV605 CD11b_[V 610_D-A],BV650 CD150_[V 660_C-A],BV711 CD11c_[V 715_B-A],BV785 B220_[V 780_A-A],FITC Ly6C_[B 525_B-A],PE CD115_[YG 582_D-A],PECF594 CD135_[YG 610_C-A],PECy5 CD3-CD19-NK11_[YG 670_B-A],PECy7 CD16-32_[YG 780_A-A],PerCPCy5-5 CD45_[B 695_A-A],_FSC-A,_SSC-A
-1,0,0,[],0,0.0,0.0,0.0,0.0,0.0,0.0,0.0,0.0,0.0,0.0,0.0,0.0,0.0,0.0,0.0,0.0
0,183201,183201,"[0,3,4,5,7,9,10,11,12,17]",10,0.38241224710564037,1.678894083514832,1.9172762724166312,0.7623189469271532,2.500288123825738,0.33897547127471483,0.1471974742277613,0.7662109115506981,3.8545418104431746,0.6882904912800677,0.19960987008804,0.19193566422126618,1.968158160910697,1.6010837912020142,68604.99320418542,21774.727255855545
0,117359,117359,"[1,2,6,8,15]",5,0.36847321019265866,0.18599644355353329,0.6841190791758569,0.5427698894843935,0.33813601836244844,0.2637458809550166,0.018515629598074845,2.1358199448955784,0.8816785814296327,0.4113674215015435,0.20634173416610624,0.8171368970594508,0.6166358424492361,0.9386926876592347,69287.22814611567,15231.989093294907
0,26142,26142,[13],1,1.918037967140979,0.31421982166628926,1.6857940349246516,0.9013684923112248,1.6838301681202843,0.5168126654043343,-0.012184904138923258,0.8066810812868006,5.623845825185524,3.1345249861907805,0.46070426532018827,0.20789814516869576,2.402261902341059,1.8349585113227784,74771.91829240287,29214.239767424006
0,106315,106315,"[2,6,15,16]",4,0.3091170105911716,0.1321727625170399,0.2875648361378902,0.5564178586840893,0.30736915979869606,0.23028284839392543,-0.011651025998208553,2.7810671011240213,0.7607315421154152,0.37408624246813416,0.1642187008888638,1.107566056144477,0.6548544221229343,1.2446008264591064,69746.04178149824,13854.100437379471
24,260348.5,168748.0,"[0,3,4,5,7,9,10,11,12,17]",10,0.41492833370271764,1.5408925358279353,1.969567898929704,0.8250702346662346,2.428413137242972,0.3613443329210686,0.15408354235189137,0.8228632278638082,3.9158008708039396,0.6976687709608483,0.18076332583055787,0.2030018622711488,1.8651244241641494,1.5627475859549773,68882.24004363382,24318.7068410227
24,185665.5,126986.0,"[1,2,6,8,15]",5,0.36470812967137567,0.17664217908820312,0.7565532529602934,0.5988383350541602,0.3093735415491805,0.28508016990501583,0.00941538718287216,2.0449656511225793,0.9053441280259437,0.39369276260802355,0.19782952826993094,0.7672403644995975,0.5705710207981592,0.9246875075687215,71348.0364634248,16617.698904750698
24,76732.5,53368.0,"[5,11,13,14]",4,1.403599841084289,0.6852469342846841,2.2654625536180863,1.279343932649141,2.024518644798493,0.8315555332616571,-0.10290420131625044,0.9815065158114069,5.074882811331584,2.503855442420112,0.601383216896358,0.2986717212067901,2.270166539302127,1.931605571609164,84109.21911836579,47416.6089206007
24,164620.5,111463.0,"[2,6,15,16]",4,0.296824316731523,0.12046939863808159,0.3336532241427981,0.6279847604824296,0.26545135233461226,0.2591598798235937,-0.018188488957926907,2.7594405898171885,0.744349746696192,0.35268300140019315,0.15643938958088643,1.092993420287871,0.5963418879544152,1.2567664328409904,71928.51320461294,14828.826494877572
48,283211.75,176696.0,"[1,2,6,8,15,17]",6,0.35469409140422714,0.30950536155810715,0.8443757602050441,0.630386073518308,0.4723090979514528,0.2942224201105679,0.05787073434541279,1.7639608549433694,1.4273169403529424,0.39887270504137484,0.20304105663341732,0.5920296166093051,0.6424609193439178,0.8582029394375452,67365.04778491716,17680.914778429902
48,216501.25,109659.0,"[3,4,5,7,9,10,12]",7,0.36469179399426843,1.730333330423043,2.0802835390904213,0.7377383566111031,2.721815377084441,0.33909159122984067,0.14110371108596143,0.728999466519241,4.066080107609084,0.5281213685302036,0.12102506990720441,0.14430709882852766,2.066776199760981,1.5626566981218433,67543.29593939986,23161.226976749535
48,64339.5,36613.0,"[5,13]",2,1.6215233212101314,0.5328495557666559,2.0498565096052928,0.9257792663021953,1.9891879944396496,0.5394721945228025,0.07062403908174808,0.8615374065698465,5.470650049001793,2.3921761338291376,0.3444164955081903,0.19535613720186995,2.3764013451107155,1.7070947040737103,72170.38292184411,32607.906247328756
48,19252.75,9192.0,[14],1,1.2949160600823244,0.5547164533897919,2.693748547610079,2.051759216423655,2.0151082814792542,1.5634206557504753,-0.6503365787355191,1.0677728917037785,4.497460135513142,3.116476516056164,1.2093469506564034,0.45369980739115723,2.2986378357637167,2.354852388593835,109123.64581683118,86221.74972406507
48,187877.25,105567.0,"[2,6,15,16]",4,0.2800677391288793,0.11878325398233036,0.26371379901237946,0.6144942290910556,0.22693216234270608,0.26370406142441705,-0.014289132139468919,2.852364140873929,0.7459428131719045,0.3127992222262159,0.14503140068981057,1.057549700217824,0.5922499871591697,1.1884395715487177,70886.32953697137,15063.570198094796
72,362241.0,206511.0,"[1,2,3,6,8,15,17]",7,0.33073589003280124,0.5450862219465042,0.8633654996894293,0.7439813654107299,0.7771340492099807,0.29878816983583456,0.037064133554038925,1.7165464177129355,1.6999959970278824,0.4248899481943619,0.21701692798234973,0.529231887470974,0.8425097282441204,0.9885469210891371,68418.01607217293,19649.70558274732
72,246555.625,135702.0,"[3,4,5,7,9,10,12,11]",8,0.4655951573235335,1.5648211818438647,1.8505604890103382,0.9811314243205675,2.4933380243981307,0.3610549670185943,0.11827058183269168,0.7931183628263416,3.8665197628993266,0.7096897117724458,0.2685570298578619,0.18005662715411574,1.945281066815543,1.5782449066022137,71364.82013744372,27719.957344311144
72,55875.625,23439.0,"[13,14]",2,1.7201892216999817,0.4760761749555389,1.881828771644614,1.5599575454547723,1.7545843993378125,0.8372497291283063,-0.158063035650589,0.9797767738884371,5.227418519421476,2.924181655549708,0.6995686268945396,0.29862827964787875,2.3560162758291257,1.9760564995044805,86021.6499770695,50779.36091095166
72,215679.625,121741.0,"[2,6,15,16]",4,0.282332192981245,0.18580145560864292,0.31399531654298096,0.7064047584803022,0.30614310330772243,0.2534100579001244,-0.02007542299661269,2.699918854416568,0.7924130465174978,0.3357947850289448,0.16483587659534038,0.9230522189781434,0.6419740145783349,1.163799277460146,70929.66891054255,16709.60709431867
96,305319.5,124199.0,"[1,2,3,6,8,15,17]",7,0.40762140268698266,0.5320485531355246,0.9182463554784563,0.8254481181741555,0.7602443274043535,0.29953740283784724,0.1183962124639093,1.8753287544502575,1.6430243524985708,0.46787205659952236,0.24828818870601888,0.6428291163639559,0.8668580391571407,1.0401740950909577,68824.76901737365,18873.256388799207
96,250675.8125,127398.0,"[3,4,5,7,9,10,12,11]",8,0.49296320905088864,1.8573528767414862,1.956811366685486,1.1180553618281306,2.767063791971849,0.3594575842506256,0.3572341096986946,0.966132429417407,3.8920773377218016,0.7295794815308069,0.2515335585653098,0.19355248054372176,2.1655152386378926,1.8351651375586375,70737.2389667631,25420.585961000957
96,56526.8125,28589.0,"[13,14]",2,1.8569326604498662,0.467508953217997,1.8572970843581946,1.8022352112791933,1.73967446712347,0.8349427497271831,-0.020130556648467746,1.11661744308948,5.250296317161471,2.870816164765837,0.7811982338480936,0.34760775716833736,2.3844501506265185,2.1640669238790577,84942.5773653877,47958.943660585755
96,204847.8125,97008.0,"[2,6,15,16]",4,0.37755610665753414,0.18520329169276328,0.33882192544222,0.8283653636556316,0.3268401372109895,0.2464997422736146,0.06722318418307172,2.86149599024641,0.7871925839237358,0.394884671970808,0.19752089231763037,1.104473925877587,0.6847543766472958,1.2796046967742822,71286.93436255265,15720.7967060912
120,253303.96875,114287.0,"[1,2,6,8,15,17]",6,0.42266755039800996,0.4436841998716541,0.9497043631818758,0.869886703599446,0.6312546524292011,0.2833275617828015,0.15927030990002944,1.9376741343684625,1.4293043918661401,0.47000062968022627,0.2846664801126466,0.697540766907017,0.773802060190785,1.0277135302105438,68252.03628397551,17783.319314849847
120,314289.40625,190438.0,"[3,4,5,7,9,10,12]",7,0.4598470944701525,2.146505618214463,2.1271001431914818,1.2292572172798133,3.081543831232771,0.36810585114088723,0.5011147528297215,1.0880644815158758,3.9359383733227236,0.6471232591372508,0.22520325355552462,0.18411301741905983,2.3734512083194526,2.0546419503784317,68685.72782510074,22863.87933255387
120,76889.78125,41352.0,"[5,11,13,14]",4,1.7258039053434129,0.5764274220956724,2.1149990132706216,1.930359099925917,1.9894146038391924,0.8234642479669565,0.1466930683169405,1.2136408135984178,5.050143396989538,2.4678925123401045,0.7660028384627746,0.34381299476767424,2.3927782295396076,2.193964497508808,80595.24648472093,43499.26720593926
120,180359.90625,77936.0,"[2,6,15,16]",4,0.37997669885352603,0.1774226386166755,0.3746219243775992,0.9074515349600474,0.33807998158924235,0.24565893257267368,0.10392193977753905,2.8985858645163916,0.7715265915231652,0.4110449028662688,0.22125686551334578,1.1663619949550397,0.6740103392685209,1.3664712921554236,70959.73815965526,15065.117078924002
144,229065.359375,95466.0,"[1,2,3,8,15,17]",6,0.4888810476883574,0.4141134144376748,0.9903644598635748,1.1137580515540568,0.6139548329193278,0.299331235596652,0.2412419959411194,2.1140596631984616,1.5156156922011723,0.5217346433130495,0.3071948021775617,0.8032556887009414,0.8293475846070971,1.117649579199168,68008.05572918162,17736.886655780458
144,363789.359375,184642.0,"[3,4,5,7,9,10,12,11,13]",9,0.6824815204907164,1.9534717275188518,2.05358246851551,1.5389285103431298,2.927096148020713,0.39555027573770896,0.6070717861872614,1.1643122254184495,4.073763698724793,0.9924872786977245,0.2512284693063429,0.2496138349036895,2.3818806592390627,2.1548944381068913,68712.75145580235,23369.986732449353
144,64582.203125,35205.0,"[13,14]",2,1.9581410066690499,0.3828571422114453,1.8841566876800386,2.3251395076841495,1.7282206043745916,0.8237317669242328,0.16346201030445195,1.302550098617981,5.21360134617437,2.985132840331866,0.8561265238505249,0.4358270175186141,2.31295448161464,2.383985361724056,81629.11103847573,44674.37836420192
144,174284.9375,87041.0,"[2,15,16]",3,0.3847970149752056,0.12895075691594116,0.3146754908952958,1.2706398353771373,0.32093338169668106,0.24496607054073438,0.19238953056713015,3.2460581308957313,0.8208981370236358,0.4282955179583793,0.22390407825750902,1.3838237587353288,0.727067344661973,1.4991034602705031,70756.78504345793,14535.568496847314
168,259461.984375,151701.0,"[1,2,8,15,17]",5,0.399601872982023,0.4844864756721501,1.0856971639240305,1.3555830483155122,0.8583803474573437,0.2905644472885003,0.3177824684083217,1.7909794383255182,1.9568169711558259,0.5855592121262158,0.3071457690184709,0.6310511767483404,0.933749286747188,1.0874669017073626,66484.67574567001,19929.2187946368
168,329825.3046875,149791.0,"[3,4,5,7,9,10,12,13]",8,0.6977571583034445,1.7768287401342948,2.037367654155634,1.7100496783442374,2.8223925971784785,0.4085508415839292,0.6074650234978081,1.1170736906808996,4.026549580686875,1.0808817642444435,0.2764552718122544,0.2546419578218003,2.2772446804178905,2.053832633380571,69503.6320506694,25328.63315904521
168,69318.1015625,37027.0,"[13,14]",2,1.862551679832661,0.37301875813439356,2.0438787874159705,2.5709500337357896,1.865472474136808,0.8775916420065053,0.24509224761491666,1.1966798337217126,5.086824551834802,3.0294950211001854,0.8928802654123751,0.4339059094435259,2.3063966360519403,2.3627609596935266,83974.50466458054,49006.662739271225
168,155447.46875,68305.0,"[2,15,16]",3,0.2996192218444804,0.1162938491324601,0.273957272911423,1.5297119868660238,0.33241875990558434,0.2719745877104023,0.26424148107123235,3.3831052536084663,0.9351904285190608,0.4438572212161138,0.2250328462331539,1.3805843210174602,0.7490255391846153,1.5527620504508197,71198.58392354817,14952.197949508252
