time_in_hour,cumulative_size,size,pcore_ids,pcore_power,AF700 CD48_[R 730_B-A],APCCy7 Ly6G_[R 780_A-A],BV421 CD117_[V 440_F-A],BV510 SCA-1_[V 525_E-A],BV605 CD11b_[V 610_D-A],BV650 CD150_[V 660_C-A],BV711 CD11c_[V 715_B-A],BV785 B220_[V 780_A-A],FITC Ly6C_[B 525_B-A],PE CD115_[YG 582_D-A],PECF594 CD135_[YG 610_C-A],PECy5 CD3-CD19-NK11_[YG 670_B-A],PECy7 CD16-32_[YG 780_A-A],PerCPCy5-5 CD45_[B 695_A-A],_FSC-A,_SSC-A
-1,0,0,[],0,0.0,0.0,0.0,0.0,0.0,0.0,0.0,0.0,0.0,0.0,0.0,0.0,0.0,0.0,0.0,0.0
0,122122,122122,"[2,6,7,11,12]",5,0.3433794156744907,0.20745137230802335,NA,0.5870203859746761,0.4225894393802867,0.24652388929922853,0.011595838685914739,NA,NA,0.4342689476670829,0.19526615513992684,0.9864493710387965,0.7121908546126013,NA,69533.28533761302,14921.038567989324
0,132697,132697,"[4,8,10]",3,0.37734571826792807,1.6903025167938863,1.9344634884963638,0.7929818765608916,NA,NA,0.13611713733542885,0.7791144226696827,NA,0.7197108239523126,0.20209153592771578,0.20231018931098588,2.0077523647633315,1.6597139512875108,69853.98470199024,23225.777342366462
0,34643,34643,"[5,9]",2,1.7647145882573716,0.38434745036515494,NA,1.0970603087203639,1.8182914049591559,NA,-0.1194215248102104,0.8610316112345839,NA,NA,0.5916293874664569,0.2525270574430619,2.39139853078544,NA,80469.27667927176,37601.89267673116
24,252066.5,197899.0,"[0,3,4,5,8,10,12]",7,0.6197527993446272,1.3373411396189065,2.0059866701059152,0.9026085149117526,NA,NA,0.11594953367562821,0.8829075005385381,NA,NA,0.243756021026186,0.23044304563775575,1.896940547877239,NA,71175.24532613422,28362.33885899165
24,186285.25,151929.0,"[1,2,6,7,11]",5,0.3306362957292688,0.16955212543666764,NA,0.6565799753107067,0.33121366522042406,0.27962171217526977,0.006304859411847996,NA,NA,0.3929773201729585,0.18734312344509663,0.8944713681101994,0.5964160504951453,NA,71954.23775097597,16290.681178461444
48,218412.25,174827.0,"[1,2,3,6,7,12]",6,0.3428642083061959,0.4477077639100573,NA,0.631643482299233,NA,NA,0.08879769775047652,NA,NA,0.41324620788211364,0.20185648322437677,0.4739999590653733,0.7330957122771834,NA,66284.93987860122,18458.47021858887
48,156518.0625,112635.0,"[3,4,8,10]",4,0.30219252122859186,NA,NA,0.7092899075613741,NA,NA,NA,NA,NA,0.47297768200874557,0.11995287447654457,0.13071972371079899,NA,NA,66682.20141046026,22336.201919187508
48,50069.6875,38769.0,"[5,9]",2,1.7934692496046216,0.4025060395910658,NA,NA,NA,NA,NA,NA,NA,NA,0.6208485844579124,0.2728646673486318,2.4543042597155242,NA,NA,NA
48,154412.125,117172.0,"[2,6,7,11]",4,0.27407153257475536,0.12759316673643983,NA,0.6033488326110934,0.22984141081092568,NA,-0.006745659136617732,NA,NA,0.30809262991126884,0.1453028169407773,NA,0.5731395077592646,NA,70453.43023418669,15235.28272148321
72,264593.0625,209990.0,"[1,2,3,6,7,12]",6,0.40531592938931715,0.6429687310623216,NA,0.8136850576069135,0.9364769982581684,0.41907086026561613,-0.033081007673350094,1.4731626355471867,NA,0.5250464581922755,0.26611281982698376,0.40521446443005027,0.9478272763744583,NA,68903.53105535405,22332.20171069286
72,215175.515625,176046.0,"[3,4,8,10]",4,0.48389079730442397,1.535086160002081,1.6878021425979504,1.0480704252736905,2.3605120296735946,NA,0.09358410620253643,0.7538472293005434,3.742412294364177,0.7540599484571898,0.31067570106162723,0.1680173402741717,1.8562490396403897,1.5155282076128613,71646.43262139261,28013.388384322567
72,175770.03125,137167.0,"[2,6,7,11]",4,0.2592454479450137,0.1985209972693487,0.28382083243984013,0.7334946431144655,0.28843587929369896,0.25305969689932617,-0.031536603367666505,2.665646249344186,0.8309318474376354,0.31534171219166784,0.1662754811229008,0.8617996345953596,0.6239314913112622,NA,70886.9455867495,17298.933119464782
96,232289.26953125,153529.0,"[1,2,3,6,7,11,12]",7,0.47064421300408465,0.5654686660800201,NA,0.9813479386843125,0.8305608760061625,0.35461942358975773,0.13599451687306408,NA,NA,0.5356482649305966,0.277091871142606,0.8119808465499474,0.9729482256307606,NA,70213.12372247074,18939.279041506237
96,186788.87890625,132995.0,"[3,4,8,10]",4,0.5024287603179352,NA,1.9048557683522733,1.1766573704674568,NA,NA,0.4186012920279336,1.0302062826094827,NA,0.7501254946911647,0.26803381322371944,0.20804164110520962,2.159346571996388,NA,70604.69268686601,24909.66675181606
96,36475.85546875,28879.0,"[5,9]",2,1.9085726685952025,0.49261836180493335,NA,1.9450067074955162,NA,NA,0.15621833114134143,1.2077174497590901,NA,NA,0.7695836884645164,0.3527944629364743,2.395674024505934,NA,NA,NA
120,198761.3173828125,140689.0,"[1,2,3,6,7,11,12]",7,0.46075221071600225,0.5042180591840948,NA,1.0474321314356958,0.7692815586329034,0.31322089689569466,0.20010050296947224,NA,NA,0.5283329242196052,0.31482640899219394,0.8330659539235399,0.8980392820102582,NA,68839.62626841174,17673.784968602533
120,208419.6806640625,173196.0,"[4,8,10]",3,0.40073109887508895,NA,2.157946796324277,1.2561833370913331,NA,NA,0.5819631648167367,1.143070232909717,NA,0.6073871624484112,0.21512617556738522,0.192430605556128,2.447955608022037,2.145429426326182,68295.02867344554,21816.26775156336
120,41934.9638671875,32816.0,"[5,9]",2,1.9879554289792012,0.4501023079307167,NA,2.1305232070796367,NA,NA,0.17486204240677194,1.3251204323704369,NA,NA,0.7931346784087663,0.3556550545338998,2.4362067665203715,NA,78040.27682281367,40425.56245682032
144,124085.43334960938,86331.0,"[1,2,3,7,12]",5,0.5691010946057737,0.4198757495453851,NA,NA,0.6406612556069948,0.32144626254358166,0.29930513810177306,NA,NA,0.5663301109888609,0.3365743265170882,0.8561410864850605,0.8763155231487804,NA,68148.37258878438,17691.211336018492
144,202432.92016601562,150328.0,"[4,8,10]",3,0.43476307585124063,NA,2.086981758562374,1.503883907757463,NA,NA,0.7055359774793724,1.1951180701068842,NA,0.7166354419788296,0.1592916880965478,0.25789647057991005,2.435128165466737,2.181360234286026,67912.4004805693,21067.874721256027
144,44736.740966796875,34253.0,"[5,9]",2,1.9519996948764706,0.34548725843428985,NA,2.4612859866679835,NA,NA,NA,1.364806982969505,NA,NA,0.8284720126736342,0.4545008429504569,2.2825369146479644,NA,NA,41121.780743924704
144,117961.42724609375,88925.0,"[2,11]",2,0.4156388214716715,0.11908905264256786,NA,NA,0.330758367363996,0.2529111375059534,0.22870543249981434,NA,NA,0.4523539062295202,0.23857404265662474,1.423066601993053,0.7439935391167781,NA,70626.8892030517,14419.818773270536
168,217418.76239013672,181490.0,"[1,2,3,4,7]",5,0.4205959936287047,0.7183935768207137,NA,1.5832288470228817,NA,NA,0.34959460710780155,NA,NA,0.7141874765871911,0.3291355262796438,0.488767037509249,1.2052195208111027,NA,66523.33357276616,22827.959915298266
168,62376.50897216797,48605.0,"[5,9,12]",3,1.607361669984358,0.3554001822119721,NA,2.7306435007424033,NA,NA,NA,NA,NA,NA,0.7867699829099335,0.5328103946347278,NA,NA,80641.98963648643,42178.369351748865
168,235927.47216796875,181760.0,"[3,4,7,8,10]",5,0.47248140670499317,NA,1.889801951235556,1.701073520269583,NA,NA,0.601969748524259,NA,NA,NA,0.2683388941935787,0.2698020631239634,1.9965691393403149,NA,68229.15762056719,25203.78121678572
168,100334.72137451172,69614.0,"[2,6,11]",3,0.3166552869894961,0.12028809099816318,NA,NA,0.36122336873064587,0.3120857546670701,0.27863156296793967,NA,NA,0.4846131650387139,0.2466395591783499,1.3283074366458332,0.75236295766977,NA,71827.77722370978,15734.359629396624
