time_in_hour,cumulative_size,size,pcore_ids,pcore_power,AF700 CD48_[R 730_B-A],APCCy7 Ly6G_[R 780_A-A],BV421 CD117_[V 440_F-A],BV510 SCA-1_[V 525_E-A],BV605 CD11b_[V 610_D-A],BV650 CD150_[V 660_C-A],BV711 CD11c_[V 715_B-A],BV785 B220_[V 780_A-A],FITC Ly6C_[B 525_B-A],PE CD115_[YG 582_D-A],PECF594 CD135_[YG 610_C-A],PECy5 CD3-CD19-NK11_[YG 670_B-A],PECy7 CD16-32_[YG 780_A-A],PerCPCy5-5 CD45_[B 695_A-A],_FSC-A,_SSC-A
-1,0,0,[],0,0.0,0.0,0.0,0.0,0.0,0.0,0.0,0.0,0.0,0.0,0.0,0.0,0.0,0.0,0.0,0.0
0,124659,124659,"[1,2,7,9,13]",5,0.3228966560055886,0.1552673933129607,NA,0.5499911111432043,0.3436333702259664,0.23669663599900015,-0.002336082360686831,NA,NA,0.405520191177532,0.17888626324613588,0.9768179697173895,0.6481089696853001,NA,69792.86944384276,14256.264786337071
0,187126,187126,"[3,4,6,8,10,11,12]",7,0.4077106058751785,1.6375757990765547,NA,0.8091258935957626,NA,NA,0.12224470867757198,0.7920745360024903,NA,NA,0.23283503222427404,0.2136166359297993,1.964768882389408,NA,70017.36840417696,23795.659737289145
0,31491,31491,[5],1,1.805825312374968,0.3587097514528086,1.9210210809437078,1.0716207368454422,1.7848516134768833,NA,-0.1375797685688016,0.8378351778920856,NA,3.089057064462827,0.5743502257152926,0.24169054818837377,2.4172072033914427,1.8988833175827888,79994.03105649256,36997.18446540265
24,318008.5,204916.0,"[0,1,3,6,7,8,9,11,13]",9,0.36586047817747436,0.7288311740189286,NA,0.7076495106655916,NA,0.2688597497158103,0.09766451009014032,NA,NA,0.5475557399126142,0.21134652986161218,0.5312084456217332,1.0676508745410906,NA,70228.04203032303,20382.416797035257
24,74797.0,49782.0,"[1,2]",2,0.2900557038384015,0.11706568254075744,0.18104359835956974,0.7681598249261303,0.3145272916092976,0.2906054633407691,-0.02209325033758658,NA,NA,0.4144722619623823,0.1816568367113538,1.2705782054293544,0.6727419528256474,NA,72825.63653622492,15580.79473775676
24,204482.0,133365.0,"[3,4,10,12]",4,0.4373166719344559,1.5437733130177653,2.0395315187596013,0.868674098964688,NA,NA,0.15161598864446946,0.8341564072241079,NA,NA,0.19829392385392053,0.2166219557051503,1.9340398940029,NA,70952.13434923362,26874.834948797525
24,46470.5,30725.0,[5],1,1.7876549172055365,0.4178709186150247,2.137372124659723,1.2081488722092382,1.7819620139443395,NA,-0.10549262889359534,1.005809681163314,5.517433604781566,NA,0.5765769301169357,0.27714564225691507,2.380524056315311,1.9136483672652378,81702.60685811422,NA
48,175083.75,115949.0,"[0,7,9,11]",4,0.38717786703078305,0.5214482554077815,NA,0.6912306210427839,NA,NA,0.06179072071222835,NA,NA,0.4897457330049254,0.25084331324008735,0.34607692557704817,0.7791179873232054,NA,NA,20145.321310515614
48,155504.75,89274.0,"[1,2,13]",3,0.2817934752989921,0.11816638060573892,NA,0.652628266565817,0.24355151521253893,NA,-0.013204961708565666,NA,NA,0.3312474788245997,0.15213249935291584,NA,0.6160293016885318,NA,70804.78259345795,15241.508957121794
48,221711.0,102468.0,"[3,4,8,10,12]",5,0.3847580958477579,NA,NA,0.77684677111868,NA,NA,NA,NA,NA,NA,0.14657855181857293,0.16245958961327855,NA,NA,NA,24670.831632169953
48,58422.25,35187.0,[5],1,1.849054470291706,0.38298905048590726,NA,NA,NA,NA,NA,NA,NA,NA,0.5668343804714624,0.25586588004141964,2.4728398780516088,NA,NA,NA
72,287794.625,165852.0,"[1,2,7,9,13]",5,0.2955930017816497,0.24707369038816296,0.4763823224465309,0.7367218798622477,0.3911257848939109,0.2688057259664811,0.005444064749727584,NA,NA,0.36892128911632605,0.19066655902017082,0.7769197247876876,0.6513330088418009,NA,69999.29450384976,17630.47876241594
72,321224.0,181576.0,"[3,4,8,10,11,12]",6,0.48085232225526187,1.4723809328077904,1.761965273310055,0.9837716524333469,2.311077918919491,NA,0.09464765394281827,0.7737265637923332,NA,0.7553018825570316,0.28377923570194374,0.18001644363823832,1.8379066340100723,NA,70898.60324259702,27875.228750031194
72,39782.125,10571.0,[5],1,1.786078983701857,0.4571210327597024,1.9176215515071093,1.366327213905755,1.7976808537942484,NA,-0.0911362275330938,0.904083606107648,NA,2.9708070970096,0.6075893401181842,0.26832787456992324,2.4196571634559745,1.9493095743565683,82695.2758305395,45282.609312600514
96,264184.3125,120287.0,"[1,2,7,9,13]",5,0.38708665140056264,0.26556330825024155,NA,0.8509487403803613,0.4316237750289811,0.2649486043127063,0.08902442418326073,NA,NA,0.4330993204597484,0.22808439017221538,0.9340457026349209,0.7123796987486687,NA,70584.37202246816,16993.879483286786
96,305947.0,145335.0,"[3,4,8,10,11,12]",6,0.515597749420861,1.7028067568668073,1.8639253048334194,1.1155901350940787,NA,NA,0.305754368096641,0.9558889130235357,NA,0.7721863630310107,0.2796485857895621,0.20776045517891828,2.0297789169484397,NA,70666.77101589486,26140.474840413608
96,46569.0625,25039.0,"[5,6]",2,1.8720246767985735,0.5116603681078704,NA,1.724720945784843,NA,NA,0.0650127199642796,1.1265567916977584,NA,NA,0.6978973575469278,0.318230483158761,2.410053555955232,NA,81411.80733453757,NA
120,252601.0,102077.0,"[0,1,3,7,8,9,11]",7,0.4604447232422624,1.0061272772541998,NA,1.0341340474687692,NA,NA,0.27341360285503313,NA,NA,0.6147091451540682,0.30639856532214393,0.42260097855214174,1.280947692813097,NA,68069.21079488996,21277.07723247332
120,164471.84375,72715.0,"[1,2,13]",3,0.39494158332191454,0.19965699425870698,NA,0.9550952084414601,0.38327710123274716,0.25068799513765594,0.10895181252928321,NA,NA,0.4338865185980769,0.23450634112166524,1.1738592588649719,0.7190299420989362,NA,70858.46374844924,15443.363229154442
120,50598.53125,27314.0,"[5,6]",2,1.9672399127531583,0.4679097370557619,NA,1.9802963954543604,NA,NA,0.10881113490137428,1.2641692739882755,NA,NA,0.7464750686828316,0.33893107232856123,2.4313495304631814,NA,78445.59203484806,40201.54502014375
120,318065.375,195784.0,"[3,4,8,10,12]",5,0.481107409272586,NA,2.118897137745575,1.2494503020501004,NA,NA,0.5021223941976549,1.0960409715118558,NA,0.7000268416545051,0.25461612328606886,0.20520047035800537,2.346685311157052,NA,69492.10770270102,23943.88791298012
144,192422.5,66122.0,"[0,1,3,7,8,9,11]",7,0.5135328436947846,0.8548212672470439,NA,1.2663291584473173,NA,0.32412841248773683,0.34353952422087364,NA,NA,0.6426719391263026,0.33057787507941994,0.541130864808556,1.2105275746242818,NA,67827.13829203969,20648.547217711028
144,165720.921875,83485.0,"[1,2,13]",3,0.4278239423488597,0.14969412216624134,NA,NA,0.36237467361391973,0.26100009333621976,0.18327107814550203,NA,NA,0.45953273747468715,0.23750744767373178,1.3686704137595134,0.7572407184162814,NA,70821.54752827581,14999.246008750168
144,54835.515625,30738.0,[5],1,1.9946999466814714,0.3774022179338741,1.8558375430857699,2.2926185718494323,NA,NA,0.28769395838120104,1.3019595082238213,NA,NA,0.7903236416983463,0.4002943912162903,2.359823734395995,NA,78489.31102305122,40698.77767288759
144,320066.6875,161034.0,"[3,4,8,10,12]",5,0.48714889580873355,NA,2.0939715922005386,1.4538056489734381,NA,NA,0.6272450856641898,1.170587532333025,NA,NA,0.21149053243790572,0.258167672083326,2.3749352832386896,2.138642888515737,68813.33733302029,22745.977311368617
168,249569.46875,169248.0,"[0,3,7,8,9,11]",6,0.4626145470779517,0.8696485612950879,NA,1.5641441937497964,NA,NA,0.4001994099658033,NA,NA,0.7840592241522725,0.3546417470254073,0.3531799070947197,1.3230944802918065,NA,66463.58599703514,24226.723548290593
168,143181.4609375,60321.0,"[1,2,13]",3,0.34736035134348575,0.13079690642005914,NA,NA,0.3659246376987193,0.286357375697313,0.24974145328255037,NA,NA,0.4749653685591978,0.23799184114491734,1.3794585664120917,0.7711456516064848,NA,71492.04902280067,15389.0418464288
168,60957.7578125,33540.0,[5],1,1.8862434914418762,0.36465352258498296,2.0036766215279553,2.5585990568607557,NA,NA,NA,1.2170364507066713,5.112147487739233,NA,0.8190465985338835,0.41776492387402253,2.3485803850465934,2.3491990956122004,80249.90642777382,NA
168,275411.34375,115378.0,"[3,4,8,10,12]",5,0.4891422819957447,NA,2.091331073182627,1.5829554046241454,NA,NA,0.6855064527224837,1.1351528815098733,NA,NA,0.2209178268587979,0.2595738617561901,2.2939333420450025,NA,69510.79489804036,23940.224030804613
