time_in_hour,cumulative_size,size,pcore_ids,pcore_power,AF700 CD48_[R 730_B-A],APCCy7 Ly6G_[R 780_A-A],BV421 CD117_[V 440_F-A],BV510 SCA-1_[V 525_E-A],BV605 CD11b_[V 610_D-A],BV650 CD150_[V 660_C-A],BV711 CD11c_[V 715_B-A],BV785 B220_[V 780_A-A],FITC Ly6C_[B 525_B-A],PE CD115_[YG 582_D-A],PECF594 CD135_[YG 610_C-A],PECy5 CD3-CD19-NK11_[YG 670_B-A],PECy7 CD16-32_[YG 780_A-A],PerCPCy5-5 CD45_[B 695_A-A],_FSC-A,_SSC-A
-1,0,0,[],0,0.0,0.0,0.0,0.0,0.0,0.0,0.0,0.0,0.0,0.0,0.0,0.0,0.0,0.0,0.0,0.0
0,186348,186348,"[0,3,4,5,6,7,12,13,14,15]",10,0.17910382351947166,0.38564044842752815,0.5072586763615762,0.3087143128260667,0.4864537311443387,0.24053013694582856,0.2672940332142956,0.3219364422566793,0.5489300345556657,0.13859237724489415,0.2501315926720183,0.101488728352797,0.3136307596013195,0.36264367249643664,0.1915423714935651,0.07758159337445641
0,105681,105681,"[1,2]",2,0.17095712388752893,0.23696394863398626,0.3350291305285982,0.2766007950045728,0.26048044318661867,0.22377977103874042,0.25394497209189226,0.45791935074703716,0.16669494394828843,0.10457137564974354,0.24789529931357673,0.18947998438423114,0.1399159119116281,0.22191382514238014,0.19665954816862197,0.05001126845215277
0,32445,32445,"[8,10]",2,0.33540740165107596,0.25257306088509973,0.4796960009967311,0.3391598839645985,0.41533361908362454,0.27850582461141726,0.24825171651971709,0.3297055818814132,0.7629864621495926,0.4394133013603341,0.28856666602155967,0.10741295122258018,0.37511288480819877,0.4265400605992752,0.2356096087712877,0.12641264254217655
0,101333,101333,"[2,9]",2,0.1678983841880389,0.23163901026290767,0.2998097821881105,0.2865680905286947,0.2586428941266733,0.22382224831153275,0.2501242620730122,0.5336215216067861,0.1604503907454079,0.1040374905761699,0.24647498662121228,0.24184636912905633,0.14978277836599685,0.3039332622007928,0.20015983994621364,0.049373301067526326
24,171360.25,153551.0,"[1,2,4,5]",4,0.1768898711838227,0.251388249432985,0.38838882626306304,0.29524788360813015,0.28293366543431336,0.23414496643864718,0.257175125384461,0.41768539774870067,0.23548439100367044,0.11242248043270185,0.25170433524418057,0.16222613065926564,0.15183871291778378,0.2280705796849742,0.20089161153601012,0.06606297227575994
24,164449.25,144900.0,"[4,6,7,12,13,14,15,10]",8,0.17985654319794123,0.37609353681874963,0.5111225076358094,0.3162788421051504,0.4973439462676054,0.23904107096056101,0.2705746432144416,0.328025915457851,0.578470531696011,0.14505483900015606,0.24522176730486325,0.0984716601938958,0.31120323233852726,0.35685681986963214,0.19373071303284295,0.09209624942021576
24,26426.125,23091.0,[8],1,0.35267257528452556,0.25800332409930093,0.5071028421238486,0.33767611441245915,0.40841204448694307,0.26731010438135205,0.26154421421906043,0.3529477562163087,0.8121717175749349,0.4356461236390986,0.27440042434927064,0.1074859320849402,0.3804812300342298,0.40779792595645503,0.22093995936380753,0.13904083187015273
24,115971.625,103305.0,"[2,9]",2,0.1656856915434176,0.23000560917637414,0.30635204415989375,0.296805273651819,0.25268918151052716,0.22930916663910955,0.24895501439423193,0.5354540254246185,0.15689508849444334,0.10069180855214771,0.24524604357909965,0.24199537125369702,0.1405432919276663,0.3117534417206277,0.21244578706918746,0.05375611297732042
48,192701.3125,167765.0,"[0,3,4,5,6,7,12,13,14,15]",10,0.18104579164828466,0.36470841197424514,0.502678858838392,0.30815759756090094,0.4647092791417954,0.24379508945774203,0.26566003049523945,0.3209652763250474,0.5578706488880527,0.120232313850541,0.24718134125800792,0.09524545709799664,0.29361452616640227,0.31571266906027584,0.17811996890674398,0.08449177563835415
48,136062.265625,120217.0,"[1,2]",2,0.1664442636819596,0.23646724731091048,0.3390206949822175,0.2829091433124374,0.2567358041010534,0.22735782574780472,0.2548883771116441,0.44503617751237134,0.17207497988238876,0.09966413782090729,0.2462576198012573,0.16898543069096178,0.1332796153218039,0.20764408802827578,0.19289892932618166,0.05827506945016222
48,33740.078125,29987.0,"[8,10]",2,0.3493570875570744,0.25532214596647673,0.48687609975519597,0.34278237371803794,0.4294460703329528,0.2689793977647729,0.26808328563758793,0.32980084916657004,0.7740642434853544,0.43893470759549996,0.280962442696489,0.10676454897017043,0.39555948610955294,0.4300809576446419,0.22676482872399997,0.14492236580042772
48,112721.453125,98225.0,"[2,9]",2,0.16422978615395303,0.23117260341140616,0.30147548125359924,0.29126682540506654,0.25044027727606216,0.22927392618003373,0.24996018514542845,0.5427243239650366,0.15833157979721466,0.09600625670323523,0.2439640315248654,0.2282666119207802,0.14368931468560953,0.2819785140298159,0.20224670911929463,0.05537167507140473
72,252882.513671875,221987.0,"[0,1,3,4,5,6,7,10,12,13,14,15]",12,0.180703627973464,0.34440571965781636,0.45206192161108477,0.33271147725414985,0.4258515167010903,0.2400756775766275,0.2621794627311472,0.3361474452929418,0.4651854414088697,0.13231736945150244,0.2612227481164728,0.1061805395723273,0.2572064969909102,0.30562308217545836,0.20029419265033996,0.09515638054062639
72,164081.9296875,143870.0,"[1,2,9]",3,0.16466698119027545,0.24381705763075304,0.321851496443851,0.3054231421863309,0.2666217472525192,0.22724023731271895,0.250167437442477,0.48179935233788745,0.1760514008358161,0.10207290353556348,0.24812101127744993,0.1835461485004952,0.14801440735634028,0.2582870348460288,0.20057538460136573,0.06444967383650023
72,35679.25,30926.0,"[8,11]",2,0.32566567608080077,0.27307683026595103,0.4649798058598917,0.43125857390599204,0.4178564291668616,0.3196725984764152,0.23224612043345202,0.34539050632925705,0.72071035941419,0.4049451655519769,0.31234301873478376,0.11904917733020559,0.3700998592888642,0.4599658107381529,0.2905924703743577,0.21804597675664658
96,206586.05151367188,175328.0,"[0,1,3,4,5,6,7,12,13,14,15]",11,0.19095853532669846,0.38898518863720516,0.4940236127747659,0.3517413796848548,0.48023092996043915,0.24342174708574996,0.29446952159934187,0.352747586772029,0.4995695520759161,0.14177738820925345,0.25782034111575863,0.10802060990661357,0.31199608924934646,0.3837576119660105,0.19717070725448824,0.08330206460359989
96,131768.2412109375,111258.0,"[1,2,9]",3,0.1815153691427429,0.2402761008129542,0.32702503638225067,0.32311876559412145,0.2650088670398428,0.22541562067845183,0.2642600134542943,0.5179301759645966,0.1719125250593089,0.11262995765137841,0.25442501185395777,0.23820834119096068,0.15400421010309245,0.29533684135886173,0.20720641942183674,0.05583846171915504
96,35434.1689453125,30622.0,"[8,10,11]",3,0.351640791952163,0.26555360906139275,0.4842463996615842,0.45061718563716663,0.41985508915229663,0.3150307878183429,0.26523050777501356,0.36932792002970616,0.7327461123376863,0.4109316384188989,0.32509783017748733,0.12877543095760557,0.38273614688248986,0.5030837953951187,0.2725293867813628,0.19045050900027682
120,130242.14068603516,112987.0,"[1,2,4,5]",4,0.183093828876651,0.26222724858550156,0.39531875999468535,0.32196920735600926,0.29299111420127333,0.22409016740213142,0.27434867403771596,0.4393694037229519,0.23187834929311144,0.11845311363080546,0.2631630448461211,0.17936072275294138,0.1617101306623065,0.2572405539417843,0.19101768482571443,0.06206207224719216
120,208574.1750793457,190378.0,"[4,6,7,12,13,14]",6,0.17829039925334092,0.45264001037224016,0.5266752624797958,0.3602526342090579,0.5699337969767406,0.2385055367899518,0.3109601425978671,0.3564615528946788,0.5609389005102198,0.1276592783692389,0.2504705948492101,0.09665705652391683,0.3809842444610386,0.46420050236834676,0.18808734813556768,0.07659529254390361
120,44311.42483520508,39253.0,"[8,10,11,15]",4,0.35592209629770455,0.2668765791094292,0.5266262674067524,0.4643469287933766,0.42421289398391576,0.3100454815071054,0.2691659549798609,0.3784724065343537,0.7259488199991849,0.39696285254697855,0.32262477730065486,0.12753208980486325,0.38218078225648205,0.5021690297244308,0.24432852951994652,0.1729096817467423
120,84398.89346313477,71232.0,"[2,9]",2,0.1747588253081233,0.235260310246839,0.31359185297106373,0.3353618325767034,0.2637014466461789,0.22241880030638428,0.2670343749385279,0.5618545759412021,0.15647296386854898,0.11192766150297402,0.25460461557126707,0.2718570249629204,0.15350263815693985,0.3515305430361924,0.2052715635681872,0.0510100122582371
144,108837.2675857544,92557.0,"[1,2,4,5]",4,0.19421272691264035,0.24649593770700107,0.3847660050158528,0.35813514224765314,0.2753140187692643,0.22742100743515764,0.28035757887462703,0.4767044916517946,0.20846299983552832,0.12356649076381473,0.2624572290373346,0.2174318939457404,0.16484074791696995,0.288020545977728,0.19573243520046546,0.060488813843440244
144,163924.95973587036,140560.0,"[6,7,12,13,14]",5,0.1775515028500488,0.4669163832444161,0.5274802117945452,0.38092728141421645,0.5835856821331374,0.24380058431079432,0.321624940079748,0.35394838877270945,0.5455427184651521,0.13521770770986027,0.24003350956313868,0.10356791658143616,0.3917848084920059,0.47836701222193445,0.1883695492230276,0.07296949085180854
144,47330.928104400635,41792.0,"[8,10,11,15]",4,0.3548475917486325,0.2592878830384619,0.515458633128204,0.49591228197111,0.4407500971117314,0.3093325082594119,0.29260217664406735,0.3694349704901926,0.7289077393085494,0.4352982690701319,0.32115044582331587,0.13892477829461558,0.37203054361764837,0.5337521833236422,0.24769021391481774,0.1716402277873964
144,95187.86168289185,84638.0,"[2,9]",2,0.1801496462132712,0.2272073139242644,0.3042831690034122,0.4060921733241946,0.2621215727773306,0.22587883788914534,0.27613655323925124,0.5960640893897308,0.1793057955083455,0.11653602065659989,0.2534496437520424,0.31536398639988134,0.16673347483945913,0.398254679047412,0.2066945970143008,0.051020569465561626
168,285265.26963186264,256047.0,"[0,1,3,4,5,6,7,12,13,14,15]",11,0.1871451383978995,0.350707257031374,0.47770993600124156,0.40922632041463375,0.45248989628413155,0.24815579788267247,0.3026633630659288,0.35194588617154643,0.4902008036259031,0.1543973425095958,0.2603532615824856,0.11480956136132539,0.2816367131859516,0.3549833206575411,0.1876162806870878,0.08972858252524558
168,110605.85984611511,95314.0,"[1,2,9]",3,0.16292042554594116,0.23748872353521533,0.3317517821243415,0.4055443714830578,0.2751261567920512,0.23665132384916895,0.27704538423002,0.5163580629584672,0.20946050534693167,0.1162257109925863,0.2550202133350167,0.2374504971065458,0.1612123505530857,0.3264325423060783,0.20172565855116306,0.058803318948107246
168,45336.80111122131,39857.0,"[8,10,11]",3,0.33649988054759855,0.2585931203472662,0.5305923170912317,0.5284037896494463,0.46165091753945964,0.3238941612974492,0.30135038585290186,0.3552760655089612,0.7091225085184953,0.43971526275396966,0.3254209956016059,0.14091921079350822,0.37507355861078445,0.532544905578738,0.27419272388941435,0.20020430402145492
