time(in hour),cumulative size,size,pcore_ids,pcore_power,SCA-1,CD11b,Ly6C
-1,0,0,[],0,0.0,0.0,0.0
0,6639,6639,[0],1,283.5378822111742,389.30140081337447,743.8373248983299
0,42521,42521,"[1, 3, 7]",3,200.42640107241328,143.97231955974692,223.6251969615004
0,29512,29512,"[2, 8]",2,209.65237869341348,418.6160883708334,571.2369544592033
0,4770,4770,[4],1,231.51530398322754,157.25870020964356,695.7966457023061
0,3865,3865,[5],1,380.4289780077586,202.15109961190188,676.4442432082774
24,11463.573018251533,7516.0,[0],1,258.9130359917836,390.8535932631767,745.1692539609219
24,61405.137868515354,36122.0,"[1, 3, 7]",3,191.28777718821638,143.17054418970142,214.69715960708115
24,55109.94018898015,37562.0,"[2, 8]",2,195.7487227312698,435.83707401081784,564.0342886236836
24,6560.258969281489,3724.0,[4],1,212.62108157311695,160.99980258596844,699.4133156410568
24,4746.1427497427585,2448.0,[5],1,372.10682247100294,227.0534496637349,659.1920214165278
24,4235.213415926178,2628.0,[6],1,337.54137995829797,211.19247476739056,495.16082296178297
48,13566.28129832897,6750.0,[0],1,285.1096774471845,388.0142186638025,731.7088619625082
48,78939.71342548073,42428.0,"[1, 3, 7]",3,188.39673793005042,142.56818769741986,201.5224210290018
48,66202.5664900548,33434.0,"[2, 8]",2,201.18275985816527,444.8735857238829,535.1620936743913
48,6586.753321264981,2686.0,[4],1,230.92551306068424,157.96712946590188,684.9160115589991
48,10042.346327293528,4702.0,"[5, 6]",2,362.7440206357711,232.16882945094122,583.1628553113911
72,14207.559122050581,6141.0,[0],1,300.44626474729637,374.7120521768703,734.9147524534068
72,84421.83443092875,37484.0,"[1, 3, 7]",3,198.33790636221352,140.8161060393152,202.68462711952648
72,79249.28155070695,39885.0,"[2, 8]",2,208.987217021116,455.4351582331241,548.5229327012884
72,7799.506957208059,3883.0,[4],1,250.30766549862167,160.20876299220333,692.2929044103148
72,8578.214851869454,2607.0,"[5, 6]",2,384.65666113830866,225.8865038961247,580.944962180322
96,14914.865197382182,6467.0,[0],1,334.9918673431304,376.5791262807025,727.617756960932
96,73105.54615440941,25494.0,"[1, 7]",2,195.51234258264384,147.62461580600075,209.68008275672034
96,90629.90473947728,43508.0,"[2, 8]",2,228.98089534455573,466.82511984193707,542.5350222259462
96,8382.976929011667,5797.0,[3],1,399.34620801791306,170.4478708689442,262.79557960264367
96,8198.614583512524,3561.0,[4],1,280.40389708091885,159.77522571843218,687.336575241377
96,5964.764874123723,2849.0,[5],1,437.9714683808873,201.7968809172926,651.2321870872715
96,4308.872193808861,2324.0,[6],1,384.3254381371386,203.64519726899127,480.51658089642626
120,19919.431906016674,11051.0,[0],1,388.8000220660205,409.84052041071567,723.4880793394332
120,63260.81781649174,19792.0,"[1, 7]",2,204.674581320778,146.2829417815115,211.42552023113353
120,85460.86377410262,31572.0,"[2, 8]",2,242.07863532458242,484.5429879921189,537.0823541725324
120,17602.547904442166,12618.0,[3],1,457.40016434159605,154.92845651442266,230.271445793487
120,8236.925397939081,3362.0,[4],1,300.5348427922172,159.4874595009598,685.9194729371077
120,9643.67041381312,6097.0,[5],1,509.745069881241,167.0042585489321,646.6696457743643
120,8070.070735257441,5508.0,[6],1,435.68229736885826,191.46181625746556,454.44204766362606
