time(in hour),cumulative size,size,pcore_ids,pcore_power,SCA-1,CD11b,Ly6C
-1,0,0,[],0,0.0,0.0,0.0
0,8800,8800,[0],1,NA,NA,NA
0,45370,45370,"[1, 5, 6]",3,NA,NA,NA
0,27263,27263,"[2, 7]",2,NA,NA,NA
0,4551,4551,[4],1,NA,NA,NA
24,13120.944227116344,9421.0,[0],1,NA,NA,NA
24,56873.73518003052,37798.0,"[1, 5, 6]",3,NA,NA,NA
24,46116.67948453101,34654.0,"[2, 7]",2,NA,NA,NA
24,7296.459792909827,5383.0,[4],1,NA,NA,NA
48,12632.677482663028,7116.0,[0],1,NA,NA,NA
48,59451.864741350306,39015.0,"[1, 6]",2,NA,NA,NA
48,51527.67523097332,32138.0,"[2, 7]",2,NA,NA,NA
48,12981.715239911597,7640.0,"[3, 5]",2,NA,NA,NA
48,7158.783441950367,4091.0,[4],1,NA,NA,NA
72,11599.386605113828,6288.0,[0],1,NA,NA,NA
72,57843.42997057509,32847.0,"[1, 6]",2,NA,142.8936800167516,NA
72,57625.71869404154,35961.0,"[2, 7]",2,NA,NA,NA
72,16112.138904543088,10654.0,"[3, 5]",2,NA,NA,NA
72,7259.897666956856,4250.0,[4],1,NA,NA,NA
96,12965.941307691086,8089.0,[0],1,NA,NA,NA
96,48198.166454117934,23878.0,"[1, 6]",2,NA,144.61075173645702,NA
96,65648.63013811925,41420.0,"[2, 7]",2,NA,NA,NA
96,18823.319923450093,12049.0,"[3, 5]",2,NA,NA,NA
96,7616.410961626412,4564.0,[4],1,NA,NA,NA
120,16769.50678301375,11318.0,[0],1,NA,NA,NA
120,15874.415869128079,8499.0,[1],1,NA,NA,NA
120,58756.84887473072,31155.0,"[2, 7]",2,NA,NA,NA
120,26286.231123401503,18372.0,"[3, 5]",2,NA,NA,NA
120,12508.306337365373,9306.0,[4],1,NA,NA,NA
120,24239.416827406723,11350.0,[6],1,NA,132.77285000686524,NA
