time(in hour),cumulative size,size,pcore_ids,pcore_power,SCA-1,CD11b,Ly6C
-1,0,0,[],0,0.0,0.0,0.0
0,5536,5536,[0],1,0.28324653341559985,0.5070862785420974,0.7987803259008468
0,39608,39608,"[1, 6]",2,0.21057004713609365,0.15821695717579864,0.1894725323763067
0,26803,26803,"[2, 7]",2,0.22042597948326345,0.4723676420364252,0.5788212468653798
0,7605,7605,[4],1,0.3185899282701344,0.16754858824124458,0.7288428226067406
0,6453,6453,[5],1,0.40954838529940196,0.37114450257447945,0.6669388074882371
24,9113.271570324363,7156.0,[0],1,0.25143469244346606,0.4768007624023277,0.7965224686285514
24,56046.316230080236,39354.0,"[1, 4, 6]",3,0.21297243323120219,0.15964328902200856,0.2539149937285436
24,44233.29152807152,34757.0,"[2, 7]",2,0.20743770100841968,0.49877931730282316,0.5706757860018705
24,8540.480029498396,6259.0,[5],1,0.39180665490164385,0.37661310879168525,0.6428766339262272
48,8115.028063085467,4893.0,[0],1,0.3004117596209868,0.4603441236639825,0.7715432107270319
48,58193.80339323481,41059.0,"[1, 6]",2,0.20110570804165234,0.16566175186003246,0.16956570991345635
48,48563.83019685042,32925.0,"[2, 7]",2,0.22834298497129377,0.5016415722611723,0.53347204050837
48,6315.561740172889,3635.0,[4],1,0.3058948832048786,0.18124463704317642,0.70771306089701
48,7942.5156717233,4923.0,[5],1,0.3783806729331327,0.3681210024729313,0.6399605328068394
72,7763.095686463434,4894.0,[0],1,0.31351560704952836,0.43873227876077914,0.7893469707772762
72,54881.61650119652,34307.0,"[1, 6]",2,0.20608642176163958,0.1645876335344517,0.17924840284801252
72,53686.906826292485,36517.0,"[2, 7]",2,0.23046735588291267,0.5284881830695141,0.557030515929976
72,6152.200501385154,4759.0,[3],1,0.4651508348049107,0.1996956757156693,0.29091908217064083
72,8296.88826673928,6064.0,[4],1,0.334258508840696,0.17566007981328607,0.7183232510508083
72,6267.103345577986,3459.0,[5],1,0.4347696998214808,0.3635107761601913,0.6388962048051491
96,8585.668801449165,5841.0,[0],1,0.390322885705129,0.4461489376635925,0.7939965665478718
96,44620.581595237796,25217.0,"[1, 6]",2,0.22000985102262974,0.16706586368179058,0.18739479126027986
96,61277.18793890088,42296.0,"[2, 7]",2,0.25756411808076707,0.5438677522332936,0.5486878329334837
96,17892.524324953585,12784.0,"[3, 4]",2,0.4347089112854633,0.17656509592159617,0.49236328554694403
96,6077.755637027547,3862.0,[5],1,0.49025279224164997,0.3767392881001097,0.6286867168045145
120,12667.492315263242,9632.0,[0],1,0.4556823334443791,0.48552253166148474,0.779108231575035
120,13187.59199470048,8111.0,[1],1,0.29401176053237804,0.18009474119959196,0.2968711281448896
120,53135.75756181967,31471.0,"[2, 7]",2,0.27937455797660193,0.5666255855085728,0.5433683744950061
120,17056.000781185867,13991.0,[3],1,0.5402220603324247,0.1711086635666706,0.22650254204300355
120,11509.961860174102,8249.0,[4],1,0.463358046114139,0.14929719085746415,0.6902925071907632
120,7557.811112668472,5409.0,[5],1,0.5690454699068321,0.3596403197337582,0.6063648390394885
120,23836.16591853967,13137.0,[6],1,0.2147131640932797,0.15360456446564605,0.1353086978696261
