time(in hour),cumulative size,size,pcore_ids,pcore_power,SCA-1,CD11b,Ly6C
-1,0,0,[],0,0.0,0.0,0.0
0,7182,7182,[0],1,0.26804433055172266,0.5603280448481684,0.762260606974005
0,40444,40444,"[1, 6]",2,0.2110328444157523,0.1599616429577397,0.1913107215916678
0,22923,22923,[2],1,0.21612305387798328,0.4684485222315188,0.5726645911600845
0,8290,8290,[4],1,0.3140965831311572,0.17537552740313062,0.7327987942646959
0,6992,6992,[5],1,0.39519547219293377,0.3813351328473637,0.6663388447758307
24,13499.0,9908.0,[0],1,0.24212879688965783,0.5633007338569397,0.7502975556549485
24,55530.0,35308.0,"[1, 6]",2,0.20258535218335683,0.15938215289440322,0.18375543507251518
24,40681.5,29220.0,[2],1,0.20390813426361223,0.4885488462047366,0.5628804285953412
24,9898.0,5753.0,[4],1,0.28104644906132376,0.1839667893052122,0.7332817005167614
24,10485.0,6989.0,[5],1,0.38123375823138816,0.38242333909463394,0.6551985390094878
48,12145.5,5396.0,[0],1,0.2718936453553104,0.5705931064724086,0.7278108493169186
48,70047.0,42282.0,"[1, 6]",2,0.20266237372243143,0.16672493394383406,0.17493320901972778
48,48940.75,28600.0,[2],1,0.22132440929633976,0.49593599107498887,0.5308318247689722
48,9023.0,4074.0,[4],1,0.29718322837891015,0.1881080489127081,0.7188986472827291
48,12174.5,6932.0,[5],1,0.36336817468450877,0.37882154934401097,0.6614634160396405
72,68393.125,37850.0,"[0, 2]",2,0.23451729257316575,0.5285485032568673,0.578431335235795
72,70444.5,35421.0,"[1, 6]",2,0.20722984689277985,0.16656048892377662,0.18104772801207414
72,7661.75,5075.0,[3],1,0.4654356806007338,0.20662091186650738,0.3449087035553869
72,10938.5,6427.0,[4],1,0.3144011488131049,0.18937553634398138,0.7306810917853851
72,11314.25,5227.0,[5],1,0.3878201224318578,0.38113017340783784,0.6859675277933835
96,76679.5625,42483.0,"[0, 2]",2,0.25677999124786816,0.5443076824750974,0.5653892289666552
96,61550.25,26328.0,"[1, 6]",2,0.2175226118113347,0.16871390316939477,0.1858919442747313
96,10974.875,7144.0,[3],1,0.49117040313350846,0.1983557131393123,0.30864659588560717
96,11867.25,6398.0,[4],1,0.3669401035471745,0.1764535313782789,0.725808605320708
96,13304.125,7647.0,[5],1,0.42926559167833644,0.40652314546406015,0.7228865888150261
120,70529.78125,32190.0,"[0, 2]",2,0.277065028963653,0.5632191340508178,0.5566991818799065
120,52193.125,21418.0,"[1, 6]",2,0.23427367984692715,0.16548744387103512,0.18786552446329458
120,21271.4375,15784.0,[3],1,0.5386555621828611,0.1825575770293898,0.26785773145782266
120,15057.625,9124.0,[4],1,0.4522148480337112,0.16470248899767964,0.699062329019647
120,18136.0625,11484.0,[5],1,0.47708325097045107,0.44810167314482124,0.7425861470020702
