time(in hour),cumulative size,size,pcore_ids,pcore_power,SCA-1,CD11b,Ly6C
-1,0,0,[],0,0.0,0.0,0.0
0,20273,20273,"[0, 3]",2,NA,NA,NA
0,36047,36047,"[1, 10]",2,NA,137.26937054401247,NA
0,4846,4846,[2],1,NA,NA,NA
0,3217,3217,[4],1,NA,NA,NA
0,19859,19859,"[3, 5, 7]",3,NA,NA,NA
0,4945,4945,[6],1,NA,NA,NA
0,2780,2780,[8],1,NA,NA,NA
0,3006,3006,[11],1,NA,NA,NA
0,3737,3737,[12],1,NA,NA,NA
24,39020.397921225085,26966.0,"[0, 3]",2,NA,NA,NA
24,59791.12327690314,35476.0,"[1, 2, 10]",3,NA,140.40331917500845,NA
24,4247.839644481877,2335.0,[4],1,NA,NA,NA
24,30436.26014589558,20350.0,"[3, 5]",2,NA,NA,NA
24,11640.286494368167,6978.0,"[6, 7]",2,NA,NA,NA
24,2765.997889853782,1113.0,[8],1,NA,NA,NA
24,3896.2084415129225,2619.0,[9],1,NA,NA,NA
24,6733.3782938490895,4946.0,[11],1,184.43887590892695,NA,NA
24,10837.482334034177,5734.0,"[2, 12]",2,NA,NA,NA
48,45477.667419079124,22276.0,"[0, 3]",2,195.83903285413908,484.65109324663854,550.3980350403651
48,70589.15004672424,38828.0,"[1, 10]",2,174.3194234332745,137.15971140966982,NA
48,7296.864560724758,3506.0,[2],1,243.37101415079138,160.33481167771853,689.6739457203543
48,40485.50855978639,22388.0,"[3, 5]",2,183.66855520787132,402.09347149162363,496.943405175105
48,14766.355759886354,7845.0,"[6, 7]",2,324.80582261840624,354.9031847916696,NA
48,4547.699400090415,2231.0,[9],1,374.37693511562907,311.10515032921603,NA
48,5752.69068752511,1749.0,[11],1,204.7522235896378,416.9482920514347,757.7790117857276
48,5053.140989450111,2400.0,[12],1,350.1640696621877,152.81781527192723,NA
72,61478.18283424816,34437.0,"[0, 3]",2,NA,NA,NA
72,75736.55973877957,33764.0,"[1, 10]",2,NA,140.0923572115124,NA
72,7930.741626412543,3592.0,[2],1,NA,NA,NA
72,41281.82741690076,17209.0,"[3, 5]",2,NA,NA,NA
72,13794.127666159131,5014.0,"[6, 7]",2,NA,NA,NA
72,3092.6930514804144,1560.0,[8],1,NA,NA,NA
72,3551.078241740564,847.0,[9],1,NA,NA,NA
72,5837.570348007377,2417.0,[11],1,NA,NA,NA
72,6405.615608882981,3401.0,[12],1,NA,161.81033274055187,NA
96,73518.14622196303,36963.0,"[0, 3]",2,NA,NA,NA
96,67500.22785359263,22467.0,"[1, 10]",2,NA,142.80394821422624,NA
96,8429.647184689024,3714.0,[2],1,NA,NA,NA
96,4040.9256264556348,2589.0,[4],1,NA,NA,NA
96,38129.3214422464,13583.0,"[3, 5]",2,NA,NA,NA
96,12396.418776176097,6414.0,[6],1,370.7264517058679,NA,NA
96,4573.618606750061,2354.0,[7],1,NA,NA,NA
96,4754.926290669993,2916.0,[8],1,NA,NA,NA
96,3604.4837555046156,1493.0,[9],1,NA,NA,NA
96,3695.0400960896413,224.0,[11],1,NA,NA,NA
96,10117.801829028063,6309.0,[12],1,NA,158.00887567407753,NA
120,72850.15128448443,29136.0,"[0, 3]",2,NA,NA,NA
120,66019.17381839603,20871.0,"[1, 2, 10]",3,NA,144.03190786289775,NA
120,5924.748753088934,3522.0,[4],1,NA,NA,NA
120,29069.830174672614,6398.0,"[3, 5]",2,NA,NA,NA
120,16274.954704590968,8904.0,[6],1,NA,NA,NA
120,5443.489894228002,2724.0,[7],1,NA,NA,NA
120,9505.296088089126,6678.0,[8],1,NA,NA,NA
120,5264.238863978909,3121.0,[9],1,NA,NA,NA
120,3080.08398624507,883.0,[11],1,NA,NA,NA
120,19060.08096163386,13044.0,[12],1,NA,NA,NA
