time(in hour),cumulative size,size,pcore_ids,pcore_power,SCA-1,CD11b,Ly6C
-1,0,0,[],0,0.0,0.0,0.0
0,21498,21498,"[0, 8]",2,0.23920840297660412,0.5090858183587743,0.6222274574254685
0,43592,43592,"[1, 3, 7]",3,0.2282643346578409,0.1635271665522094,0.20715877864841759
0,11868,11868,"[2, 6]",2,0.2764664114245459,0.3906319819675566,0.5562970702973979
0,7371,7371,"[4, 5]",2,0.33106419173834756,0.17365089800987266,0.701927193760899
0,5697,5697,[9],1,0.30736066488768876,0.37714399973948337,0.7836236631400185
24,43166.3815819484,27965.0,"[0, 8]",2,0.22101884046968825,0.5290869010062972,0.6117694875613429
24,67514.19880548399,36690.0,"[1, 3, 7]",3,0.21891426800534902,0.16235520629207031,0.19692205184964792
24,23135.943279121944,14744.0,"[2, 6]",2,0.26909729080977424,0.3946324613162294,0.5494763160439139
24,9653.084084126041,4441.0,"[4, 5]",2,0.3036823731863921,0.17321913952507645,0.7011612819234994
24,10188.387332419761,6160.0,[9],1,0.2821535011811856,0.3878683220757956,0.7884567404862234
48,54120.241135881806,23597.0,"[0, 8]",2,0.22372329280353054,0.543606681078807,0.5792625317670411
48,90436.74780173444,42697.0,"[1, 3, 7]",3,0.21456121718231244,0.16195463714805708,0.18177415770902586
48,29599.582381814456,13240.0,"[2, 6]",2,0.28029977819804164,0.40057637128859386,0.5286249320058118
48,11546.761215249458,4721.0,"[4, 5]",2,0.3164557209967821,0.17113784043763208,0.6892394084133437
48,12949.277772109133,5745.0,[9],1,0.30585705217862125,0.3961647627657415,0.7820951704077267
72,67804.78950663315,29536.0,"[0, 8]",2,0.22574268634620454,0.5626367111798128,0.5823356449855793
72,100729.43763906401,36781.0,"[1, 3, 7]",3,0.22153741159926452,0.1594400215344718,0.17929579821652167
72,20712.858971980735,7599.0,[2],1,0.2260702062869515,0.3977046766474317,0.4944567448727212
72,13268.793156044714,5104.0,"[4, 5]",2,0.3299570208498883,0.16650026351694164,0.6923786806105258
72,10906.206450490128,3090.0,[6],1,0.42220530654731814,0.38031025639988375,0.564011553393518
72,17046.522124126597,7890.0,[9],1,0.32253831532199934,0.3801613032534979,0.7879322463918764
96,89233.22645706678,41288.0,"[0, 8]",2,0.26047267060715185,0.5508374701123263,0.5738606098019361
96,102967.46841968963,31741.0,"[1, 3, 7]",3,0.23957142760435293,0.1679562576370752,0.1934397763221556
96,20603.2030368482,5957.0,[2],1,0.23387109901061065,0.409912666504645,0.4935685556980153
96,15041.453618800868,5659.0,"[4, 5]",2,0.36897937927126473,0.1752784258090349,0.6920105431002979
96,9368.852538162037,1657.0,[6],1,0.42736682363250844,0.384095918274255,0.5675993200683479
96,15751.711389616428,3698.0,[9],1,0.3421290131307347,0.379853395498453,0.7816941180207173
120,94099.41953494676,31002.0,"[0, 8]",2,0.27516298291911373,0.5645323830488972,0.5676091622832237
120,86690.62369402172,20167.0,"[1, 7]",2,0.22830282894640475,0.16402350045840194,0.1832508615676901
120,15737.664581518633,1169.0,[2],1,0.2345385145351114,0.40978629374387143,0.49022974289473525
120,21717.371467152494,15432.0,[3],1,0.5119187219129131,0.18172058908794753,0.25746863897767774
120,6830.3701628154495,1911.0,[4],1,0.2869245104368229,0.17891597340850285,0.6775906799346015
120,13576.54368994158,7860.0,[5],1,0.5270568097310429,0.16191942020601335,0.6814967388578158
120,11275.779161671173,4651.0,[6],1,0.47468332201204827,0.41430590608890533,0.5798272579119744
120,18946.141938891153,7808.0,[9],1,0.3859379045209212,0.40737870143084215,0.7833684238595213
