time(in hour),cumulative size,size,pcore_ids,pcore_power,SCA-1,CD11b,Ly6C
-1,0,0,[],0,0.0,0.0,0.0
0,11771,11771,"[0, 8]",2,221.16846487129325,128.95149095234038,227.45782006626493
0,7476,7476,[1],1,264.31474050294145,439.38884430176535,767.5480203317302
0,11925,11925,"[3, 10]",2,239.66893081760958,137.5738364779879,NA
0,14692,14692,[4],1,186.13469915600416,485.4399673291605,578.0345766403477
0,5686,5686,[5],1,229.6683081252192,205.70436158987,349.5181146676044
0,9219,9219,[7],1,164.30241891745516,340.5578696170952,520.5539646382449
0,7373,7373,[9],1,117.74922012749575,122.34300827342989,109.44242506442454
0,15410,15410,"[8, 11]",2,156.20188189487564,136.31005840363406,222.34399740428384
0,6537,6537,[12],1,370.054000305944,360.4001835704447,580.6926724797287
24,16770.078475348513,9771.0,"[0, 8]",2,218.66477531974311,134.6347071665511,226.88266713053835
24,12780.25619588017,8335.0,[1],1,235.5206884548572,428.896095549324,767.3041481106098
24,16808.64742320372,9718.0,"[3, 10]",2,228.7322584574196,139.9970806618528,NA
24,28193.915466809987,19458.0,[4],1,178.21249422351062,507.6357179139255,572.6001490437858
24,7599.915827952736,4219.0,[5],1,225.33949807981054,212.6051351825781,358.5544087229643
24,17472.650196605042,11991.0,[7],1,159.09838265415107,358.16513479780514,512.1688834783351
24,12164.012029457532,7780.0,[9],1,118.94882987572628,120.2301688331982,106.35215625260585
24,22435.840821095968,13273.0,"[8, 11]",2,150.811017369,140.71821032435773,221.17680791689727
24,11102.923455386393,7216.0,[12],1,364.7625411291048,354.9457890690617,577.5856237143892
48,21674.54832101922,11703.0,"[0, 8]",2,218.21983568713276,143.15968398697555,222.51612384544026
48,13195.185799849154,5596.0,[1],1,262.40134271670667,420.4910944848228,754.5576043803289
48,20080.48155462301,10086.0,"[3, 10]",2,238.77168110025164,141.7764923929584,NA
48,32349.20243645785,15585.0,[4],1,191.90430867849173,516.1412548541905,553.6765504156597
48,8926.936988011596,4408.0,[5],1,227.93506837400074,223.85037688754446,357.35278338773065
48,5058.667508254797,2594.0,[6],1,414.2660889747372,163.87302842661953,265.82112517600564
48,23991.299965878206,13602.0,[7],1,166.60522052431438,380.74439633222505,483.4717660211102
48,17060.76482620479,9828.0,[9],1,116.51722141964736,123.78369655161615,103.0929241948966
48,16806.535850769207,8864.0,[11],1,110.81559957190893,125.78909457790978,233.5120810882195
48,12502.837785238047,5901.0,[12],1,365.85319310998705,359.8793009455662,574.2255252903166
72,23924.76353891317,11037.0,"[0, 8]",2,218.33877828468394,140.20043082448973,225.93390229014125
72,13578.904418481743,5733.0,[1],1,270.1953516399199,416.7916469349063,762.8512966118093
72,5732.277858811894,3540.0,[2],1,447.9519794634942,129.06702388452226,615.682312864874
72,21800.92576871929,9861.0,"[3, 10]",2,238.43616565438646,144.310330134487,NA
72,42826.95085104952,23592.0,[4],1,195.51830749422146,526.9376927581691,562.0359319611364
72,8940.988490662174,3633.0,[5],1,233.9559794459115,218.8787320544396,359.99011347455536
72,7904.9016966248455,4897.0,[6],1,444.28960746985535,180.9983242228522,250.76489113862263
72,23124.31230879345,8859.0,[7],1,165.1308134946227,386.24351739557846,486.2535406295794
72,16638.39145935545,6494.0,[9],1,117.39760484713369,123.80375104995039,102.8713613274364
72,30286.702686135373,13213.0,"[8, 11]",2,147.4692814318993,146.84915926283077,217.40928252841
72,11640.231825964973,4206.0,[12],1,378.27635374299103,373.3851883345319,577.3415663770612
96,23897.74951261661,9672.0,"[0, 8]",2,226.48533352109845,138.95204687441503,229.83938707231627
96,14180.064874200187,6106.0,[1],1,317.3569259218097,418.50455897239914,768.2707346447162
96,7409.432807435834,4001.0,[2],1,469.27279230736235,129.44381891196667,620.01909100468
96,22026.908018903574,9064.0,"[3, 10]",2,258.5759235417805,142.04715128540818,NA
96,53337.05733296997,27872.0,[4],1,216.30465734100346,532.7738907602658,556.7600223085852
96,9955.343564126448,4639.0,[5],1,245.89732638031475,218.3529402556111,364.96270565810664
96,10241.282670511675,5541.0,[6],1,454.70454165741285,182.23061961857562,243.24373736548236
96,22916.798363581085,9167.0,[7],1,172.45072049181397,392.65927729807805,481.57718029114716
96,13541.246752833005,3648.0,[9],1,117.90801113717681,123.9857812732208,101.50917315826891
96,15207.83752068795,4421.0,[11],1,110.80218396351002,127.86757260926377,233.26271959608385
96,12790.32325385933,5869.0,[12],1,390.5948914965074,399.89580287762533,580.014082642254
120,13864.767465372195,6214.0,[0],1,258.21276909459397,102.41374377050138,259.2374893508281
120,16568.517019799514,8137.0,[1],1,365.74826310763547,431.3121266857919,767.9941276437066
120,12592.675106368639,8187.0,[2],1,512.3879084199889,132.7984242051952,607.2534715713617
120,21615.27786879531,8518.0,"[3, 10]",2,274.80505949832076,140.16470337536526,NA
120,55153.40403683797,23439.0,[4],1,231.89076941506733,537.7565890953827,547.8088402099842
120,9573.482699377859,3654.0,[5],1,267.6443933510263,211.35134576812533,370.7960345812284
120,18592.503109263274,12503.0,[6],1,486.1395298471557,165.89508721036765,236.37207261276896
120,17527.409833526668,3901.0,[7],1,176.7772433541022,402.7243788125506,475.42717972976453
120,9482.919411106046,2924.0,[8],1,209.47100626382496,182.42086211014032,195.94136926303673
120,10532.673492238251,2481.0,[9],1,120.33723524514288,123.14784365506824,100.54215765046186
120,11724.634291703725,2682.0,[11],1,112.86105778501303,126.25798468792473,233.67044114409705
120,14965.171708337133,7360.0,[12],1,417.0383968767496,429.1517913389394,580.0705037625377
