time(in hour),cumulative size,size,pcore_ids,pcore_power,SCA-1,CD11b,Ly6C
-1,0,0,[],0,0.0,0.0,0.0
0,29672,29672,[1 3],2,218.29960905904588,415.08796171474853,576.8827177136707
0,9180,9180,[5 9],2,276.0748366013059,339.1422657952071,700.0241830065355
0,39546,39546,[7 8],2,197.50465280938863,142.87121327062226,217.44105598543354
24,49066.53921670411,36591.0,"[1, 3]",2,199.72497531415777,434.9713365863058,563.9550375881283
24,9447.953936757043,7146.0,[5],1,227.26547485012097,366.0035528871246,748.5178548573332
24,50919.0448188117,34292.0,"[7, 8]",2,187.67225010189586,142.08897853668503,208.3974320625748
24,6012.760609257506,4455.0,[9],1,301.8166600588426,333.98562799909837,618.4248051477188
48,24186.899669204653,12952.0,[1],1,205.25030392514765,511.51051267159085,570.3138533135027
48,26361.03879891149,16966.0,[3],1,189.37005788147934,401.49034111188325,487.9064088592397
48,8352.375298450608,4380.0,[5],1,259.8009166192267,378.17439468026674,746.691523576703
48,18081.241991465675,11753.0,[7],1,225.74357156182592,156.19564191099178,279.86545258612364
48,43362.57913667532,28282.0,[8],1,164.95205382445948,130.69052715948928,152.59010199728877
48,9198.05442105169,6670.0,[9],1,343.36706408045507,354.93819605576476,616.7349423111058
72,34513.338613967724,24344.0,[1],1,208.07931453864728,527.4093245964615,578.8634624439401
72,24111.45151418438,13028.0,[3],1,195.92793291555222,385.7923577788211,494.936110297248
72,9864.741223660396,6353.0,[5],1,272.2463294217014,347.5530207835823,759.399991834999
72,60948.9444630721,35115.0,"[7, 8]",2,193.67890855756556,135.99550467315586,192.6283592986439
72,7745.305494985472,3878.0,[9],1,392.8861599694814,341.7021365651957,599.737148438714
96,51648.07135946153,37137.0,[1],1,249.34740916204484,499.18915975439734,559.7534670694389
96,9699.942868348182,6154.0,"[2, 6]",2,348.77971179733237,163.9215766201786,663.4263025439778
96,19553.616572420695,9416.0,[3],1,219.41047293399478,385.0729593599537,493.5111353083148
96,7844.612766190784,3697.0,[5],1,317.11333951107986,346.6299009237835,747.2844454534611
96,52191.87445624753,26566.0,"[7, 8]",2,211.35922996532184,149.04729539632675,209.8106892343891
120,50904.33903046962,29189.0,[1],1,266.80021359659935,510.3072614075858,548.269358613765
120,8891.905080634748,6564.0,[2],1,486.1149692720429,150.27229062230265,664.3229098142748
120,11461.283040497094,3240.0,[3],1,218.61536716146128,395.8364673579557,489.92575326568135
120,15005.29847320572,13241.0,[4],1,479.5946947448335,159.49759475747084,268.7761625605532
120,10170.253377071678,6872.0,[5],1,368.5843414096124,372.4627205312146,742.4747610392618
120,12716.436825723944,6852.0,[7],1,283.3397569374101,160.89838005528753,282.9137025560815
120,29710.543242091284,13631.0,[8],1,201.31818396788745,141.05598002217508,177.99995489128725
120,6719.112239203328,4747.0,[9],1,459.01128775601654,412.96184175860134,631.9883823613999
