time(in hour),cumulative size,size,pcore_ids,pcore_power,SCA-1,CD11b,Ly6C
-1,0,0,[],0,0.0,0.0,0.0
0,26065,26065,"[1, 8, 10, 12]",4,207.22052560905578,153.01987339343967,275.3485516976778
0,6319,6319,[2],1,233.61449596455185,510.9061560373475,666.1938597879385
0,16114,16114,[3],1,185.11797194985823,128.46667494104523,139.0192379297497
0,15045,15045,"[4, 14, 16, 17]",4,204.83044200731212,366.0603522765034,537.4814888667333
0,3879,3879,[6],1,252.35163701985016,334.92111368909656,765.1247744263975
0,3627,3627,[9],1,339.96333057623076,141.49159084642992,708.8345740281238
0,3578,3578,[13],1,341.8650083845687,347.5735047512577,633.4276131917263
0,7994,7994,[15],1,199.10195146360016,439.5816862646983,592.3333750312729
24,26797.369125813682,17582.0,"[1, 8, 10, 12]",4,198.88562973887755,153.02314184849396,279.87260640925126
24,11684.103875158897,9450.0,[2],1,204.83890560200658,525.7213123639758,646.5706197478131
24,24124.159336020013,18427.0,[3],1,177.38349024125074,131.25759419852292,141.73355024034396
24,20885.210761475806,15566.0,"[4, 14, 16, 17]",4,196.63073254583614,372.50872179510907,525.6039043629105
24,6925.433602111309,5554.0,[6],1,220.3646157392318,349.04154862344427,762.124096294435
24,2952.1641763931784,2110.0,[7],1,207.5122674491024,144.85063420569566,635.0981068596977
24,4416.014031542733,3151.0,[13],1,331.67603681464055,351.55218018192755,622.4241587597313
24,15512.305804402631,12686.0,[15],1,185.13243854916882,457.244548994512,562.3524552691887
48,7041.885262151918,5514.0,[1],1,228.34808390829997,173.81707222687106,290.380648368074
48,9256.954541106437,5126.0,[2],1,233.04243287706902,544.7523610787517,630.7855150269867
48,46102.98333746289,31474.0,"[3, 8]",2,161.07039591607608,131.65501803244697,167.79918771352345
48,2710.928805284565,1993.0,[5],1,389.37769709027384,225.61755307985737,457.93247025452126
48,7329.510531355043,4881.0,[6],1,268.003855642506,365.56669046624785,750.6606140259121
48,3833.747654151808,2790.0,[7],1,234.56380635377985,143.32725031067946,619.0626961638521
48,2754.387806053458,1852.0,[9],1,339.4353614437682,154.60551867962565,711.4416401565255
48,4924.966124859232,4042.0,[12],1,344.395788440617,156.48723245077127,251.1722395053543
48,6258.2967337594055,4697.0,[13],1,360.5066696141848,367.5387039825309,608.5276822271762
48,8274.58847263872,6935.0,[14],1,175.06303967776626,344.8683809120174,435.2098099464611
48,27000.11822846993,19629.0,"[15, 16]",2,190.6646397273474,466.0656330630557,511.6819382425579
72,3425.8707721780515,3074.0,[0],1,286.5134790497382,388.09706553395466,638.7183739431422
72,8996.682410602614,6507.0,[1],1,276.4076905805458,165.37788481143346,291.7419413992157
72,14903.827664575983,11631.0,[2],1,243.52480470280574,557.6341718869493,620.521686920437
72,43417.866075425205,27118.0,"[3, 8]",2,162.81403304961103,129.12320822832294,173.81350051118562
72,7349.373299749683,4758.0,[6],1,275.3596739753141,338.6399981937035,770.081154069723
72,4067.434481804381,2712.0,[7],1,260.78720531587703,138.94647837144527,653.8706245120497
72,5410.238472000998,3669.0,[12],1,402.21446941562937,166.85652475247844,241.6231323795767
72,4945.642029559449,2733.0,[13],1,404.12795693239417,360.7413503157405,612.2381902589857
72,6788.508810265438,3863.0,[14],1,175.04867389023826,329.266492717814,440.50412496929266
72,18165.99200842396,12381.0,[15],1,158.53040502228356,503.76839019892805,539.1543795968208
72,9112.991337670841,5352.0,[16],1,242.2205094911913,429.0714295747496,493.4226252702211
96,8954.807570359422,5774.0,[1],1,283.30822910160214,169.460953354392,295.99284573879294
96,27676.298803628673,22407.0,[2],1,274.63878085742397,524.5030478166066,586.7778165621704
96,36082.53376329126,20732.0,"[3, 8]",2,186.829321790145,144.37717156197166,195.68645191142795
96,5309.395848862177,2711.0,[6],1,319.42154664638997,342.15978941455904,758.2091802185873
96,3081.0552520579345,1643.0,[7],1,284.43709657223803,142.82175325583464,636.5235042234417
96,3893.196797769198,3166.0,[9],1,403.25716768316886,157.60362605702787,713.9610759713743
96,5398.808155694125,3486.0,[12],1,412.7744593195082,163.2913220758765,224.26684988667586
96,3794.5485082113432,2046.0,[13],1,408.50692325219563,365.9312160432123,624.9592459064911
96,5382.1003069416565,2982.0,[14],1,201.41028856997906,330.17957839723556,445.07681925925783
96,28481.577053949266,18837.0,"[15, 16]",2,220.06043654741703,460.14333157187446,517.766922288838
120,9176.002578610889,6010.0,[1],1,308.19570500877654,158.44555435096254,291.27281623584736
120,27088.049281095482,17303.0,[2],1,294.67647974047776,531.8972592472871,567.131789103608
120,27505.102153207907,14748.0,"[3, 8]",2,197.6710616454613,142.3030645152792,190.56464607318586
120,6126.058286281595,5363.0,[5],1,509.8859682684779,168.5501036392237,465.3962478281389
120,6210.154904367076,4333.0,[6],1,364.76863423403387,362.7719374910439,753.2036081570494
120,3064.3175309702965,1975.0,[7],1,312.7708881562734,134.1030214631104,626.8123954559786
120,5293.452928098176,3917.0,[9],1,500.58563762200123,134.05974931754812,686.1583285815433
120,2869.0439213351556,2375.0,[10],1,342.4217459410106,190.65654144161925,394.7575561335461
120,2778.3921401531397,2159.0,[11],1,385.3521593357657,248.06729676941112,702.8176869169376
120,12104.766928608278,10196.0,[12],1,473.5529622941971,150.70005775955045,208.13859210228648
120,6402.57549084877,5061.0,[13],1,471.82151626246844,449.89166545511466,683.3072118150845
120,23813.75813686735,13744.0,"[15, 16]",2,229.71823011240008,478.6143367928094,510.86172996292754
