time(in hour),cumulative size,size,pcore_ids,pcore_power,SCA-1,CD11b,Ly6C
-1,0,0,[],0,0.0,0.0,0.0
0,20672,20672,"[0, 8]",2,163.7700270897858,126.39749419504663,244.7513061145509
0,9320,9320,"[1, 11]",2,196.90439914163107,523.9648068669518,618.1848712446352
0,14027,14027,"[3, 13]",2,176.40407784986309,401.04412917944074,550.746346332073
0,6913,6913,[4],1,360.6001735859939,143.75958339360668,271.87299291190493
0,4025,4025,[5],1,212.76645962732923,306.50385093167796,785.1853416149079
0,4849,4849,[6],1,199.10002062280972,309.75293875025744,402.17220045370186
0,5661,5661,[7],1,380.7507507507446,347.31036919272225,588.8517929694385
0,25421,25421,"[8, 9]",2,150.35848314386024,121.84748829707718,166.94154439243118
0,3709,3709,[10],1,327.61714747910287,465.5567538420068,771.149636020489
0,5271,5271,[12],1,231.97970024663067,131.15234300891657,664.1838360842348
24,25899.655690344156,18591.0,"[0, 8]",2,162.08550378384749,127.35187697586096,243.2549336361292
24,17256.11760032931,13961.0,"[1, 11]",2,181.6979475808648,537.6532469205804,605.1289804200356
24,21658.293409851853,16699.0,"[3, 13]",2,165.45886201365192,410.77878753145205,537.2437941288468
24,5811.114589171302,3367.0,[4],1,368.7989820597969,144.2965686252421,262.50570780694136
24,6583.052397137927,5160.0,[5],1,193.33141278908204,315.3769580662862,779.1768275781476
24,6548.380390986785,4834.0,[6],1,191.54800062123496,317.2458287706339,397.6307084789642
24,8389.465744148523,6388.0,[7],1,371.79120575847514,343.25115500177463,579.0135915861918
24,31820.680742271616,22833.0,"[8, 9]",2,146.76952014999273,122.42510949448949,160.17112722702493
24,5177.329525710453,3866.0,[10],1,295.8343738818126,462.7728069671503,761.3504736138343
24,5660.579921817146,3797.0,[12],1,217.60238856469877,132.44259130432428,656.3777409098623
48,30469.911084519554,21313.0,"[0, 8]",2,160.22992429140174,133.5045843301246,235.11078776387902
48,13282.33827139676,9299.0,[1],1,225.42548962987033,550.9732092077365,554.0170657826981
48,23408.36306951708,15751.0,"[3, 13]",2,173.4462835974572,427.66340763147247,507.4758432792248
48,6380.539266127553,4326.0,[4],1,373.2734633565209,158.2099763208079,247.84868775390362
48,5332.460495461293,3005.0,[5],1,239.4851732863754,307.6385493102696,754.0821518677078
48,8757.202090127885,6442.0,[6],1,192.20320760846224,340.2391740180349,385.0127486689403
48,7895.124059109833,4929.0,[7],1,375.9230150336954,347.8536231484681,569.2794832488245
48,38290.30956741622,27040.0,"[8, 9]",2,143.42894060647953,127.46902377596037,151.86982896619196
48,6084.462408033596,4254.0,[10],1,312.0840549343583,445.7815735753948,740.5067398131596
48,5233.317224082661,3232.0,[12],1,235.83443452587508,141.57839233782724,640.6722418733334
72,31626.740375007466,20854.0,"[0, 8]",2,166.73135809042998,133.6208276841968,237.62725424219303
72,24164.02526537679,18434.0,"[1, 11]",2,203.38572470376587,550.4655551370461,578.3318127031326
72,4122.25389742173,3249.0,[2],1,476.09185711392485,133.95672951022846,625.598373174105
72,21244.106131466135,12968.0,"[3, 13]",2,174.8528193266281,433.01938397290877,514.6232498782779
72,8146.861291352915,5891.0,[4],1,420.711245042693,175.351182547351,237.93657354570573
72,6474.309488375029,4589.0,[5],1,239.61978838168187,295.0294358702315,776.0123677979192
72,6170.138491075218,3074.0,[6],1,191.57442752613179,327.9794458059604,393.68950862645414
72,5973.347880252812,3182.0,[7],1,398.0685469555962,362.8686152332385,562.734022230722
72,34190.66877442608,20653.0,"[8, 9]",2,142.48587890276573,127.33194695901268,155.63028253349378
72,6037.182314297594,3886.0,[10],1,327.33410996533405,454.6606834474056,745.1567251249454
72,5505.257048624604,3655.0,[12],1,239.2183168120936,135.444251153049,657.0787339145253
96,15113.298786239804,9803.0,[0],1,241.66474392339154,135.86051863395605,266.3090266275425
96,42871.4337333191,30859.0,"[1, 11, 13]",3,233.31668773365587,518.9674408776768,552.9492405238468
96,4894.43684231979,3437.0,[2],1,500.4248480046608,133.47101901824672,626.641065431663
96,8992.765082539601,4951.0,[3],1,135.01291301447472,452.7596020987403,494.0420275282407
96,9582.35043225092,6702.0,[4],1,435.6014577032161,173.1727373339419,231.5063228114032
96,5781.014071365195,3492.0,[5],1,306.14145641843277,280.6690158757439,774.7829661284868
96,6579.473383949709,4398.0,[6],1,199.14048408341085,320.3959205383721,395.94858624459783
96,5764.897396256527,3653.0,[7],1,416.13887688702624,385.93406452281573,553.6715221344068
96,25462.22687184991,13374.0,"[8, 9]",2,150.8946428585674,127.68468678084213,152.68747635318306
96,7864.466276849662,5730.0,[10],1,380.040617350175,463.6749358264962,748.1580686622093
96,5547.402295628748,3601.0,[12],1,277.2876382539596,128.7267379069856,651.2012945134031
120,14817.358028924293,9474.0,[0],1,263.21920831888707,130.94806707572207,268.88582079395917
120,40591.34075600983,25434.0,"[1, 11, 13]",3,252.50652846506338,529.8008132306693,542.9342970429914
120,9171.444740646799,7441.0,[2],1,541.6220330373341,133.94882241881692,601.1306715413644
120,6170.422585740678,2991.0,[3],1,144.32027833276504,471.54827151509016,480.71883884956657
120,16551.872485175234,13164.0,[4],1,479.25944331433743,156.28051474616785,226.6526584564322
120,6067.897125998591,4024.0,[5],1,338.31500440686733,287.6115989883526,760.9721427145613
120,4177.19512321362,1851.0,[6],1,218.3674920618688,321.07847210691835,383.10531903866524
120,6287.199020868831,4249.0,[7],1,448.9571337009329,404.0237034009641,536.4065529185775
120,19428.256642597706,10426.0,"[8, 9]",2,168.10073909798305,124.56677736202946,148.1270245283899
120,10491.508717386658,7711.0,[10],1,433.4141420449393,479.31173071091655,748.8640808045267
120,5196.302890604455,3235.0,[12],1,305.7085162045984,124.01858335091968,638.4766344728159
