time(in hour),cumulative size,size,pcore_ids,pcore_power,SCA-1,CD11b,Ly6C
-1,0,0,[],0,0.0,0.0,0.0
0,43115,43115,"[1, 3, 4, 12]",4,191.8586106923358,142.89156905949213,261.0997100776988
0,7659,7659,[2],1,219.468599033817,513.6307611959795,627.4628541585046
0,17419,17419,"[5, 9, 13]",3,192.02715425684764,385.01814111028114,534.7653711464482
0,5148,5148,[11],1,346.007575757572,328.17832167832154,634.3346930846907
24,55512.62447183195,37385.0,"[1, 3, 4, 12]",4,183.1467516272274,143.09373371694937,251.86632098590988
24,15166.2128222141,11946.0,[2],1,196.1041712619124,529.1904087836175,613.5611465767196
24,30031.78732865223,22708.0,"[5, 9, 13]",3,184.02154952099232,398.55340117387175,527.5750216134556
24,7430.552780808218,5655.0,[10],1,242.7282763912895,404.5659080699868,768.0225462334677
24,7242.4673728630605,5078.0,[11],1,341.022055238381,332.5871068165358,623.7579700508965
48,24353.288724222602,14768.0,"[1, 4]",2,198.35409092771403,155.51008865599084,268.8752564900592
48,15623.60699758738,9247.0,[2],1,219.79208970470475,526.9835745981804,592.057922484689
48,37483.81115416279,24857.0,"[5, 9, 13]",3,198.70130930565333,406.6034125715949,498.54093252977674
48,7849.162598367575,4725.0,[10],1,277.43757061686773,387.17272581394764,740.4841269123945
48,6841.082425716268,3796.0,[11],1,337.8325421866317,326.69349890969204,612.8419702622544
48,54250.213875991765,36491.0,"[4, 12]",2,172.27115192119513,142.12100581463255,182.5419495825389
72,26122.29659391875,15883.0,"[1, 4]",2,205.51180667919522,157.50085013785088,272.4037479776646
72,27621.917558802037,21053.0,[2],1,218.19922909104588,524.8971446501947,582.6306464269812
72,40786.15218545201,22910.0,"[3, 12]",2,183.36188810915357,143.4839546496152,232.83515378599833
72,30446.001214791344,14686.0,"[5, 9, 13]",3,197.1663153294956,407.4269782936292,505.8516746957941
72,7458.166345855412,4158.0,[10],1,289.52909247266234,378.0388193313896,752.2262892934905
72,5073.320844119998,2197.0,[11],1,357.613649650448,335.983938908186,616.3316354889963
96,24626.072782010295,13643.0,"[1, 4]",2,222.77953853558756,158.51923832306014,273.5920684459653
96,37198.58572881513,25585.0,[2],1,244.90080132141392,527.7482894463419,564.6056039234126
96,6064.77181661,3625.0,[3],1,292.47055802207285,177.07721352180235,717.4914239159406
96,28117.96664016414,15317.0,"[5, 9, 13]",3,207.64899182848217,412.7868243808353,497.49580372111694
96,4692.277683254412,3122.0,[7],1,476.6246734777814,134.54310564091074,641.712687580478
96,5935.278092368194,4250.0,[8],1,454.6041938220503,171.2997970172222,247.06520721621553
96,8123.772672297855,4988.0,[10],1,347.1652309558293,385.66635541278936,761.302277997052
96,5074.068655626228,2941.0,[11],1,388.9784708973094,368.91869935643655,617.8114459796446
96,40040.19395969378,18236.0,"[4, 12]",2,177.9706145302565,143.0445106687737,187.63830211975275
120,12220.008714848573,7409.0,[1],1,303.77387344951643,152.39639451706847,277.82585423458056
120,35715.07869593431,20075.0,[2],1,264.1872606720111,536.00995651074,552.6373396952429
120,6222.922439959553,3673.0,[3],1,323.5971938196037,177.51742385076759,712.8751041207911
120,30833.827783384964,13999.0,"[4, 12]",2,186.73791287187356,140.31977258427858,184.17316012943553
120,12676.639903894076,5919.0,[5],1,191.86451329845536,463.2128926812583,504.12620057278383
120,5010.212507991433,3641.0,[6],1,348.7077063456745,167.02335474543474,445.7820003791933
120,8599.859741611821,6627.0,[7],1,537.246509708458,134.0452880937705,618.545335253581
120,13620.47703570316,11125.0,[8],1,494.145859089572,153.45348802382654,223.02093700292372
120,10845.625659235677,7430.0,[10],1,397.94250755574427,419.2232926258172,755.1191468781032
120,6305.383071633665,4172.0,[11],1,449.50339302825853,412.6085407435944,617.4382168513984
120,4843.967859767099,3033.0,[13],1,311.70437315512186,441.2500479837782,498.08043299713995
