time(in hour),cumulative size,size,pcore_ids,pcore_power,SCA-1,CD11b,Ly6C
-1,0,0,[],0,0.0,0.0,0.0
0,5105,5105,[0],1,256.3647404505384,430.86013712047026,776.557296767875
0,43940,43940,"[1, 5, 7, 8]",4,189.96852526172162,143.0671370050072,271.7487027765129
0,25381,25381,"[2, 9]",2,191.64020330168393,432.1686300776193,564.3726803514447
0,5829,5829,"[3, 10]",2,416.437810945271,136.53130897237952,468.449305198148
0,3315,3315,[4],1,254.56168929109964,174.21236802413287,483.6298642533937
0,6449,6449,[6],1,355.24499922467953,352.72460846642906,621.9511552178614
24,10649.780117957325,7040.0,[0],1,231.34800115443247,420.6255253143241,769.6373070188265
24,68679.2719653369,37609.0,"[1, 5, 7, 8]",4,182.54915036175035,141.63661870145123,263.2015830135342
24,50694.077213295765,32747.0,"[2, 9]",2,180.82801837495307,449.3995359124957,555.628144740241
24,6901.725427536386,2780.0,"[3, 10]",2,412.58716305918864,138.84782550504173,439.82355493827816
24,5314.058979633405,2970.0,[4],1,249.71638793233555,179.75846133647266,481.7501905668796
24,11414.131631872046,6854.0,[6],1,351.34560274656985,351.974444835496,607.2172951847742
48,11908.531739553295,4378.0,[0],1,254.35037096263176,413.3844521314994,755.5108694522497
48,91684.57893364487,43121.0,"[1, 5, 7, 8]",4,181.88333596352894,145.84279349616577,243.2328545488312
48,67452.12576351588,31606.0,"[2, 9]",2,192.8750612522998,450.85623230030365,533.1062430883017
48,8174.256851698603,3294.0,"[3, 10]",2,402.695729919284,144.02410801659514,422.2020399088408
48,5850.607140124046,2093.0,[4],1,254.73323479192365,181.6812601423632,479.3731468646784
48,13579.009878252597,5508.0,[6],1,346.84154976505727,351.370553813438,606.44537867748
72,12226.603547013368,3806.0,[0],1,262.58949376798563,406.97684886610773,758.3220042643474
72,103400.78749421358,38570.0,"[1, 5, 7, 8]",4,185.84634960991616,147.41405285298652,252.83995546290507
72,83244.85553282991,35549.0,"[2, 9]",2,197.23092739226757,464.48443539700065,543.2523014728988
72,7140.6084925168925,3861.0,[3],1,421.7458199141098,165.06563015986202,241.03740415434535
72,6036.003982840147,1899.0,[4],1,262.5930021587113,182.61404398506164,476.10929780956957
72,13026.809966711528,3425.0,[6],1,357.78979361133423,357.4165353998908,609.0261776693706
72,5390.463958479789,2890.0,[10],1,451.8098497712807,135.29498464351144,640.0632062636009
96,13785.514278972649,5140.0,[0],1,305.59579661856793,408.3231168726986,763.5978972495108
96,101216.39801718757,28101.0,"[1, 5, 7, 8]",4,194.6291332993818,148.1988535605233,258.9543837933003
96,98460.00184615853,39597.0,"[2, 9]",2,210.93430889490418,477.07694797405975,538.595411641229
96,18356.806305639686,9496.0,"[3, 10]",2,451.18698478870255,151.42801732390134,403.53876319059947
96,7059.099347535277,2791.0,[4],1,277.2512362875667,182.22776287070755,469.3410051656659
96,14086.345664690225,4875.0,[6],1,376.79477634548334,378.8893429772139,608.4657330852222
120,17003.83062880554,7256.0,[0],1,349.0548215799079,423.187441829188,762.6537957236337
120,94402.80140522997,22832.0,"[1, 5, 7, 8]",4,205.41051492533117,146.4611061414645,262.2659434565504
120,98607.73498105869,28986.0,"[2, 9]",2,222.66491119090568,490.66103026010506,534.5035967150366
120,20626.77989043278,13079.0,[3],1,472.3285162108565,156.71009742344964,225.40609420338785
120,8203.537017711727,3212.0,[4],1,303.4310448970281,176.93009989352086,461.31577062963805
120,16801.550541640187,6841.0,[6],1,412.06758843218665,406.5985120529542,610.2744899549333
120,13226.44232921302,7794.0,[10],1,512.9429983094394,134.19032758814674,626.2838277428449
