time(in hour),cumulative size,size,pcore_ids,pcore_power,SCA-1,CD11b,Ly6C
-1,0,0,[],0,0.0,0.0,0.0
0,12665,12665,[2],1,NA,151.28551125148124,NA
0,22240,22240,[5],1,183.1695593525201,132.09649280575596,NA
0,5176,5176,[6],1,NA,NA,NA
0,5300,5300,[8],1,NA,NA,NA
0,16178,16178,[10],1,201.5427123253818,NA,NA
0,8979,8979,[11],1,226.22107138879707,NA,NA
24,8045.8824720328,6280.0,[0],1,NA,NA,NA
24,15222.976549594146,9898.0,[2],1,NA,NA,NA
24,32078.68741975732,23404.0,"[4, 10]",2,NA,NA,NA
24,31353.768137621308,22003.0,[5],1,176.92731715776034,133.64188500813106,NA
24,5001.239922676614,2825.0,[6],1,NA,NA,NA
24,6768.375500422344,4540.0,[8],1,NA,NA,NA
24,17795.20445628155,14020.0,[11],1,199.8650707020296,NA,NA
48,7977.876864142538,4595.0,[0],1,255.94695396023906,359.29985870205866,750.5113442257889
48,10026.77218081625,7381.0,"[1, 9]",2,NA,179.2623530460186,291.0782242949026
48,14320.47320502254,7920.0,[2],1,170.7409159465139,146.0826934546945,264.33731728901887
48,4518.98151136648,1013.0,[4],1,192.5847017797788,334.1088963598867,509.4914813787085
48,39473.63561581094,26291.0,[5],1,166.76455689673432,130.73483586105874,143.9283060776712
48,5134.762361401265,3032.0,[6],1,288.1708465667155,145.8463386805773,684.3937702902581
48,8780.751347698108,5935.0,[8],1,346.5651425559827,348.05177047412803,629.5621434060096
48,30445.4451172927,20464.0,[10],1,186.265607910557,428.33143358153126,495.046770391281
48,17036.961817997042,9555.0,[11],1,217.5904288185866,533.5028462945837,599.7403326508079
72,7464.284028196503,4110.0,[0],1,265.2518007427368,NA,763.2578279973868
72,6309.064824265026,3239.0,[1],1,NA,175.45011373153073,288.80097025598513
72,15580.017291420161,9559.0,[2],1,NA,142.886518135887,266.33613304459607
72,39765.61934318338,23169.0,[5],1,178.99683164295985,130.5766235115771,155.3368565788263
72,5299.901631441011,3141.0,[6],1,NA,155.37192117531882,697.4176285273277
72,6442.851165756781,2751.0,[8],1,379.3298747215267,NA,624.885261116677
72,27091.73282996757,14291.0,[10],1,NA,410.98841162489043,510.4396803596236
72,31154.16005978406,23991.0,[11],1,223.7143949870593,524.0179240599177,599.12846185766
96,7308.344840872998,4170.0,[0],1,NA,NA,NA
96,8655.634997163883,6003.0,[1],1,NA,NA,NA
96,13343.59034497305,6793.0,[2],1,NA,160.18327832830946,NA
96,25506.03912671611,12249.0,"[4, 10]",2,NA,NA,NA
96,30642.38337801334,13923.0,[5],1,NA,138.8140268406353,NA
96,6749.334141538029,4521.0,[6],1,NA,NA,NA
96,5725.885224649046,3017.0,[8],1,391.65124778388537,NA,NA
96,5527.697842892489,4388.0,[9],1,NA,NA,NA
96,44572.71075725643,31474.0,[11],1,251.7154770611192,513.598316771701,569.6174631734585
120,8408.780489064042,5336.0,[0],1,NA,NA,NA
120,10153.246220429852,6514.0,[1],1,NA,171.16862474523631,NA
120,10317.288643850956,4707.0,[2],1,NA,NA,NA
120,8246.125796770755,7051.0,[3],1,NA,NA,NA
120,23987.535168700713,11104.0,[5],1,NA,137.7305910538558,NA
120,6695.745442484418,3858.0,[6],1,NA,NA,NA
120,8981.438179780796,6574.0,[8],1,NA,NA,NA
120,13428.110650346993,11104.0,[9],1,NA,NA,NA
120,14190.833756682756,5568.0,[10],1,NA,NA,NA
120,44080.5163469588,25340.0,[11],1,NA,NA,NA
