time(in hour),cumulative size,size,pcore_ids,pcore_power,SCA-1,CD11b,Ly6C
-1,0,0,[],0,0.0,0.0,0.0
0,11771,11771,"[0, 8]",2,221.16846487129325,128.95149095234038,227.45782006626493
0,7476,7476,[1],1,264.31474050294145,439.38884430176535,767.5480203317302
0,11925,11925,"[3, 10]",2,239.66893081760958,137.5738364779879,NA
0,14692,14692,[4],1,186.13469915600416,485.4399673291605,578.0345766403477
0,5686,5686,[5],1,229.6683081252192,205.70436158987,349.5181146676044
0,9219,9219,[7],1,164.30241891745516,340.5578696170952,520.5539646382449
0,7373,7373,[9],1,117.74922012749575,122.34300827342989,109.44242506442454
0,15410,15410,"[8, 11]",2,156.20188189487564,136.31005840363406,222.34399740428384
0,6537,6537,[12],1,370.054000305944,360.4001835704447,580.6926724797287
24,13995.676960673427,9834.0,"[0, 8]",2,217.91576879433913,136.83985807348137,226.94564744669194
24,10992.165148075315,8349.0,[1],1,230.0479911059843,426.5797699129871,767.3091755077791
24,13894.124182824791,9678.0,"[3, 10]",2,226.26571734388628,140.31919919852453,NA
24,24295.40641459638,19101.0,[4],1,177.30624471821747,512.097359800547,572.2989060354068
24,6198.304578913355,4188.0,[5],1,223.85528716606984,213.62525883468354,362.82806656198784
24,15490.408707879391,12231.0,[7],1,158.4222070071643,362.9527400982634,511.26495592298824
24,10363.749148844207,7757.0,[9],1,119.31113553461132,119.53700488996917,105.58485473436724
24,18671.25774904235,13223.0,"[8, 11]",2,149.18754541812683,142.34993526916185,220.89574587027866
24,9582.17851430823,7271.0,[12],1,363.5233730450211,354.3359326640418,577.3832557794688
48,8048.302595191273,5713.0,[0],1,235.88966371801132,103.37072773364895,254.43661121425632
48,9600.317258063244,5714.0,[1],1,271.1523388283426,415.5222389554919,748.7667019554669
48,15077.314714161705,10165.0,"[3, 10]",2,241.04785775978112,142.82702906503818,NA
48,23461.723313722123,14872.0,[4],1,196.94024697760165,522.2659677010046,549.2534407331045
48,6437.431599804631,4246.0,[5],1,228.54635847683585,226.5698858487354,361.78572995333
48,19750.68652034633,14274.0,[7],1,168.67655522797867,391.5407887848614,475.03735542375665
48,8564.91644790298,5952.0,[8],1,200.99303650296372,189.73514863485454,191.98516951070954
48,13351.138650832025,9687.0,[9],1,116.24548166087472,124.19024348299305,101.2423421346503
48,13060.37003591188,9072.0,[11],1,109.83931993653525,126.84740201241803,230.91552208378235
48,9168.811703003694,5781.0,[12],1,365.97138715565495,361.1176155345498,572.3945393413187
72,16895.659921354716,11022.0,"[0, 8]",2,218.9428691120671,141.41722704195456,228.3856613291396
72,9103.22471735938,5709.0,[1],1,278.54074235755843,411.276549829175,765.0143398122121
72,4500.340691583343,3507.0,[2],1,460.26551951694665,131.22171898996405,613.4871761858661
72,15357.635738233726,10027.0,"[3, 10]",2,238.78006925698242,145.65978146953472,NA
72,31162.971826727713,22868.0,[4],1,198.93037912741977,534.0382997062212,565.2836614736943
72,5958.97576882321,3683.0,[5],1,239.7683812411631,216.39315549548127,366.7597653801824
72,6054.918647135661,4733.0,[6],1,454.44132186575507,187.98935114817775,242.10221814779692
72,16598.922185813313,9616.0,[7],1,165.49491762036624,397.202347649514,485.3981359804697
72,11093.340338282569,6373.0,[9],1,117.84784351341257,123.87244725484044,101.02595587488335
72,12966.538108599441,8349.0,[11],1,111.16137812248611,127.41555987665461,230.17124525394084
72,7354.664465308245,4113.0,[12],1,385.5814842999999,382.7973601454023,577.7401618200332
96,9547.115833643751,6220.0,[0],1,249.57003307552228,106.80200270341568,256.9579048091786
96,9260.475964154906,6042.0,[1],1,345.76405108220973,414.40825559077643,773.1339396195722
96,5151.110710334169,3560.0,[2],1,490.131457014862,132.29210569018872,614.615797391123
96,14916.744186748969,9487.0,"[3, 10]",2,272.61583640832424,140.77920257845545,NA
96,37769.77435030225,26752.0,[4],1,226.12218832537337,538.6968238643805,557.420402641642
96,6930.816087530607,4824.0,[5],1,261.1102155972549,215.2271193450286,375.1186499724628
96,7265.7370174612515,5125.0,[6],1,465.65095211279976,185.1389280479973,234.39771853916352
96,16228.605218988212,10360.0,[7],1,177.40559329734177,405.83671125995255,480.85845510441527
96,6172.402017862094,3526.0,[8],1,205.90818923403913,192.76583665933072,197.8766029593444
96,7626.088089604937,3704.0,[9],1,119.63114151188155,123.7807167865175,98.72134827606433
96,9239.363512552227,4655.0,[11],1,111.45434038511169,129.1789463644831,232.465976196619
96,8345.266558385596,5745.0,[12],1,400.1192311589736,421.5611508166063,582.6166711632881
120,9805.415173371479,6430.0,[0],1,268.3646158714495,105.57065480335382,256.89005169829437
120,11759.072675634483,8485.0,[1],1,402.14230852261926,436.23318672195666,767.066753911985
120,9488.192656959973,7667.0,[2],1,537.2537209940955,135.59256836053174,597.7508027200503
120,14447.865483837606,9174.0,"[3, 10]",2,296.4534972154006,140.69923197961222,NA
120,35567.63178349222,22214.0,[4],1,244.53493260159152,543.5384100493952,545.593811913245
120,6698.413527324854,4248.0,[5],1,302.49700114161544,200.78552021367258,385.7932633902961
120,14089.825957682486,11521.0,[6],1,500.0294023621702,161.66088147492232,228.40040419734794
120,10926.67839977298,5189.0,[7],1,185.11913379852842,426.9677720292435,471.5587832536433
120,4885.273661519908,2703.0,[8],1,214.72983720840924,196.85382535628568,199.82256194947666
120,5386.2293010428075,2690.0,[9],1,126.86444465504901,121.86135398595262,97.9541275300385
120,6299.60829678662,3033.0,[11],1,118.15999312125429,124.68934272707855,233.34360127030436
120,9596.497287121889,6646.0,[12],1,429.34912424651424,456.6397405979606,575.4840273972068
