time(in hour),cumulative size,size,pcore_ids,pcore_power,SCA-1,CD11b,Ly6C
-1,0,0,[],0,0.0,0.0,0.0
0,5882,5882,[0],1,231.75586535192124,403.83917035022023,790.493539612376
0,25107,25107,"[1, 3, 7]",3,175.90966662683866,132.30370016330116,248.32819532401285
0,17519,17519,"[2, 10]",2,185.71059992008912,477.8840687253848,591.428049546206
0,7996,7996,[4],1,178.143446723363,341.139569784894,479.9736118059013
0,4859,4859,[5],1,401.0829388763085,305.0963161144265,685.739452562255
0,4481,4481,[6],1,355.60589154206207,376.8623075206432,529.2642267351025
0,4659,4659,[8],1,405.5898261429464,154.70165271517516,297.7241897402883
0,23454,23454,"[7, 9]",2,150.357934680654,120.92014155367946,157.3212245246017
0,7597,7597,[11],1,273.03093326312893,130.4901934974336,678.9543240752932
24,11878.202086939273,7719.0,[0],1,211.89869143577576,394.2977805755869,782.6547579864658
24,39661.32995525065,21908.0,"[1, 3, 7]",3,171.82672294735454,132.82248097185254,246.332142663958
24,36967.80369960713,24580.0,"[2, 10]",2,176.75027464008727,491.90604295307014,580.3960049822481
24,14226.025822367636,8572.0,[4],1,172.68319898569166,347.0602400307937,476.0222060442309
24,6932.831849785434,3497.0,[5],1,384.4256710018452,312.56241130746815,674.5659714669929
24,8239.54548649692,5071.0,[6],1,356.29494945180744,366.76505621308837,526.2121295271995
24,5836.410493548125,2542.0,[8],1,403.59744776787517,155.55001641466106,297.01915188793663
24,38547.48244594929,21963.0,"[7, 9]",2,148.0290842941985,121.85410477960556,154.27217834114123
24,10276.890216674201,4905.0,[11],1,257.2098313317433,134.79544537443604,676.276669745126
48,12018.157243978962,3619.0,[0],1,231.0777245449829,397.17786704760437,771.0528487817201
48,53068.79536223489,25024.0,"[1, 3, 7]",3,170.22757387198484,136.99548385704674,239.6362202184342
48,45459.18468156534,19319.0,"[2, 10]",2,185.7660202391146,499.4190715870432,560.7520666558692
48,21132.319328331087,11073.0,[4],1,177.8839029843359,365.91410817222715,455.50046960868934
48,9610.252413809358,4708.0,[5],1,369.13324654215637,319.2036694988474,683.0330130003128
48,10461.238487396982,4635.0,[6],1,358.54247581488437,369.9542545563384,524.3885194086125
48,7479.9654377762035,3353.0,[8],1,401.41745876908226,164.94468481870803,290.19649786569727
48,53759.18623520015,26502.0,"[7, 9]",2,145.277316599696,125.68493871801185,149.97655397311956
48,11598.858761720016,4332.0,[11],1,266.27012017823716,138.84740700302768,665.9471592478238
72,13557.120484583753,5059.0,[0],1,236.69711780873394,389.8856231300067,777.4960782353962
72,60784.30507003749,23259.0,"[1, 3, 7]",3,172.00215793915984,137.0344748591851,239.36883464839562
72,60108.49775554648,27964.0,"[2, 10]",2,189.63548992673427,509.6988673765311,563.0998579550121
72,20334.806299262462,5392.0,[4],1,177.17575732120056,365.87398626240326,457.396207748635
72,11169.474650718985,4374.0,[5],1,396.5748397423218,311.7300099939582,686.7380754522853
72,10436.212674048107,3039.0,[6],1,369.45873629717994,376.91846874718294,521.552365009768
72,11110.134284092557,5821.0,[8],1,426.572687802212,174.07742678885515,275.69002927089497
72,58047.48513798053,20034.0,"[7, 9]",2,144.05842209306837,125.91094226824613,151.7715622745958
72,13998.631684437225,5797.0,[11],1,275.45552602541767,137.18014273587121,672.2952309625153
96,12268.331828012226,2682.0,[0],1,260.12665444554483,399.26462920665824,778.1252198563521
96,34856.450758961175,12439.0,"[1, 3]",2,230.74028156476282,146.01528628285874,268.27974799110547
96,74233.12636988328,31730.0,"[2, 10]",2,207.4548917128526,518.230717900876,558.0998059423354
96,20710.87942832341,6332.0,[4],1,182.23469772036526,367.5468712360401,454.6929045085134
96,14959.01126781464,7061.0,[5],1,417.6177449814344,319.2824743520631,706.9392400761546
96,12227.516751724408,4848.0,[6],1,376.7129521966375,393.48007055280726,523.0305175079118
96,77737.38910159835,20967.0,"[3, 7, 9]",3,178.3239322803072,127.71611313913375,176.83862105257873
96,14835.051292174996,6979.0,[8],1,436.8735764758475,173.35526133432336,268.03884478584666
96,15426.527391398426,5528.0,[11],1,300.8289520856285,131.63833628294506,670.320318787673
120,25864.638936751904,6612.0,"[0, 5]",2,NA,NA,735.0810822845887
120,40738.23269975642,16091.0,"[1, 3]",2,NA,142.54812626591675,274.8600917446224
120,86806.7470448224,34316.0,"[2, 10]",2,242.85514619301532,515.7841648077543,561.3903918588265
120,19165.80328810445,4521.0,[4],1,NA,347.250231486034,468.25984844549794
120,13780.160012216436,5134.0,[6],1,410.5424362526405,NA,548.0192928783802
120,52050.57376248465,14258.0,"[7, 9]",2,173.2000510627568,125.89829711203646,157.84249197931848
120,16736.965367947196,6247.0,[8],1,460.14379059132347,164.9547350462797,NA
120,13729.20212861785,2821.0,[11],1,NA,132.99604470410378,667.659157639505
