time(in hour),cumulative size,size,pcore_ids,pcore_power,SCA-1,CD11b,Ly6C
-1,0,0,[],0,0.0,0.0,0.0
0,20273,20273,"[0, 3]",2,0.2297481512190081,0.5119721569802984,0.6027449699134646
0,36047,36047,"[1, 10]",2,0.20443169856582546,0.15528209337557972,0.177588458967483
0,4846,4846,[2],1,0.2666559238013968,0.18454460739183093,0.7515910994028099
0,3217,3217,[4],1,0.26952635751782167,0.20158251483563658,0.4105475989540543
0,19859,19859,"[3, 5, 7]",3,0.22768619893847244,0.4244422044189836,0.5640781989641676
0,4945,4945,[6],1,0.3769750400472577,0.3958518820143748,0.7495105402185729
0,2780,2780,[8],1,0.46585158839220386,0.14233088642208386,0.6696235439265523
0,3006,3006,[11],1,0.22291372311556654,0.4929654266128388,0.8138789236671437
0,3737,3737,[12],1,0.3875204829927226,0.1670596832215935,0.2654869471778332
24,37233.5,27097.0,"[0, 3]",2,0.2129585641056916,0.5325832779523287,0.591613352118453
24,56011.5,35565.0,"[1, 2, 10]",3,0.20212063192882027,0.15877661152567993,0.23186701617332045
24,3965.5,2357.0,[4],1,0.25924115156143085,0.19753575950035063,0.4198299700170108
24,28944.5,20463.0,"[3, 5]",2,0.20310835091023854,0.4433962750837955,0.5446610999370165
24,10964.5,7044.0,"[6, 7]",2,0.34610092530489894,0.39651284100951906,0.6972105055381711
24,3687.0,2613.0,[9],1,0.4052609685411478,0.34970843504203897,0.4939263215185113
24,6405.0,4902.0,[11],1,0.20766834197300357,0.4747078781071063,0.804475814934394
24,3991.5,2123.0,[12],1,0.38844651626278426,0.16393957635087686,0.252856920064268
48,44942.75,26326.0,"[0, 3]",2,0.22999724555941067,0.5297075218193023,0.55896356957668
48,64724.25,39688.0,"[1, 10]",2,0.19843545867206394,0.16277670008253065,0.16503647695823237
48,5419.5,2450.0,[2],1,0.2771203342901351,0.19469673155301828,0.7310393508059151
48,3561.75,1579.0,[4],1,0.2694295585981835,0.20519331369912822,0.4185191646645271
48,36253.25,21781.0,"[3, 5]",2,0.2196566491481552,0.4528295996430103,0.512868341717063
48,13311.25,7829.0,"[6, 7]",2,0.34896447522106927,0.39660008863662355,0.6970232783236558
48,3161.5,1318.0,[9],1,0.3954763863690014,0.3417394336413132,0.4917236609584908
48,4170.5,968.0,[11],1,0.2288097646794166,0.4737245580220041,0.7943111268590592
48,4069.75,2074.0,[12],1,0.37226771100286604,0.17204972733658244,0.24924017730359146
72,55016.375,32545.0,"[0, 3]",2,0.23414661860504957,0.5456823241570683,0.5709678616184781
72,64791.125,32429.0,"[1, 10]",2,0.20133137642547144,0.16269568658889824,0.17255915715208547
72,6764.75,4055.0,[2],1,0.286371291862849,0.19559910060787217,0.7405674237710902
72,3462.875,1682.0,[4],1,0.28693671678765953,0.20495272821947927,0.42163480481438353
72,31576.625,13450.0,"[3, 5]",2,0.21865626761226703,0.45467136762575683,0.5194516799057661
72,15943.875,7203.0,"[6, 7, 11]",3,0.3315678531407408,0.41223711030182864,0.7320156177015641
72,3528.0,2492.0,[8],1,0.5107996382073438,0.15750478877448376,0.6434446713911994
72,2722.75,1142.0,[9],1,0.4218309830093657,0.3509364804099523,0.48340945375096867
72,6462.875,4428.0,[12],1,0.4268337720606876,0.18355939243309546,0.2296655210824457
96,63891.1875,36383.0,"[0, 3]",2,0.257103201632612,0.5609161389305155,0.5629590946262842
96,54482.5625,22087.0,"[1, 10]",2,0.2079424713883538,0.16387817476014793,0.1754965293049859
96,7299.375,3917.0,[2],1,0.3301426934543959,0.18572642082184118,0.7396071051328345
96,4613.4375,2882.0,[4],1,0.31606122807778353,0.20203835993309607,0.41163326362013597
96,29209.3125,13421.0,"[3, 5]",2,0.2243578764766458,0.46070700271868514,0.5077705052581992
96,9867.1875,5977.0,[6],1,0.41393486170789473,0.416288252849102,0.7760070253770602
96,4935.125,3014.0,[7],1,0.3856501591293043,0.4427171910745536,0.6228124503404964
96,4580.0,2816.0,[8],1,0.5453964476718537,0.15046414360587992,0.6484131859007385
96,2852.375,1491.0,[9],1,0.4563705043746766,0.35078707630122424,0.4658229608019203
96,9563.4375,6332.0,[12],1,0.4541659608167935,0.1779604977656487,0.2067464308890922
120,60644.59375,28699.0,"[0, 3]",2,0.27397947540445916,0.5761442568194416,0.5538997944666826
120,52185.96875,21295.0,"[1, 2, 10]",3,0.2397086050543415,0.16446006364112334,0.25422944441007467
120,5899.71875,3593.0,[4],1,0.3547345411806924,0.18600077065756662,0.4038271295608704
120,21410.65625,6806.0,"[3, 5]",2,0.22430587362571883,0.47850005588241035,0.5028381279435485
120,13006.59375,8073.0,[6],1,0.469623421072159,0.4631321890542563,0.7775325635090046
120,6379.5625,3912.0,[7],1,0.4283980720121278,0.4913774003371638,0.6213875230611947
120,8810.0,6520.0,[8],1,0.6025190348046836,0.14534691575158804,0.6349994367291155
120,4441.1875,3015.0,[9],1,0.5289667899012862,0.33287938695261765,0.44021942022456434
120,17603.71875,12822.0,[12],1,0.5124704702113537,0.1655517148730776,0.19137797727310696
