time(in hour),cumulative size,size,pcore_ids,pcore_power,SCA-1,CD11b,Ly6C
-1,0,0,[],0,0.0,0.0,0.0
0,3889,3889,[0],1,296.0485986114673,440.1049112882494,794.9467729493447
0,20586,20586,"[1, 3, 8]",3,185.87656659866025,114.6498591275624,154.23248809870807
0,5270,5270,[2],1,234.18937381404132,549.9918406072086,629.2318785578751
0,6579,6579,[4],1,169.23514211886535,467.96002431980577,538.6391548867615
0,5913,5913,[5],1,270.29967867410545,159.64163707086078,313.9424995772028
0,4739,4739,[6],1,219.26587887739942,191.48976577336987,751.8811985650977
0,3335,3335,[7],1,248.3247376311836,138.25877061469265,539.9802098950515
0,3134,3134,[9],1,419.0156349712806,112.32195277600506,676.5223356732616
0,17902,17902,"[8, 10]",2,123.04440844598766,128.4608982236622,177.04105686515473
0,5059,5059,[11],1,236.62008302035963,393.77900770903267,591.6744415892479
0,2847,2847,[12],1,430.84439761151947,131.9276431331225,238.31787846856366
0,4869,4869,[13],1,378.03532552885065,343.09036763195735,644.5945779420806
0,2712,2712,[14],1,188.60582595870227,333.0822271386435,352.943584070796
0,5925,5925,[17],1,140.57586497890517,350.02936708860756,528.6386497890295
24,6979.938272034484,4230.0,[0],1,278.93375210843374,427.25712220269463,786.7447162341558
24,34242.50019750627,19686.0,"[1, 3, 8]",3,183.7538801814321,114.92136013248816,151.66317335230485
24,10975.452736853105,7249.0,[2],1,222.24227933677244,561.4627248118821,626.2890489142662
24,16462.055513426298,11810.0,[4],1,156.81002131563696,484.9349465921296,534.5961349152661
24,7788.122397156056,3607.0,[5],1,268.42079949998543,162.55307245016226,318.6251948617998
24,7331.979036043049,3981.0,[6],1,209.86848924054843,199.11079717315027,750.9332892143628
24,5005.201115257136,2647.0,[7],1,236.41660863951154,136.91097945470764,543.7845294357277
24,3288.07265223864,1072.0,[9],1,416.27519653143077,112.97305354248748,666.1697834513512
24,29470.625596801576,16812.0,"[8, 10]",2,120.95566436447287,127.70059468471597,172.4951659889348
24,8193.253206022744,4616.0,[11],1,234.83089100427392,398.3640119156022,582.0955575486228
24,3591.133006038101,1578.0,[12],1,428.0000419683817,130.53481784493175,232.67102211729613
24,8142.9029175973,4700.0,[13],1,368.7893562783835,342.8786829431376,634.0657140718633
24,4296.673590577917,2379.0,[14],1,180.5944517572197,345.99137196146603,334.8573169001099
24,5044.352739403996,3278.0,[15],1,100.6152134617499,441.8414758009375,730.9926956988793
24,4195.303966168717,2593.0,[16],1,377.3674823887504,366.34101325163994,454.6483718796443
24,11815.607678530294,7626.0,[17],1,140.68245735275244,351.3056490194712,517.4711037024331
48,9051.561684419095,4116.0,[0],1,292.1684491141328,419.6526537820935,769.9211826463654
48,29045.41636718737,14160.0,"[1, 3]",2,221.5721606883602,114.81680651968061,179.54352324272404
48,12994.817056821284,5234.0,[2],1,233.87875788742292,563.8790034095205,614.3785401829393
48,24183.43108581313,12543.0,[4],1,166.43503696424563,490.5531305633279,513.4532574456537
48,9808.034159739876,4301.0,[5],1,270.4252930641749,170.5682602147552,316.70921834759264
48,7588.492095903646,2404.0,[6],1,227.62895471411335,204.75930323391088,741.7935778731902
48,5875.211649800791,2336.0,[7],1,238.74908669050416,138.3960241669432,548.1328560596718
48,40767.879205308236,19929.0,"[8, 10]",2,117.80054720785833,130.8875607732385,166.04084047280082
48,3865.018469431979,1540.0,[9],1,407.3632591291051,117.49114257173245,659.7171709444978
48,9868.504901957105,4075.0,[11],1,240.7889484548935,406.2247418047397,567.1332711154087
48,4626.314500712372,2087.0,[12],1,423.5100559147274,138.24113248310394,222.36596759680126
48,9899.901871576774,4142.0,[13],1,366.1648339303698,345.5383552905089,634.0029672190462
48,7318.207032442797,4280.0,[14],1,183.45386067887762,360.7076716681411,338.53945974576504
48,3847.896028729503,281.0,[15],1,103.46459528895834,439.9935946089888,729.3440161493236
48,5553.527883616718,2587.0,[16],1,378.6225986331206,360.74705533281116,456.59860282731245
48,14339.896313328612,5985.0,[17],1,146.13992308568524,359.4004558494603,499.31242598472585
72,10260.42064738107,3860.0,[0],1,298.2444949763798,417.2199812380821,777.2133042421904
72,16819.150460241523,7220.0,[1],1,208.29878262658104,110.36440401433293,238.9627238961211
72,20692.72326115694,11504.0,[2],1,232.84036238646797,568.1465395700548,605.8777390054208
72,16458.0604153834,5519.0,[3],1,231.73734318892585,121.48073450540328,124.92576173750689
72,28755.268113136015,11655.0,[4],1,162.33935768367323,495.92325135916934,520.2486830247888
72,11436.327464461368,4501.0,[5],1,272.28522196042513,171.84106923658655,317.6679883943205
72,9696.874219993984,4331.0,[6],1,233.31181662229028,201.48406818542594,749.418201288307
72,6055.401998480343,1901.0,[7],1,240.33824397581145,136.5137640058141,552.5418846654135
72,44136.24384066749,15309.0,"[8, 10]",2,117.38420962210166,131.61835092019658,167.76241364237478
72,5911.980769146603,3179.0,[9],1,451.2526439834526,123.70084777849685,650.1491617372013
72,11887.086736346555,4909.0,[11],1,240.66857009837798,417.5417907557828,561.8492827590776
72,7460.298355355375,4189.0,[12],1,444.97989105318675,152.7720387370683,218.97347080143854
72,9836.287746473332,2836.0,[13],1,374.11128008852296,356.7781875570822,636.9527167296997
72,6505.753818767383,1331.0,[14],1,184.17628448514907,357.43073995750717,340.51278665545465
72,3912.873375215418,1192.0,[15],1,104.96942354454777,435.4454370103708,730.4518804562712
72,5893.937226013957,1967.0,[16],1,403.79225056525917,362.6528343951984,443.6329995589175
72,14736.837924666635,4597.0,[17],1,145.41397180091317,361.6548814345059,495.7841099024295
96,12297.21301758962,5042.0,[0],1,334.677161116929,419.19773461706313,781.5339189973303
96,17612.93534423362,5720.0,[1],1,211.99549541768747,110.4826471689982,238.5712059264557
96,29777.964939180685,15146.0,[2],1,251.52961373158846,566.778397441761,590.9211348222316
96,17057.60612489549,5420.0,[3],1,237.7121909588755,123.00090203599603,122.64656568076595
96,31331.045077635776,10998.0,[4],1,165.85956404518095,501.68252562227224,518.6690990758964
96,13422.70470199059,5336.0,[5],1,279.8690180640568,171.95967830897035,318.64764295872175
96,9742.72551727076,2886.0,[6],1,260.04797959499285,199.78105184223477,749.5808940665362
96,6398.815815936023,2117.0,[7],1,250.9597307412124,134.06993082634304,554.048230595753
96,39536.037315838985,8327.0,"[8, 10]",2,117.06330458496207,132.34515597802172,168.02549973562319
96,8163.401692108025,3983.0,[9],1,467.9261734932756,124.99289779588676,652.4706068302515
96,16263.439639823315,7858.0,[11],1,250.31655229906278,433.45838736595965,547.7671040199605
96,10233.227556746635,4958.0,[12],1,452.6495827240781,153.12405201163313,215.47140187598882
96,10853.305767233436,3898.0,[13],1,387.2525508933582,377.12577838689305,639.8970095445301
96,6945.262641980694,2345.0,[14],1,188.26433908379144,352.7724445310981,344.30825367402764
96,2851.8192975391166,85.0,[15],1,105.53453613779814,436.2702220365987,728.6781320833824
96,6375.642980402298,2208.0,[16],1,419.9472816842394,365.5401575580515,434.4043361587001
96,14093.518029778867,3673.0,[17],1,148.97862339954955,362.5183720452502,490.4359750001013
120,15741.442714433108,7046.0,[0],1,375.5528123798303,436.1367640774105,777.0830567399001
120,17880.226018507812,5426.0,[1],1,217.67207029758913,109.2701992102001,237.60408373577093
120,35426.20093842992,14370.0,[2],1,269.00062203283665,566.4714898154826,577.1992652872924
120,17532.548961722787,5471.0,[3],1,247.39336188470816,122.6905686640029,120.74915983794712
120,30339.39443605766,8185.0,[4],1,169.81895316691785,507.7053395636263,513.9783800097593
120,15549.285516642103,6058.0,[5],1,297.0462374470339,166.96994864501164,327.177461181824
120,10894.14728050137,4005.0,[6],1,299.47867854385623,187.76587440265442,737.1954840603802
120,6200.646055012093,1676.0,[7],1,284.36794166631074,127.15900514460515,556.1825510204484
120,32986.200087274134,5030.0,"[8, 10]",2,117.86874982774187,131.8939329050376,167.40107911076524
120,9500.396694039322,3728.0,[9],1,490.28263207677287,126.40278387204795,637.0352069216163
120,17536.98845473717,6037.0,[11],1,262.74930119054363,445.85565363735077,537.1069494870976
120,19939.98459880059,12704.0,[12],1,485.99277302490736,149.61096219911508,227.57724425371825
120,14181.446106301828,6507.0,[13],1,436.9784142539048,368.88307597930566,640.4929402296225
120,6331.042311266146,1420.0,[14],1,197.35141127072623,360.844911315105,341.0778661309331
120,5957.260385866876,1449.0,[16],1,439.92364349005686,357.3601074771077,436.1904116727537
120,10694.622169631508,729.0,[17],1,150.07511688531577,362.55634503509305,489.82746114408565
