time(in hour),cumulative size,size,pcore_ids,pcore_power,SCA-1,CD11b,Ly6C
-1,0,0,[],0,0.0,0.0,0.0
0,11700,11700,[0],1,0.21422087774896886,0.42088167614185884,0.5458847771876703
0,37667,37667,"[1, 2, 5]",3,0.20868420275489474,0.1570204640402618,0.18500148677163392
0,4580,4580,[8],1,0.36613684313821304,0.3972751882076309,0.6800067593195953
0,13009,13009,[11],1,0.23009057687806575,0.5399807616655252,0.6147087479783148
24,20292.86162276592,13336.0,[0],1,0.20673702802846367,0.43322507212794753,0.5403347762054789
24,55455.932200403746,33059.0,"[1, 2, 5]",3,0.20103618169209975,0.15672659129980443,0.17791213196960656
24,6289.2842933562315,3566.0,[8],1,0.3598693350887049,0.3999825051768116,0.6816975332909562
24,5154.860657398463,3641.0,[10],1,0.39079073017570104,0.3672787832563565,0.5781108850700951
24,26088.1976795352,18353.0,[11],1,0.21093633883553953,0.562487473664321,0.6015093828316062
24,5642.998884736433,3924.0,[12],1,0.18769402386449252,0.3373665188561664,0.8005620032821748
24,7072.413898377892,4716.0,[13],1,0.2851329088545055,0.5288990739374744,0.7874852253845708
48,25689.207712779447,13623.0,[0],1,0.20434994183483435,0.4543485948120697,0.5079824597330131
48,8901.433338692115,4704.0,[1],1,0.27409133903176297,0.18424074194617265,0.290050687564823
48,60602.86123222221,31826.0,"[2, 5]",2,0.18043367381643657,0.15071740378420478,0.14549986406588686
48,5789.326905095348,3126.0,[4],1,0.2759152727547268,0.15787664072249336,0.6637002973092847
48,6501.780730909745,4039.0,[7],1,0.20430874851509784,0.33586480901576293,0.40191441402078737
48,8228.630814967046,4489.0,[8],1,0.3648954192176235,0.3961123441392949,0.7050999978191558
48,5589.514019824341,3765.0,[9],1,0.40217146730823844,0.16438530071994456,0.18378517692485566
48,6848.0984853129285,3783.0,[10],1,0.4090271406813143,0.38405402105917713,0.569314343840549
48,28809.135149050366,13297.0,[11],1,0.2208015678511467,0.5807472985886485,0.5780036033922479
48,7741.2824640975605,3536.0,[13],1,0.30991951850735144,0.5288373465134941,0.7769939522933001
72,25603.89429541005,10329.0,[0],1,0.2128199407304672,0.4445822678836529,0.5175919892631146
72,9539.823930047543,4247.0,[1],1,0.30471757665786064,0.18204206867022152,0.2839089209067239
72,66172.67688344061,30138.0,"[2, 5]",2,0.19000989697057924,0.14982275649873464,0.15304620563635615
72,6042.354373308035,2600.0,[4],1,0.2955779816166045,0.16223189388449644,0.6852747181367105
72,5887.98195269273,2022.0,[7],1,0.21757497565975992,0.3294548119572573,0.4050644436583127
72,7755.773155944725,2863.0,[8],1,0.39348795529492436,0.37680435623254505,0.7061707194616657
72,5931.544920891283,2608.0,[9],1,0.43055840334926315,0.17439034219032656,0.1905372414344586
72,5640.903721486746,1569.0,[10],1,0.43290418384927914,0.381323001272994,0.564795118891117
72,42221.014248162835,25091.0,[11],1,0.2287009676162801,0.5866734522671101,0.5876822247125133
72,5408.21827160646,2831.0,[12],1,0.2265066315498595,0.3043319053900866,0.7981724107072787
72,8275.994092775309,3673.0,[13],1,0.33071479236199325,0.5225322567108289,0.7772684319292703
96,23304.166633939603,8080.0,[0],1,0.22107849389590156,0.45072959378569477,0.5126502890936745
96,11560.413246742879,5888.0,[1],1,0.3141205868789724,0.19041403223480663,0.2899386525072212
96,59086.50908428183,19740.0,"[2, 5]",2,0.1960296198243081,0.1602150256288363,0.16462677519753818
96,5671.805406052861,2079.0,[4],1,0.31032748227438767,0.16471687459068055,0.6721132315672074
96,13501.725345806397,8373.0,"[6, 9]",2,0.46415579799271467,0.17343910766247392,0.4035268035122625
96,6005.015015574905,2504.0,[7],1,0.22376214731618485,0.3308627440106385,0.4062702532650712
96,8395.610309698288,3784.0,[8],1,0.413697018555592,0.38059004596469437,0.7316561579922631
96,5318.101420318682,1964.0,[10],1,0.44586665448182905,0.40205794609854406,0.5684734965791088
96,56226.76527327325,31122.0,[11],1,0.2597097702238542,0.58022781658019,0.5729079580012838
96,8531.935529424443,3611.0,[13],1,0.369505878035671,0.5301425039331992,0.7615860653956937
120,16601.740385144993,2745.0,[0],1,0.2200821306088665,0.45828458471918615,0.5087770878818209
120,13672.862842699169,6799.0,[1],1,0.33315293709511146,0.1814270871435298,0.2865819781360048
120,48939.048501850426,13806.0,"[2, 5]",2,0.20240669726997298,0.15811630916494251,0.16078089637232384
120,8498.78845636925,6010.0,[3],1,0.5256559653817151,0.18445080698245736,0.44527681558067106
120,5577.47567189448,2205.0,[4],1,0.3287035277397678,0.16041234648648414,0.666484145631825
120,24102.17392302277,16074.0,"[6, 9]",2,0.5291882149613862,0.1636955473285626,0.36442562230945724
120,4511.603291109926,941.0,[7],1,0.227914845101109,0.33274321735764334,0.403955835742421
120,10163.059757541701,5171.0,[8],1,0.4357212313956481,0.3890418780089542,0.7453573781117965
120,6354.162023674527,3192.0,[10],1,0.4826991597654102,0.43942769420361205,0.5568881317436962
120,59532.63465828223,26100.0,[11],1,0.27526926081896264,0.588091573052425,0.55973311498681
120,11304.119218168027,6231.0,[13],1,0.4404294024262106,0.5565927325498352,0.7647181784046428
