time(in hour),cumulative size,size,pcore_ids,pcore_power,SCA-1,CD11b,Ly6C
-1,0,0,[],0,0.0,0.0,0.0
0,16718,16718,"[0, 8]",2,NA,NA,NA
0,43610,43610,"[1, 6, 7]",3,NA,137.95567530383016,NA
0,15036,15036,[2],1,181.61831604150194,NA,NA
0,4542,4542,[3],1,NA,NA,NA
0,6501,6501,[5],1,NA,350.87786494385415,NA
24,36165.41116787671,24344.0,"[0, 8]",2,NA,NA,NA
24,66093.92672754535,35257.0,"[1, 6, 7]",3,NA,NA,NA
24,27523.057561920927,16891.0,[2],1,NA,NA,NA
24,6364.679000149299,3153.0,[3],1,NA,NA,NA
24,5924.726547895302,3365.0,[4],1,NA,NA,NA
24,11586.901184493745,6990.0,[5],1,NA,NA,NA
48,12846.548116944221,4458.0,[0],1,NA,NA,NA
48,97143.9714653753,45908.0,"[1, 3, 6, 7]",4,NA,NA,NA
48,68700.00000528307,32054.0,"[2, 8]",2,NA,NA,NA
48,6341.414318692733,2152.0,[4],1,NA,NA,NA
48,13621.176400493967,5428.0,[5],1,NA,NA,NA
72,13767.881288330533,4684.0,[0],1,NA,NA,NA
72,101207.03814412741,37985.0,"[1, 6, 7]",3,NA,142.96651668644637,NA
72,84395.23587125151,35817.0,"[2, 8]",2,NA,NA,NA
72,10850.122830431945,5381.0,[3],1,NA,NA,NA
72,6897.057067061102,2413.0,[4],1,NA,NA,NA
72,13351.626200527453,3720.0,[5],1,NA,NA,NA
96,14579.3622215499,4844.0,[0],1,NA,NA,NA
96,88265.88700318008,23525.0,"[1, 6]",2,NA,142.83791014610696,NA
96,99819.44358440011,40143.0,"[2, 8]",2,NA,NA,NA
96,28751.491402443397,14256.0,"[3, 7]",2,NA,NA,NA
96,6673.955822349507,1797.0,[4],1,NA,NA,NA
96,14876.025426260941,5435.0,[5],1,NA,NA,NA
120,16386.1658922329,6077.0,[0],1,NA,NA,NA
120,81277.40724739419,18864.0,"[1, 6]",2,NA,NA,NA
120,99838.00545279734,29255.0,"[2, 8]",2,NA,NA,NA
120,45660.374539894445,25330.0,"[3, 7]",2,NA,NA,NA
120,6518.199419322778,1799.0,[4],1,NA,NA,NA
120,19193.938456012613,8675.0,[5],1,NA,NA,NA
