time(in hour),cumulative size,size,pcore_ids,pcore_power,SCA-1,CD11b,Ly6C
-1,0,0,[],0,0.0,0.0,0.0
0,5927,5927,[0],1,0.2564032811187805,0.42994155131780515,0.8323321645724537
0,20696,20696,"[1, 8]",2,0.18230901699509147,0.1588531327014473,0.22960899451859215
0,9218,9218,[2],1,0.24393394945404978,0.5975356596232663,0.6487575630327211
0,5217,5217,[3],1,0.38631074296864004,0.14421786762212294,0.7384285911272602
0,18268,18268,"[4, 10]",2,0.21568980448404998,0.44435643713954287,0.5412917326438371
0,7946,7946,[5],1,0.3962591594385662,0.1609520940556901,0.2619035673423669
0,5696,5696,[7],1,0.4377686687286906,0.38456672778229684,0.6679983687220018
0,28143,28143,"[8, 9]",2,0.176100908402396,0.13476426871618685,0.14673877216477982
24,12595.021892092667,8404.0,[0],1,0.23773077762752268,0.41833958757593853,0.8232599514689632
24,33462.28194343679,18828.0,"[1, 8]",2,0.1801689716354221,0.1626931448875723,0.23113146201171617
24,20330.110308977593,13812.0,[2],1,0.22546508080950575,0.6102362294281704,0.6322874707721475
24,22466.940574336255,14722.0,[4],1,0.1547957443215473,0.46147206181756373,0.5372189836972762
24,10097.670483308306,4479.0,[5],1,0.39727231448164485,0.15696585639722752,0.25624278320315685
24,7157.083978995683,4323.0,[6],1,0.24171099860525963,0.16456967666718386,0.6303306562915051
24,9999.680225638574,5972.0,[7],1,0.427622670601802,0.37229844763351366,0.6539839941093037
24,45637.106142933015,25737.0,"[8, 9]",2,0.17421679498430478,0.1340459237040006,0.1419212819181921
24,11776.486104379595,6604.0,[10],1,0.3056103901837295,0.43123410627142733,0.5202082731299644
48,13505.025389091747,4599.0,[0],1,0.26532348389046934,0.4237612925915202,0.8094317310526726
48,13131.914244354344,6278.0,[1],1,0.23083943865854983,0.2482919019420893,0.2847551504197293
48,24625.558861748592,10250.0,[2],1,0.23740247259926545,0.6143437010464101,0.6114000145100221
48,5430.749783362056,2678.0,[3],1,0.38643463958294055,0.1591316300073453,0.7310672781885765
48,45627.759215584316,21414.0,"[4, 10]",2,0.21081892022117277,0.46324742250037193,0.5067691986240694
48,12819.131272934546,5679.0,[5],1,0.3973977912828867,0.16213923949735806,0.24526782711710637
48,7779.822615069445,2719.0,[6],1,0.24920736220473194,0.1672257794397488,0.6211498899324412
48,12566.841697246062,5496.0,[7],1,0.4236704439554532,0.38323727485824716,0.6504338167279906
48,63157.30722739818,30887.0,"[8, 9]",2,0.1723611041076665,0.1380374048592326,0.13534544477228827
72,15445.495032723267,5896.0,[0],1,0.27315660588433427,0.41686424881907586,0.8177092241936493
72,14648.665612143175,5363.0,[1],1,0.23542253053459045,0.2397285772412931,0.2885812625967572
72,36699.89966165091,19287.0,[2],1,0.2371891870995794,0.6183918918496214,0.6062929892746374
72,6654.119998742684,2814.0,[3],1,0.41411351255576745,0.15591176530386272,0.7286320365836716
72,47318.697951686656,15055.0,"[4, 10]",2,0.20794355329223665,0.4685441120395238,0.5082883380861264
72,16660.49465201256,7596.0,[5],1,0.4269154465048677,0.17373419337656126,0.23763679197785875
72,9239.165327544066,3738.0,[6],1,0.26027297622478773,0.1629331731396806,0.6397349836786135
72,13794.098982220554,4908.0,[7],1,0.44876940810993154,0.38694870896139766,0.651990226356968
72,70001.9602219754,25343.0,"[8, 9]",2,0.17297485512861407,0.1384466169780302,0.13832193592055714
96,17341.61427642176,6420.0,[0],1,0.32892327287448025,0.4199190241362295,0.8145741035861526
96,16636.170789680626,6278.0,[1],1,0.24309212204190167,0.2362572152586078,0.29291042507860304
96,49916.74791961924,23966.0,[2],1,0.2579488833824732,0.6193743876831679,0.5941012158053154
96,7380.173373939973,2675.0,[3],1,0.4319449585441172,0.1578146330501822,0.731999355265863
96,28794.24756705897,7596.0,[4],1,0.1566450994280655,0.48440334680047503,0.511427784397451
96,21255.74874636029,9475.0,[5],1,0.44427607808841935,0.17532384955098862,0.23505960230325504
96,10252.076455610038,3719.0,[6],1,0.3011322103755457,0.15672722934395636,0.6451123923281301
96,13863.900930686608,4110.0,[7],1,0.46759911841955354,0.39532028868129626,0.6586669300495133
96,65964.86076930976,16466.0,"[8, 9]",2,0.1777811333494279,0.13828308201948883,0.1377824558892497
96,21556.124631496667,9295.0,[10],1,0.3065625692602109,0.46070717427767705,0.497246519975241
120,14893.37305157927,2631.0,[0],1,0.34095830310498254,0.41565285007927466,0.7918863451227541
120,55170.737796578265,18976.0,"[1, 8]",2,0.2286269665441503,0.18144798373501514,0.24877404716027765
120,64502.47094874226,29206.0,[2],1,0.30516775160841597,0.5906257020076058,0.5881237258761348
120,10129.570639045356,4911.0,[3],1,0.4768223883291897,0.17499111987652466,0.7073936459897439
120,26354.607713831647,5994.0,[4],1,0.18928027506397077,0.46731698415779743,0.49952990890478355
120,23610.08407774882,8580.0,[5],1,0.4789963410893331,0.1741528975071385,0.23678927986787307
120,8606.312783004803,1357.0,[6],1,0.30963440883490434,0.17388669714263424,0.6371664549532216
120,14218.25836178699,4415.0,[7],1,0.4959287630592219,0.3995593300369215,0.6608564656995175
120,66499.2003700054,19855.0,"[8, 9]",2,0.20911602870747004,0.15903478998004048,0.16734752070378403
120,20572.481903033662,5330.0,[10],1,0.3431650878799708,0.44295951707870684,0.5147389709412191
