time(in hour),cumulative size,size,pcore_ids,pcore_power,SCA-1,CD11b,Ly6C
-1,0,0,[],0,0.0,0.0,0.0
0,20577,20577,"[1, 4, 8]",3,NA,NA,NA
0,19253,19253,"[2, 5]",2,NA,NA,NA
0,4069,4069,[7],1,NA,NA,NA
0,17297,17297,"[5, 9, 15]",3,NA,NA,NA
0,4267,4267,[10],1,NA,NA,NA
0,34886,34886,"[4, 12]",2,NA,137.77601330046505,NA
0,3842,3842,[13],1,248.19338885996825,NA,NA
24,21276.068118237796,14001.0,"[1, 4, 8]",3,NA,NA,NA
24,33283.9634290923,26477.0,"[2, 5]",2,191.14555145845205,NA,NA
24,4397.608746324031,2959.0,[7],1,NA,NA,NA
24,26051.41299709186,19936.0,"[5, 9, 15]",3,NA,NA,NA
24,5179.612317661499,3671.0,[10],1,NA,NA,NA
24,44016.06358423695,31682.0,"[4, 12]",2,180.50313906656228,137.6514530163582,NA
24,6998.352126659358,5640.0,[13],1,220.32101124307704,396.3715123655273,NA
48,8665.907934250601,6215.0,"[0, 10]",2,330.10102962726904,366.8913426728796,645.3497113251444
48,15425.9063434466,8808.0,"[1, 4]",2,189.18891605627448,149.0046723435507,274.81022325900744
48,31228.65812273811,19461.0,"[2, 5]",2,196.32852865942357,493.3115397788421,546.1140261213556
48,4444.987354830694,3560.0,[6],1,195.6777668379851,318.1854464016796,366.9998470621612
48,3503.7894827654973,1949.0,[7],1,242.64792115705868,192.47302556518542,723.3166069920367
48,5403.319678249825,4499.0,[8],1,349.2370911688348,160.4872730834996,263.4708547883146
48,27379.56539486751,18169.0,"[5, 9, 15]",3,183.2003908248469,417.1844864421843,498.61041968202085
48,3197.89473209045,2256.0,[11],1,373.84104235980146,323.43059077263945,484.02174190576534
48,37198.2601814363,27114.0,[12],1,160.9088725276271,129.29832584434502,145.0195657098858
48,6334.291122946064,3860.0,[13],1,261.78198793395626,399.6839528362618,754.141105105716
48,2760.680590953299,2014.0,[14],1,237.96711246928675,142.12814835510915,538.4497801262803
72,4787.857068974269,3302.0,[0],1,384.03247654655274,NA,640.7590249412511
72,19657.881490699838,14204.0,"[1, 4]",2,200.77809144348387,141.38720013330047,268.3389556795822
72,22328.774219356263,16584.0,[2],1,213.1195604915158,552.2144608337385,585.0634884482415
72,14834.223743615978,9538.0,[5],1,164.86237361163145,464.65786200341176,521.9527119333659
72,3197.5403504446194,1626.0,[6],1,NA,303.43988241135384,362.0257890113031
72,4665.776651556795,3427.0,[7],1,NA,178.878920371417,735.0743467929735
72,7061.361992704583,5151.0,[8],1,NA,166.04159197940342,NA
72,9083.973194323124,5065.0,[9],1,178.4864777505123,363.84978842234966,477.9361019713841
72,3193.004063749184,1615.0,[10],1,NA,NA,663.2526073213726
72,30492.571011317574,17341.0,[12],1,157.52402319946725,126.51701663839755,139.2106987268613
72,6760.510103522456,4521.0,[13],1,265.1358225120248,NA,775.0038893715893
72,4372.941240386574,4008.0,[15],1,NA,NA,588.5680979635913
96,4498.763100411827,2806.0,[0],1,NA,NA,NA
96,17126.110652917687,10176.0,"[1, 4]",2,NA,NA,NA
96,52145.10393441976,39006.0,"[2, 5]",2,NA,NA,NA
96,2948.5012324585,1818.0,[6],1,NA,268.5958385653291,NA
96,4236.601154908836,2587.0,[7],1,NA,174.65743093993456,NA
96,7152.568474727182,4656.0,[8],1,NA,161.66824660471343,NA
96,22608.35962428603,14152.0,"[5, 9]",2,NA,NA,NA
96,25275.7518689575,14495.0,[12],1,NA,136.71777526125302,NA
96,5353.201269240449,2963.0,[13],1,321.09403197037307,NA,NA
96,2791.0682024038297,1245.0,[15],1,NA,NA,NA
120,7199.55294762651,5609.0,[0],1,NA,NA,685.8662058291213
120,15589.994489014634,9535.0,"[1, 4]",2,NA,NA,NA
120,47888.078298852764,29452.0,"[2, 5]",2,NA,NA,NA
120,6077.9622295270965,5130.0,[3],1,NA,NA,NA
120,4165.864702909399,2668.0,[7],1,NA,NA,NA
120,14144.814835690355,11616.0,[8],1,NA,148.5103258597382,NA
120,15623.2622009184,7630.0,"[5, 9]",2,NA,NA,NA
120,3063.3637107665218,2153.0,[10],1,NA,NA,NA
120,4442.876132610496,3760.0,[11],1,NA,NA,NA
120,23931.962478297806,13689.0,"[4, 12]",2,NA,140.0328160034254,NA
120,6047.642459268178,4155.0,[13],1,NA,NA,NA
120,3123.723277108303,2264.0,[14],1,NA,NA,NA
