time(in hour),cumulative size,size,pcore_ids,pcore_power,SCA-1,CD11b,Ly6C
-1,0,0,[],0,0.0,0.0,0.0
0,7112,7112,[0],1,294.0005624296938,372.428149606298,738.879499437571
0,43756,43756,"[1, 3, 7]",3,202.76140415029028,145.16518877411144,229.9743806563663
0,30643,30643,"[2, 4, 8]",3,210.16538850634785,414.9922331364434,573.2513135136892
0,5780,5780,[5],1,263.95432525951406,160.18754325259513,704.2333910034592
24,12145.820500949676,7917.0,[0],1,270.5830046999653,377.32253607959456,739.9066019665231
24,63117.473262029525,37100.0,"[1, 3, 7]",3,194.601665374982,144.71997919794674,221.0864849064472
24,45915.481400502045,31909.0,"[2, 8]",2,191.70960443575453,454.4520103695777,575.2554512659237
24,11253.955412012143,7040.0,[4],1,217.55119111959164,337.28976106926046,525.2314538335389
24,7133.808562357864,3697.0,[5],1,234.83914244112793,162.67130104344037,705.1016724278994
48,16107.948078637633,8886.0,[0],1,299.7864400437829,371.45809852726904,718.5262831702864
48,80114.87414209975,42585.0,"[1, 3, 7]",3,190.99669285163796,143.2752248326183,205.60608912449462
48,58807.50858512607,31506.0,"[2, 8]",2,197.76449795554552,458.5346516355071,536.9117379912809
48,9032.64192394411,2341.0,[4],1,232.54300223412977,333.1702209638901,514.7923337822542
48,11279.284326693156,4682.0,"[5, 6]",2,298.105857643382,169.05105474966328,652.7814503863134
72,15267.843231605142,5690.0,[0],1,307.2064242833606,356.61300369743685,717.6943679451795
72,85842.58917366626,38206.0,"[1, 3, 7]",3,199.82084832273833,145.94786975460374,213.13725477470265
72,74144.15381250776,39177.0,"[2, 8]",2,209.63332669450287,459.6523385820112,548.8371534859535
72,7357.841021613101,1987.0,[4],1,239.40697964441006,328.8123897792984,519.4530260524377
72,8585.923537895815,3501.0,[5],1,274.1889313646204,169.18019720854443,681.0762840010237
96,15924.313900885487,6846.0,[0],1,340.4681913304553,366.5215233152638,726.4464785802008
96,82721.30890778973,31679.0,"[1, 3, 7]",3,219.484612925366,150.47060324351648,218.7707597584267
96,85265.37762484518,41179.0,"[2, 8]",2,227.84551648716737,474.6912135069943,544.1156339828033
96,7377.998446980594,3003.0,[4],1,249.40614685188325,333.55383744212463,508.4030864487196
96,9694.22068006752,4589.0,[5],1,304.1004635586363,161.72297837932535,687.4469799813893
120,20350.653696234876,10882.0,[0],1,390.61975683671454,400.56842881646173,724.806060517567
120,65441.53963534494,21013.0,"[1, 7]",2,209.78642080702363,145.55294218178383,210.8171600431666
120,81863.09686742985,31164.0,"[2, 8]",2,242.49347594728755,491.18854959550026,538.8941772605772
120,18453.844922395823,13696.0,[3],1,465.72160109700235,163.19408413829868,260.27612158278055
120,5892.984123814174,1506.0,[4],1,266.2774536044804,333.6693851506966,502.96338942625107
120,9924.218103571406,4160.0,[5],1,322.6716063602765,160.5199022343448,687.5048750489345
120,10268.95683005271,7579.0,[6],1,530.1947579718153,152.48217529881467,588.297252033284
