time(in hour),cumulative size,size,pcore_ids,pcore_power,SCA-1,CD11b,Ly6C
-1,0,0,[],0,0.0,0.0,0.0
0,20834,20834,"[0, 8]",2,164.05063837957437,127.1730824613615,245.53369492176228
0,6918,6918,[1],1,226.30572419774583,544.7168256721582,628.8130962705968
0,15660,15660,"[3, 11]",2,175.78856960408842,417.59782886334693,557.2734993614297
0,7015,7015,[4],1,360.7647897362758,147.25987170349308,276.1312900926585
0,5750,5750,[5],1,237.3067826086957,394.5139130434771,794.4133913043488
0,5593,5593,[6],1,193.29805113534832,316.6922939388517,420.6123726086178
0,6319,6319,[7],1,383.09305269820453,359.2576357018507,617.1322994144628
0,25599,25599,"[8, 9]",2,150.85222078987746,121.99339817961643,167.29489433180953
0,6155,6155,[10],1,229.05264012997432,147.98277822908202,686.4796100731113
24,33347.862679240534,18616.0,"[0, 8]",2,162.67346813883535,127.846585801451,244.71726284857533
24,15263.764712248536,10372.0,[1],1,211.01388920295443,554.2483591352998,617.7495455868536
24,30272.292193381334,19199.0,"[3, 11]",2,166.09879302704508,429.1657432259465,546.6062888252329
24,8424.35407002363,3464.0,[4],1,366.6975613099879,148.60392779669448,271.27978592495
24,11566.863991822649,7501.0,[5],1,218.14081190958856,390.8882231616933,785.4033564109126
24,9976.84822717636,6022.0,[6],1,186.84863319574413,320.7586087685911,420.30829783670384
24,11002.207750317793,6534.0,[7],1,374.33535528721455,352.8618837516241,602.518373916696
24,41287.22649159443,23186.0,"[8, 9]",2,148.30299188356082,122.62335257514194,162.13316664780672
24,8990.2422382032,4638.0,[10],1,217.08431468646322,151.59679370415458,685.1296540655273
48,44611.49983856877,21031.0,"[0, 8]",2,160.99032122157263,132.12807050160345,239.4864421899378
48,18440.111534466872,7647.0,[1],1,221.98864870409662,556.8938310784192,600.679053658734
48,38642.74309200053,17237.0,"[3, 11]",2,173.97323671931613,440.5714833144544,525.1676554831796
48,10492.9178900302,4536.0,[4],1,369.8093613107215,157.90130194339295,262.3288811394649
48,13178.007965680294,4999.0,[5],1,246.77860619889267,389.12883527502066,770.758246224248
48,14912.69703630539,7858.0,[6],1,186.04853918034948,338.68292196597326,409.5399167712353
48,13483.735708272901,5704.0,[7],1,373.57548674781475,354.931548693485,598.0257165306829
48,56948.4778285913,27754.0,"[8, 9]",2,146.10468489609272,126.22775923281141,156.02141580890188
48,10156.061251143208,3799.0,[10],1,230.98869011450842,157.78421018028544,676.3253003319484
72,51874.094054754554,20329.0,"[0, 8]",2,163.61031415568056,132.85171600244465,239.7909702401834
72,27746.1279118578,14707.0,[1],1,222.28400319589795,560.4069492561842,595.4235872879896
72,6470.9315626354355,3488.0,[2],1,449.7969070256854,130.48671978206352,620.7816739420992
72,43618.54568400319,16294.0,"[3, 11]",2,172.49629799762633,448.0083945132892,527.2391418232244
72,13876.613394473996,6457.0,[4],1,397.9657956589084,169.84162835022966,252.95918971538168
72,14789.258795062877,5471.0,[5],1,253.8830356325657,384.19756327550715,777.8517480934713
72,14332.869200152072,3788.0,[6],1,184.42082137386194,335.96093323766803,413.23769664562275
72,13681.440955046965,4147.0,[7],1,385.5019685411375,367.1860230663944,599.0876188255512
72,61548.65485084866,21280.0,"[8, 9]",2,145.2280013240548,126.61012800403518,157.19199007670892
72,11951.419780829296,4770.0,[10],1,232.88820904783387,157.8539355731944,687.8336666966886
96,51589.52367402571,14909.0,"[0, 8]",2,172.16070956231835,133.79064240978315,242.68807829711128
96,38055.47519814399,18436.0,[1],1,239.36372992893908,560.426170761346,583.1689182078244
96,8823.63958853358,4248.0,[2],1,466.1996326246505,131.83722988010518,625.9903464669505
96,47896.969438653876,17054.0,"[3, 11]",2,183.37838803499446,455.70065238029673,522.8973989720487
96,17617.24743113664,7805.0,[4],1,411.9863721336219,172.09374468574427,246.87478429690975
96,15905.58518271175,5448.0,[5],1,294.0925101364592,385.1724205408584,781.3965203064529
96,15039.869005287339,4905.0,[6],1,187.20408172982087,333.8662090402917,412.7634969006457
96,15237.239675717065,5563.0,[7],1,400.23590682546916,389.59055045764563,604.143165506764
96,56949.471217945385,13428.0,"[8, 9]",2,148.46782768722773,126.92964284364044,155.42045400108856
96,12365.929971831438,3915.0,[10],1,253.84091233565164,155.27101962252897,686.5359232067851
120,26573.335826248356,8846.0,[0],1,240.47400807132382,133.80412965385642,269.8367102660409
120,69185.74802288176,24175.0,"[1, 11]",2,249.44137386436776,520.6887064227068,549.9031745175951
120,14774.255387798174,8535.0,[2],1,503.42033316856947,133.5239641566696,610.7204326084322
120,19735.808439359316,3969.0,[3],1,127.91732341937538,481.00736761982176,520.8840172535973
120,27540.275124398002,15083.0,[4],1,448.0658791327524,163.56126089487233,239.89049054234601
120,17131.94714143575,5885.0,[5],1,321.26925624728483,391.9077498157168,779.3158740314437
120,12501.793361796053,1867.0,[6],1,192.97925152514483,335.29982637846945,408.03022008179
120,19203.355501264246,8429.0,[7],1,434.50708101295703,419.7787251313047,621.4387500165459
120,50197.3572831973,9928.0,"[8, 9]",2,154.74033731248232,125.81857849343965,152.678431815612
120,12027.032938759983,3283.0,[10],1,269.7383731454459,154.79610968839606,684.0734342422453
