time(in hour),cumulative size,size,pcore_ids,pcore_power,SCA-1,CD11b,Ly6C
-1,0,0,[],0,0.0,0.0,0.0
0,34430,34430,"[2, 8]",2,0.20330166728127982,0.15397626241452642,0.17002730435918792
0,13018,13018,[3],1,0.22384572096371336,0.5471633776831131,0.6230545610822926
0,7157,7157,[6],1,0.33709874672866574,0.16638016004329595,0.7313112242659305
0,9005,9005,[9],1,0.2399851518195264,0.437391620040149,0.5537268951052912
24,9985.882876444337,6998.0,[0],1,0.25463370005863734,0.4613155939271419,0.8031568330608162
24,27677.483179020714,15346.0,"[1, 2]",2,0.2203881422433555,0.167621687753036,0.2644077245516322
24,25526.54911155271,17786.0,[3],1,0.20900830281944974,0.5712841040656318,0.6114876142522704
24,26777.025717052813,17899.0,"[5, 9]",2,0.21037354584362097,0.4160183448988494,0.5373651656829925
24,28967.250951189886,15905.0,"[2, 6]",2,0.23360529196116794,0.16312107971208767,0.38655060996986085
24,9625.83852921831,5994.0,[7],1,0.3885023618206946,0.3848757841296652,0.6483406505102304
24,31273.527194619193,19608.0,[8],1,0.19269650842594663,0.1498288056559979,0.11296226882856736
48,9620.64148312572,3683.0,[0],1,0.2817220889822601,0.4540851476361442,0.7872545807939902
48,33218.129960929786,16761.0,"[1, 2]",2,0.2231063062547994,0.17710244230456157,0.2619350492809469
48,29296.176912462433,14118.0,[3],1,0.2291299410349487,0.5715255969992505,0.5908041094159182
48,35573.71475066502,19652.0,"[5, 9]",2,0.2239933665399678,0.4336054386185695,0.5111916021851178
48,33245.030466612174,16021.0,"[2, 6]",2,0.23238072977375163,0.17156837595170824,0.35899190072207193
48,11029.55783340687,5306.0,[7],1,0.3785713105030637,0.37829398360760236,0.6507461374362277
48,44543.350525536116,25948.0,[8],1,0.19309644174797974,0.15683535294829654,0.11533889389802364
72,10052.46765131172,4332.0,[0],1,0.2952837566109833,0.4361915173015763,0.793267311148151
72,36109.61824831138,16358.0,"[1, 2]",2,0.23068616190675462,0.17942944705795114,0.2651483003682452
72,43613.61101333939,26194.0,[3],1,0.23451060819545316,0.5758116496171287,0.5906190587851508
72,32244.257344284048,11092.0,"[5, 9]",2,0.22441742479509363,0.4327335744962317,0.5163942256772316
72,10170.948570774357,5343.0,[6],1,0.33468644572421863,0.17678940097662518,0.7216352933469498
72,9980.214325410723,3422.0,[7],1,0.40557505250444326,0.379033177087944,0.6530115051969501
72,45986.63468551387,19501.0,[8],1,0.1952147513522447,0.1555921121114838,0.11961579876539578
96,10842.233027137294,4865.0,[0],1,0.3500581842469481,0.44045584452070735,0.8007425717977198
96,11245.322387918925,5951.0,[1],1,0.31678463952809016,0.19924393184954714,0.3162952087142081
96,24011.585082543068,7835.0,[2],1,0.21223628212499987,0.1719403109317996,0.24594769714739967
96,55789.808264012114,29857.0,[3],1,0.25829633325999335,0.5836905792863525,0.5767480583593599
96,9020.276056830515,5396.0,[4],1,0.5079143752654676,0.1944637904475139,0.2912641229206803
96,31341.550125900667,12169.0,"[5, 9]",2,0.22994099226262016,0.4385592794927791,0.5063729756376437
96,12357.682203345812,6310.0,[6],1,0.3789589918673717,0.16980230694373832,0.7213764177861852
96,10617.270942515257,4683.0,[7],1,0.44394733152605304,0.40357954697550646,0.6526490788181868
96,40277.816581522005,12934.0,[8],1,0.20065417012472572,0.15598703082677254,0.11831748188200303
120,12855.830329194581,6409.0,[0],1,0.3897511541180959,0.45688559153583624,0.7980232497658932
120,13256.508697106286,6570.0,[1],1,0.3436550676707276,0.18978022522504132,0.3164376398973138
120,19648.373911326707,5371.0,[2],1,0.21565711279885763,0.16846038457829202,0.24546665612848628
120,58906.818466100405,25734.0,[3],1,0.27641292742890855,0.5921396750028993,0.5645033599483289
120,18976.48823303577,13613.0,[4],1,0.5508313409813226,0.17803155739836996,0.25148716058769577
120,23751.79720246775,5116.0,"[5, 9]",2,0.23266374194088293,0.4479309619334011,0.500943799285155
120,16002.92180058067,8655.0,[6],1,0.4503656735724574,0.1590167449563444,0.7007740705847364
120,13964.067073375394,7651.0,[7],1,0.5102341173839072,0.4413337844999117,0.6630253406046226
120,34830.33302776027,10881.0,[8],1,0.2124468086018609,0.15450578189076006,0.11640348053526539
