time(in hour),cumulative size,size,pcore_ids,pcore_power,SCA-1,CD11b,Ly6C
-1,0,0,[],0,0.0,0.0,0.0
0,6342,6342,[0],1,251.32481866918909,472.84247871334065,747.1729738252923
0,19814,19814,"[1, 3]",2,196.28227515897993,149.81417179771964,277.0098919955582
0,19737,19737,[2],1,181.45847899883623,131.0585195318439,147.0183918528648
0,7165,7165,[4],1,297.1235170969978,151.12519190509494,710.4379623168179
0,6714,6714,[6],1,350.29252308608227,334.67039022937126,628.3926124515931
0,22448,22448,[8],1,193.52499109052198,431.318246614399,567.8665805417002
24,12860.471206285085,8376.0,[0],1,228.82597888859655,467.71221554921345,741.0166808333224
24,29205.61376243025,15195.0,"[1, 3]",2,190.27133587625545,147.89226935379475,275.5420129356885
24,33238.16654027889,19282.0,[2],1,175.64385646780005,132.05474254393053,143.74478674666562
24,9753.420087201614,4687.0,[4],1,272.630372897548,156.76395503116854,712.9004083517788
24,8636.386106930486,5424.0,[5],1,195.15146824142977,240.603371577714,497.7112561435474
24,11451.514928886481,6704.0,[6],1,343.58860004656435,337.3579563805243,617.7802109806821
24,44173.13302407562,28300.0,[8],1,182.63101063413527,452.17568999091094,560.8699921592946
48,13202.726399218524,4109.0,[0],1,246.64601435950297,467.31536617634345,728.7609136037805
48,10774.565255756565,4513.0,[1],1,244.90328335406483,168.05225744722645,310.0580485420296
48,75982.85523921205,38090.0,"[2, 3]",2,174.15949236279874,142.31186851211146,186.02692424297055
48,10222.70948342135,3326.0,[4],1,278.5778548093975,161.6862396415194,702.7403076126885
48,9938.847181155834,3832.0,[5],1,202.4648489961577,256.55732249617085,482.82557263866147
48,14816.443861074617,6719.0,[6],1,332.94361632498163,334.0680907840407,624.3441181727658
48,58998.1219075793,27763.0,[8],1,195.23573816986044,456.2248412360362,538.0251023773792
72,14155.737367038068,4820.0,[0],1,254.8250450793571,478.52572780678247,717.8234682729039
72,12407.768156682436,4789.0,[1],1,257.7512165201525,170.79995055808357,310.183696080938
72,53960.28032448236,19223.0,[2],1,177.23312908435554,137.7161724340828,148.5284840167168
72,30959.71186908027,11969.0,[3],1,175.6713867662966,151.99691491353758,263.96452054736756
72,13393.547197827265,6165.0,[4],1,290.69514701757316,164.76117804295419,705.0448504729112
72,10172.826238972093,3145.0,[5],1,203.00993349645537,264.5647551246242,485.99210407198274
72,14327.807927235655,3851.0,[6],1,346.2316318050453,332.00181394953097,631.3273078850223
72,7165.21835919984,3849.0,[7],1,412.62668167692715,180.17715497674527,337.80990158882577
72,73906.97207811993,32189.0,[8],1,200.9517459046079,467.7475374243337,548.7914476517058
96,15151.617884928422,5142.0,[0],1,292.8637299629845,493.45863525837547,714.6169279398308
96,15577.61700298066,6804.0,[1],1,273.6455425104176,168.19776412678118,304.95318693957927
96,50801.68013216851,12646.0,[2],1,181.26446917126847,137.43669906697184,147.09592885936672
96,28919.822206208304,7028.0,[3],1,174.78924074162148,152.12563914846191,263.49817430530703
96,16006.668047725741,6536.0,[4],1,323.80656767756653,158.20934230949229,703.7933006418532
96,11258.27441740961,4065.0,[5],1,205.86717601376125,276.5906895972316,477.3738292409307
96,16060.290144886705,5929.0,[6],1,372.6756531269802,342.10693930088775,645.0740951197489
96,10903.574490472554,5837.0,[7],1,440.1714156826623,174.62346672046004,315.6222790082344
96,88273.12113340343,36013.0,[8],1,214.9792523396192,481.2210944875253,543.0984530251396
120,18161.811752380265,7448.0,[0],1,346.3751280815278,510.2321316886373,713.5629648464543
120,18408.03861753449,7393.0,[1],1,291.91318694593764,160.55653340623434,301.6961364579933
120,46587.21251712626,10665.0,[2],1,189.0938372871298,136.07275406756082,145.3342419746877
120,24722.402392719196,4273.0,[3],1,174.40111399178193,149.85139188121664,263.0942208930146
120,19442.42352074891,8124.0,[4],1,374.36818841061796,146.77282069041448,689.0149077060262
120,9404.802185009363,1444.0,[5],1,210.39345918258468,276.0641547822521,475.8766356639782
120,19894.34006927287,8538.0,[6],1,408.82217877688043,349.10224307896857,656.2861974106974
120,22172.991461385798,14463.0,[7],1,482.3777556170596,161.79406570466,287.2099638547635
120,90070.5225499311,27652.0,[8],1,225.92744811319469,493.43663697668677,536.4149298700661
