time(in hour),cumulative size,size,pcore_ids,pcore_power,SCA-1,CD11b,Ly6C
-1,0,0,[],0,0.0,0.0,0.0
0,41468,41468,"[1, 3, 7, 8]",4,NA,141.5832449117394,NA
0,4230,4230,[2],1,NA,NA,NA
0,14175,14175,"[4, 13, 15]",3,NA,NA,NA
0,3730,3730,[10],1,324.7134048257347,NA,NA
0,10063,10063,[14],1,198.35238000596453,NA,NA
24,4824.292222164652,3856.0,[0],1,NA,NA,NA
24,53407.14627387052,35972.0,"[1, 3, 7, 8]",4,NA,NA,NA
24,8018.495918261606,6240.0,[2],1,221.1717161509743,NA,NA
24,20859.8533431107,14900.0,"[4, 13, 15]",3,NA,NA,NA
24,4839.271814448178,3271.0,[10],1,NA,NA,NA
24,6141.523348202478,4675.0,[12],1,NA,NA,598.5023202771428
24,18799.970313349066,14569.0,[14],1,182.68486461112772,NA,NA
48,7146.298750116786,4221.0,[1],1,249.12609599266224,161.8734567506636,296.45027352259666
48,7954.362236696363,4583.0,[2],1,252.81624243604054,541.2606405701672,653.0131108803229
48,52046.91758724753,34447.0,"[3, 7]",2,164.27708008741484,134.27046808627986,NA
48,19549.292641564658,14564.0,[4],1,184.4119962730739,394.1088732527458,468.54303793088576
48,5269.72258794993,3340.0,[8],1,256.0486594647279,162.23652145972162,690.923550741902
48,7960.663160603905,5926.0,[10],1,309.39848676155526,360.65645910522005,726.0192383709549
48,6207.192483850227,3625.0,[12],1,360.8990227634927,329.8842734337672,588.4285371348723
48,20419.41382168574,12515.0,[14],1,189.22442155227526,500.00582499174857,539.267659882812
72,7911.648500652653,4907.0,[1],1,270.1571424237913,165.87388064738815,NA
72,12903.397345233745,9559.0,[2],1,NA,NA,NA
72,52123.03321206098,30240.0,"[3, 7]",2,NA,138.7404697479822,NA
72,14013.46505151877,5794.0,[4],1,189.70889417241048,382.0043144585588,NA
72,5607.645416794312,3392.0,[8],1,NA,NA,NA
72,6637.046557397065,3290.0,[10],1,NA,NA,NA
72,4064.565981046583,2577.0,[11],1,NA,NA,NA
72,4104.802954229728,1495.0,[12],1,NA,NA,NA
72,3947.275285066871,2605.0,[13],1,NA,NA,NA
72,28530.305942118845,19945.0,[14],1,196.78508047326662,NA,553.36749198603
96,9611.438431473121,6285.0,[1],1,NA,165.94563474913693,NA
96,21793.210286100675,16368.0,[2],1,271.0010780493201,NA,588.1221949171071
96,40551.03589008619,18636.0,"[3, 7]",2,NA,141.80082574265933,NA
96,11470.93626355267,5579.0,[4],1,NA,NA,470.9226612397241
96,6208.724464498129,3851.0,[8],1,NA,NA,NA
96,8503.534328993599,5713.0,[10],1,368.32903019901255,NA,NA
96,6201.939481512134,4493.0,[11],1,NA,NA,NA
96,3686.857044767318,1961.0,[12],1,NA,NA,NA
96,5991.624818616158,4332.0,[13],1,NA,NA,NA
96,27969.515996409744,15974.0,[14],1,211.34615205463794,NA,NA
120,10980.112061228767,6939.0,[1],1,NA,NA,NA
120,23896.916203226217,14734.0,[2],1,NA,NA,NA
120,31170.610357399102,14121.0,"[3, 7]",2,NA,NA,NA
120,6450.934591812639,1628.0,[4],1,NA,NA,NA
120,6613.368505001115,5299.0,[5],1,NA,NA,NA
120,6591.486163471782,5305.0,[6],1,NA,NA,NA
120,6262.447072747258,3652.0,[8],1,NA,NA,NA
120,11358.295767118809,7783.0,[10],1,NA,NA,746.3938101830023
120,12384.594338812018,9777.0,[11],1,NA,NA,NA
120,4446.13243624887,2896.0,[12],1,NA,NA,NA
120,5871.167915759757,3352.0,[13],1,NA,NA,NA
120,23939.73286888119,12180.0,[14],1,NA,NA,NA
