time(in hour),cumulative size,size,pcore_ids,pcore_power,SCA-1,CD11b,Ly6C
-1,0,0,[],0,0.0,0.0,0.0
0,26065,26065,"[1, 8, 10, 12]",4,207.22052560905578,153.01987339343967,275.3485516976778
0,6319,6319,[2],1,233.61449596455185,510.9061560373475,666.1938597879385
0,16114,16114,[3],1,185.11797194985823,128.46667494104523,139.0192379297497
0,15045,15045,"[4, 14, 16, 17]",4,204.83044200731212,366.0603522765034,537.4814888667333
0,3879,3879,[6],1,252.35163701985016,334.92111368909656,765.1247744263975
0,3627,3627,[9],1,339.96333057623076,141.49159084642992,708.8345740281238
0,3578,3578,[13],1,341.8650083845687,347.5735047512577,633.4276131917263
0,7994,7994,[15],1,199.10195146360016,439.5816862646983,592.3333750312729
24,35949.738251627365,17519.0,"[1, 8, 10, 12]",4,201.16016470684139,151.99710761633435,277.69426343049014
24,13032.207750317793,8564.0,[2],1,212.5368283350039,524.8381530692163,655.5142253092328
24,29759.318672040026,18365.0,[3],1,177.85844570734318,131.274417807357,140.6220869716185
24,26349.42152295161,15711.0,"[4, 14, 16, 17]",4,197.42526712683556,371.9373999091793,527.5625359455994
24,2763.2186130069786,1448.0,[5],1,364.7737975464769,200.7604507438543,461.1271079777022
24,8284.867204222617,5542.0,[6],1,227.34631499629083,345.7132224496878,764.0647091707207
24,3943.3283527863564,2259.0,[7],1,212.0268690432386,144.15175597997475,632.8579656242108
24,3774.676295363608,1210.0,[9],1,336.7234156695502,139.85308612702454,712.4836724800601
24,8777.352231789717,5041.0,"[11, 13]",2,328.29074257342495,333.6613224411852,630.5044687020101
24,18999.611608805262,13347.0,[15],1,183.93981277803107,458.4424525163071,568.5991763630556
48,39199.113044555255,16378.0,"[1, 8, 10]",3,178.31765395009492,150.2428257906684,266.2614003684526
48,14147.162474081593,4932.0,[2],1,229.08031280268696,536.5123124184985,646.3786011540756
48,41396.016036490946,20353.0,[3],1,169.40304398044944,129.69846360017846,128.61872568933097
48,17314.818789924837,11043.0,[4],1,184.08406234016306,404.1181474031706,461.89319653427646
48,3591.890619158121,1638.0,[5],1,379.7295758021779,212.17961297078753,460.52931614739936
48,10093.285781335846,4235.0,[6],1,252.74947523027828,354.8417168688137,757.4071107638431
48,5064.354218700411,2276.0,[7],1,222.66708963811905,143.9127528300855,624.6524318155243
48,4864.099205235723,2195.0,[9],1,340.83889558899335,147.02635181897966,708.2938605058725
48,2752.282538143908,717.0,[11],1,308.12553535687164,291.0087042524404,650.4030667648881
48,7706.190655051871,5107.0,[12],1,333.56488557626705,160.95372931814342,270.7925190287377
48,9201.242745817479,5030.0,[13],1,354.9978360518974,363.3949620956618,615.953418445966
48,5746.180733252853,2594.0,[14],1,202.31793428503516,308.4618480990491,483.9220808438219
48,32011.468563083334,13502.0,"[15, 16]",2,193.09690807649338,465.367322025482,545.5632870065724
48,12749.855116044157,3542.0,"[16, 17]",2,207.53916476852078,401.31621127700583,546.7142711634052
72,10714.468501499394,5512.0,[1],1,247.04095625185397,163.42543539657956,280.9405385454251
72,19887.554519970952,9884.0,[2],1,234.03925273465444,553.88751577538,632.1305902424099
72,73923.79275884386,25120.0,"[3, 8]",2,162.97093845412942,130.77268389416338,172.55185306034045
72,15911.425781372103,3668.0,[4],1,180.51339925538676,406.78507593039564,458.39311768195233
72,4187.850214087054,1648.0,[5],1,411.87582081952814,209.11049599697034,460.34609254299966
72,12824.03082043634,5687.0,[6],1,254.39074813893828,349.6212955543025,772.9341134570003
72,7214.039210373761,3633.0,[7],1,244.00083330884985,136.44494880786314,647.8776611673788
72,4689.437532386277,1250.0,[9],1,356.5815896762716,143.810200698602,711.1320845520912
72,5006.101043469636,2023.0,[10],1,214.2177726024266,189.38991506727902,379.8806954349155
72,2860.15764646288,914.0,[11],1,331.9694170982003,265.0293825256736,658.0920125137666
72,10379.099669303581,4930.0,[12],1,370.4644362416952,164.95273845997784,251.5740776256158
72,11107.261140911069,4601.0,[13],1,390.6523463133452,364.92205137380734,616.9826840394442
72,5892.163362406581,1829.0,[14],1,200.3618612608449,307.702581952135,478.1932027073618
72,29562.589345020646,13020.0,[15],1,172.5953036946743,497.10995330079555,545.2559974851821
72,10259.937151675567,4167.0,[16],1,233.95524336119365,429.4521374266819,543.6111366614871
72,5036.571860025253,2114.0,[17],1,152.44696956568623,369.8372685681558,548.2630682425092
96,10133.273334219888,2557.0,[1],1,260.6123137321259,162.88248761183254,281.0183064012165
96,30128.624662288636,16066.0,[2],1,278.1497416952868,546.5702276177402,627.7909277354029
96,76215.0151508075,23943.0,"[3, 8]",2,181.4863952548748,131.7360718745594,178.68786157849007
96,18291.077068354676,7040.0,[4],1,194.76202268352796,397.8852755555108,451.03578448730013
96,3446.257284974491,485.0,[5],1,415.0776209145573,205.99419048915027,459.1909684317754
96,10885.959155275821,1818.0,[6],1,273.95260914226657,341.39046223592663,769.7813165582369
96,5736.096045400934,635.0,[7],1,247.51306021185516,135.86397135096283,645.4792852105618
96,8183.933079101047,4868.0,[9],1,379.73180603614213,166.75283001685528,707.6010210255107
96,4633.8479951424315,1094.0,[10],1,233.37329019083094,186.12814059831763,378.87732182173903
96,3161.436867076459,1139.0,[11],1,346.9650775900653,255.582264663611,673.2269653085256
96,10414.131758775617,3075.0,[12],1,380.8785409475805,165.27780917292677,256.79829723042207
96,9613.019673148046,1759.0,[13],1,398.8898747411722,363.36022284572545,624.8536196400413
96,5559.388669416622,1393.0,[14],1,221.56399953048538,293.153554807427,475.72941897396237
96,35218.907395297276,14315.0,[15],1,178.66193788104036,507.166199922073,539.0886112695114
96,15175.871134497585,7921.0,[16],1,280.7782896982631,427.23536975261567,548.0895080117732
96,5453.3941161572,1892.0,[17],1,171.96515059470192,343.3227513608714,554.6145759728157
120,14025.3062902437,6860.0,[1],1,283.89883033567224,159.56456613089165,276.69679065973787
120,34558.154806528546,13254.0,[2],1,301.70427833440186,536.9965742008352,610.1810478210319
120,68119.15404137144,14227.0,"[3, 8]",2,183.94878717781327,141.53727852247482,190.13463898340711
120,15972.744630239347,3039.0,[4],1,206.52695209390595,400.5432187311901,454.0774189757854
120,8219.871895919003,5783.0,[5],1,486.1483292720888,179.84762685408168,467.11501279448447
120,10171.535538415315,2474.0,[6],1,291.45893788776465,345.83364549548793,757.3473063060546
120,5116.032411240339,1060.0,[7],1,257.7010637242867,146.3768426630779,635.6775407546384
120,10408.914577009253,4622.0,[9],1,433.21227111081214,152.89100232383194,698.1522049695943
120,4827.625340352901,1551.0,[10],1,248.89169139893752,187.88267897585283,365.2851887295061
120,3762.473447002918,1527.0,[11],1,364.43691558332046,260.40034035610665,683.1141909588522
120,18076.903186800424,10713.0,[12],1,440.6006725357458,157.8194426443041,233.89121220869743
120,12044.431398562672,5247.0,[13],1,435.9217455263982,395.1037645768937,652.5533961349693
120,4694.081427396151,763.0,[14],1,227.7557686354281,307.24658636325773,475.29961248075676
120,39608.528245195754,14705.0,[15],1,208.2597102648587,497.28022366387955,528.989952055462
120,14335.961389616428,3605.0,[16],1,293.1026299246343,430.41914590835194,546.6403079324891
120,4274.131960017576,418.0,[17],1,168.9897083136611,343.05628554289945,545.0110136259791
