time(in hour),cumulative size,size,pcore_ids,pcore_power,SCA-1,CD11b,Ly6C
-1,0,0,[],0,0.0,0.0,0.0
0,7490,7490,[0],1,0.2702859243035657,0.5451422409366334,0.7774038733158704
0,44189,44189,"[1, 6, 7]",3,0.22787998741870252,0.15818344669016884,0.25703939965105294
0,21809,21809,[2],1,0.20977949006723992,0.48237516206622444,0.5694198090100155
0,7005,7005,[5],1,0.3997034221142135,0.39551451613424066,0.6486321415342842
24,13104.15707512516,9955.0,[0],1,0.24557614183013432,0.536708192230691,0.7724143065486386
24,54896.185846823195,36317.0,"[1, 6, 7]",3,0.21214721518407012,0.15699064735649484,0.2306365144206737
24,37783.55496013413,28614.0,[2],1,0.19756541959589063,0.5050213393883589,0.5576574116897188
24,6607.878567930944,4583.0,[4],1,0.20166237524836772,0.2033066723911939,0.6500270790517125
24,10279.239694426135,7334.0,[5],1,0.3899875197940163,0.39154670900778926,0.6260961597481256
48,10398.619354697174,4889.0,[0],1,0.278833542623925,0.5375404843468776,0.7550145190132193
48,66684.00294484766,43603.0,"[1, 6, 7]",3,0.20895515249057836,0.16525287665348853,0.21558152086654006
48,44428.027960759246,28542.0,[2],1,0.21544516775619918,0.5135988387993702,0.5257391000046918
48,5937.498261411409,3760.0,[3],1,0.4168677532969273,0.1926697550536483,0.2909067969757757
48,11018.887905288313,6697.0,[5],1,0.380687318029958,0.39476645129689647,0.630317959801995
72,11067.080869476373,6695.0,[0],1,0.2900768670303268,0.5639993644570359,0.742677288586083
72,67592.16951554528,39555.0,"[1, 6, 7]",3,0.22424545598785317,0.16656881830008172,0.24525007960749956
72,49181.68472449712,30502.0,[2],1,0.21733973502196624,0.53372692789614,0.5491796293582172
72,8413.410501798007,5917.0,[3],1,0.4582542241979004,0.19798073644197292,0.26692591591637554
72,5526.023489096091,3303.0,[4],1,0.22908668176148053,0.19676648519586995,0.6558226956647059
72,8660.871669819728,4028.0,[5],1,0.40273007166740615,0.4083707752961099,0.6295332789132878
96,10869.134315232823,6216.0,[0],1,0.35361294768871215,0.5909731973746792,0.7311689581434124
96,49732.78536448846,24764.0,"[1, 6]",2,0.20940157791901498,0.1644581087063306,0.1824625103978013
96,56761.351190484,36083.0,[2],1,0.24075684002563424,0.5498363421590892,0.5449353596844285
96,21849.624523443203,14862.0,"[3, 7]",2,0.46424622367761365,0.19230974619999952,0.4905196186998093
96,9324.44797006193,5683.0,[5],1,0.4352581475387635,0.43187675035887,0.6398202452519447
120,24494.355477417637,16004.0,"[0, 5]",2,0.4482007129777668,0.5235838028989345,0.7002544343794643
120,40838.060466790375,19928.0,"[1, 6]",2,0.2285570223496493,0.16052335508923538,0.18420797287402957
120,50787.208370517576,26922.0,[2],1,0.259584116281739,0.5688237474438043,0.5370378008723796
120,33636.63546820152,24450.0,"[3, 7]",2,0.5275786561218707,0.17632273367022658,0.4196738877369415
