time(in hour),cumulative size,size,pcore_ids,pcore_power,SCA-1,CD11b,Ly6C
-1,0,0,[],0,0.0,0.0,0.0
0,6400,6400,[0],1,242.30781250000044,386.10343749999896,788.0629687499998
0,28747,28747,"[1, 3, 6]",3,214.74185132361768,138.6210039308452,258.13437923957224
0,27070,27070,"[2, 4, 8]",3,187.02330993720108,431.38149242704236,558.0259327668998
0,7027,7027,[5],1,385.9573075280998,344.68350647502405,606.6638679379531
0,27328,27328,"[6, 7]",2,154.77184572599822,123.22617827868866,170.51503951990594
0,7810,7810,[9],1,299.327400768244,129.05339308578763,682.8323943661973
24,13565.483399593904,9040.0,[0],1,218.97553486001044,361.51720896869875,780.1051072923509
24,43378.19863876968,23051.0,"[1, 3, 6]",3,NA,138.70340104511592,255.89312490208766
24,41394.18021288412,27566.0,"[2, 8]",2,184.59795892815927,487.6156697727927,567.0784052966036
24,13846.200353835718,8533.0,[4],1,160.69637262878877,292.6045632195444,519.2860032186128
24,13058.83935139787,8090.0,[5],1,375.9274255165422,329.3804185048408,595.6210265538446
24,44201.814116265974,24878.0,"[6, 7]",2,152.58313515143175,123.52422343919147,165.41115051248116
24,6625.503961066936,1103.0,[9],1,296.4583174261949,128.7356976189987,682.6785749749632
48,15016.24530192639,5424.0,[0],1,245.44651285264473,366.59402124906325,766.850855117331
48,56947.01841313111,26274.0,"[1, 3, 6]",3,201.9550393772966,143.78164480570484,249.00897232304658
48,70899.84769405318,31839.0,"[2, 4, 8]",3,185.9787562091956,447.3075468896381,531.0037941999335
48,15286.99385979917,6053.0,[5],1,375.5883329062346,338.3889474578317,588.8028728549322
48,61038.402502358935,29783.0,"[6, 7]",2,150.53787333105305,126.51712701827039,159.60096739539281
48,9175.938779648763,4491.0,[9],1,298.7040491092193,137.73957002672606,670.1449821759753
72,16761.08888095279,6143.0,[0],1,250.0749753646679,363.585202854793,774.0537998586769
72,52101.153975278125,20283.0,"[1, 6]",2,162.32678742420947,138.62605493256083,245.05837103784958
72,84658.76308955842,34525.0,"[2, 4, 8]",3,188.5086590102916,465.02695228714435,538.1719594683647
72,15277.468913002072,6828.0,[3],1,390.8411435254238,169.102200958653,254.22610859468773
72,15826.537022221108,5017.0,[5],1,393.41013014547775,346.6729865006093,590.6269602624466
72,66345.66832221195,23185.0,"[6, 7]",2,150.02675340358928,126.25095154117902,160.94979050925775
72,12842.368534842255,6354.0,[9],1,316.77808828122033,134.2736028393605,673.5856078778443
96,18005.879607792158,6154.0,[0],1,289.9906927448267,363.49982305653333,777.2788528377434
96,51927.07928356361,15086.0,"[1, 6]",2,171.04476446363256,139.9690408322022,248.58284067966372
96,84810.47149616727,35533.0,"[2, 8]",2,210.2096967401095,507.61979217415575,546.2033045951698
96,19014.801867750437,8212.0,[3],1,407.16108898304657,169.8512871614237,249.52814726956476
96,15408.313971324884,4823.0,[4],1,171.65751713165565,309.07909685337984,480.826505260763
96,18401.051651112495,7210.0,[5],1,415.1473095868981,349.7142674225747,597.603225474983
96,61639.47197298958,14726.0,"[6, 7]",2,153.38101687731591,126.31614495500908,159.41493610491085
96,13973.925877483705,4893.0,[9],1,335.368841969027,131.65381373972238,674.1795440935105
120,16001.079571898408,3269.0,[0],1,NA,355.45530824780195,765.9367700044517
120,55860.989888619326,19143.0,"[1, 6]",2,NA,138.27085487380762,259.97427291417966
120,102127.05951056827,42157.0,"[2, 8]",2,NA,495.5558731247868,552.9240433638176
120,21039.49534360496,7594.0,[3],1,433.9651392253553,163.00532092736947,NA
120,12982.323295775248,2087.0,[4],1,NA,294.9655925938904,497.4890916555395
120,16267.508403465563,3256.0,[5],1,425.1295610760372,NA,606.7432175478832
120,63115.68862085907,19530.0,"[6, 7]",2,NA,127.18067943480277,170.97282787177596
120,13123.057747766905,3242.0,[9],1,NA,144.32443815148486,665.5506037864834
