time(in hour),cumulative size,size,pcore_ids,pcore_power,SCA-1,CD11b,Ly6C
-1,0,0,[],0,0.0,0.0,0.0
0,16750,16750,"[0, 8]",2,218.6260895522389,467.78602985074787,667.4018507462678
0,44420,44420,"[1, 5, 7]",3,201.25472760018218,137.8064385411983,281.92606933813545
0,14598,14598,[2],1,180.789491711195,381.5374023838897,536.3042197561319
0,4410,4410,[3],1,388.6716553287947,154.8367346938777,299.99251700680327
0,3401,3401,[4],1,215.76330491032093,188.10438106439258,495.2228756248161
0,6446,6446,[6],1,371.52590753955326,349.84641638225213,626.4182438721663
24,29906.01929243734,23984.0,"[0, 8]",2,197.62472773008207,478.4209410687732,653.301579353571
24,52030.84161015322,36326.0,"[1, 5, 7]",3,186.3377435425451,136.30639195282404,256.7648504482672
24,21907.17239588061,16746.0,[2],1,171.88159503383594,393.899274321791,521.4471921966381
24,4490.170452516338,2931.0,[3],1,382.3958085504343,159.40126756161274,294.2455041439668
24,4290.435081407724,3088.0,[4],1,204.4765508529261,189.25873282107517,496.4129087971376
24,9204.005155764244,6925.0,[6],1,357.23941948504495,347.19458894038877,603.8025091684109
48,8359.330407658214,4886.0,[0],1,257.67635921351854,385.9395659448497,747.3156788593097
48,66227.19545452014,46244.0,"[1, 3, 5, 7]",4,198.33203831603967,145.7279093132119,240.46396925852184
48,46324.399191205826,31479.0,"[2, 8]",2,197.2332416690632,455.4957981612367,521.7060485401942
48,3457.8978701520296,1941.0,[4],1,217.77018083293734,187.42258824881566,490.4380487084167
48,8704.107229858422,5450.0,[6],1,353.76418240504194,347.9784131850481,599.0254913916564
72,8149.469608717015,5194.0,[0],1,262.1389797264019,368.45056207580046,763.079571501762
72,60121.08929058762,38535.0,"[1, 5, 7]",3,197.5312477450338,143.36427905824326,264.04455819386726
72,51415.148401247134,35037.0,"[2, 8]",2,199.51587461461435,476.714967097804,543.245443285386
72,7248.760211841429,5420.0,[3],1,414.93703163285375,172.11183789650738,261.11405754404194
72,3257.55151631751,2035.0,[4],1,233.39439483232354,182.25859713399268,492.5947516318183
72,6856.366623203873,3779.0,[6],1,385.9805393810203,363.5101929783432,600.6048509309037
96,8112.2726116987415,5231.0,[0],1,330.90417337222334,376.09393314447885,769.3783935359962
96,41888.86128589788,23478.0,"[1, 7]",2,186.7870043497535,144.08657462488395,202.58945093600258
96,58675.00004511727,40497.0,"[2, 8]",2,223.43135181364104,488.50888234123147,536.0589973304748
96,18551.977429444487,13144.0,"[3, 5]",2,409.51589939132924,154.8545453061787,464.6397944993096
96,3924.7183836263157,2773.0,[4],1,272.476012451021,177.86335442701812,478.7646519993247
96,7301.091666784285,4877.0,[6],1,418.4993626302727,401.70691773847085,607.992943626053
120,10007.121487283042,7139.0,[0],1,364.81853193446744,385.3427877126167,757.1141923259464
120,33992.94893572052,19183.0,"[1, 7]",2,205.46555138488523,139.30105980130236,202.86140623803126
120,50884.7452090117,30140.0,"[2, 8]",2,242.747181190394,507.12238393871274,530.6340280512334
120,28636.114522389988,22077.0,"[3, 5]",2,473.94201026245355,145.48442644753493,407.1989450476443
120,5853.597491654837,4466.0,[4],1,345.3276441188421,169.2768841507962,462.96600237218047
120,9576.32571382388,6995.0,[6],1,475.0460982555617,452.9045404040864,631.9775454660038
