time(in hour),cumulative size,size,pcore_ids,pcore_power,SCA-1,CD11b,Ly6C
-1,0,0,[],0,0.0,0.0,0.0
0,14499,14499,[1],1,214.62238775088107,160.69039244085886,295.4502379474445
0,24913,24913,[2],1,187.09023401437258,133.72985991249618,170.050736563239
0,6343,6343,[3],1,298.5680277471209,153.18886962005402,685.4431656944647
0,7974,7974,[4],1,218.51843491346898,321.4065713569106,526.9206170052657
0,7453,7453,[5],1,279.69609553199865,352.3644170132814,724.811619482085
0,23459,23459,[7],1,218.54298989726746,438.0034102050388,592.2766528837549
24,14269.170610211877,9143.0,[1],1,205.33814167763796,160.52659468760433,299.8075671955788
24,34285.07561985023,25477.0,[2],1,179.73630851105355,135.44790655361953,169.9720546477733
24,16089.234736590766,13270.0,[4],1,208.32226126149095,352.19770631171144,529.3035403057074
24,10940.03342009167,8305.0,[5],1,251.3909650536431,364.64879600410575,731.2647533520068
24,34325.008989927606,26031.0,[7],1,198.8366419626128,466.93395554718785,584.2226840909577
48,16541.913650194303,11497.0,[1],1,224.32714088139755,153.76623663664353,272.96891905390186
48,39971.604732144835,27850.0,[2],1,163.37496409130264,130.81223583786945,150.3588635538955
48,19412.403493172744,13724.0,[4],1,194.88900897800286,383.80052555013384,481.6818335201156
48,12537.885908877139,8670.0,[5],1,296.7309320238633,374.2971481683845,715.0304046714386
48,29364.72331053351,17229.0,[7],1,204.8005495320505,497.41651349304647,556.4667738586685
72,11192.449657927355,5344.0,[1],1,249.75497552242558,151.45550311747118,273.9733548047468
72,45330.09638050395,31198.0,[2],1,185.80401126881773,133.22897162882393,175.96260736911353
72,14652.321074575935,7789.0,[4],1,210.90220633261703,357.451301318357,496.1653544334036
72,10484.812073955141,6052.0,[5],1,312.4331113505221,348.19707705744423,721.7840775488321
72,43717.997490272464,33336.0,[7],1,215.31930398556602,493.38037497038437,574.6512898997776
96,14040.128525604743,10083.0,[1],1,291.7023537628257,166.0167773745917,279.77270794850614
96,34479.609271247056,18453.0,[2],1,192.89885907095243,143.9901662703987,185.8083977766294
96,7372.603720446816,5180.0,[3],1,348.1609495493956,160.00126712540902,680.0447506767073
96,12887.377795977602,7707.0,[4],1,225.73499069113834,374.68140229426814,490.99002802688824
96,9402.940858480135,5696.0,[5],1,356.33948106623353,345.97930803889415,722.673681600133
96,53084.646242634066,37628.0,[7],1,248.99322584727744,492.46968322036895,557.2570563180128
120,18446.935044592898,13483.0,[1],1,377.7885334114746,154.66382313935506,240.00548268878745
120,27055.382764180675,14865.0,[2],1,201.66108808750687,141.7476616221262,185.19303657125576
120,9900.609042864557,7294.0,[3],1,417.2961947674675,151.95305089267495,672.1044905275039
120,7564.376115624353,3008.0,[4],1,225.4240791284402,388.5107439742473,489.7748578443952
120,13290.441622063681,9966.0,[5],1,417.8386964374522,400.55877474977666,720.3316291904333
120,9588.313742596307,8329.0,[6],1,524.9611380540098,172.23131909724196,425.7445448049769
120,49204.25666752776,30436.0,[7],1,268.13372794805935,507.2247221270751,545.9500718460245
