time(in hour),cumulative size,size,pcore_ids,pcore_power,SCA-1,CD11b,Ly6C
-1,0,0,[],0,0.0,0.0,0.0
0,9422,9422,[0],1,236.7720229250682,499.0707917639564,706.5058374018258
0,46574,46574,"[1, 4, 6]",3,192.7841499549126,139.97350453042537,287.86580495555404
0,21435,21435,[2],1,186.50492185677874,409.18600419874105,547.9148122230047
0,7876,7876,[5],1,383.98971559166654,298.83760792280214,664.9122651091926
24,15970.463012260248,12009.0,[0],1,213.14533013491743,502.51714530200945,702.0962845100586
24,59595.95482201325,40014.0,"[1, 4, 6]",3,182.712225139069,140.9166589758476,279.4515540053144
24,36258.307330481686,27246.0,[2],1,175.48755424309954,428.77340862796507,536.3520834390295
24,10749.450083269128,7438.0,[5],1,363.02580554741036,318.7684760705277,639.9518786890756
48,11832.75254847584,5118.0,[0],1,235.40821438693575,515.004201862942,684.9694339913636
48,69657.01238672662,44600.0,"[1, 4, 6]",3,182.4777298507601,144.94282949433207,250.20638199984302
48,43396.74032868476,28152.0,[2],1,191.36013747702927,441.3707372790277,509.0653599660947
48,12864.587020484876,8345.0,[5],1,345.93490733644825,328.44885422748894,650.6079201244825
72,60016.14128834246,36795.0,"[0, 2]",2,202.99330039704623,475.3593035698753,558.7188409844977
72,59765.465313572626,33885.0,"[1, 6]",2,177.14864615065082,143.60925946407096,201.64834705947206
72,8629.74361884778,6106.0,[3],1,416.4881614725777,180.5118329393557,296.0073250092421
72,10030.700693068375,6624.0,[4],1,270.9270651121302,158.7250524547308,692.4304459236805
72,11998.892554622598,6590.0,[5],1,370.0914667300146,331.14260704623445,672.8912104500248
96,66966.67903336382,41733.0,"[0, 2]",2,225.75522642552068,487.96462006911435,546.613620858493
96,50233.282769076715,25105.0,"[1, 6]",2,187.9324772786737,145.7053307409284,207.67172897665412
96,22015.75036446593,14170.0,"[3, 4]",2,381.47399361255515,160.43079920846873,473.71156385486347
96,14036.912868098314,8992.0,[5],1,401.05921122257877,357.4039852355963,700.2040704240121
120,59937.020170300864,31781.0,"[0, 2]",2,246.0395205982384,505.0755709750706,538.3399448716829
120,41647.493703471395,20527.0,"[1, 6]",2,205.86232064973822,141.59717659035138,209.87398441005993
120,34730.48278030003,25474.0,"[3, 4]",2,451.00960882386227,151.51798964591,421.59724718704496
120,18119.794856006305,12218.0,[5],1,434.56795467732127,398.6250980752882,713.6870965565314
