time(in hour),cumulative size,size,pcore_ids,pcore_power,SCA-1,CD11b,Ly6C
-1,0,0,[],0,0.0,0.0,0.0
0,6238,6238,[0],1,238.0501763385706,385.93844180827097,789.5235652452714
0,27093,27093,"[2, 4, 9]",3,187.83899900343408,431.36965267781477,558.399475879378
0,21943,21943,"[3, 6]",2,178.8507496696002,131.33208768172096,234.70136262133684
0,6952,6952,[5],1,384.3319907940103,346.1235615650165,618.6526179516666
0,4893,4893,[7],1,403.93480482321394,164.8724708767629,306.4171265072558
0,23464,23464,"[6, 8]",2,150.14596829185393,120.36847937265593,157.65304295942747
0,7618,7618,[10],1,298.30598582304907,128.4908112365453,684.6580467314255
24,12310.136991693487,8601.0,[0],1,215.13129518571114,366.3172517146165,781.2163315610657
24,37485.41570873188,22458.0,"[1, 3, 6]",3,174.04731966762495,135.07638736946467,245.69714724128718
24,51425.59418338436,35316.0,"[2, 4, 9]",3,178.60542384799908,NA,555.0574456532764
24,11796.68393174946,7663.0,[5],1,373.5143706735701,335.0522424529378,601.8233960692943
24,5511.395206854157,2602.0,[7],1,400.83044349402786,170.50658521863514,313.0426061648765
24,42674.46777425728,24193.0,"[6, 8, 10]",3,169.77882062634538,122.5871133262174,NA
48,12591.651248590044,5272.0,[0],1,246.99707703269897,371.1523164538311,765.7600982086923
48,47999.96153482936,25711.0,"[1, 3, 6]",3,172.62524277857008,140.2063707375773,237.75513352854372
48,61846.84124806161,31269.0,"[2, 4, 9]",3,187.1285269048343,452.31650306257075,528.471281591359
48,12982.350232537367,5968.0,[5],1,372.8185209993515,345.1277846080901,595.6990791068478
48,6735.095196791428,3458.0,[7],1,399.4998500368426,183.45417181778225,307.1770124406829
48,47825.32517566299,26456.0,"[6, 8]",2,144.27880758830636,125.6053184422931,149.99339499601243
48,8539.065177387562,4534.0,[10],1,293.34091347832737,139.6739622805678,670.0376545749856
72,13598.040627228089,6111.0,[0],1,251.53772108177873,365.1055772137145,775.3431729632844
72,52196.947888538,23656.0,"[1, 3, 6]",3,175.05481504208677,138.8357368391949,237.2832201361387
72,70895.35182631933,34121.0,"[2, 4, 9]",3,189.5186347061939,471.8748741444849,538.5805254607857
72,12635.351632995333,4916.0,[5],1,394.03147640830485,353.715896282264,601.0674557916419
72,9870.711564122508,5866.0,[7],1,431.2114320895089,191.11895136537652,286.60672693917434
72,67401.92533014447,28717.0,"[3, 6, 8]",3,172.2617613216869,127.95145149747839,174.62445420089708
72,11262.35853221063,6185.0,[10],1,313.97286632124053,135.86761420678675,675.2149987597704
96,15474.443331997853,7389.0,[0],1,310.4190494357761,356.92181852752736,772.593238499558
96,29533.00823136652,13178.0,"[1, 3]",2,237.8461871279551,148.1352688368312,263.573565773036
96,82623.62840624005,40469.0,"[2, 4, 9]",3,209.6453878414914,484.0876846650473,536.8648505672055
96,13065.02503125965,5552.0,[5],1,416.96845833249307,351.3603970707818,610.3442451705239
96,61191.42458374496,21114.0,"[3, 6, 8]",3,182.06705962182363,127.43146120252749,175.84162269319646
96,12991.160211097062,7122.0,[7],1,444.9655678060313,188.2606868977812,283.53339795145985
96,10641.638449108243,3945.0,[10],1,334.21167103093586,132.91029347123703,674.8261328790966
120,11740.15905555913,2539.0,[0],1,NA,NA,755.1937099596422
120,51876.68629002388,22126.0,"[1, 3, 6]",3,NA,147.0172018601398,NA
120,92041.30338402081,42913.0,"[2, 4, 9]",3,NA,NA,545.8488787937399
120,11985.510362431312,4217.0,[5],1,442.4488093544368,NA,NA
120,36585.00564009863,16960.0,"[3, 7]",2,NA,152.62339875246906,NA
120,40802.22318356077,16318.0,"[6, 8]",2,NA,137.00274089061404,177.64735611283544
120,10225.556079483022,3898.0,[10],1,NA,NA,NA
