time(in hour),cumulative size,size,pcore_ids,pcore_power,SCA-1,CD11b,Ly6C
-1,0,0,[],0,0.0,0.0,0.0
0,23957,23957,"[0, 2]",2,236.1881704720955,426.1392494886662,643.2073297992245
0,44566,44566,"[1, 3, 6]",3,205.62621729569858,147.61847596822642,237.73706412960502
0,32160,32160,"[2, 4, 7]",3,219.7089863184085,406.631623134328,576.6790111940307
24,12284.982725852185,8052.0,[0],1,255.8373427281905,358.33644700707015,734.8249252880673
24,64541.10214360563,38042.0,"[1, 3, 6]",3,197.7887843798894,147.47955576876416,230.15626093027612
24,59461.45040924376,40339.0,"[2, 4, 7]",3,203.84720036117375,425.2096421160634,568.4635433708598
24,7237.487760455899,3567.0,[5],1,285.12333465006236,154.27416747580924,682.8896160646395
48,16205.694432634471,8901.0,[0],1,289.99736065753825,362.54905791824393,720.3494789587388
48,78379.89829210012,42437.0,"[1, 6]",2,187.6108070099773,143.49562215118348,201.08759836504643
48,68065.98994752706,32710.0,"[2, 4, 7]",3,205.10787513064662,441.38023784576694,537.2113790329745
48,8270.435969739632,3967.0,[5],1,293.14065461793274,155.65684883206458,668.4141872763068
72,17057.963561424447,7422.0,[0],1,306.54643981245636,343.1406386965078,725.2592776499291
72,83543.96636107755,36939.0,"[1, 6]",2,196.93071883333042,140.77059248646214,201.51022857440282
72,73645.7656115191,37950.0,"[2, 7]",2,212.961757124646,467.2649612102436,552.5568608846577
72,8333.51415613234,3557.0,[4],1,212.09655642289252,298.4501629977033,516.9249229233626
72,8235.6306496944,3318.0,[5],1,306.7936840895575,157.56339081325396,677.0926637230207
96,15092.725817351553,4950.0,[0],1,332.0617196624072,343.9901100648646,720.0207657121974
96,79785.5396060707,30110.0,"[1, 6]",2,212.4366746999786,151.0220548977089,216.29149123738054
96,89084.0342275206,45294.0,"[2, 7]",2,238.65021176907226,468.109948166615,546.6454597960442
96,6925.137163724237,1970.0,[4],1,212.35355983016544,300.3154226437057,505.1837694650679
96,9703.93528257553,4807.0,[5],1,337.91103512174,161.46508422506835,675.8444655267373
120,19536.188463389863,10562.0,[0],1,387.38787086897986,383.4304778182185,721.1338627008199
120,76076.76568693534,28636.0,"[1, 6]",2,242.85544135489332,148.8902796758475,212.97460281822688
120,85590.68366825671,32621.0,"[2, 7]",2,251.33042876660926,484.78257326665135,541.0813198266376
120,12860.579098520726,9938.0,[3],1,504.5891676280153,175.44129623342667,416.02707152922466
120,13064.99444078238,7295.0,[5],1,398.2811334300019,152.38870918646137,673.1989706377667
