time(in hour),cumulative size,size,pcore_ids,pcore_power,SCA-1,CD11b,Ly6C
-1,0,0,[],0,0.0,0.0,0.0
0,6814,6814,[0],1,286.6793366598154,430.7662166128557,735.1433812738495
0,12404,12404,[1],1,217.66405998065295,162.10972267010666,310.50282167042906
0,29066,29066,"[3, 7]",2,212.64529002958793,412.2054290235997,570.3078855019597
0,28567,28567,[6],1,184.18276332831863,134.04011621801408,176.78681695662706
24,11570.62864081427,7519.0,[0],1,267.3775390411987,428.935703909567,732.4728190462174
24,15905.462527246877,8530.0,[1],1,208.49982276433448,161.8047372371019,313.8655614247509
24,54790.74700233454,37508.0,"[3, 7]",2,198.9849444533947,430.7646716661514,563.6871294572859
24,7840.856889114495,4784.0,[5],1,205.0635752709297,201.63294080229375,716.9830012485756
24,43948.039827141365,26962.0,[6],1,177.74648844619475,134.7884177727414,172.33143829685622
48,14139.936952355296,7260.0,[0],1,293.47009290505474,422.86670864653144,720.1989548231767
48,18654.444602405572,9197.0,[1],1,222.46679608300778,170.12569424969232,305.1121746633801
48,43996.5028801429,21267.0,[3],1,191.10772958332566,480.4872036053254,547.3532165421325
48,8270.20140012653,3608.0,[5],1,228.42765204172306,200.8430385860576,702.3979068029885
48,58698.66082642973,32567.0,[6],1,171.63572059941737,132.82674777919036,163.5961802212104
48,21772.270205602217,11923.0,[7],1,229.97801931137246,359.2138890624668,501.75528829701636
72,14207.656814715405,5800.0,[0],1,304.62502599623866,408.48862274440523,711.6550450456913
72,17410.99912380241,6319.0,[1],1,233.17292008117766,172.18753675401544,303.9830704943373
72,77468.34644928377,38362.0,"[3, 7]",2,210.94717420018955,450.8494781095256,543.5442942300043
72,9516.491173767969,4599.0,[5],1,247.26339990163012,200.45968989265063,704.4976330832102
72,65903.43254796087,31001.0,[6],1,181.75690852406683,137.9239480176299,181.19759750881735
96,15145.923285788227,6698.0,[0],1,342.73314030437996,408.9815741952415,716.490505182525
96,19654.64201866598,9302.0,[1],1,245.8402328294036,171.88198721105627,303.407200339716
96,7891.134920621293,4345.0,[2],1,425.37496830301046,151.3598898142659,638.7380036122082
96,70344.20610707914,36046.0,[3],1,226.37144154728816,492.32421078121627,550.4928990777177
96,7612.81010273691,5363.0,[4],1,423.68167580342316,189.28521697027978,335.45152523742587
96,9198.539506852732,3540.0,[5],1,272.6610800631573,196.93018369269402,705.4399977791433
96,56579.41544456848,17393.0,[6],1,184.69787369193702,138.52405623477225,177.8631725772679
96,19077.748285412883,7313.0,[7],1,234.28135525127493,369.4075468396578,495.7565190982051
120,20225.819867372375,11220.0,[0],1,396.58436477522736,431.4202560635343,714.692186578562
120,19384.720065714515,7698.0,[1],1,262.5395654265126,165.72148878002918,305.17051555236907
120,12869.096896524636,8177.0,[2],1,487.1405988346269,145.49267010037582,624.4450305297922
120,70716.9152008782,28890.0,[3],1,241.19776776245908,504.7291290110127,541.8027596307403
120,18675.603969669664,14149.0,[4],1,475.87677324929456,165.71288508599596,273.5739210399313
120,56505.80601927929,17394.0,"[5, 6]",2,207.40940818581157,146.75857223655788,259.51220072847127
120,13815.696999621981,2472.0,[7],1,238.56116030348906,371.4965868796334,492.0419678010709
