time(in hour),cumulative size,size,pcore_ids,pcore_power,SCA-1,CD11b,Ly6C
-1,0,0,[],0,0.0,0.0,0.0
0,27323,27323,"[0, 2, 5]",3,0.2719824471871455,0.44422356117523465,0.6722338889537832
0,44947,44947,"[1, 3, 6]",3,0.231028004768665,0.17327454144836457,0.22404630685296553
0,30346,30346,"[2, 7]",2,0.24908152935766362,0.4550426036604082,0.5880799867658494
24,50170.35300160968,33924.0,"[0, 2, 5]",3,0.24468415166583668,0.47569595638858203,0.6559738873304063
24,64569.646099013655,37844.0,"[1, 3, 6]",3,0.21994224495749173,0.17250613786441388,0.21314072999343708
24,57228.83955593628,39185.0,"[2, 7]",2,0.23351922643872705,0.4769529828555257,0.5792406058742574
48,21036.56605379744,10819.0,"[0, 5]",2,0.3179436702190717,0.38498171005131615,0.7499687971079926
48,81750.34127707736,43357.0,"[1, 3, 6]",3,0.21559034113752992,0.16851816304311817,0.18946893705345874
48,66309.4715916343,32281.0,"[2, 7]",2,0.23286242545462593,0.4970751908238294,0.5461070688124557
72,27005.417013200316,14497.0,"[0, 5]",2,0.34326896146349234,0.3570918980150129,0.7529382050176369
72,85971.04375030051,37362.0,"[1, 3, 6]",3,0.22474349055766105,0.16324154902207402,0.18497644050020223
72,76301.84770442116,36874.0,"[2, 7]",2,0.23310589257581252,0.5172536795625641,0.5505227081633296
96,22081.517027856673,6024.0,"[0, 5]",2,0.3653287713789165,0.3407603666780732,0.7460428004106878
96,81951.6884560338,30833.0,"[1, 3, 6]",3,0.2466736173895447,0.16385546902163442,0.19206480143815466
96,95987.35008897584,50618.0,"[2, 7]",2,0.26823333120909654,0.5208994450225447,0.5594471873061516
120,15883.741717013181,7916.0,[0],1,0.42467287869531345,0.4371768181194853,0.7443396838627737
120,85546.76549920088,36818.0,"[1, 3, 6]",3,0.29997835961366054,0.17845548123613672,0.2137331253285206
120,91432.41983803357,34358.0,"[2, 7]",2,0.2895812884167348,0.5315350255927338,0.5530908813994024
120,19331.846846483346,10908.0,"[4, 5]",2,0.46103051957438523,0.20059211058168094,0.6751294798412503
