time(in hour),cumulative size,size,pcore_ids,pcore_power,SCA-1,CD11b,Ly6C
-1,0,0,[],0,0.0,0.0,0.0
0,38826,38826,"[1, 4, 12]",3,NA,138.7910163292641,NA
0,8982,8982,[2],1,NA,NA,NA
0,5003,5003,[3],1,NA,NA,NA
0,16580,16580,"[5, 9, 14]",3,NA,NA,NA
0,3928,3928,[11],1,NA,NA,606.9136965376767
24,8426.134007045534,4915.0,"[0, 14]",2,NA,NA,NA
24,56791.07772354782,33705.0,"[1, 4, 12]",3,NA,138.21761278273607,NA
24,20012.72915347722,14672.0,[2],1,190.08143118342005,NA,NA
24,5532.801598179307,2558.0,[3],1,NA,NA,NA
24,24333.609376901157,16181.0,"[5, 9]",2,NA,NA,NA
24,3606.969912758638,2017.0,[6],1,NA,NA,NA
24,4155.837986344125,2353.0,[7],1,NA,311.79513229570216,NA
24,4662.860325770914,3171.0,[10],1,NA,279.5130804662938,NA
24,7018.602773865345,4683.0,[11],1,355.31945796252427,NA,NA
24,6278.676093069166,4458.0,[13],1,NA,NA,NA
48,10154.595795784713,5351.0,[1],1,283.03553907298664,156.48025520931373,266.91423278655174
48,25207.639949968747,13308.0,[2],1,210.91580182872468,522.1332945594329,579.252369476449
48,5479.823513226629,2190.0,[3],1,297.939753701335,136.02992603158125,672.9694052398331
48,65126.58105297309,36162.0,"[4, 12]",2,168.3913050353412,136.20529293827832,NA
48,39487.679281272205,22383.0,"[5, 9, 14]",3,NA,NA,500.273976105565
48,5486.076051079507,3015.0,[7],1,310.98290062508704,307.83924038507695,728.307711709434
48,7392.286178029251,3219.0,[11],1,363.02582422685225,322.12641257082385,590.7916858008772
48,6404.323141337669,2671.0,[13],1,268.302841047566,450.63865792144617,744.107615278542
72,10940.958785161949,4903.0,[1],1,297.7919927892811,160.01434298607958,NA
72,39377.552390464836,24389.0,[2],1,213.5825625292874,NA,NA
72,6249.322555444158,2991.0,[3],1,NA,NA,NA
72,70192.4967819985,31468.0,"[4, 12]",2,NA,140.89123312986092,NA
72,36141.51457811722,12662.0,"[5, 9, 14]",3,NA,NA,NA
72,6030.04033669489,2768.0,[7],1,324.97390671444253,NA,NA
72,4029.7912417799143,2053.0,[10],1,NA,NA,NA
72,6358.479659524328,1963.0,[11],1,NA,NA,NA
72,6820.033323227666,3012.0,[13],1,NA,NA,NA
96,14531.533016133058,8026.0,[1],1,NA,NA,NA
96,51352.03273706659,27938.0,[2],1,NA,NA,561.6045983014396
96,8221.869423440588,4506.0,[3],1,NA,NA,NA
96,63081.836504829276,18949.0,"[4, 10, 12]",3,NA,146.93152963976712,NA
96,34780.87314163578,13291.0,"[5, 9, 14]",3,NA,NA,NA
96,3931.2127264373735,2197.0,[6],1,NA,NA,NA
96,7702.483436075483,4117.0,[7],1,NA,NA,NA
96,5113.384248645454,3329.0,[8],1,NA,NA,NA
96,6177.774625853204,2397.0,[11],1,NA,NA,NA
96,7955.216076268996,3900.0,[13],1,NA,NA,NA
120,17745.501227341192,9105.0,[1],1,NA,148.54095277437912,NA
120,61779.9180397696,27276.0,"[2, 14]",2,NA,NA,NA
120,11313.752808489433,6425.0,[3],1,NA,NA,NA
120,51622.68439949068,14114.0,"[4, 10, 12]",3,NA,144.95041202596278,NA
120,20022.014213636674,3311.0,"[5, 9]",2,NA,NA,NA
120,5592.513072434285,3255.0,[6],1,NA,NA,NA
120,8686.924052685787,4107.0,[7],1,NA,NA,NA
120,13447.436465116009,10407.0,[8],1,NA,NA,NA
120,7666.326769973952,3993.0,[11],1,NA,NA,NA
120,11750.19977964156,7020.0,[13],1,NA,NA,NA
