time(in hour),cumulative size,size,pcore_ids,pcore_power,SCA-1,CD11b,Ly6C
-1,0,0,[],0,0.0,0.0,0.0
0,13265,13265,[2],1,0.24512339221657048,0.5281986754515092,0.6315504488342402
0,38042,38042,"[3, 7, 9]",3,0.2203000941006089,0.16178370726710503,0.1919247264979307
0,16007,16007,"[4, 12]",2,0.24427838101729446,0.4125938114744506,0.5699072635677339
0,3976,3976,[8],1,0.3526544096036863,0.16837137075848735,0.7306802955819564
24,4388.695779475552,3055.0,[0],1,0.25964738035831064,0.3421411357743642,0.7718859221348316
24,29835.193881736028,15180.0,"[1, 3, 9]",3,0.22677910169321183,0.1767986716096197,0.2664139076368576
24,25901.416190255546,18014.0,[2],1,0.22068969370826616,0.549775296172252,0.6099447428731676
24,27003.81914492428,17486.0,"[4, 12]",2,0.2295543265819283,0.42546265472436773,0.5520805030987151
24,52669.33605908941,32168.0,"[3, 7]",2,0.20813063547691693,0.15856091760332947,0.17340335664028464
24,3703.1437446254095,1339.0,[8],1,0.3518012667453522,0.16265922809974825,0.7343552979265993
24,7361.7666569056055,4912.0,"[10, 14]",2,0.3419690539348125,0.38259360074012,0.6401360538449308
24,7492.814652034685,5445.0,[13],1,0.25564710662517315,0.47088790022042043,0.7770164200864964
48,4439.534123267369,1830.0,[0],1,0.27752007045071,0.33829341687013514,0.7706485555789242
48,28468.074211049283,13067.0,[2],1,0.22767190974264193,0.5763823104962784,0.5856573530561745
48,27018.458174586136,13691.0,[3],1,0.21727925844012308,0.1650661891385846,0.23736171393005875
48,33646.56692969533,17590.0,"[4, 12]",2,0.21799781295951554,0.44414884514925734,0.5086761717450551
48,4565.789371676176,2822.0,[6],1,0.2768592300068681,0.16585206395444374,0.6390192381336423
48,41676.91641738311,23687.0,[7],1,0.1885188620319204,0.1474021990048972,0.10426497561270735
48,3762.9024444931783,1561.0,[8],1,0.36956009532253786,0.16297898082991044,0.7312692268418503
48,5026.049440473518,2812.0,[9],1,0.2585737073160359,0.2285044550200318,0.3275136286750582
48,9919.33264369097,5542.0,"[10, 14]",2,0.38133896393361677,0.38776016241565414,0.6357282992859259
48,4166.860236635421,2734.0,[11],1,0.40177248588028314,0.24156465609416664,0.36231368624768395
48,8714.254247798142,4259.0,[13],1,0.29503396096876094,0.47866093146229677,0.7740666650529527
72,7414.762783343462,4775.0,[0],1,0.26914126218086887,0.30300696658708165,0.7957400334725516
72,37413.218201102645,20486.0,[2],1,0.2268749432826561,0.5994745457915218,0.5889192646458434
72,32626.27134881063,16561.0,[3],1,0.2335718087466626,0.1613455434345347,0.2350468184221964
72,19458.239196008588,8420.0,[4],1,0.21148738965753772,0.48233409324620247,0.5354904305724923
72,5480.834603200556,2766.0,[6],1,0.3055819036744253,0.1496245631719749,0.6506017252189553
72,41528.242767462856,16747.0,[7],1,0.18551585386685684,0.1449796136508484,0.10073761146194687
72,4467.506877483276,1479.0,[9],1,0.2835598281472025,0.2275346695261128,0.3165047616597033
72,10248.023441484751,5428.0,[10],1,0.45485875383414875,0.37078320794881564,0.6247157421995301
72,4643.629920314383,2166.0,[11],1,0.44754307873694077,0.23667217661273715,0.3239173942239822
72,13727.129198095878,4759.0,[12],1,0.20835730325733146,0.4055600599517752,0.46649520512064113
72,9323.526576712118,4142.0,[13],1,0.31269662552776434,0.49279980945057195,0.7860191682663631
96,5656.844329004712,1248.0,[0],1,0.2976920231746159,0.28593439099042134,0.7811523795462955
96,56453.03263995028,34207.0,[2],1,0.27072171433107206,0.5777161269497748,0.5784755585626574
96,29652.092494520864,7596.0,"[3, 9]",2,0.25382625123318486,0.16974782841219332,0.24290773035469654
96,36191.13810412773,16459.0,"[4, 12]",2,0.23935353816753363,0.4276105472744949,0.49218157646224847
96,4471.923753139608,1213.0,[6],1,0.31956827916474734,0.1526552311647145,0.6436562522760833
96,41361.840886313556,16669.0,[7],1,0.2136792833253044,0.147408978687463,0.12110433013806612
96,5442.614382386489,3366.0,[8],1,0.42979812549949487,0.17842317836338834,0.7170417264107549
96,6874.511195664169,781.0,[10],1,0.4589612279539889,0.37170039205697547,0.6267329920495586
96,10356.802070971506,4813.0,[13],1,0.3755451996337473,0.46667991665403835,0.7737523937894156
120,5571.579762257598,2208.0,[0],1,0.3305599632783543,0.2963319124872302,0.7700995392280804
120,12880.331013978594,7825.0,"[1, 9]",2,0.3500858378157847,0.18804017060406417,0.27029679964269104
120,60405.17403945486,26838.0,[2],1,0.29261928902714174,0.5800732684771672,0.5665092964522309
120,20811.335520782435,6324.0,[3],1,0.2570298138585314,0.17484206935240462,0.23617968714655052
120,25073.37946673739,3554.0,"[4, 12]",2,0.2396153493706638,0.4360299321447547,0.4925597731212617
120,3838.7614911749115,2736.0,[5],1,0.41259992113563904,0.208363451850763,0.4421879446902477
120,4374.021772491647,1715.0,[6],1,0.3387376265449547,0.16171207464863432,0.6385321833807721
120,35250.897735807266,10657.0,[7],1,0.21395367879356894,0.16100627889260657,0.136421327973599
120,9364.197873875077,6128.0,[8],1,0.5336643686450769,0.16829343993864454,0.6922406521191654
120,6686.608813024846,2599.0,[10],1,0.495809854770216,0.3771745265546844,0.6209769834634208
120,12708.55822993553,10845.0,[11],1,0.5476741284202341,0.18611084143193615,0.2509283818248373
120,13962.191355737115,7804.0,[13],1,0.43297737123866425,0.4889479936506759,0.7576207289338301
