time(in hour),cumulative size,size,pcore_ids,pcore_power,SCA-1,CD11b,Ly6C
-1,0,0,[],0,0.0,0.0,0.0
0,8800,8800,[0],1,312.48954545454035,400.2395454545442,733.8773863636388
0,45370,45370,"[1, 5, 6]",3,198.22532510469725,140.57773859378497,294.7955697597523
0,27263,27263,"[2, 7]",2,190.0145985401473,427.24527748230366,568.0912225360375
0,4551,4551,[4],1,361.7251153592577,216.16721599648426,495.92397275323947
24,13831.0,9431.0,[0],1,278.06818017496545,395.86472417034327,740.3606029932776
24,60469.0,37784.0,"[1, 5, 6]",3,184.74986356645866,139.13977409912567,275.95001571052853
24,48353.5,34722.0,"[2, 7]",2,179.10364296276666,447.125895746948,559.0053977478364
24,4755.0,2740.0,[3],1,366.46445846477013,137.95541535226064,236.88180862250314
24,7598.5,5323.0,[4],1,364.861025202337,259.2230703428292,512.4420609330786
48,14061.5,7146.0,[0],1,293.27991323827183,391.2925719162259,725.4276392987947
48,64995.5,39192.0,"[1, 6]",2,171.2126185659047,142.7686416751922,194.9827218807452
48,56255.75,32079.0,"[2, 7]",2,193.86718690978387,450.25616048137425,529.0235353719404
48,14316.5,7508.0,"[3, 5]",2,305.17781929940634,154.81376383892712,500.97061083365253
48,7874.25,4075.0,[4],1,368.12677397846863,267.7061624916643,517.7639140235582
72,13379.75,6349.0,[0],1,304.0802518731625,387.4668248659351,732.3836674825765
72,65445.75,32948.0,"[1, 6]",2,174.89922378458877,142.90372751477332,201.52263133969723
72,63971.875,35844.0,"[2, 7]",2,198.17305651897908,468.74161496751714,543.56444726686
72,17745.25,10587.0,"[3, 5]",2,327.4986334371151,159.9258181766951,485.7694242121138
72,8209.125,4272.0,[4],1,414.5435871667173,244.82044371354903,532.8108964110061
96,14872.875,8183.0,[0],1,353.9698864543612,401.80157669583093,735.1490675138475
96,56451.875,23729.0,"[1, 6]",2,183.44236462473876,144.22989161121745,207.0549273164086
96,73182.9375,41197.0,"[2, 7]",2,218.40816378817786,481.765739452589,536.1035752015173
96,21088.625,12216.0,"[3, 5]",2,360.7324594419953,155.50315928610848,452.0575873249196
96,8779.5625,4675.0,[4],1,453.8084970065409,225.26689826514595,538.5515081189994
120,18867.4375,11431.0,[0],1,404.25404549504515,427.29047399786043,731.2980415994501
120,47681.9375,19456.0,"[1, 6]",2,197.82492518786736,141.6034930679987,210.07278568535446
120,67575.46875,30984.0,"[2, 7]",2,237.2491644758286,498.91581403200234,531.0821942133989
120,29123.3125,18579.0,"[3, 5]",2,413.2322441429014,151.33741761861697,378.6268979103934
120,13939.78125,9550.0,[4],1,509.7545581104459,188.28605407635226,546.4068033707473
