time(in hour),cumulative size,size,pcore_ids,pcore_power,SCA-1,CD11b,Ly6C
-1,0,0,[],0,0.0,0.0,0.0
0,7747,7747,[0],1,295.2975345294917,363.0931973667218,734.4457209242306
0,40769,40769,"[1, 6]",2,194.89862395447773,142.06720792759216,216.57656552772843
0,31835,31835,"[2, 4, 7]",3,207.0268572326063,404.9791738652443,575.6282707711642
24,14181.956233852183,8704.0,[0],1,275.64814794631025,365.84294567203716,735.2897120406996
24,63943.03636219436,35115.0,"[1, 6]",2,186.93182711242784,141.5996510507475,208.9628029320872
24,57286.32143840966,37126.0,"[2, 7]",2,196.25759521005543,439.97002664507266,569.5865330923857
24,7479.9407230130355,3098.0,[5],1,319.29335202696376,152.33380483336546,690.6534784475283
48,18044.15742344771,8016.0,[0],1,294.7569064198024,361.7880014155669,721.0736793549627
48,86898.55462136562,41684.0,"[1, 6]",2,185.27844769800308,140.93517677207984,198.6968614407907
48,75668.54635833178,35161.0,"[2, 7]",2,203.37620288448335,443.60396579635903,541.8467628565295
48,8892.116808115925,3603.0,[5],1,315.67138573387996,156.4182429901194,674.5301541660021
72,18048.14607491746,5289.0,[0],1,302.2264116745829,349.57612444094184,717.6559493647272
72,99063.55724807724,37617.0,"[1, 6]",2,193.08301937321662,143.5069242687567,206.66995654380557
72,94963.74225250504,41458.0,"[2, 7]",2,212.02546586983493,448.0065490991819,552.2106541917758
72,9805.676094121649,3518.0,[5],1,324.2230719392268,166.27157897973876,677.5834793377303
96,19759.966477419504,6998.0,[0],1,331.8239098165728,361.4354705299196,723.9205686133055
96,97351.51309857718,27303.0,"[1, 6]",2,200.19961468850096,146.3569616010909,209.21912263877033
96,110320.50611359777,43171.0,"[2, 7]",2,225.4779568455851,462.5604097131437,545.6449559582227
96,9238.008420729393,5460.0,[3],1,430.49911359724257,197.17190548551926,375.175541970683
96,12944.660060272237,6011.0,[5],1,360.51047635047814,158.93345956950208,682.2566577309226
120,25514.40629220219,11542.0,[0],1,377.8669342727627,391.69389748691447,723.4338160393839
120,91130.91507077494,22293.0,"[1, 6]",2,210.03113003160377,145.22239881421655,209.3142286629672
120,109569.37797685698,31561.0,"[2, 7]",2,236.7223777480808,477.97767264037674,540.2898607132486
120,21313.258398956183,14781.0,[3],1,481.57242118556144,173.2219338093697,315.30695397800014
120,17885.25690877316,8732.0,[5],1,419.2120944408863,151.80960501092542,670.785693888869
