time(in hour),cumulative size,size,pcore_ids,pcore_power,SCA-1,CD11b,Ly6C
-1,0,0,[],0,0.0,0.0,0.0
0,7747,7747,[0],1,0.3317949826174064,0.4107389110483279,0.7699840990247557
0,40769,40769,"[1, 6]",2,0.21898721792637946,0.16070951123030788,0.19329238922909625
0,31835,31835,"[2, 4, 7]",3,0.23261444632877112,0.4581212374041225,0.5931272503019647
0,6197,6197,[5],1,0.3725062688905259,0.1722113020677794,0.7203402896652694
24,13355.39375996304,8749.0,[0],1,0.3065304244015385,0.41352996196380315,0.7718747115611229
24,59464.39243577296,35223.0,"[1, 6]",2,0.20983570721684777,0.1602809634857522,0.1847811968875208
24,54123.74202792129,37171.0,"[2, 7]",2,0.21994805387912506,0.4984957645885092,0.5853802774785566
24,4805.328308954708,2748.0,[3],1,0.4016198596455587,0.24196933537027243,0.4319324318907037
24,5022.462225134523,3046.0,[4],1,0.19771117068704944,0.24886800377202187,0.5875059306780683
24,6747.758245835931,3063.0,[5],1,0.3574920166578169,0.1723018022230692,0.7199948360091037
48,16261.164641505497,8320.0,[0],1,0.3335910034929856,0.4138157908778917,0.7517006781072991
48,77053.7392869676,41696.0,"[1, 6]",2,0.20779788258799675,0.15989643507196513,0.17184694683941662
48,65868.1695550879,33686.0,"[2, 7]",2,0.22779668250111304,0.5061975730711077,0.5501708219310645
48,7670.241058133184,3658.0,[5],1,0.3623130480241523,0.1774118268354801,0.7033754152944433
72,15722.946344954504,6054.0,[0],1,0.34377369184500745,0.39771279759804234,0.7515978590859134
72,82637.42749881328,36821.0,"[1, 6]",2,0.2170549988940177,0.1625687663946926,0.18166812973882343
72,79536.44794355807,40371.0,"[2, 7]",2,0.23768491874074799,0.5126945266500813,0.5619220601059114
72,8199.752620058991,3639.0,[5],1,0.37905390771691305,0.1867958909950979,0.7077560601949829
96,16402.919831112962,7054.0,[0],1,0.38316412581571396,0.4129234345114087,0.7593097224294677
96,76318.50837355513,27182.0,"[1, 6]",2,0.22755014559540104,0.1661873729093312,0.1855425619097061
96,90777.65489826139,43485.0,"[2, 7]",2,0.2565180376030292,0.529247290039284,0.5552209130595562
96,7720.890896079643,5154.0,[3],1,0.495270335683212,0.21916819550175531,0.35018042333571664
96,10657.602078518179,5782.0,[5],1,0.42082818987600135,0.17839742941023876,0.7143911710149189
120,21145.234484989385,11392.0,[0],1,0.43970975949267765,0.4511477650911834,0.757012922163544
120,67518.25658211326,22139.0,"[1, 6]",2,0.24175129707831353,0.1644442970455952,0.1866921537000076
120,85920.71654413703,31944.0,"[2, 7]",2,0.2722495531451912,0.5486688899371065,0.5493629953108231
120,18878.869193888822,14288.0,[3],1,0.546819255214996,0.19039586954009718,0.2814415623892854
120,15020.048110320804,8683.0,[5],1,0.49636217617701844,0.17012274274656064,0.6958607359837686
