time(in hour),cumulative size,size,pcore_ids,pcore_power,SCA-1,CD11b,Ly6C
-1,0,0,[],0,0.0,0.0,0.0
0,11700,11700,[0],1,190.6565811965823,372.05940170940323,533.2045299145279
0,37667,37667,"[1, 2, 5]",3,185.72894045185632,138.80609021159142,209.13133512092725
0,4580,4580,[8],1,325.8617903930096,351.19126637554575,653.6460698689966
0,13009,13009,[11],1,204.7806134214785,477.3429933123243,595.0084556845267
24,17530.574669941303,13394.0,[0],1,183.8340296944875,383.92646125657177,526.5868076858236
24,46389.295563476844,33072.0,"[1, 2, 5]",3,178.02008188265557,138.49716084968435,201.8846091028671
24,5182.274528917194,3563.0,[8],1,318.6376344820468,354.3357385205476,653.9824189078275
24,22964.3760582279,18365.0,[11],1,186.04463886704445,499.7179503551942,581.5459828586814
24,4949.122852205155,3927.0,[12],1,167.2985582087712,301.1839478721634,761.263590920747
24,6154.132086921144,4753.0,[13],1,248.175399106754,465.4565720931832,748.8037393652147
48,21322.99411360631,15125.0,[0],1,180.98979033457698,402.8349349608854,481.7935454845004
48,6584.605283305535,4575.0,[1],1,242.58867311779758,174.60723051517778,304.93077143261644
48,46820.487450395216,32429.0,"[2, 5]",2,158.5488878261208,132.91525622174686,171.154869655628
48,5801.210730683835,3969.0,[8],1,326.7654600222138,354.13034239836367,674.863194486988
48,4672.5885995422905,3790.0,[9],1,351.66205814686197,146.4651372690519,198.47753739721924
48,5211.617584933327,3628.0,[10],1,365.7525478143247,343.8920093244219,548.8152150947395
48,21594.133018245473,13475.0,[11],1,199.35749060430487,519.4823288835264,554.2375876328794
48,5932.81426548983,3757.0,[13],1,282.7739920123015,463.10181417747464,736.591887526779
72,16559.81686646593,9021.0,[0],1,191.54734074721702,393.9582094833332,498.53705348462864
72,6534.009523631055,4206.0,[1],1,273.15796447621295,173.12023979199373,308.08215578244847
72,47293.54208731705,30740.0,"[2, 5]",2,172.06240700904027,138.74032263852868,191.63156190671745
72,34094.67894552285,26460.0,[11],1,209.33059518034256,509.5063023369341,570.0963505823055
72,5489.566599324073,3392.0,[13],1,302.98207530760544,451.991947380794,725.2252921204088
96,13583.779400742713,7729.0,[0],1,201.18954705083345,403.0478740943878,494.6893845229358
96,8374.1212212485,6064.0,[1],1,286.72238519751767,170.8153849196195,309.06360889473103
96,35533.79215813664,18813.0,"[2, 5]",2,177.99422357398566,141.5416366597945,191.51984925490018
96,5027.443674374835,3522.0,[8],1,381.7837846667644,337.2640748709096,710.4697874043692
96,6214.598447401494,4648.0,[9],1,417.0491360979011,154.27996939890224,196.8536670084572
96,43181.28934237871,31127.0,[11],1,237.8446942860642,514.2607997195967,553.4737087967675
96,5953.854884078613,4013.0,[13],1,359.3766194017923,463.98238324979354,728.1752972956714
120,8532.591264203655,3730.0,[0],1,199.664100665723,423.3731685164354,490.44959345005077
120,9941.698951011495,6981.0,[1],1,314.37037879403834,158.81158127278704,304.67954396690584
120,27264.09269814589,14701.0,"[2, 5]",2,190.1129440792657,138.8693452565087,187.2494961136709
120,6675.0236319519945,5622.0,[3],1,496.622202000765,166.21978713513386,429.25735406825873
120,6302.007415163384,4814.0,[6],1,525.9330052878405,134.05654256330482,672.2239866352916
120,6547.46975709193,4770.0,[8],1,406.84817644371896,351.9328502038137,717.5534572496427
120,11953.192352254493,9756.0,[9],1,472.8124509167405,144.8963354582567,191.3862258924293
120,40918.89125718719,25652.0,[11],1,256.85735270058655,523.3652000136166,541.7616226837099
120,7671.005581366317,5566.0,[13],1,428.887941060176,496.75514715474065,731.7404485606805
