time(in hour),cumulative size,size,pcore_ids,pcore_power,SCA-1,CD11b,Ly6C
-1,0,0,[],0,0.0,0.0,0.0
0,16679,16679,[1],1,206.52449187601363,152.67264224473922,NA
0,18685,18685,[2],1,184.42001605566136,132.08793149585253,NA
0,5903,5903,[3],1,286.42012535998515,NA,NA
0,7290,7290,[5],1,274.51303155006616,NA,NA
0,8942,8942,[8],1,229.5270632968019,NA,NA
0,20011,20011,[9],1,220.6740792564087,NA,NA
24,22299.39273556519,12382.0,[1],1,199.81304191934885,157.4229215452469,NA
24,32168.167471912922,21058.0,[2],1,178.63996351576023,134.17932630779129,NA
24,7027.944799930531,3518.0,[3],1,NA,NA,NA
24,23968.975520911798,16628.0,"[4, 8]",2,220.2571014417638,NA,NA
24,12206.659934184918,7872.0,[5],1,247.73915678626895,366.8307692428579,NA
24,36119.611789159724,24221.0,[9],1,202.53750908800987,NA,588.1571736638102
48,26554.298250687058,13295.0,[1],1,205.16172808463452,154.86214056349567,270.0498862973276
48,44999.30681709897,25872.0,[2],1,167.526055959087,130.66832710779573,144.1260243696238
48,8945.840979961882,4767.0,[3],1,287.3500689277091,162.923476550746,672.2962910971247
48,16304.395199401359,11013.0,[4],1,192.68263943629947,366.9287786297873,454.83212865450605
48,15053.123422075674,7795.0,[5],1,282.44007952532957,374.6323497161631,717.6211401677464
48,14825.642914995822,5865.0,[8],1,250.01726566152993,368.29974443506717,543.0957803141619
48,39077.84966540245,17601.0,[9],1,203.0329637434664,486.5115524336009,564.1371105924275
72,29634.28020681068,13845.0,[1],1,232.53006195366046,151.57532760830222,267.75576356810745
72,48235.74791854227,21479.0,[2],1,166.4502116281813,128.77504252345523,147.64258894847757
72,8791.228871526793,3472.0,[3],1,305.43850263895257,157.63453330246094,678.0481920031011
72,18252.65138847215,8558.0,[4],1,196.36319905881078,362.21792946690715,462.4004890003335
72,19095.64073827325,10145.0,[5],1,302.74499615681844,NA,726.7458684440278
72,11696.380019501357,2881.0,[8],1,NA,361.0302675904646,542.8935003710369
72,50055.82843055164,26820.0,[9],1,202.84842803824665,507.5313456668844,569.276845603854
96,19998.648434961782,2378.0,[1],1,NA,152.38732602910937,272.2551573410258
96,53953.14731110408,25272.0,[2],1,199.37876798261163,132.98175031824763,168.48814751448526
96,10549.295961818501,5322.0,[3],1,340.1729806820082,170.00626068945243,681.0686326348558
96,15791.091449417689,4938.0,[4],1,215.1048119483052,349.5271578157204,465.05441481987395
96,13919.335915745181,2565.0,[5],1,NA,NA,727.8765867150997
96,8944.70916948334,1990.0,[8],1,NA,347.1500809737101,546.609097338128
96,73224.37365848375,43461.0,[9],1,241.06189889810307,497.90239592240584,569.4406027329372
120,14580.030599120713,11472.0,[0],1,NA,165.67840451377484,NA
120,19392.267504647294,7501.0,[1],1,NA,NA,NA
120,45653.73332957745,13573.0,[2],1,NA,145.5898474211749,NA
120,12651.648908032017,6379.0,[3],1,NA,NA,NA
120,13158.439152653073,3769.0,[4],1,NA,NA,NA
120,15827.486653558542,7551.0,[5],1,NA,NA,NA
120,6801.116545414834,5433.0,[6],1,NA,NA,483.6264937911754
120,6453.555892989833,1135.0,[8],1,NA,NA,NA
120,74657.47307314334,31118.0,[9],1,NA,NA,556.7551522768756
