time(in hour),cumulative size,size,pcore_ids,pcore_power,SCA-1,CD11b,Ly6C
-1,0,0,[],0,0.0,0.0,0.0
0,9881,9881,[1],1,0.26263490594251376,0.535225175058308,0.6960702065041712
0,17630,17630,[3],1,0.20903637186358975,0.1481942801118004,0.11550221264371346
0,23146,23146,"[4, 6]",2,0.2421787636274676,0.43188883041468473,0.5787899682792123
0,22080,22080,"[7, 8]",2,0.2326090518645191,0.17895876368942207,0.2638965716890998
24,20101.922104904275,13115.0,[1],1,0.23591525499596033,0.5606695630356929,0.6832539071889815
24,7320.4077887624335,4673.0,[2],1,0.2846087246861057,0.3353511151893967,0.7838235140244358
24,34385.29255231883,21919.0,[3],1,0.20203328861303457,0.15190627253053426,0.12333030202791334
24,43494.69355734383,27128.0,"[4, 6]",2,0.22510338361461538,0.4477726349600521,0.560685565753845
24,27597.91772859897,11985.0,"[7, 8]",2,0.22431012975037237,0.1779413836673436,0.267710980632678
24,6021.2891732045655,2729.0,[9],1,0.307372991504417,0.15596216381645722,0.7004999592961806
24,7066.341771584452,4525.0,[10],1,0.34529035444078715,0.38041975780816123,0.6449599705688149
48,39227.67008082439,16779.0,"[0, 7, 8]",3,0.23312550848241267,0.18090535190155818,0.262653159774336
48,21441.20543526157,7227.0,[1],1,0.25073487721650795,0.5789955013510091,0.6703473930499617
48,10084.309988484736,4908.0,[2],1,0.30765575648241483,0.3580795715052335,0.7825271812072575
48,48825.073536827935,24511.0,[3],1,0.19166877683873573,0.14854284352317212,0.10951770329602638
48,55894.39276002867,25139.0,"[4, 6]",2,0.21710381081349,0.46944284987221657,0.5259697661956979
48,7999.694405858088,3742.0,[9],1,0.3167164855754401,0.1556379703480802,0.6908774840935062
48,10374.658184869128,5378.0,[10],1,0.38023325108268247,0.396065767211923,0.6301904861888775
72,10440.408073361545,3026.0,"[0, 8]",2,0.3243399230509409,0.2106449256367412,0.2973462765534629
72,30583.22176008732,15422.0,[1],1,0.25194452130648903,0.6040995619498462,0.6497165287692783
72,15848.683976444792,8718.0,[2],1,0.311434174789696,0.3348311325847635,0.7911323918251563
72,52175.540589822886,17651.0,[3],1,0.19013280881431185,0.14604267142911506,0.10578294318298148
72,44819.70350993482,15289.0,[4],1,0.21113677094183975,0.5121833196762745,0.5364646336251337
72,15488.600640985718,5496.0,[6],1,0.21545845740940828,0.3776340087666615,0.48561123386506316
72,36383.743450938025,16060.0,[7],1,0.22886898478259277,0.16580399188543676,0.24396948579945305
72,7878.638161802344,2222.0,[9],1,0.33194323910151824,0.15054923861901523,0.6933858125788365
72,12186.991155013478,4851.0,[10],1,0.42862669897873745,0.3813842406764328,0.62165665625093
96,43855.67506613864,10746.0,"[0, 7, 8]",3,0.2669492289814498,0.17684137970456662,0.2574972239246561
96,49415.60349708972,27790.0,[1],1,0.30274799322908824,0.5781736843065649,0.6370207503888408
96,13381.71191262669,2175.0,[2],1,0.3302598254629579,0.3303322849111112,0.7835201819265829
96,55304.67856313772,18411.0,[3],1,0.21264206366315158,0.1493511680951873,0.12474454330246038
96,68861.41082697673,26217.0,"[4, 6]",2,0.23354424795783968,0.46783974425600766,0.5157228309116061
96,8886.038470725554,3315.0,[9],1,0.35304189221842497,0.1699410241006678,0.6878432945045865
96,9209.504087970507,592.0,[10],1,0.4294702541221471,0.3801244694053988,0.6247744259192922
120,20484.144004649614,13359.0,[0],1,0.45464901555363957,0.18442635481811676,0.23261785855951864
120,56214.108329217815,21272.0,[1],1,0.3202779156450535,0.5855913085726165,0.6163696828308286
120,13409.299237303137,3947.0,[2],1,0.3542455594626341,0.3383229380984939,0.7792586349584406
120,80207.69300882467,19287.0,"[3, 7]",2,0.22645568486746107,0.16731916809341332,0.17785882965380725
120,49053.28063085468,11109.0,[4],1,0.24189621743698148,0.5039639575558786,0.5253791327378273
120,9717.570253825268,6858.0,[5],1,0.5262880215763316,0.19722093050561715,0.46201249683822426
120,11599.089926973315,851.0,[6],1,0.24059169834914854,0.3742942098445442,0.49042525924053726
120,11487.378060534578,5204.0,[9],1,0.41914084854764316,0.1586010339051865,0.6924421465006202
120,12610.102791969177,6098.0,[10],1,0.48951221782965776,0.4151638771220909,0.6623531563239174
