time(in hour),cumulative size,size,pcore_ids,pcore_power,SCA-1,CD11b,Ly6C
-1,0,0,[],0,0.0,0.0,0.0
0,21193,21193,[2],1,0.2092031129634179,0.14915403638997216,0.12869810250621547
0,19489,19489,[3],1,0.24451557519338218,0.5040870601330051,0.6159818781904416
0,9821,9821,[5],1,0.24198684543211205,0.3893213406860625,0.5512763091861015
0,16587,16587,[7],1,0.2351396755141285,0.17619192591265032,0.2643001475784759
24,10926.998984771442,6987.0,[1],1,0.26287205489496224,0.4383466162254297,0.7800442813648357
24,38697.714013686505,23712.0,[2],1,0.20235575698049083,0.15150093067525067,0.13229191391258793
24,36811.80405854463,23031.0,[3],1,0.2239390046187879,0.5323954686560661,0.6050411269068053
24,20160.495698033083,13216.0,[5],1,0.22804399488644528,0.4072108456660934,0.5428122936415442
24,7458.9924548411445,3251.0,[6],1,0.30704324107948466,0.17166761783703954,0.7245346859478864
24,21190.780179541267,9462.0,[7],1,0.22722365427880087,0.17475085083239333,0.26633387332491565
24,7517.855010913798,4816.0,[9],1,0.349619476441188,0.3615443164293159,0.6471563094436207
48,13544.555080150407,5818.0,[1],1,0.2918127645740091,0.4441190229568024,0.7750722992216277
48,54264.41599549542,26901.0,[2],1,0.1907845290426602,0.14858775151245904,0.11881355967742828
48,45561.876277507385,19532.0,[3],1,0.22559549478456634,0.5499488067485441,0.5751870972194069
48,23570.62322016141,9315.0,[5],1,0.21789703103354002,0.42303498469247197,0.5143556495503541
48,9374.304145637467,4100.0,[6],1,0.3173590585469079,0.17175110951367367,0.7124059987124579
48,28047.14436358712,13063.0,[7],1,0.23811970996600526,0.17455249370994178,0.2571704438742363
48,11152.926258194413,5837.0,[9],1,0.38180222219424376,0.37448428721305177,0.6316290754816452
72,17416.446745329056,7839.0,[1],1,0.3055115537917528,0.41961600071095684,0.7868875402348217
72,64066.73652754258,25696.0,[2],1,0.1954182621394368,0.14770769488506258,0.12662736263188584
72,57864.11167940797,25647.0,[3],1,0.22607926259652966,0.5721494055897192,0.5803843116615176
72,26492.947515769232,9826.0,[5],1,0.2184488403010679,0.41813964468716125,0.5085201412490459
72,10316.634030285419,3688.0,[6],1,0.330476416659347,0.16807918583389558,0.7162801792748137
72,28613.32597241051,8781.0,[7],1,0.25443123582685107,0.17259402045358774,0.2538642891823694
72,12780.309787242779,4894.0,[9],1,0.42179635857906556,0.35999545196095334,0.6205133507269391
96,15395.287597796552,3080.0,[1],1,0.32512580971470334,0.41443710229158137,0.7700628336704991
96,65852.02384711723,20550.0,[2],1,0.2123615564145383,0.1589115386097744,0.14875489648881457
96,81643.10575584508,40727.0,[3],1,0.2669332483170149,0.5527938755801148,0.576187518165268
96,26403.342842019723,7670.0,[5],1,0.23956008786488966,0.4169493186647784,0.5117581636133679
96,11182.961881834723,3888.0,[6],1,0.35346422075710093,0.18207603449342527,0.7087286412424791
96,26961.676827392635,6729.0,[7],1,0.26367130354719365,0.18525853191973532,0.2633256679563134
96,9990.043716224172,953.0,[9],1,0.4265668365780653,0.35830667911202535,0.6235452555163611
120,18439.861350488743,13995.0,[0],1,0.48389210245433323,0.18216883953546004,0.23424012305498723
120,16745.1122587191,5859.0,[1],1,0.359741325031327,0.42592236822924334,0.7739208399588398
120,58629.41261715484,12065.0,[2],1,0.21505795318674573,0.15711897589840002,0.14537149188861526
120,88252.3937170885,30522.0,[3],1,0.2807390096503726,0.5654538425374711,0.5674680426847152
120,9669.110098716877,6940.0,[4],1,0.5199366193749485,0.1803927033411674,0.5026707887208394
120,20415.982769585436,1746.0,[5],1,0.23834430746898722,0.41909877122550654,0.5096661676001539
120,12938.548180396007,5031.0,[6],1,0.3919866071649702,0.17348603080478642,0.711721787197303
120,25133.784516809534,6069.0,[7],1,0.27021347074290175,0.18281336883156313,0.2651739116443487
120,13526.02765609217,6462.0,[9],1,0.4968907910976712,0.39962278773033577,0.6527595902536203
