time(in hour),cumulative size,size,pcore_ids,pcore_power,SCA-1,CD11b,Ly6C
-1,0,0,[],0,0.0,0.0,0.0
0,5718,5718,[0],1,258.411157747464,413.26267925848146,767.7336481287166
0,43432,43432,"[1, 3, 6]",3,203.9198747467325,141.4547108123047,224.70986829987035
0,27289,27289,"[2, 7]",2,197.08490600608437,422.15830554435854,566.4279379969947
0,7668,7668,[4],1,289.7854720918085,147.53142931664115,694.388367240479
0,5914,5914,[5],1,363.16181941156094,328.9501183632052,616.0094690564755
24,10799.943141792779,7400.0,[0],1,230.02086315927102,402.06430303326346,762.9145490400236
24,71818.24178831952,41434.0,"[1, 3, 4, 6]",4,204.12309941506487,142.05392938816976,277.0266029067212
24,51141.13648065463,34915.0,"[2, 7]",2,185.99130245628976,440.53421242852255,558.8105387373489
24,9767.485439063046,6251.0,[5],1,351.971269517872,332.4864236207967,605.451256124865
48,21882.46620283203,9653.0,"[0, 5]",2,298.04637358653474,363.82460753731067,677.6216237242776
48,81219.45476996206,44017.0,"[1, 3, 6]",3,191.78922165227956,147.40399195559507,208.4503122054068
48,63162.70168605985,32754.0,"[2, 7]",2,200.02201766780044,443.19224322255826,533.4039404924008
48,9076.927290865606,3576.0,[4],1,274.3654993154639,156.0617725539201,681.2754980653468
72,11304.182443366808,4690.0,[0],1,266.3140801891412,383.9300920260041,750.5406328021327
72,79567.78949769144,34471.0,"[1, 6]",2,183.28451286510884,145.19549119678717,203.24829938991928
72,74599.76712392837,37043.0,"[2, 7]",2,204.130025123407,459.4194887084035,544.8332902774077
72,7963.58724684883,4767.0,[3],1,398.83227250566233,177.0850489719915,320.7812608875151
72,10923.173258329876,5526.0,[4],1,289.948173576622,154.97597496996997,684.9500344607376
72,9900.209807740408,3503.0,[5],1,369.872800392169,325.65490389828125,613.0613004795233
96,22623.207067162635,10015.0,"[0, 5]",2,356.8609949617447,366.700332390906,689.9578862827634
96,71990.29069784672,24679.0,"[1, 6]",2,189.65132292461854,146.08463155354931,206.38721183444073
96,86123.28692066084,41766.0,"[2, 7]",2,220.67254714777064,473.5597831415063,538.6554930665611
96,11954.17730744878,7219.0,[3],1,420.45080953544146,170.71656651010184,292.63662878996945
96,12815.957678606672,6321.0,[4],1,327.6893714606917,148.22118223765042,685.7749304567113
120,15017.680116732092,7831.0,[0],1,358.4955856292668,410.434805589735,753.8218802484962
120,62970.68295449676,20165.0,"[1, 6]",2,200.43689870939784,144.2551993499864,208.13846921619984
120,81920.21278673533,30711.0,"[2, 7]",2,234.99215600424094,490.11449477869115,534.0230606709601
120,38781.41038249749,24053.0,"[3, 4]",2,433.22639220121056,148.604123777991,432.9224188943642
120,13505.15928749273,7240.0,[5],1,465.193237034583,360.08248834075044,616.7508758747148
