time(in hour),cumulative size,size,pcore_ids,pcore_power,SCA-1,CD11b,Ly6C
-1,0,0,[],0,0.0,0.0,0.0
0,5531,5531,[0],1,334.4174651961628,339.87651419273254,599.7857530283837
0,38999,38999,"[1, 7]",2,186.0013077258418,139.67191466447912,211.26269904356414
0,14973,14973,[3],1,188.11340412743056,375.13978494623893,532.026981900756
0,4772,4772,[5],1,213.4329421626149,163.48889354568317,686.2147946353718
0,11975,11975,[6],1,208.49277661795483,494.2343215031323,617.561753653444
0,5717,5717,[8],1,284.47612384117434,390.0608710862326,764.2247682350878
24,10222.007606742794,6311.0,[0],1,336.2857260977079,341.2096494684945,593.4128476395096
24,61668.45735949417,34092.0,"[1, 7]",2,179.42665675596746,139.30610504790377,204.73232755323193
24,27449.50983470618,16862.0,[3],1,180.61887247147487,380.41270045941747,524.4081584656594
24,5621.973372664528,2580.0,[4],1,363.27983967492526,167.25250393948454,334.3393452432819
24,7425.313559822205,4051.0,[5],1,200.8538304593542,165.93410910461654,689.8920624991637
24,26353.603704708905,17886.0,[6],1,191.75545266290632,508.7698260165647,601.7909114376112
24,10926.529468043493,6884.0,[8],1,251.56973416142995,391.6529560655727,763.2650577834729
48,11365.050896068302,4137.0,[0],1,328.84827160329087,340.5475917337795,589.4300277561149
48,85385.18438421178,41779.0,"[1, 7]",2,180.12512344925577,145.0962926638146,199.79578129071223
48,37943.73454436757,18534.0,[3],1,193.65672505910706,392.3070755151307,504.49747181147563
48,6312.335495461293,2337.0,[4],1,351.7311846053837,175.9723982374027,336.2063166954371
48,7814.489570586705,2564.0,[5],1,222.38419110318776,173.29901038651053,682.1465472353535
48,32576.81188830259,13942.0,[6],1,205.0903204352107,506.2747410278391,579.4052068522831
48,12971.223081688193,5245.0,[8],1,269.6246810888252,386.8295285314133,745.5353320185253
72,10467.304557140145,2431.0,[0],1,339.4726736282152,342.0723208947643,592.749755613004
72,26431.161690886966,9746.0,[1],1,206.84203077528545,163.80968928958717,299.2327950693873
72,5980.312027960611,2959.0,[2],1,408.6732453561327,143.5906237092684,657.798950623169
72,36840.27199986456,10010.0,[3],1,194.7720855037448,390.1411896088963,506.83060624564666
72,8829.495233965226,4366.0,[4],1,383.209274875337,178.21335412119888,314.99606925435256
72,9221.678566873412,3696.0,[5],1,230.35345929549075,175.10202894662206,690.0479678812508
72,50137.2845956573,27102.0,[6],1,210.2274780942677,507.67657140677545,576.2653695559329
72,68631.2812000529,24940.0,[7],1,174.1828632692836,138.38909135138792,166.8885089856899
72,13922.039801345189,4750.0,[8],1,279.7843823141014,378.40718078658756,747.3956321815448
96,11273.502033098648,3872.0,[0],1,361.9583047096026,361.393111617645,592.4516181111256
96,27469.65366626427,8780.0,[1],1,213.6793565047925,164.79175220036012,300.1019745494357
96,9204.719188582421,4976.0,[2],1,432.67896748418667,142.4777224498768,665.6256338954269
96,35709.006151861126,9659.0,[3],1,196.7360277602457,391.853229683819,499.27540225650887
96,13726.395954391115,7483.0,[4],1,406.4223598807952,172.69547971770643,288.68220016369975
96,9034.711448558834,2514.0,[5],1,245.7348474142331,171.72588340556317,684.5823155984252
96,66867.41392786911,31415.0,[6],1,228.11143240657975,513.5162545396887,563.850644118866
96,64111.644338078215,15582.0,[7],1,176.32123650792883,138.26824245541457,165.38019098802505
96,15563.368751480199,5719.0,[8],1,315.67372776782787,383.93775289189165,753.4149832005786
120,13212.569735324385,5241.0,[0],1,397.9651175058315,386.2065058762515,587.7997652352926
120,26307.978384261372,6884.0,[1],1,223.45564208874598,161.06670648548678,300.3297764395755
120,14856.719357164566,8348.0,[2],1,483.1065862222855,139.1355965189853,643.4019663533873
120,28302.080399413146,3052.0,[3],1,196.7250972307616,395.2250646040163,495.45736039662137
120,25519.02766060155,15813.0,[4],1,450.04131112021264,159.62771611749073,263.50707830039767
120,8992.505731339686,2604.0,[5],1,261.5412824146533,170.73714893558125,682.5475824144897
120,73979.40182880405,26697.0,[6],1,240.63053997093616,520.2104361674243,553.1045360618959
120,57899.77846447523,12566.0,[7],1,181.737273500779,137.27028121571553,163.60767159887848
120,19799.963582278462,8795.0,[8],1,362.5993476267207,407.0807481510313,752.5529221579837
