time(in hour),cumulative size,size,pcore_ids,pcore_power,SCA-1,CD11b,Ly6C
-1,0,0,[],0,0.0,0.0,0.0
0,6342,6342,[0],1,251.32481866918909,472.84247871334065,747.1729738252923
0,19814,19814,"[1, 3]",2,196.28227515897993,149.81417179771964,277.0098919955582
0,19737,19737,[2],1,181.45847899883623,131.0585195318439,147.0183918528648
0,7165,7165,[4],1,297.1235170969978,151.12519190509494,710.4379623168179
0,6714,6714,[6],1,350.29252308608227,334.67039022937126,628.3926124515931
0,22448,22448,[8],1,193.52499109052198,431.318246614399,567.8665805417002
24,11356.0,8185.0,[0],1,226.16907361747099,467.39199542092337,740.1620729129949
24,25250.0,15343.0,"[1, 3]",2,189.92065346534858,147.83603960396155,275.1965148514839
24,29077.5,19209.0,[2],1,175.06635714900176,131.94208580517565,143.4570716189489
24,8345.5,4763.0,[4],1,266.5347792223341,158.47977952189842,713.1946558025296
24,7747.5,5476.0,[5],1,192.79019038399665,245.93939980638896,496.77592771861674
24,10087.0,6730.0,[6],1,341.44106275403317,338.47709923664075,616.4164766531187
24,39520.0,28296.0,[8],1,181.91985070850586,455.04453441295925,560.5946482793394
48,9911.0,4233.0,[0],1,252.85944909696227,464.58054182221855,724.7124659469264
48,29120.0,16495.0,"[1, 3]",2,193.0557778159359,156.54498626373663,273.2978708791195
48,40271.75,25733.0,[2],1,174.15580400653386,139.02509823883963,145.65772532854862
48,7739.75,3567.0,[4],1,277.40702219063746,164.7994444264995,698.4361251978427
48,8256.75,4383.0,[5],1,203.3479274532974,272.1554788506365,477.3032670239492
48,11283.5,6240.0,[6],1,330.48539903398273,334.8434661230995,624.1539859086286
48,47246.0,27486.0,[8],1,198.1524626423429,459.37192566565983,532.6176660457951
72,9927.5,4972.0,[0],1,264.2782170737831,478.18603626290485,714.8563711911362
72,9386.125,5106.0,[1],1,260.8030870034213,171.49830201494225,308.02782031988636
72,39059.875,18924.0,[2],1,176.45505777988572,137.97038520988622,148.5412523721588
72,22073.875,11794.0,[3],1,175.45418509437408,153.01765095616454,264.14235719826934
72,10358.875,6489.0,[4],1,296.00313740633106,165.84728071339748,704.7636447008005
72,7867.375,3739.0,[5],1,201.03713119051972,287.61942515769124,484.5023753157819
72,9443.75,3802.0,[6],1,354.2116214427489,335.02497683653195,633.0416148246205
72,54787.0,31164.0,[8],1,202.30563135415395,475.54124153540266,549.2493497544864
96,9984.75,5021.0,[0],1,318.0611432434434,498.3100165252006,711.7215065474855
96,12057.0625,7364.0,[1],1,284.0376905651746,167.87971780025262,303.3144111594352
96,32134.9375,12605.0,[2],1,183.3057011547046,138.10068869746613,147.10410981816864
96,18153.9375,7117.0,[3],1,174.61594075665687,153.6460754037527,262.9519181444781
96,11844.4375,6665.0,[4],1,338.96820765021374,156.7925555772496,701.3888375872621
96,9074.6875,5141.0,[5],1,206.00227280553975,310.31602327903886,474.60796170666936
96,10375.875,5654.0,[6],1,388.1959834712687,346.0376173093829,654.0741262785084
96,8099.125,5178.0,[7],1,454.6445758029407,172.8033661043633,305.5935209050367
96,62648.5,35255.0,[8],1,222.50818954164683,490.69652106594646,542.3268563891907
120,12311.375,7319.0,[0],1,385.73705211643346,514.7901407235182,712.4714872424875
120,14091.53125,8063.0,[1],1,309.6851588609259,158.69709865632873,302.7762086714307
120,26362.46875,10295.0,[2],1,195.79712635979993,135.61478380130941,144.3035446936276
120,13922.96875,4846.0,[3],1,176.64612207795443,149.85256826063096,262.7323532382404
120,14381.21875,8459.0,[4],1,405.45408399409814,142.71466474286223,676.0721948548357
120,13228.9375,8041.0,[6],1,425.9047637045668,349.1718462839515,667.1280053670242
120,17275.5625,13226.0,[7],1,496.2927618131135,158.83222507226532,270.21904858380105
120,59380.25,28056.0,[8],1,238.07776417664113,504.51553336337054,533.7332367453575
