time(in hour),cumulative size,size,pcore_ids,pcore_power,SCA-1,CD11b,Ly6C
-1,0,0,[],0,0.0,0.0,0.0
0,39738,39738,"[1, 8]",2,NA,141.42156122603052,NA
0,13032,13032,[2],1,211.09492019643977,NA,NA
0,5804,5804,[3],1,NA,NA,NA
0,11274,11274,[4],1,NA,363.74285967713297,NA
0,4957,4957,[7],1,NA,NA,NA
0,5135,5135,[9],1,NA,NA,NA
24,55148.55024425824,41143.0,"[0, 2, 4, 7]",4,NA,NA,NA
24,14158.682983721344,8959.0,[1],1,203.32081368146902,NA,NA
24,5548.281397066279,3108.0,[3],1,NA,NA,NA
24,37085.08789095471,25577.0,[8],1,177.23613402505538,134.11366260238333,NA
24,9124.001546163912,6965.0,[9],1,NA,NA,NA
48,12158.992882862523,6206.0,[1],1,NA,163.7685523552799,294.23817811641294
48,25604.788623159966,15051.0,[2],1,204.66437254674187,515.7265830185536,564.7874635068822
48,5717.764968805953,3385.0,[3],1,291.3867933947452,151.32196737851388,688.2538158820018
48,24731.74806846147,17122.0,[4],1,189.61927577472636,387.49259417521245,478.5698006285544
48,8595.727598795984,5613.0,[7],1,358.4922392690265,333.4157548977624,606.1880443353033
48,49516.35873343638,33924.0,[8],1,172.30405466961335,132.9676799094965,163.59454188323366
48,8837.170096469292,5001.0,[9],1,264.0917935382204,383.7028600299262,748.4509671594366
72,61279.291041829056,35348.0,"[1, 8]",2,NA,142.96925604746488,NA
72,38984.487483272154,28219.0,[2],1,213.08567271759577,NA,567.5658908838094
72,6426.024032766096,4022.0,[3],1,NA,NA,NA
72,19674.419146863613,9276.0,[4],1,199.83221250306067,NA,NA
72,6080.058262162481,2466.0,[7],1,NA,NA,NA
72,8405.572327554175,4690.0,[9],1,NA,NA,745.9996128465093
96,13703.3130573303,8546.0,[1],1,NA,NA,NA
96,49833.957887593424,33443.0,[2],1,240.54050282343462,NA,555.7697560041785
96,7994.810286743614,5293.0,[3],1,NA,NA,NA
96,16385.074266398326,8113.0,[4],1,NA,379.8056439934239,482.618438335565
96,7106.832235419537,5606.0,[5],1,NA,NA,NA
96,5274.3495985930795,2718.0,[7],1,NA,NA,605.8020885243652
96,37321.45502585126,16714.0,[8],1,NA,139.14678052784498,NA
96,8717.107819198063,5183.0,[9],1,NA,NA,NA
120,12980.533413504234,7219.0,[1],1,NA,162.74555264631059,NA
120,48129.59827279094,27177.0,[2],1,NA,NA,544.3532954758452
120,10702.403655378113,7341.0,[3],1,NA,NA,NA
120,9617.07510714012,2728.0,[4],1,NA,NA,478.2739677648402
120,16411.054875286914,13423.0,[5],1,NA,156.33883178571168,NA
120,6834.590835125895,4617.0,[7],1,NA,NA,NA
120,29013.738871645524,13322.0,[8],1,NA,137.55500325307665,NA
120,11950.092358271888,8285.0,[9],1,NA,NA,NA
