time(in hour),cumulative size,size,pcore_ids,pcore_power,SCA-1,CD11b,Ly6C
-1,0,0,[],0,0.0,0.0,0.0
0,8874,8874,"[0, 6]",2,NA,NA,NA
0,42608,42608,"[1, 3, 8]",3,NA,143.32306139692116,NA
0,25118,25118,"[2, 9]",2,203.28171032725612,NA,NA
0,3452,3452,[4],1,NA,NA,NA
0,3435,3435,[5],1,NA,NA,NA
0,18927,18927,"[9, 10]",2,NA,NA,NA
24,7849.416883025845,5295.0,[0],1,NA,NA,NA
24,61326.86837801797,35992.0,"[1, 3, 8]",3,NA,142.19308969559674,NA
24,45716.25215731918,30781.0,"[2, 9]",2,190.4427461102563,NA,NA
24,5097.5714804946965,3045.0,[4],1,NA,NA,NA
24,3086.4632200171736,1044.0,[5],1,NA,NA,NA
24,7327.095086241228,4605.0,[6],1,NA,342.1047977483983,NA
24,7517.1053666952885,4113.0,"[3, 7]",2,NA,NA,NA
24,37281.06153282825,26027.0,"[9, 10]",2,196.6434206929792,NA,NA
48,18672.00800738818,9648.0,"[0, 6]",2,300.4528661254748,346.7303112370121,NA
48,78359.17410798717,41894.0,"[1, 3, 8]",3,187.23444516578894,141.52082253215332,NA
48,54154.04616837123,26971.0,"[2, 9]",2,188.20089505886511,436.77900522402456,516.056314304814
48,8999.256147638938,4133.0,"[4, 5]",2,NA,146.99255307131745,662.6811002297183
48,4595.856455431147,2636.0,[7],1,366.7728661998633,263.8024643148243,465.27092195759184
48,43945.451814846805,21778.0,"[9, 10]",2,202.51534994826417,490.2232730901354,NA
72,11512.847344484606,6232.0,[0],1,NA,323.9316390443646,761.3062789267158
72,83209.64368747767,36617.0,"[1, 3, 8]",3,NA,139.4254409040971,200.14681076675782
72,59701.18850480645,27501.0,"[2, 9]",2,188.67080505042205,443.811102705642,519.2691196962426
72,10027.989720252102,4677.0,"[4, 5]",2,NA,142.76935660861824,665.7891503070588
72,9436.595042402296,3615.0,[6],1,NA,344.0105015996756,618.1495542284741
72,3841.712598164953,1109.0,[7],1,385.96896416397857,260.94568295893004,NA
72,54977.12198511253,28847.0,"[9, 10]",2,204.93897081511417,506.9343923338414,572.068216777125
96,18201.612970912745,5745.0,"[0, 6]",2,NA,NA,NA
96,71765.44987666508,25570.0,"[1, 8]",2,NA,145.60316228051923,NA
96,62904.53907201724,27406.0,"[2, 9]",2,NA,NA,NA
96,8509.300278329778,5228.0,[3],1,NA,165.91743317966242,NA
96,5573.076235755479,1841.0,[4],1,NA,NA,NA
96,5948.602126493494,3718.0,[5],1,NA,NA,NA
96,3899.2959777666756,1615.0,[7],1,NA,NA,NA
96,72492.59231353417,39803.0,"[9, 10]",2,NA,NA,NA
120,21977.743824767625,11155.0,"[0, 6]",2,NA,NA,NA
120,62015.99180235063,19344.0,"[1, 8]",2,NA,144.89836711585204,NA
120,53495.262715204786,16092.0,"[2, 9]",2,NA,NA,NA
120,18165.660217342203,13106.0,[3],1,NA,NA,NA
120,5458.770956006499,2145.0,[4],1,NA,NA,NA
120,9812.05998657319,6275.0,[5],1,NA,NA,NA
120,7667.535260130811,5349.0,[7],1,NA,NA,NA
120,74204.3532821232,31100.0,"[9, 10]",2,NA,NA,NA
