time(in hour),cumulative size,size,pcore_ids,pcore_power,SCA-1,CD11b,Ly6C
-1,0,0,[],0,0.0,0.0,0.0
0,17143,17143,"[0, 4, 12, 17]",4,NA,NA,NA
0,42537,42537,"[1, 3, 6, 8, 13]",5,NA,142.73630016221185,NA
0,4506,4506,[2],1,NA,NA,NA
0,4080,4080,[10],1,NA,NA,NA
0,12108,12108,"[4, 14, 18]",3,NA,NA,NA
24,29312.743623347214,22105.0,"[0, 4, 12, 17]",4,NA,NA,NA
24,54354.60540782362,36470.0,"[1, 3, 6, 8, 13]",5,NA,NA,NA
24,7833.5396235666185,5939.0,[2],1,225.08151472386092,NA,NA
24,2842.2583277282197,1887.0,[7],1,NA,NA,NA
24,4564.428687117577,2849.0,[10],1,NA,NA,693.7306400923903
24,2719.1210767959797,1705.0,[11],1,NA,NA,NA
24,19922.786897945985,14832.0,"[4, 14, 18]",3,NA,NA,NA
24,4692.746564808712,3711.0,[15],1,332.37933935633896,NA,NA
24,5410.052730194278,4385.0,[16],1,NA,384.7956566656147,NA
48,5108.9119357666395,3118.0,[1],1,215.18260477982955,165.01883277155554,297.60788688120005
48,7687.597694102551,4394.0,[2],1,250.12663700582578,550.5319124571818,645.2095665231467
48,48208.58332113194,31183.0,"[3, 8]",2,157.6493172882305,132.61474694463567,167.37972298679205
48,32838.9759212682,19558.0,"[4, 17, 18]",3,176.59542000743048,459.28771158635175,520.7843010315132
48,3511.7456218328625,1817.0,[6],1,248.08496878419882,197.9863587612047,734.4466220984644
48,3370.0224195058386,2175.0,[7],1,240.08762126582505,137.55041803557046,579.3617827240325
48,7142.105860339195,5223.0,[10],1,328.5663050922168,359.0476530234368,717.1742672342466
48,2956.2495830592798,1813.0,[11],1,234.5164981118981,209.70862418246273,396.736721196813
48,7743.055541253085,5601.0,[13],1,311.36054589754593,143.94419026313182,231.1170850388363
48,9238.342141826326,7199.0,[14],1,208.86782159526,377.79492169173335,431.3637591501053
48,6522.056882020915,4549.0,[15],1,362.0122279931679,350.77934123199367,553.0593861814791
48,3296.6469735769697,1022.0,[16],1,190.60185981056202,386.9508279486455,760.6018928451972
72,9922.933574206538,6484.0,"[0, 4]",2,NA,NA,NA
72,59792.75246825756,35899.0,"[1, 3, 6, 8]",4,NA,143.4088125555731,NA
72,13338.236671441779,10106.0,[2],1,255.768852560468,NA,625.5422832274035
72,2737.9198859435546,1321.0,[7],1,NA,NA,NA
72,5739.885607660888,2737.0,[10],1,348.0712274225807,NA,NA
72,2754.9498384949184,1512.0,[11],1,NA,205.6804420323486,NA
72,6134.553823875065,2879.0,[13],1,NA,149.60811908827563,NA
72,5922.24439497454,2038.0,[14],1,NA,NA,NA
72,4145.187126086103,1403.0,[15],1,NA,NA,NA
72,3357.06931121894,1971.0,[16],1,NA,NA,NA
72,23757.51168283638,16039.0,[17],1,188.51084312357798,NA,NA
72,8229.506034235716,4904.0,[18],1,NA,NA,NA
96,10885.079635675502,6713.0,"[0, 4]",2,NA,NA,NA
96,32975.05483044227,18053.0,"[1, 3, 6]",3,NA,147.51538285630056,NA
96,22226.037701410514,16618.0,[2],1,NA,NA,588.5044776710506
96,2722.5026619192913,2176.0,[5],1,NA,NA,NA
96,2874.1535086708973,1723.0,[7],1,NA,NA,NA
96,37972.54898798974,17204.0,"[3, 8]",2,NA,141.64237850113108,NA
96,3141.2560286067164,2219.0,[9],1,NA,130.18530187753353,NA
96,7706.324615724215,5293.0,[10],1,382.2198010130688,NA,NA
96,3307.313721697088,2149.0,[11],1,NA,NA,NA
96,12713.243022613462,8288.0,"[6, 13]",2,NA,NA,NA
96,5483.9970409952475,2994.0,[14],1,NA,NA,NA
96,3441.836497440825,1699.0,[15],1,NA,NA,NA
96,32474.59537686697,19538.0,"[4, 17]",2,NA,NA,NA
96,6090.081061748813,2630.0,[18],1,152.32945829735334,NA,NA
120,9367.817829639709,6063.0,[1],1,NA,147.790283574522,NA
120,24033.897714205006,14689.0,[2],1,NA,NA,NA
120,28475.490161023317,12510.0,"[3, 8]",2,NA,139.62565623491494,NA
120,28168.885419611142,14515.0,"[4, 17]",2,NA,NA,NA
120,7653.671364463314,6509.0,[5],1,NA,NA,NA
120,4899.016468062018,2756.0,[6],1,NA,NA,NA
120,3049.4326911651215,1841.0,[7],1,NA,NA,NA
120,6953.735466924754,5633.0,[9],1,NA,NA,NA
120,10776.110372071977,7536.0,[10],1,NA,NA,740.4735297607043
120,3863.5541263472514,2473.0,[11],1,NA,NA,NA
120,11221.243773920462,8019.0,[13],1,NA,NA,NA
120,3379.7367265174407,1074.0,[14],1,NA,NA,430.3622599079106
120,3742.1139862936952,2295.0,[15],1,NA,NA,NA
120,3258.5636667145563,698.0,[18],1,NA,NA,NA
