time(in hour),cumulative size,size,pcore_ids,pcore_power,SCA-1,CD11b,Ly6C
-1,0,0,[],0,0.0,0.0,0.0
0,6209,6209,[0],1,231.5922048639075,395.5561282009978,790.0515380898703
0,38252,38252,"[1, 3, 7]",3,184.7666265816181,128.27266548154356,199.88818885287006
0,20937,20937,"[2, 9]",2,190.2509910684452,467.7844008215148,572.8216554425169
0,6370,6370,[4],1,179.47142857142975,284.71868131868155,496.02307692307664
0,6854,6854,[5],1,380.64093959730945,349.46279544791287,625.1727458418428
0,3785,3785,[6],1,414.1133421400233,197.11439894319642,351.85759577278765
0,7617,7617,[8],1,298.6472364447928,130.2793750820537,689.9435473283444
24,31881.990065446535,21187.0,"[0, 2]",2,210.23021500210302,NA,681.7766312131547
24,60777.248593947814,33729.0,"[1, 3, 7]",3,181.20591014614521,128.94571776540644,195.03269228720478
24,37302.400812801796,24298.0,"[4, 9]",2,165.46598394950868,377.4981020155744,523.2377885806255
24,12507.509878252597,7661.0,[5],1,372.6331715259682,336.205682118363,609.1243550871509
24,4518.399166791083,1842.0,[6],1,407.24502991784976,203.13960303466382,362.3164567193485
24,6669.032352297932,1283.0,[8],1,294.6209545285835,130.3851718052444,690.4160939604888
48,14296.001615218745,4923.0,[0],1,238.52404793914252,374.5194200762711,769.3563652884292
48,82419.00462264106,39443.0,"[1, 3, 7]",3,178.36581622647248,132.5837871106006,186.8464434363065
48,58795.60379708482,27681.0,"[2, 9]",2,187.55645091835544,479.5902334487286,537.3716205028342
48,13153.146529966556,4720.0,[4],1,183.18346421388216,268.9816992756103,490.471344280153
48,14810.14505067014,5966.0,[5],1,370.64693160574274,345.74251649767507,605.9686869765367
48,6186.990690945621,2992.0,[6],1,403.3599215162168,213.3814654982709,357.8492060178498
48,8990.71800026234,4275.0,[8],1,297.47538944574444,140.1022367304295,680.2046957519806
72,15947.799685975013,5839.0,[0],1,244.25418538021535,370.23043381031545,776.4385449812331
72,91616.0370673149,33337.0,"[1, 3, 7]",3,180.45157315915642,132.23193047132733,188.441460202383
72,73078.7701488762,31504.0,"[2, 9]",2,190.1340062040347,491.9893376425356,545.0691428685274
72,12702.67910527966,3402.0,[4],1,182.37094701415825,271.62706713744893,483.7246168747927
72,15081.353995685242,4609.0,[5],1,385.705148016158,355.3924949746632,611.1934381326788
72,9472.863072705692,5098.0,[6],1,435.4690228275951,215.90428132558642,335.7025487011747
72,12568.397665721459,6211.0,[8],1,314.9088254317867,137.0831571833057,683.9511267559004
96,16622.797302957624,5346.0,[0],1,282.72876419515086,370.1385179238312,780.1998576767394
96,90501.32107573647,25719.0,"[1, 3, 7]",3,190.1338405504407,132.72461919319278,190.11022131282644
96,87965.4939330434,36291.0,"[2, 9]",2,206.47997001961593,501.6334936596728,543.0547249880638
96,13493.150534579914,4511.0,[4],1,189.62045169940262,273.49655640745476,472.95954415512193
96,17476.12767982387,6812.0,[5],1,405.5911054823014,368.4032333028751,620.5690448140888
96,12702.32571596183,6004.0,[6],1,450.08941527350396,209.71058838792555,327.6919603508864
96,14204.19921808082,5317.0,[8],1,337.52888096931986,135.33387541372886,684.7167354939858
120,14732.09269521079,2978.0,[0],1,NA,358.276624980816,770.1334550800766
120,95945.09783899428,31951.0,"[1, 3, 7]",3,NA,132.65304380272053,204.92358177464928
120,104301.9972704791,42101.0,"[2, 9]",2,NA,491.8153910023436,548.5611298346316
120,11902.098242572347,2361.0,[4],1,NA,255.71108989863097,482.51403731524357
120,16769.488391285384,4412.0,[5],1,421.2012443550004,NA,630.8330654129367
120,44815.27061030252,16239.0,"[3, 6]",2,NA,154.6150602884443,NA
120,12880.885588429604,2837.0,[8],1,NA,142.93846088875551,681.2333275956393
