time(in hour),cumulative size,size,pcore_ids,pcore_power,SCA-1,CD11b,Ly6C
-1,0,0,[],0,0.0,0.0,0.0
0,8800,8800,[0],1,312.48954545454035,400.2395454545442,733.8773863636388
0,45370,45370,"[1, 5, 6]",3,198.22532510469725,140.57773859378497,294.7955697597523
0,27263,27263,"[2, 7]",2,190.0145985401473,427.24527748230366,568.0912225360375
24,14745.511306011973,9513.0,[0],1,281.4769181933464,395.932960583312,739.0979868518226
24,64797.163403836734,37820.0,"[1, 5, 6]",3,185.66045725106378,139.22926793508617,277.38750142682454
24,24780.099367884184,16395.0,[2],1,176.22540582072952,376.62879186607137,520.6134447697834
24,7981.040790188692,5275.0,[4],1,365.20148106258745,256.1364310405533,510.6328367739535
24,26120.577420275404,18295.0,[7],1,181.94583136948359,512.3103138178899,595.9222512817744
48,15862.733479731252,7095.0,[0],1,293.53324289063374,392.2678069442566,726.2898401995883
48,72251.23968046816,39452.0,"[1, 6]",2,171.79374102512898,142.41330959140575,195.89518391132276
48,62458.72349746661,32193.0,"[2, 7]",2,192.7501217101651,449.15969622438644,532.4914602682464
48,16021.823171909684,7261.0,"[3, 5]",2,305.4715395648219,154.40604325558914,511.23983757003714
48,8744.555246409665,3999.0,[4],1,368.3384361686755,263.33501467288403,515.5350055559024
72,15694.037758744138,6262.0,[0],1,303.4908354121473,390.00739393708295,731.3425246577997
72,75931.84414788985,32971.0,"[1, 6]",2,174.98034300188692,142.5315046591344,201.14348119333877
72,73222.17918858747,36084.0,"[2, 7]",2,197.2416243102634,465.1748645031022,543.8858923505154
72,20015.63305567523,10489.0,"[3, 5]",2,325.2148082591153,159.19649939681707,493.0250923627284
72,9393.543658282373,4194.0,[4],1,407.23063830225976,244.97441958627812,528.2738814318907
96,17662.730682909943,8331.0,[0],1,346.22498924894006,402.0184699659699,733.8881914566163
96,68614.34465797416,23465.0,"[1, 6]",2,181.35982900649304,143.7565727348031,205.23813829745802
96,84429.1682335362,40891.0,"[2, 7]",2,214.6117911733597,478.40728925604367,536.9559765838771
96,24320.366620546316,12419.0,"[3, 5]",2,355.40564821173774,155.4900862733852,459.2204365826554
96,10479.434476759045,4894.0,[4],1,442.2697672708194,228.98664755269968,534.0539284760969
120,21960.322499246686,11458.0,[0],1,392.9136967221911,423.7477214897729,731.7834911403319
120,59800.3334292559,19002.0,"[1, 6]",2,192.3889736850725,141.8761418298529,207.35208798339497
120,81075.88378854148,30874.0,"[2, 7]",2,231.46121045168314,494.12212691149006,532.4516183951491
120,33300.976512314184,18840.0,"[3, 5]",2,404.265284117287,150.93955228725537,388.71874951203597
120,16057.109020483336,9826.0,[4],1,496.8350857026279,195.93270252587345,542.4018258854544
