time(in hour),cumulative size,size,pcore_ids,pcore_power,SCA-1,CD11b,Ly6C
-1,0,0,[],0,0.0,0.0,0.0
0,7916,7916,[1],1,0.30654456058274604,0.42153142498496554,0.7402040748572706
0,16352,16352,[5],1,0.24616327041052163,0.18759989506867034,0.28904053746311686
0,23999,23999,[6],1,0.2091251461320276,0.15133129604382162,0.14446639434029762
0,29538,29538,"[7, 8]",2,0.24765828211384186,0.4561856282068143,0.5882041493943623
24,11519.728639936355,8721.0,[1],1,0.27282255345817097,0.4285828542193132,0.7513304192422546
24,15703.305042981214,9922.0,[5],1,0.2355746132852671,0.18835724461195838,0.2940362605872371
24,33468.92782084798,24984.0,[6],1,0.20151961587842013,0.15375766310884198,0.14480401228750864
24,48653.26005134412,38210.0,"[7, 8]",2,0.2299784517051837,0.4817343916209996,0.5777804050305635
48,12076.83911936394,8004.0,[1],1,0.3270729429405057,0.4404867947851523,0.7447636603062995
48,16372.956741466463,10821.0,[5],1,0.26167272715453616,0.17601409623412695,0.2639214703671584
48,40549.05291058235,28716.0,[6],1,0.18294133556079303,0.1472257256565161,0.12292489362622155
48,45886.52505456899,28685.0,"[7, 8]",2,0.22684925273516648,0.5132018925649501,0.5427059237715482
72,14093.807418300607,9824.0,[1],1,0.35178899470581054,0.4207504569016528,0.7589418641597242
72,6607.871347753495,4774.0,[2],1,0.3225744552322578,0.18659297400369967,0.7429966119071534
72,14401.714369982466,8613.0,[5],1,0.30361595408804,0.17511462130583097,0.2509987055854407
72,41020.255141882444,26684.0,[6],1,0.19041372312962654,0.14649371787968582,0.1370147110798905
72,33479.93878096953,23973.0,[7],1,0.22490067135244712,0.5954438101999359,0.5807066383237389
72,17367.397734616545,10651.0,[8],1,0.21944701786993526,0.4336841015774784,0.5001875347471594
96,9644.913399108813,4662.0,[1],1,0.3900953991890936,0.4048743712004984,0.739958907279684
96,48309.625234276886,28715.0,"[5, 6]",2,0.2534016942671765,0.16899900077337987,0.19302634345714068
96,52376.945872867014,40540.0,[7],1,0.2811212387368065,0.5528544533871038,0.5710101020170653
96,14602.302354855621,8462.0,[8],1,0.26352818467181394,0.40653758728151485,0.5044759900867524
120,12503.991834233419,9094.0,[1],1,0.45531299655750185,0.44365891416912295,0.7435766116732893
120,6734.214724784985,4552.0,[2],1,0.4108407176033615,0.1996149147084748,0.7146941750316854
120,7567.4842385222955,6716.0,[4],1,0.5956285468519427,0.17560924142556644,0.5768448786694835
120,17070.919416118304,13131.0,[5],1,0.45254832034661036,0.1775542256782827,0.22351944880148378
120,29292.11238375067,16152.0,[6],1,0.2418702217198601,0.16337560562585282,0.1706789350892462
120,50835.04680227251,32317.0,[7],1,0.308203996183738,0.5663700854456831,0.5586038141547298
120,7098.693508027351,1936.0,[8],1,0.2635352118682288,0.41710447599721057,0.5019767639096232
