time(in hour),cumulative size,size,pcore_ids,pcore_power,SCA-1,CD11b,Ly6C
-1,0,0,[],0,0.0,0.0,0.0
0,8632,8632,"[0, 5]",2,0.31842308733637925,0.3722356358954788,0.7400125600913162
0,12628,12628,"[1, 3]",2,0.26832542628651157,0.19970219880549908,0.3360716772499051
0,31133,31133,"[2, 8, 9]",3,0.24654431133985918,0.4663581353565133,0.592615116251369
0,7951,7951,"[5, 6]",2,0.35466275883607,0.23731227638061422,0.694928626030427
0,40933,40933,"[3, 7]",2,0.2254141530816204,0.16160867339443225,0.19867835520449825
24,15597.0,11281.0,"[0, 5]",2,0.29459572677833995,0.3930929837127861,0.7337201360606562
24,14743.0,8429.0,"[1, 3]",2,0.2586309861774059,0.20097197749802648,0.3365828213064602
24,53358.5,37792.0,"[2, 8, 9]",3,0.22666463321609057,0.4874517038912552,0.5789978252119176
24,7402.5,4106.0,"[4, 6]",2,0.29722208940951406,0.1773331591228963,0.6912573928780164
24,55379.5,34913.0,"[3, 7]",2,0.21356528614460407,0.1610056488468963,0.18769850252331524
48,18889.5,11091.0,"[0, 5]",2,0.3425634329279266,0.4065615171540028,0.7080000077817487
48,58115.25,31436.0,"[2, 8, 9]",3,0.22351387781418072,0.5066241296817753,0.5398863036047816
48,68977.75,41288.0,"[3, 7]",2,0.20977703728677935,0.15890626889308834,0.16992546553959295
48,9021.25,5320.0,"[4, 6]",2,0.3146554405718061,0.176404536297844,0.6779208519355285
72,13394.0,8249.0,[0],1,0.3164293860407051,0.3984899216202008,0.7951832594323894
72,13532.75,4974.0,"[1, 3]",2,0.3105896245458636,0.19638808183699838,0.3003957774793553
72,64773.625,35716.0,"[2, 8, 9]",3,0.22427645971262086,0.529904821498548,0.5484321680000612
72,9915.625,5405.0,"[4, 6]",2,0.3342147119126604,0.16453476947034712,0.6827297275101654
72,8388.75,4089.0,[5],1,0.45337030098161424,0.3755981265309673,0.5987389981345679
72,69469.875,34981.0,"[3, 7]",2,0.218113034647164,0.15534803575745038,0.16862171487055372
96,9706.0,3009.0,[0],1,0.34583919624603576,0.3939865195689927,0.7789313586709817
96,17118.375,10352.0,"[1, 3]",2,0.33911431987589863,0.19673836233570186,0.2943676632139801
96,82010.8125,49624.0,"[2, 8, 9]",3,0.26826185489363724,0.5207692555286857,0.5490467819631525
96,11100.8125,6143.0,"[4, 6]",2,0.3835782341319381,0.18866006862803292,0.6903036803183504
96,5052.375,858.0,[5],1,0.4542405938246281,0.3766579161339274,0.5997740759089762
96,62039.9375,27305.0,"[3, 7]",2,0.23818075301734437,0.16624612346140544,0.18565774694250464
120,18927.1875,11548.0,"[0, 5]",2,0.446203899368195,0.4286027470270204,0.7253746086123117
120,30381.1875,21822.0,"[1, 3]",2,0.43745744815333404,0.18619880785321963,0.27099696130437545
120,74073.40625,33068.0,"[2, 8, 9]",3,0.28595564704711146,0.5445254960059215,0.5478390422920285
120,4900.5625,2651.0,[4],1,0.33838529772077863,0.17738252384569628,0.6332611441444848
120,10172.84375,6872.0,[6],1,0.5297476527460281,0.1709929593487991,0.6935742280358141
120,54031.96875,23012.0,"[3, 7]",2,0.2579019786370622,0.16639617872969154,0.18813016030718502
