time(in hour),cumulative size,size,pcore_ids,pcore_power,SCA-1,CD11b,Ly6C
-1,0,0,[],0,0.0,0.0,0.0
0,37935,37935,"[1, 8]",2,184.59277711875865,138.65775668907418,207.12524054303307
0,6247,6247,[2],1,318.586041299822,138.58828237554042,696.3577717304279
0,13709,13709,[3],1,191.64366474578824,380.86724049894457,539.4060835947189
0,4307,4307,[4],1,358.05688414209084,159.4792198746227,326.95054562340414
0,4950,4950,[6],1,321.4490909090879,409.2824242424248,744.5452525252532
0,4417,4417,[7],1,354.0296581390039,323.02988453701585,577.560108671042
0,11709,11709,[9],1,210.0318558373909,495.38688188573065,608.1376718763328
24,5845.672083189807,4446.0,[0],1,162.7247085354501,322.3045719549062,756.3344968974653
24,49165.70275632483,33216.0,"[1, 8]",2,177.50825141792888,138.43723617220036,199.41567943381744
24,5669.539953044978,3043.0,[2],1,300.1352808251253,137.86280141891334,693.9699766910047
24,21388.92447835659,15625.0,[3],1,183.30564560726847,389.4497368928017,527.1300078886586
24,4299.870430248874,2489.0,[4],1,357.33998239361273,161.48212249035674,323.04184457547973
24,4406.3648023465685,2976.0,[5],1,196.50296880297208,208.68148264163725,494.7060633896073
24,6765.218627752944,4684.0,[6],1,288.982063026629,415.1403465105832,747.1533038156165
24,7605.1197330878285,5748.0,[7],1,342.85567561597986,326.85773008092923,577.6088252424903
24,22696.028063102873,17773.0,[9],1,190.73935352903578,510.4858651656282,592.8523170427254
48,60967.63160061161,40296.0,"[1, 8]",2,177.7912130552823,145.1679409811575,192.80375753555748
48,5580.747911326617,3197.0,[2],1,302.28203738758236,152.93221956859333,680.5905844182213
48,50917.4392793717,32382.0,"[3, 9]",2,202.98995786026043,448.625305016914,527.0026743746414
48,4442.872815425862,2635.0,[4],1,343.9263970665096,174.40835504837895,319.59244120674487
48,8494.424046242551,5650.0,[6],1,299.7617631453241,398.31484345037063,723.6993102930827
48,6854.55896056442,3657.0,[7],1,336.20109638045466,323.7216101599201,578.0884368567656
72,4086.021471488647,2731.0,[0],1,196.08689960268583,291.43725023275016,751.1474558626538
72,58890.73142973169,33257.0,"[1, 8]",2,181.17724040762587,144.48200599224418,199.94993190668268
72,7337.415456534603,4991.0,[2],1,344.0818173258202,149.22414170002745,681.8015548507
72,20358.545663957553,9371.0,[3],1,195.60112447154137,392.23293219730624,499.80486670942423
72,6806.997911959893,4939.0,[4],1,394.742708362968,175.6303525461948,289.05488708837555
72,7804.465365065157,4233.0,[6],1,318.4914838588207,393.73775448213456,731.799649851556
72,5132.987029041924,2251.0,[7],1,367.28306310760587,328.7798063687002,573.344986069375
72,37101.60041800361,26681.0,[9],1,211.2942880696943,510.03597665930374,568.1008851142797
96,48529.50247546531,23769.0,"[1, 8]",2,190.24461489747605,146.07122895222298,204.5400071629184
96,9075.003177313572,5990.0,[2],1,384.78581566069073,144.6114040551737,687.6685154901637
96,18087.71403430048,9528.0,[3],1,200.77958349945123,393.7763899261906,488.88713715924786
96,9656.990071403297,6795.0,[4],1,419.0796182009074,167.14590294589766,262.3892328978351
96,9585.373474227532,6304.0,[6],1,368.89501660096994,404.68414024652196,741.4116913211458
96,5002.155196132584,2844.0,[7],1,401.60606225299364,345.7381427979662,565.748432405729
96,47508.30139583748,31909.0,[9],1,237.09065472513166,515.1513146873567,554.90628280911
120,39745.142332832525,19341.0,"[1, 8]",2,205.4161520432816,143.26364964528528,205.60440696070282
120,11595.568820109525,7780.0,[2],1,464.22610603802514,133.3702372291707,663.2553922613557
120,11150.946945788788,3546.0,[3],1,200.26533093265715,405.5237260007475,484.0572524303082
120,18152.26416659187,14092.0,[4],1,471.1618274303663,151.82356840068417,241.2374875027373
120,4201.0690429625665,2803.0,[5],1,301.7377458943931,166.70614816578203,468.66073277056233
120,13055.153096672988,9025.0,[6],1,420.7004201966261,440.45826183795356,736.2399010193859
120,6033.147186485316,3930.0,[7],1,459.9622011740526,352.0128279057326,543.7121161606485
120,47063.78016927639,27089.0,[9],1,255.34219021721003,522.950922689815,543.0261428584865
