time(in hour),cumulative size,size,pcore_ids,pcore_power,SCA-1,CD11b,Ly6C
-1,0,0,[],0,0.0,0.0,0.0
0,13265,13265,[2],1,0.24512339221657048,0.5281986754515092,0.6315504488342402
0,38042,38042,"[3, 7, 9]",3,0.2203000941006089,0.16178370726710503,0.1919247264979307
0,16007,16007,"[4, 12]",2,0.24427838101729446,0.4125938114744506,0.5699072635677339
0,3976,3976,[8],1,0.3526544096036863,0.16837137075848735,0.7306802955819564
24,4081.0653297070407,3138.0,[0],1,0.25602525627476713,0.34414159143711254,0.7705913306494925
24,23403.24547417026,17826.0,[2],1,0.21893750449991825,0.552445036247905,0.6081693221408943
24,46936.633750766414,32440.0,"[3, 7]",2,0.2073387602614603,0.15947298361321466,0.17425419114958052
24,24344.114459483106,17614.0,"[4, 12]",2,0.2283881794234557,0.42749270760587454,0.5500160463650022
24,6497.246615422651,4765.0,"[10, 14]",2,0.3409342681183932,0.3815823676999928,0.6421243468284752
24,6841.023627066897,5393.0,[13],1,0.2529970020692291,0.4703540779475352,0.7766521339726895
48,4855.876603083434,3140.0,[0],1,0.29825621733675933,0.3375790192887151,0.7703934699486097
48,23916.852612266244,14077.0,[2],1,0.22718630260386768,0.5818323589385903,0.5749246835987513
48,21428.154585912453,13098.0,[3],1,0.20894500829454885,0.16118994752648505,0.23474939148447288
48,26518.43929075273,16283.0,"[4, 12]",2,0.21410353321363898,0.44578935221336163,0.49881654449447077
48,3875.136974205392,2799.0,[6],1,0.29096740551492173,0.1578639913323649,0.6569104433011083
48,34513.26894663554,23109.0,[7],1,0.1866071556278579,0.14696974463275683,0.10047069188357417
48,4410.017029320368,3197.0,[9],1,0.2808026731327253,0.2494457645279129,0.30779733826984323
48,7927.755693964119,5196.0,"[10, 14]",2,0.3928592082120222,0.39765717658939276,0.6243096088954385
48,6614.296122333259,3738.0,[13],1,0.3001693401738486,0.48677927501404755,0.774065468258411
72,7021.644614223622,4980.0,[0],1,0.302862646969315,0.2772317031340121,0.7780732846384956
72,3809.307428267574,2630.0,[1],1,0.3778956877648251,0.1844353633682991,0.26272442700104887
72,30729.79781290306,20674.0,[2],1,0.22560403857348743,0.6064289866032435,0.5835302745904273
72,25823.429188398113,16814.0,[3],1,0.22974372299022452,0.15833786726614704,0.23564870218315437
72,11638.90914252019,7469.0,[4],1,0.22116686510817504,0.4702398080819897,0.5581674203823705
72,30432.042067956583,15921.0,[7],1,0.18441381594000927,0.14423959470905917,0.09570450210959557
72,6165.248687672899,3264.0,[10],1,0.4585221423039142,0.37533942407601306,0.6118558496004805
72,13198.721126338423,6219.0,[12],1,0.20433605724986667,0.4300284928160056,0.4586500761288614
72,9146.968949348291,6366.0,[13],1,0.33893770089015857,0.46523333137955497,0.7764422347198248
96,4340.237892643097,1388.0,[0],1,0.3254168694271049,0.2822598691732432,0.7606555476235695
96,9598.152088193523,6741.0,"[1, 9]",2,0.35979974126937675,0.19687635822372546,0.2721213947666032
96,48887.28841117081,35967.0,[2],1,0.28170663964110365,0.5674986785391933,0.5779211862599857
96,17798.414517041056,6941.0,[3],1,0.24589952691613334,0.1797628619104028,0.25078614555031675
96,23306.93712824018,12864.0,"[4, 12]",2,0.2543905144287885,0.4365336863146697,0.5105029571331146
96,29049.097541897463,16254.0,[7],1,0.2140572235867892,0.15709679394907325,0.1365839247845709
96,3868.8506344248003,3026.0,[8],1,0.4478876392755592,0.1992224115087898,0.7308310890667316
96,5435.826699972007,1590.0,[13],1,0.3546603250274335,0.45771859126688713,0.7568129697947644
120,4516.845242635958,2692.0,[0],1,0.368335666146823,0.3006355980569508,0.7640906246293503
120,11630.502467177106,9676.0,[1],1,0.47631338914730836,0.17102819526885957,0.18585227409663074
120,48803.572788214,28249.0,[2],1,0.29901186401254176,0.578927890770294,0.561163480712243
120,12800.311482289748,5317.0,[3],1,0.2535229783142172,0.17687792460987548,0.2550717732326854
120,6163.835965554004,1566.0,[4],1,0.27661646553028857,0.4645314090202016,0.5529059619261059
120,23026.64099466853,10813.0,[7],1,0.22217036273387206,0.1574498245587919,0.13543961178142638
120,6588.651314819937,4962.0,[8],1,0.5687931126055845,0.16737281217164746,0.6939045802791234
120,5823.023374833838,3742.0,[9],1,0.3517714345510228,0.20710298330250873,0.30454423338464964
120,5394.418848323618,3735.0,"[10, 14]",2,0.5040240837481672,0.41968804154712125,0.6264228106295389
120,6454.364074204994,5624.0,[11],1,0.5829499456380514,0.20016112561046562,0.3498747581924828
120,7190.523975286431,1989.0,[12],1,0.23550793775590978,0.4304018805298107,0.467186164052612
120,9098.483592973445,6813.0,[13],1,0.44350415720541875,0.4966037819426313,0.7616440749752246
