time(in hour),cumulative size,size,pcore_ids,pcore_power,SCA-1,CD11b,Ly6C
-1,0,0,[],0,0.0,0.0,0.0
0,16550,16550,"[1, 3]",2,209.80725075528778,155.0429607250758,287.96737160120847
0,19990,19990,"[4, 11]",2,205.69034517258658,415.9865932966495,560.2410205102552
0,33542,33542,"[3, 8]",2,194.12145966251472,137.72744618687074,196.35859519408433
0,6123,6123,[9],1,242.93124285480926,495.9555773313721,714.3764494528834
24,23330.617228637362,11628.0,"[1, 3]",2,203.60545547638378,153.5665511224659,289.59349244701934
24,41115.06455591909,26980.0,"[4, 11]",2,193.66629709930828,436.6387003048141,554.8431758087097
24,8489.216013351646,5443.0,[6],1,187.51962365758402,308.42218558212096,506.6212116017294
24,8869.582679168017,5170.0,[7],1,320.6996152042978,339.2349921527617,651.2780727148187
24,61528.73596736311,34233.0,"[3, 8, 10]",3,191.38997204169598,144.58706876149594,258.6027362656165
24,12413.614821205232,8084.0,[9],1,220.52792430144018,501.005767284592,709.7396681280122
48,29611.237651637177,13114.0,"[1, 3]",2,210.81197819567106,153.39442892075374,276.53162504044604
48,51362.74095641306,22290.0,"[4, 11]",2,196.04604232669388,455.5633206055564,532.0259085259754
48,6534.300394831249,3263.0,[5],1,350.2143022677471,201.04877417165116,382.64435019935996
48,13074.782209998379,7072.0,[6],1,174.1966653315017,329.4647007953264,467.32623902049846
48,14421.742058734451,8150.0,[7],1,332.8103668301139,348.69930051433863,654.6325708868973
48,84141.38644035909,40634.0,"[3, 8, 10]",3,186.8633872056823,142.45568063442113,234.2262472132181
48,13304.751219112051,4527.0,[9],1,239.12707603393636,506.51792533211074,701.7747332058678
72,32791.30694279907,11853.0,"[1, 3]",2,223.7931815124318,152.01350909109686,274.49567838785055
72,47654.59366502508,20913.0,[4],1,184.99319914956143,497.03393606021535,544.4603688845964
72,6254.448119495111,1634.0,[5],1,367.034943847071,199.68307461938332,369.4809396709178
72,29260.615928809697,10438.0,"[6, 11]",2,206.76061342654725,357.886825044133,485.65374235952874
72,15917.711606254372,5720.0,[7],1,363.5645803653925,340.69061169678594,654.9125542561889
72,62333.1635471584,23764.0,[8],1,170.82955998394874,130.03539406265043,153.61691359669447
72,17627.879809034115,8220.0,[9],1,251.06886581702489,511.82262758689836,696.8840539020476
72,12326.863379078011,6554.0,[10],1,249.96648682347382,190.41536843790104,725.6348162987304
96,35662.95550322274,12476.0,"[1, 3]",2,237.10131205724954,160.87891175103368,276.9992262619217
96,6578.8457236326285,3404.0,[2],1,399.2969862502078,137.94281572900735,628.7247821446208
96,80655.78849140462,36287.0,"[4, 11]",2,224.54163768804247,469.3996845914279,535.7089559049014
96,7983.562677874444,3561.0,[5],1,395.4624234220166,193.8631881107708,351.46459383990714
96,14700.477788780565,4682.0,[6],1,189.75020112809494,325.9860547490783,466.2324907740381
96,15232.52181775428,3977.0,[7],1,373.3022105267969,342.6216404281941,666.9476443034234
96,59983.202637005816,15907.0,[8],1,178.49514249907367,137.88167378688496,166.09181861211465
96,19159.793350909444,6695.0,[9],1,275.16698289473885,512.9463092420924,671.7022196286961
96,11344.408686106182,2628.0,[10],1,265.3775212339336,195.18127675812994,719.2713028507807
120,36792.51767348291,11575.0,"[1, 3]",2,252.48857959793594,156.50434285236312,272.48183918184344
120,12721.946423560752,8070.0,[2],1,471.62493751847916,135.47672116387216,620.0034758119962
120,83128.2549842201,26096.0,"[4, 11]",2,234.0168446804471,482.2882365176678,529.9406655277535
120,19149.23130755285,13504.0,[5],1,467.09900308817197,172.04964972173335,292.68297189719374
120,11354.807531128961,960.0,[6],1,190.17000629907267,326.0557509934853,463.9366182045026
120,19606.01947190609,8835.0,[7],1,408.1997567103106,370.9220207074226,688.3986360859174
120,78384.83815560641,19305.0,"[3, 8]",2,213.0128790315297,141.71591143627126,192.51173213520235
120,20564.019804560994,7016.0,[9],1,305.72134210961906,527.2942673340223,662.7646784931751
120,10773.708310497255,2752.0,[10],1,278.8935787851034,194.58251601090535,717.7569101296191
