time(in hour),cumulative size,size,pcore_ids,pcore_power,SCA-1,CD11b,Ly6C
-1,0,0,[],0,0.0,0.0,0.0
0,23992,23992,[1],1,187.11978992997882,134.74353951317167,NA
0,15695,15695,[2],1,216.87486460656459,165.95629181267924,NA
0,8659,8659,[4],1,285.37879662778437,NA,NA
0,30045,30045,[6],1,227.93536362123535,NA,NA
24,42684.905894227646,25720.0,[1],1,181.3296870394768,137.58780404129422,NA
24,20725.040930722862,9627.0,[2],1,209.61599732276784,NA,NA
24,12227.837618294316,6105.0,[4],1,266.13242120482795,NA,NA
24,17277.49707219914,12880.0,[5],1,223.0984530655332,NA,NA
24,53365.023240749826,32120.0,[6],1,211.92495403779728,NA,NA
48,59808.786412118,29626.0,[1],1,171.15880171102768,133.23581333655432,159.17654433440111
48,26146.816982482895,11492.0,[2],1,221.78390131582142,167.19813568271255,293.3312276673181
48,17418.386899143872,8772.0,[4],1,288.5776914502847,221.2019476510851,699.4560876745943
48,28602.035341682735,16385.0,[5],1,214.29778029970765,367.06098028881684,493.8564584141919
48,58556.769811711914,20822.0,[6],1,218.94063486079943,465.4128015286551,595.9461347604919
72,68861.19844654648,26570.0,[1],1,173.21366920869156,131.41703057968255,163.12759693256575
72,28135.59159475724,9647.0,[2],1,NA,164.77773465074014,288.03194853879836
72,23936.659493715553,11620.0,[4],1,307.4037195961892,220.93505027105235,704.6275804325417
72,31578.693145841153,11354.0,[5],1,217.2196239001075,367.01264484339254,488.8722993767093
72,70642.88901824121,29237.0,[6],1,218.24292356798114,487.48120704508074,594.5855853360513
96,75910.22038218557,27218.0,[1],1,197.68833602067053,134.45907499108878,176.17386476979797
96,22012.867609348075,2118.0,[2],1,NA,165.0305303386297,291.6854631295398
96,21954.77424695962,5029.0,[4],1,NA,217.82208873273865,704.1423054816207
96,27172.50806443343,4843.0,[5],1,NA,359.1995184851963,488.8090904201673
96,97124.06586740706,47172.0,[6],1,246.0089853093895,482.2509431120966,586.2987490685784
120,17259.27606077879,13659.0,[0],1,NA,172.51541931583495,NA
120,69260.63159360869,15584.0,[1],1,NA,145.35898678756982,NA
120,25308.447959931727,9743.0,[2],1,NA,NA,NA
120,26025.369749444926,10501.0,[4],1,NA,NA,NA
120,24839.86471420703,5626.0,[5],1,NA,NA,NA
120,102165.08559125244,33488.0,[6],1,NA,NA,579.510818487442
