time(in hour),cumulative size,size,pcore_ids,pcore_power,SCA-1,CD11b,Ly6C
-1,0,0,[],0,0.0,0.0,0.0
0,40498,40498,"[1, 5, 11]",3,0.2184658029998458,0.16126808898892117,0.19497129886586723
0,22948,22948,"[2, 4]",2,0.23293905321851352,0.49402943858118914,0.5938737546648507
0,4485,4485,[3],1,0.280211691906854,0.183534355342343,0.7516011053921391
0,15227,15227,"[4, 6]",2,0.22641434530472626,0.4101570590701751,0.5469126242901965
0,9353,9353,"[7, 8, 12]",3,0.3214630407596171,0.4143720915156317,0.7392082908976955
24,49522.20521224641,35204.0,"[1, 5, 11]",3,0.20792413727507947,0.16090321963374468,0.18684380924555488
24,37806.343207334445,29693.0,"[2, 4]",2,0.21520004725359448,0.5179581528293487,0.5839615803735517
24,4852.686956810833,3267.0,[3],1,0.2516152511673566,0.18706802362469005,0.7445330012377244
24,22902.55747856378,17519.0,"[4, 6]",2,0.21487856013940262,0.42514878014605073,0.5387767070728703
24,14327.78486221889,11021.0,"[7, 8, 12]",3,0.2926542943626223,0.4210884959306311,0.7372836202735177
48,55031.882470273384,38554.0,"[1, 11]",2,0.19975183642599775,0.15435520577353118,0.15463646381358867
48,40249.56082688608,26883.0,"[2, 4]",2,0.21892109128567336,0.5354902905035228,0.5375954594952317
48,5374.683927068226,3659.0,[3],1,0.28751313811228746,0.18321806594097442,0.7160264025946708
48,5875.541791444494,4090.0,"[5, 13]",2,0.30511186202881047,0.21993847211874146,0.36173432026809316
48,26382.276849803562,18285.0,"[4, 6]",2,0.20623088030935263,0.45556048035538804,0.4899929946344018
48,13291.636917728469,8226.0,"[7, 8, 12]",3,0.33658881749500774,0.4260905706482102,0.7386324292732959
48,3382.062210617972,2609.0,[10],1,0.43489698468740645,0.35683301603912876,0.4854555070341519
72,56951.30990364659,36032.0,"[1, 5, 11]",3,0.21835732543605627,0.16219730577606328,0.18420809195026538
72,49703.368700235784,35473.0,"[2, 4]",2,0.2335976628993839,0.5358209805464973,0.5622627788978768
72,5520.237725782143,3620.0,[3],1,0.31239037883124343,0.1948487645435564,0.723081231653671
72,23583.543431818485,14256.0,"[4, 6]",2,0.22170408605568467,0.4365956653539349,0.5111156736961336
72,11588.303298797631,6889.0,"[7, 8, 12]",3,0.3486709612548938,0.4070176896028268,0.7426044430843602
96,4263.440039585582,2810.0,"[0, 8]",2,0.3804884024075172,0.42028464793019704,0.6197551894131715
96,46288.32871516254,26153.0,"[1, 5, 11]",3,0.23273923054032986,0.16970788755721822,0.19706570548100313
96,57142.79452787596,39570.0,"[2, 4]",2,0.26659312373044597,0.5521168320935085,0.5586622791842629
96,6239.698764831179,4288.0,[3],1,0.3633322916355334,0.18151417689903107,0.7281654342206797
96,19222.041742523157,10884.0,"[4, 6]",2,0.23552703552165172,0.4427113241141048,0.49883898656426034
96,7612.7219004057215,5438.0,[7],1,0.42323527452989035,0.40975404691383466,0.7722439342064369
96,2762.441841914415,2116.0,[9],1,0.5379580723355167,0.1519321188825661,0.6157521838679728
96,5754.595891155814,4979.0,[13],1,0.46491886551693373,0.18299696709147215,0.21148944150333993
120,44219.677174223616,28028.0,"[0, 2]",2,0.3092900120087659,0.5846688427969827,0.5662272447930262
120,38653.39556214171,22288.0,"[1, 5, 11]",3,0.25688988135261903,0.16636151352561987,0.2063277355084578
120,6039.066654586726,3833.0,[3],1,0.3936134275346044,0.18003464089858243,0.7251090204225786
120,51934.07810443912,29922.0,"[2, 4, 6]",3,0.2824136984044967,0.561513202164383,0.5450164504529151
120,9460.503639532113,6769.0,[7],1,0.48663501340940407,0.47350783624355336,0.7711816543029859
120,6911.6706795255695,5935.0,[9],1,0.6102477486469835,0.1465325464094365,0.6206056138789083
120,3475.375543543537,2848.0,[10],1,0.5400436171230264,0.3082491433610054,0.43578114840755244
120,13508.55688881226,11474.0,[13],1,0.5305284348643529,0.16744840405101083,0.19056625158905596
