time(in hour),cumulative size,size,pcore_ids,pcore_power,SCA-1,CD11b,Ly6C
-1,0,0,[],0,0.0,0.0,0.0
0,6209,6209,[0],1,0.2602159605212444,0.44746168348529164,0.831905944420791
0,38252,38252,"[1, 3, 7]",3,0.20760295121530126,0.14510482520536602,0.17470845083838538
0,20937,20937,"[2, 9]",2,0.213765158503871,0.5291678742324828,0.5900018434771903
0,6370,6370,[4],1,0.20165329052969636,0.3220799562428524,0.5044800411170118
0,6854,6854,[5],1,0.427686448985741,0.3953199043528426,0.6482992715388004
0,3785,3785,[6],1,0.46529589004497,0.2229800893022584,0.3439394162280486
0,7617,7617,[8],1,0.33555869263459864,0.147374858690106,0.7204271128378
24,28502.5,20940.0,"[0, 2]",2,0.23359829464988802,0.5354687272411194,0.7098772447772985
24,52493.0,33367.0,"[1, 3, 7]",3,0.2014180917006182,0.14563870313068275,0.1674666920272785
24,32944.5,23749.0,"[4, 9]",2,0.18453689819838637,0.431252351668642,0.5326646579566682
24,10750.0,7323.0,[5],1,0.41614721714135566,0.38466705250973315,0.6294946910446991
24,4303.5,2411.0,[6],1,0.4536932964153774,0.23240764252184457,0.35857383395656417
24,6018.5,2210.0,[8],1,0.32271768787810523,0.1478927905925059,0.7194804697394611
48,10918.25,5060.0,[0],1,0.2773677820636867,0.42656453509437064,0.8032105834936372
48,65557.5,39311.0,"[1, 3, 7]",3,0.19865464617003895,0.1505926371499032,0.15683136847428145
48,47185.25,27349.0,"[2, 9]",2,0.2120807308082687,0.5440206899919677,0.5430025017845072
48,9919.0,4890.0,[4],1,0.20461102911108345,0.31274796439394265,0.4855262762002475
48,11273.0,5898.0,[5],1,0.41440503161077186,0.3973683465839362,0.6244885240311467
48,5212.75,3061.0,[6],1,0.449242431182398,0.24545248977283493,0.35121974249578064
48,7440.25,4431.0,[8],1,0.3301506496134538,0.16211291737295988,0.7041938564910105
72,11718.125,6259.0,[0],1,0.2823965802520702,0.41125190628568065,0.8162558810857459
72,66009.75,33231.0,"[1, 3, 7]",3,0.20262289946867656,0.14957249390982785,0.16081798075132353
72,54799.625,31207.0,"[2, 9]",2,0.21503597132074803,0.5623901792685962,0.5590117230747498
72,8775.5,3816.0,[4],1,0.20478449961877002,0.3135780637732918,0.47939499954253434
72,10544.5,4908.0,[5],1,0.4429417780503208,0.4038073450399495,0.6352326036615853
72,7747.375,5141.0,[6],1,0.4967646888734133,0.24527388819990795,0.32043923491436244
72,9158.125,5438.0,[8],1,0.3544746368615698,0.15596478783860626,0.7108055131956069
96,11550.0625,5691.0,[0],1,0.3447176735326979,0.41213071044428395,0.8215484822541151
96,58609.875,25605.0,"[1, 3, 7]",3,0.2193428296622684,0.1501651566001858,0.16404154440840285
96,63642.8125,36243.0,"[2, 9]",2,0.24001284490617086,0.5744647402783067,0.5564147338739601
96,9241.75,4854.0,[4],1,0.2181620762277222,0.31774034246270977,0.4623033662781027
96,11796.25,6524.0,[5],1,0.4741216143008603,0.4215993343808439,0.6489647204424236
96,9707.6875,5834.0,[6],1,0.514348410745655,0.2358231713489882,0.3085094016381723
96,9828.0625,5249.0,[8],1,0.3886922629900414,0.15061837108849152,0.7097981835541165
120,19515.15625,7842.0,"[0, 5]",2,0.4470113449887152,0.4027258841375795,0.7155349745383969
120,58103.9375,28799.0,"[1, 3, 7]",3,0.27864184916010726,0.1638845442475647,0.19544227125126157
120,71329.40625,39508.0,"[2, 9]",2,0.30235427253902686,0.5509352053567216,0.5585895100229535
120,6728.875,2108.0,[4],1,0.26391471415221984,0.301960232337655,0.4646289029441677
120,32157.125,17564.0,"[3, 6]",2,0.43781065260101837,0.1748362272971847,0.2554830626030771
120,10018.03125,5104.0,[8],1,0.43371547083659084,0.17566185135323842,0.6886085163269046
