time(in hour),cumulative size,size,pcore_ids,pcore_power,SCA-1,CD11b,Ly6C
-1,0,0,[],0,0.0,0.0,0.0
0,38927,38927,"[1, 4, 7, 9]",4,NA,134.97318056875704,NA
0,14114,14114,"[2, 16, 17]",3,NA,NA,NA
0,6601,6601,[5],1,NA,NA,618.628238145734
0,5101,5101,"[11, 15]",2,NA,NA,NA
0,4871,4871,[18],1,NA,NA,NA
0,3288,3288,[19],1,NA,NA,NA
24,3491.6355141271088,2570.0,[0],1,NA,NA,NA
24,56499.13268285546,33353.0,"[1, 4, 7, 9]",4,NA,NA,NA
24,26605.234610574204,18213.0,"[2, 16, 17]",3,NA,NA,NA
24,13617.97808306648,9693.0,[5],1,206.8511352065122,NA,NA
24,2907.3463372233414,1447.0,[6],1,NA,NA,NA
24,3640.861652281115,2061.0,[10],1,NA,NA,NA
24,7949.07274681444,4916.0,"[11, 15]",2,NA,NA,NA
24,3380.696442730652,2003.0,[12],1,184.93386577495826,NA,NA
24,3103.4545977008647,1633.0,[13],1,NA,NA,NA
24,3294.3123908322914,2293.0,[14],1,NA,NA,NA
24,8765.313928589127,5869.0,[18],1,NA,NA,NA
24,5648.056497064474,3693.0,[19],1,NA,NA,NA
48,73172.58528896724,39578.0,"[1, 4, 7, 9]",4,NA,NA,NA
48,21452.572556621424,15426.0,[2],1,NA,NA,481.8303813132083
48,16384.298214166887,8287.0,[5],1,222.24347238489526,NA,NA
48,3125.718475001549,1397.0,[6],1,NA,NA,NA
48,2733.1339181191156,1305.0,[8],1,NA,NA,NA
48,4798.869290816632,2634.0,[10],1,291.12138176337055,NA,NA
48,9147.546934092978,4421.0,"[11, 15]",2,NA,NA,NA
48,3602.1741316798402,1592.0,[12],1,NA,NA,NA
48,3463.325144336888,1618.0,[13],1,NA,NA,NA
48,3330.8098671096927,1372.0,[14],1,NA,NA,NA
48,9236.764176418588,2983.0,[16],1,NA,NA,NA
48,4943.230414565731,1404.0,[17],1,NA,NA,NA
48,9499.88684455532,4288.0,[18],1,NA,NA,NA
48,6223.3544861232085,2865.0,[19],1,276.58805901876264,NA,NA
72,74097.81230683222,32518.0,"[1, 4, 9]",3,NA,140.87847315754766,NA
72,36061.251188872484,14874.0,"[2, 16, 17]",3,NA,NA,NA
72,3406.4857553199367,2242.0,[3],1,NA,NA,NA
72,27410.162005306818,17668.0,[5],1,222.36675986867667,NA,584.4085987348029
72,3692.5633249836483,1834.0,[6],1,NA,NA,NA
72,4054.867217559422,2126.0,[7],1,NA,NA,NA
72,5515.424752303601,2662.0,[10],1,NA,NA,NA
72,8219.16394942235,2780.0,"[11, 15]",2,NA,NA,NA
72,3300.8655534362074,1159.0,[12],1,NA,NA,NA
72,5282.305451606627,3223.0,[13],1,NA,NA,NA
72,2923.511396344057,943.0,[14],1,NA,NA,NA
72,8640.666513632968,2992.0,[18],1,NA,NA,NA
72,6392.428717040912,2692.0,[19],1,NA,NA,NA
96,49873.76336913476,18089.0,"[1, 7, 9]",3,NA,138.40545686308397,NA
96,36167.14824485374,14725.0,"[2, 16, 17]",3,NA,NA,NA
96,4715.508548690944,2690.0,[3],1,NA,NA,NA
96,20699.097904332244,6014.0,[4],1,NA,145.55252566951933,NA
96,38532.17984004406,22234.0,[5],1,NA,NA,569.5478826619764
96,4930.61128933433,2735.0,[6],1,NA,NA,NA
96,3020.2640848429155,1432.0,[8],1,NA,NA,NA
96,6855.491178850782,3576.0,[10],1,NA,251.18647780671603,NA
96,6475.240534434099,3276.0,[11],1,NA,NA,NA
96,3697.7064009068663,1735.0,[12],1,NA,NA,NA
96,7739.877613334131,4599.0,[13],1,NA,NA,NA
96,3037.3302766619463,1299.0,[14],1,NA,NA,NA
96,8633.77104818904,3496.0,[18],1,NA,NA,476.03866708790184
96,7190.960856226384,3390.0,[19],1,NA,NA,NA
120,19618.356241687987,8549.0,"[1, 7]",2,NA,NA,NA
120,31721.115011069123,10216.0,"[2, 16, 17]",3,NA,NA,NA
120,9035.858158479712,6232.0,[3],1,NA,NA,NA
120,42255.51813456549,11362.0,"[4, 9]",2,NA,NA,NA
120,41928.3712111724,19017.0,[5],1,NA,NA,NA
120,7710.7590132945625,4779.0,[6],1,NA,NA,NA
120,3196.8597694411883,1401.0,[8],1,NA,NA,NA
120,7074.2994433638705,2998.0,[10],1,NA,NA,NA
120,9252.201057451526,5402.0,[11],1,NA,NA,NA
120,3235.6693805747746,1037.0,[12],1,NA,NA,NA
120,14957.158763513613,10355.0,[13],1,NA,NA,NA
120,4082.0073878097846,2276.0,[14],1,NA,NA,NA
120,5727.670979905454,594.0,[18],1,NA,NA,NA
120,8803.770906965237,4528.0,[19],1,NA,NA,NA
