time(in hour),cumulative size,size,pcore_ids,pcore_power,SCA-1,CD11b,Ly6C
-1,0,0,[],0,0.0,0.0,0.0
0,3856,3856,[0],1,278.90586099584954,394.30783195020786,755.0363070539402
0,17059,17059,"[1, 4]",2,208.11688844598243,153.8305293393522,285.25810422650784
0,11260,11260,"[2, 13]",2,220.1889875666084,475.7878330373007,631.3261989342803
0,18221,18221,"[5, 9, 14]",3,203.32896108885484,381.9394654519517,540.2454310959884
0,4175,4175,[10],1,325.1767664670622,325.4203592814374,619.5808383233547
0,34770,34770,"[4, 12]",2,188.32116767328324,137.96997411561748,201.00437158469876
24,6878.0,4950.0,[0],1,247.19271590578484,397.0080692061637,759.0870892701352
24,20924.5,12395.0,"[1, 4]",2,198.44297354775634,152.34067719658836,283.80085545652105
24,18157.5,13819.0,[2],1,196.53683051080964,513.7794575244384,612.3915186562018
24,33576.0,23174.0,"[5, 9, 13, 14]",4,194.53052775792383,394.9019388849195,539.6457439837976
24,20141.0,12301.0,"[4, 7]",2,193.84437217615968,171.1941065488315,385.17208678814296
24,6821.5,4734.0,[10],1,324.28314886754606,330.28967235945163,610.4438906398885
24,33109.5,21865.0,[12],1,177.28934293783226,132.7629532309459,156.39828448028476
48,8524.0,5085.0,[0],1,280.43321797278014,398.84593500703846,749.2419638667283
48,70640.75,41319.0,"[1, 4, 7, 12]",4,185.07321906973215,144.2120518256105,219.35122432873342
48,17737.75,8659.0,[2],1,212.10214091415307,533.2455497456023,593.3314822905901
48,37636.75,22296.0,"[5, 9, 14]",3,186.97384205597183,415.0014746225441,495.4602350096635
48,8998.75,5588.0,[10],1,354.20583414362505,339.5485484095005,596.987859424922
48,5529.5,3735.0,[11],1,277.17831630346035,132.83782439641936,634.5138800976562
72,9702.0,5440.0,[0],1,298.4503581735697,386.9421124510407,758.1128890950307
72,31040.0,17199.0,"[1, 4, 7]",3,230.0574782538666,161.6082313144332,358.3048405283498
72,26090.875,17222.0,[2],1,216.49217877898042,546.3942901493368,593.2037829317715
72,21767.25,10791.0,[5],1,171.28595711447542,457.1142254993156,514.9474784366403
72,12014.25,5577.0,[9],1,194.78499490188975,343.7253573881006,460.0742243585743
72,7310.375,2811.0,[10],1,390.1419386830326,330.8723902672572,589.0044286373845
72,4383.75,1619.0,[11],1,289.8636441402889,130.520986598232,640.7512403763885
72,59136.75,31746.0,"[4, 12]",2,177.52095143882966,132.88448384464863,180.67255133229307
72,4856.875,3452.0,[14],1,277.10389911208233,398.6467378715728,547.3167932055069
96,8918.0,4067.0,[0],1,333.9465897622749,382.04980797263937,747.5404378784464
96,26234.8125,13748.0,"[1, 4]",2,243.693441681735,158.7220820617643,267.02951946006806
96,41900.4375,28855.0,[2],1,252.21541392020143,519.733130769817,571.2312401272504
96,35700.1875,16381.0,"[5, 9, 14]",3,213.0858118742387,409.9868575620205,500.65435230557136
96,5043.1875,2010.0,[7],1,283.27725520813703,220.41807636539428,735.3382657297607
96,4316.125,3124.0,[8],1,435.36337571316614,182.51695676098342,310.0764429899501
96,5098.1875,1443.0,[10],1,393.21993110296216,336.8147258216762,591.1731620306255
96,4918.875,2727.0,[11],1,315.4117303245117,138.8101318899139,639.6921298061037
96,35108.6875,13283.0,[12],1,179.40241108415438,137.62237978847952,162.429630130718
120,12196.0,7737.0,[0],1,396.4456251024895,422.08962723433905,741.251132543456
120,18751.65625,10134.0,"[1, 7]",2,316.6799249399596,173.80842358924932,384.1597858855796
120,48357.9375,24701.0,"[2, 14]",2,273.1199266666402,517.2596768627715,555.2548379467029
120,7795.4375,6432.0,[3],1,543.426756035185,140.5237799353783,613.9117793260476
120,11120.34375,4099.0,[4],1,203.66357267508135,154.73398135736582,272.89577379296304
120,22254.375,7111.0,"[5, 9]",2,200.18946695874638,428.06232482376873,490.9491195551417
120,4426.78125,2701.0,[6],1,305.0258299978074,200.89471752190178,403.3683545465457
120,13365.0625,11207.0,[8],1,488.9343671232407,159.40389354707398,251.10023568913402
120,5391.09375,2842.0,[10],1,432.66182650783765,362.1130336492483,587.4271454656115
120,5026.4375,2567.0,[11],1,337.6167389925719,130.0787772154732,636.5050420899481
120,27431.34375,9877.0,[12],1,185.97352139375417,136.20825857282415,158.0563680005642
