time(in hour),cumulative size,size,pcore_ids,pcore_power,SCA-1,CD11b,Ly6C
-1,0,0,[],0,0.0,0.0,0.0
0,15196,15196,"[1, 3]",2,0.23266331175264995,0.1754389700075873,0.2746293274927001
0,5420,5420,[2],1,0.34670695302458343,0.157587116595148,0.7215086415897562
0,17684,17684,"[4, 8, 12]",3,0.22535485641816888,0.42552577118053475,0.5531433671749884
0,4577,4577,[6],1,0.2841788326095547,0.38579158827780513,0.8092072641701777
0,4902,4902,[9],1,0.39240461357207573,0.3620578727677871,0.6560467115372199
0,24100,24100,[10],1,0.20630668096415075,0.14902156362066135,0.13483282351745124
0,9990,9990,[11],1,0.2466257268504464,0.5619542619542636,0.6616342400306751
24,17651.130963097723,11262.0,"[1, 3]",2,0.22328362483780037,0.17431098585154786,0.2744495131108688
24,5191.829285337566,2913.0,[2],1,0.3179679657123955,0.15972536954614808,0.7226534298686448
24,29782.206103673343,22347.0,"[4, 8, 12]",3,0.2157926114096455,0.4424747457499443,0.5437715376924603
24,8055.3914463081255,6131.0,[6],1,0.2506248691341345,0.3996251336356271,0.8023421773596489
24,6769.037113786854,4708.0,[9],1,0.3778976427256404,0.3680387385467054,0.6437402844350784
24,33292.80180380726,23160.0,[10],1,0.19887484096668034,0.15087801639118859,0.13050586115158555
24,18528.277594192303,14328.0,[11],1,0.22135530131430475,0.5809212526944637,0.6400515634328141
48,22564.38637602136,15143.0,"[1, 3]",2,0.23306468893822538,0.17622052035267124,0.2566141812159162
48,5072.8953173248065,2890.0,[2],1,0.32804035463441383,0.16284460329240505,0.7108683117196244
48,35097.87517546311,22576.0,"[4, 8, 12]",3,0.21270694634366763,0.4643113245081542,0.5008488624403163
48,7643.874895332969,4257.0,[6],1,0.29674802000262696,0.4032030275583337,0.7910276109553934
48,7857.029521851358,5011.0,[9],1,0.3991534774945018,0.369553502652876,0.6371124057678851
48,39344.89884528697,25347.0,[10],1,0.18605814502850512,0.1470986798121609,0.11123632068340511
48,17409.181104891013,9619.0,[11],1,0.24417105462192093,0.6001214592425497,0.6177663226548757
72,22345.15580799806,12858.0,"[1, 3]",2,0.25283471631184296,0.17910347738011412,0.26358566589547705
72,4776.889743647892,2644.0,[2],1,0.34733751417065306,0.17734218482544734,0.7155749547399929
72,31727.838709034633,16971.0,"[4, 8, 12]",3,0.2253664724478314,0.44794580237597564,0.518960424699455
72,7106.853499066678,3893.0,[6],1,0.3047259754205078,0.37519190139382824,0.79604214071497
72,5162.473979733707,1859.0,[9],1,0.43429701887295996,0.3548807509284853,0.6359475876608245
72,40689.49219876091,24147.0,[10],1,0.20112177612747817,0.15056314808090407,0.1336414571284157
72,30136.658991802775,22817.0,[11],1,0.2493625612422046,0.5852542419197534,0.6079797003400357
96,5055.896432195621,3429.0,[0],1,0.4126389053658987,0.48162421597681526,0.7082079332693971
96,12457.148818420044,8635.0,[1],1,0.33500589239560213,0.18045878314868222,0.23706622295852184
96,6219.434730747874,4211.0,[2],1,0.40257428696124825,0.16327910438892695,0.7247949311556855
96,11204.831890195597,5632.0,[3],1,0.21481357867943557,0.19040043171901672,0.27691852314321264
96,27179.91291708763,13840.0,"[4, 8, 12]",3,0.241107977644272,0.4515599052023359,0.5104138837866868
96,6761.063815549243,3773.0,[6],1,0.362297414805842,0.36408766963789385,0.7957248577110698
96,4633.262713238582,3569.0,[7],1,0.5028777716789303,0.20959007064842608,0.3135395795314102
96,30604.824064216016,13497.0,[10],1,0.20516001939353265,0.15581476317353288,0.13454887355056627
96,42677.90425696529,30007.0,[11],1,0.27844637108202075,0.5825564040938345,0.5815763793599842
120,9117.742592863671,6992.0,[0],1,0.49163744221943895,0.5295939860566462,0.7328948277985584
120,14414.585892845731,9177.0,[1],1,0.3680906174389676,0.17129667530224293,0.22312541751753998
120,7184.9501849951685,4570.0,[2],1,0.46683854721337315,0.1385724858002279,0.7108478237538325
120,8683.05148499299,3972.0,[3],1,0.22314736695667525,0.18552158526254306,0.27621386393461317
120,12568.969855052852,4908.0,[4],1,0.22711310354814346,0.49816992799721704,0.5067959919908328
120,7451.67716289848,4609.0,[6],1,0.3966434089369288,0.36614818828940876,0.7855015586122486
120,12495.047003245512,10547.0,[7],1,0.5601433251711242,0.18059078957231633,0.2510016639430964
120,6025.117182090068,4407.0,[9],1,0.5872309348891388,0.2725315591824984,0.6140954878154801
120,23208.743422534935,10341.0,[10],1,0.21414732456032953,0.15452137033480423,0.1298671376835821
120,42117.84835011167,24174.0,[11],1,0.29789787288194863,0.591860314153498,0.5655045595813875
