time(in hour),cumulative size,size,pcore_ids,pcore_power,SCA-1,CD11b,Ly6C
-1,0,0,[],0,0.0,0.0,0.0
0,27554,27554,"[0, 3, 9]",3,0.21830970523254553,0.4788493479032712,0.5823549885359749
0,43558,43558,"[1, 5, 8]",3,0.20993873079469055,0.1584209299962877,0.2599636753943818
0,5128,5128,[4],1,0.40651983382705664,0.18258046498330496,0.29741621179323857
0,4956,4956,[6],1,0.3068621849806376,0.4940309565808073,0.8200426559963762
0,5715,5715,[7],1,0.40423899259783014,0.38598433114412656,0.6471838848651708
24,51013.70642339248,34630.0,"[0, 3, 9]",3,0.20552028206644873,0.4999697523851917,0.5716609757985543
24,63236.74175764427,37337.0,"[1, 5, 8]",3,0.20055588148658646,0.15761190306589346,0.24834102296447208
24,6415.127042866977,3366.0,[4],1,0.40818326047463244,0.18504102944192793,0.2880104667984755
24,9889.855230976744,6943.0,[6],1,0.2682831794620331,0.47819873041608263,0.8109688337260405
24,9689.159331120276,6291.0,[7],1,0.3977814018110269,0.38657847305793885,0.626974219679561
48,73862.13992816079,37768.0,"[0, 3, 7, 9]",4,0.2449114028099909,0.48668510485250527,0.5549267681977647
48,80167.79161389012,42567.0,"[1, 5, 8]",3,0.2005922046782998,0.1632070649160946,0.22363239533680213
48,3605.375301957412,1658.0,[2],1,0.4448434862591322,0.15058545655991834,0.6184152416290556
48,7391.457361511888,3577.0,[4],1,0.403783456846005,0.19037519296107455,0.2775219744815557
48,10310.543103512211,4430.0,[6],1,0.29716938635581663,0.46896328947118315,0.7929051177844813
72,73747.06522713735,36230.0,"[0, 3, 9]",3,0.22371800925871854,0.5228942703779107,0.5553159365459931
72,85341.05409064681,37673.0,"[1, 5, 8]",3,0.20492548519642295,0.16451687749801697,0.23680050679381798
72,5353.768980671419,3210.0,[2],1,0.4971755458669148,0.15469105264163244,0.6290670621279656
72,9887.98684227459,5493.0,[4],1,0.43872729512465825,0.19557928353206636,0.25652052472779635
72,10381.685609119479,4251.0,[6],1,0.30897380782918077,0.457646192250597,0.7996692768907528
72,9544.625938810339,3143.0,[7],1,0.41124831185931005,0.39705565572759943,0.6267814920770054
96,84875.26733934076,41025.0,"[0, 3, 9]",3,0.24232931389664453,0.538254235072575,0.5490825657356915
96,78176.09436321462,27432.0,"[1, 5, 8]",3,0.2165159251311297,0.16515967370607412,0.2484232800493924
96,7132.370081947658,3949.0,[2],1,0.5240857513732506,0.15218408472143696,0.6336582769064923
96,13790.432152943114,7911.0,[4],1,0.45782946986086526,0.18997640084472847,0.23993291168901104
96,11772.987196043121,5600.0,[6],1,0.3666270745180895,0.4595735173034968,0.805124570400145
96,9758.26853823639,4083.0,[7],1,0.43750965899335625,0.42658351316050924,0.6249136624429668
120,80332.13590385104,29865.0,"[0, 3, 9]",3,0.258138331107995,0.556146185356276,0.5443140829525726
120,69058.78381992946,22575.0,"[1, 5, 8]",3,0.23138035258725395,0.16345522710320406,0.25655687747047234
120,12560.932624142348,8320.0,[2],1,0.5747971891405939,0.15221311236003512,0.6193177489811625
120,23627.84001762112,15428.0,[4],1,0.5048688743272679,0.1777900218752478,0.2228257615737198
120,15047.260069185206,8047.0,[6],1,0.4223806432309006,0.4822848215650431,0.8005253267787974
120,11567.30118788896,5765.0,[7],1,0.48212793142313914,0.462791298932549,0.622070489042872
