time(in hour),cumulative size,size,pcore_ids,pcore_power,SCA-1,CD11b,Ly6C
-1,0,0,[],0,0.0,0.0,0.0
0,5536,5536,[0],1,NA,NA,NA
0,39608,39608,"[1, 6]",2,NA,139.863790143406,NA
0,26803,26803,"[2, 7]",2,NA,NA,NA
0,7605,7605,[4],1,NA,NA,NA
0,6453,6453,[5],1,NA,NA,641.9110491244369
24,10538.72529432753,7247.0,[0],1,NA,NA,NA
24,67306.01776031173,39233.0,"[1, 4, 6]",3,NA,140.83295016652414,NA
24,50603.15915170897,34666.0,"[2, 7]",2,185.49916730045956,NA,NA
24,10107.97675655628,6271.0,[5],1,NA,NA,NA
48,10454.363551536722,4188.0,[0],1,254.19171646054605,NA,NA
48,76166.09361652509,41751.0,"[1, 6]",2,NA,145.37010564390167,NA
48,62910.81845241368,32822.0,"[2, 7]",2,199.80993853204617,NA,NA
48,9025.30398500602,3420.0,[4],1,NA,NA,NA
48,11572.238938589428,5562.0,[5],1,NA,NA,NA
72,10733.201759156293,4517.0,[0],1,NA,NA,NA
72,79885.6302253675,34597.0,"[1, 6]",2,NA,145.4059625937677,NA
72,74249.99645712742,36843.0,"[2, 7]",2,NA,NA,NA
72,7812.616621163405,4715.0,[3],1,NA,NA,NA
72,10884.477857015785,5518.0,[4],1,NA,NA,NA
72,10690.894441141041,3810.0,[5],1,NA,NA,NA
96,11685.999949374193,5304.0,[0],1,NA,NA,NA
96,72476.27992524172,24976.0,"[1, 6]",2,NA,146.46561519096602,NA
96,85793.31203787136,41644.0,"[2, 7]",2,NA,NA,NA
96,11717.40963633802,7072.0,[3],1,NA,NA,NA
96,12679.94925532637,6208.0,[4],1,NA,NA,NA
96,11152.843867573982,4796.0,[5],1,NA,NA,NA
120,15550.537142858615,8602.0,[0],1,NA,NA,NA
120,63430.65387801317,20336.0,"[1, 6]",2,NA,144.33347966571117,NA
120,81677.00854754262,30664.0,"[2, 7]",2,NA,NA,NA
120,37971.7563906211,23465.0,"[3, 4]",2,NA,NA,NA
120,13564.520639916722,6933.0,[5],1,NA,NA,NA
