time(in hour),cumulative size,size,pcore_ids,pcore_power,SCA-1,CD11b,Ly6C
-1,0,0,[],0,0.0,0.0,0.0
0,29672,29672,[1 3],2,218.29960905904588,415.08796171474853,576.8827177136707
0,9180,9180,[5 9],2,276.0748366013059,339.1422657952071,700.0241830065355
0,39546,39546,[7 8],2,197.50465280938863,142.87121327062226,217.44105598543354
24,54240.076758180374,36597.0,"[1, 3]",2,200.9159907257332,433.88433749553354,565.934764545854
24,10245.454477319949,6990.0,[5],1,230.3988003544081,363.0706584126885,749.8762584582364
24,57851.192284948804,34337.0,"[7, 8]",2,188.75613366006903,141.9937750006661,209.0956006835988
24,6846.006180542541,4643.0,[9],1,304.4018890132897,333.2322163143145,617.3081474638268
48,31910.52872890766,14431.0,[1],1,205.05803252559468,505.2651074165682,573.6089746836722
48,30787.81387065325,16016.0,[3],1,192.71089651090884,391.6947705961002,495.4023815606448
48,11764.983680432684,5673.0,[5],1,262.5184883925588,373.87680640898924,745.5395746497891
48,21777.66487762166,11485.0,[7],1,222.1546459710383,158.63646458489447,285.5006239053086
48,52867.859860704164,28762.0,[8],1,168.88548403090115,131.38726699453767,156.04940893702206
48,9148.659629626896,5078.0,[9],1,339.4633319542559,345.7373056047084,598.7393319543763
72,42646.11390395786,23672.0,[1],1,203.48706298551457,522.9842219632518,573.7902890070603
72,29119.543655180154,10813.0,[3],1,188.0259355929811,391.20013528772756,491.4704191243123
72,14921.501150330723,7926.0,[5],1,275.1520337109113,355.51628323926934,756.3677969377474
72,6474.611912831346,3644.0,[6],1,256.8872523041928,139.09302069771445,626.1200648470325
72,79138.49456096435,34754.0,"[7, 8]",2,191.00867929687357,137.10872888802479,193.47973421599178
72,10248.825562145232,4809.0,[9],1,388.2152434393583,340.6045513848159,583.0352450428899
96,63098.53104090158,37741.0,[1],1,244.1351527833745,499.0472856162573,564.4613666422094
96,7578.829892876973,4647.0,[2],1,385.9667579304302,183.32465984209162,700.2899136407038
96,29360.58425018629,12046.0,[3],1,214.60383244944362,378.70062824288283,488.7802591432165
96,11072.37766724729,2200.0,[5],1,291.3292750604212,351.3526045325017,740.1186986257152
96,5570.827276810207,1721.0,[6],1,271.960065481154,154.56988025466714,616.5217360989261
96,73462.03040125147,26406.0,"[7, 8]",2,206.0795643301283,145.96315207004176,207.3682441403668
96,6822.988139462435,729.0,[9],1,389.9952681564566,339.9097358783797,583.0949412281112
120,66984.6110300301,29466.0,[1],1,259.15525326039284,508.108944297218,553.8287509036372
120,11656.399216002303,7150.0,[2],1,460.99882097068405,161.82039311048948,676.0954023422338
120,20037.907845479185,2580.0,[3],1,213.34851737795367,383.3229361129262,486.25564085573814
120,16480.296853068285,14009.0,[4],1,476.0649588143505,163.50626718531834,286.91781493806974
120,12823.675150943855,6240.0,[5],1,334.18043256049856,370.96170603868615,743.0817587569416
120,5695.433717016966,2383.0,[6],1,292.8831715832147,150.60354059218002,609.5525922029732
120,63750.78461785723,20070.0,"[7, 8]",2,215.22020702789794,145.35783462529125,206.06782626481984
120,9464.973020513953,5408.0,[9],1,445.2610981462688,393.9633657472528,616.9880708908255
