time(in hour),cumulative size,size,pcore_ids,pcore_power,SCA-1,CD11b,Ly6C
-1,0,0,[],0,0.0,0.0,0.0
0,5676,5676,[0],1,261.76409443269904,385.89922480620123,740.9029245947842
0,29699,29699,"[2, 9]",2,219.56079329270347,412.77383076871195,576.3766456783063
0,7689,7689,"[4, 5]",2,292.4215112498351,200.1150994927822,693.04018728053
0,39748,39748,"[6, 8]",2,197.9244490288842,143.20290329073222,217.9327261749008
24,10626.969792377722,7252.0,[0],1,234.50164629496763,391.4121624403568,741.9031147756415
24,52956.13105423291,35297.0,"[2, 9]",2,202.18295049089525,434.725266272306,566.7244778871194
24,4615.048538003265,3188.0,[3],1,221.10385205539092,284.34867560337347,472.13993616808574
24,5651.308622548322,3107.0,[4],1,236.0577785888042,158.33473080380492,702.353389540132
24,5695.59813107964,3668.0,[5],1,324.5526598064764,291.37504213609174,654.9677945189073
24,58022.30220356408,34388.0,"[6, 8]",2,188.89345692231882,142.24855580263255,209.33085122772133
48,21421.456954845344,11716.0,"[0, 5]",2,298.3013467724483,360.91979676771433,693.0831375790222
48,57282.90391635516,25795.0,"[2, 9]",2,200.43458926851608,455.78171896658785,543.8819050139098
48,9319.124278738194,6575.0,[3],1,212.29252764248028,331.3409084365549,421.25199153715783
48,5036.288211505345,1676.0,[4],1,243.16900050087514,160.41681799430137,700.3635747304122
48,74809.26730465823,40309.0,"[6, 8]",2,184.72232457034974,139.3326331675401,193.9435292606405
48,4817.256409353813,3201.0,[7],1,331.2660256763346,134.50411022309953,553.8636372383723
72,13562.65402100964,6660.0,[0],1,275.2954290196086,397.2677237079902,750.5628290272946
72,67439.61845267339,33379.0,"[2, 9]",2,198.20306485235454,475.6454731418063,545.9136171689269
72,7600.184448935031,2059.0,[3],1,227.06989078922248,324.7916028499199,410.8148960813862
72,8767.594887163243,5773.0,[4],1,264.7454262530992,156.32923288774356,702.2519013803545
72,10638.620491203663,4804.0,[5],1,394.067490922489,301.0513290332374,619.3774105816597
72,79213.85647342,34732.0,"[6, 8]",2,191.4973668030509,136.97882761538273,193.41702215522605
72,3823.3577983980076,959.0,[7],1,347.35996315772167,136.37486328184886,544.1922357998021
96,11681.402330052464,3617.0,[0],1,302.9034527931223,376.43414998322277,732.0504324432486
96,23293.24259516857,10576.0,"[1, 6]",2,276.27053711780565,167.90102547852962,299.1705087328459
96,87950.837048494,47851.0,"[2, 9]",2,236.8598901634698,465.68705131546386,545.9755666060385
96,6593.096711003286,2074.0,[3],1,234.95663184314486,325.55015621391425,425.0820772938534
96,8204.243110638003,2991.0,[4],1,290.2655659239347,168.66970879361742,692.4148651126206
96,7376.761590976569,1051.0,[5],1,400.24907432844327,299.2870119066208,622.4475032231765
96,3869.382148528025,1596.0,[7],1,375.26015359027866,144.48642140595598,551.1311192268956
96,74492.8408624977,27392.0,"[6, 8]",2,206.10788663192693,146.42295601502408,208.37299532290984
120,14314.803382053877,7369.0,[0],1,352.8927846245721,402.87724798959664,733.9631631035941
120,16502.53646223195,13329.0,[1],1,459.45663988829665,165.44420552345605,265.5527524983737
120,83707.88059425697,31412.0,"[2, 9]",2,249.74122370733997,483.77604524684625,541.5614242862683
120,5068.278759313073,1148.0,[3],1,238.259091600969,324.5327340123239,425.09623895899864
120,8570.272140191384,3692.0,[4],1,314.88584952254894,168.87663747743937,693.5112501340642
120,9056.248684834063,4670.0,[5],1,456.66236869189623,336.4211130228219,635.7282957602886
120,65459.70818522385,21166.0,"[6, 8]",2,216.20847354071245,146.6815992851426,210.86129210135496
120,9514.74839084702,7214.0,[7],1,484.0502349964789,135.5662649776248,568.8813632648402
