time(in hour),cumulative size,size,pcore_ids,pcore_power,SCA-1,CD11b,Ly6C
-1,0,0,[],0,0.0,0.0,0.0
0,7747,7747,[0],1,0.3317949826174064,0.4107389110483279,0.7699840990247557
0,40769,40769,"[1, 6]",2,0.21898721792637946,0.16070951123030788,0.19329238922909625
0,31835,31835,"[2, 4, 7]",3,0.23261444632877112,0.4581212374041225,0.5931272503019647
0,6197,6197,[5],1,0.3725062688905259,0.1722113020677794,0.7203402896652694
24,14181.956233852183,8704.0,[0],1,0.3097170201643935,0.4138494860543407,0.7709239555018926
24,63943.03636219436,35115.0,"[1, 6]",2,0.21003576080048073,0.1601806007361397,0.18481381172838215
24,57286.32143840966,37126.0,"[2, 7]",2,0.2205141519214106,0.49770365005098716,0.5863992573411868
24,5279.589462905455,2833.0,[3],1,0.40263819609323925,0.2386540307464776,0.4284710422588667
24,5474.422940664084,3124.0,[4],1,0.198190911965333,0.2515776414748778,0.5865502033793362
24,7479.9407230130355,3098.0,[5],1,0.35875657531119526,0.17232330863502882,0.7212176820128378
48,18044.15742344771,8016.0,[0],1,0.33118753530314876,0.40926244504023407,0.7550931841369295
48,86898.55462136562,41684.0,"[1, 6]",2,0.20817803112135178,0.1594289330000903,0.17338180561335267
48,75668.54635833178,35161.0,"[2, 7]",2,0.22851258751065545,0.5018144409461075,0.5555086446063803
48,5269.233511101489,1536.0,[3],1,0.40665845555077335,0.24078387707394502,0.4303709425090251
48,8892.116808115925,3603.0,[5],1,0.35468695026278646,0.17694371378972784,0.7032629779131427
72,18048.14607491746,5289.0,[0],1,0.33958023783661,0.39544810457120116,0.7512872487357765
72,99063.55724807724,37617.0,"[1, 6]",2,0.21694721277889506,0.1623381496252904,0.1822605306723893
72,94963.74225250504,41458.0,"[2, 7]",2,0.23823086052790443,0.5067947387999795,0.5670497262714652
72,5342.910747355265,1617.0,[3],1,0.42905979055593285,0.23806826106976092,0.41948500397257293
72,9805.676094121649,3518.0,[5],1,0.36429558644856946,0.18809002147029272,0.706663117302595
96,19759.966477419504,6998.0,[0],1,0.37283585372648625,0.4088636544456104,0.7582634394357523
96,97351.51309857718,27303.0,"[1, 6]",2,0.22494338729045052,0.16556217375689014,0.18509924570018968
96,110320.50611359777,43171.0,"[2, 7]",2,0.2533460189276237,0.5232583820284431,0.5597382583053705
96,9238.008420729393,5460.0,[3],1,0.4837068692103849,0.22304514195194486,0.3699059487424087
96,12944.660060272237,6011.0,[5],1,0.4050679509555934,0.1797889814134639,0.7118671021502478
120,25514.40629220219,11542.0,[0],1,0.4245695890705199,0.4430926442159666,0.7577213987075545
120,91130.91507077494,22293.0,"[1, 6]",2,0.23599003374337502,0.16427873169029023,0.18520515441310378
120,109569.37797685698,31561.0,"[2, 7]",2,0.2659801997169447,0.5406987247063085,0.5537749005715463
120,21313.258398956183,14781.0,[3],1,0.5410926080736645,0.19595241381150416,0.30323714251447675
120,17885.25690877316,8732.0,[5],1,0.47102482521447897,0.1717303224105491,0.6990932003216804
