time(in hour),cumulative size,size,pcore_ids,pcore_power,SCA-1,CD11b,Ly6C
-1,0,0,[],0,0.0,0.0,0.0
0,7321,7321,[0],1,NA,NA,NA
0,44298,44298,"[1, 3, 6]",3,NA,145.2744141947717,NA
0,24793,24793,"[2, 7]",2,NA,NA,NA
0,6691,6691,[4],1,NA,NA,NA
0,6917,6917,[5],1,NA,NA,NA
24,10830.364372533357,8242.0,[0],1,NA,364.2430612546062,NA
24,49956.73569551845,35536.0,"[1, 6]",2,NA,141.89487626512187,NA
24,42044.64921297904,33279.0,"[2, 7]",2,NA,NA,NA
24,8810.625736459595,6445.0,[4],1,NA,NA,NA
24,6548.528802733675,4103.0,[5],1,NA,NA,NA
48,10771.112045269761,6942.0,[0],1,290.47169269403446,NA,NA
48,60597.37328812257,42935.0,"[1, 6]",2,185.89537198999423,149.9374441374896,NA
48,47219.02828555356,32354.0,"[2, 7]",2,208.94282745144366,NA,NA
72,9743.163184065175,5935.0,[0],1,NA,NA,NA
72,57621.40678706202,36197.0,"[1, 6]",2,NA,148.51608582620563,NA
72,53797.44755087716,37103.0,"[2, 7]",2,NA,NA,NA
72,7498.361571442644,5541.0,[5],1,NA,NA,NA
96,10276.728378829801,6832.0,[0],1,NA,NA,NA
96,47406.24374032005,27034.0,"[1, 6]",2,NA,151.21874956130804,NA
96,60895.26998687643,41875.0,"[2, 7]",2,NA,NA,NA
96,6659.856742092855,5121.0,[3],1,NA,NA,NA
96,8873.071157477854,6222.0,[5],1,NA,NA,NA
120,14297.372162541395,10664.0,[0],1,NA,NA,NA
120,38853.63820968132,22093.0,"[1, 6]",2,NA,146.4951035267329,NA
120,53375.72917495298,31846.0,"[2, 7]",2,NA,NA,NA
120,16073.614932032404,13719.0,[3],1,NA,NA,NA
120,12709.10439270168,9572.0,[5],1,NA,NA,NA
