time(in hour),cumulative size,size,pcore_ids,pcore_power,SCA-1,CD11b,Ly6C
-1,0,0,[],0,0.0,0.0,0.0
0,20577,20577,"[1, 4, 8]",3,NA,NA,NA
0,19253,19253,"[2, 5]",2,NA,NA,NA
0,4069,4069,[7],1,NA,NA,NA
0,17297,17297,"[5, 9, 15]",3,NA,NA,NA
0,4267,4267,[10],1,NA,NA,NA
0,34886,34886,"[4, 12]",2,NA,137.77601330046505,NA
0,3842,3842,[13],1,248.19338885996825,NA,NA
24,22800.562768337844,14149.0,"[1, 4, 8]",3,NA,NA,NA
24,34575.889341439884,26481.0,"[2, 5]",2,191.7080434285813,NA,NA
24,4630.803756833682,2920.0,[7],1,NA,NA,NA
24,27574.49264732175,20302.0,"[5, 9, 15]",3,NA,NA,NA
24,5421.0525019438,3627.0,[10],1,319.6514640367447,NA,NA
24,2749.7280585292247,2048.0,[11],1,NA,NA,NA
24,46334.75617127054,31667.0,"[4, 12]",2,180.52575079009532,137.68478560153892,NA
24,7435.362013702385,5820.0,[13],1,NA,398.83153729797704,NA
48,21214.59769209176,12763.0,"[1, 4]",2,182.22804541776617,147.46286581956704,269.3621839544819
48,18537.983063564738,10610.0,[2],1,209.03729874659945,528.7865776737739,575.5244174209607
48,27869.646009786382,16276.0,"[5, 9, 15]",3,183.43762870266818,415.77257865370603,505.82474591935795
48,5577.447445250975,4514.0,[6],1,194.23781056710757,332.6321809558739,374.1935642193881
48,4447.013139432438,2500.0,[7],1,248.0522500180379,194.92390548518327,723.3718969213081
48,5146.85805673954,4012.0,[8],1,351.39697053055625,158.8404280743421,266.14576082737693
48,6932.271807893361,4653.0,[10],1,343.5640777412794,346.1037236925364,644.7608107491775
48,3435.1182336698903,2279.0,[11],1,370.5243855868163,326.4397447066259,484.26220259957137
48,53131.36518303816,33650.0,"[4, 12]",2,166.62272925955827,132.69658259604898,175.16266349341254
48,6645.184631717988,3519.0,[13],1,258.8941295895984,404.4287964126269,757.3918020202101
48,2969.0356100246463,2002.0,[14],1,240.50094755973188,141.34905417866466,540.4895211636475
72,4522.809931609558,3589.0,[0],1,327.3294211933645,471.59802612054585,641.533627200873
72,7418.14105410518,5533.0,[1],1,281.46162861280806,168.19133000749326,305.9878070058161
72,24015.26175209283,16221.0,[2],1,204.7177945896425,548.8298288580661,578.7961046432667
72,49310.987259976406,26972.0,"[4, 12]",2,162.06487580584897,129.30492010714178,175.97342885174618
72,26773.74271200968,15056.0,"[5, 9, 15]",3,176.04131732859562,424.2753142719013,511.37782182052587
72,4179.027781488767,1834.0,[6],1,204.17812625582715,331.52105652314356,368.50013550284564
72,6956.7387037674525,5087.0,[7],1,260.9938319850998,180.39843435480972,733.6204003360904
72,6584.98724486599,4421.0,[8],1,402.6130140464097,163.7212981942337,238.3641719168659
72,5632.661256410956,2718.0,[10],1,NA,333.87133160293655,644.2413611527837
72,2747.2893043328413,1303.0,[11],1,NA,321.2786619876083,465.67819329748596
72,7008.955967755366,4215.0,[13],1,261.1307314247292,394.89037482932736,781.6568359663801
72,2826.3257006151753,1578.0,[14],1,NA,130.87651469480747,551.7495594518167
96,5014.607329182188,3113.0,[0],1,NA,NA,NA
96,25403.224010084865,14132.0,"[1, 4]",2,NA,157.6235521707203,NA
96,39286.17375935725,29189.0,[2],1,250.76305989858525,NA,566.9917609249565
96,2734.5531059837213,1699.0,[3],1,NA,NA,NA
96,27406.972134727104,16150.0,"[5, 9, 15]",3,NA,NA,NA
96,2817.0647403497937,1060.0,[6],1,NA,NA,NA
96,5080.9483189274115,2156.0,[7],1,NA,186.85726319366697,NA
96,6078.6460843496225,3310.0,[8],1,NA,159.62688363586852,NA
96,3873.2423294272285,1505.0,[10],1,NA,NA,NA
96,25715.43630980474,13135.0,[12],1,NA,135.73855501022496,NA
96,5306.902973978308,2360.0,[13],1,NA,NA,NA
120,7444.382663507153,5336.0,[0],1,NA,488.6790231958796,NA
120,9498.096335516566,6140.0,[1],1,NA,163.42897078599026,NA
120,52712.50990694779,29047.0,"[2, 5]",2,NA,NA,NA
120,6610.737952071311,5461.0,[3],1,NA,127.96764024421806,NA
120,12828.64366746716,5506.0,[4],1,NA,NA,NA
120,4844.275613737724,2708.0,[7],1,NA,NA,NA
120,13621.755850962812,11066.0,[8],1,NA,148.56765632605908,NA
120,16433.309333469915,6570.0,"[5, 9]",2,NA,NA,NA
120,4606.497795112152,2978.0,[10],1,NA,NA,NA
120,3996.5718740274356,3159.0,[11],1,NA,NA,NA
120,20823.009104800007,10011.0,[12],1,NA,135.16795187848925,NA
120,6001.277843458818,3770.0,[13],1,NA,NA,NA
120,3152.9153903134675,2084.0,[14],1,NA,NA,NA
120,3127.902977055317,1468.0,[15],1,NA,NA,NA
