time(in hour),cumulative size,size,pcore_ids,pcore_power,SCA-1,CD11b,Ly6C
-1,0,0,[],0,0.0,0.0,0.0
0,12435,12435,"[1, 3]",2,NA,NA,NA
0,21646,21646,"[2, 5, 8]",3,NA,NA,NA
0,34206,34206,"[4, 10]",2,NA,136.1410278898442,NA
0,5683,5683,[9],1,NA,NA,NA
24,18659.0,13073.0,"[0, 2]",2,NA,NA,NA
24,13393.5,7176.0,"[1, 3]",2,NA,NA,NA
24,47943.0,30840.0,"[4, 10]",2,NA,NA,NA
24,30851.0,22959.0,"[2, 5]",2,NA,NA,NA
24,8840.5,6499.0,[7],1,NA,NA,NA
24,8793.0,5862.0,[8],1,188.5531104287515,NA,NA
24,8624.5,5783.0,[9],1,NA,NA,613.6626471099772
24,6675.5,4800.0,[11],1,NA,NA,NA
48,14105.75,7409.0,"[1, 3]",2,NA,NA,NA
48,49295.0,29473.0,"[2, 5, 8]",3,NA,NA,NA
48,61149.5,37178.0,"[4, 10]",2,NA,NA,NA
48,8091.25,3671.0,[7],1,NA,NA,NA
48,9218.25,4906.0,[9],1,355.532801779072,334.846934071,NA
48,6719.75,3382.0,[11],1,263.271103835707,NA,NA
72,17421.875,10369.0,"[1, 3]",2,NA,NA,NA
72,51930.5,27283.0,"[2, 5, 8]",3,NA,NA,NA
72,62043.75,31469.0,"[4, 10]",2,NA,141.45964742621229,NA
72,8509.625,4464.0,[7],1,NA,NA,NA
72,7981.125,3372.0,[9],1,NA,NA,NA
72,10869.875,7510.0,[11],1,NA,NA,636.0941593164621
96,39454.0,22902.0,"[0, 5]",2,NA,NA,NA
96,21096.9375,12386.0,"[1, 3]",2,NA,NA,NA
96,21777.75,9937.0,"[2, 8]",2,NA,NA,NA
96,52794.875,21773.0,"[4, 10]",2,NA,142.4648983447739,NA
96,6364.375,3795.0,[6],1,NA,NA,NA
96,8725.8125,4471.0,[7],1,NA,NA,NA
96,7901.5625,3911.0,[9],1,NA,NA,NA
96,16259.9375,10825.0,[11],1,NA,NA,611.6080089483711
120,38957.0,19230.0,"[0, 5]",2,NA,NA,NA
120,29768.46875,19220.0,"[1, 3]",2,NA,NA,NA
120,8575.5625,2270.0,[2],1,NA,NA,NA
120,44088.4375,17691.0,"[4, 10]",2,NA,NA,NA
120,11061.1875,7879.0,[6],1,NA,NA,NA
120,9392.90625,5030.0,[7],1,NA,NA,NA
120,6072.3125,1489.0,[8],1,NA,NA,NA
120,11148.78125,7198.0,[9],1,NA,NA,NA
120,18122.96875,9993.0,[11],1,NA,NA,NA
