time(in hour),cumulative size,size,pcore_ids,pcore_power,SCA-1,CD11b,Ly6C
-1,0,0,[],0,0.0,0.0,0.0
0,5531,5531,[0],1,NA,NA,NA
0,38999,38999,"[1, 7]",2,NA,139.67191466447912,NA
0,14973,14973,[3],1,188.11340412743056,375.13978494623893,NA
0,11975,11975,[6],1,NA,NA,NA
0,5717,5717,[8],1,NA,NA,NA
24,8692.499036384148,6367.0,[0],1,NA,NA,NA
24,50593.05964923981,34196.0,"[1, 7]",2,NA,139.48224845466646,NA
24,23093.37101279693,16798.0,[3],1,NA,NA,NA
24,5997.378846795363,3991.0,[5],1,NA,NA,NA
24,23089.867286331617,18055.0,[6],1,189.86823986751185,NA,NA
24,9170.702403002742,6767.0,[8],1,NA,NA,NA
48,7762.745639645898,4108.0,[0],1,NA,NA,NA
48,62287.76124788155,41016.0,"[1, 7]",2,NA,146.341334233703,NA
48,27856.566450392493,18147.0,[3],1,196.44456661086645,NA,NA
48,24316.093314880134,14608.0,[6],1,209.69670267902444,NA,NA
48,9233.805388021816,5378.0,[8],1,275.7398798050019,NA,NA
72,5791.83249045232,2528.0,[0],1,NA,NA,NA
72,17151.20062940621,10263.0,[1],1,NA,NA,NA
72,21511.243434705968,9799.0,[3],1,194.93059981863067,NA,NA
72,6661.888989964417,4784.0,[4],1,NA,NA,NA
72,6286.113965426986,4253.0,[5],1,NA,NA,NA
72,36867.657850728756,26644.0,[6],1,211.6015173028456,NA,570.872205186622
72,43025.576944355205,23725.0,[7],1,NA,137.98593670295529,NA
72,8800.33692496899,4918.0,[8],1,NA,NA,NA
96,6294.165589485674,3859.0,[0],1,379.76006945379396,NA,NA
96,16392.191563282468,9181.0,[1],1,NA,NA,NA
96,5600.417493627563,3774.0,[2],1,NA,NA,NA
96,18837.363745947125,9793.0,[3],1,NA,NA,NA
96,9618.979285239633,6818.0,[4],1,NA,NA,NA
96,6421.985349701932,3779.0,[5],1,NA,NA,NA
96,47205.940662739136,31705.0,[6],1,237.1327508084743,NA,556.9351189596384
96,33600.02670836558,15510.0,[7],1,NA,138.21129728980586,NA
96,9281.08588661566,5581.0,[8],1,NA,NA,NA
120,7586.370640605894,4940.0,[0],1,NA,NA,NA
120,14869.067561858204,7977.0,[1],1,NA,NA,NA
120,10002.685497157805,7648.0,[2],1,NA,NA,NA
120,11415.13582339861,3495.0,[3],1,NA,NA,NA
120,18180.282599678874,14136.0,[4],1,NA,154.9695595575833,NA
120,6670.112229688113,3970.0,[5],1,NA,NA,NA
120,46599.65314098845,26752.0,[6],1,NA,NA,NA
120,26697.07100574684,12570.0,[7],1,NA,135.89759752403185,NA
120,12414.215925858476,8512.0,[8],1,NA,NA,NA
