time(in hour),cumulative size,size,pcore_ids,pcore_power,SCA-1,CD11b,Ly6C
-1,0,0,[],0,0.0,0.0,0.0
0,3602,3602,[0],1,NA,409.60549694614167,NA
0,16550,16550,"[1, 3]",2,NA,NA,NA
0,10802,10802,[2],1,214.77661544158502,NA,NA
0,17634,17634,"[4, 12, 14]",3,NA,NA,NA
0,31673,31673,"[3, 7]",2,NA,136.45682442458923,NA
0,4124,4124,[8],1,NA,NA,NA
0,3921,3921,[10],1,336.211935730677,316.58658505483345,NA
24,6225.7620141199,4084.0,[0],1,NA,NA,NA
24,21958.688876647517,12118.0,"[1, 3]",2,NA,NA,NA
24,22644.907628129695,16222.0,[2],1,194.26360371632015,NA,NA
24,29911.23913297899,19426.0,"[4, 12, 14]",3,NA,NA,NA
24,47242.87847674059,28410.0,"[3, 7]",2,NA,136.34880006055562,NA
24,3931.1450711356106,1479.0,[8],1,NA,NA,NA
24,6969.440548962835,4638.0,[10],1,NA,NA,NA
24,3756.1924030095906,1750.0,[11],1,NA,NA,NA
24,5819.865631811719,3976.0,[13],1,NA,NA,NA
48,7897.860241752528,4196.0,[0],1,293.60647032070506,419.0039827958758,741.8034097646928
48,25802.71452412017,12746.0,"[1, 3]",2,181.22302337931012,144.47449783609883,263.12555653856555
48,24308.742634975613,10844.0,[2],1,204.86413066128299,522.5925404819948,581.2785799842142
48,31249.607833103986,17038.0,"[4, 12]",2,184.63514260999017,406.8063381515113,495.1149099653675
48,4352.893119282333,2412.0,[6],1,225.90326535575187,145.843412647991,607.8029936080387
48,57136.78360887441,29046.0,"[3, 7]",2,177.60577659684526,132.4014611955818,167.01828701206847
48,4560.472844351173,2223.0,[8],1,327.7569115558909,150.80212844050433,710.6428634020041
48,5437.367058841728,3551.0,[9],1,199.96553076588083,281.18728338359153,380.09565192318723
48,9051.054144207537,4907.0,[10],1,351.9802655052941,341.59464236834344,605.0285410247769
48,6938.445365489087,4705.0,[11],1,338.2170704697768,170.6657791361167,289.64887487296915
48,5099.512808855152,1639.0,[13],1,206.7717212918128,314.0839987224732,748.6589345905223
48,5036.721364639234,1463.0,[14],1,228.77671185058898,406.1733138103824,577.1179045796733
72,9070.09579639461,4374.0,[0],1,315.55941362879736,426.21257030349835,749.3634055164998
72,54729.61938620009,22259.0,"[1, 7]",2,155.32783763212865,132.2822596375976,167.35786100960354
72,32966.0648491415,18512.0,[2],1,203.35886192421202,539.8545307499109,580.2917751345328
72,18653.750630527968,10231.0,[3],1,246.14081238525554,136.76820282035757,248.4295773490366
72,21822.681264878527,7902.0,[4],1,168.65920827032056,435.38055845623643,492.61694654879904
72,5225.24573414847,2637.0,[6],1,NA,133.342358635189,622.9956773390235
72,4228.673377139556,1517.0,[8],1,NA,145.4425684028885,711.8337277157125
72,5738.077796628001,2505.0,[9],1,NA,279.18623960502066,375.23311623501917
72,8993.788993283233,3612.0,[10],1,NA,335.0216787065759,600.4876194830335
72,7672.624297848639,3547.0,[11],1,373.01912002647845,173.56563198182837,271.3249541756089
72,7542.446723207486,2882.0,[12],1,194.78110026875285,342.09807163812945,503.5510411996477
72,7635.188457669028,4603.0,[13],1,221.69522547583082,279.4222942227329,761.0304594852284
72,7068.852441557596,4074.0,[14],1,239.99715768340954,424.41770646148774,570.1740132389755
96,9832.11122741437,4439.0,[0],1,350.76851113539453,NA,NA
96,17911.590637704838,9164.0,[1],1,NA,156.9686028743382,NA
96,48879.739436120086,29278.0,[2],1,NA,NA,568.3484914934143
96,52832.42223568034,17946.0,"[3, 7]",2,NA,138.67260630960047,NA
96,23394.84391431506,10419.0,[4],1,NA,NA,485.36996654274225
96,4294.949702343489,1188.0,[6],1,NA,NA,NA
96,6496.384233558472,3982.0,[8],1,NA,NA,NA
96,4820.881471094577,1409.0,[9],1,NA,NA,NA
96,6233.73893082279,886.0,[10],1,NA,NA,NA
96,7082.169702872179,2520.0,[11],1,NA,169.74979676070356,NA
96,7372.765653883651,2888.0,[12],1,NA,NA,496.3170655806768
96,5129.91021912333,590.0,[13],1,NA,NA,NA
96,8683.164809202324,4480.0,[14],1,281.1936271088442,417.11860223622915,NA
120,14016.208313569652,8170.0,[0],1,NA,NA,730.2051158136696
120,14531.295513687359,3881.0,[1],1,NA,NA,NA
120,53892.06695845655,24828.0,[2],1,NA,NA,NA
120,17795.95864623233,7814.0,[3],1,NA,147.8662414422673,NA
120,18348.65741864079,4438.0,[4],1,NA,NA,NA
120,8024.879364662593,6516.0,[5],1,NA,NA,NA
120,4222.792372302848,1669.0,[6],1,NA,NA,NA
120,30085.38756651718,8653.0,[7],1,NA,134.29319260125533,NA
120,8603.773176169616,4741.0,[8],1,NA,NA,NA
120,4057.513273005228,1191.0,[9],1,NA,NA,NA
120,6387.603344801959,2681.0,[10],1,NA,NA,NA
120,15871.083300156151,11660.0,[11],1,NA,157.80173835514037,NA
120,4922.872686423063,539.0,[12],1,NA,NA,NA
120,4284.262865953316,1234.0,[13],1,NA,NA,NA
120,7148.040685922324,1985.0,[14],1,NA,NA,NA
