time(in hour),cumulative size,size,pcore_ids,pcore_power,SCA-1,CD11b,Ly6C
-1,0,0,[],0,0.0,0.0,0.0
0,6342,6342,[0],1,NA,NA,NA
0,19814,19814,"[1, 3]",2,NA,NA,NA
0,19737,19737,[2],1,NA,131.0585195318439,NA
0,7165,7165,[4],1,NA,NA,NA
0,6714,6714,[6],1,NA,NA,NA
0,22448,22448,[8],1,NA,NA,NA
24,10936.482532769529,8270.0,[0],1,NA,NA,NA
24,23524.760785918552,15194.0,"[1, 3]",2,NA,NA,NA
24,27733.386273931283,19435.0,[2],1,NA,132.03390251001375,NA
24,7755.511407646432,4743.0,[4],1,NA,NA,NA
24,7482.096207248813,5572.0,[5],1,NA,NA,NA
24,9606.88926600672,6784.0,[6],1,NA,NA,NA
24,37451.221364807694,28013.0,[8],1,181.33928502306838,NA,NA
48,8983.224478645381,4385.0,[0],1,256.1651558327465,NA,NA
48,26307.94350729003,16417.0,"[1, 3]",2,NA,NA,NA
48,37340.45255029769,25680.0,[2],1,174.0475587236044,139.49812333506654,NA
48,6883.790870574587,3623.0,[4],1,NA,NA,NA
48,8022.8339396294705,4877.0,[5],1,NA,NA,NA
48,10181.19937276222,6142.0,[6],1,329.0064853531309,NA,NA
48,42715.29889627006,26969.0,[8],1,199.17956337540863,NA,NA
72,8069.980630756159,4293.0,[0],1,273.4126552232086,NA,NA
72,8399.336370461748,5186.0,[1],1,NA,NA,NA
72,34699.72634674837,19000.0,[2],1,176.39940390636212,137.505965164264,NA
72,19391.791323526963,11544.0,[3],1,NA,152.64115521026338,NA
72,9706.277533211209,6812.0,[4],1,NA,NA,NA
72,7494.186150005129,4121.0,[5],1,198.4754282666605,NA,NA
72,7806.667027769558,3526.0,[6],1,NA,NA,NA
72,49556.57085918222,31597.0,[8],1,203.52753040160638,NA,NA
96,8537.008891784883,5144.0,[0],1,NA,NA,NA
96,11024.485922215714,7493.0,[1],1,NA,167.64598848682164,NA
96,27276.437747632786,12687.0,[2],1,NA,137.87569159460924,NA
96,15282.243904650953,7129.0,[3],1,NA,NA,NA
96,11006.986991567486,6926.0,[4],1,NA,NA,NA
96,9082.917134391675,5932.0,[5],1,NA,NA,474.16132458289866
96,7681.299159365396,4399.0,[6],1,NA,NA,NA
96,7070.836389519369,4837.0,[7],1,NA,NA,NA
96,56288.971393876505,35453.0,[8],1,227.33829530781196,NA,544.4510227031833
120,11821.370087045496,8232.0,[0],1,NA,NA,NA
120,12626.225346003117,7991.0,[1],1,NA,NA,NA
120,21963.329361437754,10495.0,[2],1,NA,135.07423183990332,NA
120,11404.392058226957,4979.0,[3],1,NA,NA,NA
120,13514.867951976683,8887.0,[4],1,NA,NA,NA
120,9284.588463800867,6055.0,[6],1,NA,NA,NA
120,15610.920486396177,12638.0,[7],1,NA,NA,NA
120,52562.59713171482,28896.0,[8],1,NA,NA,535.1879006620178
