time(in hour),cumulative size,size,pcore_ids,pcore_power,SCA-1,CD11b,Ly6C
-1,0,0,[],0,0.0,0.0,0.0
0,5536,5536,[0],1,0.28324653341559985,0.5070862785420974,0.7987803259008468
0,39608,39608,"[1, 6]",2,0.21057004713609365,0.15821695717579864,0.1894725323763067
0,26803,26803,"[2, 7]",2,0.22042597948326345,0.4723676420364252,0.5788212468653798
0,7605,7605,[4],1,0.3185899282701344,0.16754858824124458,0.7288428226067406
0,6453,6453,[5],1,0.40954838529940196,0.37114450257447945,0.6669388074882371
24,9477.601277422282,7150.0,[0],1,0.2539480856408599,0.4783220397206091,0.7969321236561788
24,59150.62122668681,39300.0,"[1, 4, 6]",3,0.21343837810363375,0.15969268999513228,0.25507988798066505
24,46054.273309022654,34785.0,"[2, 7]",2,0.20771982410483628,0.4977956465288164,0.5710391346671022
24,8951.15228381611,6238.0,[5],1,0.39369330318660906,0.3755116852212303,0.6439390531710677
48,8890.84046969421,4906.0,[0],1,0.2964679615409574,0.46098713091248056,0.7734626605310654
48,62800.814619956975,41331.0,"[1, 6]",2,0.20161641574265976,0.1654575227156905,0.17119257628436127
48,52228.43666633598,32865.0,"[2, 7]",2,0.22742068727136786,0.5016124446338579,0.5371625002472395
48,6945.958054818629,3546.0,[4],1,0.3035305030336859,0.17943064207558856,0.7103361289964115
48,8629.495933925533,4866.0,[5],1,0.3804214282461619,0.36762976371288597,0.6408340096348961
72,8668.137939779257,4930.0,[0],1,0.3101687288152423,0.4417580725821726,0.7858807833071805
72,60807.489944467445,34403.0,"[1, 6]",2,0.20617150768750558,0.16478821446221656,0.17900734984458463
72,58487.3525835138,36528.0,"[2, 7]",2,0.2302991094467351,0.5258524175768897,0.5568357675699235
72,6536.771010038463,4747.0,[3],1,0.4616911602790114,0.20008046184575362,0.29901526459145206
72,8773.415614399824,5853.0,[4],1,0.326717891378018,0.1755190061397966,0.7181907147927197
72,7167.256098142243,3539.0,[5],1,0.4306283503764975,0.3609277642598402,0.6428076007249117
96,9315.503060242547,5671.0,[0],1,0.3797511155580415,0.44880737502092816,0.7932130212975121
96,50704.40015743948,25138.0,"[1, 6]",2,0.21789318101737415,0.1665180440859529,0.18579446543689898
96,66734.90256257841,42144.0,"[2, 7]",2,0.2548303011944442,0.5419815343295091,0.5491572400377159
96,19295.14052467776,12858.0,"[3, 4]",2,0.42958353729143783,0.17774477453419463,0.4956152471301574
96,7202.459980066569,4189.0,[5],1,0.48247347663167406,0.373889345439332,0.6358046893867384
120,13315.686564821483,9399.0,[0],1,0.4463489334810846,0.4848148996580147,0.7818734768469132
120,14564.270105591775,7982.0,[1],1,0.28608924405045744,0.18112928432171613,0.29623968361638175
120,59314.57016858906,31256.0,"[2, 7]",2,0.27516962902671155,0.5637695669116951,0.543677905858759
120,30626.607249509103,22514.0,"[3, 4]",2,0.502647203085261,0.1638765085571447,0.4167226485511612
120,8868.26138912316,5840.0,[5],1,0.5567760532968272,0.3632450797636918,0.6189201671004442
120,27745.304059398593,13009.0,[6],1,0.21215696326964442,0.15375781682659992,0.13519239446866899
