time(in hour),cumulative size,size,pcore_ids,pcore_power,SCA-1,CD11b,Ly6C
-1,0,0,[],0,0.0,0.0,0.0
0,18485,18485,"[0, 9]",2,169.80329997295334,120.61985393562368,245.41763592101688
0,6599,6599,[1],1,241.6023639945443,441.1350204576454,774.0227307167739
0,22267,22267,[3],1,180.13095612341317,441.248259756591,559.3097857816517
0,10250,10250,[8],1,135.5163902439059,121.52975609756115,110.33736585365877
0,7154,7154,[10],1,370.7920044730158,368.3370142577571,623.25789767962
24,29665.86885023333,16595.0,"[0, 9]",2,167.64362066692752,122.43020118044817,244.94612881027226
24,14024.197649050027,9358.0,[1],1,223.23561470116158,440.5820817700508,764.3841248278503
24,13461.492739440255,6179.0,"[2, 6]",2,316.8217013152564,126.83394830308725,NA
24,43589.14669668085,27844.0,[3],1,171.53979592231886,458.6167450955198,551.7571562797295
24,26210.13072177385,15332.0,"[5, 8]",2,153.5964969931821,137.87520473084777,NA
24,9723.074236665416,5298.0,[7],1,218.73824136891287,270.5069989632076,357.21807794933204
24,12184.64191260856,7126.0,[10],1,363.7620216069515,361.12099886465876,605.6302332471744
48,16237.550462792415,7924.0,[0],1,231.9385696250613,121.57443094361314,253.98932483812933
48,15367.605258343712,5451.0,[1],1,247.18480249436956,438.13713819576594,753.126621688727
48,18170.71280095168,8652.0,"[2, 6]",2,312.516566968764,135.56749007550349,NA
48,55288.18121535823,24466.0,[3],1,180.00960524993243,468.69370371932877,532.6281749623578
48,34738.36116915215,16205.0,"[5, 8]",2,152.35973071151273,137.12103292245988,NA
48,14140.25172672633,7265.0,[7],1,207.45164431042534,300.9753145815205,366.1741182055835
48,23418.386570998344,10755.0,[9],1,121.16297754713916,131.55541926102367,232.5525298313483
48,15016.842922735337,6401.0,[10],1,362.45237880071505,363.81660449065936,601.804520791449
72,20250.68204209928,8769.0,[0],1,231.03641151482216,124.70987176103621,255.93694370906232
72,17166.537888772888,6300.0,[1],1,255.1457405222307,436.6886824387318,756.9141229182894
72,21864.634240546136,9016.0,"[2, 6]",2,336.3763135563475,137.71701194548785,NA
72,68035.6478568505,28941.0,[3],1,183.34806121553993,485.38037543365533,540.713171662478
72,9473.521406251599,5049.0,[4],1,429.15740185231726,185.55675666305942,339.099502728915
72,37801.73075001493,13238.0,"[5, 8]",2,155.25483320205163,137.80271510105862,NA
72,14203.667883652977,4205.0,[7],1,202.77762877661155,304.1380752538123,377.9059352482292
72,26530.29994880091,9971.0,[9],1,120.65344508242721,132.6224601389245,230.7670138349289
72,15129.511462679371,4511.0,[10],1,372.3141195183836,375.83565068333894,603.1000554660568
96,22623.394595621045,8304.0,[0],1,236.11856831914136,126.86044313929291,259.41544995653743
96,17866.57535064711,5728.0,[1],1,290.67365708323103,439.918245231742,760.4865984862934
96,14398.749164240193,5536.0,[2],1,308.77095836701346,131.52275617312554,131.5864238463833
96,80515.46796199899,32407.0,[3],1,199.5296523205291,498.85417370845767,540.2080543838102
96,12614.791228076425,5916.0,[4],1,440.56019148561234,188.5905149622979,329.32774702439684
96,34369.8601539236,7640.0,"[5, 8]",2,159.62668905666982,136.39003133817332,NA
96,13150.881975413558,6553.0,[6],1,407.3641250296457,151.50381180084088,696.4978144941963
96,15892.509878252598,5849.0,[7],1,201.65670131764838,312.92601365437747,389.22203233489375
96,24147.75500071024,5388.0,[9],1,120.1992926320749,133.75130978853696,230.4510974881549
96,17377.180151300185,6679.0,[10],1,383.9374665734322,400.067182233323,603.6845421004673
120,24729.155732022733,8732.0,[0],1,249.39341138271422,125.74199050014724,266.5945988487755
120,20265.576587022988,7632.0,[1],1,331.1911151291337,433.12351886324365,760.3541216413427
120,42281.78463733588,16333.0,"[2, 5, 6]",3,NA,143.33648030347976,NA
120,82835.0333863377,25902.0,[3],1,214.08162261999996,510.05879516703277,536.2554390317575
120,19895.004420625417,10975.0,[4],1,475.9753582053056,175.4043956649707,NA
120,13964.701504986606,2727.0,[7],1,211.38087447367906,316.772050803495,389.75713276794403
120,22172.907543974055,4338.0,[8],1,145.3734898198141,122.76731136829311,103.1697773615757
120,20350.041311433575,3275.0,[9],1,121.34161545462925,133.0584099884007,230.04793642581834
120,22373.52192288464,10086.0,[10],1,424.2860408949783,NA,613.2536081202314
