time(in hour),cumulative size,size,pcore_ids,pcore_power,SCA-1,CD11b,Ly6C
-1,0,0,[],0,0.0,0.0,0.0
0,34430,34430,"[2, 8]",2,180.93848388033905,136.11501597444135,195.68451931455076
0,13018,13018,[3],1,199.2226916577049,483.69242587187193,602.5029958518987
0,7157,7157,[6],1,300.0178845885125,147.08006147827362,699.7174793908056
0,9005,9005,[9],1,213.5867851193785,386.6541921154917,540.2467518045514
24,10570.211575462401,7017.0,[0],1,227.83255239887936,408.8908546989895,765.1701361891585
24,29922.687535027813,15258.0,"[1, 2]",2,196.4302795678749,148.22258420343917,280.6887498152707
24,27097.116077486477,17892.0,[3],1,186.5862399349301,504.11685460878635,592.3880226939267
24,28258.811349896343,17701.0,"[5, 9]",2,187.4961216546649,366.40297741441776,525.5382390627136
24,31356.72176910608,15823.0,"[2, 6]",2,208.8218783164797,144.3659175648841,392.1224339148461
24,10373.008219487432,6054.0,[7],1,346.4980221487715,340.20944883681153,625.448120424529
24,33512.72794009888,19640.0,[8],1,171.68920274724974,132.30999782993615,144.4529791070289
48,10746.268283586003,3272.0,[0],1,245.5450162540394,403.084757649431,753.3388025340053
48,38109.53526734435,16951.0,"[1, 2]",2,198.98027999069012,155.63986109187417,279.06800063306764
48,33447.55452898971,14287.0,[3],1,202.84199906908066,504.0351594943241,576.8919217823047
48,39887.99713378308,19906.0,"[5, 9]",2,198.73514678893468,380.9200595744087,505.4857860879576
48,38418.55059871475,16246.0,"[2, 6]",2,207.5603462083139,151.08546578359008,367.108032111443
48,12765.82445330336,5431.0,[7],1,338.68248632850714,334.62136348488843,629.9890929395772
48,49646.077182503795,25949.0,[8],1,172.00543876835746,137.71960683738465,146.422231275581
72,11783.759175773585,4185.0,[0],1,256.4955206772911,388.84094052289265,755.6846678035555
72,42650.51081540708,15703.0,"[1, 2]",2,204.94463208033355,158.20583883005438,281.5486786844243
72,49965.992621555444,26315.0,[3],1,208.11856380169823,507.59199422495664,575.0776293616856
72,6924.556147944146,3673.0,[4],1,419.13501306805284,180.24804563953052,348.80913250363255
72,39358.073261247584,11153.0,"[5, 9]",2,199.84660637621317,380.0048617141325,509.58227797389645
72,11741.523244485514,5070.0,[6],1,293.94483037722205,155.9837875571582,692.8861882634883
72,12603.801038367857,3577.0,[7],1,357.5762109817302,333.7607804629554,632.0747347610497
72,87790.57224228335,32191.0,"[2, 8]",2,178.8978119779458,142.82831698446856,193.28653849102835
96,12962.376021058704,4630.0,[0],1,296.49326016747585,392.35151954830263,761.1565803568046
96,13014.43327396578,5739.0,[1],1,276.57540734285664,176.2243611176184,329.20619790205126
96,83049.30895676605,20972.0,"[2, 8]",2,182.04849547532234,143.07898175776054,192.2965087572872
96,65208.292211418855,29877.0,[3],1,226.08260839741612,514.2807445931911,563.7135174165721
96,10614.400608918304,5718.0,[4],1,444.5702689269706,173.85848795599492,317.74005646191193
96,39701.36049746511,11871.0,"[5, 9]",2,203.53708282014503,385.0821256684609,502.08582903363504
96,14504.51070763518,6202.0,[6],1,327.5277737676554,150.91884935205022,693.0735686201671
96,13903.233182955963,4991.0,[7],1,386.4126784216659,351.26929387894336,634.1886314655676
120,15012.783984780508,5847.0,[0],1,327.627053091865,404.281130031117,760.7766025091248
120,15356.594021321045,6154.0,[1],1,295.01497426888716,168.7740945963445,327.8072586672574
120,74939.72953618594,16215.0,"[2, 8]",2,187.79199960232617,141.49227081100352,189.6952064746933
120,71900.22561228821,25791.0,[3],1,239.89361439031688,521.3878337830363,553.4309999224191
120,21950.51464879675,14445.0,[4],1,483.0317118069116,159.82980282258092,282.68943792734785
120,32869.101230089305,4796.0,"[5, 9]",2,205.28626818399513,390.80002236354903,497.8109437831469
120,18446.237879161723,8190.0,[6],1,381.3564481752758,141.93716011662877,679.7030088011517
120,18393.07046408599,8562.0,[7],1,438.54533616502584,378.9420147986143,643.332071530139
