time(in hour),cumulative size,size,pcore_ids,pcore_power,SCA-1,CD11b,Ly6C
-1,0,0,[],0,0.0,0.0,0.0
0,20918,20918,"[0, 7]",2,161.47160340376976,136.17731140644457,249.7578162348216
0,10618,10618,[1],1,218.75174232435546,520.7200037671906,623.5835373893372
0,15696,15696,[3],1,169.74917176350846,388.23687563710655,523.2721712538244
0,7606,7606,[4],1,353.1014988167202,153.4797528267156,274.25006573757537
0,5985,5985,[5],1,232.13216374269032,375.3398496240593,789.2071846282371
0,26393,26393,"[7, 8]",2,152.9311559883327,120.49615428333283,169.15818588262022
0,7374,7374,[9],1,382.820992676968,339.43300786547206,610.1036072687826
24,26625.6298244301,19230.0,"[0, 7]",2,159.51683524250396,138.17964156748204,251.8361968841907
24,19309.02990131938,15555.0,[1],1,194.9585039170783,535.1371103139217,603.0359010700166
24,23500.374018752023,17951.0,[3],1,161.72196410391462,393.5889966432632,513.4236153971092
24,6711.1270888524405,4022.0,[4],1,360.24273919625904,150.9988631566767,266.5145894592677
24,10353.017042700743,8237.0,[5],1,209.36878648014692,372.09428929948916,778.6841091485504
24,33581.334637928274,24250.0,"[7, 8]",2,150.97186719214886,120.41278233278324,162.610560244025
24,10370.1027022348,7763.0,[9],1,369.31839099866545,337.40656312687406,590.0652036777751
48,30980.581701108655,21567.0,"[0, 7]",2,157.46010866810474,145.60883294079557,242.66515352088334
48,18652.77299067837,11826.0,[1],1,211.3644684795364,539.1215330839167,573.3976501606015
48,26902.636914539857,18594.0,[3],1,171.98043060028667,409.419273718631,479.2688703580744
48,7382.741736966147,5010.0,[4],1,361.8493071962375,157.96398497958577,245.24023112644116
48,9269.344278316796,5609.0,[5],1,260.824257580574,380.75802309854714,755.5426482454315
48,40972.79472188689,29100.0,"[7, 8]",2,148.52330745946742,124.86795887993043,155.46066224244575
48,9594.384971175585,5928.0,[9],1,371.44730058705915,350.5018156273058,579.8032090113493
72,32032.2897029789,21079.0,"[0, 7]",2,164.67761860975534,141.8200126383943,245.42334626178672
72,28052.751134820977,21458.0,[1],1,206.99349737425806,542.5790243873254,576.8685832746434
72,8079.742329998842,6262.0,[2],1,291.1793708328681,148.87635624472296,698.3602832622281
72,21640.518497035337,12129.0,[3],1,168.79350868063437,410.1327792230789,488.87533479908706
72,9077.193372978856,6467.0,[4],1,412.09903876191385,171.99143861035864,241.08745249258564
72,9236.208098175266,5959.0,[5],1,265.9116536827299,380.9092691879488,772.2913353106375
72,37541.0704960053,23055.0,"[7, 8]",2,148.90409432391266,124.20964542082373,160.44031331606868
72,8563.127337216278,5171.0,[9],1,413.1327730327297,351.23917607315127,586.1333269773318
96,14003.833585940833,9485.0,[0],1,239.88522107552052,164.5444225619812,294.93719480674076
96,36795.145279185264,26877.0,[1],1,235.44006996230212,541.8870190082189,563.0032238963371
96,10372.42822067863,6782.0,"[2, 6]",2,NA,138.7822584322191,667.3428845781555
96,20169.0786888233,12518.0,[3],1,181.33224990117427,411.69407362682193,482.77572842077853
96,10482.27249408747,7273.0,[4],1,432.17833847515044,171.50473756189646,237.70917340295583
96,10105.492689334918,6840.0,[5],1,341.86700909258093,390.29650063432274,771.2657808084119
96,28319.77276036379,15047.0,"[7, 8]",2,157.7487307137462,124.74932013792613,158.20825464095918
96,8205.522704154768,5178.0,[9],1,440.6617324154302,364.72284436367937,590.7518789304189
120,12654.102845613346,7703.0,[0],1,NA,164.0212968156751,NA
120,43919.048370828044,30910.0,[1],1,NA,NA,555.0000757482213
120,6608.064217361497,3708.0,[2],1,NA,NA,NA
120,13987.846155576019,6857.0,[3],1,NA,NA,497.4719030807165
120,13790.042981407238,10084.0,[4],1,NA,159.5292293059156,NA
120,10103.831203929902,6531.0,[5],1,399.0464642869256,NA,NA
120,27661.551680257653,17649.0,"[7, 8]",2,NA,143.5458524111621,NA
