time(in hour),cumulative size,size,pcore_ids,pcore_power,SCA-1,CD11b,Ly6C
-1,0,0,[],0,0.0,0.0,0.0
0,7490,7490,[0],1,0.2702859243035657,0.5451422409366334,0.7774038733158704
0,44189,44189,"[1, 6, 7]",3,0.22787998741870252,0.15818344669016884,0.25703939965105294
0,21809,21809,[2],1,0.20977949006723992,0.48237516206622444,0.5694198090100155
0,7005,7005,[5],1,0.3997034221142135,0.39551451613424066,0.6486321415342842
24,15355.22979108724,10059.0,[0],1,0.24891872551429947,0.5384700224134125,0.7731619986429246
24,67345.34155385235,36099.0,"[1, 6, 7]",3,0.21474136433549368,0.1568620078674907,0.23506381489447573
24,43996.29179089742,28575.0,[2],1,0.19885268699491415,0.5013795324658862,0.5582886928318057
24,6637.301366513386,3304.0,[3],1,0.4297563265707317,0.18285900365528934,0.2987038895207208
24,8035.426258194413,4630.0,[4],1,0.20441871615468224,0.20163410208280877,0.64924641200933
24,12286.283002211767,7333.0,[5],1,0.39272117463501616,0.3928653099395949,0.6308742110592589
48,15531.787111955482,4674.0,[0],1,0.26818113990913167,0.540699208384543,0.7608270861355481
48,91442.34769405318,43822.0,"[1, 6, 7]",3,0.21145719889333384,0.16314716492068793,0.2209692317259168
48,59666.0762724056,28556.0,[2],1,0.21221242831075596,0.5089784176614525,0.5346563204580628
48,8150.280805040354,3457.0,[3],1,0.42245566370536003,0.18982363046269496,0.29397873597362556
48,8214.904396893715,2533.0,[4],1,0.22182481214116337,0.19795776970227527,0.6391593680849534
48,15645.714026440955,6958.0,[5],1,0.38318566299812123,0.3943298491505789,0.6360033586937607
72,17592.631990809547,6610.0,[0],1,0.2758430663217284,0.5578593615603272,0.7488667743054056
72,104266.50414208307,39607.0,"[1, 6, 7]",3,0.22075875334850997,0.16469627058099165,0.2373214557475746
72,72797.28713901177,30607.0,[2],1,0.2161326361927132,0.5235360379326539,0.5472216313861485
72,11629.118825818588,5866.0,[3],1,0.4462412503801556,0.19554302786741978,0.2803738256964417
72,8994.814605842732,3186.0,[4],1,0.22419932282155502,0.19883547328690948,0.6519439118203413
72,15187.190484601882,4124.0,[5],1,0.39343037503812583,0.4031472489384497,0.6371288595251917
96,18496.869379620824,6057.0,[0],1,0.3135945811912355,0.5772420917711232,0.7401748998631856
96,89882.33357541761,24181.0,"[1, 6]",2,0.20385069922605845,0.1626350760990069,0.17757122541130638
96,87183.45538797947,35708.0,[2],1,0.23073373250637588,0.5380670085134353,0.5442142690426506
96,31800.247335025037,15551.0,"[3, 7]",2,0.4483695155547809,0.1895725520927822,0.49522629130956664
96,8350.294403307198,1990.0,[4],1,0.23711356564931313,0.1930764150624587,0.6389597185210769
96,17251.9653788338,6513.0,[5],1,0.4170604650895853,0.4210330686435541,0.6464183343359825
120,41731.24347722062,16453.0,"[0, 5]",2,0.40733304151840954,0.5135678803395098,0.6980242437448709
120,82534.4075800491,18978.0,"[1, 6]",2,0.21260504707223685,0.16036306588300747,0.17769778191825983
120,87978.01251211512,26330.0,[2],1,0.24377708255887212,0.5531065278833881,0.5399713303668059
120,48842.17053400564,26356.0,"[3, 7]",2,0.49766749336215577,0.17902672272237405,0.44307822206641356
120,7787.549797482596,1883.0,[4],1,0.25336342855194277,0.18929752761476507,0.6320866736840828
