time(in hour),cumulative size,size,pcore_ids,pcore_power,SCA-1,CD11b,Ly6C
-1,0,0,[],0,0.0,0.0,0.0
0,3215,3215,[0],1,NA,NA,NA
0,13184,13184,"[1, 5]",2,NA,NA,NA
0,3131,3131,[2],1,NA,NA,NA
0,16621,16621,"[3, 8]",2,NA,NA,NA
0,35036,35036,"[4, 9]",2,NA,137.9509361799296,NA
0,4514,4514,[6],1,NA,NA,NA
0,5676,5676,[7],1,NA,331.9249471458776,634.567829457362
0,15527,15527,"[8, 10]",2,NA,NA,NA
24,5311.650437366874,3400.0,[0],1,NA,NA,NA
24,15936.253302097937,8097.0,"[1, 5]",2,NA,NA,NA
24,3512.70373853676,1651.0,[2],1,NA,NA,NA
24,29813.905729230115,19931.0,"[3, 8]",2,NA,NA,NA
24,52594.53024061766,31762.0,"[4, 9]",2,NA,NA,NA
24,7622.040458561141,4938.0,[6],1,NA,NA,NA
24,9368.969792377722,5994.0,[7],1,NA,NA,NA
24,32292.409437323626,23060.0,"[8, 10]",2,NA,NA,NA
48,3664.326246262001,506.0,[0],1,NA,NA,NA
48,17509.752906670237,8034.0,"[1, 5]",2,NA,NA,NA
48,3558.6661393822865,1470.0,[2],1,NA,NA,NA
48,40319.45440961042,22592.0,"[3, 8]",2,NA,NA,NA
48,69337.89478618414,38065.0,"[4, 9]",2,NA,NA,NA
48,9459.092372079755,4927.0,[6],1,290.909137507506,NA,NA
48,10327.822768670576,4757.0,[7],1,NA,NA,NA
48,42035.18153172314,22834.0,"[8, 10]",2,NA,NA,NA
72,3623.8214218729922,1445.0,[0],1,NA,NA,NA
72,21017.36136927591,10606.0,"[1, 5]",2,NA,NA,NA
72,5269.99554643634,3154.0,[2],1,NA,NA,NA
72,38440.091028468276,14466.0,"[3, 8]",2,NA,NA,NA
72,73048.55890952013,31820.0,"[4, 9]",2,NA,141.97908316080952,NA
72,9721.409975172606,4097.0,[6],1,NA,NA,NA
72,8971.960159495076,2831.0,[7],1,NA,NA,NA
72,54752.26847897806,29758.0,"[8, 10]",2,NA,NA,NA
96,25623.99783946312,13127.0,"[1, 5]",2,NA,NA,NA
96,6811.558099927374,3678.0,[2],1,NA,NA,NA
96,39163.61487620337,16307.0,"[3, 8]",2,NA,NA,NA
96,65784.93299794837,22350.0,"[4, 9]",2,NA,143.07041955174503,NA
96,12066.384955166845,6286.0,[6],1,NA,NA,NA
96,9014.759428596246,3680.0,[7],1,NA,NA,NA
96,67548.89361886996,34993.0,"[8, 10]",2,NA,NA,NA
120,34631.12027275195,19395.0,"[1, 5]",2,NA,NA,NA
120,12583.176678344025,8533.0,[2],1,NA,NA,NA
120,31848.82473000373,8562.0,"[3, 8]",2,NA,NA,NA
120,57312.95519056875,18197.0,"[4, 9]",2,NA,NA,NA
120,16151.7154205231,8977.0,[6],1,NA,NA,NA
120,10105.208026262258,4745.0,[7],1,NA,NA,NA
120,68417.81245106104,28253.0,"[8, 10]",2,NA,NA,NA
