time(in hour),cumulative size,size,pcore_ids,pcore_power,SCA-1,CD11b,Ly6C
-1,0,0,[],0,0.0,0.0,0.0
0,4628,4628,[0],1,266.21218668971335,117.87013828867732,282.5105877268794
0,5522,5522,[1],1,260.11264034769886,501.2468308583855,750.1477725461783
0,9514,9514,"[2, 5]",2,235.6362203069157,120.70433046037411,NA
0,11820,11820,[3],1,188.06023688663402,492.7347715736072,575.2390862944154
0,4183,4183,[4],1,234.81902940473321,272.99139373655265,315.28998326559883
0,7684,7684,[6],1,123.84968766267943,123.48204060385201,105.82717334721534
0,16389,16389,"[8, 13]",2,151.764476173045,122.73201537616693,231.8789431936061
0,4720,4720,[9],1,256.6235169491518,304.2730932203398,768.2241525423717
0,10426,10426,[12],1,162.79647036255747,362.5094954920396,530.640705927487
0,6273,6273,[14],1,374.31866730431335,363.89988841064826,584.5008767734723
24,6813.825264116296,4062.0,[0],1,263.25116236760715,122.86109372900596,285.65096656314165
24,9043.400844522512,5760.0,[1],1,241.98275633376025,502.9895661995098,741.8902407669423
24,26199.43596752765,15207.0,"[2, 5, 8]",3,210.89216438868522,120.91355448298535,NA
24,23909.21404966608,16881.0,[3],1,176.53146566435,511.23919920334623,566.9925577666902
24,5471.226681028191,2984.0,[4],1,226.35274086575873,299.87854165901456,311.00624372583246
24,12667.933735840455,8099.0,[6],1,123.7973807597692,121.59167337033466,103.57879744527091
24,8407.528791406421,5601.0,[9],1,222.48348299225577,321.5512267215128,771.7441549526412
24,4060.051522651218,2435.0,[10],1,228.67444173566446,149.89753142183142,498.37365225891205
24,18660.336690509183,12461.0,[12],1,158.48787622938323,370.6439241034427,521.0054115839573
24,23938.957703889795,14194.0,"[8, 13]",2,148.45192698936623,123.96100680154994,230.31267952608025
24,10705.948116206035,6976.0,[14],1,367.1983242681325,356.22222916361187,580.2126889480282
48,8819.524742236197,4768.0,[0],1,265.38432241659893,134.4400969162236,284.33175618468033
48,9073.238314063894,3696.0,[1],1,265.1603391670522,499.714722572034,728.9641689704129
48,16582.993452472572,8557.0,"[2, 5]",2,241.22771974515368,126.9322517451068,NA
48,28598.50373099296,14382.0,[3],1,189.4445699403301,517.5430198071507,545.7668680764048
48,7382.210848435723,4129.0,[4],1,220.41881836827292,321.253777984507,311.59579877179254
48,17906.398465522234,10374.0,[6],1,121.2854279464555,125.43409766289302,100.9855096444524
48,16068.284378348466,8516.0,[8],1,188.36740505911163,122.16588899163635,216.72548333104538
48,9216.146529165373,4217.0,[9],1,253.47693034226333,324.5795506340137,755.8355427174421
48,4399.121079007229,1985.0,[10],1,233.9114499336527,151.86119642957246,502.2199433616513
48,4249.343475246002,2134.0,[11],1,427.84917485548965,157.03594024405646,263.807462789096
48,23743.502580349923,12648.0,[12],1,165.22354384664413,385.71818059649604,495.3928700620841
48,14159.905035259006,7478.0,[13],1,99.1128691884416,134.27174831533864,235.69223086038792
48,12078.794836321096,5713.0,[14],1,367.8398595836284,359.9294206007617,575.0974359118312
72,10567.120787204913,5323.0,[0],1,265.7521853240747,139.46855880144034,288.45010239319936
72,9935.979779600038,4541.0,[1],1,279.03596118929767,511.2841346834001,719.0639584751575
72,17845.30690086196,7985.0,"[2, 5]",2,243.1450113907957,129.46664188289378,NA
72,38477.77205766435,21473.0,[3],1,191.2361692451959,526.3999186725649,554.2564459372375
72,6186.488832705018,1797.0,[4],1,225.08889604455993,317.8775431600387,315.5030796641944
72,17443.208229636424,6796.0,[6],1,121.8705973454301,125.42147798226317,100.54983729314785
72,4891.367182105957,3079.0,[7],1,469.5313333839724,134.15693047067074,638.0878364099098
72,18260.259054309536,8706.0,[8],1,187.9094910492533,121.84474187407639,215.23289454580154
72,10222.953512695547,4743.0,[9],1,254.25800788279355,324.8016186831398,769.9192437449746
72,4330.733043456922,1715.0,[10],1,240.85689382547238,151.8533566767229,501.03580136680364
72,6929.674747426467,4403.0,[11],1,457.91380136464124,178.15017149419603,249.97993665650677
72,22927.971101818795,8810.0,[12],1,164.06049190582976,389.8183614859182,496.29041196239405
72,15092.529907846432,6673.0,[13],1,99.33899588333092,135.92757564477438,235.53147209123534
72,11138.094380005587,3956.0,[14],1,379.2914159392746,371.1192352899886,576.9284981058644
96,12407.24761261862,6124.0,[0],1,274.4942222739157,141.03937825378705,289.8377246508983
96,11894.968924211767,5987.0,[1],1,323.04672773229316,522.4569159237095,709.7044620275298
96,18583.882967956102,7973.0,"[2, 5]",2,262.58744033872705,128.4460513117514,NA
96,48574.02015021366,25695.0,[3],1,210.8583793957481,530.5806739215753,548.789441609883
96,6466.508268368842,2788.0,[4],1,228.87025018700746,317.89894724151065,321.5218477970077
96,14261.793667578826,3890.0,[6],1,122.61316707916342,125.56202486547531,99.12576206504289
96,6284.424327525607,3376.0,[7],1,492.0742444148527,135.01416137206266,637.713810787617
96,16537.61499458888,5680.0,[8],1,190.41106644895814,121.27010436752768,215.1097908805617
96,10324.604526819803,4246.0,[9],1,298.2358181078874,323.7880522166058,774.8328354401378
96,4708.06927422818,2133.0,[10],1,258.5047321708158,152.03746403752427,498.0504238167454
96,9063.40925714712,4943.0,[11],1,467.55808392704074,179.3275101756398,243.2214614343038
96,22086.053183429845,8453.0,[12],1,171.13915193718955,395.0668950014726,491.5660797581979
96,12615.07197490117,3641.0,[13],1,98.84979661253315,138.2604753013062,236.86796150242122
96,11693.750542137233,5071.0,[14],1,389.5192918753073,389.7522954924721,575.5631180391955
120,13722.393569263293,6345.0,[0],1,288.93041802009316,137.5121616078006,288.63914636884107
120,11796.790838704448,4724.0,[1],1,NA,527.6187035665489,712.7097811746336
120,18735.04292493564,7685.0,"[2, 5]",2,279.9198010009312,126.55334658335109,NA
120,51816.28518345981,22934.0,[3],1,228.25180935212057,535.8339031586614,541.1198247611535
120,5529.008820984076,1684.0,[4],1,238.77898798412429,326.4037578446022,320.6495772244132
120,11139.113251092745,2659.0,[6],1,125.13649080367648,124.9897688901912,98.16918669941396
120,11069.74106199482,7333.0,[7],1,531.0502749551896,136.32558813239623,618.5310337636229
120,14641.32470837039,4808.0,[8],1,194.50356447812618,119.54446394206602,215.01431628508706
120,11440.046581441706,5301.0,[9],1,332.0918802709877,339.8279812407976,770.7305041835251
120,5169.434739418924,2370.0,[10],1,288.40467143816505,148.2587549999618,491.17355889095217
120,17209.13538739044,11820.0,[11],1,496.1420561551217,164.79789176963314,237.35686266849743
120,16289.445794031635,3157.0,[12],1,173.6207401904323,403.0391620830169,488.3005841440921
120,9454.96667441195,1954.0,[13],1,99.65175580289676,137.33916388491323,237.49958754933607
120,14179.145672888262,7226.0,[14],1,419.8422469269021,420.7302488124143,585.2744865677009
