time(in hour),cumulative size,size,pcore_ids,pcore_power,SCA-1,CD11b,Ly6C
-1,0,0,[],0,0.0,0.0,0.0
0,22593,22593,[1],1,0.206942838514666,0.15024635228186148,0.12917067262787124
0,13371,13371,[2],1,0.22061370448707388,0.17147040380156905,0.2604533062694765
0,7085,7085,[3],1,0.32745918343073105,0.17367486596180262,0.7248094644572033
0,9051,9051,[4],1,0.22684860695757755,0.36769380248976385,0.5336605314256071
0,7951,7951,[5],1,0.3436277536992679,0.42271270126811755,0.7602864874752104
0,21236,21236,[7],1,0.2346723604817764,0.5096430312565793,0.6126267492986873
24,32034.186354913585,22535.0,[1],1,0.19950111836119155,0.15190519347139847,0.12666589188057711
24,16055.812984178709,10434.0,[2],1,0.2116993497307087,0.17080417444840107,0.26306205980912606
24,7289.8755510362835,4311.0,[3],1,0.29265022921913453,0.17784529466384208,0.7233326116138341
24,17533.476727230685,13728.0,[4],1,0.2181555008888824,0.3975097935987008,0.5346457663888959
24,11856.983698841143,8514.0,[5],1,0.31112459763416545,0.4266582224178077,0.765638968096934
24,33434.63813716394,24506.0,[7],1,0.21618944382881117,0.5402868036651226,0.6065883432819289
48,44321.71623570815,30853.0,[1],1,0.19902337745377716,0.1597406897017487,0.1323475612109087
48,16747.63779118996,9997.0,[2],1,0.22015313457786403,0.18313832901292557,0.2658296869054627
48,21730.918863431358,14359.0,[4],1,0.23688465792581445,0.41420940148105156,0.5074251654260833
48,11796.247544038622,6811.0,[5],1,0.3282278298498418,0.4184167862065853,0.7408642087300064
48,34841.53367742315,20784.0,[7],1,0.2362813931752519,0.5415043492090301,0.574617909596961
72,6689.076283309078,4360.0,[0],1,0.35140458089894244,0.21130104787699772,0.31633053273443684
72,43148.986150249664,24514.0,[1],1,0.20375325080455056,0.15844032284035445,0.1402834056997903
72,16457.514291289637,9416.0,[2],1,0.22633875172306991,0.18623566622239945,0.2718643255292883
72,7334.468705963158,4837.0,[3],1,0.30913243790480005,0.1919854808440006,0.7219075549113517
72,16681.72588621438,7545.0,[4],1,0.23580177195257548,0.4160599523639821,0.5130615065398775
72,10751.711136613756,5792.0,[5],1,0.3422221452257086,0.4074706697022701,0.7530915288955102
72,45495.060385643344,30846.0,[7],1,0.24199321440444466,0.5534836978145707,0.5818647545505228
96,10224.410133996622,7412.0,[0],1,0.41512985040416206,0.1985491570856729,0.2697651034849578
96,33562.913887788556,15421.0,[1],1,0.20890734107396935,0.1590338099586404,0.13826689098386125
96,15115.532385766117,8196.0,[2],1,0.23748247573595463,0.18989304941671628,0.2766896979166458
96,8193.764221317484,5110.0,[3],1,0.35562402555433165,0.182077618871394,0.7233389288969938
96,15661.801748981383,8648.0,[4],1,0.2445373164470449,0.4232463248395103,0.49950545089580406
96,11439.537676310974,6919.0,[5],1,0.39953577102330917,0.42362762364731893,0.762994180888549
96,54429.31659501938,35301.0,[7],1,0.2700258149691419,0.5661357336986438,0.569111078943179
120,18806.834914880754,14508.0,[0],1,0.5010702504857539,0.180204567937726,0.22635569672169747
120,26668.466986855252,12557.0,[1],1,0.21959643521011532,0.15704118448793167,0.13687839144575456
120,13379.298498921078,7024.0,[2],1,0.26155526423386377,0.1838435739239937,0.2846281447004711
120,8351.053480570008,4906.0,[3],1,0.38416965267490427,0.18379521266808296,0.7202320425510793
120,9408.9764735664,2824.0,[4],1,0.24713257781831074,0.4312632554691927,0.49542238993608434
120,15609.733112084854,10800.0,[5],1,0.46383742456658805,0.4701527459102852,0.7560994788493718
120,9868.023071125703,7924.0,[6],1,0.5998928515262542,0.17518511524845315,0.5740059621567329
120,52341.70860473065,29457.0,[7],1,0.289960850831204,0.5796989351937316,0.5562960287572731
