time(in hour),cumulative size,size,pcore_ids,pcore_power,SCA-1,CD11b,Ly6C
-1,0,0,[],0,0.0,0.0,0.0
0,16750,16750,"[0, 8]",2,NA,NA,NA
0,44420,44420,"[1, 5, 7]",3,NA,137.8064385411983,NA
0,14598,14598,[2],1,NA,NA,NA
0,4410,4410,[3],1,NA,NA,NA
0,3401,3401,[4],1,NA,NA,NA
0,6446,6446,[6],1,NA,NA,NA
24,31214.50747774986,24172.0,"[0, 8]",2,NA,NA,NA
24,54963.309382784995,36287.0,"[1, 5, 7]",3,NA,NA,NA
24,22740.70293493686,16603.0,[2],1,NA,NA,NA
24,4793.176595634441,2939.0,[3],1,NA,NA,NA
24,4539.944354138941,3110.0,[4],1,NA,NA,NA
24,9599.209146362722,6889.0,[6],1,NA,NA,NA
48,9094.83315398817,4769.0,[0],1,NA,NA,NA
48,71336.50742370589,46212.0,"[1, 3, 5, 7]",4,NA,NA,NA
48,49813.53835615591,31454.0,"[2, 8]",2,NA,NA,NA
48,3872.811466423388,1964.0,[4],1,NA,NA,NA
48,9636.97028022354,5601.0,[6],1,NA,348.0778101611993,NA
72,8824.906298259642,5001.0,[0],1,NA,NA,NA
72,66177.75721469337,38521.0,"[1, 5, 7]",3,NA,143.15725010551114,NA
72,56133.01291739746,35189.0,"[2, 8]",2,NA,NA,NA
72,7711.549469963769,5375.0,[3],1,NA,NA,NA
72,3562.316639534454,1934.0,[4],1,NA,NA,494.2617523448558
72,8031.84688127328,3980.0,[6],1,NA,NA,NA
96,8849.41603557823,5139.0,[0],1,NA,NA,NA
96,57564.31940568315,29740.0,"[1, 5, 7]",3,NA,143.8337000707696,NA
96,63986.024669814986,40385.0,"[2, 8]",2,NA,NA,NA
96,10321.307152672107,7079.0,[3],1,NA,NA,NA
96,4088.7696460915904,2591.0,[4],1,NA,NA,NA
96,8442.975625164714,5066.0,[6],1,NA,NA,NA
120,10484.721110703234,6764.0,[0],1,NA,NA,NA
120,39032.038195315254,18990.0,"[1, 7]",2,NA,NA,NA
120,57008.80938559158,30106.0,"[2, 8]",2,NA,NA,NA
120,31373.351814771395,22873.0,"[3, 5]",2,NA,NA,NA
120,5549.115869098308,3830.0,[4],1,NA,NA,NA
120,10986.833968637748,7437.0,[6],1,NA,NA,NA
