time(in hour),cumulative size,size,pcore_ids,pcore_power,SCA-1,CD11b,Ly6C
-1,0,0,[],0,0.0,0.0,0.0
0,11771,11771,"[0, 8]",2,0.24850389311381266,0.14587272732165202,0.2054095991829231
0,7476,7476,[1],1,0.296982854497687,0.497046203961273,0.8068463478081628
0,11925,11925,"[3, 10]",2,0.2692909335029321,0.15562651185292747,0.44530048138654277
0,14692,14692,[4],1,0.20914011141124064,0.5491402345352494,0.59580687821865
0,5686,5686,[5],1,0.25805427879238113,0.2326972416175,0.34133420341604054
0,9219,9219,[7],1,0.1846094594578148,0.3852464588428679,0.5317972880158629
0,7373,7373,[9],1,0.13230249452527612,0.138397068182613,0.07398933748822333
0,15410,15410,"[8, 11]",2,0.1755077324661524,0.15419689864664488,0.19971491915844525
0,6537,6537,[12],1,0.4157910115797123,0.4076925153511818,0.5987668958571589
24,18082.353921346854,9759.0,"[0, 8]",2,0.2459033660803516,0.15157792193483013,0.20482166389676007
24,13617.33029615063,8331.0,[1],1,0.2668573217803429,0.48619494125741214,0.8065439722978198
24,18179.248365649582,9747.0,"[3, 10]",2,0.2579428871248434,0.15825654406973574,0.43169857015163526
24,29957.812829192757,19569.0,[4],1,0.20067003837469527,0.57248419593808,0.5898868743518517
24,8241.60915782671,4221.0,[5],1,0.2537592834944329,0.23994359285456784,0.3502554775710114
24,4564.759556484293,1952.0,[6],1,0.4680957034606522,0.17087160137121643,0.2617105753226761
24,18430.817415758782,11912.0,[7],1,0.17905102271375375,0.40340036018862174,0.522936799656027
24,12996.498297688415,7783.0,[9],1,0.13346268774112519,0.1362282248953688,0.07085165881793312
24,24198.5154980847,13302.0,"[8, 11]",2,0.1700703837417034,0.15864444359759716,0.19856137357305467
24,11816.357028616461,7194.0,[12],1,0.41033214570973103,0.4018524896501608,0.5954108701822896
48,24480.15507759952,11694.0,"[0, 8]",2,0.24539368348350987,0.16022278731565198,0.20036954559228395
48,15184.906594065129,5556.0,[1],1,0.2920525976834002,0.47784423136339566,0.794438325177874
48,22939.66979622528,10085.0,"[3, 10]",2,0.26748393358280387,0.16000551266705523,0.38621965073919906
48,37045.37260103955,15862.0,[4],1,0.21388289568236843,0.5812535578989875,0.5706024364705246
48,10280.697723388417,4453.0,[5],1,0.2561804041367673,0.25170118041285594,0.3489532228585173
48,5821.772436876141,2594.0,[6],1,0.4658586869874787,0.1832214840047494,0.2509075384006052
48,26371.555977494158,13339.0,[7],1,0.18636261947606567,0.4260548014907231,0.4943368305765604
48,19070.9120779749,9881.0,[9],1,0.13105523952299047,0.13981327033000324,0.06764433804117269
48,18937.041587013926,8808.0,[11],1,0.1250364196400294,0.14182155133915988,0.21307064744933646
48,14299.426183856023,5944.0,[12],1,0.411198315144928,0.40649904674326937,0.5923444345291233
72,28314.083659868913,11004.0,"[0, 8]",2,0.2453403585770898,0.1578981470694959,0.20321536353918945
72,16454.350424347773,5717.0,[1],1,0.2998644326398439,0.47398070017532534,0.8013755914829693
72,6519.869116794922,3545.0,[2],1,0.4986630659753105,0.14481487902547954,0.6393283377218778
72,26048.796071091125,9828.0,"[3, 10]",2,0.2675606449141603,0.16258832569767898,0.4084414147492803
72,50023.0341777774,23828.0,[4],1,0.21805123476554028,0.5926068560507877,0.5773604647863857
72,10883.551075537052,3614.0,[5],1,0.2612723039817136,0.24777012773331528,0.3510863515190328
72,9067.61476864005,4951.0,[6],1,0.49465135610694283,0.20105089235227563,0.23560362968590862
72,27279.50606212675,8632.0,[7],1,0.18522503681439903,0.4318871984527847,0.49549604459387914
72,20006.171253748485,6521.0,[9],1,0.13179051921237508,0.13994911388509654,0.0673383835568255
72,36375.22909124976,13354.0,"[8, 11]",2,0.16702818179499962,0.16521298189529413,0.1945990856851575
72,14352.22122168107,4241.0,[12],1,0.42256092790488325,0.4189865258836424,0.5952018950636154
96,29653.08055897653,9632.0,"[0, 8]",2,0.252470780292828,0.1566732562835176,0.20670382570301749
96,17713.982765076056,6079.0,[1],1,0.34297133359069276,0.4753157940802458,0.8061224565665863
96,8778.243664934436,4168.0,[2],1,0.5189411598258074,0.14535158752404614,0.6447207924149934
96,27311.28034361403,8892.0,"[3, 10]",2,0.28497881561838717,0.16089467554606574,0.40389610082625926
96,63604.626682632836,28233.0,[4],1,0.2382737044507991,0.5993137068565303,0.5722676168343852
96,12252.832768902394,4557.0,[5],1,0.27102781724199704,0.2480248283397994,0.3548180777731765
96,12112.771892092667,5701.0,[6],1,0.5056913727352838,0.20359915754560573,0.22762650696322892
96,28079.523723949358,8790.0,[7],1,0.19173555948696566,0.4380135040299655,0.49046367047333045
96,17781.499359104928,3635.0,[9],1,0.13209116635900145,0.14020262578616652,0.06613007758098147
96,19571.520749960542,4362.0,[11],1,0.12471514652514026,0.14395109609756543,0.21242792190065587
96,16099.55295094016,5951.0,[12],1,0.43450888525231623,0.4433924540532068,0.597678499900931
120,30071.894346323286,9104.0,"[0, 8]",2,0.2627866710109854,0.15302279113942047,0.21022212753897043
120,20417.677335006912,7892.0,[1],1,0.3893639653441559,0.4862348797747333,0.8070251664291422
120,14594.155622382992,8387.0,[2],1,0.5632514197923268,0.14871542338432914,0.633025106971838
120,27562.991533856344,8251.0,"[3, 10]",2,0.2992902795297069,0.15907054868348613,0.38921408208711555
120,68795.2628421285,23820.0,[4],1,0.25392810281164324,0.6048276281630511,0.5637787680405607
120,12120.061139635625,3456.0,[5],1,0.28795080438946175,0.24282910790977988,0.3594597731618164
120,21460.023143864535,12895.0,[6],1,0.538588845881641,0.18884466624504884,0.21964040691224213
120,23374.221637693132,3519.0,[7],1,0.1953816333764025,0.44590000777822664,0.48517880445364675
120,15009.418776487344,2436.0,[9],1,0.13373905055001195,0.1396404072275181,0.06529575392916352
120,16410.155040430327,2571.0,[11],1,0.12602127451268577,0.1427816355896941,0.21259311484002544
120,19053.10306568168,7669.0,[12],1,0.46136397051326655,0.4720709318824728,0.5999998410045368
