time(in hour),cumulative size,size,pcore_ids,pcore_power,SCA-1,CD11b,Ly6C
-1,0,0,[],0,0.0,0.0,0.0
0,6814,6814,[0],1,0.32211161422451173,0.487292100240787,0.7707610036457122
0,12404,12404,[1],1,0.24456635952882355,0.18338203921957769,0.29788732925437533
0,29066,29066,"[3, 7]",2,0.23892729216807632,0.46629573418959247,0.587202545102405
0,28567,28567,[6],1,0.20694692508799845,0.15162909074435982,0.14898309237931745
24,9884.112803502569,7475.0,[0],1,0.29312354006186236,0.48149236965080344,0.7676925066089455
24,12979.476256918968,8594.0,[1],1,0.2317125374825431,0.1840097307940967,0.3038605894624519
24,47859.38285098409,37583.0,"[3, 7]",2,0.22224591113535877,0.49041795059746174,0.5786756104171167
24,6436.617981040021,4619.0,[5],1,0.2272173262594929,0.230547432820584,0.752424383480032
24,37104.95970907805,27005.0,[6],1,0.1994154044941993,0.15226997973308523,0.14356290581963113
48,9846.561594684721,6352.0,[0],1,0.32100318075978085,0.4593825837085207,0.7401046419920491
48,12439.937838758595,7851.0,[1],1,0.24000461735056353,0.19939071378564205,0.2984359209496881
48,51004.84707866701,34084.0,"[3, 7]",2,0.23814188053621677,0.49382636593472323,0.5405253780865474
48,48188.58431297136,35070.0,[6],1,0.20057399793842876,0.16110551427572972,0.1457608985485945
72,8610.285237486296,5129.0,[0],1,0.34129110310201677,0.4469662045747354,0.7462206190311972
72,12619.182201662665,8221.0,[1],1,0.25572970697419634,0.19722458901199885,0.29854590551376575
72,55653.93662135415,37621.0,"[3, 7]",2,0.24016177132866137,0.5205158693985045,0.5597576642414226
72,6471.199053814631,4764.0,[5],1,0.28254738030876414,0.23791175497119854,0.7566152947149851
72,44790.23737174087,27753.0,[6],1,0.2045896491294142,0.15953525798103357,0.15242135929351566
96,9645.195539688491,6601.0,[0],1,0.4087844850606368,0.45369384755008485,0.7533854690811009
96,13143.554653912128,8682.0,[1],1,0.27714462665213224,0.19725345305421427,0.29961809469173856
96,50352.43008452302,35220.0,[3],1,0.2692726706371278,0.5655328429614543,0.5642235327252815
96,6824.363104898545,5344.0,[4],1,0.48280732609371485,0.20875626943998585,0.2868980313464477
96,6391.914366680148,4104.0,[5],1,0.3408889496516959,0.22852567083739767,0.7546811358285644
96,33619.74028825655,17784.0,[6],1,0.21206228989124842,0.1595225821199843,0.14900396329520374
96,12970.207907819911,8426.0,[7],1,0.2535575852655067,0.424509627591834,0.4977134552087373
120,13606.091585991988,10196.0,[0],1,0.47789015758094316,0.49342556692854617,0.7486563723402851
120,12258.948312338636,7612.0,[1],1,0.3113603887665009,0.18767931608347524,0.30704857825893794
120,9666.714634652035,7720.0,[2],1,0.5750184462036833,0.15844775775862968,0.6224419049154425
120,47032.272380993876,29230.0,[3],1,0.29086886858425154,0.5803235654720392,0.5526199529262429
120,15642.776714376523,13230.0,[4],1,0.5394784608562619,0.1816486938397007,0.22887915536500572
120,6964.882996721624,4705.0,[5],1,0.37659932922322936,0.22589522501915085,0.743164447994844
120,26240.37316977839,14354.0,[6],1,0.2250112665917774,0.15689309656483044,0.14626103374674307
120,7538.660982509421,2953.0,[7],1,0.2568281510494328,0.43482402962011923,0.49352235654314136
