time(in hour),cumulative size,size,pcore_ids,pcore_power,SCA-1,CD11b,Ly6C
-1,0,0,[],0,0.0,0.0,0.0
0,12435,12435,"[1, 3]",2,0.3529632290155972,0.15893005620175119,0.49430571264562195
0,21646,21646,"[2, 5, 8]",3,0.20575506593843745,0.46082056480187467,0.5572565498658609
0,34206,34206,"[4, 10]",2,0.19289627879201443,0.15400568765819478,0.17420581731516105
0,5683,5683,[9],1,0.4200200875071859,0.3768564735820016,0.6523253230143254
24,12367.27346183997,7139.0,"[1, 3]",2,0.3363524267015011,0.15773283011944528,0.486680431338613
24,37895.02190229096,28794.0,"[2, 5, 8]",3,0.19373910569778874,0.48584093200002026,0.5473801476658839
24,45249.85139008428,30868.0,"[4, 10]",2,0.18736531824624367,0.15241704093421088,0.1678577699953724
24,8402.958956316572,6434.0,[7],1,0.23238038742697947,0.4116943652896928,0.8151564282624184
24,8169.40716394343,5780.0,[9],1,0.4062275591525944,0.3788384446201009,0.6345769336601313
24,6514.101226808341,4937.0,[11],1,0.2750383846247767,0.6208108491019401,0.7119033609760423
48,12879.797960261814,7680.0,"[1, 3]",2,0.34349102470550336,0.16897029669449198,0.4481044784890042
48,44821.89403679873,28889.0,"[2, 5, 8]",3,0.21314600806674913,0.49225542311918513,0.5142992524025952
48,56094.21891234259,37069.0,"[4, 10]",2,0.18692815180315492,0.1601275973894541,0.16054117315085079
48,7350.00903194535,3817.0,[7],1,0.27735864209419075,0.4080657406350765,0.7919378191813681
48,8166.812599454022,4732.0,[9],1,0.39902655403191384,0.37945489611782723,0.632530707467896
48,6498.842185111479,3760.0,[11],1,0.2955000327672838,0.6124371102800296,0.6913736701498043
72,15953.287966988131,10538.0,"[1, 3]",2,0.38206885695677206,0.1729589392734613,0.4544295114669606
72,45084.28501021295,26239.0,"[2, 5, 8]",3,0.21062289580314747,0.5078045950985801,0.5324029121911181
72,54899.713799922996,31315.0,"[4, 10]",2,0.1915108691379202,0.1601862644272836,0.16982734089040788
72,7663.298123522634,4573.0,[7],1,0.28488490655960513,0.3957255535703934,0.8073961335337103
72,6731.721719464878,3298.0,[9],1,0.437226754834686,0.38998265896236856,0.6425427280740884
72,10999.42654837993,8267.0,[11],1,0.28739236739297325,0.6266400771416047,0.6505682076152695
96,33722.35156517605,21530.0,"[0, 5]",2,0.25518197376460233,0.5564978979288736,0.553993968469313
96,18951.53133147527,12244.0,"[1, 3]",2,0.419082529207563,0.1688270020615024,0.43427786027902127
96,18618.106403705566,9975.0,"[2, 8]",2,0.20544870046041533,0.43869306491204285,0.4879776284401632
96,45109.48626640507,22027.0,"[4, 10]",2,0.2015059808645148,0.16164706931421904,0.17487285811715006
96,5706.631249316073,3757.0,[6],1,0.46160441613319597,0.18834985143317048,0.45875653510711495
96,7780.01996054535,4558.0,[7],1,0.3574206365736449,0.4037893563695904,0.8133290117702687
96,6664.340331191794,3834.0,[9],1,0.48027722116510757,0.42032479661486777,0.6585350146254381
96,44043.18959816647,29106.0,"[5, 11]",2,0.26915355841487354,0.5918053578184294,0.5747103231109066
120,50248.85665501602,29049.0,"[0, 5, 11]",3,0.2967229622591927,0.5892692068150683,0.5624470781688925
120,26818.137380103002,18850.0,"[1, 3]",2,0.4859069569665765,0.1613679340699002,0.37425309633752135
120,6733.628615133179,2309.0,[2],1,0.17801815567056514,0.4948648613630314,0.5083482124811365
120,37162.20264767834,18196.0,"[4, 10]",2,0.21972699789262673,0.15692386587438636,0.17809496651389256
120,10314.342880362356,7915.0,[6],1,0.5366216871575771,0.18035341491003312,0.46728121141917833
120,8600.095447712465,5329.0,[7],1,0.3900823893939188,0.41841938493652603,0.802785567806452
120,9594.009947264965,6792.0,[9],1,0.545398476116204,0.47665190625312187,0.7009633190686098
