time(in hour),cumulative size,size,pcore_ids,pcore_power,SCA-1,CD11b,Ly6C
-1,0,0,[],0,0.0,0.0,0.0
0,4050,4050,[0],1,301.3140740740725,445.54839506172914,789.0824691358013
0,13876,13876,"[1, 13]",2,202.36047852407086,112.57199481118515,248.35363217065444
0,7893,7893,[2],1,212.84961358165575,532.9533764094767,605.9727606740133
0,3046,3046,[3],1,414.77413000656304,109.68253447143786,671.1808929743934
0,22828,22828,"[4, 7, 12]",3,159.69717014193333,134.27961275626436,264.855090240056
0,15438,15438,"[5, 10]",2,177.17579997409172,393.41533877445323,539.0771472988722
0,4542,4542,[6],1,215.11316600616607,238.99295464553035,301.04931748128587
0,3292,3292,[8],1,396.9030984204107,125.69076549210214,213.5595382746055
0,3263,3263,[9],1,210.06497088568835,165.80263561140046,524.5939319644494
0,4462,4462,[11],1,368.27902285969935,334.55939040788877,662.372926938592
24,6177.815240888772,4475.0,[0],1,280.3952740707731,435.9718594104743,777.9557120700093
24,37646.582034801926,25750.0,"[1, 4, 7, 13]",4,194.04203204672433,126.59839358551372,268.6089555892677
24,16073.597702798785,12755.0,[2],1,191.39823551376014,546.1554415488896,592.0503914238416
24,24668.879429343422,18178.0,"[5, 10]",2,166.87015586661826,402.6757501527775,528.9445271968989
24,5107.675759041185,3198.0,[6],1,198.83768008861085,264.2973273467167,294.8723949839435
24,3137.115499507614,1753.0,[8],1,399.5076784782053,125.85910105144885,198.1466946598355
24,4285.922501486435,2914.0,[9],1,197.59290095387016,166.37896890429622,524.2643138381477
24,6379.039902431037,4503.0,[11],1,359.23276498705803,337.2698398262542,643.1195139041814
24,24953.191830974072,17325.0,"[4, 12]",2,141.17173548189487,122.49583937058645,137.01386873806933
24,4458.824722278993,3385.0,[14],1,106.32272421188316,415.37144829916843,751.066762782548
24,3849.7902701137245,2752.0,[16],1,375.8141502630675,382.9532184647903,485.99495131092016
48,6848.451345081565,4251.0,[0],1,297.96007578488917,429.0143193838302,756.4295706722921
48,21506.70586971685,13939.0,"[1, 13]",2,204.7047586466088,122.55046887344606,243.14051743888692
48,16705.11534425692,9947.0,[2],1,206.40434269582255,549.7522334102425,568.2660454133504
48,31917.524779902185,21426.0,"[4, 12]",2,138.24003557470493,127.26435280310803,132.31982831309887
48,29087.98614023049,18716.0,"[5, 10]",2,174.56780677036164,416.51488835230634,498.5873286352623
48,6128.513118028014,3981.0,[6],1,197.98530295697154,289.8766704620276,295.2853818732873
48,4868.526936730696,2438.0,[7],1,239.37476765115574,196.37628064561616,731.9039034209264
48,3690.9945888864095,2372.0,[8],1,399.1703132178876,138.6053165153294,182.09168338684222
48,3876.008433777588,2074.0,[9],1,207.67577979414827,161.64807581652258,528.8509429447198
48,6886.055893357332,4204.0,[11],1,353.6274453957879,338.4669827914139,647.4576377895323
48,2939.304421336873,1867.0,[15],1,371.3313845441496,193.4999794684349,400.93499944968363
48,4400.63741880863,2782.0,[16],1,375.14743638672616,386.1318821218248,487.21137632929185
72,6926.419093059283,4047.0,[0],1,309.7261228870931,431.21459765877665,767.7649412922841
72,23970.45593488046,14928.0,"[1, 13]",2,204.04058116413555,125.15628500088562,244.0097689762332
72,24701.635804692734,17678.0,[2],1,203.8480354667788,554.741579814188,575.4902167432883
72,4174.546554647899,3047.0,[3],1,462.15005054426393,125.6845646515855,646.8541790300364
72,28650.666085595672,15231.0,"[4, 12]",2,138.00119359393543,127.3867109516201,133.11627384406927
72,26986.99163613478,14757.0,"[5, 10]",2,175.71013029813562,423.33320271153417,507.89595386909775
72,4715.722355892561,2139.0,[6],1,199.42907688198457,281.61553989109854,305.4521314303583
72,6457.963424331495,4411.0,[7],1,245.72954193434944,191.87412229980262,747.9663793432082
72,5374.872059257719,3823.0,[8],1,440.2056885973098,158.37227539184804,187.2561773703392
72,3409.660798728369,1780.0,[9],1,212.81503352078008,155.52354432025186,536.6679438523587
72,5491.229857980447,2596.0,[11],1,366.00575654110094,353.6808264720008,648.6207601616702
72,3618.825275620785,2383.0,[15],1,385.2290742088299,189.30374176235273,391.34014447768226
72,3661.240115153768,1811.0,[16],1,414.71326330533327,401.7599643228662,470.743512808733
96,8341.200492949218,5429.0,[0],1,363.08509432317925,442.03533615880485,771.3224788133228
96,22348.335233819053,12270.0,"[1, 13]",2,218.37068968297635,126.46767498732109,244.85001655911344
96,30539.758499534462,20154.0,[2],1,227.95505953554235,556.9009354759497,566.5046568788059
96,3851.1806165565813,2096.0,[3],1,488.8801638026942,125.7510773695756,647.268244458748
96,21861.121203004288,9815.0,"[4, 12]",2,145.75259313570598,127.26555669033782,129.27830839845387
96,13370.791994616153,6594.0,[5],1,141.3249861085274,425.8288249232826,482.7416568080306
96,5202.7170122009275,3220.0,[6],1,203.56179684149623,283.97660652644674,322.985880927077
96,7013.239146679978,4298.0,[7],1,306.2766614443349,181.6322103754737,745.8915180540429
96,6758.855323538583,4499.0,[8],1,451.2154829246931,158.76171012392652,184.5834552710444
96,3424.585771440901,1991.0,[9],1,236.32627652470273,147.55867540994677,541.9655550090849
96,15099.840268037704,10530.0,[10],1,243.14007136804736,445.65574290361366,529.3120452965256
96,5941.777751454962,3633.0,[11],1,393.4956919305844,367.06916928030194,652.0139833982212
96,4767.528600849527,3246.0,[15],1,405.91577236530236,177.76297287199003,402.2503865297542
96,3666.36184410795,2127.0,[16],1,438.5810354103107,426.1065944921474,466.29211045454304
120,17526.25260243313,11521.0,"[0, 11]",2,420.2553122911679,423.1829135346692,726.6049941725529
120,12455.057472255507,7793.0,[1],1,287.9700822780823,128.04268939630887,248.18814854258454
120,43644.08749863464,24455.0,"[2, 10]",2,250.3812613777891,529.0997626932872,544.359340035582
120,4995.22198747851,3376.0,[3],1,536.3838718655053,127.2581901303662,645.3182623924542
120,19668.544035323102,9455.0,"[4, 13]",2,187.5617685510707,119.10170296433265,161.12827077690636
120,9142.725528687894,3521.0,[5],1,142.19843723498116,448.1652394644766,479.99779519451465
120,3932.473042569638,1745.0,[6],1,218.19626830222947,289.47564526803694,321.76035130091475
120,6391.703828880107,3443.0,[7],1,345.10331256759537,174.1555341085247,737.5365475970613
120,12749.74860639104,9908.0,[8],1,487.7693797559269,148.4844860034307,188.0493373475227
120,3485.8609494667653,2046.0,[9],1,266.8631911560025,138.18049011722817,548.3532092426306
120,5766.185211441393,2054.0,[12],1,89.40555284863223,135.14562943953752,178.83226188207092
120,8824.498855036962,6820.0,[15],1,473.2608354936695,161.0810652186225,431.12900820033343
120,4795.515265866687,3254.0,[16],1,458.592714125611,468.1878162867957,478.4120744956581
