time(in hour),cumulative size,size,pcore_ids,pcore_power,SCA-1,CD11b,Ly6C
-1,0,0,[],0,0.0,0.0,0.0
0,8800,8800,[0],1,0.35111184882532626,0.45275966680378305,0.7693512097590632
0,45370,45370,"[1, 5, 6]",3,0.22272508438730027,0.15902459116944,0.28039595741620527
0,27263,27263,"[2, 7]",2,0.21349954892151382,0.4833091374234204,0.584734100819641
0,4551,4551,[4],1,0.4064327138868064,0.24453304976977858,0.5043696801261018
24,14745.511306011973,9513.0,[0],1,0.31626620021724317,0.44788796446076024,0.7751647960488003
24,64797.163403836734,37820.0,"[1, 5, 6]",3,0.2086072553382739,0.15749917187226942,0.26101058065347943
24,24780.099367884184,16395.0,[2],1,0.19800607395587586,0.42605066953175497,0.5318635242425205
24,5098.252336730483,2702.0,[3],1,0.41380200675401424,0.15559953209605076,0.2166382333146496
24,7981.040790188692,5275.0,[4],1,0.4103387427669522,0.2897470939372775,0.5207492614409281
24,26120.577420275404,18295.0,[7],1,0.20443351839267818,0.5795365540926356,0.615726337730261
48,15862.733479731252,7095.0,[0],1,0.32981263246138626,0.44374186305911384,0.7609018265028823
48,72251.23968046816,39452.0,"[1, 6]",2,0.1930266753091337,0.16110102894955403,0.17026189745136164
48,62458.72349746661,32193.0,"[2, 7]",2,0.21657317046085967,0.5080992038737403,0.5450907129935929
48,16021.823171909684,7261.0,"[3, 5]",2,0.3432264489492381,0.17466746974614156,0.5214252088753197
48,8744.555246409665,3999.0,[4],1,0.4138634114254781,0.29789028809149776,0.5262082467214949
72,15694.037758744138,6262.0,[0],1,0.34100093866533404,0.44118483477045584,0.7665284238950999
72,75931.84414788985,32971.0,"[1, 6]",2,0.19660712696841226,0.16123473377730138,0.17610632649592292
72,73222.17918858747,36084.0,"[2, 7]",2,0.22161980259580158,0.5262159100713826,0.5577793901453401
72,20015.63305567523,10489.0,"[3, 5]",2,0.36540989692035425,0.18008653777920483,0.5011415282435728
72,9393.543658282373,4194.0,[4],1,0.4575625149463593,0.27712038414737344,0.5403940773183638
96,17662.730682909943,8331.0,[0],1,0.38901684185274166,0.45477202484838225,0.7693632421565882
96,68614.34465797416,23465.0,"[1, 6]",2,0.2037750887713405,0.16262055739231118,0.18066607828224723
96,84429.1682335362,40891.0,"[2, 7]",2,0.2411368440150109,0.5411847163529906,0.5500623347259211
96,24320.366620546316,12419.0,"[3, 5]",2,0.3993321890019525,0.1758937627526982,0.4634971454149837
96,10479.434476759045,4894.0,[4],1,0.4969323227762016,0.2590346691772621,0.5468306553185934
120,21960.322499246686,11458.0,[0],1,0.441476063732799,0.4793526261196526,0.7670194778845566
120,59800.3334292559,19002.0,"[1, 6]",2,0.21616738616300282,0.16049337311069334,0.18302014252048437
120,81075.88378854148,30874.0,"[2, 7]",2,0.26006877578840804,0.5589616820265725,0.5450463456516137
120,33300.976512314184,18840.0,"[3, 5]",2,0.45423065631155846,0.1707460998724608,0.38498747161696656
120,16057.109020483336,9826.0,[4],1,0.5582416693287954,0.2216433286491781,0.5561267548835795
