time(in hour),cumulative size,size,pcore_ids,pcore_power,SCA-1,CD11b,Ly6C
-1,0,0,[],0,0.0,0.0,0.0
0,3602,3602,[0],1,NA,409.60549694614167,NA
0,16550,16550,"[1, 3]",2,NA,NA,NA
0,10802,10802,[2],1,214.77661544158502,NA,NA
0,17634,17634,"[4, 12, 14]",3,NA,NA,NA
0,31673,31673,"[3, 7]",2,NA,136.45682442458923,NA
0,4124,4124,[8],1,NA,NA,NA
0,3921,3921,[10],1,336.211935730677,316.58658505483345,NA
24,5722.45444387194,4208.0,[0],1,NA,NA,NA
24,19130.417836224486,12172.0,"[1, 3]",2,NA,NA,NA
24,20639.681538785313,16098.0,[2],1,192.62230290922693,NA,NA
24,27068.183693292,19654.0,"[4, 12, 14]",3,NA,NA,NA
24,42584.85608016545,29268.0,"[3, 7]",2,NA,136.4252090245902,NA
24,6118.577422104907,4470.0,[10],1,NA,NA,NA
24,5201.809891850884,3898.0,[13],1,NA,NA,NA
48,6461.995714152301,4056.0,[0],1,294.9968186371707,421.89129495156345,741.1945220306937
48,21218.349890393445,13175.0,"[1, 3]",2,177.67333366923577,143.7385558515986,260.91101396787377
48,19543.917108971422,10866.0,[2],1,206.7003945760223,526.4337493432488,576.2056255588087
48,21881.54393621359,15579.0,[4],1,182.88973524097878,428.7186545338231,487.703474346466
48,46806.72641095323,28902.0,"[3, 7]",2,176.12027936687548,131.3067482904366,164.22961872449102
48,3988.551225585123,2599.0,[8],1,329.08098095408747,156.06428025295492,706.9218759636617
48,5174.304291114618,4022.0,[9],1,195.27911481011557,304.2086415551497,381.4211433243974
48,7693.544910350165,5121.0,[10],1,352.6907286140993,350.1186351044895,600.0706212352533
48,6113.763106578704,4787.0,[11],1,343.96761433910405,171.01356862063798,279.8744074240278
48,6880.225381345557,1802.0,"[12, 14]",2,205.82271390594553,363.23922811466775,539.5137382423809
48,4044.0916454443604,1857.0,[13],1,215.33460955422072,315.03683824887065,743.7713561009895
72,8004.934515707768,5288.0,[0],1,323.6211406221922,NA,745.7092831984143
72,41564.02026909357,22662.0,"[1, 7]",2,152.60011341413446,131.7481038987875,166.8410194977173
72,27764.204918474905,19547.0,[2],1,205.95026998795495,541.922631623518,579.4348423674749
72,15291.500567743924,10442.0,[3],1,NA,137.01320855298127,250.45658582049163
72,18405.055928089332,9205.0,[4],1,172.67009702699622,439.1617515701545,494.94216566918084
72,4308.526964915098,2133.0,[9],1,NA,300.00789438923476,375.6873278203723
72,6178.737167853456,2944.0,[10],1,395.5125039659715,NA,596.3258578170961
72,6040.520740016223,3470.0,[11],1,388.3979523504217,174.61009908902366,NA
72,6099.992091051203,4184.0,[12],1,205.77596235048463,321.01891832977765,526.1723534875696
72,5844.33108380583,4144.0,[13],1,NA,266.4864304032993,757.8243758802905
96,7243.660369299696,3878.0,[0],1,355.8561164165761,NA,NA
96,13318.493256425885,7960.0,[1],1,NA,162.43307671231426,NA
96,41588.41019415755,29915.0,[2],1,249.5876599443792,NA,564.0534102223864
96,13410.284005633002,6981.0,[3],1,NA,152.42696049177883,NA
96,18640.372776237222,10902.0,[4],1,NA,NA,NA
96,23677.024567480872,11560.0,[7],1,NA,137.01597056208425,NA
96,5466.926361489247,4177.0,[8],1,NA,NA,NA
96,3922.83896762143,1325.0,[10],1,NA,NA,NA
96,5975.726118272678,3436.0,[11],1,NA,NA,NA
96,4381.730741220483,1817.0,[12],1,NA,NA,NA
120,10560.584018929756,7515.0,[0],1,NA,NA,NA
120,9371.736617954648,3772.0,[1],1,NA,NA,NA
120,41549.77252418406,24064.0,[2],1,NA,NA,NA
120,13352.329873935509,7714.0,[3],1,NA,NA,NA
120,12768.311323265405,4931.0,[4],1,NA,NA,NA
120,7101.115477176618,6089.0,[5],1,NA,NA,NA
120,19597.962541334397,9643.0,[7],1,NA,136.09413983136062,NA
120,6580.55938991617,4282.0,[8],1,NA,NA,NA
120,4288.350612745222,2639.0,[10],1,NA,NA,NA
120,13455.483335696745,10943.0,[11],1,NA,154.5397450049202,NA
120,3743.215230854196,2322.0,[13],1,NA,NA,NA
120,3720.3805057553286,2375.0,[14],1,NA,NA,NA
