time(in hour),cumulative size,size,pcore_ids,pcore_power,SCA-1,CD11b,Ly6C
-1,0,0,[],0,0.0,0.0,0.0
0,6788,6788,[0],1,0.3085054259665084,0.4063927359167215,0.7692685769332204
0,30806,30806,"[2, 8]",2,0.24749673017149057,0.4662544803077969,0.5928911109353512
0,39699,39699,"[6, 7]",2,0.22235023608836552,0.16152600353861965,0.1945942773939583
24,10879.002433371108,8025.0,[0],1,0.2795254804940506,0.41842942437676856,0.7713431751227626
24,51582.327484152964,38630.0,"[2, 8]",2,0.22858125364899579,0.48858744860759534,0.5824134610735653
24,51333.37339457861,34642.0,"[6, 7]",2,0.2113964443611387,0.1609210921851799,0.18519794527528008
48,12259.057073879101,7685.0,[0],1,0.32691282904721775,0.43159394254274974,0.7535303802335143
48,52461.69713593369,30774.0,"[2, 8]",2,0.22822686015662205,0.5107988596313183,0.5445503234834542
48,5415.652046010884,3765.0,[5],1,0.3712060203766048,0.19405224809959493,0.7137990766412184
48,61399.02483519077,39816.0,"[6, 7]",2,0.20534172137314713,0.15540449244498208,0.16389364938206027
72,12751.298573907814,7597.0,[0],1,0.35185961466609456,0.4067294572687807,0.7609498500653117
72,21034.828686077577,10969.0,[2],1,0.23584793229867418,0.42533239075266815,0.502550267497365
72,61805.10994199286,35990.0,"[6, 7]",2,0.21983122888999065,0.15397037945283049,0.16875469553514552
72,39372.59784378877,27381.0,[8],1,0.23390581834360555,0.5810669246287551,0.591669661522089
96,10285.260630314442,4924.0,[0],1,0.3876887307143379,0.402439888599579,0.7571658634176247
96,71346.19421183337,45948.0,"[2, 8]",2,0.2720663972346953,0.5295035926612021,0.5554932752216708
96,6164.1628257390885,4117.0,[5],1,0.44300247396312403,0.18757823861855832,0.718158831845917
96,54411.84769729175,28426.0,"[6, 7]",2,0.24406050184869427,0.16826471079820562,0.18883333317166814
120,14195.419396990786,9871.0,[0],1,0.45673615340592716,0.4557799408019292,0.7546092146824152
120,62959.379477363,32962.0,"[2, 8]",2,0.2910227823788617,0.5536291869025075,0.5506570168927559
120,12023.79679561789,10346.0,[3],1,0.5649529766097905,0.19701813281106798,0.3355396660702263
120,9257.711211602104,6666.0,[5],1,0.544893300332641,0.1725020773962042,0.6914372807281429
120,48233.363837991856,25356.0,"[6, 7]",2,0.2794704335115229,0.16455990291945097,0.18293063027607245
