time(in hour),cumulative size,size,pcore_ids,pcore_power,SCA-1,CD11b,Ly6C
-1,0,0,[],0,0.0,0.0,0.0
0,5882,5882,[0],1,0.26039984871002386,0.45683164066766996,0.8323981510160089
0,25107,25107,"[1, 3, 7]",3,0.19765131081667264,0.1496648191892547,0.22865055158576042
0,17519,17519,"[2, 10]",2,0.2086635954158305,0.5405928379246434,0.6107216587374231
0,7996,7996,[4],1,0.2001611760936663,0.38590449070689364,0.4866075855299569
0,4859,4859,[5],1,0.4506549875014702,0.3451315793149621,0.715745492831019
0,4481,4481,[6],1,0.3995571815079349,0.4263148275120398,0.54149691173174
0,4659,4659,[8],1,0.4557189057785914,0.1750018695873022,0.28365722688228096
0,23454,23454,"[7, 9]",2,0.1689414996411843,0.13678749044533875,0.12730648610757425
0,7597,7597,[11],1,0.30677632950913364,0.14761334106044527,0.7081896704624646
24,10211.076357261174,7738.0,[0],1,0.23359706556575752,0.44424876260430624,0.8219089726472932
24,32576.193148887505,22020.0,"[1, 3, 7]",3,0.1922860202872133,0.15036288755640445,0.22575178430185916
24,31871.832149414913,24506.0,"[2, 10]",2,0.197027948197169,0.5593379184024208,0.5961116113531046
24,11898.90386818435,8537.0,[4],1,0.19261005049333169,0.39401205647172444,0.48150560858797486
24,12574.986259234847,8648.0,"[5, 6]",2,0.4119393462095927,0.3874748715850264,0.6101030126091883
24,4492.868199333528,2534.0,[8],1,0.4527507511664307,0.17625121310683273,0.28251879884430475
24,31730.192261680313,21869.0,"[7, 9]",2,0.1653797739828395,0.13814089916748043,0.12323215362059722
24,8102.145033341234,4908.0,[11],1,0.2840358097433705,0.15381919027620397,0.7042186823289458
48,15067.777294144304,8386.0,"[0, 5]",2,0.33232038246107537,0.4114753520540156,0.7614155951195266
48,19970.106573053774,12837.0,"[1, 3]",2,0.2513679146590244,0.16719066872216284,0.24813324689824576
48,32976.45470100555,19576.0,"[2, 10]",2,0.21221811855616343,0.5690832304559663,0.5658186587950478
48,15765.87280410239,10763.0,[4],1,0.20085462863852005,0.4203246495980556,0.4512617227505546
48,7426.581891834785,4528.0,[6],1,0.40628101738296907,0.41671127740668057,0.534251831122947
48,53505.10236284854,35290.0,"[3, 7, 9]",3,0.19017296211270227,0.14570163803767466,0.14213805352391184
48,5228.018381513488,3339.0,[8],1,0.4495828731621324,0.19165821792886667,0.27061497930126693
48,7844.532357201166,4438.0,[11],1,0.30332308287416043,0.16031906054025816,0.6860242588371888
72,8457.046540649699,5164.0,[0],1,0.2716790420233706,0.4339718072557222,0.818898603450045
72,21472.39551475778,13076.0,"[1, 3]",2,0.2543886052233705,0.16396182023317304,0.24679646441546
72,41835.891272926034,27971.0,"[2, 10]",2,0.21648365750880436,0.5831824629198629,0.5766697781685715
72,12083.732962157865,5455.0,[4],1,0.19852229080666234,0.41741359607413203,0.458998277039146
72,7134.17341559393,4092.0,[5],1,0.4520179369145499,0.3624197408682491,0.7221855653577987
72,6040.49304521601,2918.0,[6],1,0.42817577603162593,0.4285158971227831,0.528390079863472
72,51023.12438735119,28527.0,"[3, 7, 9]",3,0.1909309563774229,0.1445219388083412,0.1465290604365545
72,7762.110957947609,5564.0,[8],1,0.49289056327301517,0.2032256747811355,0.24679070132394623
72,9368.219569256116,6070.0,[11],1,0.3264123465116267,0.15428334191940846,0.6992853193004606
96,6205.750059833079,2650.0,[0],1,0.31620968563479884,0.45053826400416286,0.8179566997465287
96,22227.030207634878,13199.0,"[1, 3]",2,0.2700804047921542,0.16514516877937643,0.24850795087699803
96,49418.82550017383,31829.0,"[2, 10]",2,0.24476754037625348,0.593391779742768,0.5696230039643082
96,11607.58386538085,6527.0,[4],1,0.20950029927510883,0.4189139852175787,0.4563974684427526
96,9535.550425485642,6536.0,[5],1,0.48014845543109935,0.3893106000613956,0.7563067406040742
96,6989.714474043568,4450.0,[6],1,0.4392625060898984,0.455302859276233,0.5323754779859671
96,42187.581196184,20735.0,"[3, 7, 9]",3,0.2052803650675812,0.14394941602480232,0.1485939314616451
96,9621.56563966986,6358.0,[8],1,0.5058658162436587,0.19847611441999446,0.2347655201843514
96,10169.851126548583,6231.0,[11],1,0.37729936801187264,0.14646287911968883,0.6962594699885646
120,13856.401574768035,7238.0,"[0, 5]",2,0.45805579456390005,0.3915398812022309,0.7468356198721828
120,21793.3150116681,12448.0,"[1, 3]",2,0.3414872011288885,0.16641970331827602,0.2677915444078107
120,56925.05660457251,36147.0,"[2, 10]",2,0.3109715192723707,0.5642881004707,0.5679778110104041
120,8058.3878310778055,3178.0,[4],1,0.2616623154972358,0.4052884812645094,0.4805871266171708
120,5783.81292243512,2845.0,[6],1,0.47924689324409003,0.434289778235511,0.5670669533376266
120,41713.69289804807,23976.0,"[3, 7, 9]",3,0.2705662641445047,0.15791743105037712,0.18381849007420692
120,12565.370027763349,8520.0,[8],1,0.5254682640111971,0.1814141578240423,0.24809859047381225
120,8810.895677989327,4535.0,[11],1,0.42401223496307405,0.16980195107962565,0.6736174351033206
