time(in hour),cumulative size,size,pcore_ids,pcore_power,SCA-1,CD11b,Ly6C
-1,0,0,[],0,0.0,0.0,0.0
0,8172,8172,"[0, 6]",2,NA,NA,NA
0,29951,29951,"[2, 10, 11]",3,NA,NA,NA
0,4653,4653,[5],1,NA,NA,NA
0,39392,39392,"[7, 9]",2,197.67526401299963,142.7140790008129,NA
24,9101.268305359215,7010.0,[0],1,NA,360.0199902505218,NA
24,53999.49800033486,42060.0,"[2, 6, 8, 10, 11]",5,NA,NA,NA
24,6354.464571224427,3980.0,"[4, 5]",2,NA,NA,NA
24,48253.17516225024,34326.0,"[7, 9]",2,187.21976319230404,142.38814240225747,NA
48,9019.78426805885,5802.0,[0],1,274.36241676096273,373.99959473097385,742.0228797833848
48,24708.2065773937,17628.0,"[1, 7, 8]",3,218.0584590291489,NA,319.345960232093
48,7326.64249456123,5080.0,"[4, 5]",2,283.5703973109172,153.56777337626636,652.6088940706372
48,6984.426874127664,5339.0,[6],1,354.44684930256705,354.3204019460014,586.6952522191451
48,55558.073685504714,38498.0,"[7, 9]",2,178.62797064601605,135.77353750644332,185.86120821785067
48,45935.44215557442,30293.0,"[8, 10, 11]",3,196.1907010076858,453.39290783381483,521.5630049041855
72,9369.975310392078,6181.0,[0],1,283.39028494612757,NA,758.8998271413462
72,28971.72269666153,18421.0,"[2, 6, 10]",3,NA,396.3660374730273,531.4021067318282
72,7349.359295616884,4759.0,"[4, 5]",2,NA,150.2180890694541,668.9876378870714
72,54086.74532634114,34444.0,"[7, 9]",2,191.0749236842656,134.03807116796105,190.59483644043226
72,4826.9066584508355,3006.0,[8],1,NA,285.89407728402,447.9853429646938
72,45976.724664053705,31557.0,"[10, 11]",2,196.9020980893436,489.9874055779931,548.5865994926235
96,7095.786540764382,3783.0,[0],1,329.9399592001667,NA,NA
96,20239.647904462807,13828.0,"[1, 3, 7]",3,NA,173.00380901123165,NA
96,67295.4757485642,47185.0,"[2, 6, 10, 11]",4,NA,NA,NA
96,8477.390897653544,5879.0,"[4, 5]",2,NA,NA,NA
96,3839.5692151725425,2133.0,[8],1,NA,NA,NA
96,44002.55219628281,24880.0,"[7, 9]",2,NA,147.36565695719358,NA
120,10130.739390413364,7622.0,[0],1,387.4353313077019,NA,NA
120,16006.213548813195,10256.0,"[1, 7]",2,NA,NA,NA
120,13754.582592223678,12349.0,[3],1,NA,156.5623905578285,NA
120,4588.444815033544,3341.0,[4],1,NA,NA,NA
120,7814.765480216423,6065.0,[5],1,NA,NA,NA
120,4496.36029658095,3395.0,[6],1,NA,NA,611.6352803600512
120,34839.25152375329,19282.0,"[7, 9]",2,NA,145.23847011455806,NA
120,53200.64108560985,31713.0,"[10, 11]",2,NA,NA,NA
