time(in hour),cumulative size,size,pcore_ids,pcore_power,SCA-1,CD11b,Ly6C
-1,0,0,[],0,0.0,0.0,0.0
0,12435,12435,"[1, 3]",2,314.1372738238815,140.49416968234806,486.88652995576854
0,21646,21646,"[2, 5, 8]",3,183.12200868520932,407.3653792848572,543.4163817795431
0,34206,34206,"[4, 10]",2,171.67768812489285,136.1410278898442,199.4368239490146
0,4683,4683,[7],1,232.24087123638685,365.70318172111945,784.1667734358324
0,5683,5683,[9],1,373.8178778813954,333.1411226464894,628.7881400668642
24,18659.0,13073.0,"[0, 2]",2,172.68728227665173,406.6695428479568,560.3256873358689
24,13393.5,7176.0,"[1, 3]",2,300.57725762496534,139.74902004703776,479.18617239705804
24,47943.0,30840.0,"[4, 10]",2,166.7890515820909,134.68823394447602,194.18718061030756
24,30851.0,22959.0,"[2, 5]",2,168.38481734790042,460.55709701468294,549.3807980292365
24,8840.5,6499.0,[7],1,208.1784966913637,364.379616537525,775.8941801934242
24,8793.0,5862.0,[8],1,188.5531104287515,318.2503696121922,483.99448424883275
24,8624.5,5783.0,[9],1,362.0131601831915,336.12215200881167,613.6626471099772
24,6675.5,4800.0,[11],1,248.30259905625033,548.4951689012042,683.9475694704508
48,4516.0,1784.0,[0],1,243.863762178919,412.05347652790107,607.0073073516385
48,14105.75,7409.0,"[1, 3]",2,306.52044379064967,148.802385551991,449.7636779327577
48,49295.0,29473.0,"[2, 5, 8]",3,189.3269246373891,434.5903286337362,508.4198042397796
48,61149.5,37178.0,"[4, 10]",2,166.69627306846687,140.97541271801055,187.8893694960696
48,8091.25,3671.0,[7],1,241.81665379267653,361.4568824347272,757.6214120191552
48,9218.25,4906.0,[9],1,355.532801779072,334.846934071,614.21677107911
48,6719.75,3382.0,[11],1,263.271103835707,542.1863536589898,668.7641653335301
72,4855.0,2597.0,[0],1,255.00440267765057,420.343923789907,599.6732234809467
72,17421.875,10369.0,"[1, 3]",2,337.429086995513,152.59360000000015,451.30532735426044
72,51930.5,27283.0,"[2, 5, 8]",3,188.58317125774002,448.96234630900904,522.5542816841735
72,62043.75,31469.0,"[4, 10]",2,170.3565608945338,141.45964742621229,195.22705349047843
72,5138.75,2936.0,[6],1,370.3322792507864,172.7781075164188,451.30469472148064
72,8509.625,4464.0,[7],1,248.75285338660606,349.8829854429526,767.9043583001577
72,7981.125,3372.0,[9],1,386.0547385236985,337.9718241475978,621.8565521777946
72,10869.875,7510.0,[11],1,260.02414931174104,553.5345507653035,636.0941593164621
96,39454.0,22902.0,"[0, 5]",2,225.47701437116595,493.77757641810865,542.5555140163166
96,21096.9375,12386.0,"[1, 3]",2,368.69207616033987,149.33780376891252,433.8835198236702
96,21777.75,9937.0,"[2, 8]",2,181.59498800381363,387.16350116517987,483.1314099252662
96,52794.875,21773.0,"[4, 10]",2,177.3429321974936,142.4648983447739,198.60299413531993
96,6364.375,3795.0,[6],1,398.2674653834794,168.22276342924502,450.62178140037406
96,8725.8125,4471.0,[7],1,307.88087069255334,355.968856768352,773.1218224663879
96,7901.5625,3911.0,[9],1,421.4903776942799,358.7702669566931,631.8016768835273
96,16259.9375,10825.0,[11],1,286.10546627254575,555.6785619563394,611.6080089483711
120,38957.0,19230.0,"[0, 5]",2,239.51998517596226,501.8618284262133,530.6128455733169
120,29768.46875,19220.0,"[1, 3]",2,425.06844910355073,142.9064488327096,382.3033641930269
120,8575.5625,2270.0,[2],1,159.57093558003123,432.5618581871455,500.85802680581963
120,44088.4375,17691.0,"[4, 10]",2,190.0612143206497,139.0775359185734,200.54344463897047
120,11061.1875,7879.0,[6],1,462.8158369072046,160.31672684329817,455.9285338938497
120,9392.90625,5030.0,[7],1,335.88841313091405,368.1470524631292,766.5813795650321
120,6072.3125,1489.0,[8],1,214.55855471041772,339.1709037948882,442.8515855779821
120,11148.78125,7198.0,[9],1,479.4190648641532,403.17822575898106,666.4818379811678
120,18122.96875,9993.0,[11],1,307.79005233344776,558.8612154810469,595.6233853793959
