time(in hour),cumulative size,size,pcore_ids,pcore_power,SCA-1,CD11b,Ly6C
-1,0,0,[],0,0.0,0.0,0.0
0,14499,14499,[1],1,214.62238775088107,160.69039244085886,295.4502379474445
0,24913,24913,[2],1,187.09023401437258,133.72985991249618,170.050736563239
0,6343,6343,[3],1,298.5680277471209,153.18886962005402,685.4431656944647
0,7974,7974,[4],1,218.51843491346898,321.4065713569106,526.9206170052657
0,7453,7453,[5],1,279.69609553199865,352.3644170132814,724.811619482085
0,23459,23459,[7],1,218.54298989726746,438.0034102050388,592.2766528837549
24,18734.341220423754,8482.0,[1],1,207.65768633075785,159.4293975435517,296.9638797347985
24,43543.151239700455,25927.0,[2],1,181.06966614487155,135.32863997472572,170.28219783413806
24,8196.178313066272,3711.0,[3],1,278.13558416514155,153.17387541722852,684.6147810946158
24,18524.469473181533,12886.0,[4],1,207.4366302446698,345.63916393640187,527.6878686283526
24,13428.066840183339,8158.0,[5],1,261.5238038496369,360.0425949098295,729.5060262805766
24,43201.01797985522,26613.0,[7],1,202.05598048308931,462.2340022874191,587.2440501034855
48,24060.179718024297,10813.0,[1],1,216.29517117672017,157.88169191230344,283.21554387658534
48,59471.65751582362,28682.0,[2],1,170.86754315535188,132.33270780808627,157.20771780855915
48,8798.573264983279,3003.0,[3],1,280.19283142636596,153.30035639187597,679.9257040835369
48,26853.777982369855,13755.0,[4],1,200.40775523351394,367.67577645488404,493.9467081265489
48,18574.077120919857,9079.0,[5],1,288.9418759042376,361.2621591803009,719.6026964190771
48,48815.73276771759,18268.0,[7],1,204.82763504738082,482.23184296018815,568.1818491585863
72,24940.116235182017,7927.0,[1],1,233.32172286067404,155.43049356132735,279.68642574899803
72,69718.81231784279,27666.0,[2],1,176.67507970973452,131.6209961112168,164.01932666017564
72,9794.53082043634,3573.0,[3],1,293.53905655037556,154.46762277976381,685.8284328991801
72,29706.48851181173,10718.0,[4],1,211.73193712978482,355.5268827241473,497.19374899646766
72,21221.855886484336,8088.0,[5],1,302.5617077055921,346.16732745758173,723.7928761959142
72,63676.93566864346,29159.0,[7],1,207.46794724029476,497.34660438859737,572.8360533421175
96,6689.2850262916545,2466.0,[0],1,270.82368517876705,212.7971739057726,388.02037568668993
96,25425.32531347791,7790.0,[1],1,248.2749544999083,167.30198198618768,288.02231686552034
96,71197.64496621884,21899.0,[2],1,190.17634692008482,141.76429237478172,181.6037813996943
96,11177.779161671175,4252.0,[3],1,316.0693756688044,162.87266161454468,678.8747710345892
96,27931.65947194235,6926.0,[4],1,218.25409180598888,362.3391815223528,495.83711977121266
96,18881.118206696727,3875.0,[5],1,319.12732522976256,345.1704906340373,716.6122953757039
96,85674.39301647735,40648.0,[7],1,238.4186874464875,485.321461998732,565.1919268628529
120,7178.038803380462,2448.0,[0],1,284.05760899617997,208.8018650885751,387.7143199880254
120,29604.419943034216,11626.0,[1],1,290.75713727545735,160.38656722834563,269.14650518085443
120,64030.337560125605,13686.0,[2],1,193.7451476598471,140.05652212698985,177.60815429565127
120,14193.883443823372,6290.0,[3],1,361.5940292705238,154.73323719185416,677.9079947564943
120,21444.6658224039,1694.0,[4],1,217.7647658539666,364.3564862851965,494.1624804371309
120,24000.966720340042,10650.0,[5],1,371.12635513739156,375.3317871843985,718.9247461571845
120,16894.051060141068,12670.0,[6],1,506.7539302913086,174.84230680680736,416.03746538245474
120,91516.94427599253,30936.0,[7],1,250.20188774547574,497.23821971211095,554.7946014608956
