time(in hour),cumulative size,size,pcore_ids,pcore_power,SCA-1,CD11b,Ly6C
-1,0,0,[],0,0.0,0.0,0.0
0,34430,34430,"[2, 8]",2,0.20330166728127982,0.15397626241452642,0.17002730435918792
0,13018,13018,[3],1,0.22384572096371336,0.5471633776831131,0.6230545610822926
0,7157,7157,[6],1,0.33709874672866574,0.16638016004329595,0.7313112242659305
0,9005,9005,[9],1,0.2399851518195264,0.437391620040149,0.5537268951052912
24,9056.752243324958,6944.0,[0],1,0.2516523908336153,0.458659130678317,0.8030940386933485
24,52981.17961057811,35496.0,"[2, 6, 8]",3,0.21080151292431207,0.15643294960445966,0.24125806531320865
24,23033.394766886428,17560.0,[3],1,0.20821768094520818,0.5740338655209577,0.610418042397755
24,24460.712188076606,18183.0,"[5, 9]",2,0.2093444049655369,0.4185814901688299,0.5372028079525768
24,8608.097652184844,6040.0,[7],1,0.38661517002722334,0.38392290058849154,0.6454003285002111
48,8227.895247626497,4420.0,[0],1,0.2940235727101857,0.4479683927705043,0.7796397221123313
48,64019.842005224156,41744.0,"[2, 6, 8]",3,0.20888785873802962,0.16429783748206656,0.2141607303735867
48,24035.349545299232,14351.0,[3],1,0.2327136034881966,0.5730921133148941,0.582251975463153
48,29506.46259675323,19222.0,"[5, 9]",2,0.2248493245877521,0.43609443059915515,0.502764128762323
48,8479.259228938075,4860.0,[7],1,0.37603200888556193,0.37662069040863677,0.6449611925553475
72,8149.403809406098,4690.0,[0],1,0.30554315877948895,0.4280457686746643,0.7926163027821268
72,27088.867282869458,16028.0,"[1, 2]",2,0.23261541238496036,0.17975335315255067,0.2635781239031904
72,35776.61963600606,25671.0,[3],1,0.2363798948582405,0.578698187569065,0.5881287827668318
72,23680.9393122138,11275.0,"[5, 9]",2,0.22257428767215245,0.4375225031928359,0.5109069642858433
72,8449.945605370642,5778.0,[6],1,0.34316955243909625,0.1755270123583097,0.7191350806209463
72,6827.089344810502,3262.0,[7],1,0.4196678899879278,0.38055374527003355,0.6444122621094907
72,35395.00157201836,19583.0,[8],1,0.19449213038224586,0.15562910141811137,0.12158020171517883
96,8599.402224892277,5173.0,[0],1,0.3740159693580232,0.434260133985612,0.80075001770426
96,9227.27407986077,6222.0,[1],1,0.3256116243259753,0.1980248705979278,0.3167329903690616
96,16249.191615863509,7865.0,[2],1,0.21437216660936548,0.1725421974771255,0.24460115802976584
96,44690.21560090657,29648.0,[3],1,0.2665747982451918,0.5864875676704605,0.5738129021637186
96,7110.184842179544,4978.0,[4],1,0.5146134474118618,0.1910636523976698,0.2638968969031365
96,22683.608488740676,12727.0,"[5, 9]",2,0.2315794719489748,0.4446648012489597,0.5004090128638924
96,9905.764484322526,6353.0,[6],1,0.39643101646669937,0.16642302718033813,0.717139963256527
96,7055.437478333991,4185.0,[7],1,0.46642137422017454,0.4135056412824636,0.64175291361449
96,27730.764969904914,12849.0,[8],1,0.20223892530607648,0.1561030087062646,0.11949515756431911
120,11059.603252118366,7444.0,[0],1,0.41887132412625055,0.45363560149024723,0.7916170533272489
120,10760.59084815922,6881.0,[1],1,0.363972066199399,0.18839041051450495,0.3229866462919543
120,12906.943490275167,6075.0,[2],1,0.2231797495645561,0.1677927139310738,0.24468882277401596
120,55467.99230006397,30304.0,"[3, 9]",2,0.28004602470420664,0.5747054395401548,0.5493715350457611
120,28702.325395397223,21548.0,"[4, 6]",2,0.522869501708334,0.16452362463707657,0.4369419431686191
120,9275.44604178888,6309.0,[7],1,0.5394358609646625,0.460861675378747,0.6521805476772917
120,22087.350427718164,10428.0,[8],1,0.2178806360994556,0.15298296757762073,0.11609351076010109
