time(in hour),cumulative size,size,pcore_ids,pcore_power,SCA-1,CD11b,Ly6C
-1,0,0,[],0,0.0,0.0,0.0
0,4050,4050,[0],1,0.3385551394090702,0.504014021563042,0.8308268030465493
0,13876,13876,"[1, 13]",2,0.22737132418434927,0.12734388553301487,0.22867887769560627
0,7893,7893,[2],1,0.23915686919287163,0.6028884348523492,0.6269184417305271
0,3046,3046,[3],1,0.46603834832198093,0.12407526523918311,0.699533288390193
0,22828,22828,"[4, 7, 12]",3,0.17943502263138575,0.1519000144301633,0.24705466619159908
0,15438,15438,"[5, 10]",2,0.19907393255515923,0.4450399759892005,0.5524244401991896
0,4542,4542,[6],1,0.2417001865237821,0.2703540210922289,0.28736004173862567
0,3292,3292,[8],1,0.4459585375510232,0.14218412385984405,0.18993267068441594
0,3263,3263,[9],1,0.23602805717493072,0.1875595425468331,0.536296138045044
0,4462,4462,[11],1,0.4137966548985386,0.3784608488777022,0.6897248629605701
24,7223.782463805517,4360.0,[0],1,0.3192451145352003,0.49461836560594286,0.8215670578917882
24,45621.586373673366,25614.0,"[1, 4, 7, 13]",4,0.21896511385429893,0.14266366950017811,0.2535689519992758
24,18375.19382390542,12794.0,[2],1,0.21892741316497208,0.6156629793422952,0.613518798211075
24,3265.847255494224,1112.0,[3],1,0.46004859800733544,0.12471434245870977,0.6890375577163721
24,29131.31448795792,18215.0,"[5, 10]",2,0.18921141549966203,0.45364609972552694,0.5426410680009587
24,6473.679000149299,3262.0,[6],1,0.22795877779581247,0.29105444478116754,0.2822767758473523
24,4087.7955236661146,1760.0,[8],1,0.448073780773269,0.14241249727314823,0.1770533889761614
24,5218.289427011705,2911.0,[9],1,0.22541539906122746,0.18792861681513273,0.5362748116603431
24,7617.110457654375,4462.0,[11],1,0.4053610339978036,0.3806804884527076,0.6731597659436841
24,30243.038331067535,17414.0,"[4, 12]",2,0.15903228362615338,0.13885074982912812,0.10559845421933349
24,5265.950719150443,3460.0,[14],1,0.11899776869872725,0.47477595526630506,0.7826875781599797
24,3137.986686332264,1617.0,[15],1,0.4301494795495897,0.20927140484945772,0.40703093169304255
24,4640.255805678075,2794.0,[16],1,0.42376567406443405,0.4355884734224079,0.49407072188608164
48,9143.985565973348,4036.0,[0],1,0.33146322473975226,0.48866283068053984,0.8043577842876143
48,28713.938228488063,13285.0,"[1, 13]",2,0.22990841740846138,0.13476717027519475,0.224584235408649
48,23191.224158500692,10198.0,[2],1,0.2301317499309635,0.6188428928080354,0.5931193153251113
48,3882.3027406794413,1573.0,[3],1,0.4476696839795876,0.1293180488258384,0.6833531032470916
48,50618.483566308205,24182.0,"[4, 7, 12]",3,0.1715963279718549,0.15347015514824083,0.20009741405370388
48,39219.950019312964,18621.0,"[5, 10]",2,0.19434901713027686,0.4653337775446254,0.5171262546120547
48,8821.582320230518,4244.0,[6],1,0.22626492677437135,0.311054781818438,0.28113215851437573
48,5265.507934888325,2375.0,[8],1,0.4482355385687453,0.15205455262736722,0.1638181995753971
48,5786.88784003404,2097.0,[9],1,0.23259289584203885,0.18401915107059838,0.5401343711689671
48,9715.110457654375,4329.0,[11],1,0.3998299715664628,0.38127633246295667,0.6768953025256771
48,4050.589462905455,327.0,[14],1,0.12333534777661893,0.4721888965101267,0.7801560989966723
48,4022.8916651786476,1804.0,[15],1,0.42469898732059186,0.21538836544958348,0.4028248100200476
48,6210.1563466352145,2929.0,[16],1,0.42043032645559697,0.4385092914983008,0.4944592004487152
72,10552.774200771666,4087.0,[0],1,0.3400465923065324,0.48759548999204627,0.8101863303268902
72,34533.82043593555,14230.0,"[1, 13]",2,0.2299392898000032,0.1374112645903775,0.22470442888513334
72,34702.671866493125,18304.0,[2],1,0.22947156438358277,0.6233556481376528,0.5939535276765918
72,5849.2025945535515,3104.0,[3],1,0.4975796154972956,0.13696528960514445,0.6790219067408219
72,46132.41755814898,15579.0,"[4, 12]",2,0.1559032033093305,0.1435422306668463,0.10243875612826564
72,41904.69261645366,14172.0,"[5, 10]",2,0.19502669991488158,0.4707096670856173,0.5199318701527246
72,8586.800679430358,2349.0,[6],1,0.22682383023610933,0.3069779375647681,0.2856246368727348
72,9576.255424967367,4337.0,[7],1,0.26549417440252704,0.21493191597859818,0.781913552706385
72,7642.276367151108,3919.0,[8],1,0.4786066268467647,0.16925744384213967,0.1632252657999184
72,5793.947633654043,1702.0,[9],1,0.23528457198217262,0.18038778210278333,0.5436186897699712
72,9500.620484583753,2631.0,[11],1,0.40779327603646237,0.3907307019618257,0.6780123830320076
72,4106.199277023223,1242.0,[14],1,0.1273488937099541,0.4621939630248597,0.7857385160889402
72,5257.6139764266645,2413.0,[15],1,0.4367128523983477,0.2140493896006334,0.3956284152567298
72,6322.243664934436,1931.0,[16],1,0.44476293497508745,0.44972550504495107,0.484319118995045
96,12765.938197696094,5304.0,[0],1,0.3809209571905264,0.4968352460318811,0.8113560101469229
96,36024.09861052861,11605.0,"[1, 13]",2,0.238947196878831,0.13883569978417612,0.22520947258962995
96,46419.49460208892,21881.0,[2],1,0.2481382447447065,0.6248683842912375,0.5847812468524332
96,6323.010819142764,2187.0,[3],1,0.5100772367493918,0.13782151543854304,0.6841071301952268
96,42537.5452878965,9917.0,"[4, 12]",2,0.1597963947961704,0.1436736998706295,0.10026201122134004
96,44890.09231263223,15259.0,"[5, 10]",2,0.20633006126196135,0.478353348829266,0.5178510868697861
96,9207.784989122461,3136.0,[6],1,0.22868639884747155,0.3090462486064578,0.2929997099899272
96,10388.435149368888,3617.0,[7],1,0.3036108622416406,0.20663787240794781,0.7801894509966268
96,10202.905442914242,4799.0,[8],1,0.4907834237964041,0.1725975267054653,0.15960609392796585
96,5965.939661596524,1869.0,[9],1,0.2484249509410256,0.17572007592111663,0.5448890879198821
96,10819.953170128996,4102.0,[11],1,0.42993822055052633,0.39398259498600047,0.6873874671340131
96,2969.52135368642,66.0,[14],1,0.12850049078872966,0.4619912075785094,0.7846078192269843
96,7255.694495592464,3538.0,[15],1,0.457188027269358,0.2040620463501996,0.4064544817669255
96,7190.501367788831,2720.0,[16],1,0.4585913978077526,0.47088731829122316,0.48406582961848266
120,15706.881467799281,6680.0,[0],1,0.4258871297877951,0.5161785309370815,0.807148598293137
120,36926.884413637665,11454.0,"[1, 13]",2,0.2537466496903033,0.13819302374321474,0.22606301412689608
120,51670.539412389415,18847.0,[2],1,0.26308178427939305,0.6270701674981344,0.5751902379235855
120,5404.043827731755,933.0,[3],1,0.5172574954097173,0.1359506759966664,0.6824039567874901
120,37310.58672810149,7232.0,"[4, 12]",2,0.1674080760363617,0.142518949963495,0.09692735969399235
120,22092.65639733255,3337.0,[5],1,0.16618913298247967,0.48397731617619366,0.4866575437187685
120,8238.887205516194,1728.0,[6],1,0.23601756964781714,0.3116855894769999,0.29333389274322663
120,11184.732940035427,3839.0,[7],1,0.3450496451400692,0.1964476335817313,0.772249770643366
120,18516.543626489794,11302.0,[8],1,0.5308919546978288,0.16681986555787204,0.17115283019340144
120,6360.556390864679,2142.0,[9],1,0.2835882308497552,0.16563923169171363,0.543864909956264
120,17989.432285019815,5003.0,[10],1,0.27377640352683896,0.49409446996990675,0.5502998954675306
120,13841.862258719095,6191.0,[11],1,0.4794967031616889,0.37186485065919506,0.6981284233777737
120,11049.550780051337,5919.0,[15],1,0.5113794234053581,0.18338795644915032,0.44117053682888313
120,10192.452277294627,5108.0,[16],1,0.4823206195536806,0.5025587335052354,0.49726982098623446
