time(in hour),cumulative size,size,pcore_ids,pcore_power,SCA-1,CD11b,Ly6C
-1,0,0,[],0,0.0,0.0,0.0
0,39493,39493,"[1, 8]",2,192.48000911554223,141.17947484364365,213.43263363127534
0,14220,14220,[2],1,212.91434599156136,472.4125175808735,597.15400843882
0,5189,5189,[3],1,312.6862593948709,137.78878396608232,693.616496434765
0,11538,11538,[4],1,199.1980412549849,359.7748309932397,524.3740682960636
0,4199,4199,[7],1,354.49940462014314,317.7358894975002,612.7277923315071
0,4123,4123,[9],1,282.8011156924552,328.6090225563915,759.1317002182877
24,50957.76106380748,34353.0,"[1, 8]",2,183.9576615068574,140.6594853709798,205.2992255991549
24,25859.77351245391,19881.0,[2],1,191.91199218530585,490.37627653456315,581.3005887801079
24,4647.705749375762,2466.0,[3],1,294.4683858388434,136.42829739457173,694.713321420415
24,18556.131419598678,13705.0,[4],1,191.11558311712446,370.25319724539395,518.1579770543422
24,6626.462023825174,4861.0,[7],1,338.78730886162134,327.027098129088,602.3765976401555
24,5994.507960045532,4261.0,[9],1,248.18400360441316,322.2907316532462,755.8448291754192
24,6028.367033261915,4746.0,[10],1,196.98528959596575,452.5933610176005,737.7657662566892
48,61806.09930395551,40381.0,"[1, 8]",2,180.7360971054373,139.68981280726055,189.87526195065956
48,25751.695422947727,14879.0,[2],1,201.0268665428852,510.43337852179474,554.6419766311187
48,22912.892195858672,15111.0,[4],1,182.66306761505197,390.2893817872931,475.7013904762408
48,4398.050847234788,3050.0,[6],1,246.75895535737314,151.65126397791212,562.68367591208
48,8557.08408082473,5771.0,[7],1,367.04932408494744,336.485766050606,582.9110479963729
48,7328.3801274060725,4808.0,[9],1,282.92337386686626,316.0741002835878,745.007381158988
48,5315.616114051807,2781.0,[10],1,244.90690473296235,464.6771649703062,730.4722380695478
72,61684.263672755646,35698.0,"[1, 8]",2,191.7671083393561,143.15920758745582,203.9377772055589
72,38496.254183931116,27669.0,[2],1,210.9334051843548,500.55030915868684,562.5203314223199
72,19623.684455296185,9990.0,[4],1,197.47771443573134,376.1871919214985,490.2798509989841
72,5709.810664295072,2112.0,[7],1,394.0603471468877,324.26996030856156,580.1039263051827
72,7441.204289376163,4360.0,[9],1,290.9302888262541,282.2469041137654,740.0104505000232
72,5529.941267585522,3295.0,[10],1,270.37222924378995,452.7818743344485,713.5695224861013
96,15767.465669582602,9253.0,[1],1,242.68156037832244,170.45087146370398,294.1133630393595
96,49763.681071981744,33578.0,[2],1,239.26740480709594,505.0093787911911,552.8625111375961
96,5405.28350004106,4009.0,[3],1,394.22651964666466,137.35042874198686,688.3253580770098
96,16615.7429562643,8365.0,[4],1,205.2423939378587,380.1623460720245,481.37029131235386
96,7149.864810956655,5808.0,[5],1,420.45625726527595,172.50330326210238,279.06981876323835
96,4520.679659691577,2120.0,[7],1,417.6957453816484,331.4130641284971,580.6739017130805
96,35496.57243040997,16076.0,[8],1,183.65967874733892,138.15066929645013,172.9606901962638
96,7288.641006053489,4160.0,[9],1,334.68110577798944,291.04976308753794,748.1153257258483
96,5602.053894238124,3277.0,[10],1,330.0487712906154,462.8563575278475,713.2344087541733
120,14306.40267959401,7677.0,[1],1,264.8114184611783,164.39418886029398,298.27134134313604
120,48449.05051162929,27526.0,[2],1,255.51563685636916,514.618521477732,540.6621176245792
120,8511.64175930729,6239.0,[3],1,487.94131245408676,126.91562339739653,656.8528270873754
120,9627.059344349904,2641.0,[4],1,205.0141661570488,389.4072505480742,477.0465473873362
120,16553.147844541065,13547.0,[5],1,475.35808568862507,155.57291322851466,245.18261857305862
120,4193.250020987141,2714.0,[6],1,316.14049818827715,146.25162765888794,542.3762720727786
120,5113.711660172515,3213.0,[7],1,474.9401872942946,327.97638716805534,558.0272892522962
120,28025.470255262786,13101.0,[8],1,193.2609288345004,137.31710903002124,170.6688106425494
120,7773.496047030803,4709.0,[9],1,361.38024753296446,297.22995091166905,742.0569102383926
120,9581.373518861474,7226.0,[10],1,415.0255835452688,483.57791275298644,715.2470807687206
