time(in hour),cumulative size,size,pcore_ids,pcore_power,SCA-1,CD11b,Ly6C
-1,0,0,[],0,0.0,0.0,0.0
0,15196,15196,"[1, 3]",2,207.07034745985845,155.08804948670718,289.6171360884447
0,5420,5420,[2],1,308.5691881918793,139.30701107011083,690.9147601476011
0,17684,17684,"[4, 8, 12]",3,200.5658222121703,376.16478172359274,539.7227437231395
0,4577,4577,[6],1,252.91916102250366,341.03976403757974,769.6681232248196
0,4902,4902,[9],1,349.2401060791474,320.0591595267238,632.1299469604235
0,24100,24100,[10],1,183.61294605809417,131.73506224066463,164.0798755186712
0,9990,9990,[11],1,219.49689689689728,496.767567567569,637.1475475475462
24,17651.130963097723,11262.0,"[1, 3]",2,198.72242610564234,154.0909114927683,289.45566277356016
24,5191.829285337566,2913.0,[2],1,282.991489484032,141.1972266787949,691.942780022043
24,29782.206103673343,22347.0,"[4, 8, 12]",3,192.0554241545845,391.14767524295075,531.3068408478293
24,8055.3914463081255,6131.0,[6],1,223.0561335293797,353.26861813389434,763.5032752689647
24,6769.037113786854,4708.0,[9],1,336.32890202581996,325.34624487528754,621.0787754227003
24,33292.80180380726,23160.0,[10],1,176.9986084603455,133.3761664898107,160.19426331412382
24,18528.277594192303,14328.0,[11],1,197.00621816973123,513.534387381906,617.766303962667
48,22564.38637602136,15143.0,"[1, 3]",2,207.42757315502058,155.77893999176138,273.43953473189276
48,5072.8953173248065,2890.0,[2],1,291.9559156246283,143.95462931048607,681.3597439242227
48,35097.87517546311,22576.0,"[4, 8, 12]",3,189.30918224586418,410.45121086520834,492.7622784714041
48,7643.874895332969,4257.0,[6],1,264.105737802338,356.431476361567,753.3427946379433
48,7857.029521851358,5011.0,[9],1,355.2465949701066,326.6852963451424,615.1269403795608
48,39344.89884528697,25347.0,[10],1,165.59174907536956,130.03523295395024,142.8902159736978
48,17409.181104891013,9619.0,[11],1,217.31223861350963,530.507369970414,597.7541577440784
72,22345.15580799806,12858.0,"[1, 3]",2,225.02289751754023,158.32747400402087,279.6999279741384
72,4776.889743647892,2644.0,[2],1,309.13038761188125,156.77049138569544,685.5863093565137
72,31727.838709034633,16971.0,"[4, 8, 12]",3,200.57616047856993,395.9840893003625,509.0264613801106
72,7106.853499066678,3893.0,[6],1,271.20611812425193,331.6696408321442,757.8458423620431
72,5162.473979733707,1859.0,[9],1,386.52434679693437,313.714583820781,614.0809337194204
72,40689.49219876091,24147.0,[10],1,178.99838075345556,133.0978229035192,163.01002850131732
72,30136.658991802775,22817.0,[11],1,221.9326795055621,517.364749857062,588.9657709053521
96,5055.896432195621,3429.0,[0],1,367.2486257756498,425.7558069235047,678.9707240759186
96,12457.148818420044,8635.0,[1],1,298.1552442320859,159.5255643034351,255.8854682167526
96,6219.434730747874,4211.0,[2],1,358.29111539551093,144.33872827981142,693.8658481778056
96,11204.831890195597,5632.0,[3],1,191.18408502469765,168.31398163961077,291.6728337826049
96,27179.91291708763,13840.0,"[4, 8, 12]",3,214.5861001034021,399.17895619886497,501.35166764044476
96,6761.063815549243,3773.0,[6],1,322.44469917719937,321.85349995989816,757.5609222245407
96,4633.262713238582,3569.0,[7],1,447.56121679424797,185.27762245320866,324.5585424192064
96,30604.824064216016,13497.0,[10],1,182.59241726024405,137.74025064540305,163.8248884484085
96,42677.90425696529,30007.0,[11],1,247.81727026299848,514.9798612189496,565.2555886652658
120,9117.742592863671,6992.0,[0],1,437.55732357530064,468.16108367407526,701.1395553631055
120,14414.585892845731,9177.0,[1],1,327.60064952068115,151.42626096718274,243.3666249307509
120,7184.9501849951685,4570.0,[2],1,415.4863070199021,122.49807744740147,681.3413457309416
120,8683.05148499299,3972.0,[3],1,198.60115659144097,164.00108137208807,291.0400498132826
120,12568.969855052852,4908.0,[4],1,202.13066215784767,440.3822163495399,498.10280080776784
120,7451.67716289848,4609.0,[6],1,353.0126339538666,323.67499844783737,748.3803996337992
120,12495.047003245512,10547.0,[7],1,498.52755940230054,159.64225798192763,268.3994942209006
120,6025.117182090068,4407.0,[9],1,522.6355320513335,240.91789831732856,594.4577480583011
120,23208.743422534935,10341.0,[10],1,190.59111885869328,136.59689137596695,159.62068963985672
120,42117.84835011167,24174.0,[11],1,265.1291068649343,523.2045177116922,550.8230945040859
