time(in hour),cumulative size,size,pcore_ids,pcore_power,SCA-1,CD11b,Ly6C
-1,0,0,[],0,0.0,0.0,0.0
0,5927,5927,[0],1,0.2564032811187805,0.42994155131780515,0.8323321645724537
0,20696,20696,"[1, 8]",2,0.18230901699509147,0.1588531327014473,0.22960899451859215
0,9218,9218,[2],1,0.24393394945404978,0.5975356596232663,0.6487575630327211
0,5217,5217,[3],1,0.38631074296864004,0.14421786762212294,0.7384285911272602
0,18268,18268,"[4, 10]",2,0.21568980448404998,0.44435643713954287,0.5412917326438371
0,7946,7946,[5],1,0.3962591594385662,0.1609520940556901,0.2619035673423669
0,5696,5696,[7],1,0.4377686687286906,0.38456672778229684,0.6679983687220018
0,28143,28143,"[8, 9]",2,0.176100908402396,0.13476426871618685,0.14673877216477982
24,11946.215285310564,8422.0,[0],1,0.23645353691038698,0.41742329378388326,0.8225377515056453
24,31176.915226048157,18871.0,"[1, 8]",2,0.180018263476477,0.16295625847116266,0.23152212626902566
24,19316.055593047542,13835.0,[2],1,0.22440502987222197,0.6108936084498711,0.6312258054822528
24,21204.6927653124,14692.0,[4],1,0.15466766812582045,0.46200677685689623,0.5366948323925785
24,9227.719867905811,4503.0,[5],1,0.3971876094869929,0.15635250166140585,0.2555236805307973
24,6623.171058465453,4240.0,[6],1,0.24296757497442084,0.16357311189882257,0.6339186950738106
24,9394.861863527749,6008.0,[7],1,0.4265780426217463,0.371417080719341,0.6525581051279581
24,42456.92791876079,25723.0,"[8, 9]",2,0.17403703582371338,0.13399792124606774,0.14156313068393644
24,10947.525023122453,6598.0,[10],1,0.3055224887221196,0.4307139372165498,0.5190710948801646
48,11807.262107322793,4704.0,[0],1,0.2695270769133457,0.4240764093597255,0.8063621727585502
48,11626.595577309381,6219.0,[1],1,0.23058910544944403,0.25081265658005036,0.2854836360238876
48,21776.39537252012,10291.0,[2],1,0.23835078544049149,0.6151815749856802,0.6076272574530114
48,4660.976371570389,2694.0,[3],1,0.3870104554341542,0.1624872310431674,0.7295999587757768
48,40380.823078561894,21263.0,"[4, 10]",2,0.21066258169821847,0.4648684908179757,0.5032085292183831
48,11217.83506108278,5731.0,[5],1,0.396838932275053,0.16245656323764154,0.24255666045809676
48,6671.16107330361,2733.0,[6],1,0.25135045608981826,0.16698075945427973,0.6219832312498021
48,11058.218286287462,5472.0,[7],1,0.422806767044397,0.38466591027243063,0.6476160934095138
48,56138.040381074,30893.0,"[8, 9]",2,0.171981203155146,0.13854768216843638,0.13444523256733426
72,12994.640053365143,5974.0,[0],1,0.27769909499886425,0.41565818884081485,0.8174534818412283
72,12309.215091897742,5396.0,[1],1,0.23675363440364586,0.2391715027877999,0.29041911754119176
72,32249.322158056628,19301.0,[2],1,0.2375858334262037,0.6191915962139243,0.6040128896357528
72,5097.433131965537,2326.0,[3],1,0.4177662249272043,0.15739380494384192,0.7278591693755339
72,38996.58105734594,14986.0,"[4, 10]",2,0.20687035614043273,0.4706933147193914,0.5063973602228976
72,14169.164634783312,7499.0,[5],1,0.43236617588457066,0.17604420707975219,0.23443303386945813
72,8063.696106850921,4097.0,[6],1,0.2691496503870364,0.16097916195844963,0.6476078217831852
72,11584.255932653123,5009.0,[7],1,0.45526996793156665,0.3865120415543767,0.6499914188535251
72,58791.87852174163,25412.0,"[8, 9]",2,0.17294314069280825,0.13885059611452935,0.13849375206087672
96,13222.659204180583,5496.0,[0],1,0.3395469220925085,0.4145898743900539,0.8099885296479348
96,13920.103083691833,6601.0,[1],1,0.24757077959647664,0.23307118751042571,0.2978735411437404
96,43709.56168218792,24534.0,[2],1,0.2648602903207392,0.6188806944073059,0.5942754946276214
96,6598.951874392011,3568.0,[3],1,0.4435944664702705,0.17384906300049785,0.7363377106590949
96,22595.494194042752,7891.0,[4],1,0.1569222286580205,0.488433164862497,0.5094465278723785
96,17657.035698664622,9232.0,[5],1,0.45340187263696513,0.1771282566498987,0.23473666493908613
96,7977.702391743428,3183.0,[6],1,0.30949088585557216,0.1570843047233117,0.651176167302883
96,10059.039788561788,3171.0,[7],1,0.4688820350697351,0.39858458446968775,0.6631914079241302
96,51597.8601212154,16640.0,"[8, 9]",2,0.1794699609583247,0.13860369137041947,0.13785385918047877
96,18167.01163304531,9684.0,[10],1,0.3134255707420502,0.4608229985515186,0.5010796935934866
120,11418.240202433884,3556.0,[0],1,0.36242804489628966,0.4068028647724711,0.7824938731414569
120,41720.88057207466,17216.0,"[1, 8]",2,0.23663331520158132,0.18165680651086888,0.25422341476891747
120,55285.86087305409,29296.0,[2],1,0.3128716335188947,0.5900235768212136,0.5844750530727865
120,9520.76026029376,5597.0,[3],1,0.5061271905658061,0.17733877516947358,0.7010165404440545
120,19200.36123127916,5765.0,[4],1,0.19128181062357563,0.4741552118196549,0.4977511749124227
120,20382.936241354502,9884.0,[5],1,0.49766143981206973,0.17598802128042026,0.2336025225642681
120,6563.570222817755,1820.0,[6],1,0.3261991574002722,0.17354896785248897,0.6396262374072045
120,10292.140843326571,4311.0,[7],1,0.5075342064511779,0.40996077357324046,0.6698045249844815
120,49030.27118753226,18350.0,"[8, 9]",2,0.21412063274217324,0.15950556947998223,0.16687417366121615
120,14617.169746177342,3815.0,[10],1,0.3457338501916974,0.445345157622634,0.5124452754540184
