time(in hour),cumulative size,size,pcore_ids,pcore_power,SCA-1,CD11b,Ly6C
-1,0,0,[],0,0.0,0.0,0.0
0,5676,5676,[0],1,261.76409443269904,385.89922480620123,740.9029245947842
0,29699,29699,"[2, 9]",2,219.56079329270347,412.77383076871195,576.3766456783063
0,7689,7689,"[4, 5]",2,292.4215112498351,200.1150994927822,693.04018728053
0,39748,39748,"[6, 8]",2,197.9244490288842,143.20290329073222,217.9327261749008
24,10101.0,7263.0,[0],1,232.9229284229284,391.099297099297,742.2934857934841
24,50188.5,35339.0,"[2, 9]",2,201.57065861701543,435.44806081074523,566.0445918885756
24,4519.0,3319.0,[3],1,221.27981854392678,287.73113520690407,473.90783359150316
24,5253.5,3114.0,[4],1,234.32663938326914,159.57295136575647,702.8836014085837
24,5236.0,3531.0,[5],1,323.04497708173756,291.38770053476003,653.3592436974776
24,54226.0,34352.0,"[6, 8]",2,188.2787869287828,142.4433943126909,209.02094936008433
48,19495.5,11827.0,"[0, 5]",2,301.00202610858634,360.42348234207867,690.3991049216493
48,49379.25,24285.0,"[2, 9]",2,200.40880531802503,460.28725628679865,543.6531437800238
48,10250.5,7991.0,[3],1,207.9154919272243,344.32920345349027,425.3035217794237
48,4319.75,1693.0,[4],1,243.93321372764586,162.0425371838652,700.7772440534727
48,67688.0,40575.0,"[6, 8]",2,184.41832747311614,139.50828433400227,192.86022633258426
48,4222.5,2978.0,[7],1,330.6325636471242,134.703256364713,552.6460627590293
72,13540.75,8130.0,[0],1,290.1519949042688,378.71454683086023,744.4904547384763
72,58049.625,33360.0,"[2, 9]",2,199.20971496370709,480.07029761174357,546.8659315197903
72,7860.25,2735.0,[3],1,224.0065996628617,331.977386215451,411.08818103749826
72,7075.875,4916.0,[4],1,266.6518628438174,156.84344692352548,703.3625170031961
72,7917.0,3580.0,[5],1,396.6905235569009,300.08702791461474,614.843217127701
72,68412.0,34568.0,"[6, 8]",2,192.3038191399194,136.542585730574,192.6951338946386
96,9939.375,3169.0,[0],1,313.4848833553378,369.1342262466192,733.8646104508585
96,20683.0625,12099.0,"[1, 6]",2,286.9250111051008,171.80061282027322,299.66677444406486
96,75322.8125,46298.0,"[2, 9]",2,240.58204976082112,470.8371500997796,547.3286612206452
96,6635.125,2705.0,[3],1,231.32645391006267,330.86258736647835,427.6725664550403
96,7158.9375,3621.0,[4],1,303.42597976305547,169.92176737120536,694.2103664126129
96,5258.5,1300.0,[5],1,408.0474351050673,300.26899305885723,617.9187743653141
96,61225.0,27019.0,"[6, 8]",2,208.25447835851682,147.59600959575337,209.92819518170677
120,19182.9375,11584.0,"[0, 5]",2,403.4400688111485,382.1888592401452,698.5679184301143
120,15714.1875,13025.0,[1],1,463.53813432925085,163.2859597417928,255.68094118769966
120,69515.40625,31854.0,"[2, 9]",2,255.75112441351862,489.9014768758578,541.6340361601335
120,4539.5625,1222.0,[3],1,236.30250024093718,329.64989742954316,427.0560144837743
120,7615.46875,4036.0,[4],1,331.1000143622119,169.49155706928735,692.5755308890205
120,51893.5,21281.0,"[6, 8]",2,221.35237011860872,147.01291768236834,213.9381208629205
120,8726.8125,6998.0,[7],1,498.44353250399536,136.47457906308824,568.4635426738008
