time(in hour),cumulative size,size,pcore_ids,pcore_power,SCA-1,CD11b,Ly6C
-1,0,0,[],0,0.0,0.0,0.0
0,20273,20273,"[0, 3]",2,204.47585458491722,452.5833867705838,584.2649829822913
0,36047,36047,"[1, 10]",2,181.94421172358466,137.26937054401247,202.4744361527997
0,4846,4846,[2],1,237.32377218324316,163.13743293437855,717.9288072637232
0,3217,3217,[4],1,239.8784581908613,178.19894311470273,411.6717438607408
0,19859,19859,"[3, 5, 7]",3,202.6407170552405,375.2069087063815,549.5422226698224
0,4945,4945,[6],1,335.50778564205933,349.93306370070735,716.0604651162785
0,2780,2780,[8],1,414.6079136690614,125.82050359712213,644.321942446044
0,3006,3006,[11],1,198.39321357285422,435.7814371257495,773.863273453095
0,3737,3737,[12],1,344.8932298635231,147.68075996788866,281.40727856569424
24,34227.587887497444,27060.0,"[0, 3]",2,188.58944076998282,472.37498167392766,573.5901600674605
24,50016.85880153075,35559.0,"[1, 2, 10]",3,179.25509180917464,140.64792566654376,249.63082953129734
24,3515.381257538562,2378.0,[4],1,228.9977113313726,173.3044279920923,423.20522775021044
24,26038.3261646337,20041.0,"[3, 5]",2,180.06414359902334,393.0195772996449,530.8040357748969
24,9658.21213564186,6886.0,"[6, 7]",2,306.98414375528245,349.80993988715704,667.8156673184795
24,3370.432682994352,2611.0,[9],1,357.91057011211564,308.28455139344555,489.8334721950766
24,6052.781492123381,4990.0,[11],1,185.67275838564328,415.8161746402698,763.2814054946543
24,3516.2290206470643,2195.0,[12],1,341.5013462631057,145.70441881129437,268.8685684325342
48,36779.27974945399,24678.0,"[0, 3]",2,205.72832399370228,470.65828688873,539.641045820237
48,58715.335355803276,41625.0,"[1, 10, 12]",3,185.27439691169468,146.05799386809142,194.72637229500006
48,4271.469352655186,2435.0,[2],1,252.75265171918272,175.48407182724338,699.0649660434389
48,2876.874962830805,1634.0,[4],1,238.6129153433394,183.04714014435797,417.35292538692727
48,30299.9385008798,21094.0,"[3, 5]",2,196.95272424440634,402.9289715524608,496.13362446019363
48,14604.675066685719,9050.0,"[6, 7, 11]",3,287.8922700693772,365.83098512552453,686.02607702683
72,44725.43905899799,31722.0,"[0, 3]",2,208.63110391053058,487.04598120177616,555.0331975570219
72,51145.46889912027,31782.0,"[1, 10]",2,177.933711007183,144.06425235156502,198.0397197089981
72,5666.192472446497,4156.0,[2],1,255.15567271101906,173.67513177378265,710.6537007083464
72,2967.1288974217296,1950.0,[4],1,256.1065318578054,182.87123835527422,415.5332523322109
72,23567.645991753732,12855.0,"[3, 5]",2,193.5459660900316,404.03837682366304,504.8988722764793
72,12755.532388339783,7592.0,"[6, 7, 11]",3,300.1289906453013,366.04956956732894,703.1474339850039
72,3332.8413863643636,2642.0,[8],1,460.1358348570218,139.33507157347557,617.0613257752065
72,6114.536995745095,4719.0,[12],1,381.7715416325164,164.46462230545094,245.7274502118645
96,52384.83062508158,36572.0,"[0, 3]",2,234.62802423142938,499.9287254511278,547.1738784346137
96,40228.6539427668,22146.0,"[1, 10]",2,187.13658010048343,145.06823989436737,201.71569076025196
96,6093.301560387544,4090.0,[2],1,306.96720632430527,160.61960052091771,706.6700416597055
96,4108.038482010735,3059.0,[4],1,287.97213380389155,179.57718008682312,405.33441435449885
96,21788.42114868651,13456.0,"[3, 5]",2,203.3156267203244,408.52340126824885,493.94877985242664
96,7351.6947629394745,5340.0,[6],1,374.4036566930314,361.10079513400746,751.7602451083686
96,4554.604332462686,3376.0,[7],1,363.71791554721455,405.6432728574039,612.3451757956467
96,3757.337372458708,2579.0,[8],1,493.70872688114156,132.7740026184506,618.741196438939
96,8161.815286753688,6000.0,[12],1,409.11444788121236,157.82936630785457,223.06647409649338
120,47418.834483151964,28898.0,"[0, 3]",2,251.00956047597975,513.4877194441517,537.3199302282385
120,38319.28442705098,21942.0,"[1, 2, 10]",3,224.69822011965593,144.60205404726526,281.17751441102814
120,5387.410934002541,3935.0,[4],1,330.93203723745324,161.5213449494466,397.5026523074171
120,15460.370172792309,7757.0,"[3, 5]",2,204.40290233808616,433.06188075626426,491.184765482934
120,11250.97550173386,8070.0,"[6, 11]",2,396.88302763551405,400.4339257586924,748.2601349538113
120,6371.295804552998,4761.0,[7],1,422.8233182206541,466.65415507827265,620.3866511263486
120,7409.419367635599,6081.0,[8],1,547.1318376804597,127.38873449648533,610.1180895023459
120,3892.5824160402526,3122.0,[9],1,490.43808341316713,280.1945397074657,425.7346352545127
120,14834.63746802778,11949.0,[12],1,465.3868349932382,144.69388534766657,209.1212530268946
