time(in hour),cumulative size,size,pcore_ids,pcore_power,SCA-1,CD11b,Ly6C
-1,0,0,[],0,0.0,0.0,0.0
0,7747,7747,[0],1,NA,NA,NA
0,40769,40769,"[1, 6]",2,NA,142.06720792759216,NA
0,31835,31835,"[2, 4, 7]",3,NA,NA,NA
24,11884.212264485262,8627.0,[0],1,NA,NA,736.5391508489884
24,52462.25297673934,35321.0,"[1, 6]",2,NA,141.86685718750553,NA
24,49236.398847649325,37249.0,"[2, 7]",2,NA,NA,NA
48,14231.695745659943,9235.0,[0],1,303.7356847219381,368.33310773166477,712.388756951251
48,63147.66023213681,41090.0,"[1, 6]",2,183.96182786609938,140.24202799419137,NA
48,53596.35564549522,32895.0,"[2, 7]",2,200.99400776743357,NA,525.4718895114373
72,12323.690967753493,6340.0,[0],1,NA,NA,NA
72,63093.3205604317,36543.0,"[1, 6]",2,NA,144.43032508588126,NA
72,62028.491666480055,39494.0,"[2, 7]",2,NA,NA,NA
72,6513.8367497152285,3974.0,[5],1,NA,NA,NA
96,12182.473778739246,7001.0,[0],1,NA,NA,NA
96,53641.47354286025,27114.0,"[1, 6]",2,NA,148.35147325220362,NA
96,69947.768142969,43868.0,"[2, 7]",2,NA,NA,NA
96,8241.730986191722,5503.0,[5],1,NA,NA,NA
120,16183.099264732104,11061.0,[0],1,NA,NA,NA
120,14272.739546552692,8096.0,[1],1,NA,NA,NA
120,61771.4137432103,32362.0,"[2, 7]",2,NA,NA,NA
120,16149.30776659958,13502.0,[3],1,NA,NA,NA
120,11822.22102088704,8357.0,[5],1,NA,NA,NA
120,30620.721859006386,14244.0,[6],1,NA,137.94273792115442,NA
