time(in hour),cumulative size,size,pcore_ids,pcore_power,SCA-1,CD11b,Ly6C
-1,0,0,[],0,0.0,0.0,0.0
0,20672,20672,"[0, 8]",2,163.7700270897858,126.39749419504663,244.7513061145509
0,9320,9320,"[1, 11]",2,196.90439914163107,523.9648068669518,618.1848712446352
0,14027,14027,"[3, 13]",2,176.40407784986309,401.04412917944074,550.746346332073
0,6913,6913,[4],1,360.6001735859939,143.75958339360668,271.87299291190493
0,4025,4025,[5],1,212.76645962732923,306.50385093167796,785.1853416149079
0,4849,4849,[6],1,199.10002062280972,309.75293875025744,402.17220045370186
0,5661,5661,[7],1,380.7507507507446,347.31036919272225,588.8517929694385
0,25421,25421,"[8, 9]",2,150.35848314386024,121.84748829707718,166.94154439243118
0,3709,3709,[10],1,327.61714747910287,465.5567538420068,771.149636020489
0,5271,5271,[12],1,231.97970024663067,131.15234300891657,664.1838360842348
24,28873.0,18537.0,"[0, 8]",2,162.14418314688726,127.22732310463113,243.44936445814346
24,18732.0,14072.0,"[1, 11]",2,182.93025304292274,536.3129938073869,606.6787048900283
24,23691.5,16678.0,"[3, 13]",2,166.3689508895624,409.9274423316385,538.4153177299855
24,6854.5,3398.0,[4],1,367.44963162885256,144.30520096287128,264.69151652199275
24,7174.5,5162.0,[5],1,195.37521778521244,314.5611540873937,779.7732943062209
24,7292.5,4868.0,[6],1,192.66575248543234,316.29468632156295,398.5292423722993
24,9201.5,6371.0,[7],1,372.6382655001826,343.5142096397324,579.9653317393883
24,35619.5,22909.0,"[8, 9]",2,147.26931877202415,122.37362961299303,160.98509243532294
24,5630.5,3776.0,[10],1,299.9762010478624,462.72338158245253,762.7827013586699
24,6434.5,3799.0,[12],1,219.69951045147275,132.1176470588235,657.3019659647226
48,35540.5,21104.0,"[0, 8]",2,160.2998973002661,132.49879011268857,236.67345000773645
48,15565.25,9490.0,[1],1,224.962416279854,549.9452626845035,557.9756187661606
48,27473.75,15628.0,"[3, 13]",2,172.2863460576037,424.47685517994597,513.0732517402965
48,7809.25,4382.0,[4],1,371.46111982584284,155.51480615936188,252.69955501488639
48,6454.25,2867.0,[5],1,230.13127009334843,309.1613278072584,760.069682767168
48,10236.25,6590.0,[6],1,193.19814385150934,336.81069727683416,387.8690194162892
48,9588.75,4988.0,[7],1,375.5368009385941,347.1523399817491,572.077747360188
48,45104.75,27295.0,"[8, 9]",2,144.48353554781136,126.77167593213622,153.65169411203846
48,7010.25,4195.0,[10],1,311.67975464498153,447.4993045897073,745.3139331692864
48,4033.75,743.0,[11],1,121.71267431050951,513.9864889990714,652.3955996281386
48,6474.25,3257.0,[12],1,234.30872301810933,139.71834575433434,645.1058809900762
72,38337.25,20567.0,"[0, 8]",2,164.83214758492332,133.02197275495743,237.9257086775899
72,28356.5,18557.0,"[1, 11]",2,203.39168709114378,548.6098866221147,579.236414049689
72,4754.625,3277.0,[2],1,468.08510134868675,133.34634697794226,629.0306280726675
72,26649.875,12913.0,"[3, 13]",2,173.28655387689687,429.98627573300195,516.3134207946562
72,10018.625,6114.0,[4],1,409.9085827645975,170.77573020249798,243.1513306466711
72,7659.125,4432.0,[5],1,234.13410474434042,298.4295529841841,774.6797284285078
72,8184.125,3066.0,[6],1,192.75344034945837,329.17999786171293,393.1199883921614
72,8024.375,3230.0,[7],1,392.33214424798837,358.8929355868831,566.9569592647405
72,43390.375,20838.0,"[8, 9]",2,143.4502669082757,127.04972877049357,155.99981850813552
72,7366.125,3861.0,[10],1,324.4352356225245,453.18155746745936,748.1282899760719
72,6898.125,3661.0,[12],1,237.73744676995457,136.13710247349792,657.3910120503797
96,34382.625,15214.0,"[0, 8]",2,178.71694278723857,133.9871610297351,242.43814099417926
96,50417.9375,30508.0,"[1, 11, 13]",3,230.0932790537091,516.9469434861344,555.8868991318773
96,6123.3125,3746.0,[2],1,487.4120931276989,132.95270125442698,633.8081512253377
96,12893.25,5300.0,[3],1,135.95781707482993,449.98395963004316,496.7830308494736
96,12185.3125,7176.0,[4],1,425.1128715410449,170.9558125817452,236.87476213679335
96,6940.5625,3111.0,[5],1,284.3519077164101,286.4600131473487,774.6826626083964
96,8420.0625,4328.0,[6],1,198.1154088820612,323.9531921526714,394.029089748444
96,7791.1875,3779.0,[7],1,408.1058407335148,377.5832310543145,560.4033563561404
96,34961.1875,13266.0,"[8, 9]",2,148.97000959993497,127.39732274540103,153.55423246135314
96,9535.0625,5852.0,[10],1,369.813753187245,459.8806772373,749.9934321353428
96,6876.0625,3427.0,[12],1,265.1411781815523,131.68821182180915,652.2254106183623
120,18374.0,9258.0,[0],1,251.92927166104113,131.52710011429141,267.1069871149449
120,44619.5,22618.0,"[1, 13]",2,261.34798056342754,525.3546088313376,541.6008219500374
120,10798.65625,7737.0,[2],1,528.862401861348,133.44766565284417,610.0505039689529
120,15333.09375,5679.0,"[3, 11]",2,140.52892130787788,491.7549153281641,524.3038770306883
120,20036.65625,13944.0,[4],1,466.4751182598181,157.88273055789796,230.9630131025472
120,6947.28125,3477.0,[5],1,315.8539311691124,286.74696486485186,765.8481825174423
120,6039.03125,1829.0,[6],1,210.51572841256615,325.9739817541106,385.1320990018068
120,8407.59375,4512.0,[7],1,436.1375765212211,394.1414123392917,547.6013648375906
120,27509.59375,10029.0,"[8, 9]",2,160.5152463856395,125.30402575465132,149.4788761193531
120,12711.53125,7944.0,[10],1,419.5941086955956,473.5051491141151,750.1324535547192
120,6411.03125,2973.0,[12],1,288.3008340116856,127.52444273298478,642.6414383411419
