time(in hour),cumulative size,size,pcore_ids,pcore_power,SCA-1,CD11b,Ly6C
-1,0,0,[],0,0.0,0.0,0.0
0,18485,18485,"[0, 9]",2,169.80329997295334,120.61985393562368,245.41763592101688
0,6599,6599,[1],1,241.6023639945443,441.1350204576454,774.0227307167739
0,10299,10299,"[2, 6]",2,324.5995727740531,126.64472278862043,395.48033789688384
0,22267,22267,[3],1,180.13095612341317,441.248259756591,559.3097857816517
0,6258,6258,[7],1,239.36912751677713,246.16347075743064,338.9870565675933
0,10250,10250,[8],1,135.5163902439059,121.52975609756115,110.33736585365877
0,7154,7154,[10],1,370.7920044730158,368.3370142577571,623.25789767962
24,25921.5,16679.0,"[0, 9]",2,167.46415138013072,122.84671025982271,244.96693864166747
24,12681.5,9382.0,[1],1,221.289989354571,440.7038599534772,763.0192011985948
24,11356.5,6207.0,"[2, 6]",2,315.3348743010585,126.9432483599701,348.7186192929162
24,38771.5,27638.0,[3],1,170.47248623344868,461.2009207794407,551.106108868614
24,22977.0,15285.0,"[5, 8]",2,153.12355834095305,137.94548896722793,286.08251729990855
24,8481.0,5352.0,[7],1,213.74566678457776,276.17562787407184,362.1101874778897
24,10736.0,7159.0,[10],1,362.5254284649701,360.0705570044707,602.695277570791
48,13353.75,8171.0,[0],1,231.40578489188422,124.88302911167251,254.4330244313397
48,11996.75,5656.0,[1],1,254.54456415278958,436.81638777168956,748.1312855565051
48,20893.25,11544.0,"[2, 5, 6]",3,277.17980687542445,150.57972072319978,433.22719059983444
48,43144.75,23759.0,[3],1,181.76422392064146,473.87672312389896,528.3832969248795
48,11872.5,7632.0,[7],1,200.21827753211335,315.6421773004844,375.22293114339664
48,27539.5,16051.0,"[5, 8]",2,151.8070407959514,136.81576462898784,232.5142431779804
48,18579.0,10801.0,[9],1,119.39243231605987,132.64948328758203,230.45278271166242
48,11601.0,6233.0,[10],1,361.65257305404117,364.08626411516224,597.2888759589686
72,15814.875,9138.0,[0],1,230.3261012179982,128.60085046514698,258.22021988792085
72,12303.375,6305.0,[1],1,263.661210846616,434.0923120688426,756.2580186330975
72,8903.625,4323.0,[2],1,301.20509904673486,132.13460809501728,132.19889370902348
72,49926.375,28354.0,[3],1,185.72852525343626,495.22512649877046,542.89314265254
72,7528.125,5033.0,[4],1,436.2238273142362,193.62827729348274,330.14565379825785
72,27155.75,13386.0,"[5, 8]",2,157.41572226876806,138.08309013744824,259.4576839159298
72,7114.5,4485.0,[6],1,401.23113008644236,149.0372127345564,687.0091889802505
72,10543.25,4607.0,[7],1,192.60130889431832,320.2665093780373,395.49162971569393
72,19302.5,10013.0,[9],1,119.18347364331605,133.47003626473213,228.28836290635746
72,10156.5,4356.0,[10],1,376.2035888347302,381.3457761039724,599.418118938611
96,16607.4375,8700.0,[0],1,238.58113270033294,131.7265344217021,264.18213225249207
96,12000.6875,5849.0,[1],1,315.86143502194875,435.5350683033773,763.6722479441279
96,9774.8125,5323.0,[2],1,319.18112240004297,132.65323503647733,132.5415385205603
96,56425.1875,31462.0,[3],1,207.7413566414811,510.8858111902603,542.6300676891628
96,9491.0625,5727.0,[4],1,448.2649597977046,195.52362419908235,320.9479312774521
96,21719.875,8142.0,"[5, 8]",2,166.94732359187438,135.66744456402287,255.25331061988211
96,9789.25,6232.0,[6],1,420.73769057894816,152.04960798835458,694.555398779273
96,11905.625,6634.0,[7],1,194.0433933539846,333.98523282062047,412.8127303270497
96,15189.25,5538.0,[9],1,118.9802985664258,135.14562519544964,228.23056191055986
96,11471.25,6393.0,[10],1,390.8884275907089,416.1613762667532,599.7940993788826
120,18618.71875,10315.0,[0],1,272.58715774950826,129.94159943202294,282.70243488156154
120,13077.34375,7077.0,[1],1,367.36146723220986,423.0641352530021,757.4373809666051
120,24371.03125,14589.0,"[2, 6]",2,416.4406884197796,144.15824371404022,368.082149273023
120,56494.59375,28282.0,[3],1,235.69263209366738,520.9902557047809,543.0720998192642
120,13186.53125,8441.0,[4],1,487.8393910453157,177.3541824162428,332.46305297308623
120,5673.875,2692.0,[5],1,283.96423850542885,160.91774250402096,661.1141746161131
120,9607.8125,3655.0,[7],1,230.48211416490557,329.2415905025208,429.8181070092693
120,12771.0625,4893.0,[8],1,156.9196694675984,121.72454817287081,102.08741931221493
120,11203.625,3609.0,[9],1,122.69330239097278,133.80118878934218,227.70991810686164
120,12182.625,6447.0,[10],1,431.07330624556965,426.28141256502516,607.9241568422239
