time(in hour),cumulative size,size,pcore_ids,pcore_power,SCA-1,CD11b,Ly6C
-1,0,0,[],0,0.0,0.0,0.0
0,5517,5517,[0],1,NA,NA,NA
0,39820,39820,"[1, 7]",2,NA,141.40781014565567,NA
0,13953,13953,[2],1,214.0746076112672,478.0460116104065,NA
0,14030,14030,[4],1,201.16642908054305,NA,NA
24,9483.108111806183,5582.0,[0],1,NA,NA,NA
24,62889.99202684832,34733.0,"[1, 7]",2,NA,140.89573391935673,NA
24,30038.2609178959,20172.0,[2],1,196.00615197670461,NA,NA
24,25682.70814004726,15762.0,[4],1,192.56767641150068,NA,NA
24,5791.755985146825,3249.0,[6],1,NA,NA,NA
24,10444.416156926647,6841.0,[8],1,226.75884732014416,376.09853622488197,NA
48,12722.570052583309,6017.0,[0],1,344.3441256669127,348.0237489248798,605.2375432735688
48,24638.142271546058,11756.0,[1],1,213.51005378600644,162.86302618230437,293.77499190973003
48,35321.25799009504,14081.0,[2],1,202.3345611765891,509.27268867540374,575.4904716215368
48,6257.792639411675,3220.0,[3],1,349.10186405200477,148.23035933583887,687.3352453068328
48,34944.41708506236,16784.0,[4],1,187.2439109459695,388.01963495220105,493.4170194511963
48,5469.925286512276,1924.0,[5],1,345.52907015866026,192.96166046387336,NA
48,5926.389932075093,1831.0,[6],1,211.48379471029827,159.95362935965255,637.5934477354442
48,60682.797559406295,29095.0,[7],1,170.04314894265607,131.36286922457384,156.69784415471068
48,12677.317490097172,5292.0,[8],1,254.50763410067424,380.5706610527267,754.9685223844168
72,13413.215558302549,4417.0,[0],1,NA,343.9069211022612,NA
72,22903.797476049145,5482.0,[1],1,NA,161.14767266625702,290.96561037741253
72,49268.90104483573,24293.0,[2],1,203.45724717453172,521.7751103033561,576.0256971357675
72,14216.51811951324,5601.0,"[3, 6]",2,NA,149.59885064234496,665.8007731393518
72,36559.43428545864,11850.0,[4],1,190.47431255361346,383.2795267538521,492.5365714594324
72,5482.8212626766,1615.0,[5],1,NA,192.80351530326794,NA
72,72842.21765562668,29933.0,[7],1,178.81979582787218,131.48664683309622,166.2943453790673
72,15773.217164502534,6809.0,[8],1,269.6409779784012,NA,760.5649920306503
96,11841.575678792637,2357.0,[0],1,NA,NA,NA
96,94503.65657119777,26801.0,"[1, 7]",2,NA,146.64652014329124,NA
96,69805.37403041232,34967.0,[2],1,234.3161956146558,NA,564.0118720772163
96,9112.73520703585,4786.0,[3],1,NA,NA,NA
96,36302.42389959177,10451.0,[4],1,202.5165100859684,NA,488.0958291892104
96,9003.940094872412,5127.0,[5],1,NA,184.06360564919697,NA
96,7451.861160133389,1726.0,[6],1,NA,NA,NA
96,14938.34881814779,3785.0,[8],1,NA,NA,NA
120,15359.258462407968,6986.0,[0],1,NA,NA,NA
120,25360.610598086085,7281.0,[1],1,NA,164.95869445439044,NA
120,77444.85334016787,28085.0,[2],1,NA,NA,NA
120,14393.676860052448,7950.0,[3],1,NA,NA,NA
120,28450.69011290993,2781.0,[4],1,NA,NA,485.2743334484527
120,21935.74709848173,15569.0,[5],1,NA,164.22843548613116,NA
120,7319.261558790972,2050.0,[6],1,NA,NA,NA
120,61974.5658103325,13230.0,[7],1,NA,137.61375502025223,NA
120,16631.00774904235,6068.0,[8],1,NA,NA,NA
