time(in hour),cumulative size,size,pcore_ids,pcore_power,SCA-1,CD11b,Ly6C
-1,0,0,[],0,0.0,0.0,0.0
0,8301,8301,[0],1,0.252135318744596,0.5896806305297139,0.6509568037124356
0,47037,47037,"[1, 2, 3, 8]",4,0.23119721911486,0.1557707002006801,0.26967475682437886
0,12601,12601,[4],1,0.2012643012994345,0.4732296079353062,0.5742861819041134
0,6941,6941,[7],1,0.21060997265879908,0.3543030103112141,0.5133360757180536
0,6330,6330,[9],1,0.4142151694268348,0.3983771525380099,0.6527134196758089
24,14650.846695314765,11716.0,[0],1,0.22649316986560938,0.6101251218624373,0.6364411439972875
24,55181.090833335824,38551.0,"[1, 2, 3, 8]",4,0.21548428168084796,0.15384473434325305,0.24403488262055006
24,20786.12627486584,16331.0,[4],1,0.1897785124529244,0.4906199028266554,0.5569648193809988
24,9427.301007575887,7487.0,[6],1,0.23952222111652766,0.4282861216426494,0.8114581340243754
24,9665.014084107914,7211.0,[7],1,0.2019377140488046,0.3610641081429746,0.4985425784346266
24,8919.992962455422,6682.0,[9],1,0.3985341563650703,0.39423535318936787,0.6305603988738999
48,13989.856524190796,8810.0,[0],1,0.24947914215394623,0.6074219792722072,0.6080015329807449
48,28898.87556919822,20153.0,"[1, 3]",2,0.20918322714761942,0.16964659188906583,0.23577051642205085
48,6473.114734659469,4027.0,[2],1,0.3243273233034175,0.1723954496677271,0.6998155163312852
48,34719.103921346854,23953.0,"[4, 7]",2,0.21156159121093907,0.4640921755779791,0.5013273515825649
48,8131.054235371841,4798.0,[6],1,0.2910702475692196,0.42915738868566833,0.785814228760171
48,47996.54980650135,33949.0,"[3, 8]",2,0.18414363211179818,0.1572436268604915,0.1462514927183796
48,8446.693755944256,5293.0,[9],1,0.39327596604451287,0.3950610064539545,0.6251185073927831
72,24339.16120804109,19393.0,[0],1,0.24686359434593494,0.6055817402636664,0.6024968528531475
72,10553.309668971124,7038.0,[1],1,0.29681507125546097,0.18172321563555122,0.27164286339042343
72,8544.591662138135,6256.0,[2],1,0.3657878559539557,0.1663041359592503,0.7084814140565707
72,44723.34292086749,27754.0,"[3, 8]",2,0.1861414600612816,0.1573370260100751,0.15527782472104157
72,20361.078403290267,12130.0,[4],1,0.20631125011345103,0.5024541632165691,0.5344742816260329
72,7937.761794013513,5063.0,[6],1,0.2954780065772817,0.40913263975836717,0.8041619334138398
72,8631.97850646214,4588.0,[7],1,0.20810256586518863,0.38814189709677827,0.47637237484876455
72,6641.357216717126,3655.0,[9],1,0.430865572939958,0.41053973401111626,0.6314194248909045
96,33448.19296929921,24843.0,[0],1,0.2807133689546478,0.6045347377896232,0.5823203281735748
96,12272.15841544552,8541.0,[1],1,0.3193095990839079,0.17875318687268946,0.27403612325103494
96,16566.968102272473,11667.0,"[2, 5]",2,0.4597697280472315,0.17548677853076952,0.5202129063424813
96,33882.08952833839,18070.0,"[3, 8]",2,0.19357477968437348,0.15843576675552035,0.15393005090993217
96,18745.728305618755,11547.0,[4],1,0.21684274939344014,0.5107103434863737,0.5245767971746502
96,7917.4225959952255,5111.0,[6],1,0.3719156893125034,0.41659141806638844,0.811458810095227
96,8551.865268487953,5500.0,[7],1,0.22170744854794597,0.3876307885102178,0.46445828334685596
96,7069.074362111447,4721.0,[9],1,0.469566892595226,0.4504051192527172,0.6403376056014894
120,33215.72203351384,21390.0,[0],1,0.30700884010685225,0.6084009264620535,0.5665389007128078
120,13153.863217678541,8815.0,[1],1,0.34857271033548837,0.1697069259404321,0.2778580015523946
120,27747.307744409045,21890.0,"[2, 5]",2,0.5346708983059681,0.166054061399205,0.4356787094069051
120,26199.127633128897,14220.0,"[3, 8]",2,0.20986279535432906,0.15290444215147708,0.14917330788213906
120,14925.615801591815,8298.0,[4],1,0.21929804043060314,0.5336129057867993,0.5161228805832359
120,9485.231603573911,6686.0,[6],1,0.40718220056703236,0.4243925528995605,0.7963808143926326
120,9500.295209080487,7001.0,[9],1,0.5349203135172379,0.5048646038834338,0.6725877800910407
