time(in hour),cumulative size,size,pcore_ids,pcore_power,SCA-1,CD11b,Ly6C
-1,0,0,[],0,0.0,0.0,0.0
0,4854,4854,[0],1,0.25466544446142,0.4226721162935086,0.8440225176489795
0,23784,23784,"[1, 5, 9]",3,0.19383170444109574,0.15502883797313077,0.22859011541887372
0,5818,5818,[2],1,0.2714209292354988,0.6198478664279515,0.6617453628666431
0,3258,3258,[3],1,0.4664287044509242,0.14398390040248987,0.7215153789677899
0,16065,16065,"[4, 13, 14]",3,0.19567207657095417,0.4899975777138408,0.5821388193980878
0,5162,5162,[6],1,0.17913425246725379,0.34865471834726797,0.4903552515426663
0,5090,5090,[7],1,0.42044414030594746,0.41933700184017947,0.7072569035752864
0,2777,2777,[8],1,0.4324458938390338,0.41488829541955025,0.4763736964390105
0,5218,5218,[10],1,0.2500340222479647,0.15715483646063302,0.6979649423231736
0,23070,23070,"[9, 12]",2,0.1612025929876382,0.13716742473722515,0.13408006811843115
0,4214,4214,[15],1,0.3993528793801255,0.13670468187274953,0.16899786796160507
24,10069.296315879503,6637.0,[0],1,0.2394575761442428,0.4240630483613543,0.8334261083566944
24,37196.82768374085,20379.0,"[1, 5, 9]",3,0.18959633325406247,0.15606420405051402,0.22517730402805253
24,11720.947252943333,7607.0,[2],1,0.25922734505456546,0.6301513318816374,0.6557871645569466
24,3449.753893105772,1146.0,[3],1,0.46202868602515884,0.14518606299129402,0.7105264899044531
24,32331.67043976189,20972.0,"[4, 13, 14]",3,0.1852146652536898,0.5096274551422156,0.5704766501123892
24,9806.085204484958,6156.0,[6],1,0.1724275813386584,0.35543431756791044,0.49110713890134244
24,8052.173516239527,4453.0,[7],1,0.40946272349245827,0.41086707329043554,0.6899855411374982
24,5206.635531355043,3243.0,[8],1,0.42341968281650977,0.4045052378733317,0.48709174216087486
24,7766.683184231406,4077.0,[10],1,0.23928717466703112,0.16128975127783085,0.7006834875332797
24,3580.6908345206202,1721.0,[11],1,0.4316518216945613,0.1762121574387611,0.39527494573883387
24,37034.95344197365,20722.0,"[9, 12]",2,0.15779400868089624,0.13800780413649485,0.12907616826024534
24,5659.7479759201115,2680.0,[15],1,0.4002632133404467,0.13838264301816128,0.16046989473060227
48,9723.067706735117,2603.0,[0],1,0.25466626128602343,0.4244408030988438,0.8217478525549983
48,49466.12909380066,23164.0,"[1, 5, 9]",3,0.18786316632604075,0.16182860453024747,0.21903514367808258
48,14072.961284486068,5785.0,[2],1,0.27029886948729404,0.6322777659130283,0.6413411003097531
48,4157.344371239784,1718.0,[3],1,0.4492309469679869,0.15256878450433228,0.7065067998760384
48,35196.33382394168,17816.0,"[4, 14]",2,0.21191082818382845,0.5126768649585266,0.5235729120921296
48,13314.949344984387,6381.0,[6],1,0.17734637857666583,0.37255942963418814,0.469931225644433
48,11393.746496623697,5700.0,[7],1,0.4008478660823662,0.41468634617436295,0.7020980356296687
48,6728.647291387974,3047.0,[8],1,0.42369951961070534,0.40784876683294574,0.48932906834742035
48,8535.874346897555,3044.0,[10],1,0.2513504396925152,0.16764621539687635,0.6901022162129189
48,4637.930770422048,2106.0,[11],1,0.4206348795128664,0.18167569395549266,0.3955884653634424
48,50869.66671974764,24682.0,"[9, 12]",2,0.15447610388793434,0.14229224670684024,0.12258605802846924
48,6686.609591102599,1205.0,[13],1,0.11261830410969044,0.5533067256973812,0.632581512003824
48,7638.046173579947,3636.0,[15],1,0.4010649701027593,0.1490609364413373,0.150997366142415
72,11604.247109368334,4729.0,[0],1,0.26409946895719894,0.41562083322695087,0.829701228113482
72,56431.83532127561,21454.0,"[1, 5, 9]",3,0.1892794405802601,0.15971936741730788,0.2180256356432379
72,21551.086355635845,11600.0,[2],1,0.26993586849055573,0.6374661048627732,0.6289824731320344
72,6169.686396631375,3230.0,[3],1,0.4953806159801919,0.15356333812911716,0.6987096368815693
72,48293.713304830264,18678.0,"[4, 13, 14]",3,0.1943695986858583,0.5283397131235341,0.5455407826940097
72,13381.09097299384,3966.0,[6],1,0.17566703361013997,0.37641934587049136,0.46882338784912736
72,11642.595410883085,3586.0,[7],1,0.41144504385914155,0.42728269728480456,0.7046143550362572
72,6819.872127952933,2062.0,[8],1,0.44993845693195506,0.41673748410671857,0.47369777187089857
72,10076.774634047553,4041.0,[10],1,0.2538633555416146,0.16845323367545334,0.70369779831778
72,6126.512298439179,2847.0,[11],1,0.4323701564125628,0.18253245177496183,0.3893743105553288
72,54659.2862942332,18689.0,"[9, 12]",2,0.15337334862418303,0.14320207827717174,0.12386266990049898
72,9903.914244354342,4503.0,[15],1,0.4315589798602595,0.1618503728103887,0.1522310301989644
96,9787.441821598743,1582.0,[0],1,0.27945763044206207,0.40928055088131954,0.8301331900058418
96,56014.333430476516,16111.0,"[1, 5, 9]",3,0.19744717044560361,0.16114906701070228,0.21987551031022576
96,31480.919304006988,16242.0,[2],1,0.28735710229064737,0.6358936722401911,0.6104397556775271
96,8907.627088852441,4545.0,[3],1,0.5087116533231661,0.15621464415732855,0.7092590783974514
96,52982.81216652447,18834.0,"[4, 13, 14]",3,0.20561567211916987,0.5345485665094308,0.5399873121527535
96,13705.860166678041,4244.0,[6],1,0.18068969508766006,0.3795404342650019,0.4621173948479813
96,15793.558165646808,7561.0,[7],1,0.4328984628784708,0.451957609803807,0.7312785454894648
96,7278.377828500649,2456.0,[8],1,0.46597696147144463,0.4289582690482224,0.46484833806396675
96,9918.355676223617,2793.0,[10],1,0.27025539926234093,0.16648147299501428,0.6978979626858108
96,8032.098391249126,3700.0,[11],1,0.4378842785856104,0.180308746222119,0.38639211063038553
96,49862.95199346921,11213.0,"[9, 12]",2,0.15551679521505815,0.14367158202591615,0.12196168741001642
96,12605.124922472998,5602.0,[15],1,0.4492084686135623,0.16550666082465015,0.15016459495600268
120,8797.766482521287,1877.0,[0],1,0.29396892904016897,0.40311869783166376,0.8261308988953395
120,52536.11501233428,12928.0,"[1, 5, 9]",3,0.20914272378812135,0.15889034795987658,0.2200481895640936
120,37322.37151784983,15062.0,[2],1,0.3040661311750237,0.6355620515293764,0.5955877466986186
120,13312.643518808547,7014.0,[3],1,0.5541299833318374,0.15489666032216137,0.6943489118034054
120,50844.50576928258,13380.0,"[4, 13, 14]",3,0.2140483765496844,0.5430606631652318,0.5325195864982704
120,10709.506665852628,1018.0,[6],1,0.18352929361804726,0.38058308728395834,0.4585219291501989
120,21068.73207799303,9901.0,[7],1,0.46676095313794524,0.47984206442346666,0.7477803628289168
120,8550.590318570627,3404.0,[8],1,0.49393295713278096,0.44414644934045633,0.4585900690762479
120,9489.336556877806,2476.0,[10],1,0.28683005250014937,0.16598961530551423,0.6941916773874244
120,12766.551239609817,7087.0,[11],1,0.4753352492250332,0.17312335228611508,0.38673002059867706
120,43089.431484561355,7831.0,"[9, 12]",2,0.16061016593311092,0.142820477577674,0.11877244293378364
120,19771.16931038421,10858.0,[15],1,0.49442150879746416,0.16161947906734436,0.15182741299194302
