time(in hour),cumulative size,size,pcore_ids,pcore_power,SCA-1,CD11b,Ly6C
-1,0,0,[],0,0.0,0.0,0.0
0,5531,5531,[0],1,NA,NA,NA
0,38999,38999,"[1, 7]",2,NA,139.67191466447912,NA
0,14973,14973,[3],1,188.11340412743056,375.13978494623893,NA
0,4772,4772,[5],1,NA,NA,NA
0,11975,11975,[6],1,NA,NA,NA
0,5717,5717,[8],1,NA,NA,NA
24,10222.007606742794,6311.0,[0],1,NA,NA,NA
24,61668.45735949417,34092.0,"[1, 7]",2,NA,139.30610504790377,NA
24,27449.50983470618,16862.0,[3],1,NA,NA,NA
24,5621.973372664528,2580.0,[4],1,NA,NA,NA
24,7425.313559822205,4051.0,[5],1,200.8538304593542,NA,NA
24,26353.603704708905,17886.0,[6],1,191.75545266290632,NA,NA
24,10926.529468043493,6884.0,[8],1,NA,391.6529560655727,NA
48,11365.050896068302,4137.0,[0],1,NA,NA,NA
48,85385.18438421178,41779.0,"[1, 7]",2,NA,145.0962926638146,NA
48,37943.73454436757,18534.0,[3],1,193.65672505910706,NA,NA
48,6312.335495461293,2337.0,[4],1,NA,NA,NA
48,7814.489570586705,2564.0,[5],1,NA,NA,NA
48,32576.81188830259,13942.0,[6],1,205.0903204352107,NA,NA
48,12971.223081688193,5245.0,[8],1,269.6246810888252,NA,NA
72,10467.304557140145,2431.0,[0],1,NA,NA,NA
72,26431.161690886966,9746.0,[1],1,NA,163.80968928958717,NA
72,5980.312027960611,2959.0,[2],1,NA,NA,NA
72,36840.27199986456,10010.0,[3],1,NA,NA,506.83060624564666
72,8829.495233965226,4366.0,[4],1,NA,178.21335412119888,NA
72,9221.678566873412,3696.0,[5],1,NA,NA,NA
72,50137.2845956573,27102.0,[6],1,210.2274780942677,NA,NA
72,68631.2812000529,24940.0,[7],1,NA,138.38909135138792,NA
72,13922.039801345189,4750.0,[8],1,279.7843823141014,NA,NA
96,11273.502033098648,3872.0,[0],1,NA,NA,NA
96,27469.65366626427,8780.0,[1],1,NA,NA,NA
96,9204.719188582421,4976.0,[2],1,NA,NA,NA
96,35709.006151861126,9659.0,[3],1,NA,391.853229683819,NA
96,13726.395954391115,7483.0,[4],1,NA,172.69547971770643,NA
96,9034.711448558834,2514.0,[5],1,NA,NA,NA
96,66867.41392786911,31415.0,[6],1,228.11143240657975,NA,NA
96,64111.644338078215,15582.0,[7],1,NA,138.26824245541457,NA
96,15563.368751480199,5719.0,[8],1,NA,NA,NA
120,13212.569735324385,5241.0,[0],1,NA,NA,NA
120,26307.978384261372,6884.0,[1],1,NA,NA,NA
120,14856.719357164566,8348.0,[2],1,NA,NA,NA
120,28302.080399413146,3052.0,[3],1,NA,NA,NA
120,25519.02766060155,15813.0,[4],1,NA,NA,NA
120,8992.505731339686,2604.0,[5],1,NA,NA,NA
120,73979.40182880405,26697.0,[6],1,NA,NA,NA
120,57899.77846447523,12566.0,[7],1,NA,137.27028121571553,NA
120,19799.963582278462,8795.0,[8],1,NA,NA,NA
