time(in hour),cumulative size,size,pcore_ids,pcore_power,SCA-1,CD11b,Ly6C
-1,0,0,[],0,0.0,0.0,0.0
0,16750,16750,"[0, 8]",2,NA,NA,NA
0,44420,44420,"[1, 5, 7]",3,NA,137.8064385411983,NA
0,14598,14598,[2],1,NA,NA,NA
0,4410,4410,[3],1,NA,NA,NA
0,3401,3401,[4],1,NA,NA,NA
0,6446,6446,[6],1,NA,NA,NA
24,33964.60958814779,24005.0,"[0, 8]",2,NA,NA,NA
24,62659.29002421043,36247.0,"[1, 5, 7]",3,NA,NA,NA
24,25425.02273240486,16745.0,[2],1,NA,NA,NA
24,5592.201688581,2970.0,[3],1,NA,NA,NA
24,5187.246699062127,3165.0,[4],1,NA,NA,NA
24,10700.81453165377,6868.0,[6],1,NA,NA,NA
48,11213.132243266908,4543.0,[0],1,NA,NA,NA
48,80265.43675890504,43008.0,"[1, 5, 7]",3,NA,NA,NA
48,60113.154413231474,31470.0,"[2, 8]",2,NA,NA,NA
48,6670.143018295377,3345.0,[3],1,NA,NA,NA
48,5043.35534089953,1959.0,[4],1,NA,NA,NA
48,12037.742388683586,5675.0,[6],1,NA,NA,NA
72,11420.368322579714,4753.0,[0],1,NA,NA,NA
72,86394.1142412454,38668.0,"[1, 5, 7]",3,NA,143.11000930356983,NA
72,70983.49546673604,35240.0,"[2, 8]",2,NA,NA,NA
72,9402.090767721293,5436.0,[3],1,NA,NA,NA
72,4849.797027442348,1851.0,[4],1,NA,NA,NA
72,11209.684448596185,4052.0,[6],1,NA,NA,NA
96,11599.591632581743,4809.0,[0],1,NA,NA,NA
96,80946.24767502348,29576.0,"[1, 5, 7]",3,NA,143.58910952070812,NA
96,82384.03892840295,40177.0,"[2, 8]",2,NA,NA,NA
96,13222.516618437778,7632.0,[3],1,NA,NA,NA
96,5203.706565676743,2320.0,[4],1,NA,NA,NA
96,12151.318251602968,5486.0,[6],1,NA,NA,NA
120,13005.15845029612,6108.0,[0],1,NA,NA,NA
120,59065.31062975409,18547.0,"[1, 7]",2,NA,NA,NA
120,78672.84262815896,29687.0,"[2, 8]",2,NA,NA,NA
120,39796.771624645065,24322.0,"[3, 5]",2,NA,NA,NA
120,5906.142436144579,2812.0,[4],1,NA,NA,NA
120,15749.217060734336,8524.0,[6],1,NA,NA,NA
