time_in_hour,cumulative_size,size,pcore_ids,pcore_power,SCA-1,CD11b,Ly6C
-1,0,0,[],0,0.0,0.0,0.0
0,36202,36202,"[0,6]",2,169.2383569968548,441.73623004253716,563.1841887188543
0,28683,28683,"[1,2]",2,142.8450301572389,126.1392462434198,175.66129763274378
0,9741,9741,"[3,8]",2,242.49994867056722,191.29801868391291,318.373267631661
24,41173.0,14859.0,[0],1,153.54132562602155,412.1086877322521,535.3672066645502
24,55608.0,26925.0,"[1,2]",2,148.9254423823956,122.91188318227562,172.39668752697355
24,19350.0,12138.0,[3],1,268.8640826873373,169.5105426356581,268.9504909560734
24,10515.0,5245.0,[4],1,183.12353780313907,344.917641464574,782.8957679505484
24,14231.0,8202.0,[5],1,371.82151640783525,339.74590682313374,589.8236947508965
24,20197.0,10309.0,[6],1,228.70238154181263,515.0303510422337,636.2925682032018
24,11178.0,7106.0,[7],1,263.17999642154075,132.05430309536615,689.8964036500269
24,7745.0,5216.0,[8],1,251.49180116203925,190.852679147837,436.3245965138805
48,60702.0,19529.0,[0],1,153.66653487529587,414.942473065136,529.9169549602791
48,80924.0,25316.0,"[1,2]",2,149.38060402353196,122.85470317828948,170.23512184271596
48,27689.0,8339.0,[3],1,271.89425403589803,165.5407923724212,265.4333128679265
48,19478.0,8963.0,[4],1,189.5445630968268,336.98285244891724,778.3323236471974
48,22328.0,8097.0,[5],1,370.4247133643765,335.932147975637,589.5427714080993
48,33579.0,13382.0,[6],1,219.52041454480616,525.7233985526735,629.6363798802815
48,11835.0,657.0,[7],1,NA,131.74136037177882,690.4227291930721
48,13462.0,5717.0,[8],1,244.44309909374454,185.2812360719053,457.7329520130759
72,81251.0,20549.0,[0],1,159.01329214410032,419.8601124909272,515.3791214877319
72,111210.0,30286.0,"[1,2]",2,149.00044959986033,124.73292869346216,166.62645445553366
72,38255.0,10566.0,[3],1,276.0091229904564,167.1721866422677,261.0255130048368
72,23674.0,4196.0,[4],1,205.95733716313134,341.1676100363264,772.6620342992268
72,29058.0,6730.0,[5],1,370.94442150181476,339.79651042742074,589.2194920503828
72,43609.0,10030.0,[6],1,224.9206127175577,529.6794469031651,619.9154073700346
72,15787.0,3952.0,[7],1,271.17926141761995,136.7480838664723,686.7405460188776
72,17153.0,3691.0,[8],1,246.0274004547308,190.26042091762272,455.14673817991076
96,96137.0,14886.0,[0],1,159.44157816449794,422.3789487918293,514.1988308351567
96,135710.0,24500.0,"[1,2]",2,149.21455309115402,125.07865301009441,167.28973546533052
96,49991.0,11736.0,[3],1,289.39827168890093,166.2857914424599,257.87451741313595
96,29173.0,5499.0,[4],1,213.79463887841356,342.4942926678772,776.2576354848522
96,34864.0,5806.0,[5],1,382.63480954565574,341.9083868747146,589.9897315282294
96,62396.0,18787.0,[6],1,223.25302904032125,535.7628373613686,611.132508494106
96,21343.0,5556.0,[7],1,284.2208218151122,135.28487091786502,688.6790985334782
96,20383.0,3230.0,[8],1,249.65564440955748,190.51699946033358,452.66373939067034
120,110294.0,14157.0,[0],1,162.4735706384786,424.6339148095111,510.92047618183915
120,151610.0,15900.0,"[1,2]",2,150.78691379196945,125.37810830420129,167.03251104808442
120,63455.0,13464.0,[3],1,301.7239776219324,165.10498778662102,254.7973997320937
120,33875.0,4702.0,[4],1,233.9969298892961,343.98004428044266,778.138892988909
120,42943.0,8079.0,[5],1,394.96495354306177,347.03970379340257,594.3118319633023
120,86941.0,24545.0,[6],1,232.69686339011315,538.7882587041722,599.1101436605948
120,26203.0,4860.0,[7],1,300.0613288554714,134.41167041941716,690.152997748349
120,24676.0,4293.0,[8],1,254.98759928675634,190.9704976495373,451.64540444156336
144,121115.0,10821.0,[0],1,172.0220286504605,420.70932584733407,510.0735251620354
144,176011.0,24401.0,"[1,2]",2,171.78300788019237,125.96358750305372,171.3006800711317
144,70058.0,6603.0,[3],1,NA,163.02396585686236,254.3104285020979
144,37771.0,3896.0,[4],1,NA,340.4766619893566,774.7155754414568
144,53862.0,10919.0,[5],1,415.56007946232717,NA,599.776521480819
144,114844.0,27903.0,[6],1,252.7895318867306,535.4410591759173,594.7239472675611
144,27134.0,931.0,[7],1,NA,134.99012309279811,689.8840937569107
144,29202.0,4526.0,[8],1,NA,183.84172316964487,445.05030477364784
168,140956.0,19841.0,[0],1,NA,402.40723346292526,507.25785351456557
168,199060.0,23049.0,"[1,2]",2,NA,127.12106902441482,177.50768612478578
168,77534.0,7476.0,[3],1,NA,165.6516495988858,262.03103154744906
168,38110.0,339.0,[4],1,NA,340.96843348202543,772.8637890317318
168,58286.0,4424.0,[5],1,421.4136670898641,NA,NA
168,146119.0,31275.0,[6],1,NA,525.1777386924281,592.6506614471654
168,28447.0,1313.0,[7],1,NA,138.23911132984097,687.347277393049
168,31485.0,2283.0,[8],1,NA,182.6257900587576,438.703731935844
