time_in_hour,cumulative_size,size,pcore_ids,pcore_power,SCA-1,CD11b,Ly6C
-1,0,0,[],0,0.0,0.0,0.0
0,35968,35968,"[0,6,7]",3,166.60890235765362,437.88339635231415,550.9178436387874
0,35036,35036,"[1,2,3]",3,160.04826464208512,132.12766868364025,195.39051261559413
24,30086.0,25590.0,"[0,6,7]",3,184.0380451040373,437.4081549557953,562.327216147043
24,43296.5,38917.0,"[1,2,3]",3,189.79435693416522,125.16254489392938,201.58236231566008
24,6504.125,5864.0,[10],1,374.8191724482476,365.6684027444121,608.7426440912482
48,37125.75,33365.0,"[0,6,7]",3,174.34244636472218,456.52790095149567,549.5502738160176
48,39639.0625,34227.0,"[1,2,3]",3,183.7493488115434,127.69261421419851,195.0539910914892
48,7406.015625,6593.0,[10],1,364.2522484888698,353.6803400951494,579.2453727438607
72,34542.71875,29902.0,"[0,6,7]",3,189.96038809961053,462.6808533952979,509.9127369574968
72,44418.8828125,39464.0,"[1,2,3]",3,180.92385448228634,131.7651541160792,181.45075151914008
72,6506.794921875,5878.0,[9],1,310.71522047714694,372.43677477780807,739.5789533717624
72,5960.751953125,5035.0,[10],1,369.38011307690914,363.66892678507395,567.8029486501053
96,33338.3720703125,30370.0,"[0,7]",2,205.52597649081937,515.8640045197665,569.6902229251882
96,34753.005615234375,30240.0,"[1,2]",2,167.42024313165527,130.87394410320775,188.1746330941707
96,9008.1669921875,7544.0,"[3,11]",2,381.24912899134364,180.22182249874615,260.23432539461044
96,9827.4677734375,8478.0,[6],1,211.02659463416236,318.4636953812583,504.97106988076683
96,5581.349365234375,4768.0,[9],1,325.3433728149141,343.20718682963496,748.2561651272383
120,51566.72998046875,46171.0,"[0,6,7]",3,252.96798578268493,471.64667484593514,543.0147975674312
120,28743.125701904297,24399.0,"[1,2]",2,210.08374815712034,152.69093938511935,216.96357329911518
120,8412.020874023438,7286.0,"[3,11]",2,361.3406960072906,182.17994903228814,286.68679246610895
120,7165.430419921875,6139.0,"[9,10]",2,376.87144499875757,337.29110839250524,700.4505362219021
144,39633.841247558594,33188.0,"[0,6,7]",3,274.07602026813174,499.1760063684058,534.9779509827567
144,23311.890712738037,19719.0,"[1,2]",2,231.71187675049384,147.24068932600485,215.37486896184663
144,4958.075191497803,4589.0,[11],1,382.06499734783307,194.16166490385018,390.71624822184253
144,11742.427417755127,11060.0,[3],1,473.3795238441133,152.5716527020985,219.02672093197702
144,6065.383815765381,5822.0,[8],1,539.7742777001575,141.39068336102716,567.9183338217755
144,9475.678802490234,8580.0,"[9,10]",2,438.1420952616247,419.8117706364392,691.460826612756
168,35664.230155944824,30710.0,"[0,6,7]",3,299.528649235487,496.7777727545118,517.5915705122072
168,22762.986339092255,19849.0,"[1,2]",2,259.6702451692485,152.81515814472098,225.88457196884823
168,17129.562826156616,15042.0,"[3,11]",2,438.77263750761296,170.71420567749772,291.6093825326378
168,2853.959897994995,2595.0,[6],1,285.80998528208426,382.0585856862151,464.56681241433245
168,7345.172976970673,6587.0,[8],1,514.7533329535704,142.98173761360266,564.4239212375533
168,10429.45985031128,9245.0,"[9,10]",2,455.6435125858227,431.15360253989974,659.2745631961591
