time_in_hour,cumulative_size,size,pcore_ids,pcore_power,SCA-1,CD11b,Ly6C
-1,0,0,[],0,0.0,0.0,0.0
0,6080,6080,[0],1,85.93750000000274,417.2164473684211,536.9095394736864
0,15228,15228,"[3,16]",2,112.91095350670197,120.03519831888617,150.87713422642554
0,7581,7581,[4],1,191.13111726685204,98.68632106582285,216.82522094710453
0,7775,7775,[7],1,184.1143408360137,401.09697749196135,553.496334405145
0,6475,6475,[9],1,224.94934362934333,485.7073359073366,564.8722779922773
24,17593.5,15690.0,"[3,16]",2,128.95370449314035,116.62511723079547,146.197835848467
24,9873.625,8926.0,[4],1,206.19029231918455,96.41308283431904,219.58257478889502
24,7506.875,6535.0,[7],1,198.91407876113647,390.34779785196935,564.2496045291792
24,6243.375,5434.0,[9],1,231.59338899233197,494.03701924039547,572.4117965042949
24,5938.0,5465.0,[11],1,366.8162470528739,350.2257915122929,670.0591318625789
24,6902.75,6297.0,[14],1,203.63128825468183,165.29359675491668,309.2891963347942
48,6559.25,6067.0,[0],1,106.63990738270745,428.420655943895,533.5100859473254
48,18477.1875,16278.0,"[3,16]",2,129.47383767145715,116.51462106990039,146.58710656721973
48,7885.203125,6651.0,[4],1,210.11046600337278,96.07936740691137,214.09131422977774
48,7453.359375,6515.0,[7],1,201.7888598891027,396.13379243839336,549.6937287087414
48,6706.40625,6189.0,[8],1,131.3040656089124,552.4232986183928,592.5319377460906
48,7621.421875,6841.0,[9],1,222.13473740751311,514.3114186780291,557.5329324621603
48,6441.578125,5889.0,[10],1,180.49057999665456,364.1749571266748,783.5461443114916
48,5507.25,4765.0,[11],1,353.4034880157913,349.33680035407787,650.3255509782533
48,5769.84375,4907.0,[14],1,203.50048203211836,160.93114252444028,313.7832371977141
72,6166.90625,5347.0,[0],1,116.65942328254474,446.86162910900276,492.428801541495
72,10315.25,9252.0,[3],1,95.25704755247659,130.86249443330286,211.15725011209165
72,8478.650390625,7493.0,[4],1,212.03592317929076,98.64903345235925,207.15928910597881
72,7521.669921875,6590.0,[7],1,216.3407365956955,413.29305483245747,510.6610836658143
72,8825.677734375,7873.0,[9],1,233.38160313024727,527.6286056732129,529.5926671707895
72,5758.40625,5070.0,[11],1,341.8164826286516,358.659418431749,679.7092813359811
72,5942.23046875,5221.0,[14],1,224.00187186392935,174.95424467743132,305.30691140150765
72,11841.3984375,10595.0,[16],1,149.63889581638995,118.13718406490973,83.39503671243448
96,6120.86328125,5350.0,[0],1,114.24294804335698,455.90827526371584,517.2584546099691
96,9458.40625,8169.0,[3],1,100.73832813755008,131.5388539388324,217.61736846811274
96,16951.006103515625,14411.0,"[4,16]",2,180.71269708378696,108.16974552450186,145.23852540555953
96,7071.208740234375,6131.0,[7],1,216.98234457227514,423.18277572618405,528.9338996427623
96,7713.28759765625,7281.0,[8],1,149.3309302958792,563.1232701178399,587.2612282300247
96,10525.209716796875,9422.0,[9],1,238.04217870324635,535.1934219086517,551.2017273260317
96,6586.77880859375,5844.0,[14],1,238.88745762236778,166.39837730544988,311.6410256904459
120,6211.30078125,5029.0,[3],1,105.57418279249652,137.04528564229435,223.9906315522901
120,6747.603912353516,5711.0,[4],1,229.95411536262947,94.40812989781764,211.36256378262254
120,8354.728302001953,7483.0,"[5,18]",2,451.0093253135929,148.4833505856096,NA
120,8451.901092529297,7568.0,[7],1,240.26676474266347,433.80958646627187,522.0277903713181
120,6157.160949707031,5193.0,[8],1,164.2856277165941,559.2125161325821,566.7794576171384
120,16361.65121459961,15046.0,[9],1,259.21066437062694,539.6726626039309,544.9614531624838
120,5980.85009765625,5490.0,[11],1,410.0524894222076,426.1407449749479,713.2604419625502
120,6837.347351074219,6014.0,[14],1,273.40418139565725,166.94378749065012,321.66155967529374
120,5894.2718505859375,4812.0,[16],1,160.06616073023724,115.448625830018,81.48801772257426
144,5985.574485778809,5638.0,[2],1,538.883823491628,129.01900063264856,542.0523293352933
144,6422.450489044189,5579.0,[4],1,246.91492970875845,93.00322117717955,218.9201551941178
144,13078.341037750244,12034.0,"[5,18]",2,506.4755176297602,137.28784493817398,NA
144,5404.487636566162,4348.0,[7],1,262.2514772425117,447.7043204530027,527.1961188686432
144,5763.645118713379,4994.0,[8],1,187.97212686278095,557.2453052213305,561.7087756549372
144,13702.206401824951,11657.0,[9],1,279.967050392785,546.2069220801317,526.8564376460001
144,7860.606262207031,7113.0,[11],1,468.1297709335256,469.35024684584164,733.5412537730649
144,6816.668418884277,5962.0,[14],1,320.0784878116252,155.6803877913841,332.91189143610626
168,6115.196810722351,5367.0,[2],1,507.282145465386,126.9310913158078,517.5031846079664
168,6687.806311130524,5885.0,[4],1,259.14175489773845,103.11790456143308,231.3514193209292
168,8263.995667934418,6961.0,[5],1,497.43289313524724,133.59822862087742,209.89220230955894
168,6458.56095457077,5783.0,[7],1,291.80863532297144,448.69493041477193,521.8328257665096
168,9511.775800228119,7799.0,[9],1,294.7711182076771,556.9684472513387,510.0921277473848
168,6136.230028629303,5496.0,[10],1,387.0235374879439,348.86851554058074,700.5224049919915
168,7789.575782775879,6807.0,[11],1,499.04745579487883,489.48264867279494,720.4286893303256
168,5909.919111251831,5235.0,[13],1,380.21707020845497,576.5371435165307,586.0802178193126
168,7546.083552360535,6694.0,[14],1,356.78926641177316,159.5860540777395,338.17075167153246
