time_in_hour,cumulative_size,size,pcore_ids,pcore_power,SCA-1,CD11b,Ly6C
-1,0,0,[],0,0.0,0.0,0.0
0,5304,5304,[0],1,80.90346907994187,401.8578431372548,531.6310331825063
0,18458,18458,"[1,4]",2,111.64384006935096,128.97497020262227,163.9198179651106
0,8429,8429,[5],1,202.4225886819327,109.21307391149591,188.20215921224334
0,4110,4110,[14],1,191.3734793187355,147.1591240875909,707.7153284671554
0,5069,5069,[6],1,154.70289998027337,349.08976129414094,779.0869994081694
0,3467,3467,[8],1,154.9991346985877,347.1638304009228,413.04845687914656
0,5947,5947,[9],1,194.4933579956278,360.8668236085422,525.1291407432323
0,4593,4593,[10],1,106.91160461572143,512.0202482037902,604.3220117570215
0,12307,12307,"[11,12]",2,194.2826846510124,453.3776712440074,562.8106768505734
0,3131,3131,[15],1,233.33631427658852,554.6336633663364,682.8933248163527
0,4513,4513,[16],1,361.8852204741797,356.84644360735734,630.0372257921573
0,6011,6011,[17],1,195.82565296955647,175.96972217601072,285.03177507902217
24,3149.5,2818.0,[0],1,90.26686775678598,378.6724480076212,536.999424511828
24,18868.625,17715.0,"[1,4]",2,125.57402168944867,124.22944173197583,161.70929254251473
24,2725.625,2645.0,[2],1,222.56659023159912,142.25890850722314,490.4055950470085
24,3104.8125,3036.0,[3],1,427.61420778227057,116.81864846911031,646.3038629546878
24,9826.8125,9300.0,[5],1,216.41094200179367,108.1443054398367,181.95617856756684
24,4993.875,4737.0,[14],1,232.55208880878925,148.3310054817151,723.0978698906168
24,4392.8125,4076.0,[6],1,195.8444191506019,363.6465248630581,793.4653482250828
24,4062.1875,3925.0,[7],1,391.7151319332227,128.5896453573355,226.25877375182753
24,5769.6875,5398.0,[9],1,200.97253967394255,343.5700265395656,530.3704815035483
24,3537.0625,3250.0,[10],1,130.47021716466784,525.7130210450058,611.8150831374884
24,5233.375,4905.0,[11],1,241.86372321876377,466.46789834475834,599.0664962858586
24,5007.8125,4567.0,[12],1,167.12591575663185,436.0690421216855,556.2587082683323
24,2706.375,2578.0,[13],1,397.0637845826944,296.15098609763936,428.03517158560845
24,3603.6875,3408.0,[15],1,284.02268509686155,548.7032033160499,727.6004613330091
24,5970.0625,5688.0,[16],1,368.69333445001007,353.31321908271434,659.3478502109474
24,8220.6875,7845.0,[17],1,222.51134713489574,150.77882780485223,294.9929522317932
48,4217.84375,4021.0,[0],1,92.29110697853737,379.1106070933757,515.160377970082
48,18983.2890625,17804.0,"[1,4]",2,126.17381858468843,123.23377756999278,159.68976661628
48,8038.17578125,7424.0,[5],1,221.89989469197943,109.95238687649235,172.59327437963208
48,3788.1171875,3476.0,[14],1,212.39403748151582,158.35245494236702,723.2672955520857
48,6281.55078125,6007.0,[6],1,186.8445037146868,370.65901695005886,782.9766410439292
48,5951.60546875,5591.0,[9],1,194.7097809086446,338.9084241318814,506.35471586907653
48,6026.06640625,5805.0,[10],1,129.4002636981424,550.791887198389,604.4733854809151
48,4923.0859375,4596.0,[11],1,241.6054153343222,480.08202981806056,591.4242130904311
48,7376.98828125,7064.0,[12],1,162.12801315747203,443.81343377235646,543.6341097659576
48,2885.1484375,2716.0,[13],1,380.67563681460916,316.19602815063104,453.0919322825138
48,3887.23046875,3662.0,[15],1,261.2529847829067,539.856511353782,718.8441270546301
48,5591.12890625,5218.0,[16],1,355.0814466834605,348.02030280948594,633.4140746117743
48,6543.79296875,6030.0,[17],1,220.49333964497586,153.5076226218666,297.29505715996413
48,3755.34765625,3630.0,[18],1,197.44533576597564,547.6715257096915,486.94869087728114
72,4030.615234375,3767.0,[0],1,99.19461882321713,397.8209871951731,457.731888681598
72,22633.45556640625,21447.0,"[1,4]",2,121.14171525201147,129.98047923949002,155.3947784146714
72,9628.385986328125,9126.0,[5],1,224.97928526513374,117.52120655910637,159.89828872346007
72,3625.596923828125,3233.0,[6],1,261.8356638471083,364.7130714264798,746.5427838694396
72,2813.992919921875,2657.0,[7],1,396.2298808401574,142.82634556396468,199.9581945000549
72,6562.975341796875,6191.0,[9],1,208.3925607025417,361.4964940969492,459.93551877027335
72,3118.629150390625,2742.0,[10],1,152.3547329497133,561.6705918041512,572.961455639446
72,5173.69287109375,4866.0,[11],1,262.34380310810104,505.0233717415962,564.8203492107148
72,7017.061767578125,6556.0,[12],1,176.6929050060575,450.645941419639,508.92197074061136
72,3238.75732421875,3002.0,[14],1,277.44216501645036,176.35100328284122,706.8843387770931
72,2887.951904296875,2645.0,[15],1,306.7938592876105,521.5915006199564,705.9059905143696
72,4799.445556640625,4450.0,[16],1,353.19197056910446,354.9012335561837,646.3404360519538
72,7226.987060546875,6818.0,[17],1,236.7159244259256,162.65431520762988,290.02194330542613
72,5185.709228515625,4951.0,[18],1,206.010826167637,533.5811244610283,469.4847405201288
96,3156.9134521484375,2905.0,[0],1,92.67009162484553,401.2658178384147,484.8152613099386
96,18656.59097290039,17242.0,"[1,4]",2,124.58144042571014,129.423495219077,167.89016039055682
96,2854.258010864258,2770.0,[3],1,511.61177365340967,133.7661866963905,629.8362667966695
96,8431.774124145508,7830.0,[5],1,223.7998414755382,117.036131022501,166.8941354369516
96,4111.422332763672,3909.0,[14],1,251.78767989854538,164.5485009113544,741.2162823956074
96,4561.599807739258,4335.0,[6],1,250.12100122226428,356.7998028024882,793.5074543700199
96,4113.874557495117,3938.0,[7],1,449.88750363988163,152.9904501288271,206.95151178688548
96,4134.185958862305,3724.0,[9],1,203.367170876589,351.58089174501345,465.50883558010577
96,7530.914321899414,7336.0,[10],1,146.55858137325106,564.7333724359362,589.9151422665487
96,8266.35580444336,7943.0,[11],1,254.88140618895264,530.2158946843639,579.6967916393323
96,7702.566360473633,7264.0,[12],1,179.9526936090949,451.301681505654,541.2783040555867
96,2744.4969940185547,2564.0,[15],1,328.8866307203018,549.9243399635232,707.0519346811946
96,3409.965347290039,3110.0,[16],1,380.19106356670164,380.50095518081685,642.9821156717557
96,7489.68669128418,7038.0,[17],1,243.86085933389725,154.04646910021913,296.80774958962763
96,3850.1068267822266,3526.0,[18],1,203.03475989659705,536.5992108864713,489.55789911105956
120,2829.3070907592773,2632.0,[0],1,104.13802981698298,411.47162672483813,469.12492924497883
120,7082.322708129883,6392.0,[1],1,123.57506887523175,137.0150576001066,230.63701464131904
120,5002.714227676392,4527.0,[4],1,143.29162370154904,124.72044046366314,85.3953159428737
120,7176.985882759094,6650.0,[5],1,249.4776200302339,116.51665510872094,159.2750594698266
120,4328.099987983704,4043.0,[6],1,357.5637112681103,344.617643684898,787.3434013000676
120,4557.117159843445,4300.0,[7],1,458.7377773839712,141.53168492215175,202.80140986493757
120,4945.386622428894,4687.0,[9],1,220.79777371570339,349.64805204234364,451.9465162945385
120,5700.682145118713,5230.0,[10],1,152.55007827632866,553.5593521663629,562.5904835522524
120,13014.64723777771,12498.0,[11],1,280.0984696601621,550.6417074918894,574.9868290265581
120,7488.410397529602,7007.0,[12],1,212.7810861291114,455.64240483201047,538.6104379188575
120,3973.9638957977295,3717.0,[14],1,338.6614419330103,148.18278154579136,734.4902722039348
120,3503.5310621261597,3332.0,[15],1,409.0767992839688,532.7397054645437,733.369941288594
120,3769.1228342056274,3556.0,[16],1,398.0529324731252,411.47038985078404,619.9047559902442
120,7333.105418205261,6865.0,[17],1,270.40843905223494,152.33941463159945,302.38857745630514
120,6990.631676673889,6750.0,[18],1,231.64453079402853,528.2867040671551,490.8891351753764
144,5761.645169258118,5319.0,[1],1,151.16705067599983,128.5948772610223,233.37472560050588
144,3533.4964195489883,3372.0,[2],1,374.543851115637,131.00845770886883,500.8883794427367
144,5635.8994453549385,5475.0,[3],1,580.8908754061565,133.262731809014,609.9108018813697
144,3873.6696392297745,3561.0,[4],1,155.84755451873124,121.73193355180224,89.59812140737486
144,6765.561617672443,6317.0,[5],1,283.83572470875725,115.24304165151985,150.425158448381
144,6797.5062492489815,6527.0,[6],1,380.28567001144677,388.41983065626926,759.3767656965279
144,9338.819822490215,9054.0,[7],1,506.63014195111464,133.84164735314283,200.8325352890664
144,5721.29263406992,5365.0,[10],1,174.5791612316334,553.31746200953,547.1640843269687
144,10936.415452361107,10123.0,[11],1,312.4783836431925,562.3996729440748,568.6178619240118
144,5614.0256498456,5146.0,[12],1,243.4862416683155,471.3317141134717,544.0248567985414
144,3036.581377387047,2921.0,[13],1,529.5301775314031,289.09667106949763,363.1437128892347
144,4105.372743487358,3857.0,[14],1,355.8442467285709,157.060906348394,714.9602599735551
144,5074.570177137852,4839.0,[16],1,491.4241625917309,476.9478139307617,659.8915684058837
144,7032.319088637829,6574.0,[17],1,309.22307732876016,142.9300987353616,299.69878082459275
144,7003.914479792118,6567.0,[18],1,265.3603003050541,530.9292569487457,470.04465583201323
168,3021.4269808232784,2901.0,[0],1,163.27680087575345,466.06279432382263,449.5365992103659
168,5881.102823078632,5521.0,[1],1,175.39664119746254,131.36029101608761,237.019473975843
168,5534.843526221812,5314.0,[2],1,419.2786252783523,129.50598627936373,485.5895100243818
168,6323.243715334684,5971.0,[3],1,565.2023425081526,139.00412499307504,631.5292319341046
168,3528.104352451861,3286.0,[4],1,169.1252048294136,124.19809256513511,96.74886598153512
168,6065.847601104528,5643.0,[5],1,311.43005553862866,118.70068143077395,143.3135110808543
168,7725.844140578061,7301.0,[6],1,401.4969862462226,401.79142015494824,706.6730405188806
168,7369.6762389056385,6786.0,[7],1,498.08361409311607,131.82779783556492,209.30352010639416
168,3911.58078962937,3554.0,[10],1,204.09962039968224,563.2169737672297,532.3641456802891
168,8328.52596577257,7645.0,[11],1,346.71730637929886,584.4808312544793,557.731115003646
168,5705.87660311535,5355.0,[12],1,284.05970512873364,458.5031280487687,537.8466460505308
168,3828.7863360866904,3639.0,[13],1,532.0468193905801,296.8931923056776,383.8056203063343
168,4715.58579646796,4459.0,[14],1,371.7859572777855,165.81239987936115,668.2197681799021
168,4861.160636071116,4544.0,[16],1,539.9402728048267,502.7318072776502,690.1980577801457
168,7413.519943039864,6974.0,[17],1,332.99265777949046,141.54850016152503,299.05221920372503
168,7246.744654987007,6809.0,[18],1,290.806859277703,522.9842673975561,462.0169048445213
