time_in_hour,cumulative_size,size,pcore_ids,pcore_power,SCA-1,CD11b,Ly6C
-1,0,0,[],0,0.0,0.0,0.0
0,42805,42805,"[0,3,7,8,10]",5,NA,NA,NA
0,37139,37139,"[1,2]",2,166.95527612483156,147.90045504725498,NA
0,4354,4354,[5],1,NA,NA,NA
0,3050,3050,[6],1,NA,NA,NA
24,54687.5,33285.0,"[0,3,7,8,10]",5,NA,NA,NA
24,60433.5,41864.0,"[1,2]",2,NA,143.99870105156793,NA
24,2875.0,2336.0,[4],1,NA,NA,NA
24,6497.0,4320.0,[5],1,NA,360.7575804217322,NA
24,10507.0,8195.0,"[6,9]",2,NA,NA,NA
48,68922.75,41579.0,"[0,3,7,8,10]",5,NA,NA,NA
48,65223.75,35007.0,"[1,2]",2,NA,141.81916479809763,NA
48,3282.5,1845.0,[4],1,NA,NA,NA
48,9986.5,6738.0,[5],1,NA,NA,NA
48,10084.5,4831.0,"[6,9]",2,NA,NA,NA
72,62913.25,31938.0,"[0,3,7,8]",4,195.26646612597716,NA,NA
72,73414.875,40803.0,"[1,2]",2,184.40514609607766,139.69728716421636,NA
72,2666.25,1025.0,[4],1,276.3710267229237,151.5428973277075,473.6698077824664
72,10467.25,5474.0,[5],1,255.78330029377253,377.5331151926244,748.9861592108732
72,9989.25,4947.0,"[6,9]",2,NA,174.2742573266262,678.7186225192083
72,9299.125,5813.0,[10],1,360.10466038470855,342.07078622988706,550.5738711975619
96,73160.625,41704.0,"[0,3,7,8]",4,208.7627600228965,NA,NA
96,72212.4375,35505.0,"[1,2]",2,NA,140.9193733074041,NA
96,2156.125,823.0,[4],1,NA,NA,NA
96,10217.625,4984.0,[5],1,NA,NA,744.764726391899
96,10103.625,5109.0,"[6,9]",2,NA,NA,NA
96,6524.5625,1875.0,[10],1,NA,NA,NA
120,81064.3125,44484.0,"[0,3,7,8]",4,NA,NA,NA
120,64920.21875,28814.0,"[1,2]",2,NA,145.48621216329482,NA
120,3483.0625,2405.0,[4],1,NA,NA,NA
120,10570.8125,5462.0,[5],1,326.3303021882146,NA,NA
120,11418.8125,6367.0,"[6,9]",2,NA,NA,NA
120,5730.28125,2468.0,[10],1,390.66635036456165,NA,NA
144,72893.15625,32361.0,"[0,3,7,8]",4,NA,NA,NA
144,39773.0,15164.0,[1],1,NA,136.7482816546411,NA
144,23312.109375,15461.0,[2],1,NA,156.70520819718698,NA
144,6946.53125,5205.0,[4],1,NA,NA,NA
144,14029.40625,8744.0,[5],1,NA,NA,NA
144,6922.28125,3578.0,[6],1,NA,NA,NA
144,8565.125,6200.0,[9],1,NA,NA,NA
144,6152.140625,3287.0,[10],1,NA,NA,NA
168,34776.5,14890.0,[1],1,NA,139.94115863082857,NA
168,24881.0546875,13225.0,[2],1,NA,NA,NA
168,58716.2578125,27142.0,"[3,8]",2,NA,NA,NA
168,10891.265625,7418.0,[4],1,NA,NA,NA
168,22927.7734375,12837.0,"[5,10]",2,NA,NA,NA
168,7570.140625,4109.0,[6],1,NA,NA,NA
168,4851.9765625,1713.0,[7],1,NA,NA,NA
168,12126.5625,7844.0,[9],1,NA,NA,NA
