time_in_hour,cumulative_size,size,pcore_ids,pcore_power,SCA-1,CD11b,Ly6C
-1,0,0,[],0,0.0,0.0,0.0
0,25810,25810,"[0,8,9,10,11]",5,NA,NA,NA
0,36285,36285,"[1,2,5,18]",4,NA,140.67697395618038,NA
0,4135,4135,[3],1,NA,NA,NA
0,6167,6167,"[8,9]",2,NA,NA,NA
0,3883,3883,[12],1,NA,NA,NA
0,6198,6198,[14],1,NA,NA,NA
24,25091.5,13971.0,"[0,9,10,11]",4,NA,NA,NA
24,57766.5,39624.0,"[1,2,5,18]",4,NA,137.97912284801794,NA
24,6099.5,4032.0,[3],1,NA,NA,NA
24,3811.0,3047.0,[4],1,NA,NA,NA
24,7640.5,4638.0,"[6,8]",2,NA,NA,NA
24,5596.0,4095.0,[7],1,NA,NA,NA
24,7244.5,5303.0,[12],1,NA,NA,NA
24,8941.0,5842.0,[14],1,NA,NA,NA
24,5349.5,4393.0,[17],1,NA,NA,NA
48,19535.0,11471.0,"[0,9,11]",3,NA,NA,NA
48,62591.25,33708.0,"[1,2,5,18]",4,NA,NA,NA
48,19690.5,12159.0,"[3,10]",2,NA,NA,NA
48,4207.5,2302.0,[4],1,NA,NA,NA
48,4927.0,3060.0,[6],1,163.1003145930616,NA,NA
48,7512.0,4714.0,[7],1,NA,NA,NA
48,4156.25,2203.0,[8],1,NA,NA,NA
48,9001.25,5379.0,[12],1,NA,NA,NA
48,11993.5,7523.0,[14],1,NA,NA,NA
48,3635.75,2431.0,[16],1,NA,NA,NA
48,5010.75,2336.0,[17],1,NA,NA,NA
72,18435.0,10866.0,"[0,11]",2,NA,NA,NA
72,67420.875,38532.0,"[1,2,5]",3,NA,NA,NA
72,4251.875,1314.0,[3],1,NA,NA,NA
72,4048.75,1945.0,[4],1,NA,NA,NA
72,11449.625,6908.0,"[6,8]",2,NA,NA,NA
72,9105.0,5349.0,[7],1,284.8804777594703,NA,NA
72,15830.375,8923.0,[10],1,NA,NA,NA
72,8344.625,3844.0,[12],1,344.32661743337064,NA,NA
72,11038.75,5042.0,[14],1,NA,NA,NA
72,9997.125,5085.0,"[17,18]",2,NA,NA,NA
96,15932.5,6715.0,"[0,11]",2,NA,NA,NA
96,71851.8125,35538.0,"[1,2,5,18]",4,NA,143.5688191581806,NA
96,24845.125,14804.0,"[3,10]",2,NA,NA,NA
96,4429.375,2405.0,[4],1,NA,NA,NA
96,9135.8125,3411.0,"[6,8]",2,NA,NA,NA
96,8327.5,3775.0,[7],1,NA,NA,NA
96,6642.3125,2470.0,[12],1,NA,NA,NA
96,16600.375,11081.0,[14],1,231.80498934512008,NA,NA
96,6273.1875,3878.0,[17],1,NA,NA,NA
120,6501.6875,2903.0,[0],1,NA,NA,NA
120,44403.78125,17995.0,"[1,2]",2,NA,138.38501929382437,NA
120,11409.9375,4805.0,[5],1,NA,153.93252592312604,NA
120,36240.125,19450.0,"[3,10,11]",3,NA,NA,NA
120,5636.6875,3422.0,[4],1,NA,NA,NA
120,4606.625,2245.0,[6],1,NA,NA,NA
120,9155.75,4992.0,[7],1,NA,NA,NA
120,6894.15625,3517.0,"[8,9]",2,NA,NA,NA
120,6458.15625,3137.0,[12],1,NA,NA,NA
120,23022.1875,14722.0,[14],1,NA,NA,584.8700628469808
120,4309.46875,2575.0,[15],1,NA,NA,NA
120,8236.59375,5100.0,[17],1,NA,NA,NA
120,6982.1875,4070.0,[18],1,NA,NA,NA
144,4396.84375,1146.0,[0],1,NA,NA,NA
144,37787.890625,15586.0,"[1,2]",2,NA,NA,NA
144,8856.96875,3152.0,[5],1,NA,NA,261.2830733567838
144,39925.359375,20332.0,"[3,11,14]",3,NA,NA,NA
144,7852.34375,5034.0,[4],1,NA,NA,NA
144,11928.875,7351.0,[7],1,NA,NA,NA
144,18333.796875,8296.0,[10],1,NA,NA,528.6477961210597
144,7723.078125,4494.0,[12],1,NA,NA,NA
144,8811.734375,6657.0,[15],1,NA,NA,NA
144,15418.296875,11300.0,[17],1,NA,NA,NA
144,6910.09375,3419.0,[18],1,NA,NA,NA
168,3651.421875,1453.0,[0],1,NA,NA,NA
168,17517.4140625,9441.0,[1],1,NA,NA,NA
168,24626.015625,9380.0,"[2,5]",2,NA,NA,NA
168,18547.6328125,10658.0,"[3,11]",2,NA,NA,NA
168,11065.171875,7139.0,[4],1,NA,NA,NA
168,12493.4375,6529.0,[7],1,NA,NA,NA
168,3650.3203125,2077.0,[8],1,NA,NA,NA
168,13668.8984375,4502.0,[10],1,NA,NA,NA
168,9520.5390625,5659.0,[12],1,NA,NA,NA
168,21863.046875,9790.0,[14],1,NA,NA,558.6349712521453
168,11975.8671875,7570.0,[15],1,NA,NA,NA
168,16343.1484375,8634.0,[17],1,NA,NA,NA
168,6960.046875,3505.0,[18],1,NA,NA,NA
