time_in_hour,cumulative_size,size,pcore_ids,pcore_power,SCA-1,CD11b,Ly6C
-1,0,0,[],0,0.0,0.0,0.0
0,15211,15211,"[0,8]",2,0.15775573413386032,0.43983538050428456,0.5346395374698802
0,30591,30591,"[1,2,5]",3,0.16442829076188237,0.1441164489422626,0.15328776626806775
0,5029,5029,[6],1,0.17921582909015463,0.40317245946361774,0.8199117722997287
0,4503,4503,[7],1,0.30737810248847675,0.18676211836653886,0.2813420105477813
0,7382,7382,[10],1,0.2382995077610596,0.5065373949842532,0.5895179932647834
0,5324,5324,[9],1,0.13298314184654955,0.5737644101158969,0.6189593620684758
0,2931,2931,[16],1,0.23544481884849658,0.572299386647029,0.5183580176274045
0,3381,3381,[13],1,0.2616266047210277,0.6273927631253168,0.7034426630146592
0,4374,4374,[14],1,0.4054502345319313,0.4087318213135215,0.6524698486602868
0,2876,2876,[15],1,0.16953282492850577,0.36370666272286145,0.3602097537101462
24,11688.375,9787.0,"[0,8]",2,0.1723181452617337,0.41318320011563603,0.5367447449773466
24,34811.875,30988.0,"[1,2,5]",3,0.1828883015066363,0.13758676951315357,0.15269847063345668
24,5028.875,4696.0,[3],1,0.3907445736824859,0.1561937109572312,0.7532620774271339
24,3057.25,2918.0,[4],1,0.36220110420890883,0.14152856554536766,0.5129638172506426
24,4862.625,4234.0,[6],1,0.2218051065380902,0.41385965138794717,0.8354821550610827
24,8151.875,7589.0,[7],1,0.3494817057149742,0.1597753584298091,0.26898338833671076
24,4082.5,3417.0,[9],1,0.146600865574494,0.5828460928862585,0.6282289895078796
24,10521.125,9232.0,"[10,16]",2,0.24651604496624763,0.5218799856935109,0.5780878967098778
24,2948.625,2625.0,[11],1,0.1821813252320524,0.16712823812157238,0.7097475032009288
24,4381.625,3959.0,[13],1,0.30606192805308763,0.6223406624203078,0.7381879631588099
24,6355.75,5809.0,[14],1,0.41435789586266925,0.4039611982451473,0.6829556816263465
24,2721.5,2362.0,[15],1,0.2068542319069746,0.36542732456399235,0.3115993673245331
48,6734.40625,6150.0,[0],1,0.12287878014487609,0.47225949345732615,0.5437534516476434
48,32731.484375,28380.0,"[1,2,5]",3,0.18004342020817024,0.1374074734166691,0.1483560515762142
48,6852.828125,6245.0,[6],1,0.21753460323230012,0.42215686415510173,0.825752249222003
48,5784.984375,4766.0,[7],1,0.35214075353876023,0.1594645223601986,0.2637214367597661
48,7191.640625,6315.0,[8],1,0.19931612430894588,0.37249896810872324,0.5064032807477471
48,6238.3125,5728.0,[9],1,0.1425057497970675,0.610442403992299,0.6260247615156144
48,7305.46875,6382.0,[10],1,0.24307549874495163,0.4990520649907511,0.590000388224738
48,3119.578125,2751.0,[11],1,0.18316570823412426,0.1779946974969897,0.7201224525442502
48,2935.625,2606.0,[12],1,0.4376922455882614,0.3733959687853125,0.4600825208053471
48,4780.703125,4233.0,[13],1,0.2891699259866127,0.6190867881629307,0.7290629847359069
48,6013.46875,5219.0,[14],1,0.4005301097565374,0.396678382174291,0.6587502848184847
48,5781.671875,5390.0,[16],1,0.22378432269276066,0.607940784118151,0.5185705072517964
72,6400.80078125,5559.0,[0],1,0.1315360548018943,0.49197425250296517,0.49434297142955896
72,24913.890625,22181.0,"[1,5]",2,0.19943094656771027,0.14597859821508113,0.17403000802341914
72,12862.544921875,11504.0,[2],1,0.137194998590458,0.14293318492961754,0.0647832121279965
72,3002.701171875,2692.0,[3],1,0.37982569927838533,0.19061732124364678,0.7384934670031709
72,4418.603515625,3562.0,[6],1,0.29355057495911363,0.42053632207646063,0.7920324728509555
72,6761.123046875,6038.0,[7],1,0.3554361930022185,0.17523247919265653,0.2549943624016903
72,7557.955078125,6659.0,[8],1,0.2128635727682222,0.39901622669525894,0.46045452329579495
72,3190.7890625,2411.0,[9],1,0.16242706186437067,0.6216789519965767,0.5968855419335647
72,14688.892578125,13053.0,"[10,16]",2,0.24825699640774965,0.5572189065028678,0.5218382319083643
72,2841.953125,2475.0,[12],1,0.4504190549158519,0.372142513008257,0.467806667561365
72,4020.587890625,3423.0,[13],1,0.3231583300551729,0.6168065214997712,0.6962942359367261
72,5289.68359375,4538.0,[14],1,0.39846842915089853,0.4066115254369752,0.6693686977943679
96,5846.10009765625,5046.0,[0],1,0.12800435631529203,0.49994939605201133,0.5196696109805987
96,8336.669189453125,7100.0,[1],1,0.2692917587643696,0.13566298036351937,0.11363292324320219
96,9617.818115234375,8010.0,[2],1,0.13812989429012368,0.1417090226070208,0.06874378180472437
96,15885.567138671875,14008.0,[5],1,0.16679553765424138,0.1520146681069236,0.2247627304729592
96,5918.325439453125,5366.0,[6],1,0.29895993554090977,0.40372727880181764,0.8275174523927328
96,8211.140380859375,7366.0,[7],1,0.42756699043077806,0.18416210364126134,0.2530615153110414
96,5239.744384765625,4295.0,[8],1,0.20825260719043426,0.3806492058075753,0.4614339197000811
96,14690.437255859375,13289.0,"[9,16]",2,0.2035157838540678,0.6203165018358878,0.568664570223781
96,8361.52294921875,7528.0,[10],1,0.26152568660539594,0.5097362520206721,0.567298101256687
96,4983.493408203125,4751.0,[11],1,0.2885710700474622,0.16801312506032942,0.7232442347375394
96,6175.573486328125,5673.0,[13],1,0.326759921837673,0.637261367469367,0.6685727045643121
96,3992.21044921875,3331.0,[14],1,0.47663229608322233,0.3785271611445135,0.6639480400984885
120,5803.762512207031,5073.0,[0],1,0.14866611196642868,0.5013860781654513,0.4969491577572045
120,8194.08364868164,7152.0,[1],1,0.35483395946811047,0.14629236818541594,0.1392857690771928
120,8145.227264404297,6943.0,[2],1,0.16170654493691353,0.14017521518601822,0.07179861388506323
120,12282.695892333984,10297.0,[5],1,0.194781072138002,0.15547667971894433,0.2350907946684399
120,5633.790679931641,4894.0,[6],1,0.4003992435910758,0.37549553951081394,0.8206122072022692
120,5647.392547607422,4621.0,[7],1,0.4745188592115157,0.1888025418375416,0.2640536899743399
120,5602.968048095703,4948.0,[8],1,0.25026481641477,0.3445563429752682,0.44623175164980305
120,20972.304656982422,19136.0,"[9,16]",2,0.25142265351953524,0.621582991337555,0.5570840857991822
120,9764.190368652344,8719.0,[10],1,0.2868047357923447,0.5099009853318118,0.5525426494741663
120,3882.9366760253906,3260.0,[11],1,0.34066123347354194,0.15562019111447337,0.7173142774982997
120,7808.946685791016,7037.0,[13],1,0.4050222835100332,0.6098757517618351,0.690601572101435
120,3210.0263061523438,2711.0,[14],1,0.505548143799899,0.4038097853417393,0.6550436258534106
144,14821.077323913574,13233.0,"[0,9]",2,0.2607295759261508,0.5471147496828701,0.5293989763886502
144,7761.260456085205,6737.0,[1],1,0.4064383448644848,0.15526205793287132,0.15281928203334944
144,9932.153408050537,8914.0,[2],1,0.21938298283350982,0.1530926825576409,0.1262996169029641
144,3907.5677757263184,3630.0,[3],1,0.6155075085939,0.14792307334667512,0.6544507244110431
144,3074.7239151000977,2846.0,[4],1,0.4758878742015079,0.16658614144249512,0.4678731508788106
144,9092.336986541748,7557.0,[5],1,0.2761283860086696,0.17286619950158083,0.2608679212320147
144,6338.223834991455,5634.0,[6],1,0.4529546555883049,0.3766363567206039,0.7697401781961918
144,8044.924068450928,7339.0,[7],1,0.5393939377790686,0.17719862575552772,0.24599803162427772
144,22982.45486831665,20003.0,"[10,16]",2,0.33794122578297386,0.5771095892969633,0.5559979894014858
144,3606.367084503174,3121.0,[11],1,0.409827511091294,0.1718400884580015,0.6972058187693406
144,5515.118335723877,4539.0,[13],1,0.47537016459586723,0.5685338556986458,0.7169355025426494
168,15539.634665489197,13687.0,"[0,9]",2,0.2999407215988114,0.5275184665187518,0.5041714638218601
168,8603.15755701065,7633.0,[1],1,0.4094154254601732,0.1659347790041994,0.1719807241748447
168,10650.519176006317,9409.0,[2],1,0.24596001797207684,0.16366712931878313,0.14606442608188988
168,6223.44597196579,5735.0,[3],1,0.5765714494148,0.14653281879984592,0.6269616633659002
168,4253.340489387512,3869.0,[4],1,0.4736754519162194,0.1623804360392361,0.45428768170710815
168,6755.5421233177185,5619.0,[5],1,0.31763900480576085,0.18061544366392707,0.2764651899497197
168,5903.277979373932,5111.0,[6],1,0.4857573015059141,0.3936288403724224,0.7270655069241495
168,6375.615508556366,5370.0,[7],1,0.5326936467210355,0.1782578700645495,0.2557090521019171
168,19956.80685853958,17084.0,"[10,16]",2,0.36782423293545224,0.5874245834764216,0.5527716816754082
168,4018.7958855628967,3568.0,[11],1,0.45915095008374474,0.19928384452703155,0.6723351949993728
168,2782.305164337158,2508.0,[12],1,0.5577050708020757,0.27603328783195963,0.42131798563134915
168,5593.389791965485,4904.0,[13],1,0.515457490350751,0.5511352105958917,0.7091097222002817
168,2789.477514266968,2623.0,[15],1,0.4231631327853249,0.24653743837127415,0.3489344292095498
