time_in_hour,cumulative_size,size,pcore_ids,pcore_power,SCA-1,CD11b,Ly6C
-1,0,0,[],0,0.0,0.0,0.0
0,15351,15351,"[0,7]",2,0.1548339638965098,0.439217263249612,0.5324656925493569
0,31117,31117,"[1,2,4]",3,0.16529784470572298,0.14421835440230898,0.1557477622534337
0,7829,7829,[9],1,0.23433733124181158,0.5042744836028483,0.585811674429574
0,2670,2670,[17],1,0.2454424946345157,0.5745407324554703,0.514586722054003
24,39606.25,31827.0,"[1,2,4]",3,0.18305154851213046,0.13849718345963577,0.1553372159758872
24,8648.75,7611.0,[6],1,0.36296230376864663,0.16208898181216552,0.2855410249881619
24,8049.25,6071.0,[7],1,0.20624438804229556,0.3877847167402832,0.5183199156805606
24,11887.75,9263.0,"[9,17]",2,0.24413203659040122,0.5194137830199194,0.5759273866497758
24,5767.75,4870.0,[16],1,0.41775408497169003,0.4202439410429065,0.6746062966851887
48,7024.875,5694.0,[0],1,0.11738336141372949,0.47211860221341656,0.5454786207349149
48,29001.5,21283.0,"[1,3,4]",3,0.21023153199941216,0.14170173451396612,0.2539852500525368
48,13041.6875,9907.0,[2],1,0.14172132653915143,0.13500952620888687,0.07399778270133724
48,6732.1875,4570.0,[6],1,0.36245717084252715,0.1609587937667756,0.28219186012912334
48,8407.3125,6395.0,[7],1,0.20073029489694205,0.37989231928397343,0.5081411953578094
48,7111.625,5952.0,[8],1,0.14608959416622605,0.6094511742412702,0.6184242940788683
48,8483.3125,6325.0,[9],1,0.2389530106073251,0.49710330132090286,0.5914172404860658
48,5627.8125,4392.0,[12],1,0.2848804062388263,0.6175848727220092,0.7316346404872287
48,6114.9375,4673.0,[16],1,0.406201290792904,0.40604180318585115,0.655908457945463
48,6011.625,5198.0,[17],1,0.2309408596686626,0.6036742842605205,0.5159274043882236
72,6752.21875,4996.0,[0],1,0.12490164359728548,0.488317264513207,0.5033074379504419
72,31710.375,24460.0,"[1,3,4]",3,0.21447512548506345,0.14925983320955485,0.23680774035132693
72,15486.421875,12226.0,[2],1,0.13886949195108741,0.14200968868003352,0.06829548099511133
72,7318.046875,5635.0,[6],1,0.36253162425169383,0.17405425101265343,0.2699775375972945
72,8982.828125,6881.0,[7],1,0.21242434334908322,0.4017750063770567,0.47091270665526497
72,16782.734375,13159.0,"[9,17]",2,0.24500768689983124,0.5561488416250434,0.5269327891525515
72,5823.421875,4629.0,[13],1,0.3347103520083086,0.4042731175870694,0.7876235036984277
96,6247.0546875,4559.0,[0],1,0.12379646338112735,0.4953637066908958,0.5168732800410143
96,32025.59375,24098.0,"[1,3,4]",3,0.21644299676881495,0.1505583457262441,0.26597033438667006
96,12190.60546875,8319.0,[2],1,0.14057763911389473,0.14148310908334635,0.06909086550604182
96,8595.51171875,6766.0,[6],1,0.4065507847704253,0.17355710384595352,0.2531854982686638
96,6294.70703125,4049.0,[7],1,0.2083193271891069,0.3957412959047214,0.47018144866466277
96,16758.703125,13306.0,"[8,17]",2,0.20365038691063497,0.6154956134512883,0.5606337091002189
96,8753.70703125,6985.0,[9],1,0.2518366343600782,0.5121289672629016,0.5717189145509776
96,6681.23828125,5499.0,[12],1,0.3092342021679103,0.6427275330486959,0.6707261146379705
120,27404.3984375,19398.0,"[1,3,4]",3,0.2507388727372507,0.1503949963367162,0.29033169177820534
120,8122.6513671875,5075.0,[2],1,0.14310669494452824,0.14152340304469088,0.06758235942931907
120,9632.8779296875,7484.0,[6],1,0.4404319162001885,0.17033745468384048,0.2449668976162252
120,6429.6767578125,4856.0,[7],1,0.2226341291431961,0.3976394434619277,0.4603788726233987
120,19841.67578125,15652.0,"[8,17]",2,0.23564512967394421,0.6146872453418843,0.5460679662059325
120,10375.4267578125,8187.0,[9],1,0.2712512403816528,0.5191950156194534,0.5611874398824801
120,9067.3095703125,7397.0,[12],1,0.33546538906109297,0.649288704820106,0.6407611261142564
120,6329.4638671875,5037.0,[13],1,0.40941687675494476,0.4339837691147235,0.8299206375222958
120,5470.7333984375,4385.0,[16],1,0.4657651604240865,0.48294664747441257,0.6539954971683981
144,14580.8916015625,10932.0,"[1,3]",2,0.37465554737590273,0.1443119259211525,0.33600992287716464
144,6699.662841796875,4669.0,[2],1,0.16545462630831081,0.13894085807355763,0.07018632843391825
144,10881.2080078125,7679.0,[4],1,0.21516626530775831,0.1428531069228586,0.2335962507143429
144,13188.219482421875,10780.0,[6],1,0.5272134947662119,0.1642030565758212,0.22503918217414368
144,5994.73291015625,4254.0,[8],1,0.1878848750394016,0.6254504151059834,0.5763505201054635
144,21425.542724609375,15612.0,"[9,17]",2,0.29307277650194075,0.5816448136785658,0.5253049723737369
144,9655.827392578125,7389.0,[12],1,0.36846346942884545,0.6461785734684887,0.6182847216853865
144,9197.365966796875,7615.0,[13],1,0.4676966954035438,0.47453686867446493,0.8006959685882437
144,6538.47314453125,5625.0,[14],1,0.6325485449659276,0.15562502762480013,0.613572970022007
168,9097.333618164062,6691.0,[1],1,0.3650014529712588,0.13454636638045891,0.12274487031396397
168,5720.915710449219,4046.0,[2],1,0.17927260315572446,0.14141970268564677,0.07448354637234396
168,9187.302001953125,6467.0,[4],1,0.22647640291650356,0.14057489837186135,0.23216550623114854
168,11710.054870605469,8413.0,[6],1,0.5399880780138576,0.15637793332258115,0.2204290285517189
168,19667.385681152344,14311.0,"[9,17]",2,0.31578154011573484,0.5766863708601888,0.5114929616897053
168,5914.4605712890625,4994.0,[10],1,0.42300800309245074,0.15001198435530302,0.4866837543589272
168,9262.956848144531,6849.0,[12],1,0.3959936151474266,0.6586276254993576,0.595485670800562
168,13199.012329101562,9697.0,"[13,16]",2,0.5256697219512052,0.5149566347954927,0.7455310574163421
168,8433.618286132812,6799.0,[14],1,0.6277126521505894,0.15675555027018426,0.6302698544281273
