time_in_hour,cumulative_size,size,pcore_ids,pcore_power,SCA-1,CD11b,Ly6C
-1,0,0,[],0,0.0,0.0,0.0
0,8588,8588,[0],1,0.1105125783036742,0.458966078101191,0.5372172078302646
0,19948,19948,"[1,3]",2,0.14296316490290942,0.1402809068283417,0.12157528281773207
0,11744,11744,[5],1,0.19736265039953735,0.1639002914360042,0.22519009849317045
0,7722,7722,[6],1,0.22232945996991035,0.41697781856152744,0.48061060032106806
0,10463,10463,[8],1,0.17486992687984823,0.5520834459545695,0.5922664806539608
24,5723.0,3576.0,[0],1,0.11155867218223162,0.44636683723611,0.5459049114910436
24,24024.0,19037.0,"[1,3]",2,0.16007092158777933,0.13630790872023896,0.11250779426586825
24,16026.0,13090.0,[5],1,0.20912874023532202,0.15079961620624477,0.23350703492125818
24,8131.75,7073.0,[4],1,0.391092205852835,0.1632263874898498,0.24815847694254028
24,6661.5,4731.0,[6],1,0.22315472862254815,0.4096585770261556,0.4690012682991889
24,7345.5,6417.0,[7],1,0.23179111418058523,0.4492789780180635,0.5967861480272353
24,8466.75,5851.0,[8],1,0.17824666416514695,0.5594081626463535,0.5901732198460338
24,5742.5,4756.0,[9],1,0.4095939011803308,0.44023150400778405,0.6602393167033956
24,5593.0,4457.0,[14],1,0.2742307298248004,0.627899096964287,0.6641199009101809
48,6946.75,5516.0,[0],1,0.11575410334556027,0.4461553096950984,0.5423322485887907
48,25041.0,19035.0,"[1,3]",2,0.16026913614481678,0.13682132004869454,0.11058839838967036
48,14343.5,10337.0,[5],1,0.2139873187674979,0.15015677379682446,0.23464096360511208
48,5914.9375,3882.0,[4],1,0.39549246331802396,0.15736882793338147,0.23357281876970065
48,6685.375,5020.0,[6],1,0.2109607967416733,0.40995085510742524,0.4497172508700875
48,8224.375,6388.0,[7],1,0.23493528161611985,0.45920150309183855,0.5832278872539061
48,12334.6875,10218.0,[8],1,0.1713995511994486,0.5848160531628066,0.5693009990306661
48,5807.625,4372.0,[9],1,0.405094268988191,0.42564176581321905,0.650662487766037
48,7091.25,5693.0,[14],1,0.25815298961966504,0.6402212532492958,0.6644783421018611
72,5493.6875,3757.0,[0],1,0.1162002808125984,0.46473326299173223,0.5103763681392679
72,29793.25,23533.0,"[1,3]",2,0.15671327878826896,0.14287098919047364,0.10634866927750876
72,14757.875,11172.0,[5],1,0.22139086711180042,0.15529572001074893,0.22790663725325694
72,6341.734375,4863.0,[4],1,0.3968604182892054,0.16511564966739117,0.21481781881402234
72,9499.34375,7828.0,[6],1,0.20963640081435475,0.4245110131223486,0.43639594586928077
72,7704.09375,5648.0,[7],1,0.25185407318695757,0.48140425503563605,0.5518226862491814
72,11845.671875,8762.0,[8],1,0.1942390170092935,0.5923241031047748,0.5281292993611839
72,5933.8125,4161.0,[14],1,0.28250601881783527,0.6419751024463347,0.6396716279708474
96,25188.3125,17740.0,"[1,3]",2,0.1556360771477662,0.1430330395038065,0.11289306612943639
96,15485.46875,11796.0,[5],1,0.2282000970917494,0.15278850970615532,0.22703620053132326
96,7329.43359375,5744.0,[4],1,0.45924809610463396,0.1853527986414542,0.2015076374752586
96,5999.8359375,3625.0,[6],1,0.2077926353937805,0.4114790690066402,0.4404252129133382
96,9149.0234375,7223.0,[7],1,0.25427830762429626,0.49982922254111395,0.5564125969386339
96,13096.41796875,10135.0,[8],1,0.18149112184969982,0.6021199641144311,0.5538773229179477
96,10286.453125,8803.0,[14],1,0.2763330225779459,0.6490778375249497,0.6296837529001226
120,7900.0791015625,4964.0,[1],1,0.11062790799703005,0.15253850100497407,0.17773575994192112
120,23491.3662109375,16259.0,"[3,5]",2,0.23257564159947058,0.14574628695386507,0.15340417457604108
120,10238.4013671875,7971.0,"[4,17]",2,0.4786577893260327,0.1659747678677293,0.31814449993025756
120,6426.958984375,4927.0,[6],1,0.21848181887991058,0.40098472173049776,0.43221325458666104
120,13258.255859375,10971.0,[7],1,0.2772899852357221,0.5245321146962838,0.5409465403724931
120,12139.1044921875,8865.0,[8],1,0.19160527075577719,0.6079623596797676,0.5478811316840156
120,14472.61328125,11901.0,[14],1,0.3080043114716536,0.645227453557855,0.604605361379392
144,7381.019775390625,5406.0,[1],1,0.1610593427222988,0.1629038646529529,0.19320372966889632
144,9482.249755859375,6942.0,[3],1,0.2613974002765253,0.1448955992106884,0.09422456387317844
144,11238.089599609375,9287.0,[4],1,0.5351399952245675,0.16997785330801657,0.1919961477811036
144,11849.591796875,8517.0,[5],1,0.310830938417225,0.16403925266113922,0.24650937889719107
144,8921.56396484375,5607.0,[7],1,0.32372944164782846,0.5076257763613091,0.5282483522802139
144,15046.776123046875,12012.0,[8],1,0.2530411316621596,0.5787170595048791,0.5355244131500273
144,17549.1533203125,13931.0,[14],1,0.35090050840766446,0.6155601245026945,0.5851273916385995
144,6916.197998046875,5656.0,[18],1,0.484217734290907,0.5097634221463133,0.7742953419047472
168,6745.254943847656,4900.0,[1],1,0.18626627701970788,0.1694309299270807,0.20066933390905042
168,9815.562438964844,7445.0,[3],1,0.2900607518153182,0.15295914034451447,0.11014847366895363
168,10528.522399902344,7719.0,[4],1,0.5241733588167752,0.16835532692759628,0.19533532177954918
168,10053.39794921875,7091.0,[5],1,0.3412621561081436,0.1689442972551455,0.25976374703423427
168,20358.085021972656,14366.0,"[7,8]",2,0.30949208083732904,0.5485990043056799,0.5200118522881049
168,5460.452331542969,4301.0,[11],1,0.5850919111482226,0.17155053087679775,0.5563158149396389
168,16081.288330078125,11694.0,[14],1,0.3730550036293474,0.6232186610768063,0.5664622822912639
168,5484.817565917969,4309.0,[16],1,0.43488804037607026,0.18727595579331338,0.3848831063494106
168,7599.049499511719,5870.0,[18],1,0.5182777732735335,0.5257864759476193,0.7452943722455334
