time_in_hour,cumulative_size,size,pcore_ids,pcore_power,SCA-1,CD11b,Ly6C
-1,0,0,[],0,0.0,0.0,0.0
0,27493,27493,"[0,7,10]",3,167.82417342596494,434.77830720547166,544.8403957370961
0,25816,25816,"[1,2]",2,135.03280911063231,126.49012240471002,168.59277192438793
0,9167,9167,[4],1,226.0794152939912,154.76949929093485,269.074833642414
0,5582,5582,[5],1,164.8328556073104,358.291830884987,776.445360085993
0,4795,4795,[6],1,193.11324296141882,146.09301355578705,692.3336809176227
0,4561,4561,[8],1,123.85310238982866,322.89169041876823,444.21135715851926
0,4779,4779,[9],1,201.52521448001642,555.9397363465185,653.1104833647188
0,5448,5448,[11],1,371.4383259911841,347.08663729809155,597.968245227606
24,21669.3125,19951.0,"[0,7,10]",3,182.76114551396265,429.4055014435749,553.751165963386
24,25957.5,24344.0,"[1,2]",2,148.5702181450474,121.79804728883738,162.9576206298757
24,12576.9375,12004.0,[4],1,236.0415144783855,131.7196853367529,269.2101366091696
24,4542.25,4433.0,[3],1,405.83862623148974,177.29694809840962,302.206904617756
24,5463.875,5115.0,[5],1,217.8926242822177,372.31727711559984,792.2079796847477
24,5812.6875,5513.0,[6],1,224.6640000860174,146.01580594174374,695.7218584346745
24,4339.0625,4054.0,[8],1,166.98834713719978,305.46859200576137,407.17090385307876
24,4816.6875,4518.0,[9],1,247.35921989956742,557.8786769953415,683.5303177754421
24,6856.5,6516.0,[11],1,376.74261649529,358.1971851527734,626.3609986873751
24,3590.0,3552.0,[12],1,413.1881615598848,120.04173050139269,635.3159993036202
48,17746.6953125,16868.0,"[0,10]",2,160.00245468236554,495.35404456903683,548.6718968804512
48,25346.34375,23724.0,"[1,2]",2,146.47173578413413,122.27370272216272,162.58977302569525
48,9430.05859375,8644.0,[4],1,250.88385585488354,129.42150661013727,263.88318976676555
48,7492.4921875,7151.0,[5],1,203.37420323886766,376.99357846761103,780.7799714088796
48,4634.29296875,4271.0,[6],1,204.5353752890098,150.82700216372675,688.4320609181369
48,9886.63671875,9411.0,[7],1,176.65091887368646,364.72325491440324,524.249965724726
48,4113.19140625,3842.0,[8],1,182.2453007045748,321.85286953086325,367.2640295087164
48,6103.04296875,5802.0,[9],1,224.41899244677467,557.5111416628113,673.8315651964062
48,7349.53125,6921.0,[11],1,364.44310436464235,350.68028148053554,590.7700932244807
72,26116.083251953125,24389.0,"[0,7,10]",3,185.12576504856662,458.514849299501,498.45343368494207
72,29185.146484375,27601.0,"[1,2]",2,141.84649330162543,128.84459765559217,153.13858437293771
72,2793.4931640625,2678.0,[3],1,406.12742083042036,186.39950619411664,248.39864586614345
72,10623.378662109375,10034.0,[4],1,246.87038603477941,137.8962683161274,247.79829516264198
72,6191.28076171875,5723.0,[5],1,291.3733516917467,374.2797216394674,741.5921545886227
72,4095.643310546875,3806.0,[6],1,260.0371229789641,167.39764189450813,676.7983759896322
72,4741.074462890625,4484.0,[8],1,185.32710668654303,347.73175710876603,344.1718150383421
72,4416.440185546875,4035.0,[9],1,265.24403657786127,556.1773849805139,639.9603115887977
72,5469.345703125,5010.0,[11],1,373.6209932489449,359.77529804789094,571.4076003774587
96,29524.448028564453,28493.0,"[0,10]",2,197.20130666298746,482.7527487996267,553.6373836444168
96,28762.071655273438,26938.0,"[1,2]",2,163.45499114871802,130.90579231028215,179.90365273756873
96,10064.961166381836,9401.0,[4],1,310.95731992594057,148.67605969003625,274.65902743044336
96,3697.955047607422,3311.0,[5],1,NA,NA,758.2203654147281
96,3633.9777069091797,3378.0,[6],1,304.56728018641974,173.50080692994084,704.5591643167644
96,5493.807174682617,4893.0,[7],1,NA,310.5294291754126,NA
96,8198.02751159668,7922.0,[9],1,285.97143008682355,NA,668.089811187005
120,49610.7874917984,46803.0,"[0,7,8,9,10]",5,255.60783627323354,NA,NA
120,23382.62947845459,21585.0,"[1,2]",2,NA,151.29167206866362,NA
120,6647.060072898865,6018.0,[4],1,NA,NA,NA
120,3578.287082672119,3465.0,[3],1,NA,NA,NA
120,5098.122190475464,4867.0,[5],1,376.37541140309395,NA,NA
120,4173.123606681824,3946.0,[6],1,NA,NA,NA
120,1697.3629484176636,1354.0,[7],1,NA,NA,NA
144,34879.165920078754,32111.0,"[0,9,10]",3,NA,NA,NA
144,19500.414342403412,18039.0,"[1,2]",2,NA,144.05769898636433,NA
144,10402.642942667007,10179.0,[3],1,NA,153.25364134567508,NA
144,6789.441254556179,6374.0,[4],1,NA,NA,NA
144,7040.6326369047165,6722.0,[5],1,413.63548419446437,NA,NA
144,4515.820225417614,4255.0,[6],1,NA,NA,NA
144,4156.139976978302,4054.0,[11],1,461.8790607470265,NA,NA
144,6039.2340450286865,5922.0,[12],1,NA,NA,NA
168,33865.59931462258,31594.0,"[0,8,9,10]",4,NA,NA,NA
168,19236.775896400213,18018.0,"[1,2]",2,NA,150.71813836319697,NA
168,10008.165183916688,9358.0,[3],1,NA,155.64033499513187,NA
168,6615.340078409761,6191.0,[4],1,NA,184.39849680317744,NA
168,6410.039539806545,5970.0,[5],1,437.7414446022686,NA,NA
168,12769.690891902894,12110.0,"[6,12]",2,NA,NA,NA
168,5107.758748561144,4848.0,[11],1,NA,NA,NA
