time_in_hour,cumulative_size,size,pcore_ids,pcore_power,SCA-1,CD11b,Ly6C
-1,0,0,[],0,0.0,0.0,0.0
0,38684,38684,"[0,3,8,9]",4,NA,NA,NA
0,37128,37128,"[1,2,5]",3,162.16063348416583,144.3424369747901,NA
0,3661,3661,"[4,6]",2,NA,NA,NA
24,23008.125,19323.0,"[0,8,9]",3,NA,NA,NA
24,45440.0,40799.0,"[1,2,5]",3,NA,140.0760398327466,NA
24,2414.875,2189.0,[6],1,NA,NA,NA
24,9274.375,8124.0,[3],1,NA,NA,NA
24,7025.375,6475.0,[11],1,NA,NA,NA
48,25345.015625,22469.0,"[0,8,9]",3,NA,NA,NA
48,41463.0,35783.0,"[1,2,5]",3,NA,NA,NA
48,19986.96875,18298.0,"[3,7]",2,NA,NA,NA
48,6711.171875,5833.0,[11],1,332.8133871925248,346.53047739892656,NA
72,43250.92578125,38515.0,"[1,2]",2,NA,144.78066798967563,NA
72,3675.13671875,3310.0,[4],1,NA,180.17537081422338,NA
72,25177.115234375,22168.0,"[3,9]",2,211.6274126049032,NA,NA
72,10612.48046875,8953.0,"[7,11]",2,303.6565786156074,NA,NA
72,6249.544921875,5468.0,[8],1,NA,NA,NA
96,41772.377685546875,36904.0,"[0,3,6,8,9]",5,NA,NA,NA
96,42878.484375,37043.0,"[1,2,5]",3,NA,148.94182430008388,NA
96,5059.39208984375,4600.0,[4],1,NA,NA,NA
96,4998.697998046875,4277.0,[7],1,NA,NA,759.7605777422431
96,5817.83154296875,4593.0,"[6,8]",2,NA,NA,NA
120,48403.54721069336,43182.0,"[0,3,6,8,9]",5,NA,NA,NA
120,28584.92071533203,23808.0,"[1,2]",2,NA,146.12847178022366,NA
120,11252.313842773438,10037.0,"[4,5]",2,NA,NA,NA
120,5682.837249755859,5058.0,[7],1,375.5109368321103,NA,NA
120,3419.149139404297,3032.0,[8],1,NA,NA,NA
144,35301.41478347778,30120.0,"[0,3,9]",3,NA,NA,NA
144,24230.115089416504,20657.0,"[1,2]",2,NA,139.7968946912194,NA
144,17037.53923034668,15631.0,"[4,5]",2,NA,NA,NA
144,12412.415000915527,11208.0,"[7,11]",2,NA,NA,NA
144,5888.123184204102,5589.0,[10],1,NA,NA,NA
144,4874.457897186279,4551.0,[12],1,NA,NA,NA
168,31657.676847934723,27245.0,"[0,3,9]",3,NA,NA,NA
168,13247.853044986725,11501.0,[1],1,NA,138.46308307123584,NA
168,10660.911341190338,9379.0,[2],1,NA,NA,285.0255581403424
168,9782.772250175476,8320.0,[4],1,NA,NA,NA
168,5587.920153617859,4921.0,[5],1,NA,NA,NA
168,12848.551875114441,11297.0,"[7,11]",2,NA,NA,NA
168,7308.015398025513,6572.0,[10],1,NA,NA,NA
168,7350.307237148285,6741.0,[12],1,NA,NA,NA
