time_in_hour,cumulative_size,size,pcore_ids,pcore_power,SCA-1,CD11b,Ly6C
-1,0,0,[],0,0.0,0.0,0.0
0,37913,37913,"[0,3,6,7]",4,NA,NA,NA
0,37189,37189,"[1,2,8]",3,NA,140.84481970475196,NA
0,2563,2563,[9],1,NA,NA,NA
0,4767,4767,[5],1,NA,NA,NA
24,32662.125,27923.0,"[0,3,6,7]",4,NA,NA,NA
24,45701.625,41053.0,"[1,2,8]",3,NA,136.43844721057533,NA
24,4049.375,3729.0,[9],1,NA,NA,NA
24,5356.875,4761.0,[5],1,NA,NA,NA
24,6802.75,6218.0,[11],1,NA,NA,NA
24,3992.0,3814.0,[10],1,NA,NA,NA
48,39788.765625,35706.0,"[0,3,6,7]",4,NA,NA,NA
48,40366.703125,34654.0,"[1,2,8]",3,NA,NA,NA
48,7577.609375,6908.0,[5],1,NA,NA,NA
48,6685.34375,5835.0,[11],1,NA,NA,NA
72,37712.595703125,32739.0,"[0,3,6,7]",4,NA,NA,NA
72,48830.712890625,43423.0,"[1,2,8,10]",4,NA,NA,NA
72,6069.201171875,5122.0,[5],1,280.9710851182181,NA,NA
96,41026.074462890625,36312.0,"[0,3,6,7]",4,NA,NA,NA
96,36966.86767578125,31807.0,"[1,2]",2,NA,141.09472370509127,NA
120,47547.25930786133,42419.0,"[0,3,6,7]",4,NA,NA,NA
120,27957.858459472656,23337.0,"[1,2]",2,NA,143.74254571197335,NA
144,38145.407413482666,32202.0,"[0,3,6,7]",4,NA,NA,NA
144,23806.732307434082,20312.0,"[1,2]",2,NA,137.47702440584115,NA
144,7443.994533538818,6726.0,[5],1,NA,NA,NA
144,2382.059886932373,1580.0,[6],1,NA,NA,NA
144,7042.76420211792,6574.0,[9],1,NA,NA,NA
144,10540.605224609375,9824.0,[10],1,NA,NA,NA
168,35355.17592668533,30587.0,"[0,3,6,7]",4,NA,NA,NA
168,23610.84153842926,20635.0,"[1,2]",2,NA,NA,NA
168,8102.499316692352,7172.0,[5],1,NA,NA,NA
168,3175.7574858665466,2878.0,[6],1,NA,NA,NA
168,6805.340306758881,6049.0,[8],1,NA,NA,NA
168,7625.34552526474,6745.0,[9],1,NA,NA,NA
168,9440.575653076172,8123.0,[10],1,NA,NA,NA
