time_in_hour,cumulative_size,size,pcore_ids,pcore_power,SCA-1,CD11b,Ly6C
-1,0,0,[],0,0.0,0.0,0.0
0,37913,37913,"[0,3,6,7]",4,175.63052251206904,431.1544325165516,556.8579379104787
0,37189,37189,"[1,2,8]",3,159.91204388394715,140.84481970475196,249.53779343354157
0,2563,2563,[9],1,251.68552477565296,198.81349980491544,342.0932500975413
0,4767,4767,[5],1,156.25676526117178,348.13782252989324,764.9523809523826
24,46733.5,27777.0,"[0,3,6,7]",4,191.44416746017467,431.3287898402644,565.284934789819
24,59125.5,40531.0,"[1,2,8]",3,180.6933302889652,137.338153588553,267.9861734784479
24,4899.5,3618.0,[9],1,283.5068884580026,196.32544137156856,358.6040412286974
24,6980.5,4597.0,[5],1,189.70976291096733,365.8728601103063,775.6712269894718
24,9128.0,6789.0,[11],1,377.3418054338252,328.9511941279579,632.0404250657332
24,4989.0,4277.0,[10],1,363.0111244738391,137.7794147123673,247.92693926638552
48,58845.75,35479.0,"[0,3,6,7]",4,186.28371632615952,445.8929319449581,559.6376756180345
48,63881.75,34319.0,"[1,2,8]",3,176.53490629170676,135.80170392952567,255.18388663428817
48,4962.75,2513.0,[9],1,297.91728376403785,207.00664953906644,364.61845750843787
48,10519.25,7029.0,[5],1,196.7315635620415,374.2332152957664,772.9353803740723
48,10390.0,5826.0,[11],1,368.2862367661137,330.8708614051967,620.8515399422535
48,5194.5,2700.0,[10],1,359.4864279526379,132.4592838579265,231.28881509288564
72,63124.875,33702.0,"[0,3,6,7]",4,199.4516187160784,447.6332666005281,533.5753516343575
72,72220.875,40280.0,"[1,2,8]",3,176.71773396542542,141.5096570070624,235.56534900747116
72,5338.375,2857.0,[9],1,302.1264898026047,215.1403985295154,363.7406748308242
72,8594.625,3335.0,[5],1,229.2714632691938,378.8656718588646,758.5981063746236
72,10628.0,5433.0,[11],1,359.33157696649624,329.85313558524604,628.2390619119324
72,5473.25,2876.0,[10],1,354.5014616544047,138.1212031242864,219.1379664733015
96,68383.4375,36821.0,"[0,3,6,7]",4,203.1640227211465,465.132130861366,545.4034931704028
96,71990.4375,35880.0,"[1,2,8]",3,184.73265546552892,141.57482547595248,251.76779641740555
96,8633.3125,4336.0,[5],1,241.22978578616176,367.8610252437865,766.3817480254537
96,7284.625,4548.0,[10],1,394.83248108172694,150.50272834909094,214.7943699915928
96,9268.0,3954.0,[11],1,392.0291324989155,328.77552465472564,633.2157288519661
120,76833.71875,42642.0,"[0,3,6,7]",4,223.80959043453817,478.8221707673086,539.7800928872757
120,53526.3125,21601.0,"[1,2]",2,176.86187225675565,141.772030344889,196.70574226928068
120,9380.90625,5311.0,[8],1,348.0755923767997,143.5459194041089,707.9002495094738
120,8462.65625,4146.0,[5],1,300.14560292460936,375.0698953121237,771.8422407267205
120,9566.3125,5924.0,[10],1,415.84856037788506,147.99537112654403,204.33006121742253
120,6894.59375,4032.0,[9],1,353.02756235637105,204.1742533778737,371.6670081177737
120,9312.0,4678.0,[11],1,427.2961769759403,349.69295331292983,642.1643779531806
144,70332.859375,31916.0,"[0,3,6,7]",4,242.24460250731678,496.6112612281357,534.6629904718652
144,44225.15625,17462.0,"[1,2]",2,189.51311046809667,138.64324108521413,197.46206132680362
144,21923.328125,13036.0,"[5,11]",2,416.37540063274326,391.08670629815686,708.363759209119
144,28177.609375,18704.0,"[8,10]",2,445.41216125170297,137.60498057245098,399.18267718107217
144,10507.296875,7060.0,[9],1,420.3887893383618,188.80472201609942,386.52172522963957
168,65144.4296875,29978.0,"[0,3,6,7]",4,263.87009393910307,501.81323494298215,521.4734954914439
168,39271.578125,17159.0,"[1,2]",2,207.13429022500023,139.2248481229071,202.43006870028853
168,23802.6640625,12841.0,"[5,11]",2,443.073482780451,412.7238895593686,699.8460558347442
168,32874.8046875,18786.0,"[8,10]",2,463.06845287816475,137.19542178838967,404.5693928789979
168,13716.6484375,8463.0,[9],1,446.55652830644357,188.63672453240306,391.4194697251464
