time_in_hour,cumulative_size,size,pcore_ids,pcore_power,SCA-1,CD11b,Ly6C
-1,0,0,[],0,0.0,0.0,0.0
0,35438,35438,"[0,6,9]",3,165.31065522885254,439.1122806027437,547.9139341949304
0,25562,25562,"[1,2]",2,135.88881934121298,124.98509506298413,166.79571238557224
0,7080,7080,[3],1,180.92005649717686,168.09943502824902,297.98460451977485
0,5482,5482,[10],1,370.662167092297,353.8755928493259,576.8296242247355
24,21853.5,15883.0,"[0,6]",2,157.87942434850598,392.6779806438344,522.6504450088089
24,29702.5,23312.0,"[1,2]",2,148.303055298379,120.69520242403864,157.9115562663073
24,12652.0,10882.0,[3],1,194.89499683844633,149.9683054062606,294.26578801770404
24,5745.0,4754.0,[7],1,209.5048302872056,156.1482593559617,716.3385987815494
24,6462.75,5583.0,[8],1,296.691346562992,401.0240609647589,770.7545162662966
24,12602.0,9713.0,[9],1,220.1963775591176,514.6725122996356,605.0906205364199
24,7509.5,6139.0,[10],1,376.74299220986165,355.74012916971833,582.3980291630603
24,8156.75,7103.0,[11],1,354.68801912526084,153.15168418794238,257.51650473534164
48,41980.875,33367.0,"[0,6,9]",3,174.39120045735365,454.3947645802987,546.6265620952372
48,29720.625,22295.0,"[1,2]",2,147.978949803381,121.65959876348498,153.42190818665534
48,11974.0,8811.0,[3],1,198.0310568732261,147.62859111408113,291.9572145899438
48,5485.25,4049.0,[7],1,205.14840937058645,159.15353675766806,706.1049747048887
48,6901.6875,5286.0,[8],1,283.20921513759856,402.9886259700973,765.9220208825733
48,8598.375,6721.0,[10],1,367.48000348902514,349.30607527585084,572.0521028682726
48,6044.1875,4005.0,[11],1,357.7139814077518,149.84329986453895,251.29025820261282
72,41456.21875,30961.0,"[0,6,9]",3,188.72306816151843,459.66569136566557,508.1020406317193
72,34260.15625,26830.0,"[1,2]",2,144.94288007662388,127.13076368777516,146.962369735252
72,12627.5,9634.0,[3],1,205.75996584834766,152.70355870124803,277.7928269154631
72,7624.421875,5899.0,[8],1,304.6464916397311,394.19243057362877,742.2627842684801
72,7402.59375,5253.0,[10],1,371.65901732078146,355.47461404997296,562.2554425602514
72,6606.046875,5095.0,[11],1,360.2438249047342,162.93272971969253,238.6188577226828
96,33551.78515625,27102.0,"[0,9]",2,192.07640893735166,521.4382710867781,561.0757661576556
96,29151.0390625,20586.0,"[1,2]",2,144.68350238373714,126.27000873414438,152.48727251092356
96,13998.875,10842.0,[3],1,215.58821635220679,145.48005085230042,275.93640420881974
96,10634.26953125,6720.0,[6],1,187.28863201332334,371.6202140558982,462.0212755562899
96,6081.578125,4877.0,[7],1,249.97050326164216,163.26696593965875,708.2171035221659
96,6783.10546875,4877.0,[8],1,322.088658921086,400.9445762248216,759.3719684994004
96,5403.6484375,3553.0,[10],1,402.068381171858,373.42613280668195,556.519579508636
96,7764.51171875,6113.0,[11],1,416.72574086325034,177.3419066616692,233.82112174029058
120,39526.9462890625,31139.0,"[0,9]",2,222.50222765111846,528.8172543883436,552.5525101509907
120,21168.759765625,13881.0,"[1,2]",2,156.3750849871391,127.15948024640139,150.84944251483523
120,13709.71875,10210.0,[3],1,238.35033983077577,146.57516309142125,281.255500417701
120,10830.5673828125,8172.0,[6],1,201.13788790966487,372.1062098998048,456.2802223271958
120,6563.39453125,5043.0,[7],1,304.4803685985617,155.72508970503458,703.5485051442405
120,8362.7763671875,6667.0,[8],1,377.52143514501665,411.81770092846705,767.714303981216
120,5764.912109375,4414.0,[10],1,414.7693840871207,409.07247847379233,556.3304311000526
120,8651.1279296875,6710.0,[11],1,434.44808644103773,173.47649235135236,227.47527558895064
144,36032.736572265625,26151.0,"[0,9]",2,244.00926037790938,536.8482286639161,539.8170996156769
144,16646.18994140625,11354.0,"[1,2]",2,178.82180020373073,123.68524746873811,148.1816506375498
144,12918.4296875,9491.0,[3],1,268.0504608166362,139.068300783341,285.9601779215299
144,8929.012939453125,7782.0,[5],1,539.2297996756523,135.6312892676132,582.0424975782144
144,5929.641845703125,3222.0,[6],1,220.42939456920269,385.2477779287898,439.4711335269253
144,5927.8486328125,4287.0,[7],1,333.19966802122127,151.9442138841809,689.2717503221097
144,10378.694091796875,8288.0,[8],1,434.49597744176276,449.69808272097026,758.0827308264275
144,6104.22802734375,4663.0,[10],1,449.576137873184,433.0992730528499,539.8300972710479
144,14919.781982421875,12757.0,[11],1,483.54523559072106,155.09200032262322,222.59805347042558
168,29650.184143066406,20642.0,"[0,9]",2,267.35143740924474,543.1447785611696,527.1749329276656
168,15308.547485351562,11147.0,"[1,2]",2,201.1993898122038,126.74435849875485,151.66801277571517
168,13479.607421875,10250.0,[3],1,297.34113407383177,142.68998763540327,293.47851084715126
168,11688.253234863281,9456.0,[5],1,533.8734829981365,139.1006296275986,579.7538016916645
168,7670.410461425781,6188.0,[6],1,249.47984858680107,414.4968971649634,429.5468439928211
168,6304.962158203125,4823.0,[7],1,356.1371571773564,145.33942506570642,645.6651996553745
168,10359.673522949219,7765.0,[8],1,471.6650768647984,477.6493870772516,734.1871510749197
168,6377.0570068359375,4851.0,[10],1,468.1038309846798,427.76067038034984,518.8030307546102
168,14547.945495605469,10818.0,[11],1,483.54534841624366,155.3518817272525,231.03527627924123
