time_in_hour,cumulative_size,size,pcore_ids,pcore_power,SCA-1,CD11b,Ly6C
-1,0,0,[],0,0.0,0.0,0.0
0,34827,34827,"[0,6,7]",3,0.18225672771642357,0.4969586256151454,0.5630639592211503
0,32995,32995,"[1,2,5]",3,0.15883274789677365,0.1486587505716967,0.22753923368965562
0,5957,5957,[11],1,0.277377195745539,0.21341237389830753,0.27500763639042014
0,4757,4757,[4],1,0.16820557758761348,0.4231580133872731,0.8163409871187383
24,34121.75,25415.0,"[0,6,7]",3,0.2004912103000654,0.49522554930148266,0.5717528463147875
24,34107.0,26885.0,"[1,2]",2,0.16547576809663833,0.13829899436787138,0.14812964479726135
24,10996.25,9507.0,[11],1,0.2788966872005647,0.18804803879562057,0.28233805156799335
24,4822.25,4416.0,[3],1,0.43272162453887014,0.14291490073938506,0.18552318901306772
24,5065.25,3876.0,[4],1,0.19916765979251846,0.4465467169278028,0.8315013571774744
24,5814.75,4788.0,[5],1,0.23589945368495674,0.1751072275044021,0.7551566838461171
24,5302.0,4769.0,[8],1,0.4136361517171776,0.13576575517477388,0.6207697078633178
24,5231.5,4122.0,[9],1,0.40914624782674014,0.4193978847245819,0.5202694849833562
24,7039.0,6222.0,[10],1,0.40209347280240504,0.4064121741891815,0.7382379384219832
48,41780.4375,33250.0,"[0,6,7]",3,0.1938499068742264,0.5142401213080431,0.5639509948375493
48,39065.4375,29085.0,"[1,2,5]",3,0.1740660814666323,0.1446541500622139,0.2258294675126836
48,9631.0625,6882.0,[11],1,0.2731938579763656,0.18328432402732145,0.2837229632051522
48,7250.3125,5984.0,[4],1,0.19870395938958668,0.4490626281711596,0.8231319612308369
48,6104.875,4797.0,[9],1,0.4074048967589153,0.4023612328030621,0.5194506530730426
48,6681.75,4922.0,[10],1,0.3869101354813875,0.40938070488822226,0.7261708295615914
72,41099.109375,30654.0,"[0,6,7]",3,0.20990340572791813,0.5202536516739371,0.5200335889531157
72,37675.4375,29275.0,"[1,2]",2,0.16211428507416015,0.14449958608800254,0.13061431666773604
72,10508.765625,8101.0,[11],1,0.27644340150826,0.19025909850186304,0.2728170318653234
72,4921.140625,3916.0,[3],1,0.41274498349441197,0.15746151048925455,0.15710028838254875
72,6009.21875,4483.0,[9],1,0.41485214810693777,0.40655382961157766,0.5214010425356242
72,8314.4375,6644.0,[10],1,0.37377911999728536,0.4225611721637627,0.7414279550093668
96,44108.77734375,33834.0,"[0,6,7]",3,0.21359583680054992,0.5493610253422315,0.5517474721240829
96,33117.859375,23699.0,"[1,2]",2,0.1646459197768497,0.14320429480953417,0.13715540937924553
96,11205.19140625,8578.0,[11],1,0.28009820489717896,0.1782112517130416,0.2736716508060906
96,6174.28515625,4944.0,[3],1,0.4808267462728031,0.18356948426551895,0.17691754954821706
96,6261.48046875,5141.0,[5],1,0.2864889066727008,0.18027274442114324,0.7401499262467666
96,4503.3046875,3001.0,[9],1,0.4653852117067466,0.4076982506868315,0.5031146382242406
96,6757.609375,4679.0,[10],1,0.40085436094032284,0.442385692716711,0.7544608618409605
120,50672.1943359375,39645.0,"[0,6,7]",3,0.24514379533968705,0.5598748287536601,0.5451296788038723
120,23622.46484375,15343.0,"[1,2]",2,0.17611422186844425,0.14416648909430743,0.13403792324170913
120,12208.2978515625,9407.0,[11],1,0.2979490591876384,0.17354044403176339,0.27562024707746213
120,7214.5712890625,5671.0,[3],1,0.4981778756848791,0.18157409911228045,0.17644139083949742
120,6909.3701171875,5344.0,[5],1,0.3522728706147257,0.1719397836720486,0.7344110743586897
120,9402.40234375,7713.0,[10],1,0.44263153716872805,0.471510117443957,0.7762194280112388
144,42651.048583984375,29983.0,"[0,6,7]",3,0.2728909085118345,0.5835103984870348,0.5387973410939011
144,18078.6162109375,12173.0,"[1,2]",2,0.19923041413286421,0.14014472649556112,0.12887524587221905
144,12328.074462890625,9276.0,[11],1,0.325528370855308,0.16089999265583774,0.2773755464330751
144,13397.642822265625,11594.0,[3],1,0.5495481297796775,0.16603839426285166,0.1837075683123396
144,5970.342529296875,4243.0,[5],1,0.3767858953002886,0.1681890033462826,0.7179461788309828
144,8364.353515625,7416.0,[8],1,0.6108450907588655,0.14837523379991974,0.6031812927844455
144,4784.70654296875,3670.0,[9],1,0.5219633825573291,0.4302546328530916,0.4689281138639156
144,11030.6005859375,8680.0,[10],1,0.5010990055589335,0.5157029220209829,0.7736370186687709
168,38372.762145996094,27710.0,"[0,6,7]",3,0.30026284335888914,0.584562336624768,0.5180186436592773
168,16231.654052734375,11712.0,"[1,2]",2,0.22284296106132273,0.14347284639697674,0.13097332002874895
168,12857.410705566406,9508.0,[3],1,0.5458901842640626,0.1642023263063153,0.19083716312590338
168,16447.472717285156,12843.0,"[4,10]",2,0.4961899302436685,0.4944839834508531,0.7475899913116786
168,6397.585632324219,4905.0,[5],1,0.40069994016608784,0.16445440686674273,0.6698241911115403
168,10905.08837890625,8814.0,[8],1,0.6042708089337605,0.1509920214091268,0.6059450622229571
168,5489.1766357421875,4293.0,[9],1,0.5477190650936957,0.40722051483347105,0.4511664274192977
168,13297.018615722656,10215.0,[11],1,0.35417614145055587,0.1624336447435231,0.2836817557025075
