time_in_hour,cumulative_size,size,pcore_ids,pcore_power,SCA-1,CD11b,Ly6C
-1,0,0,[],0,0.0,0.0,0.0
0,15702,15702,"[0,7]",2,139.56852630238427,391.83180486562213,524.4025601834161
0,9052,9052,[1],1,224.75364560318278,143.89306230667296,260.34798939460995
0,24015,24015,"[2,4]",2,125.91467832605045,126.61882156985197,170.65067666042083
0,9017,9017,[9],1,212.43018742375529,458.95220139736165,555.7621160031041
0,5634,5634,[8],1,128.91693290735114,513.697728079519,589.8049343272987
24,12624.5,11493.0,[1],1,232.2990811517285,132.13766881856765,274.8837379698198
24,26295.875,23294.0,"[2,4]",2,141.17682431180148,121.39336968250718,165.16677996073489
24,7496.25,6510.0,[7],1,186.97647156911884,340.7979989995017,517.9301650825392
24,8567.125,7440.0,[9],1,221.5255847206627,456.9499686300852,563.8113573690099
48,7092.4375,6481.0,[0],1,109.15338961394146,420.99598824452005,534.6704169934519
48,9877.0625,8299.0,[1],1,229.32126517879078,132.78072301354774,279.27885631481956
48,25884.984375,22598.0,"[2,4]",2,142.55983168330962,120.99520957794638,160.76492706015037
48,5892.578125,5381.0,[5],1,167.92716738482147,387.16506993702404,782.1702963208487
48,7554.03125,6617.0,[7],1,177.2433489568916,326.2917895660017,503.32181906183973
48,8286.78125,7733.0,[8],1,145.8012233338519,551.2299275578198,566.917238297441
48,9132.890625,8062.0,[9],1,216.74295172838532,459.710360048248,550.5267174788911
72,6621.5546875,5735.0,[0],1,117.46523073910265,436.75089964238333,487.54902992004185
72,10855.6328125,9621.0,[1],1,234.69535149162834,144.10099019734142,268.192825801122
72,30088.623046875,26853.0,"[2,4]",2,139.32096096330451,127.44437931566036,152.5875975106099
72,7074.25390625,6130.0,[7],1,187.46778701817772,341.48015167235536,464.927840778261
72,17069.458984375,14892.0,"[8,9]",2,207.31477592186366,501.39244548039835,517.6139113591832
96,6215.6943359375,5388.0,[0],1,114.1325920823885,444.2778387417444,515.2073762767538
96,11387.9541015625,10031.0,[1],1,238.43174951431024,139.56136594100218,271.2566565891435
96,25394.077880859375,21633.0,"[2,4]",2,142.14928384306796,126.86112294363676,161.13807546344987
96,10076.98095703125,9294.0,[8],1,160.6720419377093,554.889088548184,564.127168723659
96,10261.701416015625,8911.0,[9],1,230.06182702202344,470.0358399444424,532.2263551358759
96,6897.474609375,6401.0,[12],1,263.23631324389106,574.2670852698296,624.5248351128838
120,10712.494262695312,9289.0,[1],1,260.8332064371129,137.466659733867,277.69091132508026
120,17459.259735107422,14285.0,"[2,4]",2,155.76626897925686,127.22521963768885,158.30494228679444
120,5627.710388183594,5015.0,[6],1,443.97664256980426,145.13601067354605,195.08421960785475
120,5714.410217285156,5083.0,[7],1,197.12693431855118,337.212417291097,454.48242708347146
120,23510.33529663086,20968.0,"[8,9]",2,222.61644907855074,509.16975988760134,534.1494570959387
120,10429.184326171875,9567.0,[12],1,289.37404201253526,573.3321890716709,591.6430596259572
120,6616.588043212891,6081.0,[15],1,414.9747839464668,454.55751732822097,702.5996179590438
144,10397.061782836914,9058.0,[1],1,290.98536121319523,130.5122907612092,279.9790313453618
144,13870.407466888428,11688.0,"[2,4]",2,181.4244804643948,121.93868661403015,154.6242165712792
144,6584.45569229126,6173.0,[3],1,562.771827618259,126.68737758954813,602.4287757669208
144,10650.46379852295,9947.0,[6],1,492.3134423652833,132.41347569919623,196.20682495038716
144,19794.791912078857,16856.0,"[8,9]",2,240.3711764782088,520.1082697894128,520.3176749774265
144,10569.648040771484,9266.0,[12],1,319.20522707144596,569.1103773551436,571.1370229388257
144,7244.073505401611,6417.0,[15],1,483.10562373536663,487.69721574870175,716.4603623981973
168,10483.632722854614,9184.0,[1],1,315.3175225318437,133.23778891670693,283.3084665752036
168,7113.310144901276,6132.0,[2],1,242.45988213025421,120.87938017958845,110.1229246712974
168,7547.0569615364075,6724.0,[3],1,555.8504847462847,130.18318704512012,614.2003725888366
168,5845.490788459778,5093.0,[4],1,151.97074572913328,130.4494207447549,217.9271407416975
168,6699.891985416412,6179.0,[5],1,387.6468161947819,423.1111871857754,699.8970257769738
168,9374.307974815369,8043.0,[6],1,482.7421740449965,132.70623490432743,199.43538400832978
168,11712.792385578156,10229.0,[9],1,292.35245534277624,491.6052236936752,489.01298125773553
168,6077.505282402039,5488.0,[11],1,505.6834050922134,259.66703005771853,395.2077632979691
168,9161.206005096436,7840.0,[12],1,347.097517629877,583.5683691808886,555.1650799698538
168,6145.509188175201,5240.0,[15],1,531.5396139081276,503.732598083888,708.3153417930915
