time_in_hour,cumulative_size,size,pcore_ids,pcore_power,SCA-1,CD11b,Ly6C
-1,0,0,[],0,0.0,0.0,0.0
0,35524,35524,"[1,2]",2,0.18493659611669758,0.16400963519150452,0.1835876382327166
0,1951,1951,[5],1,0.25317065866539173,0.23741450607763492,0.37199585844276095
0,32926,32926,"[3,8,9]",3,0.20655873197439178,0.4855717524255002,0.5797119192974661
0,3119,3119,[11],1,0.3468185207733644,0.38781936431069847,0.6184506769701613
24,71513.0,30868.0,"[0,3,7,8,9]",5,0.2212538868944562,0.47011801733608694,0.5827141494699805
24,75705.0,40181.0,"[1,2]",2,0.2047799968683913,0.1601394105065477,0.18730153336660488
24,4607.0,2656.0,[5],1,0.28897037483263033,0.22665538473324615,0.3849680668953952
24,5516.0,2759.0,[4],1,0.2253713405741013,0.21482999681715736,0.7683416616734303
24,7190.0,3349.0,[6],1,0.2256570455220273,0.4084550563565526,0.795782932865804
24,8573.0,5454.0,[11],1,0.367996597627508,0.38121182308130425,0.6399258873809294
48,106819.0,35306.0,"[0,3,7,8,9]",5,0.216019327454161,0.48297634104190923,0.5790594901589328
48,108975.0,33270.0,"[1,2]",2,0.20241589272872418,0.15834466371650965,0.18106561904280033
48,7408.0,2801.0,[5],1,0.32280543960977265,0.22425478020581965,0.3758177519517819
48,8066.0,2550.0,[4],1,0.22235893764086873,0.21554640281029894,0.7713871694378786
48,13480.0,6290.0,[6],1,0.22966692228186664,0.42198136673066894,0.8000546053544638
48,5502.0,1387.0,[10],1,0.4111840842349413,0.15804968493563026,0.6909210580643288
48,14997.0,6424.0,[11],1,0.3729344370746751,0.3866249871392069,0.6334111662718613
72,139285.0,32466.0,"[0,3,7,8,9]",5,0.21784046371658244,0.4908636415097972,0.561919157120682
72,149493.0,40518.0,"[1,2]",2,0.20318759805145362,0.15767826929228712,0.17369668648554434
72,7752.0,344.0,[5],1,0.32283904987186796,0.2239122935432814,0.37360026064112273
72,9411.0,1345.0,[4],1,0.23077106756497137,0.21820294533546183,0.7689822529149487
72,17720.0,4240.0,[6],1,0.2523852309331166,0.42630818258889003,0.7967017249267244
72,8007.0,2505.0,[10],1,0.4131032818194128,0.16058389520029673,0.6883614921576142
72,21360.0,6363.0,[11],1,0.3847328304506935,0.39213170683139237,0.6287283226145479
72,6970.0,2219.0,[12],1,0.25429174794061155,0.163563137428021,0.5784136915127808
96,174664.0,35379.0,"[0,3,7,8,9]",5,0.21850394490970024,0.5028465578280032,0.5605096178553848
96,184097.0,34604.0,"[1,2]",2,0.20726484383263433,0.15647809067406376,0.17206515742953377
96,8921.0,1169.0,[5],1,0.32830249039949694,0.22116341988322957,0.3657721614298646
96,13551.0,4140.0,[4],1,0.24374054238710463,0.21165282754507814,0.771950853321752
96,22428.0,4708.0,[6],1,0.26232473252735705,0.4284774627223424,0.8048296493843394
96,9869.0,1862.0,[10],1,0.4312908084673216,0.15830822691282956,0.6834966795533733
96,27410.0,6050.0,[11],1,0.4101777010768598,0.3912777481548023,0.6235084816963202
96,9058.0,2088.0,[12],1,0.27350048749506933,0.1576894103260144,0.5719960600357685
120,227712.0,53048.0,"[0,3,7,8,9]",5,0.23898656138090366,0.5008301944950968,0.5576654831296863
120,209078.0,24981.0,"[1,2]",2,0.21329687614030785,0.1586333429698366,0.17523059828845297
120,11852.0,2931.0,[5],1,0.3459131725741042,0.21330687834727988,0.35852020878135576
120,14963.0,1412.0,[4],1,0.2544720422735641,0.2179259367677071,0.7612292206447798
120,25174.0,2746.0,[6],1,0.2756176115360658,0.42414509942924145,0.7928941515824873
120,12907.0,3038.0,[10],1,0.43884966175483114,0.17275597057543962,0.6899127439522355
120,28341.0,931.0,[11],1,0.4108356932367366,0.39162835257300566,0.6229785143687154
120,9971.0,913.0,[12],1,0.2771339130669953,0.1677244098383057,0.5659185580276326
144,255936.0,28224.0,"[0,3,7,8,9]",5,0.24488053193073409,0.5104986742302023,0.5563553419674352
144,230907.0,21829.0,"[1,2]",2,0.21740326118940081,0.16262869988185563,0.17772799475387352
144,16079.0,1116.0,[4],1,0.25994831698265153,0.2180783568911303,0.759629895320588
144,28027.0,16175.0,[5],1,0.4523498809133904,0.19672892994102237,0.30032291483482815
144,29391.0,4217.0,[6],1,0.2942005482837138,0.42973354572944256,0.7953168322135975
144,21506.0,8599.0,[10],1,0.4925793376711145,0.16735974554928032,0.6823246301803803
144,36905.0,8564.0,[11],1,0.43912401869969286,0.41480265154325086,0.6375906174554542
144,11247.0,1276.0,[12],1,0.28241958155133456,0.16581385000806703,0.5637250854125305
168,283343.0,27407.0,"[0,3,7,8,9]",5,0.2514322637584541,0.5169544401862736,0.5521849430102324
168,248583.0,17676.0,"[1,2]",2,0.22059222685417132,0.1630945238334853,0.17805436582030248
168,16649.0,570.0,[4],1,0.2630121861757742,0.21839462046964322,0.7581931056273795
168,44765.0,16738.0,[5],1,0.4747495096113631,0.19279267850762064,0.28629017111632626
168,31215.0,1824.0,[6],1,0.30018929965606045,0.432323768231283,0.7933879084886734
168,32734.0,11228.0,[10],1,0.5167027994807278,0.16761734585125598,0.6695664098395671
168,49442.0,12537.0,[11],1,0.46212015986044097,0.43546124065841674,0.6497352097515121
168,13267.0,2020.0,[12],1,0.2940767961055677,0.16563756498534998,0.5588755898009059
