time_in_hour,cumulative_size,size,pcore_ids,pcore_power,SCA-1,CD11b,Ly6C
-1,0,0,[],0,0.0,0.0,0.0
0,35645,35645,"[1,2,4,19]",4,NA,141.9332304671064,NA
0,11096,11096,"[10,13]",2,NA,NA,NA
24,40916.8125,38689.0,"[1,2,4,19]",4,NA,137.91667239475248,NA
48,37000.30078125,34443.0,"[1,2,4,19]",4,NA,NA,NA
48,9474.25,9022.0,"[9,13]",2,NA,NA,NA
48,7849.94921875,7478.0,[10],1,201.32935374283505,NA,NA
72,39114.50244140625,36988.0,"[1,2,4]",3,NA,NA,NA
72,8439.451904296875,8043.0,[9],1,NA,NA,NA
72,7252.621826171875,6762.0,[10],1,228.41334001688924,NA,NA
96,27482.203689575195,25438.0,"[1,2,19]",3,NA,143.78360045467122,NA
96,10959.766235351562,10388.0,[4],1,NA,146.60315344081025,NA
96,11556.782424926758,10829.0,"[3,9]",2,NA,NA,NA
96,13641.288864135742,13188.0,[10],1,NA,NA,585.2022255409408
120,18891.36813545227,17394.0,"[1,2]",2,NA,NA,NA
120,7355.985389709473,6671.0,[4],1,NA,NA,NA
120,13697.298901557922,12975.0,"[3,9]",2,NA,NA,NA
120,21218.59886932373,20148.0,"[10,13]",2,NA,NA,NA
144,8122.697990715504,7610.0,[1],1,NA,NA,NA
144,14481.761604607105,13354.0,"[2,4]",2,NA,132.65441946923093,NA
144,14969.08118134737,14113.0,"[3,9]",2,NA,NA,NA
144,14696.162429332733,13370.0,"[10,13]",2,NA,NA,NA
144,7898.762785792351,7655.0,[15],1,NA,134.1198718294449,NA
168,8335.668624419719,7828.0,[1],1,NA,NA,NA
168,13566.110100287944,12661.0,"[2,4]",2,NA,NA,NA
168,13123.56757383421,12188.0,"[3,9]",2,NA,NA,NA
168,8404.443674039096,7706.0,[10],1,NA,NA,NA
168,6671.672674112022,6178.0,[15],1,NA,NA,NA
