time_in_hour,cumulative_size,size,pcore_ids,pcore_power,SCA-1,CD11b,Ly6C
-1,0,0,[],0,0.0,0.0,0.0
0,26920,26920,"[0,7,9,12,15]",5,175.46667904903566,404.9029717682029,544.0885586924223
0,35974,35974,"[1,2,4]",3,162.825179296161,143.8127258575638,206.66442430644244
0,9883,9883,[8],1,188.08398259637906,498.78518668420753,610.6910857027224
0,7306,7306,"[7,9]",2,205.9051464549689,400.4441554886403,553.8441007391189
24,20039.5,18357.0,"[0,7,9,12,15]",5,196.47225167793692,399.8817959529926,551.4993887073031
24,38734.25,36612.0,"[1,2]",2,183.8059808180125,136.66267579726022,201.3462294351885
24,8411.6875,7794.0,[8],1,221.40065533818407,513.3063223045323,627.7223505984979
24,4648.0625,4465.0,[10],1,238.39997848565798,153.10434455216546,710.5071333485731
24,6365.625,5909.0,"[7,9]",2,230.59863524791345,393.04480117820293,575.2486303387337
24,5083.6875,4861.0,[14],1,340.02377703192406,336.0749824807287,619.4120655528085
48,24227.46875,22975.0,"[0,7,9,12,15]",5,185.55637825221783,416.48380840961806,534.6270336227338
48,34901.890625,32481.0,"[1,2]",2,175.65028902445934,136.89554648946768,193.4990649011219
48,4844.8359375,4582.0,[3],1,256.2340894541375,395.77373943583694,756.9805551658604
48,11605.73046875,11080.0,[8],1,193.82649600295275,533.0119280379714,611.3384060339292
48,5787.8515625,5390.0,"[7,9]",2,221.19106088318102,405.2105453907358,564.9143781762709
48,5480.73046875,5163.0,[14],1,330.69988104630386,332.1774847530451,602.7828050976879
72,40186.3681640625,38005.0,"[1,2]",2,173.7834063524998,145.2177405803203,184.4502013640497
72,5820.80224609375,5518.0,[3],1,301.19512460486476,376.97246607521157,715.728216870679
72,10292.358154296875,9567.0,[8],1,222.14526497409148,526.5908421654722,561.3995559840951
72,17681.72998046875,16855.0,"[12,15]",2,199.59606298797522,419.55771953875546,470.36061648092317
96,38002.59843444824,35835.0,"[0,7,8,9,12,15]",6,207.07526162865238,478.2864450510863,549.231087625948
96,34241.648010253906,31730.0,"[1,2]",2,178.65126541072507,142.55294744342922,200.4724766515715
96,5454.796295166016,5195.0,"[7,9]",2,241.69259346245445,435.7946211165525,558.9507941230517
120,40321.24457073212,38171.0,"[0,7,8,9,12]",5,246.72932114190075,498.8914647156846,541.5519012299796
120,10157.875734329224,9283.0,[1],1,225.0972140834931,156.61006639311927,273.47397127350575
120,14519.227266311646,13254.0,[2],1,177.7232722541093,136.64848418007702,156.72336346286812
120,4514.050008773804,4301.0,[3],1,390.51563692515634,428.4031188170571,742.3739480283378
120,4990.905937194824,4727.0,[6],1,431.56932707657495,154.12533214880162,203.3293582717664
120,2444.3692150115967,2326.0,[7],1,262.73207166677054,401.48758226780365,505.0811718330931
144,29497.082487642765,27422.0,"[0,8,12]",3,263.8606130819048,523.8487498855413,532.3077642348687
144,9364.867233395576,8730.0,[1],1,276.61639839510497,145.87880057724524,272.0133238476746
144,12161.451704144478,11254.0,[2],1,193.64746442816337,131.9707497823651,156.5914933169246
144,5258.128125548363,4976.0,[3],1,474.1815690128303,496.5308008006459,740.2972079550127
144,5490.535139203072,5238.0,[4],1,415.3584957623359,172.18288703286763,373.7236066317843
144,5486.470018684864,5256.0,[5],1,385.77918035288525,319.3249554798632,738.6206622601634
144,9825.931621074677,9514.0,[6],1,498.036757075042,143.80759191069038,195.52465154725556
144,3054.2222220897675,2762.0,[9],1,309.43309180153744,470.6664786790804,563.8784463531813
144,5574.718013346195,5444.0,[11],1,569.3010966991949,133.993273982879,590.363394018793
144,3054.2222220897675,2762.0,[9],1,309.43309180153744,470.6664786790804,563.8784463531813
168,14517.555870227516,13640.0,"[0,12]",2,262.5709319054878,487.89184809340503,493.1880620172179
168,9550.304202087224,8965.0,[1],1,315.1165320670237,151.39700729714028,280.51677567362225
168,12202.09073150903,11442.0,[2],1,212.33227156733983,138.42978067505132,169.29998212264323
168,5150.633007846773,4822.0,[3],1,505.6407069427292,504.18393362514234,714.256886978014
168,5950.158446200192,5607.0,[4],1,452.05699988368843,169.02255983094292,380.2571700599003
168,5659.904376167804,5317.0,[5],1,417.57602462846637,336.94278169852464,698.2270361416805
168,7972.120726317167,7358.0,[6],1,477.96387257520115,144.88744744934536,196.82676603744707
168,14881.900674130768,13725.0,"[8,9]",2,330.6990931358918,544.3507940862116,551.2957949241331
168,4513.301290992647,4274.0,[10],1,401.536475492684,137.6876535824301,641.2991968290331
168,6492.419875834137,6144.0,[11],1,541.0228981798422,133.86532856858142,600.198911186473
168,3232.8888888806105,3042.0,[9],1,355.3234826683503,469.0560218026716,580.238973427137
