time_in_hour,cumulative_size,size,pcore_ids,pcore_power,SCA-1,CD11b,Ly6C
-1,0,0,[],0,0.0,0.0,0.0
0,7089,7089,[0],1,0.10485338100967055,0.4685401000466593,0.5582200033239507
0,20077,20077,"[1,3,15]",3,0.13470688411414172,0.1465612482440341,0.12980365237488284
0,9292,9292,[4],1,0.22095121090027992,0.1295233042387455,0.1958091688901628
0,9615,9615,[7],1,0.18916031247991713,0.41643830459100584,0.5009483141018262
0,5887,5887,[8],1,0.14034102946313184,0.5889089926650279,0.6218015384772533
0,10202,10202,[9],1,0.24109592963706203,0.5270888903870334,0.5774268463015902
24,5824.25,4052.0,[0],1,0.11693293200214812,0.4637427827986315,0.5698070132050049
24,16628.75,13313.0,"[1,15]",2,0.1688970216230723,0.13306420863119667,0.08034187576290622
24,7982.5,6279.0,[3],1,0.11651755771931409,0.15744997895566257,0.21815242418514447
24,13501.0,11178.0,[4],1,0.23309176432207776,0.12458003362244696,0.2068789674739908
24,5155.75,4564.0,[5],1,0.4315814076897845,0.1564327203098594,0.22011820650868016
24,9184.75,6781.0,[7],1,0.19819183055938935,0.3976859389315776,0.505320017306211
24,5404.75,3933.0,[8],1,0.1607295600883771,0.6025221027506587,0.6256924047363663
24,10730.5,8180.0,[9],1,0.24868182629687818,0.5222870603331635,0.5830976976001105
24,4720.25,3604.0,[10],1,0.19542896997100268,0.39288077434735974,0.8285659485637908
24,6742.5,5715.0,[11],1,0.41279590722941467,0.3951439675724822,0.6785138234101574
24,5145.25,4329.0,[13],1,0.3170289603861724,0.5873277773881431,0.7709923709555871
24,5667.75,4546.0,[14],1,0.2313277517830789,0.25593992444750274,0.28659279306520596
24,5551.0,4968.0,[16],1,0.39683127242990623,0.15673687265186406,0.7438532113036485
48,7963.0625,6507.0,[0],1,0.12024830941246942,0.4824949944755163,0.5563730004703484
48,8116.4375,6376.0,[1],1,0.11645358847055275,0.129293721754736,0.09691189551874342
48,8548.625,6553.0,[3],1,0.12209251241370858,0.15135582519720675,0.2241760753473012
48,24730.875,18133.0,"[4,12,15]",3,0.22376340859918883,0.13548842257490107,0.22278552166409932
48,9690.1875,7394.0,[7],1,0.19438616775179807,0.3906117943692347,0.5005283683999052
48,9600.1875,8249.0,[8],1,0.17299994945382313,0.6323284981324705,0.6068805611411385
48,11217.625,8535.0,[9],1,0.244745559286781,0.5279249507922783,0.5687109866207628
48,6823.0625,5643.0,[10],1,0.1984015300058971,0.40269872577902244,0.8230865811311006
48,6908.625,5223.0,[11],1,0.40012010715313706,0.39229392377830646,0.6625017262201005
48,5588.3125,4302.0,[13],1,0.300979585076546,0.5815961272397401,0.7660668741288276
48,4872.9375,3456.0,[14],1,0.2268044547224902,0.2820312306395787,0.2766699622760272
48,3520.875,2715.0,[12],1,0.1931993890372158,0.1658335417701822,0.7140843590918082
72,7221.765625,5231.0,[0],1,0.12561740526849458,0.504852106649183,0.5123354884041583
72,10549.109375,8520.0,[1],1,0.11409625962387358,0.14117824262777434,0.08402793637973782
72,9942.15625,7805.0,[3],1,0.11959904060217603,0.1552117630247784,0.21658501068902292
72,12205.3125,9267.0,[4],1,0.24125514625268182,0.1323091210699475,0.20729866685051165
72,10603.546875,8181.0,[7],1,0.20379841134287838,0.41120700542505384,0.46445861244603537
72,7369.046875,4969.0,[8],1,0.20421849040161624,0.6443910563629943,0.5827746766881516
72,13132.40625,10328.0,[9],1,0.2544706567800025,0.5421582929335408,0.5276865536682769
72,7046.15625,5319.0,[11],1,0.391703281926205,0.3983537630238977,0.6792267430908405
72,4880.078125,3483.0,[13],1,0.3325549714581687,0.567558495200751,0.7481157465998327
72,5221.234375,4003.0,[14],1,0.237787171961568,0.3072451460808505,0.2643266170897355
72,10816.1875,8452.0,[15],1,0.22810551522631553,0.14084220100544223,0.05728976514066852
96,8053.44140625,6248.0,[0],1,0.1251901724854692,0.5217698748401511,0.536984612149192
96,8395.27734375,5758.0,[1],1,0.11716553820704365,0.14188707955185903,0.0825480362886516
96,10065.5390625,7580.0,[3],1,0.1238251578896778,0.154176515728617,0.21577113383086474
96,12502.328125,9451.0,[4],1,0.24394766727506006,0.13380586521020618,0.21237252175924867
96,5601.93359375,4548.0,[5],1,0.4851168628408343,0.1762830978952006,0.18943667483394827
96,7481.88671875,4831.0,[7],1,0.1998769388666443,0.4065111573441964,0.4714727309007035
96,13044.26171875,11202.0,[8],1,0.21648593449850662,0.6489976090545174,0.6008511937922238
96,13021.1015625,9738.0,[9],1,0.258485541939409,0.5440249017974319,0.5453440091205367
96,5320.69140625,4397.0,[10],1,0.26578764585501485,0.3795278239414954,0.830509734161324
96,4730.5390625,2969.0,[11],1,0.4120250580897591,0.4159359926788047,0.6771449442003633
96,4738.01953125,3518.0,[13],1,0.35258698255950566,0.5830061319931362,0.7435177388685263
96,8686.046875,5982.0,[15],1,0.23091045278913971,0.13875767602310732,0.060746372179035585
120,7373.3603515625,5360.0,[0],1,0.13729033760302048,0.5447020548029909,0.5327397676219526
120,5422.8193359375,3324.0,[1],1,0.11927857281552826,0.1423870480745736,0.07732349082446435
120,6950.384765625,4434.0,[3],1,0.12603855607367576,0.1563252452139241,0.21776172586767537
120,10582.58203125,7457.0,[4],1,0.2616219501625759,0.13139414402064828,0.21722791985768997
120,6412.4833984375,5012.0,[5],1,0.4999013875726856,0.16967051803155925,0.1808784028757484
120,7752.4716796875,5882.0,[7],1,0.21362003282584752,0.40948945333299314,0.46433714648825525
120,14303.0654296875,11042.0,[8],1,0.25346586434721424,0.6511088441600361,0.5890603969383319
120,18419.275390625,15164.0,[9],1,0.2829583455588144,0.5568229035405147,0.5421516221870631
120,5089.1728515625,3759.0,[10],1,0.36624717818692554,0.3660527035450926,0.8303183348878519
120,4666.634765625,3484.0,[11],1,0.4363438072070292,0.4395374074099968,0.6725295751388202
120,6089.5048828125,4905.0,[13],1,0.4231883123809004,0.5960091342362366,0.743123993182594
120,7314.51171875,5143.0,[15],1,0.2512143281911273,0.1386757766972559,0.06229881346471364
120,4816.10546875,3743.0,[16],1,0.5370134328262586,0.15271176854512014,0.704373050844692
144,6461.340087890625,4618.0,[0],1,0.15686727044181942,0.5707920128646612,0.5239805198909622
144,5730.726318359375,4743.0,[2],1,0.4261907934366172,0.15654394665216176,0.4167471161654021
144,4677.59619140625,2940.0,[3],1,0.1371069786815657,0.15072474046960732,0.21812642509228528
144,9766.6455078125,7121.0,[4],1,0.28478565214653834,0.12610703315553218,0.2192485401422554
144,11885.120849609375,10282.0,[5],1,0.5501023302140017,0.1557347692620272,0.17731477910564444
144,12910.766357421875,9335.0,[8],1,0.2835685673586484,0.6535234046733985,0.5862741683267874
144,17948.81884765625,13344.0,[9],1,0.3110625024626368,0.573827045861436,0.5258751896736638
144,5634.293212890625,4362.0,[10],1,0.3948494177518665,0.38042611054208,0.815540271141791
144,6018.65869140625,4852.0,[11],1,0.4789193212907242,0.46638157070230246,0.6921158595110374
144,6119.376220703125,4597.0,[13],1,0.5054233156461174,0.6076402906014755,0.7604186116967595
144,6598.6279296875,4770.0,[15],1,0.27858328187258014,0.13508779404533208,0.06465006903322126
144,7265.0263671875,6061.0,[16],1,0.6145362628064105,0.1487644107983162,0.6638930691071746
168,5356.335021972656,3741.0,[0],1,0.17970801637027833,0.576817292198859,0.5070059295703184
168,7675.681579589844,6243.0,[2],1,0.45884314830876327,0.15862629871452427,0.4204210400117606
168,9262.661376953125,6821.0,[4],1,0.30618794973468255,0.12332550985466852,0.2229550330081946
168,11128.280212402344,8157.0,[5],1,0.5436957970427574,0.15457232738540316,0.1805912811043996
168,4987.779479980469,4005.0,[7],1,0.2575500140863601,0.4553110595526199,0.43101827809590393
168,10642.691589355469,7415.0,[8],1,0.32615133403997665,0.6719539964105631,0.5764205671963382
168,16871.204711914062,12384.0,[9],1,0.33458997472921703,0.5710070158646913,0.51166220096841
168,5011.573303222656,3603.0,[10],1,0.4160204628607913,0.3827490269385828,0.7656100400017933
168,10264.664672851562,8760.0,[11],1,0.5238322530219268,0.5163907793564911,0.7140883816523012
168,5094.5906982421875,4089.0,[12],1,0.38976334379705024,0.1620850464197843,0.6705923125944557
168,6143.656982421875,4494.0,[15],1,0.3043238324501193,0.13935428120855897,0.06778970889975382
168,8953.256591796875,7137.0,[16],1,0.6165836850663619,0.15465009065146038,0.6526575384153376
