time_in_hour,cumulative_size,size,pcore_ids,pcore_power,SCA-1,CD11b,Ly6C
-1,0,0,[],0,0.0,0.0,0.0
0,15351,15351,"[0,7]",2,137.80222786789372,388.268060712657,521.1541919093225
0,31117,31117,"[1,2,4]",3,147.11508178809345,127.48902529164114,182.86149050358347
0,7829,7829,[9],1,208.5602248052123,445.7786435049179,569.0588836377575
0,2670,2670,[17],1,218.44382022471896,507.8940074906358,505.0988764044947
24,28336.0,25677.0,"[1,3,4]",3,192.71389751552906,123.94650356437074,282.2800501129303
24,11167.875,9707.0,[2],1,125.11200653661152,120.46970663622228,113.22907222725914
24,7897.875,7379.0,[6],1,327.6378456230289,141.07114255416843,298.84549641517447
24,6987.125,5998.0,[7],1,184.16188704223956,338.8516378338745,507.06009267044567
24,7674.625,6696.0,[9],1,215.45042917406485,436.3739107774008,584.0258318810346
48,6589.96875,6017.0,[0],1,107.14573049000037,421.0045025820482,532.3099692240564
48,25158.0,21616.0,"[1,3,4]",3,186.3581216710406,126.47644946438515,275.3013728237529
48,11312.984375,9917.0,[2],1,127.50096335654615,118.6449820518737,107.95073829711745
48,2933.15625,2475.0,[3],1,231.66302298079015,151.2279754104475,739.9916898392303
48,5444.234375,4457.0,[6],1,324.7935746245281,142.14253611188448,294.6137944097977
48,7215.390625,6342.0,[7],1,175.63404831252785,331.97812401875376,494.3730307394117
48,6397.53125,5881.0,[8],1,132.93525822949553,544.6800523639491,600.4485177387759
48,7453.328125,6494.0,[9],1,213.25931578384626,438.7176722646982,571.8531821983878
48,5411.859375,4753.0,[16],1,359.342208517745,354.29818194416686,627.9135203647055
48,5458.46875,5088.0,[17],1,203.63354248845067,537.0724304549708,507.47880873184585
72,6215.74609375,5392.0,[0],1,115.26594975839805,438.01560961293313,487.63305516295287
72,28031.75,24887.0,"[1,3,4]",3,191.5757918476388,134.24034583831286,257.4720804868592
72,13454.123046875,12040.0,[2],1,123.41540544829452,126.01896070137596,102.83417374233767
72,6377.529296875,5697.0,[6],1,321.3507061383388,156.46657407676787,282.0421882249535
72,7773.923828125,6872.0,[7],1,186.84470871043663,354.04964614022776,452.67240768102624
72,14458.974609375,12845.0,"[9,17]",2,220.75516827986468,490.3078310872829,511.13806668787475
96,5657.96826171875,4881.0,[0],1,111.49160890265122,444.67697774648735,510.7595648386853
96,27943.96875,24440.0,"[1,3,4]",3,193.49658726950406,134.11885084528814,288.82454730140785
96,9997.765380859375,8316.0,[2],1,124.63472674936911,125.06147902142229,105.58198889024234
96,7165.191162109375,6368.0,[6],1,367.92164831719384,151.30646838183876,265.84113343239426
96,14430.375,13015.0,"[8,17]",2,181.70684320062307,547.4396116853941,552.1834903101551
96,7936.208251953125,7123.0,[9],1,223.78346506870307,449.79966249428725,552.1098058250066
96,5938.483642578125,5449.0,[12],1,275.31346332467956,570.8912404273149,636.8601262562208
120,12402.63720703125,10868.0,"[1,3]",2,291.53421425195387,133.92487880503285,367.448552568205
120,6590.720672607422,5341.0,[2],1,126.81262582060401,125.5449831334733,106.94444950468451
120,11206.35888671875,9248.0,[4],1,167.2943682808776,136.52266117405654,254.20638001580585
120,7643.648895263672,6748.0,[6],1,408.6607928569855,148.75650187922722,257.9428155963658
120,5521.842559814453,4896.0,[7],1,194.507641099314,343.6483883802701,442.46426555820676
120,17302.796875,15499.0,"[8,17]",2,214.72443228525114,543.925293049441,534.1525951565579
120,9237.02603149414,8245.0,[9],1,243.82783106672608,454.6733937776144,540.4959651081542
120,8146.310455322266,7404.0,[12],1,299.56519281959277,574.5444593955075,611.9533447244042
120,5637.941741943359,5098.0,[13],1,379.0430446118445,397.31359090677216,788.7079989926606
144,11763.329650878906,10213.0,"[1,3]",2,315.92926891432955,126.63104365952279,340.48203230619924
144,8670.794860839844,7270.0,[4],1,196.03647861767897,127.17106791914026,258.78100297964033
144,11611.456111907959,10656.0,[6],1,487.2974067765442,135.4077640007728,223.47042564482683
144,5676.581428527832,4902.0,[8],1,180.6382261716078,552.8444519394628,558.735724808917
144,16926.896434783936,14384.0,"[9,17]",2,268.59569767475995,512.7255217200546,510.3340023736981
144,8086.288806915283,7068.0,[12],1,323.22724864271106,571.7694856661195,590.4581638494092
144,6768.74271774292,6064.0,[13],1,413.1100770120122,434.95431612941525,767.2184385296517
144,6372.611610412598,5999.0,[14],1,572.5218846166316,136.25121077088897,601.4123005569771
168,7246.185336112976,6274.0,[1],1,313.0887398543216,119.83072907720494,144.25488509210348
168,7663.8493576049805,6580.0,[4],1,212.4497671397002,127.4998026025222,257.16327812264973
168,8576.432013988495,7125.0,[6],1,493.3239195073451,128.34045227875995,218.89885291441368
168,15721.862054347992,13606.0,"[9,17]",2,290.85616123991156,503.522639261037,497.69768514805617
168,5629.184439659119,5128.0,[10],1,397.98961510735614,131.2885396928618,470.8888263244749
168,7449.78610086441,6439.0,[12],1,353.28740647241784,587.2709081542696,569.1348513575363
168,7069.092839717865,6223.0,[13],1,436.10270059746233,463.20253626944293,728.9451622968239
168,7203.576451301575,6407.0,[14],1,561.7371424453087,138.5369493484169,619.1024564389821
168,5717.358918190002,5357.0,[15],1,358.0146728834374,197.81873645028145,299.0765476266119
