time_in_hour,cumulative_size,size,pcore_ids,pcore_power,SCA-1,CD11b,Ly6C
-1,0,0,[],0,0.0,0.0,0.0
0,34694,34694,"[0,7]",2,0.1843613797159532,0.5029304035514639,0.569764185844728
0,26527,26527,"[1,2]",2,0.15312721445989458,0.14171184247177862,0.14247655223408534
0,9505,9505,[3],1,0.2521033873360571,0.19684650374534945,0.261894396220956
0,5668,5668,[4],1,0.1824905045475103,0.39197291614110497,0.8174843178521105
0,6870,6870,[6],1,0.38177354725806184,0.3878478465622059,0.6058963311645137
24,16166.5625,14774.0,[0],1,0.18576575445617002,0.43421773721019574,0.5312741880885137
24,27403.9375,25746.0,"[1,2]",2,0.16995741277748178,0.13729358776234415,0.13804029104765983
24,13097.0625,12503.0,[3],1,0.2707349517702659,0.1697691820337332,0.25921437695511595
24,6396.25,6042.0,[4],1,0.24697846789617386,0.42423172204796816,0.8326380078109873
24,7994.375,7565.0,[6],1,0.42035741422822187,0.4016419120344435,0.6449321357810222
24,11720.8125,10945.0,[7],1,0.23723717958972623,0.5854451667788552,0.6363253281973209
24,8194.9375,7898.0,[8],1,0.3211602531742521,0.14934592420087253,0.706447114439694
48,18153.41015625,17143.0,[0],1,0.17937445383126682,0.44060413888441746,0.5162756379842811
48,26859.74609375,25147.0,"[1,2]",2,0.16799252590543837,0.14068786128573116,0.13672359899864225
48,9624.56640625,8806.0,[3],1,0.28407384341483055,0.16492911247953934,0.26039334546100257
48,8195.765625,7796.0,[4],1,0.22803469259023462,0.42650465294832957,0.8190887456521014
48,8347.6484375,7848.0,[6],1,0.4014878279686006,0.3857647360722901,0.6212680014743556
48,17167.55078125,16435.0,[7],1,0.20990184836012027,0.6042363052686424,0.6162102650510214
72,18796.588134765625,17662.0,[0],1,0.1955241497639884,0.46087172473552845,0.46358011974870206
72,30167.734130859375,28489.0,"[1,2]",2,0.1615439078795849,0.14765805556291728,0.12454427458577126
72,11336.535400390625,10735.0,[3],1,0.2813734056837783,0.16843483653532912,0.23014586543284357
72,6885.2353515625,6373.0,[4],1,0.32611201768369263,0.4344242632321765,0.7758764299683442
72,5949.72802734375,5428.0,[6],1,0.4133949763592367,0.40802344527456624,0.5978614262651685
72,13983.971923828125,12911.0,[7],1,0.2404366411633807,0.606506056003466,0.5666951075915321
72,5568.323974609375,5245.0,[8],1,0.31895203894358815,0.17325215915457187,0.6672979300264781
96,15055.786758422852,13881.0,[0],1,0.21338663518725445,0.41986168153688364,0.5300410974993811
96,26743.48338317871,24858.0,"[1,2]",2,0.1689803921301983,0.14552683025448346,0.14263220716435313
96,12838.533462524414,12130.0,[3],1,0.3576507240021836,0.176048257617928,0.2692697969501138
96,5971.327209472656,5541.0,[4],1,0.3235019502994907,0.35779921865508885,0.7962906323173484
96,25969.998245239258,25096.0,[7],1,0.24285342419601336,0.6017242866180305,0.60592858345232
120,12157.986672401428,11217.0,[0],1,0.22751213337622797,0.4265568859467037,0.490049609384129
120,23853.46771144867,22182.0,"[1,2]",2,0.2122304332186372,0.1518512986589813,0.16268540864556802
120,10639.089658737183,9693.0,"[3,5]",2,0.44851710777743165,0.19382852161833292,0.26679102996654097
120,6958.207950592041,6585.0,[4],1,0.4316802776895484,0.43015714691005524,0.795434217200091
120,33020.12489032745,31397.0,[7],1,0.27897615576941137,0.6006959720941479,0.5767732152439606
120,7029.876265525818,6771.0,[8],1,0.43424632500191146,0.16797209375581218,0.7067999514367459
144,21685.841731965542,20195.0,"[1,2]",2,0.2717108454427433,0.16811224249088777,0.19140110629309393
144,7730.275521337986,7106.0,[3],1,0.4445815554339483,0.2015173062129095,0.3571730465412499
144,11155.215567231178,10574.0,"[4,6]",2,0.47603183687545153,0.4258135139178518,0.722316354797082
144,9098.667582333088,9058.0,[5],1,0.548670087070092,0.1755574992414952,0.20374242978560014
144,33124.757805645466,31061.0,[7],1,0.3271657893244365,0.5761087745194331,0.5594585952528004
144,8420.367266595364,7981.0,[8],1,0.5334393710375728,0.16500896114050426,0.6524496261798715
168,34213.35199829191,31844.0,"[0,7]",2,0.35024017594753526,0.5562761104288586,0.535285590884339
168,20928.365108247846,19573.0,"[1,2]",2,0.29846380746747225,0.17720810234096662,0.20214898573926768
168,7147.142220083624,6664.0,[3],1,0.46016939616210584,0.2212107113517155,0.4032699886788015
168,12022.200972951949,11325.0,"[4,6]",2,0.4944498321445437,0.44459081888669655,0.6877396432962238
168,10371.666723895818,9803.0,[5],1,0.4985269486939159,0.18134093004706422,0.22996152120072014
168,11317.27295416221,10791.0,[8],1,0.5319122845050132,0.1725999942359719,0.6206477779618134
