time_in_hour,cumulative_size,size,pcore_ids,pcore_power,SCA-1,CD11b,Ly6C
-1,0,0,[],0,0.0,0.0,0.0
0,33843,33843,"[0,7]",2,0.18622900790730265,0.5042548082354733,0.5756688802815167
0,37484,37484,"[1,2,4,8]",4,0.1850460840820198,0.15118888131334257,0.2083359278578013
24,26863.375,22633.0,"[0,7]",2,0.20239036242643596,0.5081069898550469,0.5852537104592899
24,47892.5,43207.0,"[1,2,4,8]",4,0.22292197589052837,0.1456818384735616,0.23264312079309898
24,6671.25,5947.0,[6],1,0.4102742145673663,0.398965388896943,0.577255579717672
48,33271.921875,29914.0,"[0,7]",2,0.19177285576381242,0.5302320262631409,0.5734906138623284
48,42715.5625,36729.0,"[1,2,4,8]",4,0.21213438807176496,0.14654065925165854,0.22260954249600776
48,7623.90625,6790.0,[6],1,0.40618446143844333,0.3925753480883729,0.5784242870100231
72,30291.990234375,26133.0,"[0,7]",2,0.2129891649272147,0.5395392022137264,0.5297750756209418
72,48723.4453125,43384.0,"[1,2,4,8]",4,0.21533841326119135,0.15642596858332894,0.20250142147146127
72,6492.30859375,5741.0,[9],1,0.3504972594820124,0.46004916343548646,0.7682340070471558
96,35175.498779296875,31389.0,"[0,7]",2,0.21398027745128517,0.5671528130353939,0.5649385710940894
96,36567.1669921875,31751.0,"[1,2,8]",3,0.19158134555055184,0.15219225555362995,0.23508270958636523
96,9820.263671875,8546.0,[4],1,0.4140117206867996,0.18136341468128397,0.22113449299056037
120,39563.93734741211,35167.0,"[0,7]",2,0.24952809844534313,0.5805444570369347,0.555936850623391
120,23673.05743408203,19711.0,"[1,2]",2,0.1970125970694876,0.14578927410228906,0.15688499302370265
120,15614.371398925781,13778.0,"[4,8]",2,0.4241455300005204,0.18591787986051564,0.4071793424300232
120,7172.942321777344,6488.0,[9],1,0.4415258793139205,0.49807972792070315,0.7924820396407677
144,32386.492168426514,27441.0,"[0,7]",2,0.275341208288396,0.6002027115981153,0.5449982915138052
144,20433.132179260254,17474.0,"[1,2]",2,0.23377161532563875,0.14008673944341005,0.16061143379549145
144,6302.033985137939,5914.0,[3],1,0.645830264683852,0.1570279114232984,0.6108937214844166
144,19205.796424865723,17254.0,"[4,8]",2,0.5029265678945747,0.16813277522038184,0.33320557290633007
144,7936.617790222168,7040.0,[9],1,0.5169065940973134,0.5460229971165355,0.7843436388571865
168,28206.311521053314,24158.0,"[0,7]",2,0.3020504392120972,0.6004756984447128,0.5252477514935708
168,19276.14152240753,16722.0,"[1,2]",2,0.2558628022876382,0.1441310842071791,0.16733452449150496
168,7637.754248142242,6850.0,[3],1,0.6319772590787169,0.16047651360732124,0.6321198110745743
168,12628.82082748413,10838.0,[4],1,0.5281293087785796,0.16704651529433528,0.19187016266525672
168,6532.94011259079,5985.0,[5],1,0.4310296550815192,0.4150717896526177,0.7266484292703362
168,7523.077223777771,6531.0,[9],1,0.5561740691805004,0.5692847014007874,0.7606125933429826
168,7731.194413661957,7145.0,[10],1,0.4565093668479233,0.17541900142967495,0.4259272487090046
