time_in_hour,cumulative_size,size,pcore_ids,pcore_power,SCA-1,CD11b,Ly6C
-1,0,0,[],0,0.0,0.0,0.0
0,15702,15702,"[0,7]",2,139.56852630238427,391.83180486562213,524.4025601834161
0,9052,9052,[1],1,224.75364560318278,143.89306230667296,260.34798939460995
0,24015,24015,"[2,4]",2,125.91467832605045,126.61882156985197,170.65067666042083
0,4621,4621,[5],1,145.01904349708002,358.87708288249326,778.9060809348647
0,9017,9017,[9],1,212.43018742375529,458.95220139736165,555.7621160031041
0,5634,5634,[8],1,128.91693290735114,513.697728079519,589.8049343272987
24,14153.5,10228.0,"[0,7]",2,152.39327728124044,372.1672907761332,529.487352951566
24,13869.0,11606.0,[1],1,230.4693561179603,133.27766962290085,272.8070877496569
24,28914.75,22911.0,"[2,4]",2,138.57644454820175,121.91289047977293,165.37659844888827
24,4670.25,4222.0,[3],1,368.8638188533767,110.25442963438798,598.6049462020235
24,4600.25,3445.0,[5],1,167.84136731699562,376.17145807293076,789.5084506276827
24,4938.5,4463.0,[6],1,378.34727143869236,130.6508555229324,202.64128784043788
24,14621.75,10959.0,"[8,9]",2,190.9066459213172,478.79393711423245,572.3798450937801
24,4886.25,3929.0,[10],1,196.77979022768005,139.39682783320526,705.1629572780768
24,4690.0,3876.0,[12],1,250.15154584221622,557.9882729211087,688.6749999999994
24,4563.75,4030.0,[13],1,338.81139413858824,274.7634072856746,722.205039715146
24,4872.25,4211.0,[15],1,366.4045872030328,411.5322489609523,672.4692390579286
48,7526.0,6102.0,[0],1,106.14783749668312,418.05493456019,535.3825488307202
48,11830.25,8363.0,[1],1,228.58569134210984,132.19171192493928,276.6697554996722
48,29573.6875,22345.0,"[2,4]",2,141.13626555701336,121.30178854091139,161.01477876237095
48,6515.0625,5365.0,[5],1,167.26225765294132,383.96280734068165,782.954279026485
48,8789.375,6675.0,[7],1,181.89756808646973,335.4181611320494,510.7640475005344
48,8888.625,7638.0,[8],1,141.38867091367163,546.2348577535873,570.2187135243098
48,10491.8125,8087.0,[9],1,216.7299918388744,463.4406590853595,550.7986763488182
48,4536.5625,3315.0,[10],1,189.42576289867165,140.3377419577047,694.4076324309412
48,4577.875,3595.0,[11],1,378.2418425579494,324.4518471998466,481.4403789968047
48,5807.5,4635.0,[12],1,241.94105682307213,556.5074903142481,685.1150129143348
48,5044.0625,3826.0,[15],1,356.82144848521784,395.6991016665632,656.2624000991234
72,7098.5,5217.0,[0],1,112.92838715926428,431.311877069098,495.8801529372418
72,12444.5625,9487.0,[1],1,233.37593979298194,140.94977223988414,269.2197571228403
72,34239.421875,26846.0,"[2,4]",2,139.44998751896026,126.92861207590117,153.4829999958934
72,4629.65625,3629.0,[6],1,371.4723960337188,139.54328750109707,184.82160527577008
72,8070.34375,5873.0,[7],1,191.26279278686374,346.12540512911823,482.1403285950494
72,19780.109375,14935.0,"[8,9]",2,202.47670284305605,502.60310191661944,523.4045470236423
72,4642.875,3191.0,[12],1,263.94166801281256,560.1282206606887,658.4089296771938
72,4826.984375,3825.0,[13],1,310.9403386560532,281.44046328096965,724.4747302760849
72,6064.015625,4803.0,[15],1,348.9236428006351,405.9784641468493,672.7134943068345
96,6786.625,5012.0,[0],1,112.3154055311059,437.2228964829726,510.6596159956168
96,13079.140625,9968.0,[1],1,235.77079378542825,138.8051871718444,270.60918029065806
96,29959.85546875,21400.0,"[2,4]",2,141.29960482276022,126.75844108059731,159.59770906980637
96,5864.4140625,4707.0,[6],1,424.1776498877606,155.82875860093637,199.33877665207928
96,6050.5859375,4033.0,[7],1,188.55332902934393,342.8576622873553,481.1288653604051
96,10862.2890625,9123.0,[8],1,155.70004811658836,553.5003272503144,562.4326267124014
96,12376.73828125,9171.0,[9],1,229.07965232156468,476.8198532718742,529.7735056155279
96,7543.71875,6383.0,[12],1,260.91111137576985,573.7531410652059,630.0647926254866
96,5282.00390625,3766.0,[15],1,374.66606246297147,420.43246785037354,678.7553263476427
120,5413.65625,3717.0,[0],1,118.75497908934568,446.09887448264413,502.4057131631825
120,12725.78515625,9456.0,[1],1,253.9874594857057,137.45966312859562,274.5579025545148
120,21288.9638671875,13799.0,"[2,4]",2,151.59849745175777,126.89110472484279,156.69062595198292
120,6927.103515625,5461.0,[6],1,436.81884310299296,150.5372466959926,196.71775918697935
120,6190.646484375,4678.0,[7],1,204.66336326445213,346.28474472103926,473.64405221965774
120,26999.7568359375,21190.0,"[8,9]",2,217.94320199860041,511.2109288383,534.7850551750108
120,11279.9296875,9394.0,[12],1,285.42420918722314,574.446495815648,598.0232221603494
120,5324.1865234375,4236.0,[13],1,352.54686354483835,264.41068297001806,771.2145310123864
120,7901.5009765625,6581.0,[15],1,405.5743220019589,448.78327483516904,705.264238759024
144,12388.4462890625,9207.0,[1],1,278.4393926375261,131.03657208325365,276.6029847697825
144,16298.240966796875,10976.0,"[2,4]",2,172.41552259334944,122.72913622787019,152.49138073353345
144,7816.541259765625,6749.0,[3],1,547.9649133059432,126.68427956625996,600.6300451831894
144,12551.77587890625,10820.0,[6],1,483.3141058654848,136.4824220279472,199.87968989541258
144,23923.939208984375,17174.0,"[8,9]",2,234.45927175719672,518.9523173493313,520.9993849016216
144,12162.982421875,9343.0,[12],1,311.30491859264055,571.4598426128726,576.866654164218
144,5099.69482421875,4245.0,[11],1,493.38003461259353,296.841840355988,395.2506685305451
144,5091.046630859375,3760.0,[13],1,374.5927808599661,267.7280424949451,754.0868865555412
144,10066.375244140625,8091.0,[15],1,457.23176056057133,472.20417039992293,718.961825115244
168,12726.111572265625,9629.0,[1],1,301.15568634999215,132.43950237417312,279.1909598527253
168,8394.923156738281,6040.0,[2],1,229.1468565032747,121.22479338210853,107.87748667736506
168,9597.135314941406,7643.0,[3],1,545.3466494623414,128.78720409663038,604.8862699132186
168,5961.6370849609375,4242.0,[4],1,140.25731012155794,129.84444084840868,218.0636103159666
168,11933.943969726562,8796.0,[6],1,478.4241151515303,134.45942072853887,203.50885455294897
168,5307.4732666015625,3230.0,[8],1,193.75217389174537,560.8163096809812,533.6604416780303
168,14938.511535644531,11035.0,[9],1,282.83894601998423,498.0630991446228,492.24408053515987
168,5426.223205566406,4394.0,[10],1,347.28267435153856,122.62968850595645,598.4571620510453
168,6769.9237060546875,5495.0,[11],1,498.70663966303874,273.7845771527779,397.33024535237394
168,11344.74560546875,8304.0,[12],1,336.43002636669576,582.3744520055225,559.6127903062822
168,4761.761657714844,3489.0,[13],1,401.9605487045467,271.33151133033607,713.923778668267
168,10134.593811035156,7618.0,[15],1,492.4938001363884,483.0796560827684,708.0216546658654
