time_in_hour,cumulative_size,size,pcore_ids,pcore_power,SCA-1,CD11b,Ly6C
-1,0,0,[],0,0.0,0.0,0.0
0,30737,30737,"[0,3,7,8,9]",5,0.18826620041797376,0.46964736002138796,0.55655676548356
0,36689,36689,"[1,2,10,12]",4,0.18104290512326626,0.15749881386520379,0.21911154014047254
0,3401,3401,[3],1,0.2313037474107093,0.49463326596782264,0.6210380282492566
0,5582,5582,[13],1,0.22656894754004672,0.6023832665111372,0.6604349487973975
0,3211,3211,[10],1,0.23716333250518729,0.15920915236228403,0.740132576007171
24,19327.625,17754.0,"[0,3,8,9]",4,0.2148972925389378,0.48579480549155335,0.5793667421204601
24,43665.0625,41372.0,"[1,2,10,12]",4,0.21302509145805865,0.15375087352037678,0.2427761097587964
24,4830.875,4645.0,[4],1,0.3824947529976707,0.18262555603936603,0.2914138957359644
24,7705.0,7113.0,"[3,8]",2,0.25345521112075176,0.4671624540097074,0.578586038770995
24,5220.875,4872.0,[13],1,0.2628493867665542,0.612830760542188,0.6854169191766611
24,5315.0625,5072.0,[14],1,0.40460955449248065,0.38017299720374437,0.6539430122648272
48,25134.9765625,23927.0,"[0,3,8,9]",4,0.20074036525682026,0.5090253424196021,0.5625247900763028
48,38159.06640625,35430.0,"[1,2,10,12]",4,0.20026884041076715,0.15328337911172166,0.21593924201955797
48,4946.703125,4694.0,[5],1,0.28999146484927896,0.44964052019198125,0.8067078791658552
48,4801.65234375,4544.0,[7],1,0.1910023384005444,0.36982209005569056,0.4782729426119614
48,8003.5625,7522.0,"[3,8]",2,0.24185024029854035,0.4762467223747963,0.5585844339170862
48,3208.60546875,2888.0,[10],1,0.2670551428538939,0.1709059934056211,0.7500016966733283
48,6690.3046875,6364.0,[13],1,0.23037603112765814,0.6275301254513095,0.6706343738282576
48,5258.19140625,4926.0,[14],1,0.38899925429852067,0.3799911540466161,0.6348188995728761
72,43754.941650390625,41370.0,"[1,2,10,12]",4,0.20234753940280997,0.16444843421700076,0.2000760898497101
72,6013.1689453125,5704.0,[5],1,0.33964258846269185,0.42659408533858867,0.7581826750329165
72,11592.60107421875,11023.0,"[7,8]",2,0.2246876802087099,0.434191160495691,0.4501069568670874
72,10445.60498046875,9805.0,[9],1,0.22364961773761358,0.5541353418831207,0.5148755926017432
72,5926.14404296875,5508.0,[13],1,0.2684865410094784,0.621008795907947,0.6164634817038775
96,22127.308502197266,20628.0,"[0,3,8,9]",4,0.21620049377631018,0.51475930109558,0.5495445731072908
96,39070.683853149414,36336.0,"[1,2,10,12]",4,0.21433226676035497,0.16194221243471374,0.2266691353430584
96,20825.772918701172,19883.0,"[3,8,13]",3,0.2567976715393427,0.5742079522077418,0.5869476809127046
120,23733.91525363922,21971.0,"[1,2,10]",3,0.2802294946745118,0.16050615048241537,0.2659945353125044
120,7363.002487182617,6684.0,[12],1,0.16792786575199983,0.1702779262688165,0.23070579450868375
120,37144.28895187378,35256.0,"[3,8,9,13]",4,0.2811484757333787,0.5722586896510805,0.5586271019706077
120,4589.613941192627,4349.0,[5],1,0.4409062566086806,0.4610578138366465,0.8098708771403808
120,4185.548819541931,3973.0,[8],1,0.27581075847270514,0.4553631986890722,0.49839913932160235
144,15599.769217133522,14684.0,"[0,9]",2,0.2495420349428,0.576769589215608,0.5253150885442478
144,20617.36970335245,19134.0,"[1,2,10]",3,0.31977208141214725,0.1540559803117062,0.2670721606331719
144,6269.187655448914,5809.0,[12],1,0.18548139257835033,0.15673187231320843,0.22265751862180175
144,8385.231459498405,8128.0,[4],1,0.5587873774774736,0.14866288656127646,0.15473097927186233
144,5198.850871324539,4912.0,[5],1,0.5290534230688297,0.5516686991326955,0.7947238339964682
144,11939.12259376049,10888.0,[13],1,0.3383075801705263,0.629913536109634,0.5788228987651837
144,4961.002411007881,4833.0,[11],1,0.6524709661380714,0.14710476100250336,0.6419772164010529
144,4874.959433734417,4739.0,[15],1,0.41608162886798317,0.3596784935828662,0.7740302352589188
168,14477.985576070845,13503.0,"[0,9]",2,0.27646669231281756,0.5695074424315414,0.5051833782225096
168,8996.63658836484,8469.0,[1],1,0.3836550388311427,0.17034516711214986,0.2642581896091347
168,14229.817290477455,13300.0,"[2,12]",2,0.24380159278783212,0.15407935014411367,0.1524612375902168
168,6936.07696621865,6412.0,[4],1,0.5413440178954597,0.15092902945175943,0.16260445928436607
168,4982.928179457784,4658.0,[5],1,0.5741937391635888,0.5776291121648007,0.7574161379866915
168,8948.19516211003,8202.0,[13],1,0.3778192944779177,0.6565779632676437,0.5676224637430847
168,6056.062650687993,5746.0,[11],1,0.6206806718114288,0.15096213154441865,0.64635403113273
168,5190.684964608401,4886.0,[15],1,0.4566805861815043,0.38512915305612977,0.7367822249332909
168,5426.041004933417,5198.0,[16],1,0.4823391308844333,0.15627651130627787,0.4475905577495318
