time_in_hour,cumulative_size,size,pcore_ids,pcore_power,SCA-1,CD11b,Ly6C
-1,0,0,[],0,0.0,0.0,0.0
0,40256,40256,"[0,3,5,7,8,9]",6,181.74793819554998,423.2905902225765,558.2950119236885
0,35658,35658,"[1,2,4]",3,162.6279937181021,143.31740422906526,204.47860227718783
0,13018,13018,"[5,7,8]",3,197.41473344599848,371.9014441542485,526.8256260562301
24,39912.0,29848.0,"[0,3,5,7,8,9]",6,202.498427791142,421.04694076969326,565.9516185608337
24,47877.5,38963.0,"[1,2,4]",3,182.7594224844684,139.19538405305192,208.74188293039413
24,14542.5,11288.0,"[5,7,8]",3,218.01548908372106,360.7589651022865,534.6787003610104
24,7319.75,6487.0,[10],1,331.8197342805365,360.8453840636636,705.9770483964625
48,29158.25,23278.0,"[0,5,8,9]",4,188.27658124201744,397.98518858299167,537.3298830519661
48,46267.375,34298.0,"[1,2,4]",3,178.28253845177417,138.67741037826326,202.60377587879083
48,16073.25,12956.0,[3],1,195.01092265099012,524.9392352200051,608.5738805157621
48,3631.9375,2518.0,[5],1,262.69924799091217,400.82712395243624,599.739705047236
48,6563.9375,4734.0,[10],1,318.7786865734119,362.1991373318225,707.7452938880066
72,51996.84375,40430.0,"[1,2,4]",3,178.28838439112312,146.14108067857492,193.1698059798092
72,30404.734375,23912.0,"[3,9]",2,210.55772512812922,476.7861296272228,531.4202532191986
72,7978.046875,6094.0,[8],1,197.29364956570402,348.7751211821498,461.59728356133564
72,7878.984375,6238.0,[10],1,310.2376813318622,360.0193870164884,703.1019107396089
96,46097.97265625,35551.0,"[0,3,8,9]",4,205.87832682446793,472.10865258869194,545.0764194398799
96,47219.2109375,34220.0,"[1,2,4]",3,184.49025605144095,145.23814774144302,204.65693650574818
96,5161.51171875,3167.0,[8],1,192.08723143882892,347.30000900596156,467.1740224180337
120,37333.802734375,25529.0,"[1,2,4]",3,202.59358878910783,147.2744076651791,213.12928715792276
120,40865.7958984375,32230.0,"[3,9]",2,246.15111513905106,508.73903271653427,548.8149926965277
120,6690.4365234375,5435.0,[10],1,384.11605972668946,372.0489218592253,750.0601482380598
120,6396.6142578125,5141.0,[13],1,430.98808695945195,167.8273738869123,244.0370102408609
144,41143.77880859375,29359.0,"[0,3,9]",3,255.2717534863284,513.9394649816677,534.8150617821366
144,16396.847900390625,11970.0,"[1,4]",2,262.58209796390764,150.2294628697113,283.5123701620126
144,15190.602783203125,10284.0,[2],1,196.72442171946565,133.4884334088832,148.42337145338504
144,8176.609130859375,6504.0,[10],1,438.1148678476776,425.42726063542744,745.9964583137203
144,7700.10693359375,6864.0,[11],1,549.4567327310507,137.1049375075256,581.5010292445332
144,12778.153564453125,11179.0,[13],1,488.3009195362674,150.79093653438434,218.44428779993518
168,36921.94470214844,26636.0,"[0,3,9]",3,279.37835408167393,512.2805169022611,518.3275503430767
168,12171.883605957031,9267.0,[1],1,330.8214039242067,148.80633902291717,290.6842940544493
168,18079.979064941406,13088.0,"[2,4]",2,210.51267154945725,141.16683474253495,184.8098948243869
168,8261.152282714844,6217.0,[10],1,474.2270052809966,454.33578482874617,721.5169457208389
168,9514.026733398438,7589.0,[11],1,534.7608370168767,133.03543341324982,589.7925435816055
168,11759.538391113281,8565.0,[13],1,482.1386558981891,147.9958122426146,213.91755186558308
