time_in_hour,cumulative_size,size,pcore_ids,pcore_power,SCA-1,CD11b,Ly6C
-1,0,0,[],0,0.0,0.0,0.0
0,34827,34827,"[0,6,7]",3,0.18225672771642357,0.4969586256151454,0.5630639592211503
0,32995,32995,"[1,2,5]",3,0.15883274789677365,0.1486587505716967,0.22753923368965562
0,5957,5957,[11],1,0.277377195745539,0.21341237389830753,0.27500763639042014
0,4757,4757,[4],1,0.16820557758761348,0.4231580133872731,0.8163409871187383
24,27874.6875,25698.0,"[0,6,7]",3,0.2051910417194954,0.49318596392762554,0.5731538732332196
24,28869.5,27064.0,"[1,2]",2,0.16849171718296363,0.13753628533894835,0.14654199889827482
24,10020.3125,9648.0,[11],1,0.27960488263831995,0.1807675655995711,0.28450040754494615
24,5436.6875,5180.0,[5],1,0.24845338506606124,0.17459149120269557,0.7521526589117604
24,4531.25,4398.0,[8],1,0.43288505230530444,0.13646607895147492,0.6273987097765147
24,6093.25,5889.0,[10],1,0.4059295674851045,0.4123473270715506,0.7359073012169702
48,34877.16796875,33135.0,"[0,6,7]",3,0.19240435001501735,0.517549400091801,0.5612871771603883
48,31152.13671875,29008.0,"[1,2,5]",3,0.17430295077598,0.14552857803726812,0.22534199899841514
48,7625.26953125,6999.0,[11],1,0.2685742067242834,0.17644802428899287,0.28527206518372894
48,6657.89453125,6385.0,[4],1,0.20689263622813095,0.45139065629964775,0.8217323705152452
48,4581.9609375,4318.0,[9],1,0.41013867776048285,0.39518264181855306,0.5050581938841523
48,5537.828125,5157.0,[10],1,0.3854418548574923,0.4113153368068629,0.7053860192214484
72,32883.822998046875,30704.0,"[0,6,7]",3,0.21404943115283165,0.5219017679903863,0.5068625374780994
72,30254.396484375,28590.0,"[1,2]",2,0.15959104550644548,0.1454572771265006,0.12674973422852143
72,8901.579345703125,8425.0,[11],1,0.2737423912891176,0.18584427359098066,0.26637891877770103
72,6436.1142578125,6090.0,[10],1,0.379053151592609,0.42716572947024456,0.7356541872692377
96,36089.23893737793,34034.0,"[0,6,7]",3,0.21466002984695345,0.5549056204147824,0.5579438292199141
96,25249.899780273438,23359.0,"[1,2]",2,0.16477568566576228,0.14331824716899444,0.13710066095147808
96,9721.348709106445,9165.0,[11],1,0.2794950928140312,0.17075872197452072,0.26882253542003
96,4801.281631469727,4538.0,[3],1,0.49973941243597525,0.18870527620847066,0.17960953242626737
96,5358.97575378418,5109.0,[5],1,0.2973979246210979,0.1736444403727182,0.7344917020560288
96,4622.257141113281,4220.0,[10],1,0.42344635984784,0.46915364608811616,0.7282318159078929
120,41941.57743358612,39686.0,"[0,6,7]",3,0.25143552506182276,0.5608585450723432,0.5428438449783209
120,17114.11873626709,15536.0,"[1,2]",2,0.18170802268025077,0.1456561211650527,0.1332577112756306
120,10049.584294319153,9442.0,[11],1,0.3046624960601968,0.16903799998644758,0.273134263289647
120,5328.080101966858,5028.0,[3],1,0.506887909011268,0.1737161441630414,0.17073924831479584
120,5061.935984611511,4727.0,[5],1,0.3568640052624191,0.15257165716864998,0.7110633912170343
120,6590.89107131958,6302.0,[10],1,0.4603158567583766,0.5240733087393484,0.7385385121419868
144,33189.34858959913,30568.0,"[0,6,7]",3,0.28405394285109903,0.5887640585153933,0.5354237662402319
144,14118.632421016693,13049.0,"[1,2]",2,0.21406003495226517,0.13969809270577088,0.12990565698959114
144,9729.099018394947,9101.0,[11],1,0.34418568824843165,0.15553804079821426,0.27811886829664173
144,10274.005006372929,9941.0,[3],1,0.5629355786138123,0.15404415132282737,0.17522292527976216
144,6518.845243752003,6254.0,[4],1,0.41732512194238003,0.3870004455385261,0.7785617067014319
144,4603.370999038219,4287.0,[5],1,0.3849302398469994,0.1475885811401355,0.6813864792047353
144,6626.3310577869415,6441.0,[8],1,0.6339475131531229,0.1472478866344374,0.6141456390544193
144,7124.930691957474,6713.0,[10],1,0.5338247431799589,0.5683487186328261,0.7582835546395474
168,30315.334286849946,28241.0,"[0,6,7]",3,0.312132809880472,0.5842973725003425,0.5115513254311485
168,13799.414526313543,12917.0,"[1,2]",2,0.23745396104689753,0.14598020124104014,0.13726126331210364
168,8547.125312898308,7905.0,[3],1,0.5476810750628021,0.1518630562238828,0.17839201493351614
168,7645.4278277345,7238.0,[4],1,0.4460662010531627,0.41506049025010233,0.7234072364418718
168,6000.710687439889,5713.0,[5],1,0.41254237194084786,0.15643926156189902,0.630791815352349
168,7722.145691111684,7308.0,[8],1,0.6194928505687203,0.14962170826963797,0.6306096771671759
168,5119.464788399637,4881.0,[9],1,0.5730638345813578,0.3186483172231723,0.3954463124931628
168,6843.308168247342,6398.0,[10],1,0.5706796548181582,0.5786299468618497,0.7454585523153612
168,10007.068688649684,9399.0,[11],1,0.3721162660461004,0.16156393872329686,0.28638282182956565
