time_in_hour,cumulative_size,size,pcore_ids,pcore_power,SCA-1,CD11b,Ly6C
-1,0,0,[],0,0.0,0.0,0.0
0,35828,35828,"[0,6,7]",3,0.1860114115756584,0.4961823950730931,0.5608978606770807
0,30844,30844,"[1,2]",2,0.15991666654524256,0.147853033305539,0.15914145441721278
0,5509,5509,[8],1,0.32904950224453716,0.19415493692345479,0.2602788876351758
0,5580,5580,[4],1,0.18629273891506695,0.41502497607810657,0.8153730711816806
0,4890,4890,[5],1,0.20911123365731601,0.17113094411903484,0.7286735804628326
0,27,27,[10],1,0.4445276737411568,0.2753896430367018,0.33403447991421265
0,5915,5915,[9],1,0.40905486907215005,0.4037432633499473,0.608774829761637
24,29022.25,26783.0,"[0,6,7]",3,0.21043556904858454,0.4910289637155854,0.5664784186297724
24,32501.75,30574.0,"[1,2]",2,0.17537540113441066,0.14152631382849015,0.16102103239498272
24,9804.3125,9460.0,[8],1,0.35689744273132196,0.16316734466367003,0.24436513998792575
24,3844.9375,3757.0,[3],1,0.45827122743297444,0.14053488533395778,0.6187113105477283
24,5903.75,5555.0,[4],1,0.25213643727682167,0.4457051178262137,0.8345189418035335
24,6331.625,6026.0,[5],1,0.26026521716272977,0.16926896273134442,0.736460643593773
24,800.6875,799.0,[10],1,0.5048942315197871,0.26555206904699785,0.33113829481519824
24,7415.6875,7046.0,[9],1,0.41905378430689116,0.41092091597887864,0.6430975938322523
48,35572.890625,33759.0,"[0,6,7]",3,0.19446873305737644,0.515559446533253,0.5581440161586728
48,36474.12890625,33830.0,"[1,2,8]",3,0.20377670495445824,0.1440798307665849,0.16693573590215563
48,8008.984375,7640.0,[4],1,0.23102602743254375,0.44450759440788074,0.819386744098614
48,4798.7265625,4403.0,[5],1,0.23094177789918446,0.17827152580285804,0.7281473022247343
48,7179.48046875,6716.0,[9],1,0.40073033368575345,0.4045639562666969,0.624636789264103
72,33141.3056640625,30918.0,"[0,6,7]",3,0.21409382300353982,0.5199578551660684,0.5064999456806996
72,46107.553466796875,43528.0,"[1,2,5,8]",4,0.20990034276580333,0.1560438443885923,0.20338631918816627
72,11632.279052734375,10683.0,"[4,9]",2,0.36462254336644684,0.43104143196334493,0.7003757082185746
96,43963.331604003906,41892.0,"[0,6,7]",3,0.24699145334992903,0.518433296120704,0.5844719267992438
96,36945.552185058594,34893.0,"[1,2]",2,0.21735629811283982,0.15973913347207458,0.184200856893821
96,4059.2373809814453,3490.0,[8],1,0.4143738950814245,0.18111669663035665,0.2429893835669243
96,7744.467620849609,7099.0,"[4,5]",2,0.3389901517281924,0.2855788900351338,0.7534771802900784
96,608.2384490966797,443.0,[10],1,0.4792776064551578,0.29623563548388876,0.3729739184912536
120,50349.73837184906,47497.0,"[0,6,7,9]",4,0.2896903999794583,0.5295725478270757,0.55514399430333
120,25879.097011566162,23570.0,"[1,2]",2,0.2377106164682168,0.1742301864627196,0.19498603796905747
120,8305.717239379883,8014.0,"[8,10]",2,0.409646364009462,0.2016451082579448,0.27561787800434523
120,5136.845943450928,4922.0,[4],1,0.4204308275781376,0.3848516046031508,0.7840954666274259
120,4569.183282852173,4300.0,[5],1,0.40171281773274115,0.1801129658102794,0.719299710991627
144,36244.60676407814,33240.0,"[0,6,7]",3,0.30936420742086235,0.5667872496851161,0.5470676327669807
144,22402.443563222885,20785.0,"[1,2]",2,0.27064048653919054,0.16575942175319064,0.19791197605997338
144,4539.438431441784,4375.0,[10],1,0.4635139447797484,0.22725674545274197,0.4111170089674586
144,5631.9632768034935,5522.0,[3],1,0.6155346127472571,0.1539711252790542,0.596693055969961
144,11131.304755628109,10668.0,"[4,9]",2,0.4786994462295472,0.4662522074443762,0.7292245522900375
144,4957.573955178261,4672.0,[5],1,0.432152445195895,0.18978800300706347,0.713985287762117
144,11092.668896019459,10738.0,[8],1,0.533697976417301,0.1721224428523716,0.19250236318750208
168,33278.287922754884,31013.0,"[0,6,7]",3,0.34040182717131867,0.559958904287805,0.529349189617056
168,22231.15272270143,20831.0,"[1,2]",2,0.29934382269006726,0.17543821312146185,0.2114454474351984
168,15903.006707966328,14926.0,"[8,10]",2,0.4991672619223251,0.19629498779744367,0.28250180956801774
168,12817.84607699886,12156.0,"[3,5]",2,0.5288514935506814,0.17643490305250456,0.6283205508915453
168,11769.706547226757,11074.0,"[4,9]",2,0.5058008518254336,0.47435647232847633,0.7002046965169605
168,2640.4975290745497,2525.0,[6],1,0.35937439123194415,0.43870718670581027,0.4969531087957203
