time_in_hour,cumulative_size,size,pcore_ids,pcore_power,SCA-1,CD11b,Ly6C
-1,0,0,[],0,0.0,0.0,0.0
0,35487,35487,"[0,7,8]",3,164.56099416688025,438.8467607856407,547.5546256375557
0,35145,35145,"[1,2,4]",3,157.1624697681061,135.99994309290085,195.77302603499803
24,34621.75,25750.0,"[0,7,8]",3,180.55505570920235,436.80428487872587,552.290301616757
24,30905.0,24262.0,"[1,2]",2,152.57880601844707,120.72814269535718,159.6048535835621
24,14597.25,12454.0,[4],1,214.2819880456946,150.51233965301753,281.9232218397297
24,7119.25,5903.0,[3],1,389.44794044316,327.7323454015519,577.8344980159425
24,5562.0,5085.0,[6],1,391.90295756921523,157.4030474649409,310.8393563466383
24,9554.0,8152.0,"[9,11]",2,268.4208446723875,137.03788988905237,681.5622775800701
24,6712.25,5856.0,[10],1,318.49100525158786,403.36709002197415,753.9843569592915
48,42693.4375,34038.0,"[0,7,8]",3,174.4390575249441,452.7536155293177,547.6839429361921
48,44975.5625,33600.0,"[1,2,4]",3,175.09063811042049,129.75384966002397,195.10753061732095
48,8651.8125,6872.0,[3],1,373.18669498442614,326.53552362582917,568.9528133555807
48,7001.5,4613.0,"[9,11]",2,258.9919570806256,137.5142469470827,666.9250160679837
48,7660.0625,5982.0,[10],1,285.16383678331346,394.04015143479523,758.9603707541538
72,41825.359375,31152.0,"[0,7,8]",3,188.9428296155571,459.0111677163567,508.6974473097386
72,35664.3125,27835.0,"[1,2]",2,147.37921136150175,127.90715377241597,149.81950093668593
72,13432.578125,10018.0,[4],1,224.83976689136145,151.56132885882724,270.0838365215169
72,7211.953125,5049.0,[3],1,375.26759827975974,345.04218040795917,562.9390811694994
72,7939.015625,6024.0,[10],1,304.81476765262994,391.2849141010468,739.8821524236512
96,44885.33984375,34429.0,"[0,7,8]",3,192.628405345671,484.15903360359124,537.4508574669477
96,30163.078125,21247.0,"[1,2]",2,146.13463998048545,126.84153652773978,155.14276611979608
96,14276.14453125,10918.0,[4],1,227.09656843953766,145.42342598954255,273.94150780927384
96,7095.21875,6005.0,[6],1,442.69850790805293,186.22516868754,256.1117400802485
96,7790.75390625,5806.0,[10],1,336.4582339943191,390.2507123578468,745.609226281352
120,48800.0078125,40348.0,"[0,8]",2,245.32926188216058,507.23982191905384,562.0405238552527
120,29232.00390625,20696.0,"[1,2,5]",3,188.70288524203062,138.39099633682233,198.3061821355635
120,13152.0361328125,9583.0,[4],1,300.12674984602035,150.98403333609377,290.16291478453826
120,9981.3271484375,7212.0,[7],1,242.58507179275048,334.27001924198555,486.34175289620373
120,7180.3359375,5542.0,"[9,11]",2,362.04110442146833,158.97696725975808,677.0136048648482
120,6334.6884765625,4387.0,[10],1,383.3896227385098,373.8447161516576,738.4509144142307
144,49814.333740234375,35119.0,"[0,7,8]",3,275.5547386505923,491.95977508002966,541.3771398569932
144,23716.4423828125,16724.0,"[1,2]",2,218.18163435449688,144.0850673692439,189.27063926715226
144,11230.009033203125,7942.0,[4],1,325.83050056157475,163.13547567610226,316.06139179566776
144,10959.701171875,10076.0,[6],1,484.5694776558053,160.0654061434591,236.46888365170193
144,8824.672119140625,7241.0,[10],1,429.1847226917285,400.07689874388683,721.4460819119599
144,5738.68994140625,5517.0,[11],1,529.8522275940713,133.07231032813584,576.8008412777259
168,43608.583435058594,31155.0,"[0,7,8]",3,296.45739233798395,495.60580516992104,523.4427166164536
168,22534.110595703125,16605.0,"[1,2]",2,244.27984484502844,147.91275144700586,195.31046206783068
168,22128.42755126953,16581.0,"[4,6]",2,411.4982419370884,164.91906000713723,289.3211517949951
168,14374.02099609375,11623.0,"[9,11]",2,470.8323821773552,144.35570968742923,598.2516702988788
168,10421.168029785156,8215.0,[10],1,453.6941157230489,426.90817869444453,691.4108150385972
