time_in_hour,cumulative_size,size,pcore_ids,pcore_power,SCA-1,CD11b,Ly6C
-1,0,0,[],0,0.0,0.0,0.0
0,34827,34827,"[0,6,7]",3,0.18225672771642357,0.4969586256151454,0.5630639592211503
0,32995,32995,"[1,2,5]",3,0.15883274789677365,0.1486587505716967,0.22753923368965562
0,5957,5957,[11],1,0.277377195745539,0.21341237389830753,0.27500763639042014
24,42636.5,25223.0,"[0,6,7]",3,0.1964937332140271,0.4961596725300641,0.5702004073018249
24,41270.0,26826.0,"[1,2]",2,0.1633895176461981,0.13911732909972666,0.1491851423322856
24,12420.5,9442.0,[11],1,0.2782352390416526,0.19307005222900994,0.28095309778207167
24,6180.5,3802.0,[4],1,0.19116203645209068,0.44111616194709424,0.8277721312216819
24,6594.5,4541.0,[5],1,0.22563602116506667,0.1756593747223197,0.7558997078789933
24,6048.0,4982.0,[8],1,0.4022497919267561,0.13626798208599689,0.6177706226947581
24,6441.0,4222.0,[9],1,0.4049963453926611,0.4210514899951603,0.5258922949409904
24,8046.0,6412.0,[10],1,0.39961792725535306,0.40276849855412894,0.7372015836556733
48,54614.25,33296.0,"[0,6,7]",3,0.19396469302343605,0.5102968533086971,0.5656720546585526
48,52920.25,28988.0,"[1,2,5]",3,0.17248510306132578,0.14434712131190577,0.2259282149446845
48,13052.25,6842.0,[11],1,0.27473185237983483,0.18847002332861879,0.28207592569201295
48,5530.25,2849.0,[3],1,0.4234679131985469,0.14112887142108788,0.17776404708301582
48,8920.25,5830.0,[4],1,0.19400363835724332,0.44542100115135164,0.8238412900154756
48,5404.0,2380.0,[8],1,0.39751910777700805,0.14128062295065508,0.6081909651186361
48,8169.5,4949.0,[9],1,0.40551403514441714,0.4087625269356639,0.5243947113843895
48,8889.0,4866.0,[10],1,0.38901141544718565,0.40602963192598124,0.732192744166423
72,57875.125,30568.0,"[0,6,7]",3,0.20510836133074373,0.5166817241806737,0.5345628537680484
72,52400.0,29523.0,"[1,2]",2,0.16299938888412804,0.14296951638112732,0.1350483899760263
72,14567.125,8041.0,[11],1,0.27662138070051995,0.19312471866760356,0.2754777232874773
72,6647.125,3882.0,[3],1,0.41709510299818603,0.15229907088229275,0.16526523829545495
72,16749.625,7845.0,"[4,10]",2,0.31980632972413137,0.4251905231078811,0.7655501561689391
72,6254.125,2671.0,[5],1,0.24777666964522435,0.18613176841745965,0.7369911359616236
72,5497.0,2795.0,[8],1,0.39209456434868084,0.14691978738711445,0.6035148803579028
72,8759.75,4675.0,[9],1,0.4100924940459555,0.4109939260957964,0.5238126482161686
96,62613.5625,33676.0,"[0,6,7]",3,0.2101334605359173,0.5394087912850589,0.5493265329324224
96,49999.0,23799.0,"[1,2]",2,0.16422478449569414,0.1426811652748894,0.13778232134798432
96,15520.5625,8237.0,[11],1,0.27881021466583544,0.18522269364267857,0.2757086271094796
96,8569.5625,5246.0,[3],1,0.46244452517102524,0.17276843656352,0.17614653574392453
96,16263.8125,7889.0,"[4,10]",2,0.33249353002410853,0.42815333819716306,0.7776072152958142
96,8094.0625,4967.0,[5],1,0.27245407643364533,0.1807151700671601,0.7436746343301893
96,5636.5,2888.0,[8],1,0.44961601599526235,0.14691917690248513,0.6138237277631055
96,7677.875,3298.0,[9],1,0.4402243550754195,0.4109466544692713,0.5138217396927742
120,70685.78125,39379.0,"[0,6,7]",3,0.23440928448249929,0.5532456660526849,0.546485975781891
120,40169.5,15170.0,"[1,2]",2,0.17039887227872294,0.143127115575689,0.135951307503716
120,16948.28125,9188.0,[11],1,0.2902681167849822,0.18002239854254554,0.27749341251544923
120,10592.78125,6308.0,[3],1,0.48207172900799816,0.1754096321545921,0.1791608539456809
120,13728.28125,6863.0,"[5,8]",2,0.37874114743806725,0.15957668068974284,0.6972825369612834
120,8279.9375,4441.0,[9],1,0.47206110936725654,0.4011532528727602,0.5138348732868901
120,13663.125,8335.0,[10],1,0.4300298463890005,0.4454001588812558,0.7721810504698208
144,77750.890625,42408.0,"[0,6,7]",3,0.2976358624617704,0.5437928301018798,0.5575081888355463
144,37263.75,17179.0,"[1,2]",2,0.22331709055439114,0.14337734495800125,0.14883617196653504
144,17552.140625,9078.0,[11],1,0.35696230731804157,0.17012221851428813,0.2875757804439946
144,13405.390625,8109.0,[3],1,0.5170468851588887,0.16974325079482624,0.21336058877209493
144,12726.140625,5862.0,"[5,8]",2,0.42329345602768204,0.1702174219942118,0.6786182141027114
144,5790.96875,1651.0,[9],1,0.4922188293363364,0.3866938612992318,0.5351853067952146
144,11946.5625,5115.0,[10],1,0.461303534201484,0.4305931692424151,0.7607859251780131
168,68787.4453125,29912.0,"[0,6,7]",3,0.30846930514455784,0.5583756382044965,0.5395651440207593
168,31529.875,12898.0,"[1,2]",2,0.22879995858217667,0.1441330241605052,0.1459110403219838
168,17491.0703125,8715.0,[11],1,0.3649057768356693,0.16929582535425833,0.291168947802851
168,17301.6953125,10599.0,[3],1,0.5343123788574211,0.17323347292901936,0.20842304884839702
168,7982.2578125,4178.0,[5],1,0.3843196387933731,0.18150661958609152,0.6992387293994389
168,12874.8125,10316.0,[8],1,0.5665896628908075,0.16179896908286415,0.6038167167991181
168,16505.28125,10532.0,[10],1,0.5032790364320058,0.47611614016249154,0.7501640679850732
