time_in_hour,cumulative_size,size,pcore_ids,pcore_power,SCA-1,CD11b,Ly6C
-1,0,0,[],0,0.0,0.0,0.0
0,30707,30707,"[0,3,8,9,10]",5,NA,NA,NA
0,33922,33922,"[1,2,5]",3,NA,139.62546430045458,NA
0,6647,6647,[13],1,NA,NA,NA
0,3927,3927,[14],1,NA,NA,NA
24,23665.1875,21746.0,"[0,3,8,9,10]",5,NA,NA,NA
24,42629.8125,40350.0,"[1,2,4,5]",4,NA,137.24824909797596,NA
24,4170.6875,4003.0,[6],1,NA,NA,NA
24,3973.1875,3846.0,[7],1,NA,NA,NA
24,3326.375,2991.0,[9],1,NA,NA,NA
24,6041.4375,5626.0,[13],1,228.19162450989572,NA,NA
24,5347.4375,5102.0,[14],1,NA,NA,NA
48,29290.07421875,27811.0,"[0,3,8,9,10]",5,NA,NA,NA
48,37399.5,34816.0,"[1,2,5,11]",4,NA,NA,NA
48,4927.66796875,4667.0,[6],1,NA,NA,NA
48,7947.58984375,7570.0,[13],1,201.44708915782851,NA,NA
48,5623.21484375,5289.0,[14],1,NA,334.13320338468486,NA
72,28164.629638671875,26334.0,"[0,3,8,9,10]",5,NA,NA,NA
72,42346.46875,40009.0,"[1,2,5,11]",4,NA,NA,NA
72,5977.979248046875,5670.0,[6],1,303.6895440186263,NA,NA
72,2807.239990234375,2557.0,[3],1,NA,NA,NA
72,6997.724365234375,6501.0,[13],1,231.0940804591222,NA,581.5064504612423
72,3730.450927734375,3379.0,[14],1,NA,NA,NA
96,18638.836853027344,17054.0,"[0,8,9,10]",4,NA,NA,NA
96,38800.654296875,36154.0,"[1,2,5,11]",4,NA,144.29729288871232,NA
96,19674.810272216797,19062.0,"[3,13]",2,NA,NA,NA
96,3637.2745819091797,3430.0,[4],1,NA,NA,NA
96,3869.6237030029297,3496.0,[6],1,325.1333226595504,NA,NA
96,2961.7105407714844,2632.0,[9],1,NA,NA,NA
120,23880.65089416504,22097.0,"[1,2,11]",3,NA,NA,NA
120,7263.389999389648,6622.0,[5],1,NA,149.47599717213504,NA
120,37570.59653663635,35648.0,"[3,9,10,13]",4,NA,NA,NA
120,4122.329661369324,3895.0,[4],1,NA,NA,NA
120,4928.851481437683,4687.0,[6],1,391.5283272416742,NA,NA
144,20624.540680885315,19132.0,"[1,2,11]",3,NA,NA,NA
144,6182.961874961853,5729.0,[5],1,NA,NA,NA
144,30067.162283539772,27719.0,"[3,9,10,13]",4,NA,NA,NA
144,8021.645603835583,7764.0,[4],1,NA,NA,NA
144,5396.053217589855,5088.0,[6],1,NA,NA,NA
144,5027.748753726482,4900.0,[7],1,NA,NA,NA
144,2177.3816817998886,1934.0,[9],1,NA,NA,NA
144,4370.20853382349,4241.0,[12],1,NA,NA,NA
144,4833.330334842205,4741.0,[15],1,NA,NA,NA
168,14018.087930578738,13125.0,"[0,10]",2,NA,NA,NA
168,8804.334017906338,8277.0,[1],1,NA,NA,NA
168,14150.20205584541,13228.0,"[2,5]",2,NA,NA,NA
168,17219.04993183911,16015.0,"[3,9,13]",3,NA,NA,NA
168,6939.352850239724,6438.0,[4],1,NA,NA,NA
168,5231.253326099366,4894.0,[6],1,NA,NA,NA
168,6039.234297107905,5725.0,[7],1,NA,NA,NA
168,4357.9328359887,4132.0,[11],1,NA,NA,NA
168,3700.138033363968,3427.0,[12],1,NA,NA,NA
168,5486.083145927638,5184.0,[15],1,NA,NA,NA
168,5188.440899450332,4975.0,[16],1,NA,138.3931988768266,NA
