time_in_hour,cumulative_size,size,pcore_ids,pcore_power,SCA-1,CD11b,Ly6C
-1,0,0,[],0,0.0,0.0,0.0
0,6197,6197,[0],1,0.09750187205480329,0.46108192038623286,0.5418429349929746
0,12025,12025,"[1,4]",2,0.11113102385012841,0.14703831572609863,0.17523533470081354
0,8841,8841,[16],1,0.16779356649116012,0.13459081787291913,0.07584991368167544
0,6473,6473,[5],1,0.23476827687004123,0.1217799589383817,0.19761011733852793
0,5427,5427,[7],1,0.19501038295828593,0.39129682574224667,0.45631940930503867
0,8693,8693,[8],1,0.207645438600347,0.4568347757830833,0.5605057649487328
0,5502,5502,[9],1,0.12618680030551013,0.5742064588607058,0.6181852074038273
0,6970,6970,[10],1,0.24812116131736292,0.5493155865149292,0.5661535438228747
0,5033,5033,[11],1,0.1747953395231932,0.40155269340003064,0.8180941200106046
0,5325,5325,[12],1,0.41321263913065825,0.3989195504854168,0.6205512510848309
0,4736,4736,[15],1,0.21210261349833062,0.23758283523908533,0.2500656018629999
24,5980.5,2882.0,[0],1,0.10164730129475646,0.4540099402999406,0.547379856843578
24,16096.5,10084.0,"[1,4]",2,0.11810704888389663,0.14205569828915104,0.18545054372442016
24,4214.0,3430.0,[2],1,0.22966382790377757,0.16272466052610657,0.36931896858810914
24,4622.0,3613.0,[3],1,0.445942828387921,0.20611241534193167,0.4327331085281109
24,13903.5,9483.0,[16],1,0.177318862803524,0.13219469136567832,0.06490999085888222
24,12013.5,8777.0,[5],1,0.24338354370060367,0.12094844468901608,0.20186630241423717
24,12661.0,9908.0,"[6,13]",2,0.3655286649527094,0.1624722443703383,0.5087870015931982
24,6957.5,4244.0,[7],1,0.20404058347834333,0.3860235788392041,0.45433914307916223
24,11170.5,6824.0,[8],1,0.21547499961022998,0.44714514494686664,0.5728454351358362
24,6232.0,3481.0,[9],1,0.13606963335304997,0.5762849495234076,0.6223260183091215
24,9036.0,5551.0,[10],1,0.2575601464305075,0.5554448245229274,0.563603603403757
24,6725.5,4209.0,[11],1,0.20372446307404718,0.4080253919791315,0.8279726513738996
24,9230.5,6568.0,[12],1,0.4209404703142724,0.39859103733662776,0.6461863443177459
24,6376.5,4580.0,[14],1,0.29788241057182235,0.6101107254330727,0.7337513667686709
24,6242.0,3874.0,[15],1,0.22369513876638566,0.2528329474396909,0.24472295585119513
48,7892.25,4902.0,[0],1,0.10795703080928117,0.4602287182755172,0.5404905830414528
48,18239.25,10191.0,"[1,4]",2,0.12051648708574986,0.1415375337000405,0.1864409071786582
48,4986.0,2879.0,[2],1,0.23282392947443867,0.16280653703673437,0.3652387598415882
48,4697.0,2386.0,[3],1,0.4421171893127994,0.22379621342977132,0.4392346581455355
48,16197.75,9246.0,[16],1,0.18077958184995793,0.1304285844683606,0.05942724729530435
48,12792.75,6786.0,[5],1,0.2452981949265068,0.12191959777132681,0.19948688138060489
48,11533.5,5203.0,"[6,13]",2,0.3704619615648177,0.16058669933953967,0.4835558187570771
48,8410.75,4932.0,[7],1,0.20248892285054093,0.38401599816438414,0.45421243772303965
48,11979.25,6394.0,[8],1,0.21795072612684993,0.44738370657330906,0.5712578910460998
48,9874.0,6758.0,[9],1,0.13875582337452474,0.5975300379808194,0.6140326634526001
48,12069.0,7551.0,[10],1,0.25015975556281655,0.5720993568654466,0.5518131776066384
48,9731.75,6369.0,[11],1,0.2073766136152874,0.4107801794448281,0.824531990466076
48,10776.25,6161.0,[12],1,0.41324505486340984,0.3969406495031337,0.6359153297652782
48,7928.25,4740.0,[14],1,0.29007393203864507,0.6092957867457466,0.7338754799535924
48,6065.0,2944.0,[15],1,0.22164597941773248,0.2723866260309693,0.2355645595139513
48,4323.75,2558.0,[17],1,0.1971189958778779,0.15730875844900646,0.6449978784243786
72,8097.125,4151.0,[0],1,0.1141121666675701,0.4766789012384087,0.5135886788984784
72,22004.625,12885.0,"[1,4]",2,0.1170548096598504,0.14672249717556018,0.17799434323719146
72,5022.0,2529.0,[2],1,0.2461586435414508,0.16832002537252294,0.3566536914635734
72,4767.5,2419.0,[3],1,0.44507765594526943,0.2348476795421485,0.4392377514327129
72,18962.875,10864.0,[16],1,0.1852212265435592,0.13407903058259005,0.05424312776663271
72,14306.375,7910.0,[5],1,0.247133099204714,0.12714988069545166,0.1943589459579271
72,12385.75,6619.0,"[6,13]",2,0.3803680470965255,0.170576809596271,0.4563149390327376
72,11567.375,7362.0,[7],1,0.20749400404639853,0.40506812854592394,0.4383055397987704
72,9975.625,3986.0,[8],1,0.22657940809374522,0.45213363682573304,0.5601684451061014
72,7382.0,2445.0,[9],1,0.14308055351767246,0.6050214360539423,0.6002710461973666
72,17081.5,11047.0,[10],1,0.2520654778956276,0.5789964398121692,0.5273717000125231
72,7713.875,2848.0,[11],1,0.24222354691012593,0.4095350931883543,0.809208336913798
72,11063.125,5675.0,[12],1,0.41154475497796866,0.4028862546048338,0.638230157998195
72,7677.125,3713.0,[14],1,0.31043507516218377,0.6019307077933315,0.7253188461237592
72,6729.5,3697.0,[15],1,0.2288558218008756,0.28996409070752444,0.2284011402442889
72,4011.875,1850.0,[17],1,0.2201905508751244,0.16073700178838413,0.632023596429168
96,7880.5625,3832.0,[0],1,0.11549969920480528,0.4837809653879126,0.5153707846020525
96,12717.125,6643.0,[1],1,0.13701424790711744,0.1346003682994705,0.21810068902714452
96,5908.0,3397.0,[2],1,0.25976829646337407,0.16954712070756087,0.34498229769984545
96,5794.75,3411.0,[3],1,0.4921661340102962,0.24102899546886655,0.43655282875954216
96,26313.625,11904.0,"[4,16]",2,0.1552710228674791,0.14533955825106473,0.08056436514397768
96,14973.1875,7820.0,[5],1,0.2472534683837246,0.1292031083616263,0.19190746016038862
96,15085.875,8893.0,"[6,13]",2,0.4231251646123668,0.17235827151998198,0.45527391596251915
96,9078.6875,3295.0,[7],1,0.2057310726883757,0.40075100369167344,0.4402071709988067
96,9913.8125,4926.0,[8],1,0.2306856021515219,0.46182566538338815,0.5600923993737836
96,11703.0,8012.0,[9],1,0.15420085193751898,0.6167885716834784,0.6006265680168437
96,18694.75,10154.0,[10],1,0.257298885660232,0.5879437222829581,0.5386698975579758
96,8528.9375,4672.0,[11],1,0.25834975888018963,0.39996180324747976,0.8243228742081997
96,9179.5625,3648.0,[12],1,0.43001438910341117,0.41635897273641076,0.644898437094958
96,8863.5625,5025.0,[14],1,0.3170690697847392,0.6184565750833628,0.7081079174888841
96,5511.75,2147.0,[15],1,0.23586402236692516,0.28506592354014576,0.2290398306796077
96,4226.9375,2221.0,[17],1,0.22339911605591534,0.16046262420423374,0.64851884089079
120,6775.28125,2835.0,[0],1,0.12000234141779666,0.4930172237636283,0.5093811081918612
120,10032.5625,3674.0,[1],1,0.13774440867375592,0.13791748213206503,0.22155823501726954
120,6996.0,4042.0,[2],1,0.28430763606490805,0.17040110509172732,0.3392574600774089
120,6490.375,3593.0,[3],1,0.5190524289748834,0.23903784868352276,0.44033660302279887
120,7342.59375,2582.0,[4],1,0.09612217214023577,0.1633563014244102,0.12601114934581817
120,14063.59375,6577.0,[5],1,0.2561980235494788,0.12850470855786114,0.18993135228309221
120,18286.9375,10744.0,"[6,13]",2,0.45127705011700836,0.17140987393781565,0.4553647269535064
120,8756.34375,4217.0,[7],1,0.21267095801771851,0.3991025785555628,0.43624013697291847
120,10129.90625,5173.0,[8],1,0.24504661754796114,0.47039853335132503,0.5506581117004297
120,10868.5,5017.0,[9],1,0.16163436896029806,0.6188471604549848,0.5898211996100762
120,27191.375,17844.0,[10],1,0.2753848515146396,0.5964548837591168,0.5417271671357587
120,7640.46875,3376.0,[11],1,0.31989768867771384,0.4028701370698612,0.8281135275833981
120,9441.78125,4852.0,[12],1,0.4540471167313597,0.44363884730185243,0.6590173849437315
120,10665.78125,6234.0,[14],1,0.35271012829310294,0.6295874346010648,0.6953057420214283
120,5212.875,2457.0,[15],1,0.24688385660288456,0.28944861438291913,0.22956485508111313
120,13477.21875,5081.0,[16],1,0.1983082823467301,0.13433191228901692,0.05015730966322499
120,3815.46875,1702.0,[17],1,0.25046295226916143,0.15690751712328396,0.6353210117609853
144,4910.640625,1523.0,[0],1,0.1260038527748568,0.508294127394222,0.5004091567751345
144,7426.28125,2410.0,[1],1,0.14141343360481684,0.13751230491196217,0.22408928970725986
144,8479.0,4981.0,[2],1,0.3274008381248553,0.16414412050213034,0.34896812938673805
144,9734.1875,6489.0,[3],1,0.5707652474847039,0.2040049245081804,0.4854954325088031
144,5214.296875,1543.0,[4],1,0.0983703782764322,0.16057375956113928,0.12194002010237212
144,13729.796875,6698.0,[5],1,0.27023034470604695,0.12614875892796137,0.18722465348033565
144,22985.46875,13842.0,"[6,13]",2,0.5066713802985098,0.16713457594368908,0.33513686604464404
144,5924.171875,1546.0,[7],1,0.22343044260530143,0.40728247846944193,0.4263503628526639
144,7611.953125,2547.0,[8],1,0.25508847854769007,0.4773889266892918,0.5485111635276654
144,9284.25,3850.0,[9],1,0.1705289581425396,0.6209866732443664,0.5809572725602229
144,30750.6875,17155.0,[10],1,0.2942092358444782,0.6033382879200371,0.5326035027988978
144,8396.234375,4576.0,[11],1,0.35988295942006865,0.3890935139891784,0.8170867558727022
144,13156.890625,8436.0,[12],1,0.5210778348365408,0.4462039581793765,0.6874611039272718
144,11203.890625,5871.0,[14],1,0.38847163861883705,0.6377198996018311,0.690778428069828
144,4161.4375,1555.0,[15],1,0.25761024045851577,0.291440928047958,0.22540050151581603
144,10918.609375,4180.0,[16],1,0.21280950426112585,0.1328583875223248,0.04839345036267416
144,4705.734375,2798.0,[17],1,0.3370145713698035,0.14665381154488538,0.6522105328017134
168,4115.3203125,1660.0,[0],1,0.13977697153618834,0.5202926286961552,0.48637584249220944
168,5879.140625,2166.0,[1],1,0.14839558749907464,0.13971334135413954,0.2261658422810509
168,9891.5,5652.0,[2],1,0.36092469693647444,0.16610974263061942,0.3483476618090816
168,13278.09375,8411.0,[3],1,0.5796859318398262,0.1973104436136475,0.5008929765260944
168,3888.1484375,1281.0,[4],1,0.10202652349414962,0.1592978764045068,0.1188404751359445
168,13775.8984375,6911.0,[5],1,0.2860470009134649,0.12630431615954577,0.18754397080610052
168,18197.6640625,9925.0,[6],1,0.5311542790126412,0.16972460700981828,0.17942162617624016
168,5690.0859375,2728.0,[7],1,0.24814359392928773,0.4306173264131284,0.4105088676380996
168,8041.9765625,4236.0,[8],1,0.2820713682618409,0.4841532032549127,0.5385035443019074
168,6391.125,1749.0,[9],1,0.17841575841103777,0.6254351087843724,0.5733897674583612
168,30045.34375,14670.0,[10],1,0.31364397916870385,0.608315875647344,0.520659734198282
168,7165.1171875,2967.0,[11],1,0.38242840261652,0.39019671529233846,0.7912033167391418
168,15239.4453125,8661.0,[12],1,0.5487377180101998,0.46993501262576615,0.6978334397097082
168,7267.0703125,4047.0,[13],1,0.5121876843032255,0.15724994811400494,0.7253753938092132
168,11427.9453125,5826.0,[14],1,0.41503683239773503,0.6406620183106322,0.6806280025940786
168,4175.71875,2095.0,[15],1,0.27591989899135005,0.29110696491510185,0.22533537329461323
168,9152.3046875,3693.0,[16],1,0.23052311290897964,0.1342410862293197,0.048036720939002714
168,5674.8671875,3322.0,[17],1,0.367378784154893,0.15152592860417324,0.6408311343613815
