time_in_hour,cumulative_size,size,pcore_ids,pcore_power,SCA-1,CD11b,Ly6C
-1,0,0,[],0,0.0,0.0,0.0
0,32723,32723,"[0,8,9,10,11,15]",6,175.9092992696284,407.14803043730785,548.3280567185163
0,34443,34443,"[1,4,5,7]",4,161.2952123798766,142.47725227186936,200.32105217315586
0,1541,1541,[19],1,248.15249837767735,189.90785204412748,344.02530824140183
0,6795,6795,[16],1,195.7168506254604,507.7821927888163,625.0598969830751
24,25615.375,21525.0,"[0,8,9,10,11,15]",6,194.2758206741078,399.84950932789434,552.3196273722324
24,41329.375,37024.0,"[1,4,5,7]",4,182.74976030970882,137.9793427798028,205.0633780452767
24,2949.25,2818.0,[2],1,385.85882003898956,128.38814952954135,645.8355514113761
24,3652.625,3460.0,[19],1,312.6585332466353,160.25871804524135,301.7372095410831
24,3280.125,2990.0,[13],1,272.1861971723624,255.05944895392736,762.2619945886216
24,3096.75,2856.0,[14],1,215.20392346815217,133.98821344958404,693.3550900137238
24,7286.375,6437.0,[16],1,228.80677977732486,518.0333842274106,643.1347892470518
24,4975.375,4664.0,[17],1,340.8612667386837,359.4274803406774,679.4900635630479
48,30201.921875,27000.0,"[0,8,9,10,11,15]",6,184.64689177996374,418.0589547540185,539.5534881627457
48,35111.09375,30460.0,"[1,4,7]",3,172.79932802577812,135.72801019976708,187.83507527446406
48,3219.078125,2704.0,[5],1,223.02822042413266,161.86687279452147,322.4245198305027
48,4311.28125,3989.0,[6],1,175.43317314313623,402.4343328911801,765.2541261660917
48,3580.8125,3284.0,[12],1,323.3892796676694,323.1703698532106,563.9421351648544
48,3297.015625,2887.0,[13],1,243.63930448464325,282.1686231392971,760.6607348501726
48,2745.09375,2358.0,[14],1,204.31108910214823,138.4375305943559,683.1786425782374
48,9536.796875,8626.0,[16],1,202.19970345127186,539.4551498717944,627.9459691491015
48,3777.921875,3156.0,[17],1,326.7794091493708,367.68383742715764,674.5207600077736
72,40845.88671875,36457.0,"[1,4,7]",3,172.9434036876644,144.1732407935434,181.14533583600814
72,2959.384765625,2557.0,[5],1,229.46058454136636,189.27709913840013,315.198187703974
72,11841.806640625,10764.0,"[8,9]",2,204.8846969448322,382.2566971328572,463.2687690344972
72,14666.689453125,12915.0,"[10,15]",2,201.49332664833108,460.40149467097484,507.8269898373294
72,3825.126953125,3413.0,[13],1,294.79866630243265,292.18671919079515,720.6040021138997
72,2186.62890625,1611.0,[10],1,210.9613390689505,446.60223178158503,555.4531893950624
72,8095.099609375,6903.0,[16],1,228.79066063067165,535.5199420173913,583.728844924747
72,3832.240234375,3360.0,[17],1,316.72920029335455,376.6212484844099,668.6516724113411
72,2809.072265625,2555.0,[19],1,297.67937660134265,158.2251313232447,265.0535054875911
96,20769.468994140625,17186.0,"[0,8,9,10,15]",5,191.79219190813734,426.08154597040476,517.8762981175482
96,36020.73583984375,30915.0,"[1,4,7]",3,178.30161391007914,143.0551142979751,196.79373749931682
96,3193.923095703125,2824.0,[5],1,264.74017828198333,182.2432641668987,336.66718237583257
96,2880.23876953125,2643.0,[6],1,273.47714126212475,385.8315082791559,771.4252898378612
96,20334.073486328125,19167.0,"[11,16]",2,222.46406211719963,522.4712638914219,579.0764176725061
96,3316.140869140625,2838.0,[13],1,284.7648299006233,275.7920872348954,752.6689372890786
96,3289.76708984375,3026.0,[14],1,254.85579425310183,146.72638269444317,690.8037552970766
96,2794.030029296875,2315.0,[17],1,356.4850011101491,395.0132518701155,657.0613812216658
96,3609.134033203125,3258.0,[19],1,398.5330959933513,160.27618348167582,220.90736976284853
120,13345.945343017578,11647.0,"[0,9,15]",3,212.81346469232759,443.6343678358314,503.86422827093764
120,19821.338592529297,16521.0,"[1,7]",2,213.3141422318381,140.06391762369685,182.9156779340156
120,6969.253387451172,5767.0,[4],1,151.93084799635312,157.36025274852383,258.89922745692246
120,3603.2403869628906,3204.0,[5],1,296.9291127766584,187.04438198069994,339.00323181019303
120,3561.0298461914062,3201.0,[6],1,373.57590095130826,395.4175953025301,771.5192646831905
120,3486.3222045898438,3079.0,[8],1,212.30930910369375,343.6835984823009,442.07187175195253
120,7069.1893310546875,6293.0,"[10,11]",2,253.38029029784178,458.55488372729934,549.4099877123098
120,23484.485931396484,21229.0,[16],1,253.67215050853005,534.6533888511118,559.5231315694355
120,3634.517608642578,3220.0,[13],1,360.64429381192195,261.63738324501014,752.7413050576475
120,3412.2208862304688,3001.0,[14],1,327.2461141304611,130.0780248184146,680.2126854773117
120,3469.2537536621094,3120.0,[17],1,389.6260754449259,435.6812641238471,651.2547983534251
120,4435.141754150391,3984.0,[19],1,422.2665303224742,150.38758974057296,193.43475042183962
144,2813.451671600342,2411.0,[0],1,160.2152229482086,463.7876810821692,498.52281779653697
144,17080.667324066162,14603.0,"[1,7]",2,246.65678454101882,134.30112234226442,186.61397343565392
144,4994.93888092041,4721.0,[2],1,566.8631715659886,127.92494532150661,618.6953381518015
144,4379.255813598633,4138.0,[3],1,520.161437368918,189.5822619067866,374.9293123157837
144,5434.1566734313965,4563.0,[4],1,160.29066228267277,148.1722892259361,251.25495487107042
144,3865.4050483703613,3415.0,[5],1,354.6741814239396,180.95483530459842,335.5174298144902
144,5794.128730773926,5349.0,[6],1,411.36786519408145,407.68678814065123,741.4266390457385
144,32297.22515106201,27607.0,"[10,11,15,16]",4,273.6803166464599,521.0088234920087,538.9698359412502
144,3579.3147010803223,3125.0,[13],1,376.091826777112,276.0611435653203,739.4025566400423
144,3082.5276107788086,2656.0,[14],1,362.6145956610891,127.33215033277757,674.7548616547748
144,3649.6567192077637,3216.0,[17],1,490.99192155919525,521.170415181713,698.1538854907346
144,8770.392719268799,8216.0,[19],1,483.4750992034499,138.0666548899435,184.3569460390421
168,4136.681458950043,3785.0,[0],1,196.0699008132721,466.3055513139842,471.7709717919429
168,8187.590571403503,7235.0,[1],1,318.6358980021699,142.2732748885767,264.6346613872121
168,6102.367360115051,5478.0,[2],1,544.1469950957721,131.60337833022746,614.799135089535
168,3748.406976699829,3201.0,[3],1,521.2475624901808,204.4176786536993,380.1692105977116
168,13886.762428283691,12025.0,"[4,7]",2,213.16718872429294,140.6840301571647,180.50341128879225
168,4507.175631046295,4024.0,[5],1,387.115804719658,190.5312854515556,336.2662052567522
168,6706.266091346741,5982.0,[6],1,430.35211495018103,413.53678466751927,702.2475860238726
168,13809.035125732422,12162.0,"[9,10,15]",3,281.8338868887356,480.0358916913966,500.21799146851464
168,4289.894894599915,3746.0,[11],1,360.45010809939265,481.4370361674236,544.1857418826783
168,3380.4143376350403,2933.0,[13],1,407.1136665839111,287.3765215345418,696.8649608712794
168,3692.315951347351,3307.0,[14],1,397.4771409700292,135.40962236997453,644.5712779742745
168,11765.07009267807,9698.0,[16],1,315.6663408311887,565.7924801880497,543.6573659981718
168,3303.2070899009705,2847.0,[17],1,539.6089155744852,534.5104289254433,706.635911365993
168,3729.12735080719,3484.0,[18],1,404.0677393507105,131.8936869424161,463.90424460037207
168,7512.2990899086,6416.0,[19],1,469.7218879357934,139.5035441959913,189.3330304262733
