time_in_hour,cumulative_size,size,pcore_ids,pcore_power,SCA-1,CD11b,Ly6C
-1,0,0,[],0,0.0,0.0,0.0
0,30707,30707,"[0,3,8,9,10]",5,170.1244667339711,411.18627674471696,540.7025433940156
0,33922,33922,"[1,2,5]",3,156.97898119214923,139.62546430045458,196.24653617121592
0,6647,6647,[13],1,202.57544757033364,523.9544155258025,624.1645855273041
0,3927,3927,[14],1,345.69849758084524,340.96918767507043,602.6590272472632
24,28749.75,21073.0,"[0,3,8,9,10]",5,187.71606709623782,405.9661823146293,547.4170471047576
24,49624.25,40505.0,"[1,2,4,5]",4,188.95082545328282,137.9920804848439,210.0695829156101
24,4868.75,4198.0,[6],1,288.07476251604425,395.16811296534,769.4331193838257
24,5100.75,4592.0,[7],1,347.2670685683435,141.9754447875314,703.7030338675677
24,3067.5,2512.0,[11],1,182.14123879380605,146.9886715566422,694.5636511817455
24,7584.75,5923.0,[13],1,224.68278453475853,532.1032664227582,636.5002801674403
24,6180.75,5199.0,[14],1,353.88658334343893,338.243497957367,618.9340290417813
48,34445.4375,27258.0,"[0,3,8,9,10]",5,181.02131813538708,423.11300480651516,536.5944564501456
48,50163.9375,36991.0,"[1,2,4,5,11]",5,184.00759135983066,136.706699160129,233.4861747046869
48,2841.1875,1566.0,[7],1,346.6387294045145,140.02008403176526,698.1092632921968
48,5860.1875,4643.0,[6],1,266.62286829559355,399.6074677644701,766.2902210893413
48,9659.1875,7763.0,[13],1,207.33355548797618,548.8360757568864,632.0359631697806
48,6928.1875,5383.0,[14],1,345.04177679948054,336.43627932991046,607.837349234557
48,3348.1875,2784.0,[15],1,124.86108155531927,347.483787870303,770.4583636669099
48,2717.0625,2080.0,[16],1,182.077841418812,204.28309525452562,464.01851724058696
72,33190.5625,25744.0,"[0,8,9,10]",4,192.82563661733883,429.16302309203166,490.3078614214498
72,52922.015625,41227.0,"[1,2,4,5]",4,182.9448023314992,143.18390473718864,191.53777920283048
72,2974.796875,1810.0,[3],1,243.3790647470674,424.9621245148041,578.7507707984269
72,7052.046875,5587.0,[6],1,296.9072720464542,382.74840194890146,733.6492773596322
72,5343.265625,3787.0,"[7,11]",2,286.8947857846732,158.66094295096966,678.5655454149356
72,7824.796875,5410.0,[13],1,232.60890358575568,547.77698502557,605.9141910632669
72,5476.046875,3744.0,[14],1,340.96138580807354,336.1493150567673,595.2466908439314
96,23749.57421875,17145.0,"[0,9,10]",3,182.98840916720644,455.5781194103648,523.8863803643832
96,47777.4375,35190.0,"[1,2,5,11]",4,181.75564090136976,142.99774818527067,233.72539690871307
96,4079.69921875,3336.0,[3],1,252.01853499080315,438.5575759548764,577.7816867626775
96,5252.30859375,4120.0,[4],1,385.90107995665295,163.34501346506093,240.4796960562736
96,5584.01171875,3821.0,[6],1,318.2400198110211,380.47715960817226,753.7464972189734
96,3801.57421875,2955.0,[7],1,422.6100186703069,142.91492833458176,672.7295220010633
96,4232.06640625,2539.0,[8],1,193.92891142680386,346.0614827825872,449.8525718357514
96,15261.19921875,13305.0,[13],1,229.602359896049,548.922387427064,593.4589239920379
96,3535.01171875,2166.0,[14],1,370.78409835539674,357.25945259640457,599.8134840871953
120,23715.3935546875,17778.0,"[0,9,10]",3,201.90047405835762,465.0749971494245,515.8397894580183
120,38661.359375,26717.0,"[1,2,5,11]",4,205.45919289366526,144.88609776517012,256.01694549164245
120,25951.224609375,21116.0,"[3,13]",2,265.3265461491096,529.1054443179781,570.055202153198
120,9924.470703125,7661.0,"[4,7]",2,436.97168919784343,143.92979474464263,396.3296696592557
120,6851.0029296875,5455.0,[6],1,375.9973578229751,388.0541661968702,765.8947707673375
120,4600.0166015625,3542.0,[8],1,204.82404508985226,340.21372736214204,439.8998230942183
120,2776.2705078125,2158.0,[12],1,469.9807615530737,207.51612912303295,416.8430064923119
120,3820.7529296875,2937.0,[14],1,397.05329319139787,396.3828899071193,611.0743004832531
120,2941.0166015625,2437.0,[16],1,279.27076329168216,178.88709128466868,416.3304836862516
144,16351.362548828125,11775.0,"[0,10]",2,203.17314696021654,501.4033988202298,516.6671028481426
144,26247.7216796875,18745.0,"[1,2,11]",3,255.42536288584714,138.10680597761703,272.9162574545624
144,6334.6181640625,4172.0,[5],1,149.48463567244517,145.65066816471787,249.10227823333818
144,26874.2919921875,19034.0,"[3,9,13]",3,289.6068746633011,522.587272293693,546.0772116634603
144,10712.269287109375,9233.0,[4],1,475.5074378630237,138.87229318564712,185.71782458668125
144,8469.750732421875,6757.0,[6],1,425.96232923236687,434.46344215148275,757.8937128595193
144,6204.848388671875,5203.0,[7],1,544.006436262849,128.32196805051615,651.4177216350349
144,5988.067626953125,5294.0,[12],1,519.7604011477113,191.3413973712773,401.84085855965634
144,4658.188232421875,3703.0,[14],1,458.3077211095885,439.1162765247846,613.0387692539257
144,3925.254150390625,3190.0,[16],1,326.23466882151155,161.35782602900466,406.54099197771774
168,13695.840637207031,9608.0,"[0,10]",2,220.28676635861177,501.6139842243406,499.8072743584858
168,20771.067260742188,15310.0,"[1,2]",2,268.1135618802346,137.13087703165743,199.8906214136896
168,5996.654541015625,4413.0,[5],1,163.65325288999225,145.59006794030697,241.92838593230917
168,25684.572998046875,18966.0,"[3,9,13]",3,315.3350818320937,519.7420933480364,528.6772184284869
168,9999.067321777344,7321.0,[4],1,472.6421753667107,139.1719152895361,188.75558853239963
168,8368.437683105469,6251.0,[6],1,457.8829206359144,465.67058415342535,732.2895789460356
168,7857.212097167969,6306.0,[7],1,545.9127629269744,130.12396464909992,630.2363979578356
168,5172.8631591796875,4072.0,[11],1,376.8620145980837,151.27436332913663,652.8050029149698
168,6234.016906738281,4737.0,[12],1,517.0804244189628,204.30988973530592,403.1517072668634
168,4459.547058105469,3295.0,[14],1,497.1022571218198,445.8409210817528,607.2285951815184
168,4148.824401855469,3621.0,[15],1,374.6044568524561,324.8098896555655,694.6124082648311
168,5474.313537597656,4493.0,[16],1,372.4471539573072,151.8127548544282,408.21450281724054
