time_in_hour,cumulative_size,size,pcore_ids,pcore_power,SCA-1,CD11b,Ly6C
-1,0,0,[],0,0.0,0.0,0.0
0,36584,36584,"[1,2]",2,0.18605121782224757,0.16588535972009621,0.18809441565848098
0,39152,39152,"[3,7,8,10]",4,0.21495183852734312,0.47199896863275237,0.5765116346273722
0,1208,1208,[11],1,0.3350686435002603,0.3065957343202185,0.4370519845425447
24,45440.0,40867.0,"[1,2]",2,0.21788741976084344,0.16018462701050776,0.19349370556930098
24,22262.125,18939.0,"[3,8]",2,0.23157934449684278,0.5120109759191935,0.6060789637758148
24,10217.625,9340.0,"[5,10]",2,0.31381502468264494,0.4033546859546051,0.7365268331237638
24,7461.375,6250.0,[7],1,0.22021863909998096,0.38882831423459757,0.5153833258355495
48,40576.0,34896.0,"[1,2]",2,0.2074318156848996,0.15917371397060484,0.1810892176701973
48,29873.765625,27091.0,"[3,8]",2,0.21320994240459673,0.5325635514138914,0.5886817015830564
48,11878.203125,10601.0,"[5,10]",2,0.2867818209000226,0.4128035004608922,0.7396891244125621
48,9853.796875,8644.0,"[7,11]",2,0.251073226902873,0.37358985678790946,0.49773483214838826
72,45525.0,40453.0,"[1,2]",2,0.20456180541737204,0.15544827451221044,0.15730836581865035
72,29078.220703125,25344.0,"[3,8]",2,0.22109956573486197,0.5467409870295054,0.5283435264547032
72,6762.142578125,5905.0,[5],1,0.3261646469280367,0.4324935223122536,0.77745458375795
72,6813.208984375,5848.0,[7],1,0.22239156818758019,0.3776305887688321,0.4390671521334832
72,4950.6328125,4323.0,[10],1,0.4223963288940073,0.39172432928537043,0.603759644540083
96,40602.625,34912.0,"[1,2]",2,0.21972015013886337,0.1632571286435955,0.1822552206972139
96,38306.777587890625,34672.0,"[3,8]",2,0.2365433347656263,0.5439947161610277,0.5668228039835663
96,5802.267822265625,4957.0,[5],1,0.3243613307623358,0.39750653438216643,0.7899402075956402
120,30071.328125,24996.0,"[1,2]",2,0.23869226529756868,0.1700286129794504,0.19288466064662274
120,4920.601806640625,4619.0,[11],1,0.47828282012674667,0.18514634521033044,0.20529488875795948
120,43632.34719848633,38844.0,"[3,8]",2,0.27606966203047834,0.5580903394149451,0.5563005292195335
120,8531.137115478516,7526.0,"[5,10]",2,0.41893011800835417,0.4150189867994719,0.7394594965494276
120,4750.189056396484,4213.0,[6],1,0.38828123127449016,0.1809884022427404,0.73624500978411
144,24979.916015625,21221.0,"[1,2]",2,0.2680676926338425,0.16319897966449295,0.1941757898937941
144,4808.554267883301,4535.0,[4],1,0.46435517025897544,0.19272752245704497,0.43426735456231
144,35188.04339981079,29734.0,"[3,8]",2,0.29764110947107,0.5811887600543484,0.5466230651088272
144,11662.392139434814,10596.0,"[5,10]",2,0.48635482077213377,0.4820181556866658,0.7372642999002426
144,5079.773632049561,4486.0,[6],1,0.4167932186064923,0.1933464475681989,0.729533161791101
144,5729.861831665039,5472.0,[9],1,0.6280129012406886,0.154290185593095,0.6210279444598703
144,11150.075225830078,10535.0,[11],1,0.5482249628559279,0.17049100466812472,0.18640561329488756
168,24377.489501953125,21255.0,"[1,2]",2,0.29655164543906226,0.1695572502175018,0.20544246581550352
168,16657.828686714172,14663.0,"[4,11]",2,0.5123845129769226,0.18511827570303452,0.28711098500842724
168,30818.50542497635,26420.0,"[3,8]",2,0.3261316700095518,0.5802383620495867,0.5272826013779575
168,11970.799017429352,10513.0,"[5,10]",2,0.517350947087159,0.49102377355113136,0.7197085963625135
168,12959.204432964325,11608.0,"[6,9]",2,0.5324348214815082,0.17462378654933108,0.6452291964034134
