time_in_hour,cumulative_size,size,pcore_ids,pcore_power,SCA-1,CD11b,Ly6C
-1,0,0,[],0,0.0,0.0,0.0
0,33669,33669,"[0,7,8,9]",4,NA,NA,NA
0,41525,41525,"[1,2,4,5,11]",5,NA,NA,NA
0,5589,5589,[3],1,NA,NA,NA
0,4608,4608,[6],1,NA,NA,NA
0,4607,4607,[10],1,NA,NA,NA
24,27220.3125,25116.0,"[0,7,8,9]",4,NA,NA,NA
24,48605.625,46152.0,"[1,2,5,11]",4,NA,136.93613136339732,NA
24,5252.3125,4903.0,[3],1,NA,NA,NA
24,3775.6875,3634.0,[4],1,NA,NA,NA
24,4374.0,4086.0,[6],1,NA,NA,NA
24,6396.9375,6109.0,[10],1,NA,NA,NA
48,33912.26953125,32211.0,"[0,7,8,9]",4,NA,NA,NA
48,41076.8515625,38039.0,"[1,2,5,11]",4,NA,NA,NA
48,5910.26953125,5582.0,[3],1,NA,NA,NA
48,6485.375,6212.0,[6],1,NA,353.8348453491513,NA
48,6210.80859375,5811.0,[10],1,NA,NA,NA
72,32356.516845703125,30237.0,"[0,7,8,9]",4,NA,NA,NA
72,46806.30322265625,44239.0,"[1,2,5,11]",4,NA,NA,NA
72,4470.391845703125,4101.0,[3],1,263.677359962534,NA,NA
72,10085.511474609375,9292.0,"[6,10]",2,NA,NA,NA
96,28102.282302856445,26080.0,"[0,7,8,9]",4,NA,NA,NA
96,43351.393951416016,40426.0,"[1,2,5,11]",4,NA,142.1297188967304,NA
96,11834.399490356445,11555.0,[3],1,NA,552.5883232519097,601.5560900424084
96,5611.83349609375,5264.0,[6],1,NA,NA,NA
120,30535.392643928528,28779.0,"[0,7,8,9]",4,NA,NA,NA
120,17448.803685188293,16084.0,"[1,2]",2,NA,NA,NA
120,11640.212704658508,10657.0,[5],1,NA,134.2738174813364,NA
120,16324.649968147278,15585.0,[3],1,NA,NA,576.8613085862929
120,10518.226244926453,9932.0,"[4,11]",2,NA,NA,NA
120,5865.739593505859,5515.0,[6],1,NA,NA,NA
120,3666.9694356918335,3448.0,[10],1,445.5138791285061,NA,NA
144,8507.834434509277,7960.0,[1],1,NA,NA,NA
144,16830.229089856148,15560.0,"[2,5]",2,NA,NA,NA
144,31926.9703245759,29601.0,"[3,7,9]",3,NA,NA,NA
144,10109.98628205061,9850.0,[4],1,NA,NA,NA
144,7601.608724594116,7235.0,[6],1,NA,NA,NA
144,5641.18558973074,5412.0,[10],1,NA,NA,NA
144,8673.402858257294,8276.0,[11],1,NA,NA,NA
168,18314.866968750954,17196.0,"[0,9]",2,NA,NA,NA
168,9398.73965215683,8867.0,[1],1,NA,NA,NA
168,15998.88931811601,14947.0,"[2,5]",2,NA,NA,NA
168,15134.38210883364,14049.0,"[3,7]",2,NA,NA,NA
168,7740.874142628163,7109.0,[4],1,NA,NA,NA
168,7400.100545287132,6925.0,[6],1,NA,NA,NA
168,6480.485463868827,6270.0,[8],1,NA,NA,NA
168,6431.574099358171,6079.0,[10],1,NA,NA,NA
168,9100.08767864108,8558.0,[11],1,NA,NA,NA
