time_in_hour,cumulative_size,size,pcore_ids,pcore_power,SCA-1,CD11b,Ly6C
-1,0,0,[],0,0.0,0.0,0.0
0,6824,6824,[0],1,0.09911449345996667,0.4726738010110705,0.5541394580114223
0,29525,29525,"[1,3,15,18]",4,0.1601637157617364,0.1484560212412978,0.20935645870303626
0,9204,9204,[6],1,0.21728474185625304,0.4743771643648947,0.5715568373971235
24,6441.0,3029.0,[0],1,0.10409630021160644,0.46798006759581084,0.5592918279299968
24,28027.0,19258.0,"[1,15]",2,0.1894731124040531,0.13545957300063083,0.12141394358589765
24,10864.5,6397.0,[3],1,0.1011223027683781,0.1459441049755437,0.18708281533582255
24,11821.0,7219.0,[6],1,0.22418049576596277,0.4654831439255492,0.5799925446936842
24,8058.5,5898.0,[8],1,0.40514335829359355,0.4127534457447339,0.672024158530059
24,9028.5,6353.0,[13],1,0.2799907035959148,0.18777347098692393,0.2766201386774087
24,6645.5,4459.0,[17],1,0.25838900869812265,0.5885929341496349,0.5838168702333687
48,8268.5,5048.0,[0],1,0.10973085209673529,0.47417976335528444,0.5524746896107844
48,31807.5,17794.0,"[1,15]",2,0.19204821490232546,0.13384266317848828,0.11603565224895679
48,12003.25,6571.0,[3],1,0.10401773208895279,0.14629903684644993,0.1870137528175961
48,12938.5,7028.0,[6],1,0.22606755033427495,0.46663947281404633,0.5746831657697389
48,8609.0,5774.0,[7],1,0.14083983837139907,0.602861515282595,0.6257216188269329
48,9492.25,5463.0,[8],1,0.40026446767187357,0.4052312442551067,0.6624659397148591
48,7866.75,5124.0,[9],1,0.18627418843996985,0.40793583653750914,0.8232042222194358
48,6911.75,4132.0,[12],1,0.29824813875410633,0.5851028406443418,0.7697638208972885
48,8603.25,4089.0,[13],1,0.2852995193546176,0.18725918846042883,0.2796865754298435
48,7240.5,4381.0,[16],1,0.18169639566452742,0.3440423260187101,0.49246251404766656
48,10179.75,6857.0,[17],1,0.24909534819484927,0.6056123643570177,0.5752943841137081
72,7792.25,3658.0,[0],1,0.11386619736334838,0.4857516474557254,0.5295932848589425
72,37405.75,21502.0,"[1,15]",2,0.19353968066707627,0.13743551553084482,0.10974272427864633
72,14261.625,8260.0,[3],1,0.10193916317233429,0.15169059312691394,0.18160732666862706
72,6432.375,3544.0,[4],1,0.4103942901199137,0.14663828928869155,0.15591120156159552
72,9621.625,7028.0,[5],1,0.20944949761312898,0.4871091749689755,0.4018595072109999
72,12107.25,5638.0,[6],1,0.23530351741609112,0.4733745832519278,0.5565324523246424
72,10511.125,5765.0,[8],1,0.3952491347784051,0.4064546000039053,0.6736524862921662
72,6617.875,3162.0,[12],1,0.31951095592100254,0.5719728414482815,0.7616773167865047
72,9292.625,4991.0,[13],1,0.29251841158922864,0.19572539978882975,0.27871443482808306
72,7297.25,3677.0,[16],1,0.18836723161449898,0.3541385530934366,0.4738328904907497
72,13707.875,8618.0,[17],1,0.2557013842305642,0.6107209858850603,0.5577167807094435
96,7828.125,3932.0,[0],1,0.11620184350401107,0.492975668572359,0.5293409261654856
96,35803.875,17101.0,"[1,15]",2,0.1978033692370362,0.13682880651126494,0.11377950615780037
96,13901.8125,6771.0,[3],1,0.1036245980979945,0.15196125728991136,0.1801203178660531
96,7653.1875,4437.0,[4],1,0.45220189428671825,0.15977014131906275,0.160847112355238
96,6477.8125,1667.0,[5],1,0.21049462810880554,0.4893128825356486,0.4048482909314089
96,12462.625,6409.0,[6],1,0.2388847767183437,0.482793042146241,0.5556038669206652
96,9607.25,6553.0,[7],1,0.14768417957997543,0.6157584242739951,0.6071478475244403
96,8558.5625,3303.0,[8],1,0.4082856850517491,0.41677790232632167,0.6766191297013968
96,6713.9375,3405.0,[12],1,0.3351987684515463,0.5781899530013763,0.7613789123765976
96,9475.3125,4829.0,[13],1,0.30167365740879354,0.19360657704641804,0.28380221018913426
96,6388.625,2740.0,[16],1,0.18823526760717335,0.3577682300688373,0.4691619174025233
96,18147.9375,11294.0,[17],1,0.2622965326754441,0.6202848658976731,0.5703509857423901
96,6332.125,3667.0,[18],1,0.3019667745598089,0.20528352471153463,0.7896510673799741
120,6510.0625,2596.0,[0],1,0.1193448797771978,0.500293939972236,0.5234829736875776
120,30026.9375,12125.0,"[1,15]",2,0.20775138026228054,0.13626688412537902,0.11443101069618154
120,10517.90625,3567.0,[3],1,0.10327049273282346,0.15276612351165303,0.1789074876597293
120,9228.59375,5402.0,[4],1,0.4723935078273858,0.16055657418648728,0.16005895256535307
120,13780.3125,7549.0,[6],1,0.25336907425484134,0.49384374964406114,0.5477763184855723
120,9096.625,4293.0,[7],1,0.15495168753938618,0.6165047344270768,0.5911432129142309
120,9349.28125,5070.0,[8],1,0.4291671200014426,0.4291400759341032,0.6978659339642179
120,7935.96875,4579.0,[12],1,0.39250096419998237,0.5840762766237831,0.7644341389920867
120,10670.65625,5933.0,[13],1,0.31602641445323626,0.19088880598131464,0.2883633454564223
120,6372.3125,3178.0,[16],1,0.19826101508093655,0.35970110192403437,0.45846909609236813
120,27059.96875,17986.0,[17],1,0.28360101434611223,0.621709089036832,0.5683217601703919
120,7232.0625,4066.0,[18],1,0.35410394489193325,0.20565445252614983,0.792442140995605
144,25755.46875,10742.0,"[1,15]",2,0.2238081363624452,0.13394709737846971,0.1165911811791539
144,7394.953125,2136.0,[3],1,0.10513490769225861,0.15113426873304048,0.17730471793234048
144,16070.296875,11456.0,[4],1,0.5261434763921444,0.15778107585231588,0.16962240870266787
144,11153.15625,4263.0,[6],1,0.26403849788199996,0.5036046759281656,0.5440602850637962
144,8226.3125,3678.0,[7],1,0.16588932907380333,0.6185961773178367,0.5773024589448111
144,13813.640625,9139.0,[8],1,0.47888569296421385,0.4730835030703965,0.7300097286859748
144,10245.609375,7462.0,[10],1,0.6032855622880866,0.15109965400903297,0.6138743631325781
144,11563.328125,6228.0,[13],1,0.3412287993281695,0.18169056566225053,0.2949595026446618
144,31024.984375,17495.0,[17],1,0.30836377617936417,0.624703987623967,0.5608784202094791
144,6761.03125,3145.0,[18],1,0.3787299257138851,0.20743478486108224,0.7859867962834012
168,22951.734375,10074.0,"[1,15]",2,0.24242216539549383,0.13444018287121445,0.12050728506675899
168,17278.1484375,9243.0,[4],1,0.529017126511828,0.15517175199038588,0.17259884408768017
168,7717.2265625,4787.0,[5],1,0.26310655863991544,0.5277087578494851,0.4060297533318601
168,11235.578125,5659.0,[6],1,0.28633779245687957,0.5075844793542739,0.5361782912977185
168,16692.8203125,9786.0,[8],1,0.5096728576872033,0.488915483503688,0.7268569966790351
168,13723.8046875,8601.0,[10],1,0.6036595849231027,0.15061781612448513,0.6162103631213919
168,13166.6640625,7385.0,[13],1,0.3653889405392462,0.17779603020194074,0.2974171347898176
168,6801.265625,4310.0,[14],1,0.5615774766598537,0.35447229979414774,0.392740561739068
168,29146.4921875,13634.0,[17],1,0.33132014035346297,0.6325605665088222,0.5519757795512824
