time_in_hour,cumulative_size,size,pcore_ids,pcore_power,SCA-1,CD11b,Ly6C
-1,0,0,[],0,0.0,0.0,0.0
0,36584,36584,"[1,2]",2,165.58558386180033,146.64265799256506,NA
0,39152,39152,"[3,7,8,10]",4,NA,NA,NA
0,1208,1208,[11],1,NA,271.0306291390732,435.4726821192051
24,78948.0,35805.0,"[0,3,7,8,10]",5,NA,NA,NA
24,78080.0,41496.0,"[1,2]",2,183.57867571721624,142.78249231557294,NA
24,7393.0,3248.0,[5],1,NA,NA,NA
24,10234.0,6331.0,"[6,9]",2,NA,NA,NA
24,2846.0,1638.0,[11],1,NA,259.27055516514423,NA
48,119651.0,40703.0,"[0,3,7,8,10]",5,NA,NA,NA
48,112432.0,34352.0,"[1,2]",2,NA,141.07919453536243,NA
48,13523.0,6130.0,[5],1,197.57612955705252,359.29224284552436,NA
48,9079.0,2906.0,[6],1,NA,NA,NA
48,5385.0,1324.0,[9],1,NA,NA,NA
48,5464.0,2618.0,[11],1,NA,NA,NA
72,158560.0,38909.0,"[0,3,7,8,10]",5,NA,NA,NA
72,153051.0,40619.0,"[1,2]",2,181.96718740812327,140.46708613468448,NA
72,6678.0,2211.0,[4],1,227.99430967355514,166.3650793650796,507.508685235099
72,16322.0,2799.0,[5],1,208.85994363436026,362.2917534615872,761.0536086263925
72,18378.0,3914.0,"[6,9]",2,NA,158.1249319838936,NA
72,7012.0,1548.0,[11],1,356.8633770678783,268.728750713063,NA
96,198865.0,40305.0,"[0,3,7,8,10]",5,NA,NA,NA
96,188451.0,35400.0,"[1,2]",2,185.632052894391,139.5950406206357,200.76627876742552
96,8484.0,1806.0,[4],1,NA,162.83922677982122,498.71181046675895
96,20885.0,4563.0,[5],1,217.5118984917402,363.80225041896284,768.9125688293055
96,15326.0,4522.0,[6],1,228.042411588151,161.92489886467433,717.2283048414454
96,9571.0,1997.0,[9],1,NA,144.70159857904116,636.6131020791969
96,8419.0,1407.0,[11],1,372.06663499227443,264.88169616343964,NA
120,255758.0,56893.0,"[0,3,7,8,10]",5,NA,NA,NA
120,214077.0,25626.0,"[1,2]",2,NA,139.73170868425572,NA
120,9297.0,813.0,[4],1,NA,164.97214155103825,NA
120,23120.0,2235.0,[5],1,NA,366.6433823529436,761.0204584775053
120,28707.0,3810.0,"[6,9]",2,NA,158.2004737520466,NA
120,9042.0,623.0,[11],1,NA,NA,NA
144,252765.0,28179.0,"[0,3,7,8]",4,NA,NA,NA
144,240362.0,26285.0,"[1,2]",2,NA,144.5374684850337,NA
144,10494.0,1197.0,[4],1,NA,NA,NA
144,25139.0,2019.0,[5],1,NA,NA,NA
144,18963.0,1887.0,[6],1,NA,NA,NA
144,19594.0,7963.0,[9],1,NA,NA,NA
144,40752.0,9580.0,[10],1,NA,NA,NA
144,21932.0,12890.0,[11],1,NA,NA,NA
168,280171.0,27406.0,"[0,3,7,8]",4,NA,NA,NA
168,261288.0,20926.0,"[1,2]",2,NA,145.06262821101495,NA
168,12382.0,1888.0,[4],1,NA,NA,NA
168,25527.0,388.0,[5],1,NA,NA,NA
168,19948.0,985.0,[6],1,NA,NA,NA
168,30693.0,11099.0,[9],1,NA,NA,NA
168,53929.0,13177.0,[10],1,NA,NA,NA
168,36063.0,14131.0,[11],1,NA,NA,NA
