time_in_hour,cumulative_size,size,pcore_ids,pcore_power,SCA-1,CD11b,Ly6C
-1,0,0,[],0,0.0,0.0,0.0
0,38773,38773,"[0,3,6,7]",4,NA,NA,NA
0,36043,36043,"[1,2]",2,NA,143.15617456926464,NA
0,1979,1979,[8],1,NA,NA,NA
0,3476,3476,[10],1,NA,NA,NA
24,33398.625,28552.0,"[0,3,6,7]",4,NA,NA,NA
24,43760.375,39255.0,"[1,2]",2,NA,138.01182576703164,NA
24,3406.375,3159.0,[8],1,NA,NA,NA
24,6739.5,6285.0,[4],1,NA,NA,NA
24,6663.5,6229.0,[10],1,NA,342.64797028588436,NA
48,40921.828125,36747.0,"[0,3,6,7]",4,NA,NA,NA
48,39290.046875,33820.0,"[1,2]",2,NA,137.45374683394235,NA
48,2582.796875,2157.0,[8],1,NA,NA,NA
48,6688.875,6136.0,[5],1,NA,NA,NA
48,6164.9375,5332.0,[10],1,NA,NA,NA
72,38878.228515625,33763.0,"[0,3,6,7]",4,NA,NA,NA
72,45513.255859375,40602.0,"[1,2]",2,NA,146.5197642668231,NA
72,1772.849609375,1450.0,[8],1,NA,NA,NA
72,10535.7265625,8929.0,"[5,10]",2,NA,NA,NA
72,2727.244140625,2050.0,[6],1,NA,NA,NA
96,42168.778564453125,37309.0,"[0,3,6,7]",4,NA,NA,NA
96,39434.156982421875,33745.0,"[1,2]",2,NA,143.70237310936795,NA
96,2264.606201171875,2043.0,[8],1,NA,NA,NA
96,6068.3818359375,5559.0,[4],1,NA,NA,NA
96,9090.9658203125,7774.0,"[5,10]",2,NA,NA,NA
96,3686.905517578125,3346.0,[6],1,NA,NA,NA
120,48793.09732055664,43522.0,"[0,3,6,7]",4,NA,NA,NA
120,29716.269622802734,24787.0,"[1,2]",2,NA,145.6550165089136,NA
120,3401.0757751464844,3118.0,[8],1,NA,NA,NA
120,6238.5477294921875,5480.0,[4],1,NA,NA,NA
120,9949.370727539062,8813.0,"[5,10]",2,NA,NA,NA
120,4758.389343261719,4280.0,[9],1,NA,162.9265407079198,NA
144,39510.13716506958,33411.0,"[0,3,6,7]",4,NA,NA,NA
144,25223.53370285034,21509.0,"[1,2]",2,NA,139.99182308910818,NA
144,7729.818466186523,6950.0,[4],1,NA,NA,NA
144,7438.080291748047,6733.0,[5],1,NA,NA,NA
144,6394.134471893311,5969.0,[8],1,NA,NA,NA
144,10446.798667907715,9852.0,[9],1,NA,NA,NA
144,6114.591049194336,5576.0,[10],1,NA,NA,NA
168,36815.7671456337,31877.0,"[0,3,6,7]",4,NA,NA,NA
168,24836.941712856293,21684.0,"[1,2]",2,NA,145.61277714012644,NA
168,9513.227308273315,8547.0,[4],1,NA,129.3233799522249,NA
168,7626.760036468506,6697.0,[5],1,NA,NA,NA
168,7880.266808986664,7081.0,[8],1,NA,NA,NA
168,9324.849833488464,8019.0,[9],1,NA,NA,NA
168,6859.323881149292,6095.0,[10],1,NA,NA,NA
