time_in_hour,cumulative_size,size,pcore_ids,pcore_power,SCA-1,CD11b,Ly6C
-1,0,0,[],0,0.0,0.0,0.0
0,40022,40022,"[0,3,6,8,9,10]",6,NA,NA,NA
0,34064,34064,"[1,2]",2,160.63230976984758,141.87858149365928,NA
0,2931,2931,[5],1,213.25929716820187,NA,NA
0,2524,2524,[6],1,NA,NA,NA
0,3614,3614,[11],1,NA,NA,NA
0,3612,3612,[13],1,NA,343.37347729789656,NA
24,25405.375,21685.0,"[0,6,8,9,10]",5,NA,NA,NA
24,40771.0,36513.0,"[1,2]",2,NA,136.9662014667292,NA
24,4718.375,4352.0,[5],1,NA,NA,NA
24,9332.375,8050.0,[3],1,NA,NA,NA
24,6357.75,5906.0,[11],1,339.80604380480105,347.6792693956188,NA
24,5195.0,4762.0,[7],1,NA,NA,NA
24,3727.5,3276.0,[13],1,NA,NA,NA
48,29695.671875,26520.0,"[0,6,8,9,10]",5,NA,NA,NA
48,37421.375,32325.0,"[1,2]",2,NA,136.83490050806526,NA
48,3316.796875,2727.0,[5],1,247.59840301495709,NA,NA
48,12679.546875,11513.0,[3],1,194.8327116382081,NA,NA
48,4047.375,3398.0,[7],1,NA,NA,NA
48,3345.234375,2885.0,[8],1,NA,NA,NA
48,3033.9375,2538.0,[6],1,NA,NA,NA
48,5741.71875,4947.0,[11],1,NA,NA,NA
48,6118.9375,5653.0,[13],1,NA,382.2360933781395,NA
72,43361.671875,38684.0,"[1,2]",2,NA,145.32056752308992,NA
72,2666.599609375,2252.0,[5],1,NA,NA,NA
72,27521.775390625,24206.0,"[3,6,10]",3,NA,NA,NA
72,6811.1796875,6063.0,[9],1,200.24358705987837,NA,NA
72,2109.2421875,1730.0,[6],1,NA,NA,NA
72,9543.58203125,8061.0,"[11,13]",2,301.2114585759287,NA,NA
96,42317.36279296875,37352.0,"[0,3,6,8,9,10]",6,NA,NA,NA
96,37165.208984375,31745.0,"[1,2]",2,NA,142.7542852761476,NA
96,4029.088134765625,3737.0,[4],1,NA,NA,NA
96,4786.115234375,4347.0,[7],1,NA,NA,NA
96,1692.644287109375,1384.0,[8],1,NA,NA,NA
96,3339.6552734375,3076.0,[6],1,NA,NA,579.8720538176569
96,4754.3583984375,4172.0,[13],1,NA,NA,NA
120,21023.606323242188,18593.0,"[0,6,9,10]",4,NA,NA,NA
120,27393.651123046875,22748.0,"[1,2]",2,NA,144.586006002706,NA
120,25552.483489990234,22905.0,[3],1,250.7832255896202,NA,558.6102586108113
120,5270.636016845703,4767.0,[4],1,NA,NA,NA
120,4370.415618896484,3937.0,[5],1,NA,NA,NA
120,2209.580535888672,1998.0,[8],1,NA,NA,NA
120,5115.264404296875,4517.0,[7],1,NA,NA,NA
120,2209.580535888672,1998.0,[8],1,NA,NA,NA
120,3962.5736694335938,3554.0,[11],1,391.420640446117,NA,NA
120,5345.2947998046875,4751.0,[13],1,371.2543493742791,NA,NA
144,31345.104152679443,26698.0,"[0,3,10]",3,NA,NA,NA
144,12875.805225372314,10866.0,[1],1,NA,133.18274714136766,NA
144,10068.401165008545,8654.0,[2],1,NA,NA,NA
144,5025.307113647461,4384.0,[6],1,NA,NA,NA
144,10948.829502105713,10290.0,[4],1,NA,145.6144618276848,NA
144,5865.301952362061,5319.0,[5],1,NA,NA,NA
144,4706.408050537109,4067.0,[7],1,NA,NA,NA
144,4944.321708679199,4449.0,[11],1,NA,NA,NA
144,6357.655548095703,6031.0,[12],1,NA,NA,NA
144,7250.161849975586,6582.0,[13],1,397.6345704474274,NA,NA
168,29026.13801908493,25108.0,"[0,3,10]",3,NA,NA,NA
168,12354.47565317154,10745.0,[1],1,NA,138.2597235932092,NA
168,10453.550145626068,9195.0,[2],1,NA,NA,NA
168,4562.163389205933,3934.0,[6],1,NA,NA,NA
168,9427.603687763214,8059.0,[4],1,NA,NA,NA
168,7115.162744045258,6382.0,[5],1,NA,NA,NA
168,5235.301006317139,4647.0,[7],1,NA,NA,NA
168,4890.0402135849,4272.0,[11],1,NA,NA,NA
168,7512.706943511963,6718.0,[12],1,NA,132.92854322174338,NA
168,7705.270231246948,6799.0,[13],1,NA,NA,NA
