time_in_hour,cumulative_size,size,pcore_ids,pcore_power,SCA-1,CD11b,Ly6C
-1,0,0,[],0,0.0,0.0,0.0
0,36202,36202,"[0,6]",2,0.19015545729983685,0.4997016176951778,0.579269697905183
0,28683,28683,"[1,2]",2,0.1605000338845381,0.142691455026493,0.14772973010327817
0,9741,9741,"[3,8]",2,0.2724718524388396,0.21640047362433587,0.3066517456922728
24,28276.0,15119.0,[0],1,0.1758628828831746,0.4635476042871516,0.5470920430840648
24,41379.5,27038.0,"[1,2]",2,0.1688277496143918,0.1384407945897975,0.14387645173923916
24,15609.0,12003.0,[3],1,0.3126509770724305,0.18455517454398096,0.24701228133332273
24,8159.0,5524.0,[4],1,0.21839479667452177,0.39198323035550703,0.8258933458099357
24,11114.5,8100.0,[5],1,0.4228543945781853,0.38420989742924805,0.6175248008154863
24,15062.0,10118.0,[6],1,0.2578829601691279,0.5857051787753892,0.6612549346886611
24,8731.0,6695.0,[7],1,0.3081951949594532,0.14861844802236382,0.7222914714713632
24,6667.5,5403.0,[8],1,0.2862050951496207,0.21280541289804825,0.4439258845428289
48,33527.0,19389.0,[0],1,0.1752187319762129,0.4692724945667494,0.5356701174195669
48,46360.75,25671.0,"[1,2]",2,0.16844858655196396,0.139514885024129,0.14143401894412572
48,15903.5,8099.0,[3],1,0.3174989923425083,0.17843862310396583,0.24133283543431408
48,12911.5,8832.0,[4],1,0.22161255948555633,0.38338367021016495,0.8175912005724778
48,13413.25,7856.0,[5],1,0.41776515633019085,0.38064517652523894,0.6114031570601107
48,21045.0,13514.0,[6],1,0.23770752080213395,0.6041178728193961,0.6467996513992446
48,8811.75,5478.0,[8],1,0.2730799943767609,0.20472381911903656,0.4788668614991502
72,37322.5,20559.0,[0],1,0.1876876842522807,0.4796218882499304,0.502132335071974
72,53799.375,30619.0,"[1,2]",2,0.16659078392973875,0.14447398866841263,0.13497845287455418
72,18139.75,10188.0,[3],1,0.32511049899570393,0.18419792437285692,0.23182961682269393
72,11521.75,5066.0,[4],1,0.2663365305919945,0.39800102147944316,0.8009678050078907
72,12939.625,6233.0,[5],1,0.41943923231193964,0.39165049376330585,0.605551968880314
72,20396.5,9874.0,[6],1,0.2511319757162566,0.6108961667520635,0.6221495434306568
72,6703.25,3940.0,[7],1,0.32454534254513967,0.16260589725420233,0.7127731852639048
72,7926.875,3521.0,[8],1,0.27867622500967637,0.21390631204416252,0.46979324690978297
96,32729.25,14068.0,[0],1,0.186032757867949,0.4824734922375091,0.5069056232146092
96,52498.6875,25599.0,"[1,2]",2,0.1681083573370807,0.14458497101298515,0.14155546645055847
96,19725.875,10656.0,[3],1,0.36272151311554557,0.1851977272082766,0.22606581694199224
96,12496.875,6736.0,[4],1,0.2768181483573142,0.3877906467567112,0.8135563790724991
96,12223.8125,5754.0,[5],1,0.45811420757363785,0.3905274598822061,0.6113481209187823
96,29596.25,19398.0,[6],1,0.24377366884754711,0.6175430573267654,0.6106270517289367
96,7296.625,3945.0,[7],1,0.3520099526543453,0.15525567048795968,0.7191051828313861
96,7807.4375,3844.0,[8],1,0.29124232502661473,0.2060207774819086,0.47432265729573536
120,30443.625,14079.0,[0],1,0.1969571635470471,0.48451034220045586,0.49987355228800645
120,43857.34375,17608.0,"[1,2]",2,0.17594640405365308,0.14623799811667665,0.14500492797408657
120,21819.9375,11957.0,[3],1,0.39159864874637507,0.18436891807003478,0.2209039118007467
120,13794.4375,7546.0,[4],1,0.3570184387239996,0.3920251633906044,0.8108064407033462
120,10934.90625,4823.0,[5],1,0.48482307826898846,0.4014272835250384,0.6193305955666891
120,40429.125,25631.0,[6],1,0.2717903777511576,0.6161650367613745,0.5911656852928077
120,6805.3125,3157.0,[7],1,0.3850707193910886,0.15033293563698003,0.722903288885018
120,9102.71875,5199.0,[8],1,0.3317158146240011,0.19716543651720647,0.48948588218770844
144,74635.375,39199.0,"[0,6]",2,0.2978599316090779,0.5440304435512742,0.5535296540623639
144,42928.671875,21000.0,"[1,2]",2,0.22776595771872618,0.16618357985190121,0.18100049123364756
144,23414.96875,12505.0,[3],1,0.4503642557892098,0.18098010588870095,0.23821698216902878
144,11756.21875,4859.0,[4],1,0.399057981236379,0.3887920966398124,0.7757665363586334
144,9320.453125,3853.0,[5],1,0.5270359370525501,0.3924071753564603,0.6235533960005258
144,8917.65625,5515.0,[7],1,0.4548560398795374,0.17029991477930145,0.6888495966385733
144,7620.359375,3069.0,[8],1,0.3626478995194307,0.20794982941689677,0.4767872937857719
168,70491.6875,33174.0,"[0,6]",2,0.3221564328153132,0.5493385902668192,0.543400628278195
168,37803.3359375,16339.0,"[1,2]",2,0.24939303947707017,0.16950396771068948,0.1831410504422242
168,26163.484375,14456.0,[3],1,0.467412226614432,0.18639568820446878,0.24860489827854726
168,21447.3359375,10909.0,"[4,5]",2,0.48970817804296723,0.4064737570549825,0.6964710436759779
168,13760.828125,9302.0,[7],1,0.5117364285278062,0.1657722791707529,0.6528969662094698
168,9630.1796875,5820.0,[8],1,0.4117688061620314,0.20870843646707482,0.4598748621249213
