time_in_hour,cumulative_size,size,pcore_ids,pcore_power,SCA-1,CD11b,Ly6C
-1,0,0,[],0,0.0,0.0,0.0
0,14622,14622,"[0,7,9]",3,0.18090940386888363,0.4455361071861593,0.5398425626454817
0,37588,37588,"[1,2,4,12,15]",5,0.1785119384264426,0.15996765599110566,0.21640296872455808
0,2231,2231,[8],1,0.2367175499473708,0.4064016704154335,0.5575495722852419
0,8493,8493,[10],1,0.17486284144113673,0.5220106736822948,0.5795666390532032
0,6202,6202,[13],1,0.22464301113450277,0.5949876043489136,0.6564288120291668
0,6008,6008,"[4,12]",2,0.17405743652657976,0.1808222520801825,0.5003751493924956
24,44579.25,42230.0,"[1,2,4,12,15]",5,0.21001360378717215,0.15590892364980105,0.2345976812796278
24,6608.8125,6078.0,[10],1,0.19238956666325835,0.5309986909447187,0.588670327374053
24,5269.625,5016.0,[11],1,0.400675377994452,0.38709476384173513,0.6470351733759231
24,5351.625,4964.0,[13],1,0.2690105415319353,0.6113696277603333,0.6843856150305494
24,4269.1875,4096.0,[12],1,0.25004289128904594,0.17109851471070164,0.74477414181742
48,10024.8359375,9581.0,"[0,9]",2,0.18456209499562024,0.4453307951847639,0.5479681395612926
48,36395.24609375,33840.0,"[1,2,12,15]",4,0.19820936522228955,0.1515311628697896,0.21404437325835216
48,4885.625,4626.0,[6],1,0.2918212475906,0.42753423258972106,0.8050236400136429
48,10681.05078125,10268.0,[10],1,0.1863000358966395,0.5582828761002708,0.5651424820400066
48,5415.3515625,5086.0,[11],1,0.3880138855017442,0.3796485393104552,0.6289960167378507
48,6937.4765625,6603.0,[13],1,0.23168709460034317,0.629830199937949,0.6661586391071411
48,3490.82421875,3224.0,[12],1,0.23431946430486364,0.17403559269554214,0.7407915895200088
72,16390.16650390625,15392.0,"[0,5,7,9]",4,0.21896763379988946,0.442146785620247,0.46967468097612386
72,38130.5263671875,36074.0,"[1,2,15]",3,0.18940607662987832,0.15923144346635756,0.1520228312136818
72,6088.3515625,5783.0,[6],1,0.33939984917097277,0.4195106896285748,0.7577158724698108
72,10513.565673828125,9846.0,[10],1,0.22094077748984042,0.5484206740931437,0.5152606128169396
72,2585.259765625,2326.0,[9],1,0.24332301053612193,0.4651061978356181,0.5330737343467752
72,6203.59228515625,5770.0,[13],1,0.26385860718985127,0.6233193569011555,0.6108509792980603
96,25254.76251220703,23409.0,"[1,2]",2,0.17694262918579112,0.15685087391513458,0.15214215530163178
96,7972.3953857421875,7435.0,[15],1,0.26605583443762376,0.16201975415869702,0.21929391330763198
96,22687.822372436523,21643.0,"[10,13]",2,0.23116751563118895,0.5941229339960312,0.5857147524294619
120,17364.42265701294,15786.0,"[1,2]",2,0.19126135832369864,0.15883089762845953,0.15039280719262768
120,7414.274711608887,6916.0,[15],1,0.30030975289458145,0.16055256179046282,0.22598032280613004
120,34107.6612405777,32303.0,"[3,9,10,13]",4,0.2791409213630983,0.5837975605923459,0.5664442866445845
120,4756.907623291016,4511.0,[6],1,0.4414731281936598,0.4552619799272844,0.8102649361524146
120,2770.9736709594727,2599.0,[9],1,0.2785537489143829,0.4945866873363356,0.5411041255026399
144,13962.276416063309,12877.0,"[1,2]",2,0.2143039825547736,0.15091982052750863,0.14618259654963253
144,17474.34563279152,15978.0,"[3,9,13]",3,0.337055514284261,0.600751123739071,0.5705271719483528
144,5556.3067264556885,5259.0,[6],1,0.5135569430080287,0.5394340103114792,0.7954797543251132
144,10126.383194744587,9491.0,[10],1,0.2573609955323687,0.5857164802017875,0.5387507973459877
144,4675.645968437195,4555.0,[14],1,0.4184652153755779,0.35307154444375033,0.7736816963343305
144,7378.392169475555,6915.0,[15],1,0.3483459592530038,0.15152851506023654,0.22231974670269034
144,8080.862551748753,7847.0,[16],1,0.564025889854913,0.15577157204686767,0.15197509966215567
144,4786.388731837273,4648.0,[17],1,0.5756935315952985,0.19914154717841154,0.3934257218965615
144,4647.511557400227,4524.0,[18],1,0.6545849637084105,0.1475883863594417,0.6551488379660649
168,13308.642276003957,12436.0,"[1,2]",2,0.23809336921254262,0.15488489135220965,0.15184445327270024
168,4718.8110704012215,4462.0,[4],1,0.42254291088098533,0.18802591696195672,0.36354039880874484
168,5502.2691704034805,5155.0,[6],1,0.5512283104599127,0.5633802035538866,0.7592317161084172
168,15181.94877736643,14237.0,"[7,9,10]",3,0.31814063587139274,0.5529624610475441,0.5119771861006313
168,8203.780694462359,7543.0,[13],1,0.36980997595944304,0.6631194963167367,0.564815651732237
168,4809.140826057643,4577.0,[12],1,0.4436047903666442,0.14700036013650225,0.6504631598397379
168,5659.227873027325,5367.0,[14],1,0.46119715315484777,0.3841363083083365,0.7294108206204736
168,8108.149510592222,7647.0,[15],1,0.3740139365929578,0.15989799477407604,0.23617173507391853
168,6612.053909484297,6107.0,[16],1,0.5436376174087997,0.15704589017915432,0.15801968603400326
168,5656.469472337514,5366.0,[18],1,0.6230117706109938,0.14878910883309257,0.6523448781540669
