time_in_hour,cumulative_size,size,pcore_ids,pcore_power,SCA-1,CD11b,Ly6C
-1,0,0,[],0,0.0,0.0,0.0
0,33204,33204,"[0,7]",2,160.2050054210364,445.7904770509577,553.642000963737
0,26872,26872,"[1,2]",2,136.45582762727324,125.96338195891656,172.05183834474505
0,9795,9795,[4],1,237.38968861664142,173.95395610005073,281.43164880040877
0,5676,5676,[5],1,165.77959830866914,359.74982381959063,776.0384073291077
0,7928,7928,[6],1,330.7163218970702,359.52308274470283,567.6079717457103
0,5348,5348,[8],1,204.89640987285034,144.8578908002991,681.8803290949892
24,34125.0,13290.0,[0],1,147.0600146520192,397.07161904762035,520.7168058607998
24,53224.0,26352.0,"[1,2]",2,144.5970426875141,123.36105892078768,170.3274462648422
24,24399.0,14604.0,[4],1,258.98024509201076,162.6491659494241,280.9118406492075
24,11531.0,5855.0,[5],1,194.62804613650167,371.9327898707811,783.700979967045
24,16866.0,8938.0,[6],1,348.13595399027145,358.1711727736288,585.5895292304047
24,23355.0,10986.0,[7],1,203.45973025048315,516.1415114536479,611.132733889963
24,13616.0,8268.0,[8],1,251.45600763807136,138.96775851938946,680.0174794359548
48,51662.0,17537.0,[0],1,149.07583910805366,394.8871898106921,516.8990166853664
48,78644.0,25420.0,"[1,2]",2,146.4121611311775,123.44147042368057,169.08454554702155
48,34822.0,10423.0,[4],1,263.107288495778,159.99129860433047,284.0114582735064
48,21289.0,9758.0,[5],1,197.12241063460024,353.67297665460893,777.4032598994777
48,26584.0,9718.0,[6],1,350.85803490820837,341.47340505567234,585.9999247667797
48,39243.0,15888.0,[7],1,198.49845832377875,524.3139158576076,605.8855337257557
48,14545.0,929.0,[8],1,251.38404950154515,138.24957029907193,679.6125816431737
72,70043.0,18381.0,[0],1,155.3105378124909,400.22371971502884,502.90964122039253
72,109155.0,30511.0,"[1,2]",2,147.11095231551894,125.45222848243316,165.71576198983013
72,5750.0,2543.0,[3],1,416.1125217391291,196.11721739130454,432.3714782608695
72,45402.0,10580.0,[4],1,264.6939121624579,161.9053125412967,278.77141976124483
72,26065.0,4776.0,[5],1,213.86545175522667,357.70070976404946,771.9666986380092
72,33083.0,6499.0,[6],1,352.2946528428424,345.90236677447473,587.7532267327681
72,51498.0,12255.0,[7],1,204.7850790321961,527.8524020350311,594.9604256475911
72,19000.0,4455.0,[8],1,257.4447368421034,141.95136842105234,674.9865789473673
96,81966.0,11923.0,[0],1,156.16534904716937,401.6638484249543,501.8497669765522
96,133587.0,24432.0,"[1,2]",2,147.83464708392688,125.7367333647731,166.3578192488788
96,8279.0,2529.0,[3],1,436.742360188428,196.9286145669767,425.4477593912305
96,57526.0,12124.0,[4],1,273.9020269095699,161.62229252859603,275.35368355178707
96,31736.0,5671.0,[5],1,220.94343962692102,357.9864192084679,775.4479140408179
96,38665.0,5582.0,[6],1,361.99459459458876,349.1615931721196,590.0869002974364
96,73242.0,21744.0,[7],1,205.71442614892928,532.3369105158224,590.2841129406262
96,24995.0,5995.0,[8],1,268.48729745948935,140.31542308461644,676.9719143828747
120,93501.0,11535.0,[0],1,159.41692602218512,402.7431471321163,498.55876407739567
120,149568.0,15981.0,"[1,2]",2,149.85427364142393,126.02158215661086,166.01331167094563
120,9316.0,1037.0,[3],1,439.94536281665995,196.03231000429363,424.49237870330535
120,72295.0,14769.0,[4],1,286.2580123106699,161.7890587177544,272.54482329345433
120,36541.0,4805.0,[5],1,239.99537505815235,361.1312498289582,777.6457951342076
120,46736.0,8071.0,[6],1,374.35882403286087,356.08160732625845,592.6788770968892
120,100425.0,27183.0,[7],1,216.21645008712696,534.8833756534647,581.7728553646494
120,31614.0,6619.0,[8],1,288.09008667045936,138.23562345796105,676.7888909976583
144,102821.0,9320.0,[0],1,172.92721331245988,395.04203421479923,500.99788953619037
144,169739.0,20171.0,"[1,2]",2,165.07470881765818,126.39803462963722,168.88755088694973
144,11453.0,2137.0,[3],1,449.5952152274505,191.08320963939593,425.49812276259337
144,86030.0,13735.0,[4],1,305.4666511681932,159.0154016040922,271.9020690456852
144,40204.0,3663.0,[5],1,252.61802308227848,359.11411799820786,775.6868719530139
144,56682.0,9946.0,[6],1,392.8380438234345,347.4770473871762,600.352034155463
144,130546.0,30121.0,[7],1,235.98958987636144,533.2835935225867,579.6489819680144
144,32521.0,907.0,[8],1,288.28037268226444,138.4686510254907,676.3925156053009
168,114209.0,11388.0,[0],1,192.09103485715298,383.11591030479474,504.3049321857364
168,196994.0,27255.0,"[1,2]",2,187.11170390976702,127.80453719402635,177.1355574281437
168,15887.0,4434.0,[3],1,456.63737647132865,190.16504059923238,429.9452382451054
168,91240.0,5210.0,[4],1,308.3904427882445,160.5631411661563,275.2500328803189
168,40339.0,135.0,[5],1,252.61161654973932,358.73836733681924,775.272094003296
168,60709.0,4027.0,[6],1,397.744733070878,346.25763890032675,601.4080614076954
168,167179.0,36633.0,[7],1,263.45673200580995,521.3991350588245,578.3689338971919
168,33439.0,918.0,[8],1,288.5256138042394,139.35913155297644,674.8102215975362
