time_in_hour,cumulative_size,size,pcore_ids,pcore_power,SCA-1,CD11b,Ly6C
-1,0,0,[],0,0.0,0.0,0.0
0,29491,29491,"[0,7,9]",3,168.58587365637172,455.4586484012084,561.9905394866234
0,29870,29870,"[1,2,5]",3,137.16427854034438,133.27880816873136,NA
0,6486,6486,[3],1,198.57971014492844,170.08664816527906,306.54640764724115
0,5543,5543,[8],1,130.13440375248348,342.98412412051294,454.7284863792184
24,23077.5,13172.0,"[0,7]",2,164.56867078323273,417.5160654316983,548.6046148846274
24,42970.0,28035.0,"[1,2,5]",3,149.6753199906938,129.49278566441757,NA
24,12891.0,9648.0,[3],1,208.5838957412162,154.92335738111967,305.5769141261345
24,5659.5,3522.0,[4],1,167.94981888859627,392.90158141178455,789.5245163000278
24,6391.5,5292.0,[6],1,357.172416490649,120.53970116561077,624.5011343190172
24,7293.5,4522.0,[8],1,145.46013573730343,332.4246932199908,449.27373688900997
24,12744.0,7904.0,[9],1,211.0686989956062,529.6316305712493,609.3052809165094
24,8436.5,6530.0,[10],1,343.53262608901053,395.0897291530852,701.3569608249863
24,5916.5,3977.0,[11],1,386.70734386883703,335.4184906617081,510.36584129130244
24,9616.0,7398.0,[12],1,334.4826851081495,136.91784525790305,224.78223793677165
48,28468.75,16930.0,"[0,7]",2,161.1637585071384,428.8533743139409,544.1105246981323
48,49508.0,28023.0,"[1,2,5]",3,155.1207330128497,128.63394804880073,NA
48,13889.5,7444.0,[3],1,210.8921487454558,150.32690161633022,306.3757514669347
48,8351.75,5522.0,[4],1,168.23096955728073,392.95432095069805,784.4272158529611
48,9428.75,5782.0,[8],1,148.62052233859572,332.06276017499613,444.35752353175116
48,17530.0,11158.0,[9],1,206.4065459212781,544.8808185966903,605.2489589275505
48,9431.25,5213.0,[10],1,338.74581842278894,389.3895559973493,701.0041086812465
48,8318.25,5360.0,[11],1,380.47798515312155,318.06602951341836,516.2868091245132
48,9134.0,4326.0,[12],1,338.8958561418839,133.57707466608275,220.98916137508184
72,30010.375,15776.0,"[0,7]",2,173.5836481550165,442.01689415743783,519.4044476285269
72,48393.875,27828.0,"[1,2]",2,142.70592094557756,126.11678647349547,155.31234582888732
72,14841.75,7897.0,[3],1,217.5090706958426,154.67864301716492,297.63666683511
72,5085.875,910.0,[4],1,175.4357903015725,391.4874284169387,776.4514464079416
72,7175.125,2987.0,[5],1,228.02252573996952,170.07240291980992,696.7290987961874
72,12132.375,7418.0,[8],1,158.8539651140053,351.40393987162497,422.18090027714993
72,17012.0,8247.0,[9],1,220.0662106160362,550.8323756759952,586.8608114860053
72,11576.625,6861.0,[10],1,332.6194162806455,388.6898059667652,707.8666277952361
72,8367.125,4208.0,[11],1,382.25597203339953,325.6207329279765,513.3486561991137
72,9922.0,5355.0,[12],1,342.45770761942725,141.0258516428135,210.63923604112037
96,30599.1875,15594.0,"[0,7]",2,170.7516314771463,452.88144905808355,525.970897920082
96,46210.9375,22014.0,"[1,2]",2,143.717236855456,126.04596043956066,158.3513237531683
96,16253.875,8833.0,[3],1,222.98009705378013,150.6344717798065,293.0217255885142
96,5328.9375,2786.0,[4],1,186.89546462123252,377.96409931623225,785.1633651173415
96,9011.5625,5424.0,[5],1,250.54457121059818,160.91941602801964,704.0475153448693
96,9772.1875,3706.0,[8],1,158.4018867321186,347.15852387195775,427.7043906494829
96,23344.0,14838.0,[9],1,223.52909473526512,557.3043688956488,587.1730664196349
96,10979.3125,5191.0,[10],1,346.6515890680703,396.3658072852912,716.513283504775
96,8302.5625,4119.0,[11],1,426.18863152189203,302.87741736361414,510.99828366242565
96,11077.0,6116.0,[12],1,381.18522050193707,152.36763112756145,211.44274171707173
120,32719.59375,17420.0,"[0,7]",2,192.42230334079443,460.19648967982823,520.8179903670056
120,37253.46875,14148.0,"[1,2]",2,149.9087282979554,126.30968760459373,156.76984609654454
120,17296.9375,9170.0,[3],1,237.66393978702854,149.1076057539095,294.5886374394328
120,12170.25,5917.0,"[5,6]",2,NA,146.6846742055423,674.262445820749
120,9713.09375,4827.0,[8],1,168.96495709721975,340.4745366274259,426.7895334583799
120,31374.0,19702.0,[9],1,251.29147044527062,555.8376233107002,578.3848738206722
120,14464.65625,8975.0,[10],1,386.64631677644604,385.96589747855137,719.7427609107557
120,5007.28125,856.0,[11],1,430.9416162713022,300.5639724650963,511.5931112816975
120,13563.5,8025.0,[12],1,412.7008768938676,160.43293582040016,226.19402256054843
144,30795.796875,14436.0,"[0,7]",2,NA,NA,522.9552135513585
144,35130.734375,16504.0,"[1,2]",2,NA,140.58487782466133,NA
144,17279.46875,8631.0,[3],1,NA,149.5354692979201,NA
144,6566.390625,2714.0,[5],1,NA,NA,NA
144,6741.734375,4509.0,[6],1,NA,NA,NA
144,38806.0,23119.0,[9],1,NA,NA,571.1700385410661
144,7084.546875,2228.0,[8],1,NA,NA,438.73340523278057
144,13281.328125,6049.0,[10],1,NA,NA,NA
144,4815.640625,2312.0,[11],1,NA,NA,NA
144,15737.75,8956.0,[12],1,NA,154.36311178535567,NA
168,27180.8984375,11783.0,"[0,7]",2,NA,NA,NA
168,30486.3671875,12921.0,"[1,2]",2,NA,143.77088529580976,NA
168,17205.734375,8566.0,[3],1,NA,161.95843046513377,NA
168,6240.1953125,2957.0,[5],1,NA,NA,NA
168,11797.8671875,8427.0,[6],1,NA,NA,NA
168,37976.0,18573.0,[9],1,NA,NA,556.6517605280218
168,4944.2734375,1402.0,[8],1,NA,NA,NA
168,15954.6640625,9314.0,[10],1,439.6419747947899,NA,NA
168,7474.8203125,5067.0,[11],1,466.67108009494444,NA,NA
168,18481.875,10613.0,[12],1,NA,155.583891312434,NA
