time_in_hour,cumulative_size,size,pcore_ids,pcore_power,SCA-1,CD11b,Ly6C
-1,0,0,[],0,0.0,0.0,0.0
0,37913,37913,"[0,3,6,7]",4,0.1973376657438978,0.4877312585028864,0.5722248751787068
0,37189,37189,"[1,2,8]",3,0.1796764538021878,0.15932671912302257,0.22999754279904405
0,2563,2563,[9],1,0.2827927244670258,0.22490214910058307,0.3330659800640771
0,4767,4767,[5],1,0.17556939916985592,0.39382106621028645,0.803955880793299
24,46733.5,27777.0,"[0,3,6,7]",4,0.21510580613502772,0.48792849529441673,0.5816090587859899
24,59125.5,40531.0,"[1,2,8]",3,0.20302621380782607,0.15535990224949436,0.2505413958557326
24,4899.5,3618.0,[9],1,0.318547065683149,0.2220876033615029,0.3514521617246073
24,6980.5,4597.0,[5],1,0.213157036978615,0.41388332591663607,0.8158922349548684
24,9128.0,6789.0,[11],1,0.4239795566672193,0.37211673543886636,0.6559470212313288
24,4989.0,4277.0,[10],1,0.40787766794813385,0.15585906641670508,0.22820371855944935
48,58845.75,35479.0,"[0,3,6,7]",4,0.2093075464338871,0.5044037691685046,0.5753203514677444
48,63881.75,34319.0,"[1,2,8]",3,0.19835382729405254,0.1536218370243503,0.23628495170856142
48,4962.75,2513.0,[9],1,0.3347385210831886,0.23417041803061814,0.35814972996485284
48,10519.25,7029.0,[5],1,0.22104670063150728,0.42334074128480365,0.812845635160437
48,10390.0,5826.0,[11],1,0.4138047604113637,0.37428830475700986,0.6434872382430439
48,5194.5,2700.0,[10],1,0.4039173347782448,0.14984081884380826,0.2096757406379573
72,63124.875,33702.0,"[0,3,6,7]",4,0.2241029423776162,0.5063724735300091,0.5462977189692177
72,72220.875,40280.0,"[1,2,8]",3,0.19855925164654542,0.16007879751930135,0.21443802784796342
72,5338.375,2857.0,[9],1,0.33946796607034235,0.24337149154922558,0.35717224368688666
72,8594.625,3335.0,[5],1,0.25760838569572336,0.42858107676342144,0.7968798511966856
72,10628.0,5433.0,[11],1,0.4037433449061755,0.37313703120502945,0.6517138774074971
72,5473.25,2876.0,[10],1,0.39831624904989293,0.1562457048917267,0.19614472881213976
96,68383.4375,36821.0,"[0,3,6,7]",4,0.22827418283274886,0.5261675688476991,0.5594693687866401
96,71990.4375,35880.0,"[1,2,8]",3,0.2075647814219426,0.16015251750673357,0.23248084233564092
96,8633.3125,4336.0,[5],1,0.2710447031305188,0.41613238149749604,0.8055476035918193
96,7284.625,4548.0,[10],1,0.4436320012154235,0.17025195514603048,0.19130776168328817
96,9268.0,3954.0,[11],1,0.44048217134709605,0.3719180143153005,0.6572558227750179
120,76833.71875,42642.0,"[0,3,6,7]",4,0.2514714499264474,0.5416540393295346,0.5532072303867213
120,53526.3125,21601.0,"[1,2]",2,0.1987212047828715,0.16037559993765724,0.1711645236851678
120,9380.90625,5311.0,[8],1,0.3910961712098873,0.16238226176935397,0.7404234404337126
120,8462.65625,4146.0,[5],1,0.33724225047708917,0.42428721189154267,0.8116283304306465
120,9566.3125,5924.0,[10],1,0.4672455734582978,0.16741557819744798,0.17965485658955738
120,6894.59375,4032.0,[9],1,0.3966601824228888,0.23096634997497026,0.365998895454091
120,9312.0,4678.0,[11],1,0.48010806401791045,0.39558026392865364,0.6672209108610029
144,70332.859375,31916.0,"[0,3,6,7]",4,0.2721849466374346,0.5617774448282078,0.5475088980755737
144,44225.15625,17462.0,"[1,2]",2,0.2129360791776367,0.1568362455715092,0.172006749807131
144,21923.328125,13036.0,"[5,11]",2,0.4678375288008351,0.44240577635538103,0.7409395982284177
144,28177.609375,18704.0,"[8,10]",2,0.5004631025300034,0.15566174272901695,0.3966399523174523
144,10507.296875,7060.0,[9],1,0.4723469543127661,0.21358000228065546,0.38254089669224894
168,65144.4296875,29978.0,"[0,3,6,7]",4,0.29648325161696976,0.5676620304784866,0.5328212644670868
168,39271.578125,17159.0,"[1,2]",2,0.23273515755618004,0.15749417208473654,0.17753905200477565
168,23802.6640625,12841.0,"[5,11]",2,0.4978353739106191,0.46688222800833556,0.7314544051611851
168,32874.8046875,18786.0,"[8,10]",2,0.5203016324473762,0.15519844093709237,0.4026385221369687
168,13716.6484375,8463.0,[9],1,0.5017489082094871,0.21338995987828402,0.38799495515049715
