time_in_hour,cumulative_size,size,pcore_ids,pcore_power,SCA-1,CD11b,Ly6C
-1,0,0,[],0,0.0,0.0,0.0
0,14622,14622,"[0,7,9]",3,161.00936944330644,393.8539187525648,527.7786212556425
0,37588,37588,"[1,2,4,12,15]",5,158.8756251995339,141.4114078961374,237.32986591465317
0,2231,2231,[8],1,210.67861945316,359.2590766472432,543.6795159121473
0,8493,8493,[10],1,155.62792888261168,461.4574355351486,563.4508418697765
0,6202,6202,[13],1,199.93227990970746,525.9690422444396,632.4730732021918
0,6008,6008,"[4,12]",2,154.911118508656,159.84687083888133,492.3368841544611
24,8334.5,5849.0,"[0,9]",2,154.60615513828344,383.2276681264616,541.6770652108696
24,50643.0,41246.0,"[1,2,4,12,15]",5,181.1567294591573,137.6912702644001,244.78871216160127
24,16488.75,12111.0,"[3,7,10]",3,198.52713213554813,440.4989310893799,558.7734819194902
24,5013.0,4233.0,[6],1,280.5951027328922,356.22641133054077,771.0596449232002
24,3399.0,2485.0,[9],1,182.40614886731527,399.82774345395677,574.1059870550147
24,6186.5,5172.0,[11],1,356.6205447344957,346.03867291683554,618.6805544330385
24,7163.5,5613.0,[13],1,230.27584281426797,533.3243526209253,650.2305437286225
24,8422.0,6920.0,"[4,12]",2,182.36066255046413,157.11636190928513,509.2174067917364
48,10319.625,8236.0,"[0,9]",2,157.12705161282807,390.3154184381693,535.9326404786993
48,45118.6875,33534.0,"[1,2,12,15]",4,178.3309216386247,133.88068414002495,232.63495862994662
48,5792.25,4539.0,[6],1,265.0620764815029,367.47080150200776,767.6787949415162
48,12457.0625,10557.0,[10],1,163.20928389016598,491.68970413370005,552.7405036299687
48,6823.625,5277.0,[11],1,349.3329791716204,338.3678121965943,605.0660481049275
48,8679.875,6889.0,[13],1,215.17628422068393,548.9399616929948,646.709154797736
48,4081.4375,3052.0,[12],1,200.10631977091484,153.94318790867186,707.8843085310008
72,16229.15625,12630.0,"[0,7,9]",3,190.37544985587436,410.15457904658507,482.8670689133944
72,47488.3125,37229.0,"[1,2,15]",3,174.32295413477013,139.57951890794195,180.8742437283912
72,4562.0625,3590.0,[5],1,197.75897688819617,328.3247400435659,440.38547531955044
72,7148.0625,5700.0,[6],1,295.90150521557075,367.93280521819696,733.0856263497977
72,12888.265625,9774.0,[10],1,190.97558462215738,493.29758780092055,521.1126885041958
72,5272.90625,3567.0,[11],1,345.73444435883295,337.8608837631046,590.7658519673092
72,6790.96875,4621.0,[13],1,238.01432048998836,548.9644702753205,619.6589634210872
96,12482.2890625,8425.0,"[0,7,9]",3,183.61185348240494,414.19331515340787,504.72683702470994
96,34131.296875,24544.0,"[1,2]",2,160.73514193580988,137.8721925395635,175.8582206442671
96,8736.78125,6452.0,[15],1,250.19910883227072,147.53250446209762,251.07507591826334
96,5638.015625,3851.0,[6],1,312.4199595103514,366.05125085565817,754.0476563950642
96,13658.06640625,10436.0,[10],1,183.75412309289808,493.0698376789135,542.7389549158898
96,4713.58984375,3893.0,[12],1,256.84083256607437,162.92075025752524,710.4683391357606
96,13506.7421875,11809.0,[13],1,232.54356302378991,552.5950697076634,598.1703101980933
120,23826.82421875,15294.0,"[1,2]",2,166.70084420182633,139.0184924849174,173.4987527597814
120,27523.99609375,22438.0,"[3,9,13]",3,264.5260138773776,521.5087791647119,568.5092316108264
120,6727.50390625,5318.0,[6],1,372.1170865459539,378.34919212816425,766.8847449340695
120,4636.265625,3497.0,[7],1,239.44189807091516,434.88000596519896,479.61613961431806
120,13531.5166015625,10117.0,[10],1,199.13943006175194,500.5807069476777,533.0007259527823
120,14886.5927734375,11524.0,"[12,15]",2,288.80458887378103,146.8098332766003,417.8017216886712
120,4798.3291015625,3854.0,[16],1,462.0249040956425,158.43614649386632,200.6122144569776
144,17786.7060546875,11830.0,"[1,2]",2,180.5306681352796,133.5510514760214,169.44076445512917
144,22322.87109375,16089.0,"[3,13]",2,295.39728358491993,537.6718538236357,559.4564672976744
144,8233.8759765625,6552.0,[6],1,404.7958455795831,402.94697496492034,754.8504552398765
144,12344.879150390625,8962.0,[10],1,208.28900750277688,515.531659653366,523.6858914705668
144,5223.63916015625,4255.0,[11],1,487.35851433345687,475.7634712633084,648.9360742504247
144,15107.648193359375,11386.0,"[12,15]",2,318.536215221852,140.00289943943463,398.90947588745695
144,10529.582275390625,9330.0,[16],1,504.66587816705186,146.9316780715165,196.7369457315534
144,6015.15576171875,5073.0,[17],1,423.82966232187164,173.52594816852198,406.91940211407825
144,6508.413330078125,5704.0,[18],1,564.2349170869267,131.99003595893944,613.9331618580679
168,15713.676513671875,11267.0,"[1,2]",2,198.96053474656273,135.78078447257286,171.76071210406693
168,6519.3624267578125,4808.0,[3],1,346.3018704779533,490.1813225971611,538.0900739696715
168,7921.468994140625,5863.0,[6],1,426.85626865213993,414.66953372887735,723.0120147614796
168,8986.798583984375,7416.0,"[7,9]",2,286.83359052165264,459.8443641439449,479.14014261696394
168,8898.219787597656,5812.0,[10],1,225.72679754367118,519.4923388606544,509.7477775345856
168,5233.9097900390625,3928.0,[11],1,528.4906248080968,508.0401232604867,676.4094366339342
168,5313.462341308594,4037.0,[12],1,380.23857501593943,147.04287425323605,661.4393011895477
168,12367.355346679688,8498.0,[13],1,313.08225238769813,574.7094649447803,552.2945891497536
168,10842.44970703125,8342.0,[15],1,329.71238203905165,135.76598486210756,248.60527469139487
168,9175.395568847656,6543.0,[16],1,499.47287689648266,145.23638662547293,195.57875741783837
168,8156.7889404296875,6653.0,[17],1,450.04748628843396,171.4824806610375,408.710207030292
168,8141.103332519531,6514.0,[18],1,550.7087099616193,133.00352337292574,616.4261143274816
