time_in_hour,cumulative_size,size,pcore_ids,pcore_power,SCA-1,CD11b,Ly6C
-1,0,0,[],0,0.0,0.0,0.0
0,30737,30737,"[0,3,7,8,9]",5,NA,NA,NA
0,36689,36689,"[1,2,10,12]",4,NA,139.22895145684015,NA
0,3401,3401,[3],1,NA,NA,NA
0,5582,5582,[13],1,201.6463633106416,NA,NA
0,3211,3211,[10],1,NA,NA,NA
24,35694.5,20326.0,"[0,3,7,8,9]",5,NA,NA,NA
24,59020.0,40794.0,"[1,2,4,12]",4,NA,139.35386309725558,NA
24,3998.0,2835.0,[6],1,NA,NA,NA
24,5419.0,4041.0,[5],1,NA,NA,NA
24,3998.0,2835.0,[6],1,NA,NA,NA
24,6885.5,5280.0,[10],1,NA,NA,NA
24,8190.0,5399.0,[13],1,NA,NA,NA
24,7166.5,5222.0,[14],1,NA,NA,NA
48,31766.25,20151.0,"[0,8,9]",3,NA,NA,NA
48,70733.75,37781.0,"[1,2,4,10,12]",5,NA,NA,NA
48,9732.25,4884.0,"[3,6]",2,NA,NA,NA
48,7352.5,4643.0,[5],1,NA,NA,NA
48,8075.75,4693.0,[7],1,170.8895768194933,NA,NA
48,4262.0,2263.0,[6],1,NA,NA,NA
48,10845.0,6750.0,[13],1,213.86901798063755,NA,NA
48,8595.25,5012.0,[14],1,357.02431575578817,NA,NA
72,36068.125,20185.0,"[0,8,9]",3,NA,NA,NA
72,79960.875,44594.0,"[1,2,4,10,12]",5,NA,NA,NA
72,8705.25,5029.0,[5],1,287.9201631199536,NA,NA
72,10637.875,6600.0,[7],1,NA,NA,NA
72,9876.5,4454.0,[13],1,231.71465093909856,NA,634.3592618842705
72,7986.625,3689.0,[14],1,NA,NA,NA
96,37131.0625,19097.0,"[0,8,9]",3,NA,NA,NA
96,72965.1875,36263.0,"[1,2,10,12]",4,NA,142.14109382642238,NA
96,7828.5625,3942.0,"[3,6]",2,NA,NA,NA
96,8315.25,5037.0,[4],1,NA,NA,NA
96,8255.625,3903.0,[5],1,NA,NA,NA
96,8148.9375,2830.0,[7],1,NA,NA,455.3464485400684
96,2802.5,1132.0,[6],1,NA,NA,NA
96,16414.25,11476.0,[13],1,NA,NA,610.8500007615354
96,6319.3125,2326.0,[14],1,NA,NA,NA
120,37714.53125,19149.0,"[0,8,9]",3,NA,NA,NA
120,64203.59375,27721.0,"[1,2,10,12]",4,NA,143.0758505048638,NA
120,29390.15625,18670.0,"[3,13]",2,NA,NA,NA
120,10500.625,6343.0,[4],1,NA,NA,NA
120,9312.8125,5185.0,[5],1,NA,NA,NA
120,7651.46875,3577.0,[7],1,187.28766127418513,NA,NA
120,5042.1875,2952.0,[11],1,NA,NA,NA
120,6202.65625,3043.0,[14],1,NA,NA,NA
144,26493.0625,11770.0,"[0,9]",2,NA,NA,NA
144,45112.921875,19728.0,"[1,2,10]",3,NA,NA,NA
144,10038.875,3322.0,[12],1,NA,NA,NA
144,37469.28125,18640.0,"[3,8,13]",3,NA,NA,NA
144,18188.3125,12938.0,[4],1,NA,NA,NA
144,11182.40625,6526.0,[5],1,NA,NA,NA
144,4642.734375,817.0,[7],1,NA,NA,NA
144,9864.09375,7343.0,[11],1,NA,NA,NA
144,8354.328125,5253.0,[14],1,NA,NA,NA
168,42772.4609375,20216.0,"[1,2,10]",3,NA,NA,NA
168,8351.4375,3332.0,[12],1,NA,NA,NA
168,38930.640625,20196.0,"[3,8,13]",3,NA,NA,NA
168,19582.15625,10488.0,[4],1,NA,NA,NA
168,11142.203125,5551.0,[5],1,NA,NA,NA
168,16826.40625,6191.0,[9],1,NA,NA,NA
168,13218.046875,8286.0,[11],1,NA,NA,NA
168,10520.1640625,6343.0,[14],1,NA,NA,NA
168,6077.0625,4240.0,[16],1,NA,NA,NA
