time_in_hour,cumulative_size,size,pcore_ids,pcore_power,SCA-1,CD11b,Ly6C
-1,0,0,[],0,0.0,0.0,0.0
0,5702,5702,[0],1,83.07821816906605,405.8553139249391,530.8909154682592
0,18036,18036,"[1,4]",2,112.07978487469924,130.47582612552665,160.72943002883204
0,8634,8634,[5],1,190.3457261987507,105.62277044243707,199.19515867500544
0,4957,4957,[6],1,153.60722211014837,353.10389348396234,779.149082106114
0,3482,3482,[8],1,159.34951177484297,357.93509477311864,409.54566341183266
0,6104,6104,[9],1,192.71739842726072,359.9177588466578,524.6757863695942
0,4639,4639,[10],1,108.23970683337119,514.8557878853225,601.2345333045914
0,13244,13244,"[11,12]",2,196.87526427061377,461.0538356991845,555.8084415584417
0,4239,4239,[14],1,188.79948100967277,149.5885822127858,709.8709601321083
0,3214,3214,[15],1,234.04044803982507,552.3550093341628,680.4968886123212
0,4337,4337,[16],1,358.283606179381,358.3995849665674,639.2997463684587
0,5815,5815,[17],1,203.35030094583016,182.35528804815146,284.6161650902842
24,5438.0,2587.0,[0],1,86.01857300478574,397.4191798455308,534.990989334314
24,25754.0,16736.0,"[1,4]",2,122.06331055370487,126.92001242525428,155.63295022132542
24,2994.5,2337.0,[2],1,179.62648188345338,158.2187343463012,465.80130238771096
24,4398.5,3681.0,[3],1,402.4774354893678,118.15118790496798,595.7595771285667
24,14149.0,9832.0,[5],1,197.58219662167033,103.95939642377554,201.00498268428794
24,6404.5,3926.0,[6],1,177.06027012257132,361.1812007182434,788.1427121555165
24,6343.0,5042.0,[7],1,361.1827999369341,134.18248462872486,208.5356298281571
24,4106.0,2365.0,[8],1,171.3951534340012,365.39576229907476,384.1936190940082
24,8597.0,5545.0,[9],1,196.87594509712724,351.05746190531676,530.888507618937
24,5190.5,2871.0,[10],1,116.87024371448183,519.0998940371837,603.6482997784411
24,16484.0,9862.0,"[11,12]",2,203.84087600097203,463.0957595243886,561.7280696432895
24,3776.0,2660.0,[13],1,391.6411546610123,328.6085805084741,443.95140360169535
24,7088.5,4969.0,[14],1,222.78147704027577,147.73675671862927,718.8521548987801
24,5677.0,4070.0,[15],1,259.93870001761377,548.0062533028009,704.5155011449682
24,8331.5,6163.0,[16],1,363.72105863289227,356.36037928344234,662.0502310508325
24,10261.5,7354.0,[17],1,218.0483360132534,168.14910100862534,293.69531744871523
48,6834.0,4115.0,[0],1,89.68444541996551,397.5394717588523,528.2467808018716
48,29897.0,17020.0,"[1,4]",2,125.74981603505834,125.88587483694012,152.5090979027999
48,3734.25,2237.0,[2],1,180.5365869987295,159.1505657093124,473.41929436968707
48,3738.25,1539.0,[3],1,399.8176954457272,122.01404400454788,592.4724804387082
48,15041.5,7967.0,[5],1,199.77816374696857,104.36357743576077,198.82749393345088
48,7068.25,3524.0,[14],1,218.27938315707632,150.5416475082237,717.4182789233543
48,9140.25,5938.0,[6],1,179.8562676075611,366.5221957823897,784.6845545800135
48,6135.5,2964.0,[7],1,364.7734088501295,130.55117757313985,205.06637600847515
48,4628.0,2575.0,[8],1,169.93415082109172,377.1323465859984,361.7974286948999
48,9770.5,5472.0,[9],1,196.45936748375274,347.58379816795633,524.9502328437644
48,8828.25,6233.0,[10],1,120.93070540594621,538.53119247869,591.4210913827781
48,10025.75,6137.0,[11],1,233.82547440341057,508.65159713737216,552.8662693564063
48,10694.25,6341.0,[12],1,173.23933422166337,440.3463075952026,555.4116230684684
48,4789.0,2901.0,[13],1,384.7883691793631,326.6274796408433,455.0330444769275
48,7228.5,4390.0,[15],1,254.07055405685733,544.4178944455962,705.1129902469353
48,9421.75,5256.0,[16],1,357.4369941889698,353.8872555523126,652.2709422347252
48,10521.75,5391.0,[17],1,220.15829115878972,164.3264666048911,295.45230118563813
72,6629.0,3212.0,[0],1,92.86027304269788,406.6046726504741,504.5511012219058
72,15853.25,9206.0,[1],1,98.52709223661401,134.53448031160838,219.73421065081277
72,3379.125,1512.0,[2],1,190.79980024414755,156.6884918433022,481.1263270817148
72,3502.125,1633.0,[3],1,396.313452546664,125.54791733590365,589.3262305029101
72,37003.0,21181.0,"[4,5]",2,172.16617909358996,118.28053468637692,137.71574602059343
72,6235.125,1665.0,[6],1,196.05086104929825,365.70577975581773,774.2249754415487
72,6825.75,3758.0,[7],1,367.2691828736724,137.60969490532113,196.00884518184787
72,7558.0,5244.0,[8],1,177.27422929346648,389.2106708123837,365.15880523948044
72,9527.25,4642.0,[9],1,204.17750400167995,354.1283948673547,507.6779894513095
72,7003.125,2589.0,[10],1,125.0887639446728,544.0055689424343,573.7832217759941
72,13694.875,8682.0,[11],1,236.79127228251375,518.398296808116,531.2155459615337
72,10811.125,5464.0,[12],1,178.58218964261542,446.30487113968195,532.8511487009894
72,5112.5,2718.0,[13],1,389.0065036674766,327.11892420537816,457.08315403423154
72,6457.125,2923.0,[14],1,241.85541165766384,158.38116808951352,708.4273380180803
72,6735.25,3121.0,[15],1,271.1914925206913,539.4569429494065,696.5708214245913
72,11078.875,6368.0,[16],1,350.1405151696287,357.25898387697174,665.9777166002896
72,11342.875,6082.0,[17],1,227.5492985684844,170.13076490748676,293.16470691954225
96,6209.5,2895.0,[0],1,92.41426443353649,409.5415391738463,503.82617360496175
96,16116.625,8190.0,[1],1,100.78495420102585,135.2203314899988,220.3235905470276
96,3114.5625,1425.0,[2],1,202.01077599181377,153.5862581020605,485.7690285553758
96,5061.0625,3310.0,[3],1,457.1527470763295,129.16304629709649,607.4615878582819
96,35201.5,16700.0,"[4,5]",2,175.63025900885165,118.26528166413377,140.92964433333802
96,7048.5625,3931.0,[6],1,216.45105828316034,358.7013132110258,787.2817684456933
96,8307.875,4895.0,[7],1,402.72185276017893,147.841016806343,199.74418097287324
96,5216.0,1437.0,[8],1,177.18986052530917,384.4777847009197,366.7063123082812
96,7973.625,3210.0,[9],1,204.743145369892,355.1191427989142,503.3293592939221
96,10738.5625,7237.0,[10],1,131.85667308823292,550.701688424311,576.4804006588395
96,16359.4375,9512.0,[11],1,239.98242222570303,528.2312999759351,541.1952733704948
96,11863.5625,6458.0,[12],1,182.94118545757354,450.56743073591906,535.9117202358057
96,4918.25,2362.0,[13],1,424.7571544756735,333.97646520611903,430.4705560921081
96,7373.5625,4145.0,[14],1,246.4042737143674,158.39663663256414,720.8431389169075
96,7708.625,4341.0,[15],1,277.81001799931647,552.4731956088135,683.7243104314958
96,9252.4375,3713.0,[16],1,362.4783739419938,368.5977681556874,669.4297516195072
96,11910.4375,6239.0,[17],1,232.55674906988037,167.18134829220185,295.52678585484387
120,5030.75,1926.0,[0],1,93.65108333748188,413.1614756746006,497.2829722208432
120,12611.3125,4553.0,[1],1,101.34890054069169,136.7883547013839,221.8358591740538
120,3291.28125,1734.0,[2],1,230.40862695948496,147.02450603393405,489.88490424511764
120,5785.53125,3255.0,[3],1,488.03509833258664,129.59140528365455,611.456299929242
120,29716.75,12116.0,"[4,5]",2,184.83475754414806,118.01723459833262,142.14833174892965
120,4429.28125,905.0,[6],1,233.38378122861263,355.55753261321996,786.8943465714659
120,10026.9375,5873.0,[7],1,419.5542663200992,147.50140247209063,198.07332435751175
120,4931.0,2323.0,[8],1,181.66358877509836,374.78930490772655,365.9237603934296
120,7803.8125,3817.0,[9],1,217.18122151832915,358.80173152545547,495.5350709989519
120,10054.28125,4685.0,[10],1,138.20725002098465,551.591119454711,566.2594137447635
120,25375.71875,17196.0,[11],1,254.86276004497233,533.2079300709477,540.620435628053
120,12350.78125,6419.0,[12],1,192.09481940666845,456.98489215004173,529.1784350686295
120,4971.125,2512.0,[13],1,443.6639467927245,335.36349920792463,415.12090447333577
120,7763.78125,4077.0,[14],1,290.146074923218,156.03128308129516,723.5129105099387
120,8878.3125,5024.0,[15],1,311.9996761771984,562.2729931786037,670.3663738182223
120,11741.21875,7115.0,[16],1,386.5150923961707,386.01732944035155,701.882457368407
120,12425.21875,6470.0,[17],1,246.17589227553697,166.47541919533762,297.23111766141005
144,3196.375,681.0,[0],1,94.31640334754924,422.3506462398806,493.4856380274539
144,9078.65625,2773.0,[1],1,104.21876344586357,135.38659355562672,222.2945352595536
144,3644.640625,1999.0,[2],1,270.72979160324996,137.10446417470814,488.3711957197432
144,10029.765625,7137.0,[3],1,532.7233313340816,128.3697556491999,603.08007103855
144,25554.375,10696.0,"[4,5]",2,199.27911133123123,116.0361514662358,144.6529691589015
144,3622.640625,1408.0,[6],1,256.1251029765041,353.769056584242,779.3790441192341
144,16909.46875,11896.0,[7],1,462.9693764403464,138.4941009382677,201.88460514911137
144,3877.5,1412.0,[8],1,192.333353481626,387.7475257898124,357.52934397163085
144,5014.90625,1113.0,[9],1,227.3274332147284,360.4012973821789,495.2829159318796
144,8641.140625,3614.0,[10],1,145.69202561149595,553.441765681252,557.703191310463
144,29182.859375,16495.0,[11],1,270.2740248315689,537.7646868907917,531.4787993594257
144,10261.390625,4086.0,[12],1,198.04289897355028,465.8661182923257,521.3559002267292
144,6405.5625,3920.0,[13],1,481.43179755876105,322.9816175394434,402.5188971499391
144,7173.890625,3292.0,[14],1,315.0620000043523,157.0785552644247,719.7196408852411
144,9686.15625,5247.0,[15],1,357.23286133237616,569.569241862585,665.1686088715519
144,14412.609375,8542.0,[16],1,419.9793366702509,404.0081710134449,716.102439595535
144,11901.609375,5689.0,[17],1,263.9825049921009,160.12412186902313,297.46362164780726
168,7023.328125,2484.0,[1],1,109.59308042617562,137.27867397267534,222.9709061097717
168,5192.3203125,3370.0,[2],1,325.0539829706379,131.9574311219845,483.95430149996264
168,13407.8828125,8393.0,[3],1,535.7910103023638,130.66270832981263,604.1170702402802
168,22506.1875,9729.0,"[4,5]",2,214.67361232605555,116.31248802412657,147.33970866345066
168,18535.734375,10081.0,[7],1,465.35540092743037,136.60024387015898,205.5187905624858
168,4248.75,2310.0,[8],1,213.05732016769667,401.04725286849066,353.96411076787336
168,4981.453125,2474.0,[9],1,257.2439909915824,375.1119025886644,494.54318519006404
168,5964.5703125,1644.0,[10],1,152.35223880597428,558.2249664359191,549.6080488300038
168,28827.4296875,14236.0,[11],1,286.9527918153033,540.6771531887912,520.8047229323386
168,9479.6953125,4349.0,[12],1,207.8665725510369,471.2249668493759,507.6675056308653
168,7934.78125,4732.0,[13],1,497.687032566273,309.98617242913775,400.6085204381032
168,7014.9453125,3428.0,[14],1,340.60310631430394,161.98917267040375,698.7274702560293
168,10152.078125,5309.0,[15],1,391.6705138880072,575.3039194561478,654.9360098686708
168,16554.3046875,9348.0,[16],1,444.5928839317159,414.30021411537865,708.085877870701
168,12585.8046875,6635.0,[17],1,284.3936019188242,158.76548417953668,294.9563421836242
