time_in_hour,cumulative_size,size,pcore_ids,pcore_power,SCA-1,CD11b,Ly6C
-1,0,0,[],0,0.0,0.0,0.0
0,6824,6824,[0],1,88.21189917937033,417.8436400937863,540.6172332942572
0,29525,29525,"[1,3,15,18]",4,142.5457070279454,131.23512277730725,NA
0,9204,9204,[6],1,193.3834202520652,419.3494132985669,556.2580399826169
24,6441.0,3029.0,[0],1,92.64570718832974,413.6943797546968,545.2440614811371
24,28027.0,19258.0,"[1,15]",2,168.63107003960727,119.74626253255765,152.0297213401361
24,10864.5,6397.0,[3],1,89.9988494638565,129.01458879838063,211.00036817156865
24,11821.0,7219.0,[6],1,199.52064123170686,411.4870992301855,563.8333051349284
24,8058.5,5898.0,[8],1,360.57758888129825,364.8740460383448,646.477694359993
24,9028.5,6353.0,[13],1,249.1917262003642,165.99174835244077,291.404884532313
24,6645.5,4459.0,[17],1,229.96621774132916,520.3161537882772,567.2675494695651
48,8268.5,5048.0,[0],1,97.6604583660944,419.17491080607147,539.1222712704844
48,31807.5,17794.0,"[1,15]",2,170.92291126306966,118.31691424978364,147.2000157195632
48,12003.25,6571.0,[3],1,92.57578155916798,129.32834857226175,210.9383500302013
48,12938.5,7028.0,[6],1,201.2001197975047,412.50929396761694,559.0654828612255
48,8609.0,5774.0,[7],1,125.34745615054517,532.929579509814,604.8980137065857
48,9492.25,5463.0,[8],1,356.2353762279675,358.2244199215143,637.8944138639434
48,7866.75,5124.0,[9],1,165.78402771157317,360.6152794991581,782.2373915530534
48,6911.75,4132.0,[12],1,265.4408434911546,517.2309111295982,734.247911165765
48,8603.25,4089.0,[13],1,253.91657222560968,165.53712259901909,294.15854473599944
48,7240.5,4381.0,[16],1,161.7097921414294,304.1334162005397,485.23133761480454
48,10179.75,6857.0,[17],1,221.69485989341584,535.3613300916037,559.6143569341099
72,7792.25,3658.0,[0],1,101.34091565338007,429.40445635086127,518.5747698033304
72,37405.75,21502.0,"[1,15]",2,172.2503157936979,121.49299572926682,141.5489664022244
72,14261.625,8260.0,[3],1,90.72585522337751,134.0944843241919,206.0833793484271
72,6432.375,3544.0,[4],1,365.25091820672316,129.62824773120332,183.00825900231277
72,9621.625,7028.0,[5],1,186.41005287568478,430.60451067257435,403.8698374754779
72,12107.25,5638.0,[6],1,209.4201305003211,418.4631315947042,542.7661421875289
72,10511.125,5765.0,[8],1,351.77172995278056,359.3058664034523,647.9399326903653
72,6617.875,3162.0,[12],1,284.36475076969225,505.6239918402809,726.9862304742812
72,9292.625,4991.0,[13],1,260.3413863144135,173.0212534133255,293.2855624756186
72,7297.25,3677.0,[16],1,167.64683613690408,313.058480934598,468.5019356606933
72,13707.875,8618.0,[17],1,227.57423196520216,539.8773515223933,543.8296690770803
96,7828.125,3932.0,[0],1,103.41964071856985,435.7904910179654,518.348151696606
96,35803.875,17101.0,"[1,15]",2,176.04499862096222,120.95666495595822,145.17399652970474
96,13901.8125,6771.0,[3],1,92.2258923072151,134.33375144428163,204.74804544371568
96,7653.1875,4437.0,[4],1,402.45968591517925,141.23680492605146,187.44070689500373
96,6477.8125,1667.0,[5],1,187.34021901683693,432.55258816151337,406.5537652564052
96,12462.625,6409.0,[6],1,212.60745127932591,426.78904925727704,541.9322724947574
96,9607.25,6553.0,[7],1,131.43891982617814,544.3304470582117,588.2187670769474
96,8558.5625,3303.0,[8],1,363.3742596960567,368.43166565646834,650.6039784718544
96,6713.9375,3405.0,[12],1,298.3269039218762,511.11991845321666,726.7182633141847
96,9475.3125,4829.0,[13],1,268.48955509382625,171.14821410903355,297.85438474984255
96,6388.625,2740.0,[16],1,167.5293881703843,316.26711538085215,464.3074018274659
96,18147.9375,11294.0,[17],1,233.44391408114527,548.331821453543,555.1751851966662
96,6332.125,3667.0,[18],1,268.75042935822995,181.47063584499662,752.1066585072168
120,6510.0625,2596.0,[0],1,106.21694300170604,442.2598429354567,513.0877103714447
120,30026.9375,12125.0,"[1,15]",2,184.89872843342968,120.45992556683505,145.75904760517102
120,10517.90625,3567.0,[3],1,91.91073853221287,135.0452531843013,203.65892391843693
120,9228.59375,5402.0,[4],1,420.4302219663734,141.93201158085475,186.73293940368706
120,13780.3125,7549.0,[6],1,225.4984760868088,436.55787468535004,534.9031340000439
120,9096.625,4293.0,[7],1,137.9070019100537,544.9901852335358,573.8466051969793
120,9349.28125,5070.0,[8],1,381.9587368012839,379.35982712574724,669.6836086998677
120,7935.96875,4579.0,[12],1,349.3258581379843,516.3234285354243,729.4618568148938
120,10670.65625,5933.0,[13],1,281.26350886338025,168.74570448748213,301.9502842198672
120,6372.3125,3178.0,[16],1,176.45230342203354,317.97577410084637,454.7052482909466
120,27059.96875,17986.0,[17],1,252.40490276803988,549.5908347085594,553.3529406330119
120,7232.0625,4066.0,[18],1,315.1525109538206,181.79853603311645,754.6130426140533
144,25755.46875,10742.0,"[1,15]",2,199.18924136257624,118.40923408256722,147.6988806988802
144,7394.953125,2136.0,[3],1,93.57006784611016,133.6026935600078,202.21963670324175
144,16070.296875,11456.0,[4],1,468.26769398900854,139.47847105344724,195.32092301499574
144,11153.15625,4263.0,[6],1,234.99426311497996,445.1865335204984,531.566135987289
144,8226.3125,3678.0,[7],1,147.64150287568495,546.8390207489676,561.4176081324404
144,13813.640625,9139.0,[8],1,426.2082667381503,418.2058167142305,698.5487363600054
144,10245.609375,7462.0,[10],1,536.9241504363971,133.57209414398514,594.2591780930552
144,11563.328125,6228.0,[13],1,303.6936314020709,160.61446004542947,307.8736333749063
144,31024.984375,17495.0,[17],1,274.4437607996341,552.2383250595868,546.6688213481123
144,6761.03125,3145.0,[18],1,337.06963388535775,183.3723498171967,748.8161430624942
168,22951.734375,10074.0,"[1,15]",2,215.75572720198952,118.84512165815357,151.21554198994957
168,17278.1484375,9243.0,[4],1,470.8252425955269,137.17182875950112,197.9937619907368
168,7717.2265625,4787.0,[5],1,234.16483718952475,466.49454193894485,407.61471849201035
168,11235.578125,5659.0,[6],1,254.8406352866228,448.70467974917807,524.4881055853513
168,16692.8203125,9786.0,[8],1,453.6088433416109,432.20128741726023,695.7175830177736
168,13723.8046875,8601.0,[10],1,537.2570305815614,133.14614945404486,596.3569060830099
168,13166.6640625,7385.0,[13],1,325.1961570799291,157.17169069851562,310.08058704125625
168,6801.265625,4310.0,[14],1,499.8039542272698,313.3535130180266,395.68102444168306
168,29146.4921875,13634.0,[17],1,294.87492491458204,559.1835407937988,538.6742500370516
