time_in_hour,cumulative_size,size,pcore_ids,pcore_power,SCA-1,CD11b,Ly6C
-1,0,0,[],0,0.0,0.0,0.0
0,39017,39017,"[0,3,8,9]",4,0.20064333812429408,0.48076383806246753,0.5733990488869753
0,34172,34172,"[1,2]",2,0.18061419626029646,0.16026450964325845,0.1737115553519753
0,2334,2334,[5],1,0.23086036413352198,0.2239940172232622,0.34351782405154296
24,22952.75,19263.0,"[0,8,9]",3,0.2172068498315866,0.443605767721423,0.5534996740544177
24,45535.5,40887.0,"[1,2,4]",3,0.21111420475863082,0.15803857487055414,0.23704353481860704
24,3479.75,3188.0,[5],1,0.270460352069074,0.21561777595584525,0.3546221368909633
24,9634.375,8447.0,[3],1,0.24659962753337586,0.5751719618459464,0.6542247557732715
24,6998.25,6483.0,[11],1,0.3803694904464405,0.4008868652198594,0.6791928056783522
48,26360.09375,23491.0,"[0,8,9]",3,0.20804730126845047,0.45589866703364057,0.5418635370315187
48,41129.9375,35438.0,"[1,2,4]",3,0.20111082894644722,0.15860430269966017,0.22015322616592925
48,2598.96875,2164.0,[5],1,0.26328818163751555,0.2366152138310603,0.3733993853513345
48,13521.296875,12317.0,[3],1,0.21708753462387498,0.5990204249441535,0.6328958268415891
48,6550.296875,6017.0,[6],1,0.22939930487647647,0.4351734850106258,0.8068222985927708
48,6793.78125,5919.0,[11],1,0.3724845130334088,0.3945762247510537,0.6536677411848882
72,46270.2421875,41129.0,"[1,2,4]",3,0.20505355077294066,0.1687310690781339,0.1999974183257887
72,5536.99609375,4935.0,"[5,7]",2,0.32479593760430153,0.23556711915429016,0.3192738604147745
72,25808.54296875,22692.0,"[3,9]",2,0.2386534382533147,0.5415861378867856,0.5388225744097972
72,10545.009765625,8877.0,"[6,11]",2,0.3414176643661686,0.4154841469805937,0.701132176017246
72,7577.8046875,6741.0,[8],1,0.2376126514371043,0.4108936688670689,0.46509645623875073
96,40653.146728515625,35962.0,"[0,3,8,9]",4,0.23163980382997618,0.5382235721008035,0.56139682979778
96,42065.7802734375,36282.0,"[1,2,4]",3,0.2117833501497098,0.167505446813314,0.23879525212302596
96,2450.73388671875,2147.0,[5],1,0.3059540361667231,0.2651288528901683,0.3790318644000751
96,4532.2255859375,3585.0,[8],1,0.23014978860457724,0.413314102837016,0.4818915562771388
120,47349.64334106445,42268.0,"[0,3,8,9]",4,0.2679779489248208,0.5480317944110255,0.5465291171728357
120,27599.555541992188,22908.0,"[1,2]",2,0.2209503065879055,0.16373043041274254,0.1809870869845935
120,9679.39077758789,8608.0,"[6,11]",2,0.4233194429558,0.44539424290340784,0.7338829778002901
120,5478.673828125,4910.0,[7],1,0.4870401434829161,0.17570816878509923,0.18750422113851256
120,5131.5281982421875,4565.0,[8],1,0.24598556256873969,0.4020240960768253,0.4629565167298539
144,37924.70541763306,32006.0,"[0,3,8,9]",4,0.2942380837921739,0.573581104116114,0.5410036802425078
144,23183.944442749023,19734.0,"[1,2]",2,0.25156197561672367,0.15714788008086347,0.1828734214738073
144,12768.923847198486,11559.0,"[6,11]",2,0.48502147406117113,0.4877790448449756,0.7429718853449842
144,10776.834228515625,10092.0,[7],1,0.5547020137640319,0.16141088859153005,0.17395532540557193
144,2084.4410247802734,1443.0,[8],1,0.26007180151138365,0.40669685437214437,0.4531487056622839
144,6028.331642150879,5724.0,[10],1,0.6357951433583819,0.15193355710401016,0.6154098319850483
168,35233.58817720413,30493.0,"[0,3,8,9]",4,0.32525121034082455,0.567517422542672,0.5215319141318081
168,23023.993055343628,20126.0,"[1,2]",2,0.2828217293512332,0.16271381889196504,0.19480208305576796
168,6094.724089622498,5446.0,[5],1,0.5100040145201054,0.2496771022754655,0.37263194767755764
168,8812.209176540375,7808.0,[6],1,0.4770012455521638,0.4409108439046512,0.7247951552888349
168,9243.104278564453,7896.0,[7],1,0.5358545445694333,0.16022370875813738,0.17603717330587096
168,2793.555128097534,2533.0,[8],1,0.2894214325031867,0.42231448891966494,0.4325447053028214
168,6939.54145526886,6186.0,[10],1,0.6119402185008765,0.151898654802983,0.6304802024885029
