time_in_hour,cumulative_size,size,pcore_ids,pcore_power,SCA-1,CD11b,Ly6C
-1,0,0,[],0,0.0,0.0,0.0
0,43192,43192,"[0,5,7,8,11]",5,NA,NA,NA
0,35767,35767,"[1,2]",2,163.70531495512972,145.25020270081356,NA
0,1386,1386,[4],1,NA,224.70202020202038,NA
0,1218,1218,[5],1,NA,NA,NA
24,36136.75,30890.0,"[0,7,8,11]",4,NA,NA,NA
24,44650.875,40180.0,"[1,2]",2,NA,140.3637330735403,NA
24,1745.25,1572.0,[4],1,NA,NA,NA
48,42273.09375,37756.0,"[0,7,8,11]",4,NA,NA,NA
48,39894.359375,34313.0,"[1,2]",2,NA,139.21302471096496,NA
48,2005.15625,1787.0,[4],1,NA,NA,NA
72,41415.78125,35881.0,"[0,4,7,8,11]",5,218.89018890934602,NA,NA
72,46332.794921875,41346.0,"[1,2]",2,NA,148.96653258939975,NA
72,4404.15625,3940.0,"[4,13]",2,NA,NA,NA
96,45801.17626953125,40211.0,"[0,4,5,7,8,11]",6,NA,NA,NA
96,40080.599365234375,34289.0,"[1,2]",2,NA,146.7189255829023,NA
96,8188.212646484375,6609.0,"[5,7]",2,NA,NA,NA
120,29343.074920654297,24333.0,"[1,2]",2,NA,149.26550204066228,NA
120,2343.4410095214844,2154.0,[12],1,NA,NA,452.58558349001
120,38850.622467041016,34877.0,"[5,8,11]",3,NA,NA,NA
144,24482.884365081787,20815.0,"[1,2]",2,NA,143.49492277109388,NA
144,4795.930126190186,4503.0,[12],1,NA,NA,NA
144,34989.156074523926,29946.0,"[5,7,8]",3,NA,NA,NA
144,2681.297016143799,2155.0,[7],1,NA,NA,NA
144,11145.383811950684,10488.0,[13],1,NA,150.62696487083056,NA
168,23741.360545635223,20681.0,"[1,2]",2,NA,148.57923552305212,NA
168,16552.66424226761,14560.0,"[12,13]",2,NA,NA,NA
168,14867.333366394043,13127.0,"[3,9,11]",3,NA,NA,NA
168,30352.64450931549,25979.0,"[5,7,8]",3,NA,NA,NA
168,4939.162127017975,4604.0,[7],1,NA,NA,NA
168,7097.9306473731995,6404.0,[10],1,NA,NA,NA
