time_in_hour,cumulative_size,size,pcore_ids,pcore_power,SCA-1,CD11b,Ly6C
-1,0,0,[],0,0.0,0.0,0.0
0,5326,5326,[0],1,80.43822756290122,405.1434472399547,532.8143071723645
0,28974,28974,"[1,4,5,7]",4,144.80461793332185,124.67967833229777,175.88196313936677
0,3064,3064,[14],1,273.64066579634306,140.79079634464728,692.5009791122724
0,4958,4958,[6],1,156.02662363856487,351.64320290439707,779.4989915288442
0,3627,3627,[8],1,152.41273779983567,340.41714915908454,418.05321202095485
0,5932,5932,[9],1,193.67430883344548,359.87963587322986,525.4873567093734
0,4549,4549,[10],1,108.7489558144665,514.3273246867459,605.7570894702131
0,12448,12448,"[11,12]",2,194.04667416452517,454.20830655526976,562.2889620822629
0,3092,3092,[16],1,235.50388098318194,555.1089909443723,681.4699223803364
0,4293,4293,[17],1,361.06102958303626,360.17237363149377,635.229210342419
0,5185,5185,[18],1,198.58032786885275,181.81253616200618,311.05110896817786
24,3307.75,2642.0,[0],1,87.89229839014396,387.55415312523655,539.3693976267862
24,26802.375,23691.0,"[1,4,7,15]",4,138.50624245053177,126.07538977422709,211.84514898399888
24,9169.75,8371.0,[5],1,229.2785381280839,108.58108181793439,208.52530058071423
24,4738.75,4119.0,[6],1,195.5014508045382,363.339883935637,792.1098390925864
24,2843.375,2390.0,[8],1,168.76955202883946,337.63841385677244,376.07170176286945
24,6056.5,5315.0,[9],1,199.85428878064948,348.09192602988657,534.2294848509868
24,3713.625,3145.0,[10],1,127.72974519505976,525.3563229997653,608.6927530377977
24,5778.125,5102.0,[11],1,240.31580313683077,471.4315197404004,593.4957923201723
24,5281.875,4402.0,[12],1,166.6438291326491,437.54384096556674,556.0307182581954
24,8695.0,8084.0,"[14,20]",2,362.42188039102604,139.0928407130537,505.1337262794711
24,3906.5,3520.0,[16],1,275.7502239856633,551.9379559708202,719.5963458338672
24,6092.625,5556.0,[17],1,370.2728093391527,357.1239818633174,662.5907346997388
24,6514.125,5866.0,[18],1,227.97334638189992,164.37545334177688,317.5005085103526
48,4669.46875,4256.0,[0],1,91.12229710285742,388.2320727063447,523.3028683669856
48,26421.296875,23071.0,"[1,4,7,15]",4,138.52348159007923,128.71529359305904,213.7341390675021
48,7842.21875,6696.0,[5],1,227.1408661451828,108.33447764703067,204.25018230650574
48,6596.34375,6004.0,[6],1,190.66669509150572,374.74291866232693,783.3191398644126
48,6666.0625,5909.0,[9],1,193.75428710726982,343.5373346334522,511.8875062114993
48,7268.203125,6804.0,[10],1,135.93931400686054,555.4597164447035,587.3691206346136
48,5903.265625,5181.0,[11],1,239.25907005920962,489.5102075387302,583.0069029589032
48,7867.234375,7207.0,[12],1,166.88558161520606,453.0324526368243,529.1901061165468
48,3216.09375,2885.0,[13],1,379.01008599329026,329.58838847592654,465.60133119564665
48,4211.3125,3723.0,[16],1,257.1237069797104,544.8223571926812,713.8553338478217
48,5728.578125,4967.0,[17],1,356.076608778895,351.3176862714071,641.3732219764366
48,5428.265625,4614.0,[18],1,228.74301759597444,180.02679838461336,312.56995644902696
72,3838.68359375,3255.0,[0],1,94.69433491095583,404.7144427156525,480.97251407597065
72,28700.662109375,25398.0,"[1,4,7,15]",4,136.24258001452466,132.1207193268286,171.70978926539672
72,9191.27734375,8211.0,[5],1,222.71834135370207,114.42792929097529,200.40183287738478
72,3568.54296875,2744.0,[6],1,247.1591040198248,369.93659603720465,753.0233802967998
72,3137.052734375,3007.0,[8],1,175.78814273200103,364.0908701501901,325.0147829838785
72,6228.2578125,5395.0,[9],1,207.64799922731243,359.9477149885167,480.274637582991
72,4081.525390625,3173.0,[10],1,151.963116481901,563.7731082464296,560.092254973223
72,6103.908203125,5366.0,[11],1,255.40378042884095,511.6224710026648,561.1695756528928
72,7170.404296875,6187.0,[12],1,176.87077960159183,455.846131573277,509.32272059057794
72,2907.01171875,2505.0,[13],1,391.73818555619977,334.82988329671673,473.1020458347615
72,3036.421875,2731.0,[14],1,309.3273094616887,178.47580609887314,713.1052424728922
72,3142.4140625,2616.0,[16],1,296.608440714118,531.2600813218338,701.6546650042651
72,5484.072265625,4768.0,[17],1,351.2970819258125,360.6916094015165,656.3948106109843
72,5581.533203125,4903.0,[18],1,251.40542595647867,181.57038994031996,306.80012667330345
72,4389.44921875,4230.0,[19],1,210.60346631971748,510.40278757923613,439.46846886933196
72,2930.3125,2618.0,[20],1,398.5707415751257,147.7698111069635,193.88803921830007
96,3488.83544921875,3009.0,[0],1,91.2071387034676,411.0722208887593,497.365292118343
96,24496.582763671875,20909.0,"[1,4,7,15]",4,137.464664529952,134.87044488019146,206.91866001160165
96,2939.40380859375,2767.0,[3],1,511.3687573495862,134.39034583470544,617.6116299459511
96,9229.90966796875,8081.0,[5],1,217.82621151672623,115.0776543278777,203.81971990474554
96,4531.06787109375,4085.0,[6],1,257.2785860897197,368.4162050371205,792.919381996713
96,4453.5322265625,3675.0,[9],1,205.49456310683917,357.1910598307132,484.2321045970136
96,8192.190673828125,7682.0,[10],1,148.25401570242144,565.346067539491,581.3281251112916
96,8946.988525390625,8184.0,[11],1,251.56063936164583,526.9754243371192,571.2928917384874
96,7584.300537109375,6688.0,[12],1,179.50902236724485,457.5781399468465,538.8379861836166
96,3214.552734375,2835.0,[14],1,301.93128137054634,164.6393834405423,741.3597603154832
96,3306.8017578125,2914.0,[16],1,305.8826597345352,564.3676369137341,689.2524417002725
96,3876.509033203125,3191.0,[17],1,379.8691839449306,384.7656083527461,650.0680252353851
96,5862.691650390625,5165.0,[18],1,265.8011984049834,169.0302345942933,313.1239021578829
96,2770.68115234375,2222.0,[19],1,210.3544653973888,516.7950806743671,459.5963937751514
96,4463.2890625,4097.0,[20],1,451.48164841081854,163.20866862433294,203.73653944024244
120,2878.1044311523438,2442.0,[0],1,100.47232275915947,421.4000728832576,483.7597943715786
120,10135.318939208984,8128.0,"[1,4]",2,114.82355663150335,134.27458188462356,194.87636571838658
120,2915.4254760742188,2548.0,[3],1,546.5517545193101,142.49427406304284,609.2665587712831
120,13203.418060302734,11235.0,"[5,7]",2,229.42950733275006,118.58824769798744,159.1204461292438
120,4832.383483886719,4266.0,[6],1,356.7699764862724,368.90322543181657,790.8175033623204
120,5111.6915283203125,4555.0,[9],1,230.630912656979,363.7338494896359,477.6140924865464
120,6247.023834228516,5223.0,[10],1,156.92891072832768,561.500474598556,561.5038374596712
120,14298.373565673828,13180.0,[11],1,271.4470811242325,540.5441639105843,564.5079722742091
120,7015.037567138672,6067.0,[12],1,197.50689623314793,464.76034310118104,540.644097370154
120,4151.819091796875,3750.0,[14],1,350.7577572786505,154.64865721068594,741.1699396210755
120,3843.3502197265625,3430.0,[16],1,366.45363656502894,572.1293561639801,689.3685188055492
120,4578.563629150391,4094.0,[17],1,412.24452541352605,417.6773709947378,631.0473230310506
120,6307.836456298828,5575.0,[18],1,297.1755563585047,168.87462531843687,319.1448644534212
120,5642.335144042969,5296.0,[19],1,240.6009408191131,515.1077035497568,471.8564770209749
120,5295.9111328125,4738.0,[20],1,464.8980272071533,164.73160355576306,203.90634518463267
144,5061.146915435791,4324.0,[1],1,191.58110220125639,148.01112668462187,261.76924851085886
144,4713.428184509277,4349.0,[3],1,555.8317133694919,133.16038879355602,593.9182260367194
144,5329.767951965332,4800.0,[4],1,155.6680467217578,135.11214997045155,154.64128040942626
144,7138.342338562012,6142.0,[5],1,300.1186360761635,138.27859413561902,248.99018963402222
144,5992.04793548584,5388.0,[6],1,403.32173469902153,354.8942289200372,742.0479155248222
144,5663.08491897583,5009.0,[7],1,285.44921526336503,131.04047423034072,125.4297823774523
144,34977.3462638855,30827.0,"[10,11,12,19]",4,276.6094777166524,511.95543008245454,539.0467433648666
144,3344.9773864746094,2826.0,[14],1,416.74133576948674,155.8549119192881,707.2841352424048
144,3940.320453643799,3368.0,[17],1,456.91816058562375,424.9576454869301,645.5084859495965
144,5092.4795570373535,4304.0,[18],1,365.23619392238203,166.2911319095392,338.2391980297048
144,8655.988891601562,7994.0,[20],1,495.0286308588171,150.06159410739482,213.9767920955136
168,4359.595381736755,4130.0,[0],1,213.69965492928702,439.27655079278094,458.7187427988111
168,4312.643364429474,3680.0,[1],1,235.25235622907272,155.6447404612962,273.23534048774115
168,3864.0061650276184,3588.0,[2],1,416.6631130681769,133.1509538469744,475.7750134372883
168,5579.17852306366,4990.0,[3],1,533.8547773014167,128.03699294564038,597.6574955350051
168,6699.2209939956665,6033.0,[4],1,185.7126853906482,141.85314258268798,174.2022346468495
168,6100.2927923202515,5208.0,[5],1,329.8610024661388,144.86320951543553,276.41593755822555
168,5485.00599193573,4736.0,[6],1,427.90461841212283,362.1111639412397,705.6944588068669
168,6624.885614871979,5917.0,[7],1,317.50274880814754,138.09274904610368,144.80867963484977
168,26541.933320999146,22653.0,"[10,11,19]",3,308.6714892910932,522.5745102070224,528.6816261920046
168,2941.2349619865417,2458.0,[12],1,285.9605265334257,442.5578049232118,525.477435137351
168,3284.033938407898,3018.0,[13],1,490.9645578043163,254.72858284072132,421.7157609692775
168,3393.122173309326,2975.0,[14],1,450.1705847891715,160.2000655232733,677.2627280713222
168,3603.1773471832275,3269.0,[16],1,500.619724538315,529.7868455524039,702.8814303598896
168,3861.540056705475,3369.0,[17],1,451.11081877803946,404.1883911304467,627.3991077902899
168,4257.559944629669,3621.0,[18],1,385.0178864651417,177.83831198332112,349.94234832763266
168,7060.998611450195,5979.0,[20],1,481.19685021712854,149.90817796504362,226.34795442930502
