time_in_hour,cumulative_size,size,pcore_ids,pcore_power,SCA-1,CD11b,Ly6C
-1,0,0,[],0,0.0,0.0,0.0
0,14504,14504,"[0,7]",2,123.94291230005854,406.8603833425254,530.8050882515136
0,23524,23524,"[1,3,12]",3,121.12778439041391,133.65626594116654,NA
0,9378,9378,[4],1,212.57229686500418,114.91981232672167,185.97184900831706
0,7424,7424,[6],1,223.82960668103487,359.66608297413774,504.1714709051711
0,5623,5623,[14],1,217.23723990752268,205.69535834963565,323.46345367241685
0,10792,10792,[15],1,212.69014084507032,507.6532616753159,589.9567272053379
24,7721.0,4579.0,[0],1,116.20667659630132,402.40729827742496,517.2409661960876
24,27799.0,21918.0,"[1,3,12]",3,133.40344976438467,128.83792582467015,NA
24,12460.5,10116.0,[4],1,216.26658240038608,108.5281088238833,196.0974278720759
24,6948.0,5092.0,[6],1,215.26478842832472,360.4853554979856,489.24154432930226
24,6126.0,5642.0,[7],1,192.35475840679192,402.6007182500827,590.0466454456409
24,6225.5,5214.0,[9],1,369.3382459240138,362.47164886354415,646.077062083365
24,5241.0,4493.0,[13],1,277.4007822934538,416.17935508490706,789.7444190040079
24,7216.75,5811.0,[14],1,220.73111164998005,200.17864689784204,311.3290262237157
24,9953.0,7255.0,[15],1,228.31136340801777,523.3684818647662,597.2266904450896
24,5189.75,4688.0,[17],1,362.41042439423484,127.19090514957362,688.8384796955536
48,9055.25,7125.0,[0],1,115.58730432622588,412.79696170729676,509.021437839927
48,24546.5625,18520.0,"[1,3]",2,127.31034895416136,123.75488421240233,164.57653184636354
48,10913.125,7798.0,[4],1,215.2881450088771,107.71457533932733,200.87335204169327
48,4505.1875,3582.0,[12],1,220.1755615054875,151.6383890792558,712.3076037345833
48,7184.0,5447.0,[6],1,202.88000243596915,356.368605581849,476.23407050389534
48,7641.5,6110.0,[7],1,197.73569488974758,416.527775960218,575.7181754236732
48,6503.75,5581.0,[8],1,112.63025177782384,529.2186527003659,603.1259850086476
48,6734.375,5178.0,[9],1,362.8465614849114,347.77582366589337,631.4425893271437
48,6173.25,4863.0,[13],1,267.1802332644856,418.00105292998,779.4695865224957
48,6361.1875,4557.0,[14],1,213.29088515312645,208.40555517346462,302.32325921850276
48,11271.25,8783.0,[15],1,224.53301541532633,545.3195186869233,589.9184484861918
72,9209.8125,6946.0,[0],1,124.41697204748165,437.35254348283576,478.11354397822964
72,28032.640625,21896.0,"[1,3]",2,124.76066404733018,129.02345870243857,153.35226847720566
72,11934.28125,9206.0,[4],1,214.29104575317422,111.93926372817752,203.20813203560186
72,3403.296875,2277.0,[12],1,243.03405704945953,177.70058445165785,703.0667367580139
72,9801.0,8005.0,[6],1,202.2235980384655,376.56790282879257,444.0369748622566
72,7149.375,5239.0,[7],1,215.58616356324862,435.20758807588265,545.2785186642184
72,5806.59375,4123.0,[9],1,358.11308533939774,354.320844836958,628.7589512999757
72,6299.3125,4756.0,[13],1,296.9494835745929,408.77988669398354,753.6679846014939
72,6690.296875,5100.0,[14],1,215.93628132159702,223.94487585799462,288.43170496451233
72,10948.8125,8131.0,[15],1,238.5468686672628,551.5167198497583,564.1926535982786
96,6571.453125,4269.0,[0],1,118.54702929099703,435.06385514524396,489.94232511359496
96,24056.16015625,17048.0,"[1,3]",2,126.4207876523368,129.02142496310296,158.16124573081618
96,11972.5703125,8989.0,[4],1,213.04660033448963,111.62579372510982,209.14303985216353
96,6284.25,3834.0,[6],1,197.12397996479356,361.97406276106767,449.8930815381697
96,9814.34375,8027.0,[7],1,220.2950739351514,449.7146905517795,546.1012258047062
96,8154.234375,7190.0,[8],1,128.22818665915887,539.0447356722253,573.2840845726253
96,4586.6484375,3135.0,[9],1,407.3343152935354,NA,638.3009269431835
96,6145.828125,4571.0,[13],1,319.10254542588245,404.92151942501533,766.8088731431112
96,6675.57421875,5003.0,[14],1,229.2176533268729,199.94361264568255,301.23857030089266
96,13603.203125,10866.0,[15],1,245.76073764795518,563.773562637477,581.0982032609513
120,8351.86328125,6709.0,[0],1,NA,NA,NA
120,22712.0400390625,16698.0,"[1,3]",2,NA,142.2472842628165,NA
120,11469.142578125,8476.0,[4],1,NA,134.31665929010276,NA
120,10282.5859375,7829.0,[7],1,NA,NA,NA
120,14302.55859375,12264.0,[8],1,199.4390481379689,499.6723650160949,543.631417155198
120,4683.8935546875,3015.0,[14],1,NA,188.75505946554338,NA
120,23107.80078125,19707.0,[15],1,296.0187069876429,NA,587.8939044106597
144,7838.52294921875,4845.0,[1],1,NA,NA,NA
144,10136.487060546875,7452.0,[3],1,NA,133.60712524474562,NA
144,9947.28564453125,7080.0,[4],1,NA,141.28821461727875,NA
144,7793.399658203125,6991.0,[5],1,NA,NA,NA
144,17788.6396484375,14213.0,[8],1,NA,NA,524.3907478971141
144,7578.8642578125,6472.0,[13],1,NA,NA,734.6307483277734
144,20495.9501953125,14719.0,[15],1,311.0205804757611,NA,NA
144,5761.520751953125,5274.0,[16],1,NA,153.1782631598061,NA
144,4964.435302734375,4604.0,[17],1,NA,NA,NA
168,6441.6307373046875,4482.0,[1],1,NA,NA,NA
168,9786.121765136719,7252.0,[3],1,NA,NA,NA
168,9764.821411132812,7278.0,[4],1,NA,145.98818526529564,NA
168,8182.349914550781,6234.0,[5],1,NA,NA,NA
168,4840.41162109375,3726.0,[7],1,NA,NA,NA
168,14820.159912109375,10373.0,[8],1,NA,NA,NA
168,8138.716064453125,6244.0,[13],1,461.9466992184838,NA,NA
168,17227.987548828125,12104.0,[15],1,NA,NA,551.2052074894237
168,5369.380187988281,3929.0,[16],1,NA,NA,NA
168,6825.108825683594,5584.0,[17],1,NA,NA,NA
