time_in_hour,cumulative_size,size,pcore_ids,pcore_power,SCA-1,CD11b,Ly6C
-1,0,0,[],0,0.0,0.0,0.0
0,27548,27548,"[0,7,10]",3,168.3944750980127,434.2086902860474,544.1674894729192
0,26886,26886,"[1,2]",2,137.43621215502822,126.64736293981979,171.03682213791538
0,9236,9236,[4],1,247.612494586401,162.49935036812488,279.7208748375932
0,5620,5620,[5],1,165.5893238434175,359.3147686832735,775.9642348754471
0,5143,5143,[6],1,201.03363795450178,143.86369823060457,686.6830643593231
0,4517,4517,[8],1,122.78437015718579,322.14390081912796,444.7088775736123
0,4863,4863,[9],1,201.87291795188088,555.640345465765,651.6234834464308
0,5920,5920,[11],1,376.72246621621065,334.5216216216218,585.765202702702
24,17645.0,12812.0,"[0,10]",2,171.1401813544943,459.5773731935426,566.7462737319345
24,33496.5,26775.0,"[1,2]",2,150.00180615885583,122.62508769572972,170.24563760392817
24,15258.0,12949.0,[4],1,279.74841066981037,146.25874950845486,274.59578581727544
24,6828.0,5423.0,[5],1,207.8053602811956,367.3581209724652,786.5953060925602
24,8681.75,7396.0,[6],1,261.89305151610967,133.45958476113717,684.8927635557351
24,13894.25,10711.0,"[7,8]",2,185.44941252676563,347.0430933659599,482.9380499127322
24,6218.75,5003.0,[9],1,237.96357788944727,556.0242412060301,673.9311356783894
24,8776.0,7296.0,[11],1,390.9587796262482,330.06757064721944,616.2771763901554
48,22264.25,17853.0,"[0,10]",2,162.24050327318776,483.21653267008855,551.7953894696647
48,33987.125,25613.0,"[1,2]",2,150.22023413278131,123.27847125933718,168.391832201164
48,11659.5,7845.0,[4],1,281.3188655173885,140.55782838029094,266.7492280972598
48,9370.0,7663.0,[5],1,199.74639807897572,356.0489127534682,778.746124599784
48,5753.4375,3583.0,[6],1,245.84372386073508,133.8169898430286,679.5403508771918
48,16032.5625,12559.0,"[7,8]",2,181.9649931194734,344.4113113546251,482.05179303059026
48,7865.6875,6311.0,[9],1,224.84379146768842,557.2660924426501,674.5489586892406
48,8879.0,6685.0,[11],1,373.1477151143071,331.8795190899871,606.2379913278511
72,32345.5,24246.0,"[0,7,10]",3,188.51088588443716,462.15328494303816,508.6604251364162
72,38345.78125,29849.0,"[1,2]",2,146.76643128115,128.34917017435953,160.62678505213682
72,12503.875,9589.0,[4],1,284.0937971728745,146.6880866931255,244.97642980676014
72,7297.5,4955.0,[5],1,260.4120503597103,361.3197092326124,754.0917844295998
72,5836.359375,4398.0,[6],1,270.75690913909557,146.85352062903098,662.280710631359
72,6765.703125,5291.0,[8],1,160.81967875659942,326.61281047562943,387.1231371462228
72,5791.421875,3825.0,[9],1,257.27270127424237,553.5216227664303,660.7860575042284
72,7415.75,5196.0,[11],1,371.91755933316966,350.5315797458106,603.2019392846322
96,24852.765625,19537.0,"[0,10]",2,177.26520910336527,508.02081933160133,539.3392875667128
96,34991.4453125,25405.0,"[1,2]",2,149.87538583649751,127.56213014118391,172.17447969983706
96,14143.96875,11018.0,[4],1,334.0059933341709,154.41891972505928,253.6748155684737
96,8122.375,6298.0,[5],1,273.0690511549873,NA,762.1034733336913
96,4933.08984375,3474.0,[6],1,NA,142.18056080153897,678.9195341408596
96,10291.609375,7521.0,[7],1,225.22930428762675,371.075045205211,524.3416109603867
96,4958.42578125,3267.0,[8],1,168.74298168285503,298.5155759963513,404.9964935002528
96,10165.85546875,8718.0,[9],1,263.41016707659605,552.0208629607599,651.2360644298348
96,5089.9375,3236.0,[11],1,413.1665487358579,NA,613.1945029408528
120,43688.09375,34902.0,"[0,7,10]",3,NA,NA,NA
120,32654.861328125,23907.0,"[1,2]",2,NA,146.04639650047312,NA
120,9100.9921875,5565.0,[4],1,NA,157.5617321943779,NA
120,4696.59375,2666.0,[5],1,325.9256367646724,NA,NA
120,5627.2724609375,4394.0,[6],1,NA,NA,NA
120,4175.6064453125,2936.0,[8],1,NA,NA,NA
120,15310.4638671875,12769.0,[9],1,283.9054034927462,522.6623534443183,NA
144,28849.2978515625,19258.0,"[0,10]",2,NA,NA,NA
144,26784.71533203125,18621.0,"[1,2]",2,NA,146.06114561241196,NA
144,7111.832275390625,6593.0,[3],1,NA,NA,NA
144,14517.248046875,12242.0,[4],1,NA,155.41382334671596,NA
144,6837.1484375,5663.0,[5],1,NA,NA,NA
144,7312.818115234375,5906.0,[6],1,NA,NA,NA
144,18235.615966796875,14408.0,[9],1,NA,NA,NA
144,5263.37109375,4603.0,[11],1,485.9235077347644,NA,NA
168,23295.324462890625,16083.0,"[0,10]",2,NA,NA,NA
168,23792.178833007812,17096.0,"[1,2]",2,NA,149.5483695103385,NA
168,8278.958068847656,6501.0,[3],1,NA,NA,NA
168,15468.31201171875,11839.0,[4],1,NA,156.87427652228706,NA
168,6712.287109375,5003.0,[5],1,NA,NA,NA
168,9955.204528808594,8127.0,[6],1,470.4682058339833,NA,NA
168,18629.90399169922,14071.0,[9],1,NA,NA,554.5604260776436
168,7913.8427734375,6598.0,[11],1,NA,NA,NA
