time_in_hour,cumulative_size,size,pcore_ids,pcore_power,SCA-1,CD11b,Ly6C
-1,0,0,[],0,0.0,0.0,0.0
0,33116,33116,"[0,6,8,9,10]",5,NA,NA,NA
0,33577,33577,"[1,2]",2,160.21359859427864,141.3431813443727,NA
0,3040,3040,[5],1,NA,NA,NA
0,6781,6781,[3],1,NA,NA,633.3322518802547
0,3115,3115,[7],1,NA,NA,NA
0,3491,3491,[14],1,NA,NA,NA
24,38289.0,21731.0,"[0,6,8,9,10]",5,NA,NA,NA
24,52880.5,36092.0,"[1,2]",2,NA,137.5688959068088,NA
24,5747.0,4227.0,[5],1,NA,172.58308682791053,NA
24,10702.5,7312.0,[3],1,213.93641672506473,NA,NA
24,3614.0,2926.0,[4],1,NA,NA,NA
24,4037.5,3024.0,[13],1,NA,NA,NA
24,5966.5,4409.0,[7],1,NA,NA,NA
24,6547.5,5227.0,[11],1,NA,NA,NA
24,3188.0,2771.0,[12],1,NA,NA,NA
24,4026.5,2281.0,[14],1,NA,NA,NA
48,45759.5,26615.0,"[0,6,8,9,10]",5,NA,NA,NA
48,57943.25,31503.0,"[1,2]",2,NA,136.59915520789687,NA
48,5876.5,3003.0,[5],1,232.43678209818677,NA,NA
48,15302.25,9951.0,[3],1,202.86345145321854,NA,NA
48,3734.0,1927.0,[4],1,NA,NA,NA
48,6244.25,3261.0,[7],1,NA,NA,NA
48,7333.75,4060.0,[11],1,NA,NA,NA
48,6629.75,4611.0,[13],1,NA,NA,NA
48,6024.25,4011.0,[14],1,NA,345.817612150891,NA
72,50544.75,27665.0,"[0,6,8,9,10]",5,189.99781381845025,NA,NA
72,67260.625,38289.0,"[1,2]",2,NA,136.8411979519961,NA
72,4771.25,1833.0,[5],1,NA,171.90364160335358,341.03413675661517
72,14033.125,6382.0,[3],1,222.11507593640115,537.0771032824101,616.2582461141031
72,6552.125,3430.0,[7],1,253.21462502623038,156.02512543640427,679.5055230173421
72,2633.375,109.0,[6],1,228.4770968813783,NA,NA
72,10588.875,6922.0,[11],1,319.46161655510707,369.72350698256264,713.4405567163657
72,6774.875,3460.0,[13],1,354.9068986512613,NA,563.509142235097
72,3847.125,835.0,[14],1,167.5748123598821,NA,755.5563895116491
96,47552.375,22280.0,"[0,6,8,9,10]",5,NA,NA,NA
96,64895.3125,31265.0,"[1,2]",2,NA,139.21042833409584,NA
96,5650.625,3265.0,[5],1,NA,NA,NA
96,23569.5625,16553.0,[3],1,224.43918135943505,NA,NA
96,4491.0,3194.0,[4],1,NA,NA,NA
96,6931.0625,3655.0,[7],1,265.03309377169626,NA,NA
96,9532.4375,4238.0,[11],1,NA,NA,NA
96,2901.5,2010.0,[12],1,NA,NA,NA
96,4659.4375,1272.0,[13],1,NA,NA,NA
96,4191.5625,2268.0,[14],1,NA,NA,NA
120,42164.34375,20079.0,"[0,8,9,10]",4,NA,NA,NA
120,53575.65625,21128.0,"[1,2]",2,NA,141.06558190782783,NA
120,7435.3125,4610.0,[5],1,NA,NA,NA
120,37035.625,23560.0,"[3,6]",2,NA,NA,NA
120,7570.5,5325.0,[4],1,NA,165.45144805495056,NA
120,7640.53125,4175.0,[7],1,NA,NA,NA
120,11207.21875,6441.0,[11],1,366.43866536913345,NA,NA
120,4166.75,2716.0,[12],1,NA,NA,NA
120,4115.71875,1786.0,[13],1,NA,NA,NA
144,33243.171875,12161.0,"[0,8,9,10]",4,NA,NA,NA
144,43517.828125,16730.0,"[1,2]",2,NA,139.37953302902847,NA
144,9131.65625,5414.0,[5],1,NA,167.62653612262304,NA
144,38596.8125,20079.0,"[3,6]",2,NA,NA,NA
144,16020.25,12235.0,[4],1,NA,NA,NA
144,7588.265625,3768.0,[7],1,NA,NA,NA
144,14824.609375,9221.0,[11],1,NA,NA,737.0756343706332
144,9031.375,6948.0,[12],1,NA,NA,NA
144,4660.859375,2603.0,[13],1,NA,NA,NA
168,23395.4765625,9089.0,"[0,9,10]",3,NA,NA,NA
168,38016.9140625,16258.0,"[1,2]",2,NA,141.13576584435663,NA
168,36624.40625,17326.0,"[3,6]",2,NA,NA,NA
168,17982.125,9972.0,[4],1,NA,NA,NA
168,11929.828125,7364.0,[5],1,NA,NA,NA
168,6407.109375,4092.0,[8],1,299.0294814110277,NA,NA
168,8086.1328125,4292.0,[7],1,NA,NA,NA
168,16781.3046875,9369.0,[11],1,NA,NA,NA
168,12872.6875,8357.0,[12],1,NA,NA,NA
168,5497.4296875,3167.0,[13],1,NA,NA,NA
