time_in_hour,cumulative_size,size,pcore_ids,pcore_power,SCA-1,CD11b,Ly6C
-1,0,0,[],0,0.0,0.0,0.0
0,39017,39017,"[0,3,8,9]",4,178.57257093062174,424.9952328472213,557.9123459005039
0,34172,34172,"[1,2]",2,160.74663467166386,141.67382652464048,198.99297670607382
0,2334,2334,[5],1,205.46572407883457,198.0107112253638,351.4790059982856
24,22952.75,19263.0,"[0,8,9]",3,193.3140963501121,392.14749866573794,540.042707300867
24,45535.5,40887.0,"[1,2,4]",3,187.89164223518142,139.70610018556985,255.86509426710913
24,3479.75,3188.0,[5],1,240.70971334147583,190.6061139449672,361.45067892808504
24,9634.375,8447.0,[3],1,219.4736685047045,508.45201427181667,630.4938306843978
24,6998.25,6483.0,[11],1,338.52884649733204,354.3839888543557,652.9151394991602
48,26360.09375,23491.0,"[0,8,9]",3,185.16209812892092,403.01442165773824,529.5934562543038
48,41129.9375,35438.0,"[1,2,4]",3,178.98863776233802,140.20620358649958,240.69759709700446
48,2598.96875,2164.0,[5],1,234.32648165738885,209.1678490266573,378.31264804549835
48,13521.296875,12317.0,[3],1,193.20790581524872,529.5340556506317,611.340452503747
48,6550.296875,6017.0,[6],1,204.16538134006407,384.6933607493932,767.5264241363082
48,6793.78125,5919.0,[11],1,331.5112165997338,348.8053826799315,629.9936315840297
72,46270.2421875,41129.0,"[1,2,4]",3,182.49766018791718,149.15826506507037,222.59768165655825
72,5536.99609375,4935.0,"[5,7]",2,289.06838446782837,208.2413333323925,329.7079266524675
72,25808.54296875,22692.0,"[3,9]",2,212.40156004545008,478.7621458919184,526.8626718199979
72,10545.009765625,8877.0,"[6,11]",2,303.86172128589004,367.28798593084485,672.6166940634869
72,7577.8046875,6741.0,[8],1,211.47525977902282,363.23000327848894,460.65661770239814
96,40653.146728515625,35962.0,"[0,3,8,9]",4,206.1594254086788,475.7896377371103,547.1343531584065
96,42065.7802734375,36282.0,"[1,2,4]",3,188.48718163324173,148.07481498296957,257.4381364064773
96,2450.73388671875,2147.0,[5],1,272.29909218838355,234.37390595490876,383.37061423126744
96,4532.2255859375,3585.0,[8],1,204.83331185807376,365.3696669079221,475.73861753687066
120,47349.64334106445,42268.0,"[0,3,8,9]",4,238.50037454309052,484.4601062593465,533.7831472212065
120,27599.555541992188,22908.0,"[1,2]",2,196.6457728632359,144.7377004848644,205.52640411216498
120,9679.39077758789,8608.0,"[6,11]",2,376.754304230662,393.7285107266125,702.0269140646606
120,5478.673828125,4910.0,[7],1,433.4657276997953,155.32602120602772,211.37879058238428
120,5131.5281982421875,4565.0,[8],1,218.92715068617832,355.38930093191357,458.73495202340877
144,37924.70541763306,32006.0,"[0,3,8,9]",4,261.8718945750348,507.04569603864473,528.821304857772
144,23183.944442749023,19734.0,"[1,2]",2,223.89015829888407,138.9187259914833,207.22033248347896
144,12768.923847198486,11559.0,"[6,11]",2,431.6691119144423,431.19667564295844,710.1887530397958
144,10776.834228515625,10092.0,[7],1,493.68479224998845,142.68722551491257,199.2118822142036
144,2084.4410247802734,1443.0,[8],1,231.46390334513146,359.52001926497564,449.9275376847309
144,6028.331642150879,5724.0,[10],1,565.85767758896,134.30926447994497,595.6380291225734
168,35233.58817720413,30493.0,"[0,3,8,9]",4,289.47357720333383,501.68540152772204,511.3356588903637
168,23023.993055343628,20126.0,"[1,2]",2,251.71133912259754,143.8390159004971,217.93227058407962
168,6094.724089622498,5446.0,[5],1,453.9035729228938,220.7145584115115,377.62348901444676
168,8812.209176540375,7808.0,[6],1,424.53110854142574,389.76518601171165,693.8660494493737
168,9243.104278564453,7896.0,[7],1,476.9105446667956,141.63775854219344,201.08138162867212
168,2793.555128097534,2533.0,[8],1,257.58507492783616,373.3260082049838,431.42514536193363
168,6939.54145526886,6186.0,[10],1,544.6267944657801,134.278410845837,609.1712218346756
