time_in_hour,cumulative_size,size,pcore_ids,pcore_power,SCA-1,CD11b,Ly6C
-1,0,0,[],0,0.0,0.0,0.0
0,38684,38684,"[0,3,8,9]",4,0.19980710894031828,0.481158245414406,0.5727796970208486
0,37128,37128,"[1,2,5]",3,0.18220295897097283,0.16328329974523767,0.2196798626937486
0,3661,3661,"[4,6]",2,0.2694618956569235,0.2377042595240772,0.3639341789000898
0,3859,3859,[7],1,0.17534466343088395,0.39024892154322327,0.7994581838308156
0,4403,4403,[11],1,0.3662890725679838,0.3993343699226063,0.6361098704214123
24,21255.5625,19413.0,"[0,8,9]",3,0.21778172673306653,0.4434278043454399,0.5564405808852827
24,43376.5,41056.0,"[1,2,5]",3,0.21148153798910424,0.15895225668777357,0.23753575770259455
24,2356.9375,2244.0,[6],1,0.24345991498323033,0.25740446124496896,0.40072816123136445
24,12691.375,11875.0,"[3,7]",2,0.2470952913146921,0.5322112407012451,0.708971964392193
24,4157.875,4042.0,[4],1,0.4014284353468931,0.18900945474589387,0.31057114029533317
24,6721.1875,6446.0,[11],1,0.38261286132827466,0.40024631282877765,0.671212594318347
48,36239.734375,34374.0,"[0,3,8,9]",4,0.2105437219006737,0.510580061009163,0.5753492236037152
48,38589.03125,35878.0,"[1,2,5]",3,0.2004472616180608,0.15952878871419285,0.22190440433840292
48,6370.94921875,6115.0,[7],1,0.2359560213502321,0.44407567937619813,0.8040265885409401
48,6331.07421875,5911.0,[11],1,0.3728385442780986,0.39194822350473885,0.6452024129176392
72,40591.30908203125,38391.0,"[1,2]",2,0.19628685827127465,0.1646722312103618,0.15847161822078792
72,3581.36669921875,3416.0,[4],1,0.3599484073319048,0.20328789092229693,0.29232331224378316
72,23286.717529296875,21840.0,"[3,9]",2,0.23901628625456967,0.5440893051751681,0.5356722238509493
72,9176.28662109375,8661.0,"[6,8]",2,0.23525432550057593,0.404218105963675,0.44698777530622463
72,9697.87646484375,8904.0,"[7,11]",2,0.3454268445243389,0.41819444479311113,0.6945065266586019
96,39164.06657409668,36916.0,"[0,3,6,8,9]",5,0.2319621584581605,0.5349171133407861,0.5599005228834789
96,40047.36340332031,37302.0,"[1,2,5]",3,0.214111349342558,0.16940242392186072,0.24901043935938144
96,4770.835418701172,4547.0,[4],1,0.4692284899034737,0.1973372281363653,0.22985408463229304
96,4626.449020385742,4266.0,[7],1,0.33861582196532725,0.43286483205034104,0.7931031176663631
96,5387.517913818359,4814.0,"[6,8]",2,0.22873035075242978,0.39857033721217655,0.4696939690635794
120,45671.75416088104,43224.0,"[0,3,6,8,9]",5,0.27136775502545196,0.5441713885556517,0.5430801014603907
120,26606.059801101685,24393.0,"[1,2]",2,0.23089066730509458,0.16603814668738215,0.1893460069600427
120,10295.077625274658,9707.0,"[4,5]",2,0.44427534240868927,0.187703118656202,0.45940904095467155
120,8825.194829940796,8359.0,"[7,11]",2,0.4269899332987078,0.4491711960132984,0.7319258595477139
120,3039.3289251327515,2885.0,[8],1,0.2968640956962694,0.4330352011732986,0.4902939918994847
144,32833.37714320421,30390.0,"[0,3,9]",3,0.29780901867425574,0.5864662001019608,0.5478110331389622
144,13779.215130150318,12791.0,[1],1,0.2225890572492009,0.14882918342633386,0.1349049621512174
144,9232.663607418537,8558.0,[2],1,0.3341546314592443,0.1704722624556485,0.2727589045635142
144,15849.442351579666,15206.0,"[4,5]",2,0.5091316799996761,0.17889342191357055,0.3666083964838319
144,11224.5746768713,10673.0,"[7,11]",2,0.49629377128083807,0.504557739644821,0.7352360340636186
144,5408.059177160263,5274.0,[10],1,0.6449355273613097,0.15161419506706542,0.6307470983292666
144,4878.560064017773,4725.0,[12],1,0.4793538233204377,0.18452935087080255,0.439387063912981
168,29871.086071450263,27819.0,"[0,3,9]",3,0.3291981832780434,0.5819705450680821,0.5275625339133216
168,13408.200945634395,12547.0,[1],1,0.24329094707168783,0.15606651207394434,0.14647618056112505
168,9560.041475463659,8983.0,[2],1,0.3732527836792778,0.1757518899913302,0.27987760693546543
168,8612.785848490894,7955.0,[4],1,0.539060489578496,0.1666076915212171,0.17877389535269958
168,5334.804298482835,5002.0,[5],1,0.4410163903173086,0.20892581837965027,0.6868545791569374
168,8717.688097905368,8221.0,[7],1,0.4898383350646168,0.4757760992824964,0.731422552173025
168,6676.003698572516,6338.0,[10],1,0.6069357333035846,0.1463663188951663,0.6345350145140509
168,6669.910004001111,6365.0,[12],1,0.5054024698455516,0.19324565607810315,0.4308282993102329
