time_in_hour,cumulative_size,size,pcore_ids,pcore_power,SCA-1,CD11b,Ly6C
-1,0,0,[],0,0.0,0.0,0.0
0,34666,34666,"[1,2,16]",3,162.13823342756848,142.28206311659855,200.4762014654119
0,21843,21843,"[8,9,12]",3,186.18921393581664,460.5602252437863,583.901707640892
0,7856,7856,"[9,15]",2,182.6335285132397,376.78589613034643,533.5789205702642
24,46751.5,38085.0,"[1,2,16]",3,182.95216196272062,138.23384276440348,204.76609306653185
24,21793.75,16333.0,"[8,9,12]",3,211.84769716088445,465.4213822770294,597.734178376828
24,5952.5,5098.0,[11],1,342.9741705165845,347.1955060898785,629.3097858042803
24,8950.0,6986.0,"[9,15]",2,201.5265083798897,373.5982681564247,548.4279329608944
48,28832.0625,22846.0,"[0,7,9,12,15]",5,184.81407634296247,410.908151298577,538.1553197070098
48,45135.875,33448.0,"[1,2,16]",3,178.53459138656635,137.30875661544144,198.01866032285827
48,5403.6875,4259.0,[3],1,257.15630530077647,348.4974496582196,761.820782104812
48,14316.375,11555.0,[8],1,198.45018815866547,528.413647833334,614.9016991032994
48,6273.125,4785.0,[11],1,334.90810999302033,338.96555743748104,617.5081199561603
48,7018.5,5110.0,"[7,9]",2,218.16220524328622,397.7913549903827,559.0455047374797
72,51751.96875,40468.0,"[1,2,16]",3,179.61795414788278,144.09787489968687,191.2429732443748
72,5984.921875,4634.0,[3],1,293.234918480031,351.6946205960281,728.2518386048289
72,12021.09375,8442.0,[8],1,228.70488204328268,525.9424072268766,599.2012023136414
72,26564.015625,22554.0,"[12,15]",2,200.09086716816938,420.6619622292142,487.4996356090277
96,25508.75390625,17316.0,"[0,7,9,12,15]",5,198.72166065540512,421.1303160174341,514.9835047435458
96,47037.9921875,34100.0,"[1,2,16]",3,186.62566745000115,144.52534777821734,201.76641587759065
96,22352.2734375,19347.0,[8],1,221.57440588223088,528.1145463391438,585.072721734472
96,4798.40625,3844.0,"[7,9]",2,240.9898525877736,418.35618108877304,559.697306722936
120,16451.8369140625,12028.0,"[0,7,12]",3,210.2519905849719,444.6604758527821,510.5168927339451
120,36971.498046875,25212.0,"[1,2,16]",3,204.23173446479484,146.62612637574932,207.8520260037722
120,6289.0576171875,5000.0,[3],1,369.8030208097942,357.90812213363455,764.6198667856098
120,33293.291015625,27007.0,"[8,9]",2,255.51807438799116,521.2114801481739,565.8717024914379
120,5458.2822265625,4237.0,[10],1,326.6870200299416,152.80277552694196,703.3715080705375
120,2772.37890625,2271.0,[7],1,253.19847822196954,399.59019428542473,514.3293566981206
144,13889.864501953125,10470.0,"[0,12]",2,217.4724119545012,484.5339960172531,503.9338000349254
144,19901.705810546875,13288.0,"[1,2]",2,189.7782004347151,139.17241335274846,182.24379791516137
144,10434.168701171875,7805.0,[16],1,304.4226588271802,146.5699379164221,261.04281227014826
144,7362.264404296875,5790.0,[3],1,404.3245342402187,376.2037123826953,750.5391406671374
144,11469.845703125,10159.0,[4],1,493.97090011070554,146.65163194984362,211.10521238093554
144,28080.32275390625,19757.0,"[8,9]",2,282.66977100480835,530.4415302791487,555.6506936861371
144,5606.11376953125,4665.0,[11],1,466.54415214939036,480.9090558917382,677.6688707684424
144,6743.600341796875,6001.0,[14],1,554.703228831651,131.07380416770235,597.7974316795656
168,14685.466125488281,11213.0,"[0,12]",2,246.03043259684662,483.0110823316846,490.0120288058349
168,17450.42645263672,12475.0,"[1,2]",2,208.22513927891237,140.70888832069448,184.24687910651414
168,9434.686889648438,7307.0,"[3,5]",2,413.15490778080414,366.6387449603892,704.8109686823951
168,10456.46142578125,7589.0,[4],1,483.444283461143,144.96595319585305,206.86912763340217
168,5529.9793701171875,4636.0,[6],1,386.7117055447306,150.75748176261618,418.49963126019304
168,22701.080688476562,15681.0,"[8,9]",2,313.72196321305626,537.5120026454357,544.8839142959196
168,6044.5284423828125,4643.0,[11],1,498.0583560093191,504.16798416625363,690.4393347935372
168,8488.900085449219,6803.0,[14],1,536.8681660770318,131.52603121814212,601.6333906325696
168,11161.542175292969,8553.0,[16],1,327.8096599199957,150.18631281936266,268.7387762601043
