time_in_hour,cumulative_size,size,pcore_ids,pcore_power,SCA-1,CD11b,Ly6C
-1,0,0,[],0,0.0,0.0,0.0
0,43192,43192,"[0,5,7,8,11]",5,NA,NA,NA
0,35767,35767,"[1,2]",2,163.70531495512972,145.25020270081356,NA
0,1386,1386,[4],1,NA,224.70202020202038,NA
0,1218,1218,[5],1,NA,NA,NA
24,41861.5,31368.0,"[0,7,8,11]",4,NA,NA,NA
24,49054.75,40113.0,"[1,2]",2,NA,140.68621285400533,NA
24,2183.5,1837.0,[4],1,NA,NA,NA
48,49408.375,38943.0,"[0,7,8,11]",4,NA,NA,NA
48,46480.6875,34217.0,"[1,2]",2,NA,139.39449045369687,NA
48,1971.875,1426.0,[4],1,NA,NA,NA
72,41548.78125,30646.0,"[0,7,8]",3,193.3730310230236,NA,508.6029948983143
72,51211.171875,39591.0,"[1,2]",2,180.7786472373149,136.29492710178238,184.09752571689157
72,1692.96875,1200.0,[4],1,NA,248.1319889247807,368.0425288417168
72,6406.3125,4957.0,[11],1,354.00158535038224,352.39153520453414,589.9491785446003
96,47574.1953125,37187.0,"[0,7,8]",3,204.6895250133151,NA,NA
96,46042.79296875,33240.0,"[1,2]",2,NA,140.31263782715723,NA
96,2064.2421875,1641.0,[4],1,NA,NA,NA
120,54902.548828125,43009.0,"[0,7,8]",3,NA,NA,NA
120,35061.6982421875,23551.0,"[1,2]",2,NA,145.6000048352262,NA
120,3272.060546875,2756.0,[4],1,NA,NA,NA
144,45115.63720703125,31390.0,"[0,7,8]",3,NA,NA,NA
144,28486.424560546875,19721.0,"[1,2]",2,NA,142.18217698011736,NA
144,3544.01513671875,2726.0,[4],1,NA,NA,NA
144,7946.41552734375,6514.0,[5],1,NA,NA,715.7947361228565
144,6316.893798828125,5692.0,[10],1,NA,NA,NA
144,12017.39794921875,10856.0,[13],1,NA,NA,NA
168,40294.90930175781,29016.0,"[0,7,8]",3,NA,NA,NA
168,26715.60614013672,19594.0,"[1,2]",2,NA,145.96971688173167,NA
168,4344.0037841796875,3458.0,[4],1,NA,NA,NA
168,7801.6038818359375,5815.0,[5],1,NA,NA,NA
168,7947.223449707031,6368.0,[10],1,NA,NA,NA
168,11277.349487304688,8273.0,[13],1,NA,NA,NA
