time_in_hour,cumulative_size,size,pcore_ids,pcore_power,SCA-1,CD11b,Ly6C
-1,0,0,[],0,0.0,0.0,0.0
0,22095,22095,"[0,7,8]",3,0.15231124027755838,0.4830384835536389,0.5493034986097202
0,25808,25808,"[1,3]",2,0.14490576913700276,0.14571637438179022,0.15005291776034663
0,6323,6323,[4],1,0.29337215480491124,0.13422179173497906,0.18749134826826258
0,8007,8007,[9],1,0.2513758326632742,0.49854270612761414,0.5699887320198379
24,27896.0,26283.0,"[1,3]",2,0.1639090206239589,0.13863543957144678,0.1511377188928903
24,8706.1875,8311.0,[4],1,0.34447474598129935,0.12532315574048106,0.18692522314763768
24,7552.4375,7052.0,[9],1,0.2529580123836423,0.4910797598794487,0.5893067679682963
48,26455.5,24712.0,"[1,3]",2,0.16339908869388622,0.13804387414421299,0.14400168869424315
48,6529.5625,6158.0,[7],1,0.1962524206566154,0.41220353167306106,0.4697858650865292
48,8445.0234375,8149.0,[8],1,0.16298304060070312,0.6084721520704715,0.5618853910159115
48,7597.02734375,7125.0,[9],1,0.24475329580298352,0.5008552749980575,0.5777506965150783
72,30237.46875,28584.0,"[1,3]",2,0.15809461249667145,0.14469877745431806,0.13235035451452135
72,6920.696044921875,6557.0,[4],1,0.3508448515417463,0.13806930202147472,0.15719779568480505
72,8439.09765625,8031.0,[7],1,0.20692427899017252,0.43156230592944417,0.42606205766561317
72,15078.628173828125,14076.0,"[8,9]",2,0.22898649639342497,0.5603872841036568,0.5228943806397648
96,25846.841796875,23957.0,"[1,3]",2,0.1649802627295396,0.14182175439386896,0.14209521514028864
96,6666.268173217773,6312.0,[6],1,0.2833480148277328,0.1904284024905207,0.2582778056142847
96,9009.363372802734,8574.0,[8],1,0.17024118285166054,0.6183947341942247,0.5708154559265755
96,9194.050888061523,8687.0,[9],1,0.2584952636681208,0.5270059310986854,0.5535367599854424
96,8006.702545166016,7735.0,[16],1,0.2828710507016328,0.6535829804241643,0.6324011804406702
120,24490.0693731308,22458.0,"[1,3,6]",3,0.21448890090801737,0.15182983914188428,0.16838074315637455
120,21326.713391304016,20189.0,"[8,9]",2,0.24843843787098266,0.5751716545116675,0.5449413209307975
120,10556.418909072876,10056.0,[16],1,0.31945855136204443,0.6502502609981798,0.6074848135287609
144,20978.629335820675,19448.0,"[1,3,6]",3,0.2502176450438473,0.14302425816866696,0.16843103899853423
144,9466.431810557842,9129.0,[4],1,0.5586282153708323,0.15054038385526358,0.163083319280768
144,17764.9195869565,16432.0,"[8,9]",2,0.27087832188059535,0.5915917298932526,0.5284102643856526
144,9431.776181817055,8772.0,[16],1,0.35092634938652667,0.6468792031381562,0.5915463701065448
168,8062.651988159865,7471.0,[4],1,0.5415374627876561,0.15126400251554592,0.16692708383277732
168,6868.413385968655,6570.0,[5],1,0.4431898188244928,0.48753340548177454,0.7406382020596898
168,9463.748600628227,8909.0,[6],1,0.3393284981747457,0.15296296370251014,0.23649960324129043
168,10921.436047580093,10266.0,[9],1,0.335200136263636,0.5523428252388533,0.49895080426547433
168,6624.269991319627,6264.0,[13],1,0.631858239456785,0.154350326082418,0.6442442034424735
168,6653.714022621512,6317.0,[14],1,0.48044985241169086,0.17907242370148693,0.40543206178199254
168,7792.486011363566,7203.0,[16],1,0.3875597351124606,0.6679982431387104,0.5722080509092192
