time_in_hour,cumulative_size,size,pcore_ids,pcore_power,SCA-1,CD11b,Ly6C
-1,0,0,[],0,0.0,0.0,0.0
0,35438,35438,"[0,6,9]",3,165.31065522885254,439.1122806027437,547.9139341949304
0,25562,25562,"[1,2]",2,135.88881934121298,124.98509506298413,166.79571238557224
0,7080,7080,[3],1,180.92005649717686,168.09943502824902,297.98460451977485
0,5482,5482,[10],1,370.662167092297,353.8755928493259,576.8296242247355
24,27543.0,15602.0,"[0,6]",2,154.3702574156807,395.22424935555443,522.856115891515
24,35996.0,23215.0,"[1,2]",2,146.1596010667887,121.18734026002925,159.27925325036045
24,14193.0,10653.0,[3],1,190.78327344465802,153.14119636440603,295.0771859367294
24,6099.5,5069.0,[5],1,363.70891056643796,122.34158537585046,614.9784408558069
24,6451.0,4469.0,[7],1,199.47411254069144,156.94210199969027,717.3355293752917
24,7493.5,5734.0,[8],1,288.70754654033215,395.9473543737907,769.3038633482372
24,15646.0,9868.0,[9],1,217.91803016745473,513.4619071967285,603.6033490988108
24,8972.0,6231.0,[10],1,376.24108337048034,355.6695274186354,581.93156486848
24,9545.5,7438.0,[11],1,348.14478026294734,155.4569168718244,256.725525116547
48,55023.5,33429.0,"[0,6,9]",3,174.77217461630295,450.8816460239729,548.3146292038842
48,40216.0,22218.0,"[1,2]",2,147.41079421126327,121.31767828724918,154.87830714143564
48,15761.5,8665.0,[3],1,192.71779335723298,150.8878279351591,293.93682390635337
48,4690.75,3163.0,[4],1,107.63726482971988,378.20753610829877,781.7037254170449
48,5258.75,2209.0,[5],1,359.6454005229359,124.54846684097932,603.2478250534817
48,7127.5,3902.0,[7],1,200.15331462644843,159.4185548930198,710.6161697649956
48,9126.75,5380.0,[8],1,281.2091927575502,398.80590023831024,767.3335250773821
48,11195.0,6709.0,[10],1,370.0124609200469,350.8235372934342,574.8925413130875
48,9097.75,4325.0,[11],1,350.7510098650719,152.16531560001135,253.58300129152772
72,58512.75,31001.0,"[0,6,9]",3,184.87046626590137,456.53766273162796,520.9153560548755
72,47179.0,27071.0,"[1,2]",2,146.3746635155507,125.41800112338167,149.20814345365426
72,17030.75,9150.0,[3],1,197.80307678757808,154.24507141493999,285.19299649163986
72,5344.375,2715.0,[5],1,353.98613027715754,128.9046193427669,595.6609987136001
72,6534.75,2971.0,[7],1,223.2893951566619,168.9230460231835,699.5884119514908
72,10441.375,5878.0,[8],1,296.68372221091244,392.86548706468227,750.8414959715565
72,10982.5,5385.0,[10],1,371.65260641929825,354.5379239699514,568.3930798998424
72,10095.875,5547.0,[11],1,353.0687038022905,160.6981069000954,246.12065571334801
96,63011.375,33755.0,"[0,6,9]",3,188.50384851148146,476.54103822524223,534.6889827431933
96,44169.5,20580.0,"[1,2]",2,146.24417584532696,125.32469096322139,151.22218951991596
96,18732.375,10217.0,[3],1,204.12096036941523,149.0668228134449,281.47793926290717
96,6595.1875,3923.0,[5],1,414.98188072742374,129.55436255603001,603.8232991859596
96,7744.375,4477.0,[7],1,232.75915583891458,166.11449439109026,711.4429101767421
96,10258.6875,5038.0,[8],1,308.1834786370052,395.08698724861085,761.1089442484728
96,9241.25,3750.0,[10],1,389.4951846341074,367.66274854592143,565.0300013526324
96,11842.9375,6795.0,[11],1,390.5849161156151,171.12207169884974,240.54341986521507
120,53500.46875,31023.0,"[0,9]",2,213.46312152638816,525.3901256706262,555.5630073334569
120,35547.75,13463.0,"[1,2]",2,152.72249474299008,125.68979664676358,149.28470156338815
120,18950.1875,9584.0,[3],1,217.80724794939434,148.67202831106562,282.71441410540234
120,4692.59375,1395.0,[5],1,NA,128.26651705147052,602.2692540772362
120,17465.21875,8437.0,[6],1,197.8750069334264,376.9349313904243,462.1756992021631
120,9574.1875,5702.0,[7],1,299.0631940047106,151.10174819012147,698.9698440468184
120,11906.34375,6777.0,[8],1,352.7273433542461,403.36639606512176,767.0696897399756
120,10011.625,5391.0,[10],1,422.5579950807115,368.81831745595684,568.4719263855775
120,14068.46875,8147.0,[11],1,410.9404852606986,169.50963479945202,240.65976218982595
144,14485.234375,6314.0,[0],1,147.14987028817458,497.52539601210304,519.5841907977407
144,29657.875,11884.0,"[1,2]",2,173.25491227035337,124.21263271137936,146.93529543165062
144,21315.09375,11840.0,[3],1,278.15130270069585,142.09186418661605,288.9064739921698
144,6930.296875,4584.0,[5],1,475.1943369128747,137.3098938312074,597.4757710144999
144,13353.609375,4621.0,[6],1,231.42096296530522,368.3614951950035,468.41184792032834
144,8341.09375,3554.0,[7],1,331.7882078564319,152.0932712661342,691.7764438117003
144,13813.171875,7860.0,[8],1,402.5706441881188,404.8835079289122,750.8662598991185
144,42041.0,23462.0,[9],1,280.38729268749273,541.9374189779012,564.5608067124816
144,8572.8125,3567.0,[10],1,449.8515619873837,NA,581.7746363868337
144,18896.234375,11862.0,[11],1,461.3863542587474,159.15395841929384,251.0963865981881
168,12315.6171875,5073.0,[0],1,161.21337237590595,502.7270570458382,505.2936686714437
168,25479.9375,10651.0,"[1,2]",2,187.64795893337927,125.67583288567675,148.1455875823863
168,20619.546875,9962.0,[3],1,287.40449937142006,142.04297120981195,289.53639598651637
168,13334.1484375,9869.0,[5],1,506.75128942312966,133.8110320599536,587.6243444492561
168,12792.8046875,6116.0,[6],1,246.8518551993633,388.9637088475651,453.31548190846775
168,8472.546875,4302.0,[7],1,343.0666500074648,157.99040559306513,672.7402244012395
168,16466.5859375,9560.0,[8],1,434.42409842279653,435.5068360500863,736.9159215893144
168,38133.5,17113.0,[9],1,295.6342346214571,547.2070099944945,549.7857641574906
168,9391.40625,5105.0,[10],1,469.72470676316294,377.17143498877033,563.4104517095058
168,21427.1171875,11979.0,[11],1,471.07584540763486,159.0692868375388,246.9304218406062
