time_in_hour,cumulative_size,size,pcore_ids,pcore_power,SCA-1,CD11b,Ly6C
-1,0,0,[],0,0.0,0.0,0.0
0,34827,34827,"[0,6,7]",3,162.20848766761696,439.3114250437886,548.631435380593
0,32995,32995,"[1,2,5]",3,141.36114562812855,131.41433550537988,NA
0,5957,5957,[11],1,246.8657042135297,188.65653852610384,289.95685747859727
24,27874.6875,25698.0,"[0,6,7]",3,182.6200271303509,435.97639211202096,557.6921781634312
24,28869.5,27064.0,"[1,2]",2,149.95762829283763,121.58207623963034,174.5947150106508
24,10020.3125,9648.0,[11],1,248.84834554810476,159.79852799002086,298.48136597536165
48,34877.16796875,33135.0,"[0,6,7]",3,171.23987151336544,457.51366968115207,547.0358850900287
48,31152.13671875,29008.0,"[1,2,5]",3,155.1296261906222,128.64726298494503,NA
48,7625.26953125,6999.0,[11],1,239.0310439846122,155.9800534714697,299.1743145349886
48,6657.89453125,6385.0,[4],1,184.13444624303654,399.0293401688886,780.9156687226902
72,32883.822998046875,30704.0,"[0,6,7]",3,190.50399372602016,461.3611629035015,498.16255865533327
72,30254.396484375,28590.0,"[1,2]",2,142.03603050073647,128.58423297982654,156.82126133721223
72,8901.579345703125,8425.0,[11],1,243.63072824731466,164.2863378544269,282.2082690623755
72,6436.1142578125,6090.0,[10],1,337.357304917422,377.6145048516962,703.6174601677754
96,36089.23893737793,34034.0,"[0,6,7]",3,191.04742656378858,490.5365684466677,544.0335586394829
96,25249.899780273438,23359.0,"[1,2]",2,146.65036024252842,126.69333049739109,166.11639353442732
96,9721.348709106445,9165.0,[11],1,248.75063260448775,150.9507102254763,284.4026368071869
120,41941.57743358612,39686.0,"[0,6,7]",3,223.77761730502226,495.79895384395144,530.4737727905322
120,17114.11873626709,15536.0,"[1,2]",2,161.7201401854232,128.76001110990657,162.6654247255163
120,10049.584294319153,9442.0,[11],1,271.1496214935751,149.42959198801967,288.274568434103
120,6590.89107131958,6302.0,[10],1,409.6811125149552,463.280804925584,706.2075839035042
144,33189.34858959913,30568.0,"[0,6,7]",3,252.80800913747814,520.4674277276076,523.8105420837283
144,14118.632421016693,13049.0,"[1,2]",2,190.513431107516,123.49311395190146,159.65527997665285
144,9729.099018394947,9101.0,[11],1,306.32526254110417,137.49562806562142,292.7507437303843
144,10274.005006372929,9941.0,[3],1,501.0126649662929,136.1750297693794,200.3501869012264
144,6518.845243752003,6254.0,[4],1,371.41935852871825,342.10839385605703,742.1484126178858
144,6626.3310577869415,6441.0,[8],1,564.2132867062794,130.16713178484267,594.5027838708686
144,7124.930691957474,6713.0,[10],1,475.1040214301634,502.42026727141825,723.9386320663136
168,30315.334286849946,28241.0,"[0,6,7]",3,277.7982007936201,516.5188772903028,502.3730902371713
168,13799.414526313543,12917.0,"[1,2]",2,211.33402533173881,129.0464978970795,166.26061445426907
168,8547.125312898308,7905.0,[3],1,487.43615680589386,134.2469417019124,203.19602941029748
168,7645.4278277345,7238.0,[4],1,396.9989189373148,366.91347338109045,692.6196983248009
168,7722.145691111684,7308.0,[8],1,551.3486370061611,132.26559011035997,609.287490096124
168,6843.308168247342,6398.0,[10],1,507.9048927881608,511.5088730258751,712.4217799791943
168,10007.068688649684,9399.0,[11],1,331.18347678102936,142.82252183139443,300.17177400295
