time_in_hour,cumulative_size,size,pcore_ids,pcore_power,SCA-1,CD11b,Ly6C
-1,0,0,[],0,0.0,0.0,0.0
0,16088,16088,"[1,15]",2,165.8190576827473,117.39998756837396,149.86393585280945
0,9044,9044,[3],1,85.63268465281334,131.39705882352965,195.63080495356115
0,8043,8043,[6],1,184.7436279995038,398.67847817978327,550.0624145219442
0,6698,6698,[8],1,223.80621080919653,484.3599581964775,564.5362794864135
0,6542,6542,[13],1,174.39834912870847,172.79730969122602,276.0738306328352
24,26303.0,18259.0,"[1,15]",2,174.38929019503726,113.76122495532803,148.1858533247152
24,11065.0,6543.0,[3],1,89.7362855851848,127.97049254405846,202.86827835517428
24,13607.0,10845.0,"[4,17]",2,338.8717571837994,142.9792018813849,NA
24,10651.5,6630.0,[6],1,192.24930760925784,390.88968689855994,557.7276439938038
24,8946.0,5597.0,[8],1,227.76682316118996,488.03929130337957,568.7670467247922
24,7650.0,5720.0,[10],1,367.5262091503198,347.415947712418,664.4126143790864
24,10885.0,7614.0,[13],1,181.70004593477424,163.7084979329358,283.6155718879191
48,8031.0,5068.0,[0],1,97.59236085170583,419.7990598929146,535.1153032000996
48,29837.5,16686.0,"[1,15]",2,175.67566820276767,113.53105152911553,142.72533724340173
48,12373.5,6841.0,[3],1,92.6642421303664,126.62130763324873,205.08665696852208
48,12349.5,5546.0,"[4,17]",2,341.24288432729725,141.22936151261194,NA
48,11754.75,6429.0,[6],1,194.9287522065561,391.5307216231727,552.1683574725087
48,9595.75,6607.0,[7],1,127.66537269103989,537.3589609983565,592.4114060912398
48,11607.0,7134.0,[8],1,223.63530628069344,501.2842896527957,560.3386749375368
48,8802.25,5800.0,[9],1,173.28677326820056,364.0973330682488,784.1926212048016
48,8681.0,4856.0,[10],1,358.37055062779973,348.65384172330374,657.4872998502509
48,7244.5,4348.0,[12],1,260.2163020222226,538.2198909517567,710.8562012561213
48,11619.5,6177.0,[13],1,182.87865226558947,162.22673092646028,286.58873015189886
48,6759.75,4037.0,[16],1,154.4814527164499,297.89078738119116,473.25925514996726
72,8150.5,4135.0,[0],1,103.63586589780404,430.52587264585014,512.175633396725
72,35041.75,20123.0,"[1,15]",2,175.9424793282328,117.69692937710022,136.40424993044041
72,14943.75,8757.0,[3],1,91.44374738603827,130.91636135508168,202.6616394813889
72,13310.75,7136.0,"[4,17]",2,345.308228311699,148.94059312961298,NA
72,7713.75,5548.0,[5],1,198.7401231567012,435.7194295900187,382.6360557446114
72,10861.375,4984.0,[6],1,203.3489659458421,397.0587402607859,535.5313208502596
72,7316.875,2519.0,[7],1,131.55636798497088,544.3539933373157,577.8207055607774
72,15039.5,9236.0,[8],1,228.53150038232707,512.5866800757993,539.6702350477051
72,10184.5,5844.0,[10],1,347.85177230103915,355.29147233541175,673.2007094113641
72,6751.25,3129.0,[12],1,276.50635067579856,533.583854841695,702.0872986483953
72,12295.75,6486.0,[13],1,189.27428176402577,168.94225647073264,282.76265172925616
72,7053.875,3674.0,[16],1,159.85965160993433,309.19510552710386,455.7031596108509
96,8251.25,4176.0,[0],1,105.55928647175355,437.2858127556451,514.2301772458709
96,33483.875,15963.0,"[1,15]",2,179.1617961630811,117.40042595129768,139.97301126288386
96,14874.875,7403.0,[3],1,93.58534105329333,131.6152026487618,204.27038462508122
96,8984.9375,5208.0,[4],1,394.92271092592046,153.61028526909558,201.6383182965945
96,10375.6875,4945.0,[6],1,206.85325068820924,403.66365481805406,534.2986910505927
96,11100.4375,7442.0,[7],1,138.16236972642315,552.5205706982257,580.3590117506626
96,18561.75,11042.0,[8],1,232.15816127250983,520.8406905329513,546.034843158646
96,6755.5625,3865.0,[9],1,207.03240847819905,349.83599626233774,786.8252088556644
96,8729.25,3637.0,[10],1,359.6067459976438,365.8854998997613,679.884905633362
96,7552.625,4177.0,[12],1,284.6481521325339,547.0151106403387,690.0255788550319
96,12764.875,6617.0,[13],1,194.41887405869736,165.88152057893257,283.9537745179652
96,7252.4375,4374.0,[17],1,377.06700333508485,149.8309620041541,705.6461448306181
120,7105.625,2980.0,[0],1,109.5159160876132,445.0466048025344,509.3906412173463
120,28592.9375,11851.0,"[1,15]",2,188.95206530458984,116.74377960466643,142.04267771543238
120,11463.4375,4026.0,[3],1,93.7314941526121,132.56877300111688,205.67235776790287
120,10572.46875,6080.0,[4],1,413.1058734507939,154.1377368696405,197.4117770506528
120,10598.84375,5411.0,[6],1,219.35009125405838,410.02764747333833,527.2219552250679
120,10305.21875,4755.0,[7],1,144.71030758081133,553.3870914918737,570.3689180542607
120,27662.875,18382.0,[8],1,247.64854972594006,528.3001258455611,543.0067238130507
120,11274.625,6910.0,[10],1,383.77636451322445,380.1450602569911,712.4411371775122
120,8965.3125,5189.0,[12],1,319.8031719474325,557.8842901460503,673.9676077939268
120,12200.4375,5818.0,[13],1,205.96526251620142,168.04089504987158,284.8940637374704
120,8494.21875,4868.0,[17],1,405.0716774276595,146.7698066699779,708.1782867023537
144,25068.46875,10772.0,"[1,15]",2,204.53687650447407,114.48133611571286,146.0124166189849
144,10152.0,7088.0,[2],1,NA,128.4974497020292,455.1276765046289
144,8267.71875,2536.0,[3],1,96.65635547895968,131.4249982046131,206.63113502439782
144,17255.234375,11969.0,[4],1,459.0664662443924,147.09891201492167,198.32937921916744
144,7693.421875,2394.0,[6],1,228.16422918117988,415.8511695259151,526.759695275387
144,8873.609375,3721.0,[7],1,152.3279457520669,553.9653942255037,561.8916749279371
144,30880.4375,17049.0,[8],1,263.5587153679392,534.907841635172,534.7201302604562
144,14486.3125,8849.0,[10],1,420.8185690371484,377.5474607495848,723.1558982401468
144,10480.65625,5998.0,[12],1,375.6022136018419,564.5343534666565,673.0496584481523
144,11074.21875,4974.0,[13],1,225.1598250440924,164.49008818342216,289.14022574955976
144,6606.3125,4123.0,[14],1,515.7583608480522,NA,481.8071068391042
168,22470.234375,9936.0,"[1,15]",2,221.13459368122426,114.56008226160318,149.69220148877463
168,14170.0,9094.0,[2],1,465.6952562632347,132.7117187500001,481.560415380205
168,6430.859375,2297.0,[3],1,102.15505314949348,133.0221065419421,207.94826580817525
168,19448.6171875,10821.0,[4],1,462.1797862396225,147.5592364174343,205.19468929145415
168,6840.484375,4470.0,[5],1,251.24251183783807,460.0523697380696,394.6901683680118
168,7978.7109375,4132.0,[6],1,250.98175026315008,423.45627867127,522.6789532691982
168,30436.21875,14996.0,[8],1,286.47340493799067,544.3829347539285,529.4887947028541
168,18133.15625,10890.0,[10],1,452.001600572845,401.41805153198055,710.3861559711886
168,7188.78125,4334.0,[11],1,356.06868449537035,134.0804041453479,654.6787061871592
168,7997.328125,2757.0,[12],1,NA,565.5181554777085,670.3690246156448
168,11708.109375,6171.0,[13],1,253.80200021619444,164.19265893431376,293.789965955755
