time_in_hour,cumulative_size,size,pcore_ids,pcore_power,SCA-1,CD11b,Ly6C
-1,0,0,[],0,0.0,0.0,0.0
0,38773,38773,"[0,3,6,7]",4,0.19997125301778296,0.48250917015187594,0.573719703807387
0,36043,36043,"[1,2]",2,0.18444149263660792,0.16194137394713193,0.1807574619946331
0,1979,1979,[8],1,0.24593739886788807,0.2438225805345265,0.42251772790244196
0,3636,3636,[4],1,0.24301862770546692,0.16451186973900978,0.7247994565603546
0,4400,4400,[5],1,0.16458886618999172,0.3807957116413009,0.7994270095160978
0,3476,3476,[10],1,0.37736452851656455,0.37613773047503435,0.6686566619081927
24,47540.5,28154.0,"[0,3,6,7]",4,0.21789629634531754,0.48250398647954423,0.5827584376598463
24,57641.5,39620.0,"[1,2]",2,0.20626828731289634,0.1575162487214712,0.18346320095756588
24,4155.5,3166.0,[8],1,0.2761679052670121,0.21501324908220126,0.42879442518421584
24,7971.0,6153.0,[4],1,0.30040060951285413,0.15873661934013153,0.7281057670357931
24,5888.0,3688.0,[5],1,0.19335803920371444,0.4003131032670173,0.8114618763314622
24,8106.0,6368.0,[10],1,0.3941576083189803,0.3867208302212878,0.7001572840267338
24,3698.0,2851.0,[9],1,0.45448693797436424,0.2854526967004298,0.48381160104601173
48,60021.25,36251.0,"[0,3,6,7]",4,0.2127285163283715,0.4986467650927175,0.57741661465202
48,62741.75,33921.0,"[1,2]",2,0.20403909140120516,0.15589210436294762,0.1751444432977783
48,4324.75,2247.0,[8],1,0.2615265804154419,0.2038010462247836,0.4358303858083138
48,7727.5,3742.0,[4],1,0.28884154431677295,0.16003387443621958,0.7270321048463856
48,8807.0,5863.0,[5],1,0.2005124881510257,0.41299589050667623,0.8098554551287008
48,9441.0,5388.0,[10],1,0.3823836148570166,0.39075610567367397,0.694785178564142
48,4437.0,2588.0,[9],1,0.44840988571587237,0.28836057749671906,0.4737575123744302
72,64559.625,34549.0,"[0,3,6,7]",4,0.2285836760125924,0.4997193218654372,0.5475333844048855
72,72722.875,41352.0,"[1,2]",2,0.20474091202815217,0.1625858494626315,0.1687473884856857
72,3681.375,1519.0,[8],1,0.2670599308163359,0.20637108558721082,0.4312335184507522
72,6681.75,2818.0,[4],1,0.30309126444116635,0.1688988900169931,0.7154078027082884
72,17366.0,8242.0,"[5,10]",2,0.32023518446867877,0.3968374370030785,0.7337641862590486
72,3738.5,1520.0,[9],1,0.4418222248603521,0.2805513075694576,0.4636421402769541
96,70104.8125,37825.0,"[0,3,6,7]",4,0.23287566020352923,0.51983087161383,0.559541774680424
96,71670.4375,35309.0,"[1,2]",2,0.21376730605718486,0.16227364107661185,0.1740002930738742
96,3521.6875,1681.0,[8],1,0.2760559717943572,0.2072447095153038,0.42889725267821327
96,8174.875,4834.0,[4],1,0.3271842111457217,0.17283239209865253,0.7245902069499647
96,15680.0,6997.0,"[5,10]",2,0.33410720555778056,0.3931356692316341,0.7463819426886852
96,5223.25,3354.0,[9],1,0.5080191500083076,0.24755086951333408,0.4421925049864324
120,78537.40625,43485.0,"[0,3,6,7]",4,0.2549902880539382,0.5358076752763293,0.5523772100698874
120,62744.21875,26909.0,"[1,2]",2,0.23243719659811554,0.1632743764148822,0.17517812011480532
120,4145.84375,2385.0,[8],1,0.2885658042358812,0.2071624947939769,0.42328046662639734
120,9487.4375,5400.0,[4],1,0.3721975711376435,0.16779265949414826,0.7283382377156175
120,15522.0,7682.0,"[5,10]",2,0.39147758654261755,0.41329029878989315,0.7584263415436785
120,6750.625,4139.0,[9],1,0.5477372829606929,0.2254057882188719,0.41762960061645626
144,71853.703125,32585.0,"[0,3,6,7]",4,0.2755841443229005,0.5562282355280275,0.5476398121166239
144,56889.109375,25517.0,"[1,2]",2,0.270906024495399,0.15964554802781894,0.17015461209463548
144,11713.71875,6970.0,[4],1,0.45059175518381983,0.15843980629560023,0.7138570230755236
144,4975.921875,2903.0,[8],1,0.3145010782436787,0.1950448269415731,0.41918338499952396
144,13801.3125,10426.0,[9],1,0.5927904046436769,0.19754936642137208,0.37505729781699376
144,15804.0625,9866.0,[10],1,0.4870677518780805,0.4645805561478132,0.7525432276622125
168,66802.8515625,30876.0,"[0,3,6,7]",4,0.3008697487130006,0.5617657688710502,0.5348006448379047
168,53395.5546875,24951.0,"[1,2]",2,0.3013788546772081,0.16083609053901207,0.1721914361751093
168,16076.859375,10220.0,[4],1,0.5061734585171874,0.15969380358199525,0.6793933546460361
168,3638.96875,1861.0,[5],1,0.3385734243953158,0.37474391423950815,0.7575119868233745
168,6748.9609375,4261.0,[8],1,0.35242463652754574,0.19094531357676556,0.417208308660626
168,14758.65625,7858.0,[9],1,0.5894991097754455,0.19949015991334176,0.370738906444587
168,17875.03125,9973.0,[10],1,0.5167513172611925,0.4888271670742983,0.7382709756776188
