time_in_hour,cumulative_size,size,pcore_ids,pcore_power,SCA-1,CD11b,Ly6C
-1,0,0,[],0,0.0,0.0,0.0
0,25810,25810,"[0,8,9,10,11]",5,NA,NA,NA
0,36285,36285,"[1,2,5,18]",4,NA,140.67697395618038,NA
0,4135,4135,[3],1,NA,NA,NA
0,6167,6167,"[8,9]",2,NA,NA,NA
0,3883,3883,[12],1,NA,NA,NA
0,6198,6198,[14],1,NA,NA,NA
24,4339.375,3944.0,[0],1,NA,NA,NA
24,38221.4375,36103.0,"[1,2,5]",3,NA,135.69165537010525,NA
24,15835.125,14582.0,"[3,9,10,11]",4,NA,NA,NA
24,4043.625,3856.0,[7],1,NA,NA,NA
24,5434.6875,5192.0,[12],1,NA,NA,NA
24,5612.375,5225.0,[14],1,NA,NA,NA
24,3615.5625,3496.0,[17],1,NA,NA,NA
24,4091.375,3942.0,[18],1,NA,NA,NA
48,10556.4375,10078.0,"[0,11]",2,NA,NA,NA
48,36691.55078125,34047.0,"[1,2,5,18]",4,NA,NA,NA
48,3682.33984375,3430.0,[3],1,NA,NA,NA
48,3718.578125,3539.0,[6],1,NA,NA,NA
48,4638.7265625,4386.0,[7],1,NA,NA,NA
48,9360.48046875,8991.0,[10],1,162.74614642761628,NA,NA
48,5431.66796875,5092.0,[12],1,NA,NA,NA
48,7284.7734375,6934.0,[14],1,205.43111756006573,NA,NA
72,12881.394775390625,12118.0,"[0,8,11]",3,NA,NA,NA
72,38948.677490234375,36809.0,"[1,2,5]",3,NA,142.48791190515448,NA
72,5796.92041015625,5507.0,[7],1,301.54538925865614,NA,NA
72,8991.030029296875,8406.0,[10],1,193.97381358194608,NA,505.8503020819454
72,2821.617431640625,2718.0,[8],1,NA,NA,NA
72,3607.479248046875,3268.0,[12],1,NA,NA,NA
72,6450.29833984375,5995.0,[14],1,235.4150717955975,NA,NA
96,16034.67546081543,14844.0,"[0,10,11]",3,NA,NA,NA
96,24346.486404418945,22417.0,"[1,2]",2,NA,137.95926617215056,NA
96,10261.805938720703,9757.0,[5],1,NA,148.4171347433082,NA
96,5286.203079223633,5031.0,"[3,9]",2,NA,NA,NA
96,3904.3075256347656,3542.0,[7],1,NA,NA,NA
96,13881.143646240234,13478.0,[14],1,224.51536918341037,NA,587.9617978552276
120,19441.655400276184,17920.0,"[1,2]",2,NA,NA,NA
120,6733.362871170044,6092.0,[5],1,NA,NA,NA
120,35066.19771003723,33242.0,"[3,10,11,14]",4,NA,NA,NA
120,5123.019220352173,4879.0,[7],1,NA,NA,NA
120,3916.45360660553,3703.0,[17],1,NA,NA,NA
120,4130.049001693726,3929.0,[18],1,NA,NA,NA
144,8722.929715454578,8186.0,[1],1,NA,NA,NA
144,14479.00892651081,13380.0,"[2,5]",2,NA,NA,NA
144,19076.48524993658,17487.0,"[3,11,14]",3,NA,NA,NA
144,5404.0423283576965,5192.0,[4],1,NA,NA,NA
144,5016.188701272011,4696.0,[7],1,NA,NA,NA
144,9993.152106940746,9391.0,[10],1,NA,NA,NA
144,5184.0259200930595,5055.0,[15],1,NA,NA,NA
144,4866.632557690144,4822.0,[16],1,NA,NA,NA
144,8051.778350412846,7807.0,[17],1,NA,NA,NA
168,4486.528940401971,4277.0,[0],1,NA,NA,465.81118509795607
168,9269.183107215911,8724.0,[1],1,NA,NA,NA
168,13923.938057906926,13019.0,"[2,5]",2,NA,NA,NA
168,3635.8940146826208,3365.0,[3],1,NA,NA,NA
168,4971.752645522356,4634.0,[4],1,NA,NA,NA
168,4437.511793829501,4124.0,[7],1,NA,NA,NA
168,21654.958320122212,20109.0,"[10,11,14]",3,NA,NA,NA
168,4042.3225693181157,3877.0,[13],1,NA,NA,NA
168,5834.001620005816,5510.0,[15],1,NA,NA,NA
168,5739.164534855634,5435.0,[16],1,NA,NA,NA
168,6431.236146900803,5928.0,[17],1,NA,NA,NA
