time_in_hour,cumulative_size,size,pcore_ids,pcore_power,SCA-1,CD11b,Ly6C
-1,0,0,[],0,0.0,0.0,0.0
0,6824,6824,[0],1,0.09911449345996667,0.4726738010110705,0.5541394580114223
0,29525,29525,"[1,3,15,18]",4,0.1601637157617364,0.1484560212412978,0.20935645870303626
0,9204,9204,[6],1,0.21728474185625304,0.4743771643648947,0.5715568373971235
24,9742.0,2918.0,[0],1,0.10184582451980695,0.4696034383938166,0.5575406741137394
24,43991.0,23401.0,"[1,15,18]",3,0.19976775126883953,0.14507818907014206,0.23256822272666722
24,15165.0,6230.0,[3],1,0.09946506036594355,0.1463483879437797,0.18579427338621965
24,7453.0,5054.0,[4],1,0.3918643725398225,0.1366005246755991,0.17238928913694332
24,6729.0,2426.0,[5],1,0.20972096292919717,0.46063536701075625,0.4392265833388747
24,16381.0,7177.0,[6],1,0.22166582413580002,0.46816509635791126,0.5776358454285041
24,8171.0,3049.0,[7],1,0.14196768786294528,0.584645316096939,0.6297110019436989
24,10276.0,5955.0,[8],1,0.40305478894860586,0.41655412426970473,0.6666606342020389
24,7713.0,3216.0,[9],1,0.17634505875823428,0.3995279169621938,0.8236851444225289
24,7183.0,4198.0,[12],1,0.2959542427735884,0.5930548372445513,0.7616512571286996
24,11761.0,6410.0,[13],1,0.273605775706987,0.19022232387817598,0.27379040878945843
24,7594.0,3770.0,[16],1,0.17719681120222283,0.3428319809518593,0.48809516128370334
24,8748.0,4375.0,[17],1,0.2563077017925125,0.5869152768208721,0.5806618986662399
48,14365.0,4623.0,[0],1,0.10442132680477836,0.4718674253818897,0.5547420612925662
48,54559.0,17875.0,"[1,15]",2,0.18798064398277806,0.13580837267041004,0.11859950473100948
48,7884.0,2824.0,[2],1,0.17945903807455474,0.15946309152392946,0.33649682647836726
48,21461.0,6296.0,[3],1,0.10087056269826941,0.1463274642564302,0.18654691282856423
48,10537.0,3084.0,[4],1,0.3949838610439578,0.13577773989265185,0.169357294995913
48,10025.0,3296.0,[5],1,0.20607425257082118,0.46911555951749684,0.4272576909619049
48,23230.0,6849.0,[6],1,0.22269938620633062,0.4676474483962282,0.5758383531778146
48,13982.0,5811.0,[7],1,0.14046293870611007,0.5949173662841255,0.6262369944940346
48,15824.0,5548.0,[8],1,0.4006696555367378,0.4115063492535543,0.6629871796892786
48,12779.0,5066.0,[9],1,0.18083389971785013,0.403533405874103,0.8229952014466938
48,7189.0,1653.0,[10],1,0.46493159805632794,0.18101026643898518,0.6056665699049609
48,6867.0,2240.0,[11],1,0.21864265343288192,0.1437330283795475,0.6217713391861865
48,11515.0,4332.0,[12],1,0.293521591280546,0.5897448341038546,0.7635103626817735
48,16055.0,4294.0,[13],1,0.2760953743976979,0.1901442439803219,0.2750668463570718
48,6352.0,2499.0,[14],1,0.43186256474117096,0.3798331590435035,0.42585748907451754
48,11809.0,4215.0,[16],1,0.178528088936169,0.3432642447339621,0.4894649262453388
48,15630.0,6882.0,[17],1,0.2509952770169715,0.5977234434302294,0.5756850725362507
48,9920.0,2613.0,[18],1,0.26779607647698206,0.18930265654648956,0.7900945874344393
72,17292.0,2927.0,[0],1,0.10544942520670024,0.476073862524244,0.5468018348018837
72,76253.0,21694.0,"[1,15]",2,0.18890788898046273,0.1372069004866094,0.11484158774343949
72,10011.0,2127.0,[2],1,0.1785154307789538,0.1620986146008623,0.3330732630631909
72,29363.0,7902.0,[3],1,0.10012214408793847,0.1489019178413192,0.18515430878383055
72,14474.0,3937.0,[4],1,0.3973012437644861,0.1402035761424611,0.16426859251193987
72,18889.0,8864.0,[5],1,0.20798419625952214,0.4770271979502055,0.42404430242510427
72,27742.0,4512.0,[6],1,0.22597505587196443,0.4691289258392877,0.5709183762762112
72,15721.0,1739.0,[7],1,0.14055478644824707,0.597345295122157,0.6208354223543644
72,22031.0,6207.0,[8],1,0.3978105417340842,0.41122972339880415,0.6692984445181969
72,13959.0,1180.0,[9],1,0.18739277386181713,0.40316210466398184,0.8193606602600576
72,8804.0,1615.0,[10],1,0.46309466075174843,0.17850663314289467,0.6041885698847148
72,8733.0,1866.0,[11],1,0.22685165528661183,0.1457076528256841,0.6185569061060908
72,14532.0,3017.0,[12],1,0.3026902272242251,0.5845254286685777,0.7610111806093223
72,21356.0,5301.0,[13],1,0.27913267013348897,0.19400743822245367,0.2744728665937206
72,8771.0,2419.0,[14],1,0.43384621691247177,0.3784807863841712,0.4274182306086145
72,14979.0,3170.0,[16],1,0.18108295433832292,0.3462286114587596,0.48266124913408887
72,24661.0,9031.0,[17],1,0.25368518458613304,0.6023729739062605,0.5652225920678118
72,12412.0,2492.0,[18],1,0.2798094993246805,0.19493031849195688,0.7845813592277593
96,20529.0,3237.0,[0],1,0.10629545159738966,0.4790272407932361,0.5444528414961012
96,93599.0,17346.0,"[1,15]",2,0.19043477488415772,0.13713441025180184,0.11567082681841105
96,12493.0,2482.0,[2],1,0.17832125316019837,0.1622324791475984,0.32911481654670893
96,35849.0,6486.0,[3],1,0.10059224694341345,0.14959970989427912,0.18499980212722275
96,19428.0,4954.0,[4],1,0.4145009635114844,0.14612382464269974,0.16488658024856087
96,21491.0,2602.0,[5],1,0.20823741738768328,0.47810753570209696,0.42557313316736317
96,33168.0,5426.0,[6],1,0.22772880453340805,0.4717151255748889,0.5692631331135108
96,21854.0,6133.0,[7],1,0.14181704323791774,0.6028673628816826,0.6163492772342398
96,25717.0,3686.0,[8],1,0.4023651123966799,0.41515678749746776,0.6721370514577337
96,16804.0,2845.0,[9],1,0.1951347191278716,0.40111315340777426,0.8224299920106005
96,12271.0,3467.0,[10],1,0.4869930840869886,0.17132943396323796,0.6118806558422002
96,10405.0,1672.0,[11],1,0.2298907720467155,0.14569439944683799,0.6192179963162296
96,18056.0,3524.0,[12],1,0.30931036027738784,0.5860002917018335,0.7606539984981122
96,26428.0,5072.0,[13],1,0.28217697266943664,0.19372159104528452,0.27576466951599854
96,11227.0,2456.0,[14],1,0.45244319722818743,0.3794677061237715,0.4154885920693494
96,17381.0,2402.0,[16],1,0.181645138789679,0.34759070144988746,0.4802798386328979
96,37147.0,12486.0,[17],1,0.25643829873599555,0.6080965838669364,0.5682113912923766
96,16136.0,3724.0,[18],1,0.2843840696774003,0.19706890469471033,0.7879986981481493
120,22441.0,1912.0,[0],1,0.10689348198447553,0.48129000308702813,0.5421426777209104
120,105359.0,11760.0,"[1,15]",2,0.19282130193492747,0.13697659615761476,0.11565918507368318
120,14371.0,1878.0,[2],1,0.17844574631025958,0.16373015540661193,0.3272723975948202
120,39248.0,3399.0,[3],1,0.10047668642387744,0.15017755177426148,0.18495192923169376
120,25904.0,6476.0,[4],1,0.4266819232290719,0.1486877496164052,0.16419912962853428
120,25536.0,4045.0,[5],1,0.21142141695531075,0.4795454239388062,0.42629249383202156
120,38323.0,5155.0,[6],1,0.2315762793311857,0.4739058913736695,0.5665256990646798
120,25307.0,3453.0,[7],1,0.1430243353195839,0.6042946463581066,0.6109421295357168
120,32082.0,6365.0,[8],1,0.4112746900673697,0.4206889528840267,0.6830233120612803
120,17114.0,310.0,[9],1,0.19710841902221013,0.4008959482247597,0.8224275804880337
120,16106.0,3835.0,[10],1,0.5027800373090064,0.16640836191003808,0.6149513509746243
120,11934.0,1529.0,[11],1,0.23696501168411263,0.14459608919949685,0.6166994751758262
120,22335.0,4279.0,[12],1,0.3293409094910716,0.5889721709833889,0.7608788627116032
120,32368.0,5940.0,[13],1,0.2868707892939072,0.19349193130805598,0.2772113938592597
120,14003.0,2776.0,[14],1,0.4631804420722001,0.3797566972558884,0.408434511408389
120,19921.0,2540.0,[16],1,0.18411963209734936,0.34829545028655273,0.47653711000322585
120,57806.0,20659.0,[17],1,0.26740428173739983,0.6104924522857965,0.5659237714474704
120,19825.0,3689.0,[18],1,0.30338387860067134,0.19766520401933202,0.789379228606663
144,23111.0,670.0,[0],1,0.1070067806613865,0.48274102496881377,0.5411778095429624
144,115166.0,9807.0,"[1,15]",2,0.19580194646243093,0.1364316788286641,0.11585993020165218
144,15557.0,1186.0,[2],1,0.17964845479436772,0.16288778356166272,0.32661963126331894
144,41082.0,1834.0,[3],1,0.10059059737472904,0.15010584173227384,0.1848848882711514
144,39121.0,13217.0,[4],1,0.45825435288785593,0.1482675111364078,0.16779025317430724
144,28590.0,3054.0,[5],1,0.2144313836455752,0.4844418435709098,0.4248132922954237
144,40378.0,2055.0,[6],1,0.23325551070474088,0.47516593194313816,0.5657502635726979
144,27629.0,2322.0,[7],1,0.14413877130405334,0.6054147234306392,0.6073657637253913
144,40710.0,8628.0,[8],1,0.43015635393119633,0.422892832094573,0.6928242241417488
144,17537.0,423.0,[9],1,0.19891651231137217,0.40071482995099916,0.8220311290935283
144,21234.0,5128.0,[10],1,0.5229658180171071,0.1611313836726467,0.6133283532964837
144,13533.0,1599.0,[11],1,0.2494518185675127,0.14287857768825904,0.613009739287795
144,27323.0,4988.0,[12],1,0.35663060343037023,0.5934815661742547,0.764466853553546
144,37879.0,5511.0,[13],1,0.29261278743580527,0.19085501356486437,0.27872543512865466
144,19358.0,5355.0,[14],1,0.49191119195849253,0.3629824492919538,0.4092184857764973
144,20429.0,508.0,[16],1,0.18514641831589096,0.34805198846728885,0.4757625437702098
144,77977.0,20171.0,[17],1,0.2786934003731699,0.6126950968312471,0.5607954809814073
144,23369.0,3544.0,[18],1,0.32505268431576706,0.19417363452258873,0.7855284555015087
168,23578.0,467.0,[0],1,0.10722278719164638,0.4835372647789988,0.5402793287540503
168,123933.0,8767.0,"[1,15]",2,0.1989716353626024,0.13621734857248294,0.11625973384534123
168,16437.0,880.0,[2],1,0.1803476399162497,0.16284334784919954,0.32588686803483796
168,42493.0,1411.0,[3],1,0.10072244549466508,0.15042163452420718,0.18480971345103478
168,52714.0,13593.0,[4],1,0.47194191424319487,0.1534504386944525,0.17488936601451407
168,34269.0,5679.0,[5],1,0.22388216690093593,0.48883140957310184,0.4228378892245282
168,42826.0,2448.0,[6],1,0.23623376432567295,0.47598920751191,0.5643731140991236
168,28472.0,843.0,[7],1,0.14465731757753453,0.6059410277176345,0.6056334563210924
168,54395.0,13685.0,[8],1,0.452065819003929,0.43865500763436743,0.6967153366112011
168,17632.0,95.0,[9],1,0.19940066834560474,0.40086559761765905,0.8217367870322871
168,33222.0,11988.0,[10],1,0.539997253748871,0.16319526449109226,0.6040242673335234
168,15092.0,1559.0,[11],1,0.25904869608721814,0.1429472388355945,0.6092456246085596
168,28339.0,1016.0,[12],1,0.3606607561501548,0.5940608125380519,0.7639700410500879
168,45101.0,7222.0,[13],1,0.3013444979545276,0.19086214339841084,0.2810697237859945
168,19437.0,79.0,[14],1,0.4919231420671643,0.3629734724811112,0.40922216519752447
168,20927.0,498.0,[16],1,0.18667824964577506,0.3479164373807965,0.47490614047793855
168,95804.0,17827.0,[17],1,0.29082004504514525,0.6154927854210506,0.5557928845817814
168,25312.0,1943.0,[18],1,0.3327976959899951,0.19393011416615633,0.7813952254483257
