time_in_hour,cumulative_size,size,pcore_ids,pcore_power,SCA-1,CD11b,Ly6C
-1,0,0,[],0,0.0,0.0,0.0
0,37394,37394,"[0,3,7]",3,0.19429740876533338,0.48718719120859943,0.570076121927065
0,37701,37701,"[1,8,9]",3,0.18518875158737502,0.1585040832720333,0.22591503453885028
0,4770,4770,[5],1,0.1710934445151126,0.38054417219234116,0.8053480130548688
0,6111,6111,"[6,10]",2,0.3926570064297349,0.3758482774553135,0.6294489217479596
24,36114.5,26766.0,"[0,3,7]",3,0.21580094583690812,0.4883083962026518,0.5802448618244965
24,50668.25,41243.0,"[1,8,9]",3,0.20907902401261397,0.1547469093662745,0.24134916792524372
24,3838.75,3231.0,[2],1,0.1920524368960826,0.21170702131013952,0.3840048329113731
24,5404.5,4212.0,[5],1,0.2154292459155461,0.4116686844254559,0.8227743069013049
24,4594.5,4196.0,[4],1,0.4240394291660355,0.18767742663001058,0.3002754455373073
24,8069.0,6982.0,[6],1,0.3898440905058967,0.4175463577997237,0.6801732813393175
24,3810.75,3370.0,[10],1,0.4724689984793127,0.17895618877651148,0.6299853289844812
48,43453.625,34425.0,"[0,3,7]",3,0.2066940569245012,0.509945583662948,0.5712963112038497
48,47933.0625,35266.0,"[1,8,9]",3,0.200623717698788,0.15331738042096316,0.22654374631758403
48,3763.6875,2804.0,[2],1,0.19042619905509886,0.21611241517480795,0.4020428997633043
48,8106.125,6755.0,[5],1,0.2224521147744957,0.42942889639412113,0.813262304985976
48,3821.625,2673.0,[4],1,0.42511195344941066,0.1890283962441056,0.28703775337235526
48,8403.25,6386.0,[6],1,0.3864869781856004,0.40794455670768404,0.6523264162231198
72,42855.40625,31992.0,"[0,3,7]",3,0.22607825977929905,0.5116408471210344,0.5274452609657395
72,53029.265625,41046.0,"[1,8,9]",3,0.2012562920019777,0.16197718853573198,0.2051956629032789
72,5799.53125,3773.0,[5],1,0.28776182390757427,0.432768232458518,0.7876892506228259
72,4397.40625,3442.0,[4],1,0.40804764092213225,0.19358116385002708,0.26074477256021866
72,8016.8125,5916.0,[6],1,0.3805947687536161,0.4064687840165081,0.6531478463420631
72,2229.921875,1569.0,[10],1,0.43852793754504377,0.17974963708799802,0.5853877012973131
96,46080.8515625,35367.0,"[0,3,7]",3,0.22652791560729751,0.5398123275280003,0.5573848288347846
96,49238.31640625,35981.0,"[1,8,9]",3,0.2069752703027704,0.16213728625570084,0.23443321085605026
96,6192.3515625,5093.0,[4],1,0.46745635717561934,0.19637883514035398,0.22831974697776866
96,11444.0859375,7990.0,"[5,6]",2,0.35666349395252817,0.423884352509934,0.7333258406447156
96,3825.48046875,3268.0,[10],1,0.533117722335749,0.16654250549471072,0.6243046833496477
120,52622.212890625,41102.0,"[0,3,7]",3,0.25734826535842253,0.5523382475965114,0.5473164467725248
120,39291.5791015625,26982.0,"[1,8,9]",3,0.23342937618338586,0.16189536540296776,0.25995029738040276
120,4349.4326171875,3574.0,[2],1,0.3003812917620523,0.2308719452530156,0.3929742158253911
120,7536.087890625,5988.0,[4],1,0.48801294824793373,0.18265690421399555,0.20300984246023948
120,12258.021484375,9397.0,"[5,6]",2,0.4221349997643861,0.44950851217106047,0.7378416322173559
120,3913.3701171875,2957.0,[10],1,0.572804512148517,0.16158297039862415,0.6195295181609725
144,44137.55322265625,30982.0,"[0,3,7]",3,0.28220551751106615,0.575381093313937,0.5407819695169981
144,32407.894775390625,22585.0,"[1,8,9]",3,0.2608254198588354,0.15674705994192067,0.26928816185159465
144,5632.358154296875,4545.0,[2],1,0.38166216408164483,0.21005359051122294,0.39260530583401676
144,14012.02197265625,12128.0,[4],1,0.5442588127655442,0.16876818147767206,0.18892888386687132
144,15726.50537109375,12662.0,"[5,6]",2,0.4769636198355927,0.4858112275154809,0.7409434720899226
144,8076.342529296875,7098.0,[10],1,0.6208738681221565,0.15777209750312463,0.6039549216681886
168,40324.38830566406,29290.0,"[0,3,7]",3,0.31108269020016854,0.5750134748950625,0.5206720735282642
168,25276.901306152344,18574.0,"[1,9]",2,0.26166816269121373,0.15612599932592303,0.18157152755185446
168,8434.089538574219,7026.0,[2],1,0.4454210765612807,0.20710170322462088,0.39394551579739023
168,19027.077880859375,14125.0,"[4,8]",2,0.5020815576129058,0.1696930897502691,0.3478665049587581
168,16999.626342773438,13068.0,"[5,6]",2,0.5084882440192643,0.4951607335806242,0.7237208306439169
168,9936.085632324219,7917.0,[10],1,0.6114707361954885,0.15818193195627758,0.6104382322629954
