time_in_hour,cumulative_size,size,pcore_ids,pcore_power,SCA-1,CD11b,Ly6C
-1,0,0,[],0,0.0,0.0,0.0
0,8444,8444,[0],1,0.10753969310035129,0.45190458940563416,0.5393783912668704
0,26621,26621,"[1,4,11,15]",4,0.1955731071482405,0.15200567170374302,0.21373270712732564
0,9110,9110,[3],1,0.09343307144883936,0.15739565690330878,0.16776346509746104
0,9058,9058,[5],1,0.23154241951369667,0.4295285585402854,0.49832040092037205
0,11737,11737,[7],1,0.1777836918302182,0.5490790426839844,0.5921703071758471
0,2243,2243,[11],1,0.16907081707384142,0.16606516401958446,0.7350609220271537
24,28223.625,26700.0,"[1,4,15]",3,0.2148025493225495,0.14473604866626677,0.16470039912798368
24,8492.375,7923.0,[3],1,0.10904899653043489,0.1469563643697145,0.18741366674041526
24,7526.5625,6793.0,[7],1,0.18911176474704794,0.5610849019827028,0.5900049425914984
48,27357.17578125,25414.0,"[1,4,11,15]",4,0.21318681371748371,0.14793204926814035,0.2112912793671314
48,8855.7734375,8325.0,[3],1,0.11512142973209079,0.14503313959433656,0.191670391704687
48,7183.875,6826.0,[6],1,0.23896614614033987,0.4611948388675828,0.5734785434439515
48,10161.41015625,9691.0,[7],1,0.1818736426003191,0.6021248704545658,0.5650430825436839
48,8856.37890625,8199.0,"[4,11]",2,0.23497612743687138,0.18908738615074225,0.4213609830187159
72,21833.2998046875,20677.0,"[1,15]",2,0.1996495631287988,0.13524303028140403,0.10270001745266452
72,10639.48583984375,10086.0,[3],1,0.11072450368539698,0.15372983176817612,0.1862174892428682
72,6716.9921875,6268.0,[6],1,0.25644329969070123,0.4864940152167425,0.5356371362017266
72,7648.088134765625,7013.0,[7],1,0.20939523446293082,0.6120209766733018,0.5321767919531355
96,8075.243591308594,7745.0,[0],1,0.14621086701848435,0.48361354846742555,0.5321139258352641
96,14419.55679321289,13682.0,"[1,11]",2,0.29827824883704285,0.14880661300565767,0.25630441884264743
96,19978.571212768555,18554.0,"[3,15]",2,0.14768820342885117,0.14857608476817818,0.13435982686381448
96,7758.81201171875,7339.0,[6],1,0.3060587569296416,0.4546101767471724,0.588589677364747
96,12598.005508422852,12120.0,[7],1,0.19989100884924416,0.6170749525642255,0.573010448232747
96,8646.065338134766,8386.0,[14],1,0.32860424878703354,0.6101213993513471,0.6648224223759256
120,17528.72382736206,16169.0,"[1,15]",2,0.25583959664059386,0.16149104054150762,0.15785865450886544
120,7815.43549156189,7127.0,[3],1,0.188272207541049,0.18119321432937663,0.23718651469788055
120,34150.75442790985,32823.0,"[7,14]",2,0.2878900159906438,0.5762295185100028,0.5714000337982236
144,6599.65616363287,6136.0,[1],1,0.3462050257331161,0.16329568227363966,0.2425355621477907
144,26849.422151744366,24715.0,"[7,14]",2,0.3160130009462645,0.5941786187797844,0.5579079637207223
144,7982.333139538765,7783.0,[13],1,0.5475356537641352,0.1612114353449104,0.16419038180156678
144,9008.889075577259,8377.0,[15],1,0.25380004599149947,0.15012412936005692,0.1056907618141513
168,14493.85186745599,13517.0,"[0,7]",2,0.29331723418286726,0.5467957029280993,0.5049768645878789
168,8740.502928275615,8164.0,"[1,4]",2,0.3804621868794563,0.1757823623600428,0.2868936360314693
168,12035.267105795443,11064.0,[14],1,0.37112377400160945,0.6287927358075714,0.5586573282145287
168,7094.895821221173,6596.0,[13],1,0.5206468499080924,0.16297486693438884,0.1767445333752173
168,8749.055567223579,8186.0,[15],1,0.2820720686995898,0.15686773342086127,0.12041844124362569
