time_in_hour,cumulative_size,size,pcore_ids,pcore_power,SCA-1,CD11b,Ly6C
-1,0,0,[],0,0.0,0.0,0.0
0,7089,7089,[0],1,93.31950909860679,414.18944844124684,544.2815629849077
0,20077,20077,"[1,3,15]",3,119.88912686158613,129.56014344772615,159.5636798326448
0,9292,9292,[4],1,196.64657770124913,114.49860094705102,218.8366336633662
0,9615,9615,[7],1,168.35267810712625,368.1314612584492,492.85158606343987
0,5887,5887,[8],1,124.90351622218733,520.5955495158847,601.3777815525734
0,10202,10202,[9],1,214.57537737698522,465.94657910213755,561.529307978828
24,4900.0625,4457.0,[0],1,109.98704098162251,409.9431002155587,559.2673052639641
24,6477.9375,6084.0,[1],1,104.64319276004464,113.95092959757623,133.44962227560825
24,7363.875,6938.0,[3],1,109.3044507816911,133.78796829115117,245.349501790838
24,19392.75,18377.0,"[4,15]",2,206.1170024880438,114.82099624859823,177.09631176599444
24,7272.9375,6672.0,[7],1,178.76881762011664,343.8268237558776,497.1555165983466
24,4616.9375,4249.0,[8],1,156.0535934263796,539.8088289044412,606.4159277659677
24,8705.625,8068.0,[9],1,224.0781822097788,458.13013855984167,568.5490846435474
24,5844.875,5588.0,[11],1,365.0750016039634,348.76568147308535,655.5263478688581
24,4658.4375,4378.0,[14],1,214.33168310189905,234.23795532300247,297.94095391426833
24,4597.75,4452.0,[16],1,372.56175575009166,133.5254744168342,705.8181719319234
48,7359.25390625,7053.0,[0],1,109.25495589365191,437.5883366446041,539.9689761349571
48,7616.87109375,7212.0,[1],1,109.22582168798198,118.76220909689056,121.60214911491208
48,7882.2421875,7422.0,[3],1,114.36549373741035,130.68234173532855,246.8594779404262
48,19063.0703125,17648.0,"[4,12,15]",3,207.83200174748802,121.60090886625113,NA
48,7547.55859375,7093.0,[7],1,168.7639634091128,335.91861606738496,493.90783340018174
48,8544.55859375,8256.0,[8],1,164.17613503111463,566.1054837988527,585.718205619716
48,8829.1015625,8285.0,[9],1,216.80374560336233,461.009684326956,549.1250056409666
48,6006.50390625,5751.0,[10],1,179.5301694452319,359.82182334903837,781.6705517781821
48,5600.3046875,5235.0,[11],1,351.74561372915787,345.09082025391984,632.7109050986323
48,3259.0234375,3056.0,[12],1,182.83133127974097,149.64398245256555,690.9285145809105
72,6504.953369140625,6045.0,[0],1,117.44452906962904,460.67897180517593,489.4927556145341
72,9178.054443359375,8702.0,[1],1,105.10009977573327,128.29715541682384,108.6759998607203
72,9530.64013671875,9038.0,[3],1,109.77563075117321,135.63604838239945,231.9259625013922
72,9891.1162109375,9330.0,[4],1,221.82801407078585,128.3515453616388,235.81628415374024
72,7912.722412109375,7441.0,[7],1,180.10864904289988,359.4529406833468,453.33327870085037
72,6334.034912109375,5800.0,[8],1,207.93266947800714,571.4218728674175,562.4233241355195
72,10114.81884765625,9563.0,[9],1,227.9339282087718,471.5915237442916,504.621348608208
72,4607.01904296875,4257.0,[11],1,350.0403727540766,353.6767144753547,643.7203401632717
72,8507.63671875,8081.0,[15],1,211.2779873780685,121.35914737104312,99.95886743527784
96,7597.559585571289,7191.0,[0],1,113.90923484295627,483.5082121415577,538.0485570164051
96,6236.628402709961,5663.0,[1],1,107.86716137628349,126.68445854344526,107.05089306313488
96,9409.665008544922,8814.0,[3],1,115.25569731171193,134.52016057630465,231.5092172204815
96,9500.194763183594,8882.0,[4],1,223.53056643170862,126.06207378297505,241.16636016938847
96,5622.545150756836,5128.0,[7],1,168.9222289065466,355.81318692851085,469.0334544140076
96,11489.877182006836,11094.0,[8],1,209.89796157410967,575.9035345591134,587.822520090162
96,9965.176177978516,9333.0,[9],1,230.00570773968911,473.90671702161137,535.0343536596706
96,4822.025405883789,4613.0,[10],1,245.5607757736327,327.14521291225833,791.7053916659751
96,6708.727294921875,6177.0,[15],1,212.2717484407243,119.36794207625542,107.6756926357117
120,7271.847474098206,6797.0,[0],1,134.87583670245945,507.11523672304133,528.7711289239148
120,5881.104063034058,5293.0,[3],1,118.926197594951,138.47244399460354,236.0642655523712
120,7689.762172698975,7096.0,[4],1,243.7036351322382,120.18744794287105,246.53343229868636
120,4608.39901638031,4349.0,[5],1,456.3937044703375,144.07749307237862,199.55218576785313
120,6497.409071922302,6146.0,[7],1,187.25768844459435,361.6469204548742,459.1511136043515
120,12954.117323875427,12236.0,[8],1,257.3702460072431,574.4110632172267,575.3509365940424
120,13829.823511123657,13207.0,[9],1,250.91744371732395,486.84194993703437,525.9914538220357
120,4531.376587867737,4230.0,[10],1,354.6448275827327,311.9018868987491,783.9985047917799
120,5629.295455932617,5210.0,[15],1,238.36421272398132,120.23288544631379,108.20358131933227
144,7133.490467131138,6679.0,[0],1,161.2127733718149,526.1511258929348,524.6293458488598
144,5304.895333707333,5061.0,[2],1,393.72851852440135,148.19427036430704,404.13831136244664
144,7236.610135793686,6756.0,[4],1,273.4436980910095,113.86260835041456,251.3127600144372
144,9244.02493852377,8956.0,[5],1,502.6036601557132,132.36040785500407,196.02835540677927
144,11261.632332742214,10452.0,[8],1,294.52766478707997,571.7051115535545,570.871569146192
144,11163.363969445229,10299.0,[9],1,272.24463933746983,506.5429789638093,499.7787473552332
144,5688.211036741734,5405.0,[10],1,368.75483622989344,344.3828022724668,762.4631015501789
144,4673.090402662754,4415.0,[13],1,496.0119478466159,532.7044946786962,756.8089339346391
144,5034.830965995789,4683.0,[15],1,273.6548496914602,116.72222090475043,108.93521038621594
144,5873.667546987534,5700.0,[16],1,575.9561837753542,134.12498230123302,614.20912345265
168,5241.843154195696,4796.0,[0],1,181.1741754647084,526.5809747364038,505.86679615059035
168,6502.555958356708,6171.0,[2],1,425.04056158713587,146.97692714283681,423.46632351447244
168,4501.223062746227,4223.0,[3],1,158.59580586170367,135.5340126761688,234.34720785445975
168,6786.288133487105,6334.0,[4],1,297.1670669083594,108.97425692191723,258.29772397944316
168,7567.751558657736,6990.0,[5],1,492.51049260173494,133.29407342776457,206.00037881712407
168,8715.852020796388,8012.0,[8],1,327.1343851682627,593.4332966788907,556.4223779829189
168,11023.710248090327,10326.0,[9],1,294.8749379018281,500.00064438160376,491.36158624505
168,5512.513189796358,5157.0,[10],1,394.38294897961333,368.26118299444585,725.8273225976518
168,5099.024643234909,4830.0,[11],1,428.8624605061654,432.54434500361015,619.0998208071292
168,5165.574595473707,4905.0,[12],1,365.8749451768177,144.52671934531526,638.5476839964422
168,4584.068150166422,4292.0,[13],1,533.3730241290694,530.580902523852,731.95198575787
168,4752.676935374737,4438.0,[15],1,303.67409547847353,123.52655119364827,112.61177762265416
168,6892.104221686721,6525.0,[16],1,559.5106838977563,138.78676474836382,625.3551344531462
