time_in_hour,cumulative_size,size,pcore_ids,pcore_power,SCA-1,CD11b,Ly6C
-1,0,0,[],0,0.0,0.0,0.0
0,33843,33843,"[0,7]",2,0.18622900790730265,0.5042548082354733,0.5756688802815167
0,37484,37484,"[1,2,4,8]",4,0.1850460840820198,0.15118888131334257,0.2083359278578013
24,24859.1875,22744.0,"[0,7]",2,0.20392954326480045,0.5074149661543325,0.5856287348064801
24,45748.75,43406.0,"[1,2,4,8]",4,0.22534059228609224,0.14582622333844664,0.23635701067933515
48,16410.27734375,15540.0,[0],1,0.1744395984400429,0.4556822156878625,0.5388772070220591
48,39757.296875,36898.0,"[1,2,4,8]",4,0.21161714766841452,0.14702406674144772,0.2246548073120547
48,7213.1328125,6822.0,[6],1,0.40601866384938295,0.3917497362507113,0.5810567166355419
48,14937.421875,14254.0,[7],1,0.208629270662235,0.6130884862704532,0.6075491182119496
72,28162.231201171875,26203.0,"[0,7]",2,0.2143369131283718,0.5396298547706847,0.5249319105718674
72,42122.04150390625,39880.0,"[1,2,4]",3,0.20642654794223098,0.15124161425359833,0.1535923300155738
72,3894.78955078125,3652.0,[8],1,0.319652488703719,0.22316837913795942,0.74294388572882
96,33149.13945007324,31389.0,"[0,7]",2,0.21399101244446614,0.5688575507022863,0.5669212032471367
96,34719.072326660156,32432.0,"[1,2,8]",3,0.1944618648773155,0.1513769533407225,0.23696333695437016
96,8245.979614257812,7657.0,[4],1,0.4347382012453658,0.18573783904421484,0.2153107308951446
120,37156.82121562958,35085.0,"[0,7]",2,0.2519514246538109,0.5820024738042308,0.5557073551079492
120,22402.91549873352,20519.0,"[1,2]",2,0.20377104789212172,0.14639751978852414,0.16089183680124877
120,12963.400247573853,12162.0,"[4,8]",2,0.4362351333587242,0.18035946217322277,0.40268526889216993
144,29710.30132597685,27388.0,"[0,7]",2,0.2780401475946961,0.6022688711635247,0.545093415930122
144,19221.182218670845,17821.0,"[1,2]",2,0.23858157716596953,0.14025981428918147,0.16302370819959527
144,12611.585857868195,12091.0,[4],1,0.5461773736151186,0.16592789754880471,0.183911227547888
144,6301.970230996609,6158.0,[5],1,0.41747088641305097,0.40571539253591765,0.7743999671110163
168,26086.893832873553,24230.0,"[0,7]",2,0.30950231209718115,0.6027352173402265,0.5267393080380336
168,18652.323888666928,17451.0,"[1,2]",2,0.261147038319623,0.14644911058325769,0.17264734080313973
168,7266.813891727477,6885.0,[3],1,0.6296579102320805,0.1598010899273448,0.6385133320010061
168,10697.224116116762,9909.0,[4],1,0.5335206489918274,0.1658131903958082,0.18165225155393333
168,12652.157933760434,11893.0,"[5,9]",2,0.5034873399398176,0.5035717015613201,0.7430196562094713
168,7980.267708968371,7636.0,[10],1,0.4747111242737373,0.18625701609928508,0.41067650194207667
