time_in_hour,cumulative_size,size,pcore_ids,pcore_power,SCA-1,CD11b,Ly6C
-1,0,0,[],0,0.0,0.0,0.0
0,40576,40576,"[0,5,7,8,9]",5,0.20919309693226706,0.47386430647544103,0.5774213519089033
0,36959,36959,"[1,2,4]",3,0.18729515336004263,0.16660013621551348,0.1893511867812821
0,4586,4586,[5],1,0.2343147439446887,0.5260037927747845,0.639348039982242
0,3162,3162,[8],1,0.23399427186604976,0.38905011720058075,0.5529463886998871
24,49271.0,28983.0,"[0,5,7,8,9]",5,0.22933032148044458,0.47515270379692603,0.5888874376380909
24,60672.5,42193.0,"[1,2,4]",3,0.2139531496462203,0.16294599799494677,0.19690843561965718
24,3886.5,2856.0,[12],1,0.24522627302518007,0.30045964887157206,0.46876788105248185
24,4437.0,2856.0,[8],1,0.2592471884789039,0.38781171697888067,0.5672952641108161
24,7125.0,5709.0,[10],1,0.36036309875812583,0.3824209732475987,0.7112965263939374
48,44024.5,24637.0,"[0,7,8,9]",4,0.21927113873391132,0.4605775995050869,0.559553547337646
48,65951.25,35615.0,"[1,2,4]",3,0.21116363827640322,0.1607392157977643,0.18893307126150918
48,7401.5,5389.0,[3],1,0.20954251605543228,0.4340692145990942,0.799737555455486
48,16952.0,11704.0,[5],1,0.23376193389398292,0.5797615746029766,0.6417993823251469
48,5045.25,3102.0,[12],1,0.23215183488307367,0.30526753245122557,0.47124172122028307
48,4930.5,2712.0,[8],1,0.2876786204649096,0.39175019192109595,0.5644094336669483
48,8204.5,4642.0,[10],1,0.36127875152098,0.3872749517495237,0.699377928430555
72,74484.625,41509.0,"[1,2,4]",3,0.20917761042345095,0.15882487386912988,0.17252102479273904
72,6387.75,2687.0,[3],1,0.245866209858318,0.43959164892643815,0.7922990867036628
72,37326.125,18989.0,"[5,9]",2,0.22575428293908698,0.5605573074273529,0.5776115590028124
72,7232.0,4120.0,[6],1,0.28180346633563563,0.18446214880821282,0.7180122994868142
72,25129.75,14538.0,"[7,8,12]",3,0.233070487764012,0.411270635492294,0.47876540243884835
72,10835.25,6733.0,[10],1,0.38540247460107324,0.39945692431095486,0.6923398784662519
96,73839.3125,36597.0,"[1,2,4]",3,0.22153230051883446,0.16033026309510842,0.1824894104827243
96,6968.875,3775.0,[3],1,0.2735817405603031,0.40917776488557356,0.7921934165671962
96,51587.0625,32924.0,"[5,9]",2,0.23615075185771153,0.5500534003127528,0.577502976465631
96,7163.0,3547.0,[6],1,0.3048489173452205,0.19097612210940695,0.7188000204123731
96,20044.875,7480.0,"[7,8,12]",3,0.24814975191549032,0.398373721784145,0.4840635170882103
96,8857.625,3440.0,[10],1,0.4160003466194004,0.38231271999525285,0.6841836345184568
120,57714.4375,23321.0,"[1,2]",2,0.2184091219945912,0.16334098115139226,0.1784398995217127
120,9681.21875,7155.0,[4],1,0.4254246292567125,0.19266177899408388,0.2576933225423236
120,63163.53125,37370.0,"[5,9]",2,0.26629597885286854,0.5601728077395729,0.5703252979332757
120,7880.5,4299.0,[6],1,0.34822272780415614,0.18467130871177842,0.7293929804248864
120,17850.4375,7828.0,"[7,8,12]",3,0.25971812921370124,0.39473431691020683,0.48016925706382224
120,8812.8125,4384.0,[10],1,0.4402356797451943,0.39493572802607463,0.7128409100152762
144,47824.21875,18967.0,"[1,2]",2,0.23126125398875141,0.16209489881188005,0.1807508011031982
144,18926.609375,14086.0,[4],1,0.5053311000865124,0.177820509788487,0.22139024333653493
144,61696.765625,30115.0,"[5,9]",2,0.28525612580811377,0.574369027236282,0.5595591565392618
144,7719.25,3779.0,[6],1,0.3768082052092837,0.18125846483720184,0.7277410904845313
144,6993.234375,1063.0,[7],1,0.2388670550687525,0.4254546175937431,0.4630304172199349
144,12094.40625,7688.0,[10],1,0.4940052305032699,0.4595780949064214,0.7343675301908781
144,9273.1875,7342.0,[11],1,0.5915748928494579,0.1599632968029783,0.5943026193939078
168,42296.109375,18384.0,"[1,2]",2,0.25089046306624674,0.16490815255301577,0.18681367191846623
168,21482.3046875,12019.0,[4],1,0.5121087558120789,0.1763698450842898,0.21818562609169448
168,56224.3828125,25376.0,"[5,9]",2,0.30687084523351316,0.5808054712870924,0.5455937943643863
168,7841.625,3982.0,[6],1,0.4106988327291097,0.18605928275858202,0.7074032206153743
168,14146.203125,8099.0,[10],1,0.5229414070727293,0.4899808834940884,0.7252532711794225
168,13985.59375,9349.0,[11],1,0.5851195367544566,0.16124247138339287,0.5968356586867454
