time_in_hour,cumulative_size,size,pcore_ids,pcore_power,SCA-1,CD11b,Ly6C
-1,0,0,[],0,0.0,0.0,0.0
0,5702,5702,[0],1,83.07821816906605,405.8553139249391,530.8909154682592
0,18036,18036,"[1,4]",2,112.07978487469924,130.47582612552665,160.72943002883204
0,8634,8634,[5],1,190.3457261987507,105.62277044243707,199.19515867500544
0,4957,4957,[6],1,153.60722211014837,353.10389348396234,779.149082106114
0,3482,3482,[8],1,159.34951177484297,357.93509477311864,409.54566341183266
0,6104,6104,[9],1,192.71739842726072,359.9177588466578,524.6757863695942
0,4639,4639,[10],1,108.23970683337119,514.8557878853225,601.2345333045914
0,13244,13244,"[11,12]",2,196.87526427061377,461.0538356991845,555.8084415584417
0,4239,4239,[14],1,188.79948100967277,149.5885822127858,709.8709601321083
0,3214,3214,[15],1,234.04044803982507,552.3550093341628,680.4968886123212
0,4337,4337,[16],1,358.283606179381,358.3995849665674,639.2997463684587
0,5815,5815,[17],1,203.35030094583016,182.35528804815146,284.6161650902842
24,4149.5,2724.0,[0],1,87.94071574888729,393.13260633811274,536.0024099289056
24,21586.0,17077.0,"[1,4]",2,124.79003752432597,126.1713379041972,155.66797924580803
24,2782.75,2454.0,[2],1,190.24283532476952,156.00395292426572,471.27931003503807
24,3878.75,3520.0,[3],1,411.4524009023491,117.9871092491138,606.4656783757648
24,11942.5,9784.0,[5],1,200.20383085618744,104.34881724931998,200.6823320075361
24,5172.25,3933.0,[6],1,183.21615351152965,363.59089371163424,790.4885688046792
24,5419.5,4769.0,[7],1,369.5270320140194,131.5821108958394,210.32027862348963
24,3186.5,2316.0,[8],1,176.6677388984785,368.70751608347757,371.78832574925434
24,7073.0,5547.0,[9],1,198.07263537395806,348.22868655450475,531.3771030680044
24,4141.75,2982.0,[10],1,121.11667773284408,521.3057282549651,604.8278505462649
24,13292.0,9981.0,"[11,12]",2,206.19553114655537,463.63415964489934,563.8714076136021
24,3207.0,2649.0,[13],1,393.24446523229926,328.5748362956036,442.1615996258182
24,6031.75,4972.0,[14],1,229.34724582417925,147.84092510465456,720.9530816098139
24,4712.5,3909.0,[15],1,266.8158090185658,546.9381962864732,711.2473740053044
24,7115.25,6031.0,[16],1,364.6509960999188,356.0109272337589,665.1635220125792
24,8805.75,7352.0,[17],1,223.06089770888303,164.24325014905074,296.12772904068294
48,5464.375,4427.0,[0],1,92.96095161844089,395.023207137138,523.5093674939951
48,22814.5,17418.0,"[1,4]",2,128.02653739946592,125.01674921650681,153.21314295733052
48,2941.6875,2246.0,[2],1,187.094503580004,157.43514564344454,481.3740837529492
48,10849.625,7864.0,[5],1,203.5731707317082,105.86545041879317,196.4187875156975
48,5042.9375,3535.0,[14],1,218.27403423104164,152.9207679056104,718.8544746985249
48,7267.0625,5974.0,[6],1,183.00364659035398,369.13673853775106,784.1410645635699
48,4071.875,2717.0,[7],1,373.939999999996,128.2780813507294,204.32151957022268
48,3017.625,2221.0,[8],1,174.7914129489259,385.4530052607594,334.41394308437924
48,7239.25,5471.0,[9],1,196.3170131574413,344.0850053527649,519.4167299789326
48,7339.4375,6304.0,[10],1,123.46296974393837,544.6062453696239,588.6925854331481
48,7427.5625,5848.0,[11],1,232.69591302664963,518.3747780648096,551.1621914995675
48,8571.4375,6828.0,[12],1,176.58360251708237,440.70732009654046,554.238779959604
48,3710.75,2909.0,[13],1,383.15023916997364,326.6064474836624,459.97037323991105
48,5394.125,4216.0,[15],1,255.0785113433574,540.4873936922118,709.8490139735345
48,6967.8125,5189.0,[16],1,355.54641431582036,352.94601964389904,647.7805175584153
48,7582.4375,5381.0,[17],1,225.21182996892466,159.43965908060585,298.990487887304
72,5282.09375,3916.0,[0],1,99.49357203287398,410.72230767865454,485.26909901968327
72,12383.5625,9773.0,[1],1,100.77295633829846,135.865913484104,218.84840665802054
72,26883.46875,21078.0,"[4,5]",2,174.26227026135106,120.30061166771813,134.05066775469635
72,3733.765625,1917.0,[6],1,214.8929030260166,366.52593519444594,763.4674528479562
72,4386.96875,3369.0,[7],1,376.4196483904709,139.48038224001496,189.56276400988764
72,4453.40625,3699.0,[8],1,184.53262250103597,395.2696110421095,334.93373050123137
72,7023.8125,5214.0,[9],1,205.02639903542502,354.76307827835575,486.1924902786055
72,4617.859375,2783.0,[10],1,129.97758025059417,549.1000632733673,561.5771072229777
72,9383.890625,7527.0,[11],1,238.8959919676166,530.3850465142262,527.3315838812847
72,8934.859375,6792.0,[12],1,190.68915990913573,449.8179147335489,518.1138920415282
72,3620.6875,2693.0,[13],1,391.1477274688798,328.31187964992813,464.41366884742246
72,4292.734375,3032.0,[14],1,257.79665859828305,165.41798460334533,704.7169199410324
72,4497.53125,3149.0,[15],1,282.9370765906254,531.5845533313422,695.2388775786718
72,7687.953125,5946.0,[16],1,347.6091937670284,358.1542937509775,667.159153220646
72,7917.609375,6022.0,[17],1,236.83470192036214,169.5997174020724,295.8634432347199
96,4648.5234375,3328.0,[0],1,97.81140180602034,414.7588926927395,495.00669399389346
96,11925.890625,8830.0,[1],1,105.02981204234628,135.42451952618836,221.43274775075926
96,3633.35546875,3101.0,[3],1,485.89569085910955,132.10780109209466,616.2349014502136
96,23301.8671875,16581.0,"[4,5]",2,179.6403927863912,119.57301151765259,140.45002093783472
96,5172.18359375,4099.0,[14],1,253.50224344619795,159.8989773268817,726.5068164361805
96,5180.44140625,4247.0,[6],1,236.09859424683938,355.72904697883286,791.184922556522
96,5579.7421875,4483.0,[7],1,427.20868249680893,153.70585068474517,199.57919972781002
96,5115.953125,3360.0,[9],1,201.47677684082672,351.003868108643,483.7622945687657
96,8612.46484375,7458.0,[10],1,134.39643213348037,550.2653194792623,576.459830886465
96,10964.97265625,8619.0,[11],1,242.0537239854306,543.3618489700717,547.6149065579189
96,9727.71484375,7494.0,[12],1,197.3565465135669,454.02461154201035,532.0606920063689
96,3111.171875,2206.0,[13],1,445.73330487406434,340.1408608090802,421.31911834869305
96,5166.3828125,4042.0,[15],1,288.4191203044895,553.253724877021,680.3860209557859
96,5333.98828125,3412.0,[16],1,369.15469120856835,377.0142057750231,665.1522064062945
96,8262.40234375,6283.0,[17],1,243.04664436748652,163.94663703948896,299.80624156393594
120,3676.130859375,2514.0,[0],1,103.38931419381632,421.7959500663859,487.2991803648845
120,8103.47265625,5122.0,[1],1,107.30529361689237,137.61760534763027,225.01707107147908
120,3722.3388671875,2814.0,[3],1,521.2349038152539,133.8944862822777,614.5426824165235
120,18085.466796875,12260.0,"[4,5]",2,195.47812524062587,119.22449293766691,142.06721686817139
120,3981.1103515625,2686.0,[6],1,309.9986246083445,341.3222068964849,789.816283783502
120,6587.935546875,5193.0,[7],1,439.95217568928365,148.4382699139621,196.30111905551718
120,5243.98828125,3965.0,[9],1,217.02001901731268,352.3556375194503,476.1092458179422
120,7425.1162109375,5272.0,[10],1,144.05756170430783,548.1300311087816,559.4724565679786
120,17553.2431640625,14812.0,[11],1,260.8655319938689,545.275586092112,545.9034851610238
120,11145.9287109375,8714.0,[12],1,217.48040155497546,462.48541704943943,523.5365149182556
120,3053.79296875,2276.0,[13],1,465.29422426771777,339.1383045674494,401.1067745541857
120,5334.0458984375,4041.0,[14],1,318.09475742040524,153.2963405951199,728.3103169992742
120,5693.595703125,4402.0,[15],1,328.5781067063736,567.9105616885197,662.5922980555521
120,7041.4970703125,5708.0,[16],1,404.21357430067116,415.23504301300943,695.6697517076849
120,8489.6005859375,6424.0,[17],1,263.3485837624617,161.85888318555257,302.839800555619
144,5526.8681640625,3501.0,[1],1,117.25978600102744,133.27586322356711,226.44993213197014
144,3175.334716796875,2540.0,[2],1,322.6384196394114,128.39161348870465,506.4495272282676
144,7259.584716796875,6329.0,[3],1,560.0764222702795,130.5076253749797,604.5931274720028
144,15432.36669921875,10911.0,"[4,5]",2,218.72589938259733,116.37966405959773,144.70405135665231
144,4772.277587890625,3777.0,[6],1,339.1113893827139,345.53613288498974,766.9464691425402
144,12194.98388671875,10548.0,[7],1,486.0771608515912,135.4645036079017,199.85362856310152
144,6352.279052734375,4496.0,[10],1,158.64479910496252,550.3127721407507,548.5557187871066
144,17814.310791015625,13426.0,[11],1,281.4100465554326,548.6526452347883,533.0531877536498
144,9084.482177734375,6298.0,[12],1,231.08815911211437,475.87537599732184,510.38133792334867
144,4423.4482421875,3660.0,[13],1,507.5800449530867,313.3809794041918,386.13637335523964
144,4579.511474609375,3246.0,[14],1,345.2267818955582,150.9838839869264,718.3622495618982
144,5752.39892578125,4329.0,[15],1,360.50641669282743,570.7864363738178,640.9155924078203
144,9118.374267578125,7358.0,[16],1,460.75430241366547,450.58252317252806,715.8597506628105
144,8195.400146484375,6073.0,[17],1,291.21702785649677,151.53540952061456,303.5157762403575
168,4888.717041015625,3507.0,[1],1,132.79390872837374,135.69521938096344,228.54988758593754
168,5302.833679199219,4509.0,[2],1,381.3410651828568,127.77217387975473,491.38834992121065
168,8679.896179199219,6865.0,[3],1,556.3438155412912,135.29352960046012,614.744191273419
168,13908.091674804688,10050.0,"[4,5]",2,239.95625348932185,118.66533897060152,147.34325483070916
168,5531.069396972656,4338.0,[6],1,371.62911424731294,356.8376102410916,715.763820214777
168,11471.745971679688,8423.0,[7],1,482.0497943140988,133.7845924647393,203.12103761360964
168,2823.499267578125,2208.0,[9],1,281.08309125344863,366.98001448847657,488.5741329719809
168,3987.0697631835938,2399.0,[10],1,173.97438463456157,557.0135978652049,536.6549565259567
168,14385.577697753906,9932.0,[11],1,300.61152899951514,554.7230255394816,519.5984440627185
168,9769.120544433594,7498.0,[12],1,253.50112678729698,478.3371565294291,489.90751217418915
168,5325.862060546875,4220.0,[13],1,518.8434253440972,300.73781810557256,389.25333437529054
168,4721.877868652344,3577.0,[14],1,369.41711555875634,152.36906318060832,684.0157943603388
168,6118.0997314453125,4680.0,[15],1,378.5108583843182,575.3887604624251,612.7434507242314
168,9784.593566894531,7505.0,[16],1,493.8722810164583,469.8870719306137,709.8226650832657
168,8953.850036621094,6905.0,[17],1,316.0809044839023,152.66174034131313,300.8841222766107
