time_in_hour,cumulative_size,size,pcore_ids,pcore_power,SCA-1,CD11b,Ly6C
-1,0,0,[],0,0.0,0.0,0.0
0,4393,4393,[0],1,0.09892551224240952,0.4250661531663399,0.5282244429156129
0,27731,27731,"[1,4,7,14]",4,0.1495589854213405,0.14824332048472777,0.1913497385276097
0,6232,6232,[5],1,0.2636863380017589,0.1338304997124752,0.2206749201620486
0,3942,3942,[8],1,0.21781021440094978,0.3442004655743573,0.5004875821912169
0,6383,6383,[10],1,0.11112083184442176,0.5426346354109451,0.6181008015793632
0,3832,3832,[11],1,0.3924972437897249,0.4259454203232616,0.6474199217932693
0,14464,14464,[12],1,0.2075262410510107,0.4753293713460535,0.5400703782495974
0,4035,4035,[16],1,0.24750344597134674,0.26663807072729023,0.30259422701694316
0,7648,7648,[17],1,0.25230522189835997,0.5927717180370697,0.6486995158930589
24,5036.5,2840.0,[0],1,0.1075907671749077,0.421803751168506,0.53156102987169
24,40205.5,26340.0,"[1,4,7,14]",4,0.16094035991219094,0.14340622281535387,0.18851448290199754
24,12217.0,9101.0,[5],1,0.26878677069068274,0.12913705662719846,0.22844992364321862
24,5706.0,3735.0,[8],1,0.21789590693021865,0.3494685081830195,0.4997486332911002
24,6858.5,3667.0,[10],1,0.12172077132206655,0.5458910517285935,0.6172214407917751
24,7156.0,5240.0,[11],1,0.4074630544965723,0.42123789738193873,0.672090858388493
24,15577.0,8345.0,[12],1,0.21869852050668284,0.47982330225239395,0.5461793507159529
24,3974.5,2900.0,[13],1,0.44900708307595255,0.3467492709461724,0.5058160304233477
24,5539.0,4304.0,[15],1,0.30138730270137354,0.4377884217139013,0.8306383646875717
24,6225.5,4208.0,[16],1,0.2555540415056226,0.2760419032653254,0.30084425379559177
24,10464.0,6640.0,[17],1,0.2621598825722433,0.6026150205142041,0.6537760390061479
24,3982.5,3445.0,[18],1,0.4648982557114305,0.1618638386833808,0.22166563906400125
24,5791.5,4771.0,[19],1,0.3630404690329748,0.14464900777117956,0.718826569234883
48,7089.25,4571.0,[0],1,0.11360482896045557,0.4277449030995725,0.5252513431791108
48,46838.75,26736.0,"[1,4,7,14]",4,0.16603452137818442,0.14605012189818972,0.19461747968540283
48,13577.5,7469.0,[5],1,0.2713918019525847,0.13512840230918427,0.23349768855604447
48,4139.75,2766.0,[6],1,0.11725210025302917,0.4165062867208141,0.8235070493024143
48,7482.0,4629.0,[8],1,0.21589533982682216,0.3564305086355066,0.4793560968000978
48,10480.25,7051.0,[10],1,0.12722429481457073,0.5718238226804757,0.5980383135549964
48,8654.0,5076.0,[11],1,0.4040337909598124,0.4094479170043519,0.6586299292318439
48,17442.5,9654.0,[12],1,0.22209144653460178,0.49161723685516284,0.5406474438921602
48,4683.25,2696.0,[13],1,0.436733949642426,0.35427873911864066,0.49363841924919205
48,7513.5,4744.0,[15],1,0.2970430005017152,0.4440753626880361,0.8239552991697335
48,3909.75,797.0,[16],1,0.25512206231755574,0.28038891632735097,0.2988980492632274
48,13216.0,7984.0,[17],1,0.2566060758835043,0.6189828094699394,0.6500782189503692
48,3902.25,1911.0,[18],1,0.46130387179392707,0.1614222013115191,0.2174149001183009
48,3725.75,830.0,[19],1,0.3610322783965487,0.14661682500076645,0.7216462298812191
72,7400.625,3856.0,[0],1,0.1159193015318201,0.4437934800510985,0.4965899880920357
72,49471.25,28130.0,"[1,4,7]",3,0.16135866848098843,0.1447925299865079,0.12964371896502513
72,17021.875,8155.0,"[5,14]",2,0.26299380960140933,0.14674591102911116,0.31886668986381406
72,8572.0,4831.0,[8],1,0.21796840182564764,0.3766279952565758,0.4600453047005457
72,8778.125,3538.0,[10],1,0.134175639297449,0.5832693072847601,0.5739222717942087
72,8240.0,3913.0,[11],1,0.4039632990618437,0.4163815903275043,0.6551078651047632
72,20958.25,12237.0,[12],1,0.2312565698766821,0.5113006597958997,0.5149272202183041
72,4727.625,2386.0,[13],1,0.4400895525314483,0.3640537152801574,0.48359615558672386
72,8319.75,4563.0,[15],1,0.320949372195777,0.44375390143852883,0.8035503940465282
72,5741.875,3787.0,[16],1,0.25647070909920244,0.3065367795433939,0.27981998868838326
72,12486.0,5878.0,[17],1,0.2703658322039774,0.6259465578823851,0.6328490805024557
72,4496.125,2545.0,[18],1,0.4575387482541887,0.1669275855818031,0.19961234250156376
72,4052.875,2190.0,[19],1,0.35778225819027276,0.1628202523123707,0.7298435759431946
96,6847.3125,3147.0,[0],1,0.11734342176609243,0.44788096008371286,0.49926457214520703
96,46986.625,22251.0,"[1,4,7]",3,0.16179564098402,0.14473938910819137,0.13298360826358566
96,18706.9375,10196.0,"[5,14]",2,0.2632713881945873,0.14971050934460647,0.34689840636891295
96,7094.0,2808.0,[8],1,0.21644120644760928,0.3777866241403421,0.46128119342987467
96,12277.0625,7888.0,[10],1,0.14033484385018666,0.5928239483772261,0.5773503792023816
96,7284.0,3164.0,[11],1,0.4235604318222399,0.4354321600091665,0.6615162370402721
96,19334.125,8855.0,[12],1,0.23630565810568047,0.5167919977317184,0.5229174014171714
96,4503.8125,2140.0,[13],1,0.4790027612373934,0.36624460510800194,0.4581513917202503
96,8050.875,3891.0,[15],1,0.3298077203207168,0.4438992659590478,0.8194809764034314
96,5269.9375,2399.0,[16],1,0.26533396247610147,0.29398662663267733,0.282560718150878
96,17262.0,11019.0,[17],1,0.27251659893980296,0.6346670487865775,0.6244813894675527
96,6751.0625,4503.0,[18],1,0.49082683926260595,0.1801905176062239,0.19373052781657207
96,4329.4375,2303.0,[19],1,0.39866112884438654,0.1546791175141296,0.7335026510095801
120,5719.65625,2296.0,[0],1,0.1195708594346365,0.45273801775447386,0.49246512117586594
120,37794.3125,14301.0,"[1,4,7]",3,0.16904561356385764,0.14515586360827554,0.13057445002508986
120,18065.46875,8712.0,"[5,14]",2,0.28002430687930635,0.14481668785826052,0.3318523721960521
120,7396.0,3849.0,[8],1,0.22680025852875355,0.382396546401198,0.45746897814505155
120,3623.09375,2112.0,[9],1,0.2899131478573894,0.14732084889857977,0.5398617382141914
120,11759.53125,5621.0,[10],1,0.1493281015026566,0.5986832700031982,0.5673790087999283
120,8711.0,5069.0,[11],1,0.45989460729620557,0.4636348164423593,0.6572847424435052
120,22061.0625,12394.0,[12],1,0.25290069190935976,0.5287427284463936,0.5218632625974772
120,8898.4375,4873.0,[15],1,0.38198375472274526,0.449812517132199,0.8274610244988836
120,6166.96875,3532.0,[16],1,0.2862908457965176,0.29019472791051776,0.2895293766101354
120,23734.0,15103.0,[17],1,0.29441524562259647,0.635416361825279,0.6056943290878094
120,8908.53125,5533.0,[18],1,0.5067738099963104,0.18411618486289769,0.19492328761303399
120,4329.71875,2165.0,[19],1,0.42496997211670007,0.14658835136291537,0.7435443878826095
144,4105.828125,1246.0,[0],1,0.1494306039429061,0.4397122704518298,0.4728425273647134
144,35387.15625,16490.0,"[1,4,7]",3,0.21319051575370637,0.1553403545163429,0.15360445875331355
144,5370.109375,3974.0,[3],1,0.5946410607535115,0.15548444669619219,0.5987440675339176
144,17292.734375,8260.0,"[5,14]",2,0.32811024918269616,0.1548024235078818,0.32083590586782096
144,5376.0,1678.0,[8],1,0.26231849143822833,0.3814183674709368,0.47818685465468935
144,13325.765625,7446.0,[10],1,0.20086875634201526,0.5797664810237947,0.5488141331378901
144,8253.5,3898.0,[11],1,0.4931909930278092,0.47506385137376084,0.6756871207571628
144,19425.53125,8395.0,[12],1,0.29407214471615556,0.5107194985196841,0.5222372110100503
144,8481.21875,4032.0,[15],1,0.42396891412953397,0.4368991883833565,0.7910057961572033
144,4510.484375,1427.0,[16],1,0.31405563014292454,0.2875843283742002,0.30762622323596955
144,30189.0,18322.0,[17],1,0.3441985487914863,0.6078232997031944,0.5983149363814934
144,12857.265625,8403.0,[18],1,0.5349380900398927,0.17571570035638368,0.20345680839137809
144,4256.859375,2092.0,[19],1,0.45120176783413807,0.16216583349414807,0.7304931650542287
168,31137.578125,13444.0,"[1,4,7]",3,0.23525790745690958,0.15919876648777928,0.15439549542284525
168,4344.9375,2762.0,[2],1,0.4578920385680635,0.28331139118906196,0.6951832935323213
168,9676.0546875,6991.0,[3],1,0.5839002249985217,0.15268297932711133,0.5954778871003066
168,15215.796875,7783.0,[5],1,0.35549675104225714,0.16268357442937462,0.26462082917133783
168,1653.5703125,440.0,[14],1,0.3144661972441814,0.2036000596628245,0.7354748631892174
168,3600.0,912.0,[8],1,0.2742649105610174,0.39127648109524293,0.4768380061401882
168,13798.8828125,7136.0,[10],1,0.23076406806133115,0.5756245765949178,0.5213632960942153
168,9516.75,5390.0,[11],1,0.5266786653956939,0.5016986907951759,0.6865370194346677
168,18044.765625,8332.0,[12],1,0.3172053054306594,0.5099491457866251,0.5173126951841382
168,5348.7265625,3911.0,[13],1,0.5284152170986439,0.3098838148381797,0.4413017376694947
168,8509.609375,4269.0,[15],1,0.4493128028696037,0.4445331705742732,0.7668977484288502
168,3789.2421875,1534.0,[16],1,0.3328730686627669,0.2789293623366266,0.3206178241670141
168,28288.5,13194.0,[17],1,0.36262003658184266,0.6135954106702561,0.5813050175809417
168,14676.6328125,8248.0,[18],1,0.5313106211067552,0.17294326781771224,0.20753239317152306
168,4717.4296875,2589.0,[19],1,0.47877852905453167,0.15418492405628118,0.7114287578931008
