time_in_hour,cumulative_size,size,pcore_ids,pcore_power,SCA-1,CD11b,Ly6C
-1,0,0,[],0,0.0,0.0,0.0
0,15211,15211,"[0,8]",2,140.40260337913568,388.8144763657875,523.1063046479525
0,30591,30591,"[1,2,5]",3,146.34117877807532,127.39894086496015,180.65241410872486
0,5029,5029,[6],1,159.50208789023762,356.4044541658381,779.2807715251563
0,4503,4503,[7],1,273.5665112147443,165.09771263602036,295.6451254719076
0,7382,7382,[10],1,212.08656190734305,447.77905716607984,572.3871579517755
0,5324,5324,[9],1,118.3549962434291,507.20773854245283,598.8255071374913
0,2931,2931,[16],1,209.54588877516196,505.9126577959736,508.48549982940926
0,3381,3381,[13],1,232.84767820171467,554.6152026027801,674.6915113871639
0,4374,4374,[14],1,360.85070873341886,361.318930041153,628.9179240969376
0,2876,2876,[15],1,150.88421418637014,321.5166898470095,366.46835883171127
24,11688.375,9787.0,"[0,8]",2,153.363149282943,365.25394890222225,524.9967809896573
24,34811.875,30988.0,"[1,2,5]",3,162.7705883409063,121.62670424962776,180.1232266288441
24,5028.875,4696.0,[3],1,347.76267057741245,138.07524048619237,719.4293455295663
24,3057.25,2918.0,[4],1,322.35898274592887,125.11125194210501,503.641507891077
24,4862.625,4234.0,[6],1,197.4065448189003,365.8519318269453,793.2629752448522
24,8151.875,7589.0,[7],1,311.03871808632704,141.24141685195124,284.5470827263663
24,4082.5,3417.0,[9],1,130.47477036129968,515.2359461114526,607.149632578076
24,10521.125,9232.0,"[10,16]",2,219.3992800199604,461.3419073530636,562.1229312454702
24,2948.625,2625.0,[11],1,162.14137945652664,147.74136249946997,680.3532578744341
24,4381.625,3959.0,[13],1,272.395115967248,550.1491455795522,705.8927909166113
24,6355.75,5809.0,[14],1,368.7785273177756,357.10169924871025,656.2942021004591
24,2721.5,2362.0,[15],1,184.1002663972074,323.03775491456923,322.8162318574307
48,6734.40625,6150.0,[0],1,109.36211432893973,417.4773922162763,531.2905995795838
48,32731.484375,28380.0,"[1,2,5]",3,160.23864398527152,121.46820650033547,176.22373431544037
48,6852.828125,6245.0,[6],1,193.6057968767471,373.18666791310994,784.5255198013587
48,5784.984375,4766.0,[7],1,313.40527064949663,140.96663776641554,279.82185021027
48,7191.640625,6315.0,[8],1,177.39135063496184,329.28908780811133,497.7501461114769
48,6238.3125,5728.0,[9],1,126.83011731939008,539.6310851291923,605.1702358410217
48,7305.46875,6382.0,[10],1,216.33719388300696,441.162025451824,572.8203486258147
48,3119.578125,2751.0,[11],1,163.0174803283706,157.3473125873389,689.6699623847367
48,2935.625,2606.0,[12],1,389.5460985735527,330.0820364062163,456.1541036832017
48,4780.703125,4233.0,[13],1,257.3612341280853,547.2727207360308,697.6985602928444
48,6013.46875,5219.0,[14],1,356.4717976833183,350.66368984207327,634.5577557669993
48,5781.671875,5390.0,[16],1,199.16804719655698,537.4196531604455,508.6763155121132
72,6400.80078125,5559.0,[0],1,117.06708877368591,434.9052392126212,486.91998834374397
72,24913.890625,22181.0,"[1,5]",2,177.49354244526214,129.04508082213172,199.2789472050304
72,12862.544921875,11504.0,[2],1,122.10354874550762,126.35293547778191,101.17532449094085
72,3002.701171875,2692.0,[3],1,338.0448723577629,168.50571197938376,706.1671333688474
72,4418.603515625,3562.0,[6],1,261.2600117136111,371.7541087155912,754.245160620158
72,6761.123046875,6038.0,[7],1,316.3382117719745,154.90551160630838,271.9849374367179
72,7557.955078125,6659.0,[8],1,189.44857976371776,352.7303443986089,456.48816191962385
72,3190.7890625,2411.0,[9],1,144.5600850592899,549.5641935649738,579.0032166563411
72,14688.892578125,13053.0,"[10,16]",2,220.9487268028972,492.5815133485351,511.61073225371115
72,2841.953125,2475.0,[12],1,400.87295887510817,328.9739814992992,463.0903874701058
72,4020.587890625,3423.0,[13],1,287.6109137491039,545.2569650057977,668.27222387118
72,5289.68359375,4538.0,[14],1,354.63690194429967,359.4445884862861,644.0930906193424
96,5846.10009765625,5046.0,[0],1,113.9238771206099,441.955266109978,509.6633106605776
96,8336.669189453125,7100.0,[1],1,239.66966530028895,119.92607464135112,145.04236507239557
96,9617.818115234375,8010.0,[2],1,122.93560591821007,125.2707759846064,104.73191606064249
96,15885.567138671875,14008.0,[5],1,148.44802851227482,134.38096660652047,244.83693196471737
96,5918.325439453125,5366.0,[6],1,266.0743426314097,356.8949144608068,786.1106722486741
96,8211.140380859375,7366.0,[7],1,380.53462148339247,162.79929961887504,270.24924074931516
96,5239.744384765625,4295.0,[8],1,185.34482039948648,336.49389793389656,457.3676598906728
96,14690.437255859375,13289.0,"[9,16]",2,181.12904763012034,548.3597876229248,553.6607840609554
96,8361.52294921875,7528.0,[10],1,232.7578610788024,450.6068467862741,552.4336949285049
96,4983.493408203125,4751.0,[11],1,256.82825234224134,148.52360255333122,692.4733227943104
96,6175.573486328125,5673.0,[13],1,290.816330435529,563.3390488429204,643.3782886987523
96,3992.21044921875,3331.0,[14],1,424.2027435140679,334.61801045174997,639.2253400084427
120,5803.762512207031,5073.0,[0],1,132.31283965012153,443.225293098259,489.26034366596963
120,8194.08364868164,7152.0,[1],1,315.8022239266183,129.32245347590768,168.07862063131915
120,8145.227264404297,6943.0,[2],1,143.91882499385304,123.9148902244401,107.47515526878678
120,12282.695892333984,10297.0,[5],1,173.35515420282178,137.44138487154677,254.11153361225902
120,5633.790679931641,4894.0,[6],1,356.35532679605745,331.9380569275595,779.9097620676378
120,5647.392547607422,4621.0,[7],1,422.32178469824896,166.90144698438678,280.1202135969572
120,5602.968048095703,4948.0,[8],1,222.7356866091453,304.5878071901371,443.71611298152317
120,20972.304656982422,19136.0,"[9,16]",2,223.76616163238637,549.4793643423986,543.2615090476656
120,9764.190368652344,8719.0,[10],1,255.2562148551868,450.7524710333217,539.1832992278014
120,3882.9366760253906,3260.0,[11],1,303.18849779145233,137.56824894519445,687.1482211934731
120,7808.946685791016,7037.0,[13],1,360.46983232392955,539.1301645574622,663.1602117470886
120,3210.0263061523438,2711.0,[14],1,449.9378479819101,356.96785024209754,631.2291760163627
144,14821.077323913574,13233.0,"[0,9]",2,232.0493225742742,483.64943871965716,518.4002807970079
144,7761.260456085205,6737.0,[1],1,361.7301269293915,137.25165921265824,180.2317152659478
144,9932.153408050537,8914.0,[2],1,195.25085472182374,135.33393138095457,156.41705597886175
144,3907.5677757263184,3630.0,[3],1,547.801682648571,130.7639968384608,630.6967505211168
144,3074.7239151000977,2846.0,[4],1,423.540208039342,147.2621490351657,463.15008948917193
144,9092.336986541748,7557.0,[5],1,245.75426354771596,152.81372035939745,277.2593932663492
144,6338.223834991455,5634.0,[6],1,403.12964347359133,332.9465393410139,734.2266800201802
144,8044.924068450928,7339.0,[7],1,480.0606046233711,156.6435851678865,263.9062323986014
144,22982.45486831665,20003.0,"[10,16]",2,300.76769094684676,510.1648769385156,542.2861944825343
144,3606.367084503174,3121.0,[11],1,364.74648487125165,151.90663819687333,669.0908252548679
144,5515.118335723877,4539.0,[13],1,423.07944649032186,502.5839284376029,686.8080812832991
168,15539.634665489197,13687.0,"[0,9]",2,266.9472422229422,466.3263244025766,495.74597451203033
168,8603.15755701065,7633.0,[1],1,364.37972865955413,146.68634463971227,197.43869030901052
168,10650.519176006317,9409.0,[2],1,218.90441599514838,144.6817423178043,174.1658546215371
168,6223.44597196579,5735.0,[3],1,513.148589979172,129.53501181906378,606.0115737025784
168,4253.340489387512,3869.0,[4],1,421.5711522054353,143.5443054586847,450.9503381729831
168,6755.5421233177185,5619.0,[5],1,282.6987142771272,159.66405219891152,291.2657405748483
168,5903.277979373932,5111.0,[6],1,432.3239983402636,347.9678948892214,695.9048252178862
168,6375.615508556366,5370.0,[7],1,474.0973455817216,157.57995713706174,272.62672878752153
168,19956.80685853958,17084.0,"[10,16]",2,327.3635673125525,519.2833317931567,539.3889701445166
168,4018.7958855628967,3568.0,[11],1,408.6443455745328,176.1669185618959,646.7570051094367
168,2782.305164337158,2508.0,[12],1,496.3575130138473,244.01342644345232,421.34355109695156
168,5593.389791965485,4904.0,[13],1,458.7571664121683,487.2035261667682,679.7805305358529
168,2789.477514266968,2623.0,[15],1,376.61518817893915,217.93909552020634,356.3431174301757
