time_in_hour,cumulative_size,size,pcore_ids,pcore_power,SCA-1,CD11b,Ly6C
-1,0,0,[],0,0.0,0.0,0.0
0,35438,35438,"[0,6,9]",3,165.31065522885254,439.1122806027437,547.9139341949304
0,25562,25562,"[1,2]",2,135.88881934121298,124.98509506298413,166.79571238557224
0,7080,7080,[3],1,180.92005649717686,168.09943502824902,297.98460451977485
0,5482,5482,[10],1,370.662167092297,353.8755928493259,576.8296242247355
24,30146.75,25717.0,"[0,6,9]",3,183.07432393210053,436.5169587103105,553.2144509773009
24,26560.25,23365.0,"[1,2]",2,149.53284513512017,120.53932568405835,157.12958274112634
24,11975.0,11090.0,[3],1,198.76962421712062,147.31716075156618,292.90341336116865
24,4854.625,4597.0,[5],1,381.3753122022782,121.8268918814535,616.7628807580394
24,5472.5,4977.0,[7],1,217.24954317039644,155.5662631338511,715.4933988122439
24,5823.875,5384.0,[8],1,304.54585649588716,405.5046038934547,772.0089072996941
24,6749.25,6064.0,[10],1,376.2754750527772,355.1920954180088,582.4364929436585
24,7340.875,6814.0,[11],1,360.3138930985705,151.97146116777623,258.09700819044065
48,37058.34375,33290.0,"[0,6,9]",3,173.44350378246688,456.3641340049089,545.3224341346876
48,25711.03125,22391.0,"[1,2]",2,147.61861093183828,122.18756601312892,153.2882165121247
48,10324.875,8828.0,[3],1,202.50301153767037,145.48528432547644,290.22983783096583
48,4798.0625,4114.0,[7],1,207.0394592869529,158.83995818624706,702.9710853339227
48,5935.984375,5208.0,[8],1,284.3069520377539,405.40689860306395,764.3573728030577
48,7635.65625,6792.0,[10],1,364.9750676308865,348.43384041155514,569.4008537249155
48,4697.609375,3780.0,[11],1,362.6749842838905,148.0524202802623,247.44761464441675
72,35537.29296875,30905.0,"[0,6,9]",3,190.5987079264349,460.6322260824825,500.8297985160159
72,29834.87890625,26621.0,"[1,2]",2,143.0435281220415,127.92416731465528,146.57420864238634
72,11186.609375,9896.0,[3],1,211.65048369772452,151.7521185345766,272.2333682639546
72,6618.998046875,5877.0,[8],1,310.04348219952414,394.73060853774575,737.0396007349823
72,6148.45703125,5194.0,[10],1,371.37366463257206,357.42806979647486,556.752634203831
72,5400.201171875,4813.0,[11],1,363.9125864451616,164.50452981533206,228.50121505166697
96,30528.898681640625,27659.0,"[0,9]",2,194.01541074735266,521.4104550608756,561.9313962806863
96,24536.35986328125,20807.0,"[1,2]",2,143.80869094445626,126.59274939047825,154.9995187507226
96,12436.326171875,11038.0,[3],1,223.90988883372938,144.06223624434423,273.58924144301284
96,7926.262939453125,6354.0,[6],1,181.78925667806323,363.07196266688146,460.3184722047289
96,5530.5947265625,4987.0,[7],1,268.95182890663665,154.07085139323536,700.566777464281
96,5489.374755859375,4662.0,[8],1,332.2458807250946,408.04394680437093,757.6932063669351
96,6321.025146484375,5646.0,[11],1,433.42687040193283,180.9454428404026,229.59204124813084
120,35714.11233520508,31898.0,"[0,9]",2,227.2684961617221,528.1206961616169,550.5340059510326
120,17484.044982910156,14417.0,"[1,2]",2,159.55019143377868,127.92215182911256,153.9766397861211
120,11827.540771484375,10273.0,[3],1,253.09251594783188,146.32074860781515,283.0454525706524
120,8629.78286743164,7639.0,[6],1,199.91518993029118,363.54454433554446,451.36519836703906
120,5886.3243408203125,5195.0,[7],1,320.8265186366016,146.8828218967229,696.8745906820787
120,7070.171844482422,6384.0,[8],1,391.9300449481006,423.7791292084203,765.1870228849616
120,4606.069641113281,4070.0,[10],1,419.69208789750684,410.6888592183646,547.4464884876068
120,6792.128143310547,6002.0,[11],1,447.6216738292713,174.16486583178823,219.65032193033628
144,31261.264041900635,26797.0,"[0,9]",2,249.54914058546368,536.9761507774666,536.9408653505675
144,14450.50562286377,12265.0,"[1,2]",2,187.25523598469528,123.33780067123665,152.89263017527486
144,11061.442596435547,9583.0,[3],1,290.11982193447375,139.0656611082375,290.7118511688565
144,7740.966022491455,7303.0,[5],1,553.5095970268081,136.90080471872434,579.5605938233274
144,4805.790542602539,4070.0,[7],1,342.2350815435676,133.19951952706754,668.2302744440434
144,8006.771480560303,7123.0,[8],1,455.3596421418917,477.83353349599327,752.829961833601
144,4555.75870513916,3980.0,[10],1,460.0527615127484,429.81439811326374,519.0086293809491
144,12459.016017913818,11610.0,[11],1,497.47997451281293,152.15589723324155,216.63321066270854
168,31793.8733625412,27382.0,"[0,6,9]",3,271.07937932796153,517.395562908741,504.0518092183663
168,7947.618734359741,6909.0,[1],1,258.93821435503224,121.41068185669914,116.54081808452827
168,6460.69446849823,5693.0,[2],1,153.69236332956282,135.08205539567734,214.1166083807442
168,11487.680324554443,10105.0,[3],1,323.1039569945486,146.65583528072838,303.00865434823857
168,6204.231985569,5644.0,[4],1,385.92257915950216,347.4577719452633,700.0468937178413
168,9566.620752811432,8599.0,[5],1,543.043202735591,138.9619275261581,585.5193806495397
168,5784.723817825317,5184.0,[7],1,363.3215397945641,135.3456359472547,621.1250449984738
168,8010.846435070038,7010.0,[8],1,488.06079434954216,498.2675702135693,726.5930299242073
168,4614.469838142395,4045.0,[10],1,486.2988057884848,408.1585538075664,488.77072324217903
168,10986.377002239227,9429.0,[11],1,493.05952911289535,151.88665879261336,225.40702723951773
