time_in_hour,cumulative_size,size,pcore_ids,pcore_power,SCA-1,CD11b,Ly6C
-1,0,0,[],0,0.0,0.0,0.0
0,16088,16088,"[1,15]",2,165.8190576827473,117.39998756837396,149.86393585280945
0,9044,9044,[3],1,85.63268465281334,131.39705882352965,195.63080495356115
0,8043,8043,[6],1,184.7436279995038,398.67847817978327,550.0624145219442
0,6698,6698,[8],1,223.80621080919653,484.3599581964775,564.5362794864135
0,6542,6542,[13],1,174.39834912870847,172.79730969122602,276.0738306328352
24,20271.0,18260.0,"[1,15]",2,179.47511839574017,112.95310418824941,147.32649474618927
24,8317.5,7187.0,[3],1,94.63766155696277,126.71396152690129,207.65117222723234
24,7671.375,6666.0,[6],1,198.99309119942697,388.18964983461296,559.9281745449792
24,6458.25,5621.0,[8],1,230.94998645143835,491.94261216273816,570.8849920644135
24,8535.75,7718.0,[13],1,189.86430600708889,158.58969627742164,289.1453445801477
48,6753.40625,6244.0,[0],1,107.66514351554453,429.2428936323792,530.345552475833
48,18962.875,16429.0,"[1,15]",2,179.2900873746749,113.61035955122841,138.19902951820336
48,8808.6875,7769.0,[3],1,100.00066340757832,125.63448548662898,210.08139159494561
48,7530.921875,6572.0,[6],1,201.66771788812423,393.63196114353514,547.655445569206
48,6826.546875,6304.0,[7],1,132.53652674874817,552.2382083731023,593.8718079006807
48,7794.28125,6987.0,[8],1,221.28911421434805,511.97434617528256,552.1873809724289
48,6505.015625,5945.0,[9],1,180.77953310066226,362.9081622113709,783.4046661110052
48,7140.96875,6074.0,[13],1,191.9431843543654,159.34606211517132,292.9965275194627
72,6574.17578125,5730.0,[0],1,118.69477370321839,448.30873909455096,487.7000521096706
72,22230.359375,19860.0,"[1,15]",2,177.76792865964046,119.81809812102354,130.96789467598856
72,10769.0859375,9668.0,[3],1,96.45046294987014,133.31413395403374,205.7764864053142
72,7804.365234375,6863.0,[6],1,216.49204359038848,411.8350880354172,505.62302997996653
72,9096.28515625,8122.0,[8],1,231.39200927232858,524.2079512627311,523.1024409432259
72,7202.62109375,6310.0,[13],1,204.30778129272667,169.80008254373553,283.43027549107273
96,18401.794921875,15623.0,"[1,15]",2,184.37460214266883,118.55777829661449,138.05272428258627
96,9793.1357421875,8447.0,[3],1,101.76438290691833,132.43499883976813,210.96542901492245
96,6889.545654296875,5914.0,[6],1,216.75012362870484,419.2241513950285,524.1722068213701
96,8054.789794921875,7613.0,[7],1,153.0169641698622,563.9854348661133,588.0210049163126
96,10407.03564453125,9270.0,[8],1,236.61550190772337,529.7908370891141,546.1880131140603
96,7606.32763671875,6706.0,[13],1,211.10488774412326,159.07869931740498,286.8983843889231
120,13906.224365234375,11606.0,"[1,15]",2,205.3923392261359,117.4218427259213,138.25314403011157
120,8179.193206787109,7318.0,[6],1,240.12805228876707,428.10065770263634,514.1199672617806
120,16441.879455566406,15141.0,[8],1,257.15589612042976,534.5643142238783,541.1420141585156
120,6960.790954589844,6010.0,[13],1,231.53814390505264,158.73621196027054,287.7277024736388
144,7489.465145111084,6512.0,[1],1,272.53476942873834,110.42749420722934,172.799855255365
144,10246.472064971924,9589.0,[4],1,498.9777874875999,140.116767738513,193.65577144162648
144,13528.2349319458,11473.0,[8],1,276.24614736972,541.934944864981,518.0462200647225
144,8165.294387817383,7385.0,[10],1,461.05843953489585,472.8659710966569,736.7598715302444
144,6543.0988693237305,5673.0,[13],1,260.25803846566237,148.0706952312179,290.56836623835545
168,6985.1831431388855,6049.0,[1],1,299.7131806221529,115.91383390014214,163.89567577070892
168,7111.214401245117,6391.0,[2],1,436.4933045848499,151.44450354063076,412.29548000218125
168,8834.80900812149,7554.0,[4],1,489.95006469155584,139.06229519834088,202.03131215359082
168,7432.049893856049,6759.0,[6],1,290.96008106484624,448.39839158898025,499.77190415741336
168,9580.029366493225,7889.0,[8],1,289.63182067973673,550.1926669380308,496.3488304076917
168,8073.661798477173,7053.0,[10],1,492.95658344884566,490.25068566096314,722.1001821777451
168,6753.642378807068,5976.0,[12],1,370.5492510201468,576.7930400879853,578.6728856960939
168,7354.887358665466,6537.0,[13],1,288.067737319712,145.75425802482067,289.90235874411985
168,7285.327949047089,6540.0,[17],1,556.5424607888807,136.33299701191302,629.9290220973248
