time_in_hour,cumulative_size,size,pcore_ids,pcore_power,SCA-1,CD11b,Ly6C
-1,0,0,[],0,0.0,0.0,0.0
0,27624,27624,"[0,6,9]",3,0.1866051178424908,0.48932296887879095,0.5582146863029266
0,23951,23951,"[1,2]",2,0.1484196902008309,0.14282709740531693,0.13416539279946044
0,9865,9865,[4],1,0.23154894445805085,0.16335449381124842,0.24357038279580637
0,2753,2753,[3],1,0.4124672981874687,0.21679558129099777,0.3220240806344488
0,5602,5602,[5],1,0.18501799116688006,0.397475408750268,0.8178299350613759
0,4288,4288,[7],1,0.15571833598859836,0.3689294442662255,0.4170227994216007
0,5204,5204,[8],1,0.21755628773026753,0.6199651503716279,0.6833513367308668
0,5648,5648,[10],1,0.41834476557277345,0.3904635685719052,0.6184624156924097
0,5060,5060,[11],1,0.2285679708664568,0.1582384686924329,0.7099599901405846
24,46744.0,19120.0,"[0,6,9]",3,0.19541817059499048,0.48587574914640574,0.5614696282495132
24,45974.0,22023.0,"[1,2]",2,0.15753058763551755,0.1397867120251132,0.12846117729174492
24,23203.0,13338.0,[4],1,0.23808472073787543,0.15410942141004938,0.24437373555969277
24,8748.0,5995.0,[3],1,0.42740324594256707,0.19654550645836008,0.31268082402289993
24,10745.0,5143.0,[5],1,0.21113379099764276,0.40429348386811365,0.8251477612729203
24,7955.0,3667.0,[7],1,0.16917788967436398,0.3626607244938303,0.40779230050996734
24,10594.0,5390.0,[8],1,0.2403984235299607,0.6214772384607695,0.6960863252847644
24,13422.0,7774.0,[10],1,0.4299746851973614,0.3844545761635369,0.6398880075559908
24,12610.0,7550.0,[11],1,0.2754895793422359,0.15145542753183816,0.7092281022768002
48,71653.0,24909.0,"[0,6,9]",3,0.19429171520610639,0.4929011191632292,0.5582170841487731
48,67397.0,21423.0,"[1,2]",2,0.15977080632236168,0.13918976884251133,0.12560844721135644
48,33202.0,9999.0,[4],1,0.23907047700524492,0.15200257793988783,0.24454385915250051
48,12273.0,3525.0,[3],1,0.42775133503066903,0.19610304118262692,0.3116832411560527
48,17932.0,7187.0,[5],1,0.2148590680899379,0.40860192804793904,0.8236784273377286
48,12181.0,4226.0,[7],1,0.1718052336065859,0.36392696362297056,0.4021634335411187
48,17580.0,6986.0,[8],1,0.23885569659086586,0.6262709192366919,0.6945612928236417
48,20305.0,6883.0,[10],1,0.4248849428241683,0.38474396672464495,0.633222258113879
48,17472.0,4862.0,[11],1,0.27435820265876226,0.1519126141580888,0.7049719895453455
72,94956.0,23303.0,"[0,6,9]",3,0.20041211281298668,0.5013463368315972,0.5471948630105155
72,93805.0,26408.0,"[1,2]",2,0.16062692808234685,0.14124104808738472,0.12184786261696084
72,43946.0,10744.0,[4],1,0.24137744126218538,0.153190242941099,0.24152079941803273
72,16654.0,4381.0,[3],1,0.4284917885907867,0.199628097444555,0.3056006529327553
72,21640.0,3708.0,[5],1,0.23149618891358034,0.4097440846095287,0.8170382221325666
72,18479.0,6298.0,[7],1,0.17773451917178007,0.3771598750103779,0.3938566995509622
72,21431.0,3851.0,[8],1,0.24941581527127196,0.6270602001456479,0.6918445679348604
72,26994.0,6689.0,[10],1,0.42319566645270834,0.3875451038725892,0.6342891012817685
72,22090.0,4618.0,[11],1,0.2832365552565835,0.15561795738945286,0.6996087578553416
96,119576.0,24620.0,"[0,6,9]",3,0.202086125658979,0.5099323889356289,0.5475097758181269
96,113845.0,20040.0,"[1,2]",2,0.16106463499307935,0.14166371717996387,0.12188422679568411
96,54932.0,10986.0,[4],1,0.24207269130291778,0.15300902259082444,0.24092453565185223
96,23707.0,7053.0,[3],1,0.44548431388254245,0.2035128807632092,0.29372194486832226
96,26821.0,5181.0,[5],1,0.2404426516367972,0.4068787019558683,0.8207628085196219
96,21197.0,2718.0,[7],1,0.17814922930052424,0.37607201095860954,0.3946283212535967
96,29486.0,8055.0,[8],1,0.25328962059312726,0.6337507592375341,0.6828164043575419
96,32530.0,5536.0,[10],1,0.4354420638511637,0.38694334363129007,0.6370516644906227
96,27901.0,5811.0,[11],1,0.2937061174159487,0.15447085777265612,0.7020821072022924
120,149690.0,30114.0,"[0,6,9]",3,0.21151367507831004,0.5197440774281894,0.5451894345567158
120,126752.0,12907.0,"[1,2]",2,0.16350794899143598,0.14187908786288553,0.12067872292153724
120,64554.0,9622.0,[4],1,0.2451692216219671,0.15298959782100927,0.2407173414595376
120,32421.0,8714.0,[3],1,0.4553435853928782,0.20289667567847736,0.2851583932408179
120,30025.0,3204.0,[5],1,0.25656821562555354,0.4077171361723449,0.8224222205326109
120,24749.0,3552.0,[7],1,0.18090169118171373,0.375175357878166,0.39318355397320687
120,37342.0,7856.0,[8],1,0.26874910860379925,0.6376772748213867,0.6765758362569158
120,40555.0,8025.0,[10],1,0.44848718414026956,0.3926399041355508,0.646149568940308
120,33907.0,6006.0,[11],1,0.3111951958479911,0.15269201210070457,0.7031449773890206
144,39746.0,2189.0,[0],1,0.1172725175651959,0.5248129069819593,0.5562377332139151
144,136698.0,9946.0,"[1,2]",2,0.1677941171393856,0.14153431758179674,0.11899088690655266
144,45584.0,13163.0,[3],1,0.4791707912494408,0.19483013508748598,0.2788595674174734
144,77475.0,12921.0,[4],1,0.26417424975798764,0.15206214528405687,0.2418649884185634
144,34291.0,4266.0,[5],1,0.2766627270430615,0.4007715241562402,0.8185509921340521
144,42217.0,2642.0,[6],1,0.23404486131445437,0.4182743553909247,0.527415781005902
144,26358.0,1609.0,[7],1,0.18459436232822066,0.3767158450695777,0.3906443418876416
144,138095.0,28195.0,"[8,9]",2,0.27173497645123684,0.5968815814544199,0.5875170581950478
144,53223.0,12668.0,[10],1,0.47143095396578844,0.3854303412016208,0.6560073727691171
144,36308.0,2401.0,[11],1,0.31938542655656005,0.15118135838330282,0.7016512463400827
168,41226.0,1480.0,[0],1,0.11830864344907759,0.5258458067910844,0.5543826430376567
168,147614.0,10916.0,"[1,2]",2,0.17532510770955892,0.14171286712250095,0.11880835265804737
168,48627.0,3043.0,[3],1,0.48294758333500626,0.19438503012171063,0.2807370803145213
168,99474.0,21999.0,[4],1,0.30334588022888304,0.15237487419118648,0.2549961908771555
168,34348.0,57.0,[5],1,0.2766730607934886,0.400669853988482,0.8183953938763083
168,49580.0,7363.0,[6],1,0.27138754300166096,0.393621009237782,0.5411883204216101
168,31782.0,5424.0,[7],1,0.21645932012962105,0.3637081420913011,0.40067079333191397
168,173813.0,35718.0,"[8,9]",2,0.29815802298699084,0.5905462176506019,0.5883188953665895
168,56433.0,3210.0,[10],1,0.4745501327317203,0.38418515032401945,0.6564912677851937
168,37098.0,790.0,[11],1,0.3202903515195983,0.15156306678483114,0.7004835864220924
