time_in_hour,cumulative_size,size,pcore_ids,pcore_power,SCA-1,CD11b,Ly6C
-1,0,0,[],0,0.0,0.0,0.0
0,34666,34666,"[1,2,16]",3,0.18217779036805448,0.16095256008664993,0.17536325330224042
0,21843,21843,"[8,9,12]",3,0.20920136397282768,0.5209957299137854,0.602340431671372
0,7856,7856,"[9,15]",2,0.20520621181262888,0.4262283892877222,0.5463016932853723
24,42524.25,38191.0,"[1,2,16]",3,0.2078499293826622,0.15577786371933633,0.1815360285778499
24,15287.875,12947.0,"[8,12]",2,0.23711166970005654,0.5461765495775793,0.620605671259304
48,26469.390625,23805.0,"[0,7,9,12,15]",5,0.20779668194359344,0.4654061258396528,0.5508008026600144
48,38799.53125,33484.0,"[1,2,16]",3,0.20032262132496478,0.1548033005250169,0.17218314315580496
48,12192.34375,11022.0,[8],1,0.21981646447342748,0.6030645712740558,0.6348024480248434
48,5441.78125,4773.0,[11],1,0.3735785681595208,0.37977312461917934,0.6344151910804461
48,6236.1875,5389.0,"[7,9]",2,0.24380105595163074,0.4505921378100812,0.5793655370350668
72,44296.94140625,39447.0,"[1,2,16]",3,0.19923383702832478,0.1649145467396266,0.16199415102317208
72,6058.591796875,5451.0,[3],1,0.3354794324707812,0.4107114531527326,0.7563981328396241
72,10419.04296875,8895.0,[8],1,0.2523519602287358,0.5972969521107415,0.590496489884126
72,21571.5625,19490.0,"[12,13,15]",3,0.22754273250812707,0.471922000747409,0.4824960036243749
96,39105.11767578125,33568.0,"[1,2,16]",3,0.20809513063937624,0.16378836964622534,0.178523921029739
96,29718.514404296875,26601.0,"[8,9,12]",3,0.24562060052706203,0.5710611045439065,0.580373764803289
96,8013.715576171875,6713.0,"[9,13,15]",3,0.2451273410440743,0.442408534570332,0.5215268356297152
120,14707.780303955078,13040.0,"[0,7,12]",3,0.24943983581897755,0.5100905440117272,0.5248082620518406
120,29517.139709472656,24629.0,"[1,2,16]",3,0.23151409973132964,0.1654575325174014,0.18581833700722444
120,5752.665496826172,5230.0,[3],1,0.4314015389678563,0.4237692942910589,0.7990228403126721
120,28434.885314941406,25505.0,"[8,9]",2,0.2907492765740992,0.5935358806038382,0.5792552474359685
120,7594.7894287109375,6995.0,"[7,9]",2,0.3163290233398913,0.5161834753374722,0.5709374287822635
144,28797.484523773193,24354.0,"[0,8,12]",3,0.28267530182172124,0.5879740988362917,0.5424633447131736
144,16614.58269882202,14040.0,"[1,2]",2,0.2227132711717252,0.15507810176964085,0.15387285913678417
144,6171.0831871032715,5452.0,[3],1,0.5067560626660886,0.5113596268066297,0.786833521491372
144,10034.304779052734,9456.0,[4],1,0.562972953919474,0.16517857459756058,0.17707096881533785
144,6587.510971069336,5949.0,[9],1,0.3826327315912645,0.5892768352918345,0.5859025428721374
144,5974.336589813232,5673.0,[14],1,0.6357771829010539,0.15058450704732498,0.6200768707919612
144,8653.05976486206,7538.0,[16],1,0.35183805781940186,0.16582596208824424,0.25383759590964583
168,13737.704353809357,12140.0,"[0,12]",2,0.2891420562757775,0.5413938009082048,0.4971893545306509
168,6174.307677745819,5428.0,[1],1,0.21174683419645854,0.16927189581993618,0.23234636164412747
168,9726.515159606934,8396.0,[2],1,0.2719393600610699,0.1529422118442349,0.11316412008187468
168,6136.385398387909,5365.0,[3],1,0.5482912954064417,0.5465827577252984,0.7527097906034189
168,8179.288097381592,6925.0,[4],1,0.5494849173031412,0.16510670117471474,0.17860665549797045
168,6897.249510765076,6259.0,[6],1,0.49396819911362955,0.19761587683745388,0.41568075124732157
168,17537.42008304596,14712.0,"[8,9]",2,0.36103033759241454,0.6243007236960891,0.5588362904844459
168,6953.792073726654,6207.0,[14],1,0.6085182079532834,0.15078762823355482,0.6259945871359921
168,9458.632470607758,8377.0,[16],1,0.3835161299152671,0.17221055208421532,0.2685786119822678
