time_in_hour,cumulative_size,size,pcore_ids,pcore_power,SCA-1,CD11b,Ly6C
-1,0,0,[],0,0.0,0.0,0.0
0,33116,33116,"[0,6,8,9,10]",5,NA,NA,NA
0,33577,33577,"[1,2]",2,160.21359859427864,141.3431813443727,NA
0,3040,3040,[5],1,NA,NA,NA
0,6781,6781,[3],1,NA,NA,633.3322518802547
0,3115,3115,[7],1,NA,NA,NA
0,3491,3491,[14],1,NA,NA,NA
24,25754.5,21615.0,"[0,6,8,9,10]",5,NA,NA,NA
24,40491.125,36294.0,"[1,2]",2,NA,136.8051640946014,NA
24,4319.0,3939.0,[5],1,NA,NA,NA
24,8028.625,7181.0,[3],1,221.92889504740972,NA,NA
24,3059.0,2887.0,[4],1,NA,NA,NA
24,3340.375,3087.0,[13],1,NA,NA,NA
24,5049.375,4660.0,[7],1,NA,NA,NA
24,5448.125,5118.0,[11],1,NA,NA,NA
24,2867.25,2763.0,[12],1,NA,NA,NA
24,2892.375,2456.0,[14],1,NA,NA,NA
48,29785.3125,26566.0,"[0,6,8,9,10]",5,NA,NA,NA
48,37224.390625,32163.0,"[1,2]",2,NA,136.7011867638866,NA
48,3089.875,2550.0,[5],1,236.9602481896515,NA,NA
48,11083.578125,10080.0,[3],1,197.33852729756663,NA,NA
48,3879.171875,3248.0,[7],1,NA,NA,NA
48,8984.5625,7942.0,"[11,14]",2,NA,NA,NA
48,5159.546875,4742.0,[13],1,NA,NA,NA
72,29619.1640625,25896.0,"[0,6,8,9,10]",5,NA,NA,NA
72,42661.048828125,38008.0,"[1,2]",2,NA,144.68097870125186,NA
72,2534.234375,2148.0,[5],1,243.4195508690375,NA,NA
72,9701.447265625,8316.0,[3],1,227.4844219240004,NA,580.2034937200286
72,2794.421875,2544.0,[4],1,NA,NA,NA
72,3418.896484375,2934.0,[7],1,278.0217660920594,NA,NA
72,1964.064453125,1574.0,[6],1,NA,NA,NA
72,7259.0703125,6136.0,"[11,14]",2,290.8292230840481,NA,NA
72,3305.943359375,2661.0,[13],1,NA,NA,NA
96,21911.3955078125,18209.0,"[0,6,8,9,10]",5,NA,NA,NA
96,36835.631103515625,31503.0,"[1,2]",2,NA,142.8455039177321,NA
96,20049.680908203125,18837.0,[3],1,217.12689769540063,NA,579.3442675167267
96,4185.302734375,3836.0,[4],1,NA,NA,NA
96,3410.779296875,3094.0,[5],1,NA,NA,NA
96,4140.362060546875,3713.0,[7],1,NA,NA,NA
96,7407.3837890625,6500.0,"[11,14]",2,NA,NA,NA
96,2807.22509765625,2615.0,[12],1,NA,NA,NA
120,23553.924438476562,20815.0,"[0,6,8,9,10]",5,NA,NA,NA
120,26739.453887939453,22135.0,"[1,2]",2,NA,144.31246621791178,NA
120,25003.21011352539,22497.0,[3],1,NA,NA,NA
120,5346.162841796875,4823.0,[4],1,NA,NA,NA
120,4625.347412109375,4199.0,[5],1,NA,NA,NA
120,4430.545257568359,3913.0,[7],1,NA,NA,NA
120,5314.353546142578,4802.0,[11],1,391.3896851315107,NA,NA
120,3208.5694274902344,2795.0,[14],1,NA,283.55715807286896,NA
144,14800.859554290771,12882.0,"[0,8,10]",3,NA,NA,NA
144,22472.43173599243,19130.0,"[1,2]",2,NA,138.31901253515184,NA
144,22600.549827575684,18904.0,"[3,6]",2,NA,NA,NA
144,10827.27035522461,10159.0,[4],1,NA,NA,NA
144,6179.168426513672,5601.0,[5],1,NA,171.94472509496103,NA
144,4068.818157196045,3515.0,[7],1,NA,NA,NA
144,1767.8908233642578,1346.0,[8],1,NA,NA,NA
144,6628.294193267822,5964.0,[11],1,NA,NA,734.017482353966
144,6195.862892150879,5895.0,[12],1,NA,NA,NA
144,5274.071178436279,4873.0,[14],1,NA,NA,NA
168,17202.107444286346,15352.0,"[0,8,10]",3,NA,NA,NA
168,12045.353178977966,10476.0,[1],1,NA,137.59691040718232,NA
168,10291.700788021088,9052.0,[2],1,NA,NA,NA
168,17537.06872844696,14712.0,"[3,6]",2,NA,NA,NA
168,9308.408794403076,7955.0,[4],1,NA,NA,201.90607035817115
168,7573.396053314209,6801.0,[5],1,NA,NA,NA
168,4974.602269649506,4466.0,[7],1,NA,NA,NA
168,6315.536774158478,5487.0,[11],1,NA,NA,NA
168,7401.48286151886,6627.0,[12],1,NA,NA,NA
168,6132.258897304535,5473.0,[14],1,415.5052927250943,NA,NA
