time_in_hour,cumulative_size,size,pcore_ids,pcore_power,SCA-1,CD11b,Ly6C
-1,0,0,[],0,0.0,0.0,0.0
0,32376,32376,"[1,3]",2,160.06047689646928,143.0640597973811,197.53993699036266
0,3329,3329,[17],1,204.9197957344551,175.7293481525984,312.071192550315
0,39050,39050,"[7,8,9,12,13,15]",6,184.82660691421387,418.66081946222783,559.665582586426
0,2600,2600,[9],1,209.29769230769273,402.32000000000016,575.9607692307677
24,40558.0,36511.0,"[1,3]",2,187.1597157157674,138.9704682183546,204.12409697223617
24,4447.125,4031.0,[17],1,257.4654973718971,168.9737470837896,326.5798971245464
24,12938.125,10949.0,[13],1,210.12209072025504,481.6753586783261,604.7425245157227
48,37470.75,32401.0,"[1,3]",2,179.97360524542785,138.14296567989712,196.31406205173317
48,2780.890625,2225.0,[17],1,254.90778021879248,172.75937340218138,329.36272102575055
48,35779.859375,32363.0,"[8,9,12,13,15]",5,191.15756813256206,446.463358619611,557.4433320770977
48,2084.625,1762.0,[9],1,217.75125921928438,409.0035977693829,570.9335761827664
72,44177.84375,39494.0,"[1,3]",2,182.1859457795262,147.24510103339384,190.87578018286814
72,2953.611328125,2606.0,[17],1,246.5127436024095,205.5900549446551,326.9401778410828
72,35110.482421875,30638.0,"[8,9,12,13,15]",5,209.99389227097774,442.81868123096166,509.27470289516174
72,1971.578125,1711.0,[9],1,233.2000994602994,417.3399877953102,539.4058634025725
96,25735.09716796875,21812.0,[1],1,177.47701762657678,138.36953934144077,166.31624283312067
96,12603.13330078125,11004.0,[3],1,202.83761395288107,161.70739407599342,282.45756782797287
96,24643.832275390625,23065.0,[13],1,213.75526228716993,511.3636116858904,566.8340702264911
120,17828.887145996094,14612.0,[1],1,186.8476988739487,140.1732016160136,167.40992072578754
120,9601.391662597656,8026.0,[3],1,228.307599868237,164.52432479775968,285.700801903507
120,30647.479034423828,27567.0,[13],1,249.86086442451622,516.7719950791522,551.9850572482046
144,14239.610893249512,12011.0,[1],1,201.71694568218857,136.42700904025833,166.14095642803426
144,8181.173957824707,6981.0,[3],1,266.48789611057236,153.43358013435076,280.2690266696023
144,32163.20213699341,27524.0,"[8,9,13]",3,264.0101052443697,516.5362129809918,534.8442157885943
144,1568.0382385253906,1329.0,[9],1,264.8891828031727,451.56006070047385,548.9838228521539
144,10863.690647125244,10127.0,[17],1,474.7539268304408,145.47673130966845,203.93472189589798
168,13157.951361656189,11378.0,[1],1,217.51124270578862,141.20552580261452,174.66965475480018
168,8683.646744728088,7661.0,[3],1,307.1825763854703,157.14945475929798,286.01661039235967
168,27639.400267124176,23619.0,"[8,9,13]",3,289.7389313896696,517.2514305837956,521.5936557485321
168,2459.004779815674,2263.0,[9],1,299.30992895672944,448.20365512008595,531.3513271895498
168,6648.561946392059,5995.0,[14],1,526.2067763003397,130.14613258685532,592.9739776053635
168,9782.961330890656,8425.0,[17],1,456.92641758783947,147.1799516488337,207.24598593256295
