time_in_hour,cumulative_size,size,pcore_ids,pcore_power,SCA-1,CD11b,Ly6C
-1,0,0,[],0,0.0,0.0,0.0
0,37627,37627,"[0,3,7]",3,NA,NA,NA
0,40412,40412,"[1,2,8,9]",4,NA,143.1780411758884,NA
0,5103,5103,[5],1,NA,NA,NA
0,5277,5277,[6],1,NA,NA,NA
24,46273.5,27460.0,"[0,3,7]",3,NA,NA,NA
24,66986.0,46780.0,"[1,2,8,9]",4,NA,139.53098408622662,NA
24,7244.5,4693.0,[5],1,NA,NA,NA
24,4681.5,3891.0,[4],1,NA,NA,NA
24,9814.5,7176.0,[6],1,363.15308981608285,NA,NA
48,57989.75,34853.0,"[0,3,7]",3,NA,NA,NA
48,72236.0,38743.0,"[1,2,8,9]",4,NA,NA,NA
48,10870.25,7248.0,[5],1,NA,NA,NA
48,4739.75,2399.0,[4],1,NA,NA,NA
48,11664.25,6757.0,[6],1,NA,NA,NA
72,62016.875,33022.0,"[0,3,7]",3,NA,NA,NA
72,81279.0,45161.0,"[1,2,8,9]",4,NA,NA,NA
72,8775.125,3340.0,[5],1,NA,NA,NA
72,4695.875,2326.0,[4],1,NA,NA,NA
72,11983.125,6151.0,[6],1,349.87417722838654,NA,NA
96,67370.4375,36362.0,"[0,3,7]",3,NA,NA,NA
96,81325.5,40686.0,"[1,2,8,9]",4,NA,143.1191915512356,NA
96,8931.5625,4544.0,[5],1,NA,NA,NA
96,6697.9375,4350.0,[4],1,NA,NA,NA
96,10049.5625,4058.0,[6],1,NA,NA,NA
120,75539.21875,41854.0,"[0,3,7]",3,NA,NA,NA
120,62565.21875,26816.0,"[1,2,9]",3,NA,143.55320523034266,NA
120,8721.96875,5373.0,[4],1,NA,NA,NA
120,19030.5625,9540.0,"[5,6]",2,NA,NA,NA
120,11330.53125,6417.0,[8],1,NA,NA,NA
144,69050.609375,31281.0,"[0,3,7]",3,NA,NA,NA
144,54671.609375,23389.0,"[1,2,9]",3,NA,NA,NA
144,17447.984375,13087.0,[4],1,NA,NA,NA
144,22995.28125,13480.0,"[5,6]",2,NA,NA,NA
144,14428.265625,8763.0,[8],1,NA,NA,NA
168,63973.3046875,29448.0,"[0,3,7]",3,NA,NA,NA
168,51265.8046875,23930.0,"[1,2,9]",3,NA,NA,NA
168,19507.9921875,10784.0,[4],1,NA,NA,NA
168,25073.640625,13576.0,"[5,6]",2,NA,NA,NA
168,19476.1328125,12262.0,[8],1,NA,NA,NA
