time_in_hour,cumulative_size,size,pcore_ids,pcore_power,SCA-1,CD11b,Ly6C
-1,0,0,[],0,0.0,0.0,0.0
0,15622,15622,"[0,8]",2,140.75246447318113,392.51248239662,525.9023812572016
0,31291,31291,"[1,2,5]",3,145.25892429133322,130.4530695727203,189.72602345722487
0,2868,2868,[3],1,283.4260808926067,144.6474895397489,704.5216178521625
0,5055,5055,[6],1,157.71909000989226,357.90662710187934,778.5111770524259
0,8922,8922,[10],1,213.70354180676975,459.7241649854308,559.0585070611962
0,5621,5621,[9],1,127.14214552571008,514.2608076854667,588.9217221135033
0,3466,3466,[13],1,232.49365262550407,554.0767455279861,673.3433352567805
0,4399,4399,[14],1,359.7988179131564,359.7988179131628,631.4571493521264
0,3185,3185,[15],1,145.45054945055006,320.7921507064361,380.79246467817916
24,17821.0,10010.0,"[0,8]",2,150.80761461197702,379.04416138263883,529.9773020593689
24,28986.5,19629.0,"[1,5]",2,161.03931140358833,129.82419402135523,239.19005399065034
24,18059.0,11771.0,[2],1,148.01104712332125,118.96907359211454,113.96605570629579
24,7285.0,5851.0,[3],1,333.0999313658175,137.00995195607427,700.0631434454339
24,5987.0,4760.0,[4],1,311.13278770669524,150.43444128946038,396.5906129948216
24,6859.5,4332.0,[6],1,184.19651578103483,363.6133828996265,787.7846781835425
24,6134.5,4930.0,[7],1,347.48219088759845,128.525633710979,181.58488874398947
24,18125.5,10854.0,"[9,10]",2,188.3411492096783,480.26528923340146,573.761303136464
24,3736.5,2417.0,[11],1,147.06503412284306,146.82711093269134,667.054328917437
24,3423.5,2394.0,[12],1,396.38016649627195,354.90273112311957,446.62187819482943
24,6101.0,4368.0,[13],1,258.07679069004985,551.1724307490573,691.9067366005547
24,8230.5,6031.0,[14],1,365.6324038636711,357.80833485207484,653.8377984326601
24,4245.5,2653.0,[15],1,161.99552467318568,323.7633965375105,360.6067600989279
48,21412.5,12502.0,"[0,8]",2,149.1120256859351,378.8903677758319,525.5159252772911
48,31428.25,16935.0,"[1,5]",2,160.4930277696057,128.3835561954616,238.45404214361184
48,20661.5,11632.0,[2],1,151.3761222563736,118.1666021344049,108.26220264743587
48,6102.5,2460.0,[3],1,332.36190086029944,138.7255632937321,696.1897582957795
48,5915.5,2922.0,[4],1,304.02839996618707,150.92122390330482,399.43825543064673
48,9851.75,6422.0,[6],1,187.23221762631107,367.97299972086086,784.3848554825246
48,6268.25,3201.0,[7],1,349.64970286762264,126.10796474295059,179.87927252422963
48,10976.75,7781.0,[9],1,137.95262714374013,540.7157400869987,577.9474571252878
48,13873.0,8006.0,[10],1,217.08846320190258,465.783806674837,555.6665104879979
48,4589.25,2721.0,[11],1,155.80743040802062,147.3682518930109,665.5144631475711
48,4423.75,2712.0,[12],1,388.74478666289355,348.56371856456593,458.3584063294714
48,7808.5,4758.0,[13],1,252.111577127489,549.899276429531,691.2827687776116
48,9386.25,5271.0,[14],1,358.62615528032245,353.540418164869,644.6777999733681
48,4799.75,2677.0,[15],1,162.94765352362353,335.6745142976193,343.4051773529878
72,9248.375,4506.0,[0],1,106.27189911741863,425.82200927190144,512.5517320610368
72,35129.125,19415.0,"[1,5]",2,159.1280027612457,132.0905160603919,232.95019801944878
72,24856.75,14526.0,[2],1,152.27525219508087,122.31597553984435,103.03654942822315
72,6353.25,3302.0,[3],1,333.1444929760321,148.7019045370482,687.6565537323405
72,6050.75,3093.0,[4],1,303.8375408007237,158.18638185348865,395.4738668760066
72,7125.875,2200.0,[6],1,206.98279158699825,366.5165330573425,772.7470310663592
72,7318.125,4184.0,[7],1,351.8166026133703,134.51480058074893,175.91720898454167
72,11916.875,5953.0,[8],1,192.5560392300855,357.0440551738608,497.23633502910724
72,27375.875,14951.0,"[9,10]",2,196.47974265662913,503.3633491166929,538.1229686722327
72,3771.625,1477.0,[11],1,173.05130414609263,149.68902661319717,647.6985715706081
72,4746.875,2535.0,[12],1,393.5045424621408,347.60897959183603,463.6405003291651
72,7451.25,3547.0,[13],1,268.8377956718661,547.5562154001024,679.6168092601891
72,10710.125,6017.0,[14],1,351.96558163419394,358.7040650786045,659.0481903806007
72,6693.875,4294.0,[15],1,172.20593452970246,354.29596085974003,339.4847528524213
96,9242.1875,4618.0,[0],1,107.30383770076737,431.83021470837076,515.5917159763305
96,36494.5625,18930.0,"[1,5]",2,161.67005016158555,131.95264705529775,232.1236297188098
96,22319.375,9891.0,[2],1,154.98793929041818,122.32877544734187,101.84966536921311
96,7690.625,4514.0,[3],1,383.43751320601353,142.28793986184493,685.0998455912214
96,6421.375,3396.0,[4],1,311.8043253975943,158.47433376807967,388.61299176578143
96,8174.9375,4612.0,[6],1,226.7667183999869,356.3561800931183,786.1600623857979
96,8558.0625,4899.0,[7],1,389.5298658428786,145.37403325811135,183.88099672092923
96,10007.4375,4049.0,[8],1,192.68720139396564,357.6619576689829,495.31447236118294
96,33170.9375,19483.0,"[9,10]",2,195.3500541701622,514.3002684955761,547.1482246318783
96,4496.8125,2611.0,[11],1,185.65557547707556,150.24096234833,665.9964280254072
96,4636.4375,2263.0,[12],1,438.0980952509304,349.06394996158036,438.190043540974
96,9376.625,5651.0,[13],1,273.4035767133662,559.6470078519743,660.2317331662517
96,8940.0625,3585.0,[14],1,365.46094476408035,370.98898217993303,663.1483001377252
96,4844.9375,1498.0,[15],1,173.45208271520727,346.5983694320096,341.5241682684246
120,7894.09375,3273.0,[0],1,110.45182909691833,439.333255479771,509.6402175677239
120,18993.5,8882.0,[1],1,218.0903401163563,130.81739970253025,239.46082870455714
120,17845.6875,6686.0,[2],1,162.62881263330746,122.24622370250486,99.29286487281563
120,9265.3125,5420.0,[3],1,410.70282977503217,141.38040068805037,690.96374245337
120,7541.6875,4331.0,[4],1,323.4318910721191,157.78531827260173,384.6186778489562
120,12629.78125,4494.0,[5],1,101.60128466200312,134.07356372462812,222.2199934183327
120,5775.46875,1688.0,[6],1,253.5696994291568,348.5048291534762,786.3397559721876
120,10211.03125,5932.0,[7],1,408.98949053260253,146.53818939688358,185.02269604257611
120,9635.71875,4632.0,[8],1,203.56660601992152,361.38880078354134,489.04398672906467
120,39846.46875,23261.0,"[9,10]",2,213.82003188802116,517.0003686022986,539.7207194489447
120,3973.40625,1725.0,[11],1,215.99154535230315,145.24004907628048,651.7696324784318
120,4672.21875,2354.0,[12],1,465.0735196741355,349.22371598076245,426.8916935877642
120,12575.3125,7887.0,[13],1,297.2413931065307,567.9582962650048,633.3554484232485
120,11535.03125,7065.0,[14],1,391.9146594206151,395.2859983582605,697.061884856186
120,4792.46875,2370.0,[15],1,178.08467713013476,335.5224212468779,342.13298208778144
144,5694.046875,1747.0,[0],1,115.32756250360761,450.4576462807922,502.4224230899056
144,18870.75,9374.0,[1],1,235.071125286488,127.97494220552943,242.84289840096437
144,14391.84375,5469.0,[2],1,175.6743978251598,120.68474222595619,97.62861125767863
144,6641.65625,2009.0,[3],1,425.1823528581411,140.0121839902513,683.4267431410656
144,10218.84375,6448.0,[4],1,NA,143.07291676223184,434.46695596064785
144,9037.890625,2723.0,[5],1,103.91163590785986,132.28218178674794,222.1136586420011
144,7626.734375,4739.0,[6],1,NA,300.24375603090397,755.1637516876284
144,18428.515625,13323.0,[7],1,465.5222595756431,144.88247832630196,211.70577951120205
144,6608.859375,1791.0,[8],1,222.62075764776088,351.10754976156437,495.3796064468396
144,39785.234375,19862.0,"[9,10]",2,230.28665667814192,522.3411610384634,528.2691611798459
144,3089.703125,1103.0,[11],1,NA,136.31240359864674,654.4242873253409
144,4353.109375,2017.0,[12],1,499.4433684255858,NA,441.76714202132894
144,15793.65625,9506.0,[13],1,337.7707238072214,562.1287680773738,626.2162596928748
144,14253.515625,8486.0,[14],1,444.2830167995818,NA,705.9709041080879
144,3799.234375,1403.0,[15],1,195.45875608161316,342.2372065095345,333.77798980880186
168,4798.0234375,1951.0,[0],1,128.7280651049397,457.2465110144632,487.9829047443041
168,18957.375,9522.0,[1],1,252.67898212436896,128.91661268042122,243.62665255606336
168,12084.921875,4889.0,[2],1,192.1572407506794,121.29039738310205,97.52093323938043
168,11615.828125,8295.0,[3],1,485.5341741400822,137.4915659263425,654.4830612324536
168,11516.421875,6407.0,[4],1,407.20174316295294,140.74865511341827,430.33583022070377
168,7023.9453125,2505.0,[5],1,109.1282699248728,132.89439250777127,221.25392602314545
168,5224.3671875,1411.0,[6],1,333.25643207385684,303.04429812821263,742.436649773672
168,19623.2578125,10409.0,[7],1,465.28487799673496,143.47635518598918,210.07483427071782
168,5589.4296875,2285.0,[8],1,243.74662833165766,358.5935100713246,496.83585506683295
168,9187.5234375,2877.0,[9],1,180.49587118400385,564.2996471947777,545.3273393010018
168,27716.09375,14134.0,[10],1,272.54819261146946,508.8687695551414,503.8499873155771
168,3579.8515625,2035.0,[11],1,293.8730896226894,141.0165815185249,636.8586358983986
168,6010.5546875,3834.0,[12],1,521.8952272759781,323.6179520140998,433.0637485361046
168,15616.828125,7720.0,[13],1,355.00546635890163,567.2841626170513,612.3659744046115
168,16803.7578125,9677.0,[14],1,462.2860283762791,420.14965727996935,706.8229492938026
168,3948.6171875,2049.0,[15],1,217.05543277611062,352.42228193018644,328.5974164214925
