time_in_hour,cumulative_size,size,pcore_ids,pcore_power,SCA-1,CD11b,Ly6C
-1,0,0,[],0,0.0,0.0,0.0
0,36443,36443,"[0,6,7]",3,167.79565348626835,438.95499821639373,550.0418736108427
0,35108,35108,"[1,2,4]",3,158.16534692947758,135.8989973795145,194.13512589723186
0,5322,5322,[5],1,164.27865464111332,363.58718526869626,777.294250281851
0,5137,5137,[8],1,194.62468366751085,150.84777107261027,695.2871325676459
0,5474,5474,[9],1,371.26470588234764,344.4757033248087,591.5047497259771
24,44935.5,26714.0,"[0,6,7]",3,181.39590079113594,438.65824348232513,554.9699235570978
24,55034.0,37480.0,"[1,2,4]",3,174.37058000509023,131.1620997928555,195.69624232292716
24,6625.5,5369.0,[3],1,377.6106708927602,162.41264810203006,389.6927779035527
24,8156.0,5495.0,[5],1,200.41460274644487,377.5765693967625,787.3035801863655
24,9935.5,7367.0,[8],1,249.0283830708056,139.55669065472318,692.9310049821353
24,10312.0,7575.0,[9],1,382.8066815360676,342.09930178432796,619.598089604347
48,56942.75,34475.0,"[0,6,7]",3,177.73721413174002,450.58174657880096,550.5399985072715
48,41181.75,23088.0,"[1,2]",2,143.22310853715916,122.83589211240464,162.86260904405384
48,19302.25,9879.0,[4],1,239.6055900218888,144.862619642787,253.32068800269477
48,6520.75,3208.0,[3],1,377.67231530115095,170.88011348387894,388.2646551393617
48,11667.0,7589.0,[5],1,199.9834361875381,380.37809634010426,782.5112711065383
48,9885.75,4918.0,[8],1,241.67976633032268,140.86060744000193,685.3807753584695
48,11999.0,6843.0,[9],1,373.06352612716904,343.9284107008912,608.3981790149192
72,60259.375,31788.0,"[0,6,7]",3,187.42076025514916,455.96480008297556,523.0820556967269
72,48290.875,27700.0,"[1,2]",2,142.40290997005465,127.18579855925202,157.0275466120657
72,21149.125,11498.0,[4],1,246.06906905132095,148.4436944790859,244.80628040167105
72,6810.375,3550.0,[3],1,382.19692381109394,181.32323844134868,378.2235743259363
72,10501.5,4668.0,[5],1,238.66289339618123,381.4028115031186,766.4893110508037
72,9626.875,4684.0,[8],1,260.3590339544224,148.2231123807048,672.8691813283119
72,12111.5,6112.0,[9],1,370.8728584403177,349.6842257358707,607.0948169095494
96,64534.6875,34405.0,"[0,6,7]",3,190.49206579795012,475.62004445283867,536.0994097166729
96,45970.4375,21825.0,"[1,2]",2,142.51492739220024,127.32588742493482,161.1150386049713
96,21678.5625,11104.0,[4],1,249.89331049971588,144.95491225490667,243.99414456101536
96,9328.1875,5923.0,[3],1,427.21731177680323,191.51337009467352,339.7350436512989
96,10894.75,5644.0,[5],1,248.3751520227629,374.0640962390141,778.2537231235215
96,11058.4375,6245.0,[8],1,282.68577161104383,142.5510328651764,680.7005736569919
96,10909.75,4854.0,[9],1,399.2585817731781,353.3556910103345,615.3148731639143
120,72622.34375,40355.0,"[0,6,7]",3,211.6119526746897,487.5134654236469,533.3841616410214
120,37151.21875,14166.0,"[1,2]",2,148.07473257523029,128.14503898341138,160.68835981995747
120,22887.28125,12048.0,[4],1,269.252595259649,144.3883188397489,244.81742042865125
120,10161.09375,5497.0,[3],1,443.4593070996901,191.35295474466025,320.41453153111587
120,10894.375,5447.0,[5],1,307.5322442774328,376.86745740347527,782.3004876369675
120,11833.21875,6304.0,[8],1,324.3028418408963,136.43471635728935,677.7207068026158
120,11637.875,6183.0,[9],1,428.28374219949177,369.819415056442,620.7535068687398
144,77785.171875,41474.0,"[0,6,7]",3,267.8998513735046,474.11886282953617,539.789357748328
144,57767.25,27748.0,"[1,2,4]",3,242.09044619789077,143.4650466960087,216.85139557880933
144,12775.546875,7695.0,[3],1,461.51439578785374,171.37525913151867,314.43859790737895
144,9979.1875,4532.0,[5],1,354.7339697620635,357.6370023235857,744.4177632197002
144,10096.609375,4180.0,[8],1,354.54657117256073,152.27517127501028,657.792179614752
144,10189.9375,4371.0,[9],1,456.374273946721,343.5396009543741,623.2665175203476
168,73309.5859375,34417.0,"[0,6,7]",3,290.87260171360117,480.2818508237801,533.6475098594573
168,53765.625,24882.0,"[1,2,4]",3,266.16271389131083,151.14961668119741,221.94244725370496
168,17145.7734375,10758.0,[3],1,460.3026761788519,176.67364724998248,334.10178574439266
168,20568.5625,10484.0,"[5,9]",2,440.9163772383176,351.2985354621894,670.8653873326106
168,14507.3046875,9459.0,[8],1,415.98272368176663,145.8848839620125,623.3548917975047
