time_in_hour,cumulative_size,size,pcore_ids,pcore_power,SCA-1,CD11b,Ly6C
-1,0,0,[],0,0.0,0.0,0.0
0,38649,38649,"[0,3,6,7]",4,NA,NA,NA
0,34292,34292,"[1,2]",2,160.87061122127957,141.71766009564973,NA
0,3378,3378,"[4,9]",2,NA,NA,NA
0,5293,5293,[6],1,NA,NA,NA
24,30156.5625,27741.0,"[0,3,6,7]",4,NA,NA,NA
24,42792.0625,40524.0,"[1,2,9]",3,NA,139.221067575325,NA
24,2451.3125,2365.0,[4],1,NA,NA,NA
48,37561.78515625,35677.0,"[0,3,6,7]",4,NA,NA,NA
48,37025.50390625,34351.0,"[1,2,9]",3,NA,138.3092665539138,NA
48,2298.20703125,2145.0,[4],1,208.544104524417,NA,NA
48,6450.32421875,6175.0,[5],1,NA,387.59602684700207,NA
48,5463.1875,5083.0,[10],1,NA,NA,NA
48,4215.17578125,3897.0,[6],1,NA,NA,NA
72,35232.611572265625,32885.0,"[0,3,6,7]",4,209.35653819481402,NA,NA
72,43172.093994140625,40858.0,"[1,2,9]",3,NA,147.3200406709391,NA
72,1852.637939453125,1709.0,[4],1,NA,188.45927530225399,NA
72,2835.448486328125,2572.0,[6],1,NA,NA,NA
96,38630.0382232666,36428.0,"[0,3,6,7]",4,NA,NA,NA
96,38603.907287597656,36069.0,"[1,2,11]",3,NA,149.41897182908164,NA
96,2306.7898712158203,2191.0,[4],1,275.17658229816124,NA,NA
120,44973.37738895416,42559.0,"[0,3,6,7]",4,NA,NA,NA
120,29324.744205474854,26912.0,"[1,2,11]",3,NA,148.93782969991662,NA
120,3370.1743669509888,3226.0,[4],1,NA,NA,NA
144,35568.836086809635,32758.0,"[0,3,6,7]",4,NA,NA,NA
144,20637.73774266243,19114.0,"[1,2]",2,NA,139.15007339512798,NA
144,4711.635897934437,4501.0,[4],1,NA,NA,NA
144,11879.62416857481,11318.0,"[5,10]",2,NA,NA,NA
144,13943.138433277607,13295.0,"[9,11]",2,NA,NA,NA
168,33370.0522554256,31147.0,"[0,3,6,7]",4,NA,NA,NA
168,20438.858608916402,19149.0,"[1,2]",2,NA,NA,NA
168,14404.544722564518,13519.0,"[4,9]",2,NA,NA,NA
168,8198.126726459712,7704.0,[5],1,NA,NA,NA
168,11907.7646211721,11300.0,"[8,11]",2,NA,NA,NA
