time_in_hour,cumulative_size,size,pcore_ids,pcore_power,SCA-1,CD11b,Ly6C
-1,0,0,[],0,0.0,0.0,0.0
0,26500,26500,"[0,8,9,10,11]",5,0.1987680305278796,0.4490423034235472,0.5575209480186581
0,31973,31973,"[1,4,7]",3,0.177984549463613,0.15970577125807367,0.16657421904631817
0,5828,5828,"[5,18]",2,0.22897596261365158,0.18923720562613938,0.4848989518383716
0,3517,3517,[5],1,0.2267682172944895,0.1857898996084948,0.2942478562603653
0,10894,10894,[14],1,0.202461204291407,0.5468414470334053,0.609742883743449
24,30026.0,16776.0,"[0,8,9,10,11]",5,0.21420645178673045,0.4425689101119908,0.5616148261706964
24,50143.5,34157.0,"[1,4,7]",3,0.19568831834657321,0.15535058048559022,0.1694924875185046
24,6295.5,4537.0,[5],1,0.25598113151983876,0.18094803765240647,0.2980177802258797
24,3618.5,2069.0,[6],1,0.16675619825087612,0.37889675167268283,0.8018706763344624
24,4675.5,3520.0,[18],1,0.28136172421623856,0.20253659322617013,0.7810156435515762
24,13542.0,8095.0,[14],1,0.21964313272565367,0.5490188142671281,0.614323284911844
24,7303.0,5531.0,[12],1,0.37419022811926683,0.3870617696936056,0.6693378441968074
24,5353.5,4138.0,[15],1,0.2938894328293038,0.5561548519660034,0.7575558358154224
24,3666.5,3018.0,[17],1,0.37760087154114397,0.19116675192352414,0.330059039938139
48,33556.0,18543.0,"[0,8,9,10,11]",5,0.2120655426247072,0.4481469468340632,0.5546600822319815
48,55396.75,30325.0,"[1,4,7]",3,0.19334355851708082,0.15392557374122726,0.16325045320221487
48,6285.75,3138.0,[5],1,0.25638829043935996,0.17953936964724623,0.3024672592149296
48,5513.25,3704.0,[6],1,0.17547578178617051,0.39077613925973975,0.803392656908641
48,4633.75,2296.0,[18],1,0.27773231935936415,0.20829865718153392,0.7852641994949666
48,20432.0,13661.0,[14],1,0.2086734539563429,0.5738094074107859,0.6030325427339609
48,8340.5,4689.0,[12],1,0.3705633604538223,0.38733147637827836,0.6672475813339497
48,7236.75,4560.0,[15],1,0.2791542699307482,0.5557435128359876,0.7602717677026326
48,3782.75,2402.0,[16],1,0.20321759257540536,0.30499310546117475,0.4399022847090866
72,18980.375,11147.0,"[0,9]",2,0.18274944248668773,0.4781904776435722,0.5032355245843769
72,64077.375,36379.0,"[1,4,7]",3,0.19192932149205236,0.15157649654314018,0.15052445793986655
72,5371.875,2229.0,[5],1,0.27899026740134847,0.17888933637624693,0.2920321935760545
72,3969.625,1213.0,[6],1,0.1996310111935002,0.3906649647343231,0.7935193145779278
72,10177.625,4467.0,"[8,11]",2,0.2570548083487282,0.42636490046899495,0.526910394977805
72,3934.0,700.0,[10],1,0.21121739031091866,0.4868348824610604,0.5906804563720082
72,10403.25,6233.0,[12],1,0.3880495696434457,0.39562339551260506,0.6663037002795458
72,21251.0,11035.0,[14],1,0.22524635324497672,0.5928514529845909,0.576361151719412
72,7159.375,3541.0,[15],1,0.3098767919411056,0.5510706858037839,0.7565017561699241
72,6608.375,4717.0,[16],1,0.21564617421330723,0.34179564581383065,0.38600915277456166
72,5197.875,2881.0,[18],1,0.30971888631022415,0.2114182200936402,0.7651485072894963
96,18781.1875,9291.0,"[0,9]",2,0.19843993946997268,0.465781731620192,0.499214180131607
96,64135.6875,32097.0,"[1,4,7]",3,0.20193152971121336,0.1569096410862977,0.16673024442135426
96,5555.9375,2870.0,[5],1,0.29642786496630447,0.17903052536178823,0.2857651184031211
96,4789.8125,2805.0,[6],1,0.2280572516604993,0.3579728746502358,0.7943112081939635
96,6117.125,2260.0,[8],1,0.2762725774688991,0.40005551971567094,0.5045694402871423
96,8072.6875,4874.0,"[10,11]",2,0.23722830145725754,0.4746032784769516,0.6058067423205706
96,8090.625,2889.0,[12],1,0.4164090772976361,0.38210695616155255,0.661348785034508
96,30454.5,19829.0,[14],1,0.23520702785385775,0.5914955658760723,0.5794790814117777
96,7175.6875,3596.0,[15],1,0.3308508492560137,0.5384422957407368,0.7459260294138081
96,4675.1875,1371.0,[16],1,0.22630048335200323,0.334174537365507,0.3858545059722859
96,5564.9375,2966.0,[18],1,0.3315551788882788,0.2113692845663898,0.7617065452988
120,10116.8125,4043.0,[0],1,0.1699851440417844,0.46774179424851614,0.4895527922913706
120,53553.84375,21486.0,"[1,4,7]",3,0.20989390881789535,0.16085983042561142,0.1685760919693001
120,7269.96875,4492.0,[5],1,0.317947047339727,0.19078153810987855,0.3051523302719573
120,13005.34375,6630.0,"[8,9]",2,0.27673504400835186,0.4550815677479247,0.5123815442297818
120,7624.34375,3588.0,"[10,11]",2,0.2672137328452146,0.4888318034344574,0.592086058996771
120,7081.3125,3036.0,[12],1,0.43157623587720284,0.3981453109666118,0.6763415528209734
120,41401.25,26174.0,[14],1,0.2646102331966987,0.5923084479696743,0.5711529295733913
120,7573.84375,3986.0,[15],1,0.3835744943268498,0.5392741961064612,0.7569786745271831
120,4342.59375,2005.0,[16],1,0.22967911513427794,0.33738679031818797,0.39666543242102903
120,6079.53125,4336.0,[17],1,0.4811512601717436,0.17997786690815562,0.2132642776037118
120,6906.46875,4124.0,[18],1,0.3791402916059913,0.21333883857449096,0.7748217379523881
144,7350.40625,2292.0,[0],1,0.16865260351877565,0.48852469052167347,0.4893741148441322
144,44177.921875,17401.0,"[1,4,7]",3,0.22400320170158738,0.15790041807736824,0.167742311919545
144,7556.28125,5814.0,[2],1,0.6095179716220401,0.141718552788472,0.63408725156007
144,4847.234375,3550.0,[3],1,0.5278590967925325,0.29332777225806167,0.4349828433999505
144,8254.984375,4620.0,[5],1,0.34965282615365434,0.18202115633569477,0.313575427625049
144,6910.890625,2987.0,[9],1,0.2843796225897616,0.505278736303365,0.5073841835399538
144,6957.671875,5423.0,[11],1,0.37222272449584815,0.5472902558986535,0.5665420118979366
144,7932.65625,4392.0,[12],1,0.4604472604599643,0.4086414274253847,0.6956073079336038
144,39686.625,18986.0,[14],1,0.27862477557233084,0.6012727306112391,0.5604275962256106
144,9728.921875,5942.0,[15],1,0.45848831326308176,0.5588599104903011,0.7671078625558838
144,13614.765625,10575.0,[17],1,0.5392177300996848,0.16495731919517226,0.18767015859732275
144,6497.234375,3044.0,[18],1,0.40200936294009876,0.21273561857370005,0.7718652772677548
168,6263.203125,2588.0,[0],1,0.18006993793028364,0.4995316864278061,0.4765859515981845
168,38929.9609375,16841.0,"[1,4,7]",3,0.24460583817071233,0.158856607028735,0.1718544151709861
168,10767.140625,6989.0,[2],1,0.6036745809321951,0.14304734708982345,0.6324377400160648
168,7083.6171875,4660.0,[3],1,0.5443894348070606,0.27920635388631415,0.42825191882520136
168,9822.4921875,5695.0,[5],1,0.3823547911308432,0.18072015887761156,0.31884930700498193
168,9267.4453125,5812.0,[9],1,0.31067600007376456,0.5133234719329568,0.4954984130793169
168,11334.8359375,7856.0,[11],1,0.39855779200497987,0.5738950767125354,0.5555344840631381
168,9533.328125,5567.0,[12],1,0.48173887929426035,0.4114423140053751,0.6941366259925716
168,4282.96875,2627.0,[13],1,0.3674947050290172,0.14989855898918247,0.5809950470195552
168,31007.3125,11164.0,[14],1,0.2914905835686224,0.6095442013194844,0.549799379509094
168,10834.4609375,5970.0,[15],1,0.4999436399955267,0.5636062663978718,0.7524355219093366
168,14997.3828125,8190.0,[17],1,0.5350497402153802,0.16309482283467372,0.18451914839423847
168,5813.6171875,2565.0,[18],1,0.426013820256573,0.2171219684743733,0.7504022811167479
