time_in_hour,cumulative_size,size,pcore_ids,pcore_power,SCA-1,CD11b,Ly6C
-1,0,0,[],0,0.0,0.0,0.0
0,37394,37394,"[0,3,7]",3,NA,NA,NA
0,37701,37701,"[1,8,9]",3,NA,140.11760961247745,NA
0,4770,4770,[5],1,NA,NA,NA
0,3818,3818,[8],1,NA,NA,NA
24,29383.125,27046.0,"[0,3,7]",3,NA,NA,NA
24,43768.3125,41412.0,"[1,8,9]",3,NA,137.1590662765446,NA
24,4616.125,4318.0,[5],1,NA,NA,NA
24,6931.75,6660.0,[6],1,NA,NA,NA
48,35769.4453125,33933.0,"[0,3,7]",3,NA,NA,NA
48,38214.51953125,35479.0,"[1,8,9]",3,NA,NA,NA
48,7321.5078125,7033.0,[5],1,NA,NA,NA
48,7107.234375,6674.0,[6],1,NA,NA,NA
48,4030.1640625,3687.0,[8],1,NA,NA,NA
72,33872.59033203125,31637.0,"[0,3,7]",3,NA,NA,NA
72,42910.407470703125,40522.0,"[1,8,9]",3,NA,NA,NA
72,11210.79638671875,10309.0,"[5,6]",2,NA,NA,NA
72,3918.88525390625,3667.0,[8],1,280.2142088023504,180.1430233107241,NA
96,37548.03689575195,35431.0,"[0,3,7]",3,NA,NA,NA
96,38857.900466918945,36176.0,"[1,8,9]",3,NA,144.8048857379204,NA
96,4758.398345947266,4504.0,[4],1,NA,NA,NA
96,5067.349639892578,4674.0,[5],1,NA,NA,NA
120,43752.7523059845,41406.0,"[0,3,7]",3,NA,NA,NA
120,30059.618779182434,27631.0,"[1,8,9]",3,NA,144.59048522034163,NA
120,5264.399896621704,4967.0,[4],1,NA,NA,NA
120,10081.29217338562,9546.0,"[5,6]",2,NA,NA,NA
144,34357.54701912403,31623.0,"[0,3,7]",3,NA,NA,NA
144,21437.53503960371,19889.0,"[1,9]",2,NA,135.18918707753912,NA
144,6153.050080239773,5881.0,[2],1,NA,NA,NA
144,15408.216127634048,14749.0,"[4,8]",2,NA,NA,NA
144,12664.080760836601,12034.0,"[5,6]",2,NA,NA,NA
144,5979.570614993572,5824.0,[10],1,NA,NA,NA
168,31932.346688695252,29785.0,"[0,3,7]",3,NA,NA,NA
168,22018.845939975232,20679.0,"[1,9]",2,NA,NA,NA
168,7620.565630014986,7236.0,[2],1,NA,NA,NA
168,8434.376562096179,7788.0,[4],1,NA,NA,NA
168,9492.662927158177,8965.0,[5],1,421.103644715436,NA,NA
168,12654.360109318048,11964.0,"[8,10]",2,NA,NA,NA
