time_in_hour,cumulative_size,size,pcore_ids,pcore_power,SCA-1,CD11b,Ly6C
-1,0,0,[],0,0.0,0.0,0.0
0,30919,30919,"[2,16]",2,160.43972961609632,142.75995342669572,NA
0,28019,28019,"[8,9,14]",3,NA,NA,NA
0,4761,4761,"[9,15]",2,NA,NA,NA
24,25052.75,20129.0,"[1,4,16]",3,NA,NA,NA
24,26676.0,22241.0,[2],1,NA,131.6956815114711,NA
24,25776.75,18772.0,"[8,9,14]",3,NA,NA,NA
24,6995.25,5805.0,"[9,15]",2,NA,NA,NA
48,43092.9375,32124.0,"[2,16]",2,179.91829287572128,138.1990305836078,NA
48,5744.125,4622.0,[5],1,246.4010075511922,NA,NA
48,29525.375,23815.0,"[8,14]",2,189.19962066527634,NA,NA
48,5877.875,4587.0,[13],1,NA,NA,NA
48,4777.0,3762.0,[15],1,NA,NA,NA
72,7760.609375,6793.0,[1],1,303.2294661139248,164.35632068196898,256.7142641424338
72,44082.234375,33309.0,"[2,16]",2,161.03895453915862,133.06096276738535,173.10172996987464
72,5854.03125,4418.0,[5],1,296.84818421066313,436.5233039198416,734.1271319443314
72,24171.34375,16790.0,"[8,14]",2,193.58987592487622,499.7296656810809,544.9286396727506
72,14120.9375,11903.0,"[12,15]",2,187.25915750105307,392.5846061920468,444.81985969415797
72,5985.46875,4516.0,[13],1,356.88025165112913,352.5770250867985,597.6074111781152
96,43150.55859375,32130.0,"[2,16]",2,181.28354508736663,132.28677270346014,185.23212719128395
96,21106.26953125,17068.0,[8],1,218.93917276875484,548.4483098457312,582.0340116652997
96,5438.421875,2620.0,[12],1,NA,399.6140015054915,427.36720354882283
96,11918.56640625,9914.0,[14],1,149.86799645904802,446.30858695057464,528.7456918745138
120,7290.7880859375,6002.0,[1],1,NA,NA,NA
120,19763.828125,13080.0,[2],1,NA,137.85923581985608,NA
120,5430.876953125,4159.0,[5],1,374.4310406461271,NA,NA
120,39195.908203125,32756.0,"[8,9]",2,NA,NA,557.8392803477847
120,9263.6416015625,6284.0,[14],1,NA,NA,NA
120,11953.8115234375,7850.0,[16],1,NA,160.14062027319946,NA
144,12235.697021484375,10413.0,[1],1,NA,147.54117220531091,NA
144,15755.95703125,10815.0,[2],1,NA,135.86318852616483,NA
144,7919.71923828125,6562.0,[5],1,NA,NA,729.2610777341104
144,5667.54443359375,5083.0,[6],1,NA,NA,NA
144,42727.887451171875,30613.0,"[8,9,14]",3,NA,NA,NA
144,9518.452880859375,6530.0,[16],1,NA,NA,NA
168,12106.924255371094,9048.0,[1],1,NA,NA,NA
168,13757.9892578125,9819.0,[2],1,NA,139.98336559560084,NA
168,6148.755676269531,4955.0,[4],1,NA,NA,NA
168,8554.929809570312,6575.0,[5],1,NA,NA,705.4582423357424
168,6357.8861083984375,4941.0,[6],1,NA,NA,NA
168,27720.994262695312,19085.0,"[8,9]",2,NA,NA,NA
168,7029.9827880859375,5721.0,[11],1,NA,NA,NA
168,8834.977600097656,6789.0,[14],1,NA,NA,NA
168,9147.613220214844,6768.0,[16],1,NA,NA,NA
