time_in_hour,cumulative_size,size,pcore_ids,pcore_power,SCA-1,CD11b,Ly6C
-1,0,0,[],0,0.0,0.0,0.0
0,37917,37917,"[0,3,7,8]",4,174.26328559749132,431.18930822586304,556.5854102381517
0,40583,40583,"[1,2,4,10]",4,170.99627923022177,142.47379444595055,252.6824532439681
24,22957.5,21141.0,"[0,7,8]",3,188.5896248502686,394.25298377436616,541.3391348143302
24,44635.6875,42278.0,"[1,2,10]",3,191.91583248269873,137.06520567203154,278.03467656905616
24,7773.3125,7220.0,[3],1,225.65733720341328,528.6815546782652,644.0954065593007
24,6537.75,6243.0,[9],1,374.1884153569586,342.36305495009594,646.7915854078235
48,37657.67578125,35737.0,"[0,3,7,8]",4,182.37743207855897,449.64957374539125,554.4051994919275
48,38469.73046875,35680.0,"[1,2,10]",3,176.14437020340168,136.40628401936573,252.07600080460944
48,7173.4140625,6859.0,[5],1,202.67058158543398,379.08967084405543,770.4019240968978
48,6565.609375,6157.0,[9],1,349.43365702916344,342.09829211873375,619.5236227358923
72,35189.604736328125,32836.0,"[0,3,7,8]",4,204.79358725219524,449.25816828327083,503.8821787351323
72,47426.771240234375,44825.0,"[1,2,4,10]",4,190.89012417915995,145.77393536720706,229.8513280046171
96,38818.35029602051,36619.0,"[0,3,7,8]",4,202.5236976016519,478.27037841190105,548.1669688869292
96,40243.022384643555,37564.0,"[1,2,10]",3,193.87580715183427,142.44252190579408,271.8421583048606
96,4659.213912963867,4158.0,[7],1,188.43467046359075,339.78863371179636,467.7296852412887
120,45388.14689350128,42962.0,"[0,3,7,8]",4,237.35373609930542,483.8988743993502,531.7115203075296
120,31929.188899040222,29414.0,"[1,2,10]",3,224.37103869419343,144.32990654476893,293.50859517578385
120,5558.200869560242,5267.0,[7],1,211.66351621750238,334.4743720553316,450.4335755068683
144,33726.371626496315,31237.0,"[0,3,8]",3,266.43444537284097,518.2477538354748,532.0414457066685
144,28626.574306190014,26631.0,"[1,2,10]",3,259.36582562957165,138.0087261178599,297.3117956813419
144,11286.231057882309,10935.0,[4],1,496.59558576050716,146.77425321545456,203.9226066504945
144,7599.716391205788,7258.0,[5],1,393.09528197285925,363.97917153072746,736.3670471540757
144,7677.118278741837,7457.0,[6],1,551.5641031108438,147.97920031327175,549.7012649092039
168,31277.89822665602,29170.0,"[0,3,8]",3,293.01891158117127,512.9229721582046,512.9135309430832
168,10507.093760490417,9864.0,[1],1,343.7691777752325,151.0314401809503,311.84978025564607
168,14173.126174408942,13330.0,[2],1,213.72195109100275,137.4875081115021,173.06270800801852
168,9424.389441117644,8719.0,[4],1,490.08472236408033,147.8857614229516,208.19851151055073
168,8453.982274450362,7979.0,[5],1,419.7694265141884,375.4734220746391,692.1256876266574
168,8933.819892421365,8454.0,[6],1,537.7911673251773,146.68152926236593,563.8003298080233
