time_in_hour,cumulative_size,size,pcore_ids,pcore_power,SCA-1,CD11b,Ly6C
-1,0,0,[],0,0.0,0.0,0.0
0,36584,36584,"[1,2]",2,165.58558386180033,146.64265799256506,NA
0,39152,39152,"[3,7,8,10]",4,NA,NA,NA
0,1208,1208,[11],1,NA,271.0306291390732,435.4726821192051
24,56151.5,34580.0,"[0,3,7,8,10]",5,NA,NA,NA
24,59609.0,41317.0,"[1,2]",2,NA,142.55239141740265,NA
24,5684.5,3612.0,[5],1,NA,NA,NA
24,8666.5,6715.0,"[6,9]",2,NA,NA,NA
24,2589.0,1985.0,[11],1,331.9071069911132,NA,NA
48,69339.75,41264.0,"[0,3,7,8,10]",5,NA,NA,NA
48,64400.5,34596.0,"[1,2]",2,NA,140.72646563302956,NA
48,8968.25,6126.0,[5],1,207.45376745741902,369.5787918490216,NA
48,5363.25,2929.0,[6],1,NA,NA,NA
72,72660.25,40460.0,"[1,2]",2,182.9464511201134,139.34831458741144,NA
72,42684.625,20965.0,"[3,8]",2,196.64008410522703,484.68062856356636,553.7925131121535
72,18381.625,9837.0,"[5,10]",2,295.2457345310839,368.252493998761,NA
72,8454.625,4268.0,"[6,9]",2,NA,162.4846164081793,681.3094607980828
72,16665.375,10443.0,[7],1,189.44338936267815,367.07806605011865,461.62641854743487
96,70850.125,34520.0,"[1,2]",2,NA,136.9719628229307,194.11082990326457
96,53990.3125,32648.0,"[3,8]",2,202.90686639385697,NA,556.1667544524719
96,9408.5625,4690.0,[5],1,NA,NA,765.0581385307256
96,9297.3125,5070.0,"[6,9]",2,NA,158.83119449841,682.4280672506168
96,13146.6875,4814.0,[7],1,202.00355127480097,348.50450446167457,452.18323532068115
96,8041.25,3569.0,[10],1,NA,NA,NA
120,63167.0625,27742.0,"[1,2]",2,NA,145.92819388664765,NA
120,64838.15625,37843.0,"[3,8]",2,NA,NA,NA
120,15662.90625,6938.0,"[5,10]",2,NA,NA,NA
120,10822.65625,6174.0,"[6,9]",2,NA,NA,NA
120,11245.34375,4672.0,[7],1,NA,NA,NA
144,53250.53125,21667.0,"[1,2]",2,NA,143.78659690601646,NA
144,62582.078125,30163.0,"[3,8]",2,NA,NA,NA
144,19395.453125,11564.0,"[5,10]",2,NA,NA,NA
144,6362.953125,3207.0,[6],1,NA,NA,NA
144,6711.671875,1089.0,[7],1,NA,NA,446.35971151003076
144,8864.375,6609.0,[9],1,NA,NA,NA
144,14100.96875,11900.0,[11],1,NA,NA,NA
168,67023.3359375,30820.0,"[0,3,7,8]",4,NA,NA,NA
168,47635.265625,21010.0,"[1,2]",2,NA,146.10470298888964,NA
168,23855.890625,14699.0,"[4,11]",2,NA,NA,NA
168,21308.7265625,11611.0,"[5,10]",2,NA,NA,NA
168,6400.4765625,3219.0,[6],1,NA,NA,NA
168,13073.1875,8641.0,[9],1,NA,NA,NA
