time_in_hour,cumulative_size,size,pcore_ids,pcore_power,SCA-1,CD11b,Ly6C
-1,0,0,[],0,0.0,0.0,0.0
0,35828,35828,"[0,6,7]",3,165.55015630233598,438.6252372446143,546.6862788880185
0,30844,30844,"[1,2]",2,142.32583322526588,130.70208144209647,185.90902606665708
0,5509,5509,[8],1,292.85405699763805,171.63296424033402,276.7304410963879
0,5580,5580,[4],1,165.80053763440958,366.8820788530462,775.2050179211492
0,4890,4890,[5],1,186.10899795501126,151.2797546012268,697.3488752556236
0,27,27,[10],1,395.62962962962956,243.4444444444444,342.96296296296293
0,5915,5915,[9],1,364.05883347421354,356.90904480135345,589.67979712595
24,61954.0,26126.0,"[0,6,7]",3,174.94071407818907,438.17832585466755,550.6031410401253
24,60652.0,29808.0,"[1,2]",2,148.5341950801341,127.5465607069836,185.71585438237744
24,15919.0,10410.0,[8],1,305.29091023305097,156.04246497895485,266.9190903951243
24,5797.0,4390.0,[3],1,388.9982749698105,131.7419354838713,575.1040193203359
24,11062.0,5482.0,[4],1,192.473603326704,377.2312420900367,783.3967636955347
24,10525.0,5635.0,[5],1,210.36693586698325,149.68275534441878,703.0690736342042
24,664.0,637.0,[10],1,431.43674698795166,246.59487951807216,346.2906626506026
24,13427.0,7512.0,[9],1,367.9733373054222,361.87264467118575,606.8850822968662
48,96201.0,34247.0,"[0,6,7]",3,174.80048024449147,445.1444267731127,549.0898327460138
48,88407.0,27755.0,"[1,2]",2,149.68657459251392,127.12469600823354,183.89100410600946
48,22868.0,6949.0,[8],1,306.30330592967937,152.00651565506277,265.7771121217414
48,5836.0,39.0,[3],1,389.06237148731844,131.6206305688831,575.0921864290588
48,18501.0,7439.0,[4],1,195.77347170423207,380.62439868115115,782.1544240851883
48,15732.0,5207.0,[5],1,217.52053140096544,148.00794558860883,694.3090516145447
48,20950.0,7523.0,[9],1,366.9235799522591,355.3855847255382,602.3854415274492
72,127738.0,31537.0,"[0,6,7]",3,179.6931453443791,448.88074026523145,536.7489392349916
72,120738.0,32331.0,"[1,2]",2,149.60436647948876,128.60990740280502,179.4624227666508
72,30850.0,7982.0,[8],1,304.61241491085804,151.72748784440702,258.79821717990194
72,7790.0,1954.0,[3],1,383.32413350449053,131.64595635430038,574.112323491654
72,22689.0,4188.0,[4],1,212.09198289920084,381.2357970822841,776.0436775529952
72,19342.0,3610.0,[5],1,225.68281460035044,151.75147347740625,691.5239892462014
72,27233.0,6283.0,[9],1,365.32100760106323,357.8997539749577,605.4974846693354
72,3620.0,2115.0,[10],1,411.2566298342516,261.90994475138166,367.1187845303871
96,161817.0,34079.0,"[0,6,7]",3,182.25782210769108,458.2222696008458,539.1005085992092
96,147026.0,26288.0,"[1,2]",2,150.02227497177728,128.679784527906,179.75499571504375
96,39425.0,8575.0,[8],1,307.27216233354716,149.8102219403914,254.90138237159096
96,11363.0,3573.0,[3],1,408.42735193170773,130.82733433072278,585.1421279591646
96,27801.0,5112.0,[4],1,220.08632782993234,379.2967519153971,779.2907089672888
96,23905.0,4563.0,[5],1,228.4264798159362,152.70043923865225,695.712361430663
96,31557.0,4324.0,[9],1,369.4765345248204,363.3774123015513,609.0686377032092
96,7106.0,3486.0,[10],1,445.4506051224312,265.09977483816425,340.9674922600623
120,201550.0,39733.0,"[0,6,7]",3,191.09858595882017,466.0781046886609,537.4919870999544
120,164024.0,16998.0,"[1,2]",2,151.43122957616308,128.9635053406815,179.6633663366339
120,52206.0,12781.0,[8],1,317.7164310615651,149.97682258744084,253.38706278971512
120,11900.0,537.0,[3],1,408.9137815126047,130.3766386554625,585.0332773109232
120,31791.0,3990.0,[4],1,237.7518165518509,380.19536975873575,781.2763675253779
120,29701.0,5796.0,[5],1,250.83515706541544,149.1692198915856,694.0900979764972
120,40049.0,8492.0,[9],1,384.5556693050943,366.53554395865257,614.4891507902838
120,8779.0,1673.0,[10],1,453.85066636291117,260.18407563503786,340.47807267342523
144,241973.0,40423.0,"[0,6,7]",3,210.0578122352498,467.42702284965054,540.7365036594783
144,183226.0,19202.0,"[1,2]",2,163.0818879416714,128.62726905570167,181.1477519565998
144,13727.0,1827.0,[3],1,412.37648430101143,133.1817585779855,586.4852480512851
144,33225.0,1434.0,[4],1,242.14534236267568,380.04960120391183,780.9698118886154
144,31256.0,1555.0,[5],1,257.20213718965533,147.845245712823,692.4626951625266
144,67209.0,15003.0,[8],1,341.69754050796695,148.56263298070112,255.93496406731055
144,50325.0,10276.0,[9],1,403.25782414306775,359.8196920019882,623.2349329359114
144,9059.0,280.0,[10],1,455.0697648747102,260.05320675571244,340.835964234463
168,289354.0,47381.0,"[0,6,7]",3,232.83894122769925,460.22207745528846,539.4643308887973
168,205160.0,21934.0,"[1,2]",2,179.9104747514169,129.40999220120875,187.35026808344577
168,75201.0,7992.0,[8],1,346.2544912966573,149.64426004973194,262.26866664006866
168,18302.0,4575.0,[3],1,426.4136706370876,147.16659381488407,584.468473390886
168,33475.0,250.0,[4],1,242.14942494398554,380.81120238984215,779.3816579536739
168,32381.0,1125.0,[5],1,258.5216021741095,147.8727340106847,683.1530218337907
168,10106.0,1047.0,[10],1,459.1154759548787,253.5045517514346,341.7587571739558
168,56021.0,5696.0,[9],1,410.1671873047582,359.8905231966576,622.2747005587153
