time_in_hour,cumulative_size,size,pcore_ids,pcore_power,SCA-1,CD11b,Ly6C
-1,0,0,[],0,0.0,0.0,0.0
0,35524,35524,"[1,2]",2,0.18493659611669758,0.16400963519150452,0.1835876382327166
0,1951,1951,[5],1,0.25317065866539173,0.23741450607763492,0.37199585844276095
0,32926,32926,"[3,8,9]",3,0.20655873197439178,0.4855717524255002,0.5797119192974661
0,3119,3119,[11],1,0.3468185207733644,0.38781936431069847,0.6184506769701613
24,44026.5,39586.0,"[1,2]",2,0.21453773946411836,0.15894221435845357,0.18908095807452607
24,3406.875,3163.0,[5],1,0.35117271544855905,0.22554112284598826,0.37581482157909085
24,24452.75,20337.0,"[3,8,9]",3,0.23252908412337195,0.49908427028745317,0.5954225069169471
24,5138.25,3925.0,[8],1,0.21456727113295201,0.4196472622485995,0.5370746086737349
24,5993.875,5604.0,[11],1,0.3652897773218352,0.38718706152802457,0.6566280611531832
48,39901.3125,34398.0,"[1,2]",2,0.20547347864162907,0.15797667744899507,0.17895393766404305
48,26970.3125,24556.0,"[3,9]",2,0.21514461711112282,0.5402163778570187,0.5908531030662589
48,6855.640625,6285.0,[6],1,0.2442410701492961,0.43704154956870805,0.7954751649345994
48,5472.28125,4830.0,[8],1,0.206568567570849,0.4252986752729783,0.5342443530926768
48,5445.234375,4696.0,[11],1,0.35596305526282557,0.3849335010616761,0.641720399946942
72,44608.6640625,39621.0,"[1,2]",2,0.2016981607339886,0.1539147461027008,0.1544937622955204
72,24222.2890625,20851.0,"[3,9]",2,0.22500276898645633,0.5680626920919677,0.5357753325703575
72,11208.3359375,9862.0,"[7,8]",2,0.20697049433927836,0.4059887955710739,0.4471208765077525
72,3854.03515625,3170.0,[8],1,0.17008152126782325,0.43757030200059727,0.5098499888544695
72,7551.654296875,6871.0,[11],1,0.395358290254819,0.41061241678957994,0.6733826227550964
96,39911.0830078125,34335.0,"[1,2]",2,0.21751760565270709,0.16226317048802513,0.1806803163289533
96,34302.7861328125,31275.0,"[3,9]",2,0.23978884398701567,0.5566967810804336,0.5698846988229476
120,29736.885375976562,24748.0,"[1,2]",2,0.2379240377936912,0.1691102884415486,0.19210382197670237
120,40127.84826660156,35840.0,"[3,9]",2,0.2787102400726612,0.5661714706280251,0.5594773029325042
144,16046.152645111084,13555.0,[1],1,0.22923225386941762,0.15367936771098126,0.14472645835232079
144,8801.958026885986,7576.0,[2],1,0.33732788994901963,0.17936940352602307,0.28448012647959603
144,33488.981033325195,28473.0,"[3,9]",2,0.3010450112299316,0.584792924565146,0.5484294072257226
144,11429.434535980225,10782.0,[5],1,0.5463664227141594,0.1711311997424567,0.18804016209989008
144,11816.614471435547,10754.0,"[6,11]",2,0.4848995980951157,0.4749034768275801,0.7457160408558977
144,5876.639358520508,5598.0,[10],1,0.6258091867056941,0.1553094639354758,0.6139967697573335
168,15014.769080638885,13009.0,[1],1,0.2520799206587651,0.16027498774688265,0.15358103970964507
168,9154.244753360748,8054.0,[2],1,0.3693212072993221,0.18197670477459407,0.2895702914418045
168,28048.12262916565,23862.0,"[3,9]",2,0.33438481833840117,0.5877670216719031,0.533586518414284
168,9866.679316997528,8438.0,[5],1,0.5268170829944627,0.17101855817047756,0.19045145965650412
168,8059.75462770462,7104.0,[6],1,0.4836116236496554,0.4258138982395133,0.7216782798060729
168,7279.5799198150635,6545.0,[10],1,0.5944824001875438,0.15125448530616614,0.6148046624834737
168,6646.786428928375,6113.0,[12],1,0.49074500204145316,0.20259475602018467,0.42547569992517037
