time_in_hour,cumulative_size,size,pcore_ids,pcore_power,SCA-1,CD11b,Ly6C
-1,0,0,[],0,0.0,0.0,0.0
0,6197,6197,[0],1,86.77666612877493,407.59641762142985,529.5749556236913
0,12025,12025,"[1,4]",2,98.90661122661429,129.98187110187118,200.36133056133056
0,8841,8841,[16],1,149.3362741771325,118.97828299966051,111.11322248614455
0,6473,6473,[5],1,208.9437664143367,107.65348370152942,220.4538853699981
0,5427,5427,[7],1,173.55924083287448,345.9063939561461,452.7748295559247
0,8693,8693,[8],1,184.80444035430884,403.8419417922456,546.3341769239621
0,5502,5502,[9],1,112.30625227190401,507.5985096328639,598.130316248637
0,6970,6970,[10],1,220.827833572453,485.5949784791974,551.4058823529415
0,5033,5033,[11],1,155.56785217564195,354.97258096562706,777.6485197695229
0,5325,5325,[12],1,367.75924882628584,352.64488262910845,600.2550234741782
0,4736,4736,[15],1,188.77132601351425,210.02322635135144,267.55891047297393
24,4619.25,3070.0,[0],1,93.1642041456975,398.40163446446957,536.6819288845592
24,13552.25,10546.0,"[1,4]",2,107.6390267298827,124.96234942537208,212.11638288845006
24,4050.0,3658.0,[2],1,212.27950617283966,143.47567901234518,369.3364814814818
24,3931.5,3427.0,[3],1,400.9210860994488,181.45059137733693,435.593285005724
24,11608.25,9398.0,[16],1,160.54034845907324,116.178989081041,99.03999310834999
24,10378.25,8760.0,[5],1,219.30607279647424,107.63040493339464,223.76783176354448
24,10843.5,9467.0,"[6,13]",2,337.65269516299753,140.19707658966215,500.95515746760674
24,5609.75,4253.0,[7],1,185.00672935514194,339.83983243460096,450.60996479344004
24,8990.25,6817.0,[8],1,194.8319846500387,392.9622090598149,561.4419788103771
24,5033.5,3658.0,[9],1,125.90011920135385,510.5818515943174,603.6048971888343
24,7269.5,5527.0,[10],1,232.68952472659763,493.5258614760311,547.8692826191622
24,5540.25,4282.0,[11],1,188.66391408330037,360.24534091421845,789.0371824376158
24,7722.25,6391.0,[12],1,375.34727572921855,352.84502573731646,627.8102237042319
24,5290.25,4392.0,[14],1,271.70199896034956,538.3669958886644,708.7864467652739
24,4854.0,3670.0,[15],1,204.16403996703886,231.79532344458121,259.6041924186244
48,6530.8125,5376.0,[0],1,100.92361210799216,409.8124371967486,527.3558228780867
48,14454.0625,11066.0,"[1,4]",2,109.44284695047271,125.42579292153984,209.7185177177697
48,4140.5,3128.0,[2],1,214.78444632290854,144.78375196232355,364.237456225094
48,11629.0625,8727.0,[16],1,165.67441485502675,113.92867546287505,92.9991777067157
48,9504.5625,6910.0,[5],1,220.63996238648514,109.82144759424752,219.5234788555505
48,7575.875,4865.0,"[6,13]",2,340.94243239229496,138.89455013447295,468.16873463461354
48,6252.4375,4850.0,[7],1,179.9287677805675,334.51899759093953,454.31230819980124
48,8646.5625,6399.0,[8],1,198.14429867360624,396.8110014818018,557.8910621995739
48,8078.375,6820.0,[9],1,127.22169526668812,535.2974376034794,595.3729942593667
48,9097.375,7280.0,[10],1,221.3148435675125,512.9691325794536,532.8261105538683
48,7747.0625,6362.0,[11],1,187.11651190370694,362.179382507886,783.057166829362
48,7990.5625,6060.0,[12],1,365.2656962510399,351.07520590696754,612.3320948931923
48,5907.5625,4585.0,[14],1,259.57742723838976,535.1867204113377,706.9933453941429
48,3725.5,2512.0,[15],1,199.5329653737764,265.4372902966042,246.09305797879486
72,6547.703125,4915.0,[0],1,109.82130422643918,431.755532116461,491.02844747561926
72,9395.375,7236.0,[1],1,119.66624369703808,124.66576141186479,241.42085534105928
72,4314.125,3279.0,[2],1,236.35076637788617,157.09333439573456,347.3006222293047
72,21178.40625,16817.0,"[4,16]",2,138.70187868244741,127.45663551760371,111.47684847036157
72,10748.140625,8372.0,[5],1,221.06470886679443,117.50155186725553,212.00994067287934
72,8137.96875,6244.0,"[6,13]",2,349.6125876005563,154.2272987347124,446.9317915634658
72,8316.109375,6753.0,[7],1,185.287767905291,357.95546294747925,434.35549789471105
72,6728.640625,4567.0,[8],1,211.84379506447505,406.3667438398816,537.550329398814
72,4708.59375,2689.0,[9],1,137.2924008627882,545.1016791106697,576.1175676124128
72,12202.34375,9928.0,[10],1,225.67443498303308,517.3542288238715,507.6217209808547
72,5316.765625,3380.0,[11],1,243.49969877127924,360.5678176052754,758.4417835091251
72,7055.640625,5058.0,[12],1,366.021135571932,359.5519143592991,611.1031865019346
72,5166.890625,3690.0,[14],1,287.1935127811965,526.7522476344266,690.9594382501558
72,3673.375,2742.0,[15],1,209.05380355259175,295.3133443359307,236.83286402150623
96,6039.92578125,4403.0,[0],1,108.18615126816158,439.55552731466,504.7805611228928
96,9555.84375,7207.0,[1],1,121.00965009958522,130.0744787221167,244.33822153983186
96,5325.53125,4247.0,[2],1,249.9907755681636,156.33014458651394,336.72613867747896
96,3866.1796875,3085.0,[3],1,464.8414687868132,227.03879192759257,438.7028821652511
96,16930.6015625,11636.0,"[4,16]",2,141.0454421704081,126.27809435300458,111.52335545335139
96,10878.03515625,8191.0,[5],1,219.43297757773817,118.04372594286708,209.90602910035696
96,9587.4921875,7553.0,"[6,13]",2,408.395021508327,150.8579309468147,430.0096581727992
96,5433.02734375,3354.0,[7],1,179.83405459232145,347.92613320583445,440.42332306387084
96,7341.16015625,5659.0,[8],1,213.18349662673617,420.56035825400136,543.4554840350602
96,9701.1484375,8524.0,[9],1,148.4046496589116,553.401653879576,583.6924288925215
96,11545.5859375,8495.0,[10],1,232.97589852723598,526.6233838689723,526.432587873474
96,6498.19140625,5169.0,[11],1,248.79225710038156,345.54439907257796,785.9011810377526
96,5202.91015625,3439.0,[12],1,393.75202279372735,378.32947606695325,624.5060974739945
96,6055.72265625,4764.0,[14],1,289.52339245225505,550.9710404350211,670.1269511986638
96,3758.05859375,3029.0,[17],1,218.71659756169853,141.92464214921395,646.2766211776147
120,5011.9814453125,3502.0,[0],1,115.42562305288821,452.77735266799004,499.11124144116496
120,6672.9609375,4284.0,[1],1,123.28924668584939,136.69686623020368,249.74497564213942
120,6290.3828125,4959.0,[2],1,275.7282781627177,156.4658776604662,334.9014609044797
120,4007.544921875,3041.0,[3],1,490.0112661030481,217.59561237762898,450.6240299669144
120,4854.5712890625,3018.0,[4],1,92.54420698436107,133.95327394584803,139.08474132688673
120,9617.5087890625,6898.0,[5],1,232.08888705890996,116.43399291392446,209.08712797876768
120,11280.873046875,8884.0,"[6,13]",2,432.249348013184,144.52137718590697,433.75273697684145
120,5639.2568359375,4281.0,[7],1,188.3760333834456,343.25960053676454,435.39371599655686
120,8428.2900390625,6593.0,[8],1,232.211817436371,430.88517593683673,530.3979117715136
120,7922.287109375,5497.0,[9],1,157.8868408226331,553.0323298023679,569.3431279832309
120,18291.396484375,15405.0,[10],1,253.1595561010726,533.9224313535378,531.0493476644101
120,6131.5478515625,4507.0,[11],1,331.71198790195837,351.33892179995723,787.6887194094938
120,5873.7275390625,4573.0,[12],1,420.4720227801971,418.86766997572727,642.2995030339866
120,7184.9306640625,5671.0,[14],1,321.3683540950548,565.954237173642,652.9366753251064
120,7050.0791015625,4654.0,[16],1,195.47292673605787,119.0082118981102,83.95644552414599
144,3709.995361328125,2457.0,[0],1,130.91816106470978,478.1914126092919,482.66935559495073
144,4660.240234375,2992.0,[1],1,134.15447495079124,134.9993091595584,252.8615602275406
144,7373.595703125,5801.0,[2],1,318.92677604659855,152.21794251871574,343.7216658508318
144,7383.88623046875,6382.0,[3],1,539.9302502565952,172.97111683294153,505.05464119338865
144,9394.377197265625,6990.0,[5],1,250.93076191036005,115.45174467387895,209.31822104463373
144,15220.21826171875,12400.0,"[6,13]",2,486.67958484626706,144.00042032649185,297.52289435179307
144,6092.072509765625,3985.0,[8],1,251.19138593801102,440.96443448034313,527.2141547859571
144,6742.57177734375,4762.0,[9],1,173.5271435861846,553.247536333204,560.6657304874062
144,18358.84912109375,13786.0,[10],1,274.707876313369,540.0440221253132,516.0714312880684
144,7157.886962890625,5625.0,[11],1,358.2104600117852,345.54609001318477,766.7568372136494
144,8505.431884765625,7037.0,[12],1,487.3245216773104,453.49803447354697,681.5746864315709
144,7075.232666015625,5279.0,[14],1,341.31391142068384,569.2335048748712,635.3158118247346
144,5801.519775390625,4039.0,[16],1,221.8118611582489,117.58131546804314,83.86007707352081
144,5002.628662109375,4138.0,[17],1,353.21347658679326,127.86109329143244,644.0529181264911
168,3896.4988403320312,2969.0,[0],1,157.6752535395518,483.0492854686599,464.84558107138747
168,4160.06005859375,2995.0,[1],1,148.95097948567863,142.45763154676243,253.21362897123404
168,8535.39892578125,6692.0,[2],1,350.2831329109166,156.2762799164122,346.5273474990451
168,8082.9715576171875,6237.0,[3],1,524.039934432173,185.64728964668672,482.6255387487177
168,9680.594299316406,7332.0,[5],1,269.91137900803153,119.11575609243629,215.6809299234782
168,11656.112365722656,8586.0,[6],1,489.09045499421904,149.72286166352342,204.46609544678498
168,7726.018127441406,6203.0,[8],1,283.49972755837405,443.6360063790844,513.523091628651
168,4129.6429443359375,2444.0,[9],1,189.0618186029097,560.1302188277351,551.9012814057091
168,15037.712280273438,10448.0,[10],1,293.72926087949975,545.999586054558,499.9150299971319
168,6803.471740722656,5014.0,[11],1,379.0583093020075,354.40816910627575,724.1343655050451
168,9458.357971191406,7332.0,[12],1,509.4934444121676,473.0324411647199,689.0622862136275
168,5930.942199707031,5196.0,[13],1,536.8963258422901,132.82526300095228,669.7411524531577
168,7199.808166503906,5431.0,[14],1,361.34474331773055,577.78718208409,612.0498899909487
168,5264.379943847656,3814.0,[16],1,249.77727458067497,121.90696503129242,86.9543951537782
168,5679.657165527344,4429.0,[17],1,356.41657699705854,136.49721627962188,621.9685967094293
