time_in_hour,cumulative_size,size,pcore_ids,pcore_power,SCA-1,CD11b,Ly6C
-1,0,0,[],0,0.0,0.0,0.0
0,38943,38943,"[0,3,7,11]",4,178.7465269753247,424.31348380967194,555.3977608299285
0,34276,34276,"[1,2]",2,160.5220270743411,141.66539269459736,199.46484420585722
0,3349,3349,"[4,10]",2,235.130486712451,198.9316213795163,362.6237682890414
24,37819.75,28084.0,"[0,3,7,11]",4,198.8240932317122,424.16710845523875,564.9799575618553
24,45149.0,36580.0,"[1,2]",2,178.83357881681027,138.08540056258158,202.690652063168
24,7795.25,6958.0,"[4,10]",2,292.44244892722946,179.1598088579581,352.12581379686446
24,7510.0,6441.0,[6],1,347.94121171770445,350.0978029294277,658.9460053262325
24,6065.5,5136.0,[8],1,240.27483307229272,156.5039568048803,716.8780397329139
48,45603.9375,36149.0,"[0,3,7,11]",4,190.58298145856529,442.70432788835274,557.9139123129421
48,52600.125,38531.0,"[1,2,8,10]",4,191.52197119303642,142.13403366436856,252.71436260845311
48,2981.3125,2298.0,[4],1,211.04360495587156,197.17291042116537,444.4365107649746
48,7384.375,6170.0,[5],1,195.39397376216752,386.6302920016927,767.2046212441787
48,7254.5,5377.0,[6],1,338.4679336963195,348.87926459438995,645.9269591288177
72,44852.984375,33452.0,"[0,3,7,11]",4,208.1586481668768,443.4936805696109,518.7850512316083
72,49856.8125,38885.0,"[1,2]",2,175.3133852695689,145.31467709402807,188.26705007715805
72,6370.953125,4687.0,"[4,10]",2,288.76607454241525,187.8744742373222,346.32644497364794
72,6746.625,4933.0,[6],1,323.8241203935249,350.6944815000081,640.9090888036603
96,48070.24609375,36857.0,"[0,3,7,11]",4,207.84763882739105,469.18923063683803,543.9128894457269
96,44835.203125,32371.0,"[1,2]",2,179.33322666376068,143.5813647235207,199.40758892025667
96,2340.08203125,1780.0,[4],1,256.53478193372575,200.0252011063982,433.3269066088418
96,10188.9296875,7156.0,"[5,6]",2,310.86207993816396,366.2977216387567,707.9074255683438
96,5464.3984375,4353.0,[8],1,262.07491103635135,174.39638898380537,711.1850651160997
96,5726.65625,4694.0,[10],1,396.9430411780413,174.53579272917736,258.1907860990009
120,54796.5615234375,42779.0,"[0,3,7,11]",4,235.19802025528284,481.44339191846166,535.0348415523208
120,40145.900390625,27571.0,"[1,2,8]",3,211.74139232188435,147.68403982135257,277.77569987517654
120,3860.0205078125,3275.0,[4],1,307.4535759580667,194.87534929000975,419.0607598273668
120,10866.232421875,8319.0,"[5,6]",2,370.00137790686006,386.279923864624,712.5140937080915
120,7006.6640625,5575.0,[10],1,424.2117304898327,160.73735118798766,226.04644030292562
144,46027.140380859375,32328.0,"[0,3,7,11]",4,258.0430067672935,501.7222104228594,529.5647350973013
144,33265.47509765625,23229.0,"[1,2,8]",3,236.28783861065122,143.03980851076219,284.8667835559904
144,5765.005126953125,4800.0,[4],1,373.3752580784283,182.98226765657134,409.86256381476727
144,14478.55810546875,11762.0,"[5,6]",2,424.58476855271306,421.4404372110473,717.3152782804137
144,7188.8310546875,6365.0,[9],1,556.3766845895286,136.86433640074472,591.6868187318034
144,13267.666015625,11516.0,[10],1,483.2103298483994,148.13473245429742,209.9246291059458
168,42412.785095214844,30906.0,"[0,3,7,11]",4,285.0960717870533,500.0688968012392,513.7744326822685
168,26363.612548828125,19391.0,"[1,2]",2,240.82555838797592,143.0329464554161,213.59488805736822
168,8463.251281738281,7022.0,[4],1,415.5871605589944,183.86461372747982,406.11684930718843
168,15594.639526367188,11975.0,"[5,6]",2,453.16128010514456,430.12949758776193,698.2592137330082
168,14871.963989257812,11731.0,"[8,9]",2,477.76713229014103,145.01986855510432,620.8210632727549
168,12291.91650390625,8975.0,[10],1,477.31469019233924,147.58288817719344,209.65269866899516
168,3178.3713989257812,2470.0,[7],1,233.172422929892,374.00395026834354,429.8973799755144
