time_in_hour,cumulative_size,size,pcore_ids,pcore_power,SCA-1,CD11b,Ly6C
-1,0,0,[],0,0.0,0.0,0.0
0,35828,35828,"[0,6,7]",3,165.55015630233598,438.6252372446143,546.6862788880185
0,30844,30844,"[1,2]",2,142.32583322526588,130.70208144209647,185.90902606665708
0,5509,5509,[8],1,292.85405699763805,171.63296424033402,276.7304410963879
0,5580,5580,[4],1,165.80053763440958,366.8820788530462,775.2050179211492
0,4890,4890,[5],1,186.10899795501126,151.2797546012268,697.3488752556236
0,27,27,[10],1,NA,NA,NA
0,5915,5915,[9],1,364.05883347421354,356.90904480135345,589.67979712595
24,35404.0,26447.0,"[0,6,7]",3,182.61079962716278,436.4938778104173,552.2176590215784
24,37699.0,29988.0,"[1,2]",2,152.69446139155232,125.8494853974915,186.24468818801478
24,11111.25,9734.0,[8],1,305.7700303746173,146.86308921138487,263.39187760152856
24,4473.75,4122.0,[3],1,398.4592903045507,126.88661637328897,591.1228276054767
24,6930.0,5535.0,[4],1,212.11958874458918,386.44119769119646,788.9626262626267
24,6985.5,5763.0,[5],1,223.77485505690277,149.69429532603317,705.5205783408503
24,1176.75,1170.0,[10],1,445.6133418313139,216.37157425111525,314.0148714680263
24,8719.75,7241.0,[9],1,370.84136586484084,363.9192924109059,615.6370308781799
48,43154.0,34303.0,"[0,6,7]",3,176.24584482319372,NA,545.6475761227232
48,37222.75,27798.0,"[1,2]",2,152.5760489216976,126.15400359994918,181.5320368591777
48,9598.8125,6821.0,[8],1,310.9243786666284,143.81155221023474,260.947096320508
48,9342.5,7610.0,[4],1,205.40157211667093,388.70284987958183,780.9166443671367
48,6438.375,4692.0,[5],1,217.93260139398603,151.22967751956068,692.1492612654602
48,428.1875,134.0,[10],1,447.9109619033711,214.89607356590284,NA
48,9500.9375,7321.0,[9],1,364.9630365424395,353.0435088642565,594.9695227444643
72,42213.5,31425.0,"[0,6,7]",3,189.48680627939112,457.7122384574846,507.58553247183926
72,41325.6875,32020.0,"[1,2]",2,149.5616989130587,130.74917953573117,170.32501652271307
72,10673.703125,8274.0,[8],1,304.0149388757673,150.70721120979252,243.83351607411296
72,8245.453125,6026.0,"[3,5]",2,290.07928612170514,156.27910458226057,640.3246770473872
72,7786.625,5451.0,[4],1,268.3287106898018,387.31582601576304,753.7091406739108
72,1240.046875,1133.0,[10],1,425.7826695059392,247.84946385595336,319.9958166903978
72,8046.234375,5671.0,[9],1,366.1272606168586,362.33695692278354,586.7703875454172
96,45129.375,34576.0,"[0,6,7]",3,192.01975042239758,482.40366489744713,536.9927119254364
96,37019.421875,26688.0,"[1,2]",2,152.20337656374227,129.3039083580706,179.0098620107763
96,8284.65625,6338.0,[4],1,267.02263738688424,365.37216295938555,774.324898437999
96,6412.6484375,5036.0,[5],1,275.89029798286765,150.0596587067303,692.5841677641478
96,12039.42578125,9371.0,[8],1,334.3231956336125,154.68395600003004,247.29789399606045
96,7167.55859375,5156.0,[9],1,418.22168570953073,NA,594.4636461486903
120,60629.34375,49347.0,"[0,6,7]",3,251.15313624113853,NA,NA
120,42477.7119140625,30213.0,"[1,2,8]",3,NA,149.2310249237556,NA
120,8460.0537109375,4597.0,"[4,9]",2,NA,NA,NA
120,4914.162109375,3311.0,[5],1,NA,NA,NA
120,1625.5029296875,1161.0,[10],1,NA,198.7452951760722,NA
144,49755.3359375,34598.0,"[0,6,7]",3,NA,NA,NA
144,25222.7138671875,16570.0,"[1,2]",2,NA,146.10342944276235,NA
144,11226.714111328125,9260.0,[8],1,NA,159.67478174931622,NA
144,6946.982177734375,6481.0,[3],1,NA,NA,NA
144,12233.013427734375,10118.0,"[4,9]",2,NA,NA,NA
144,5297.54052734375,4069.0,[5],1,NA,NA,NA
144,9310.375732421875,8904.0,[10],1,NA,160.49591421847802,NA
168,44044.833984375,31606.0,"[0,6,7]",3,NA,NA,NA
168,22219.678466796875,15914.0,"[1,2]",2,NA,149.71401381587825,NA
168,12097.678527832031,9291.0,[8],1,NA,NA,NA
168,16925.13067626953,13864.0,"[3,5]",2,NA,NA,NA
168,14341.253356933594,11283.0,"[4,9]",2,NA,NA,NA
168,10369.593933105469,8042.0,[10],1,NA,159.5423434028037,232.10607746375632
