time_in_hour,cumulative_size,size,pcore_ids,pcore_power,SCA-1,CD11b,Ly6C
-1,0,0,[],0,0.0,0.0,0.0
0,38723,38723,"[0,3,7,8,9]",5,173.97001781886922,427.25194328951847,553.9596105673636
0,37838,37838,"[1,2,11]",3,157.75680532797975,142.87240340398552,245.19023204186146
0,11912,11912,"[7,8]",2,181.20752182673039,361.37256548018854,514.6238247145734
24,17521.375,16092.0,"[0,7,9]",3,192.2853015245679,410.27858829572455,553.6815568127503
24,43641.875,41277.0,"[1,2,11]",3,181.7354576310049,139.04387414610443,259.97240608933436
24,8323.75,7723.0,[3],1,224.8080717825511,522.6508184412083,631.1980177203791
48,21325.0859375,20230.0,"[0,7,9]",3,180.3039359820887,429.6048015632989,537.247677233131
48,38680.6171875,35953.0,"[1,2,11]",3,173.03758948229898,138.21590371792738,247.38333819082072
48,11274.234375,10754.0,[3],1,197.0943491866839,543.1620204254424,617.0533337213891
48,6876.46484375,6578.0,[5],1,214.02068820563792,392.74395569125875,769.7594285308516
48,4837.21484375,4541.0,[7],1,224.27752281909378,377.12952798412664,553.8630232563788
72,42921.53857421875,40504.0,"[1,2,11]",3,176.11251363444347,146.41195277615935,224.6991157136276
72,20579.26220703125,19413.0,"[3,9]",2,214.63481955925596,492.9268161053848,519.9436941471217
96,35149.9035949707,33298.0,"[0,3,7,9]",4,205.21769442622926,493.3488485652785,556.6792002424503
96,40076.59616088867,37394.0,"[1,2,11]",3,185.67372146794855,145.4624569168065,268.2897505068464
120,40862.86897468567,38666.0,"[0,3,7,9]",4,240.79298964634563,501.23685127929696,540.6766049038881
120,32004.787260055542,29500.0,"[1,2,11]",3,223.50681833738915,145.19010769058093,293.42900087931196
144,32341.03396767378,30020.0,"[0,3,9]",3,261.55860285272087,522.5227995984575,531.1218155548298
144,28535.29920375347,26535.0,"[1,2,11]",3,259.24601168298386,138.98226994180877,298.10291232895645
144,7304.694907128811,7118.0,[4],1,554.9157153385883,138.57593574014567,568.7516271946337
144,7814.3698191046715,7455.0,[5],1,401.77425429268095,385.4577692573857,740.8745404708377
144,11505.094982266426,11129.0,[6],1,498.77594394660326,147.5790816216177,210.09821340466405
168,17594.598396178335,16622.0,"[0,9]",2,258.8911543548567,477.60357425885223,486.7197392380493
168,10200.734994709492,9569.0,[1],1,343.7131301548073,146.83491889994207,300.2322321319136
168,13794.21936148405,12950.0,[2],1,212.32270811073107,137.35610200355532,171.31676157755186
168,13247.716226801276,12199.0,[3],1,326.300040362446,563.3453922349531,545.6233984205448
168,8500.54343169555,8044.0,[4],1,536.2212618062377,133.84567026749366,577.4914108853305
168,8420.398113694042,7932.0,[5],1,419.7119590081847,391.8777714378648,699.308114478997
168,9228.068436391652,8509.0,[6],1,491.2226290224578,146.59616676994895,209.11927637980804
