time_in_hour,cumulative_size,size,pcore_ids,pcore_power,SCA-1,CD11b,Ly6C
-1,0,0,[],0,0.0,0.0,0.0
0,36873,36873,"[1,2,5]",3,0.18593102897677932,0.16609057897518592,0.18912326949958802
0,23065,23065,"[8,10,13,15,16]",5,0.2104108321134469,0.4372604767365106,0.5501227044514932
0,15412,15412,[9],1,0.20686135420524648,0.5301427429763262,0.6163935544396885
0,4675,4675,"[10,13]",2,0.23197115904584548,0.4188581314878887,0.5468673106010985
24,28682.125,26272.0,"[0,8,9,10,15,16]",6,0.23326961997677742,0.4816107857391518,0.5929186862218617
24,43503.5625,41199.0,"[1,2,5]",3,0.21960432725119494,0.16044619453949818,0.19630440724376347
24,3884.8125,3769.0,[3],1,0.3159913651060829,0.4662534960187302,0.7980790471201726
24,2065.5,1995.0,[7],1,0.3472513932747452,0.22730625055452047,0.4281956217830422
24,2306.5625,2012.0,[8],1,0.24473033555637136,0.40761711769426284,0.5660958477328017
24,4575.625,4407.0,[11],1,0.2883090355741284,0.17559385663630508,0.7445086578591831
24,3012.1875,2854.0,[13],1,0.23804786500534517,0.35032954358213914,0.5018254072230228
24,4210.5625,4089.0,[14],1,0.3708256606537726,0.3617783035808255,0.6749465869272122
48,35244.6328125,33452.0,"[0,8,9,10,15,16]",6,0.21499865916362307,0.5089836804872832,0.5780304261634122
48,38187.97265625,35469.0,"[1,2,5]",3,0.20796998481862963,0.15999641866301448,0.18495445965328472
48,4799.80078125,4557.0,[3],1,0.2668510626698315,0.47876368051177176,0.7873724261763473
48,3153.8125,3039.0,[6],1,0.20179717025875468,0.3635088317724155,0.7928114408207558
48,3070.9765625,2785.0,[11],1,0.25579213433123976,0.17465876291134103,0.728369686501043
48,3491.26171875,3303.0,[13],1,0.22387631429376176,0.35450693542549483,0.497920548570113
48,3676.16015625,3413.0,[14],1,0.35081916534102275,0.37750534676156283,0.6577884668466321
48,3727.78515625,3406.0,"[8,10]",2,0.2490757555023081,0.4393227016551329,0.5939470824027319
72,15280.609130859375,14402.0,"[1,5]",2,0.22965135613376308,0.19421354431488794,0.2640585713698912
72,29399.13916015625,27891.0,[2],1,0.19925370788486835,0.15986317075043432,0.12860574595673366
72,6831.100830078125,6334.0,"[3,6]",2,0.3252116566466884,0.41884618747773855,0.7428399122871895
72,20862.433349609375,19354.0,"[9,15]",2,0.23616409719673848,0.5387830691090163,0.5336391625556942
72,2732.93603515625,2541.0,[11],1,0.3282752567599685,0.19663544328373486,0.7010219958670062
72,10393.571533203125,9900.0,"[13,16]",2,0.23143380532464863,0.4209375164877783,0.4627559764784219
96,12023.743789672852,11229.0,[1],1,0.23317040868631198,0.18145001372598746,0.2647419536397849
96,23390.446197509766,21553.0,[2],1,0.1984785667769796,0.15575785090041214,0.13693110462708163
96,2729.936721801758,2492.0,[3],1,0.35844513378465936,0.45270107748240507,0.7723893850842765
96,2703.2942810058594,2543.0,[5],1,0.3146147373159938,0.22573731455635013,0.3702357759691086
96,3749.007080078125,3560.0,[6],1,0.29051886032741464,0.3254297516535779,0.7955531612781245
96,3067.8636474609375,3014.0,[7],1,0.47325257820203515,0.19875408807516395,0.22662000018700193
96,30496.052963256836,29104.0,"[9,10,15]",3,0.24198380957172727,0.5598516881345266,0.5784290989557116
96,3376.8085021972656,3206.0,[11],1,0.3226949191165486,0.17419655508399867,0.7239281694991965
96,4794.236358642578,4326.0,"[10,16]",2,0.23717490250601633,0.450010329839275,0.536240679370185
120,8903.483986854553,8152.0,[1],1,0.2644559015316092,0.18360185166379636,0.26926504319190475
120,16178.90288734436,14717.0,[2],1,0.2119663030567096,0.15728497443800837,0.13948680372971395
120,3953.62104511261,3783.0,[3],1,0.4312871426813032,0.47133161070435003,0.7730776996228431
120,3375.955892562866,3207.0,[5],1,0.353461888149211,0.2168004865961716,0.37044100435189187
120,3617.312942504883,3383.0,[6],1,0.41025187238583655,0.3119353523564945,0.7913756527296703
120,4797.741477966309,4606.0,[7],1,0.46719958406413586,0.1791363507775416,0.18978707792285215
120,36877.00331020355,34971.0,"[9,10,15]",3,0.28310778937373265,0.5676791676990904,0.561672706662692
120,3749.050531387329,3538.0,[11],1,0.3923022913715042,0.153779092307985,0.7060220585116067
120,6077.224888801575,5722.0,"[13,16]",2,0.2392396889074153,0.40454032807452694,0.4586994230998629
144,8128.46774917841,7572.0,[1],1,0.315060754290509,0.17054426178966983,0.264757161908637
144,13032.181430459023,12021.0,[2],1,0.22799776963676927,0.15227546046966464,0.1357963301629024
144,5093.101315319538,4846.0,[3],1,0.5229734985800633,0.550890137793201,0.7668230252055785
144,4996.426291644573,4880.0,[4],1,0.6275635265695856,0.14519584960003887,0.6158702252052253
144,4366.997243285179,4156.0,[5],1,0.4224613038194907,0.18724204205591496,0.37169396708466373
144,4819.082058906555,4593.0,[6],1,0.4385165455497994,0.3516244647610142,0.7754906401302327
144,10119.858842372894,9820.0,[7],1,0.5431439390079006,0.16543326801344715,0.1771968056875606
144,27719.812706887722,25415.0,"[9,10,15]",3,0.319869059871542,0.589188507037335,0.552769912835004
144,3782.315658211708,3548.0,[11],1,0.42380288223847234,0.15690519500711636,0.6954993145315785
144,2755.615743637085,2698.0,[12],1,0.5695527783937167,0.28196830324529887,0.4203032948252624
144,3716.18002140522,3517.0,[16],1,0.20818679733346318,0.5334094312508082,0.5028263258849287
168,7855.029234323651,7347.0,[1],1,0.3556438269930647,0.17875541712319062,0.27187948523699873
168,12869.511339403689,12055.0,[2],1,0.25031410804314574,0.1594685530463968,0.1500182137430209
168,5187.318832207471,4869.0,[3],1,0.5553732572119783,0.5558646063411528,0.7368600594140342
168,6394.276643227786,6082.0,[4],1,0.5895367501703698,0.14622764352018863,0.613137409430778
168,4742.937327705324,4470.0,[5],1,0.4400468114760411,0.1809716603319718,0.3801576392122534
168,7772.143201801926,7304.0,"[6,14]",2,0.4819488869501843,0.39090849902432223,0.692166530887007
168,8893.491177648306,8261.0,[7],1,0.5161458140909175,0.16714628845869328,0.18481243439761702
168,21671.488294180483,19939.0,"[9,10,15]",3,0.35997085790611805,0.5951175181040844,0.5457558319109169
168,4612.394728638232,4376.0,[11],1,0.45898296537696914,0.17406102785298855,0.6586806157169708
168,3699.225983977318,3527.0,[12],1,0.55744570332126,0.2682819530201324,0.42410023390989615
168,7068.261251337826,6836.0,[16],1,0.2629834527099241,0.5316948974988588,0.48502441472526786
