time_in_hour,cumulative_size,size,pcore_ids,pcore_power,SCA-1,CD11b,Ly6C
-1,0,0,[],0,0.0,0.0,0.0
0,25810,25810,"[0,8,9,10,11]",5,166.71383184812268,411.9691592406054,537.2384734599
0,36285,36285,"[1,2,5,18]",4,161.27548573791086,140.67697395618038,231.85283174865603
0,4135,4135,[3],1,198.57992744860977,433.9603385731557,582.5625151148724
0,6167,6167,"[8,9]",2,195.26593157126675,364.34700826982294,514.2656072644725
0,3883,3883,[12],1,338.8781869688343,360.6214267319104,598.5075972186454
0,6198,6198,[14],1,202.3165537270093,526.5116166505344,629.1419812842844
24,25091.5,13971.0,"[0,9,10,11]",4,173.36056034912477,416.37717952294736,549.5856764242867
24,57766.5,39624.0,"[1,2,5,18]",4,179.4483740576312,137.97912284801794,247.70811802688354
24,6099.5,4032.0,[3],1,217.77424379047488,428.0157389949994,591.0564800393483
24,3811.0,3047.0,[4],1,297.8517449488289,181.57950669115692,420.70532668590994
24,7640.5,4638.0,"[6,8]",2,189.3529219291937,328.1801583665987,477.430861854591
24,5596.0,4095.0,[7],1,270.18638313080623,365.51572551822653,767.1664581844187
24,7244.5,5303.0,[12],1,349.17496031471563,354.83628959900665,616.6798950928284
24,8941.0,5842.0,[14],1,223.2683145062078,531.278771949449,642.2637288893819
24,5349.5,4393.0,[17],1,340.53341433778445,147.4907000654262,265.37629685017293
48,19535.0,11471.0,"[0,9,11]",3,178.30385206040685,396.6684924494496,532.2293575633474
48,62591.25,33708.0,"[1,2,5,18]",4,176.41980708166403,136.55224172707906,235.97738501787325
48,19690.5,12159.0,"[3,10]",2,178.02526599121575,468.99647037911666,567.5494019958871
48,4207.5,2302.0,[4],1,304.68104575162914,184.61122994652376,420.20320855615034
48,4927.0,3060.0,[6],1,163.1003145930616,295.9578343819769,460.262938908057
48,7512.0,4714.0,[7],1,261.6799121405725,377.9349041533545,767.2837792864738
48,4156.25,2203.0,[8],1,220.0722406015034,365.5901353383454,476.87212030075153
48,9001.25,5379.0,[12],1,347.6451603943831,348.8481877517027,608.6736564366067
48,11993.5,7523.0,[14],1,213.89227498228277,545.4396756576461,640.4270646600208
48,3635.75,2431.0,[16],1,112.06931169634863,362.1660592725023,774.1796740700006
48,5010.75,2336.0,[17],1,347.9538492241636,141.55760115751082,247.86793394202422
72,18435.0,10866.0,"[0,11]",2,187.36789395172494,419.15314618931257,500.27984133441817
72,67420.875,38532.0,"[1,2,5]",3,170.81250428743635,140.8211106723255,189.65688668383368
72,4251.875,1314.0,[3],1,229.31048067029175,432.9937968543277,585.3512273996761
72,4048.75,1945.0,[4],1,304.38548934856027,191.14933621488066,410.50830503241883
72,11449.625,6908.0,"[6,8]",2,196.71659552168896,344.3655250717815,450.3673810277622
72,9105.0,5349.0,[7],1,284.8804777594703,374.16897309170724,743.6019632070295
72,15830.375,8923.0,[10],1,181.0603823345967,489.02922388130463,532.6191262051561
72,8344.625,3844.0,[12],1,344.32661743337064,344.48161241517687,597.0851745884355
72,11038.75,5042.0,[14],1,229.64552145849882,545.1670139282085,622.8162608991043
72,9997.125,5085.0,"[17,18]",2,316.1173337334444,156.62634257348972,481.4669842579739
96,15932.5,6715.0,"[0,11]",2,182.96297269732048,422.0128746273335,507.44694413933684
96,71851.8125,35538.0,"[1,2,5,18]",4,184.65311591826833,143.5688191581806,238.5800479980919
96,24845.125,14804.0,"[3,10]",2,197.15817992463522,483.3215671082343,552.9837090777344
96,4429.375,2405.0,[4],1,321.2722731762339,194.38136023705363,403.06583885988584
96,9135.8125,3411.0,"[6,8]",2,197.779521525865,343.5601444863279,453.4890369630495
96,8327.5,3775.0,[7],1,298.6044280996681,372.110987691383,752.7301035725004
96,6642.3125,2470.0,[12],1,361.00428126498895,353.64851284849925,603.1599593515078
96,16600.375,11081.0,[14],1,231.80498934512008,548.5008132346422,603.7007296521944
96,6273.1875,3878.0,[17],1,397.3586693367571,156.83923643283342,222.7007502166966
120,6501.6875,2903.0,[0],1,142.33757582166706,416.8193834293017,506.8097657338957
120,44403.78125,17995.0,"[1,2]",2,195.07443904341113,138.38501929382437,182.00448371161983
120,11409.9375,4805.0,[5],1,142.76067737005968,153.93252592312604,265.07998236186506
120,36240.125,19450.0,"[3,10,11]",3,218.14765142918347,478.1971105921939,533.0129017904867
120,5636.6875,3422.0,[4],1,338.69372525973324,193.50956900661984,395.3781143623805
120,4606.625,2245.0,[6],1,176.53502428567862,313.6098621550483,434.6896996173996
120,9155.75,4992.0,[7],1,344.297975316054,384.71300821887843,764.010700243016
120,6894.15625,3517.0,"[8,9]",2,238.0500650460307,373.9051189186496,483.9289162470028
120,6458.15625,3137.0,[12],1,389.44174275745604,382.104252858546,608.033983189863
120,23022.1875,14722.0,[14],1,259.3416405369804,550.9903693447895,584.8700628469808
120,4309.46875,2575.0,[15],1,506.51698657752456,137.12925027011713,611.7040238428441
120,8236.59375,5100.0,[17],1,422.09083321002487,153.94700858592176,206.99342871560188
120,6982.1875,4070.0,[18],1,329.59748019513404,166.41336436467827,728.4972116546578
144,4396.84375,1146.0,[0],1,138.79552093476696,427.3457949239148,501.5382589783865
144,37787.890625,15586.0,"[1,2]",2,212.24631030526155,135.52103538459926,185.43471267457056
144,8856.96875,3152.0,[5],1,143.51944090635263,149.76627867180824,261.2830733567838
144,39925.359375,20332.0,"[3,11,14]",3,275.5797122208088,520.191938237875,550.6506954578899
144,7852.34375,5034.0,[4],1,375.287613172816,183.9922614665214,391.97003283255384
144,11928.875,7351.0,[7],1,390.3664087141457,415.0637895442775,760.5583497500812
144,18333.796875,8296.0,[10],1,198.39763653703292,510.16307826307684,528.6477961210597
144,7723.078125,4494.0,[12],1,443.00106215745257,418.85196964455093,612.2669171335084
144,8811.734375,6657.0,[15],1,548.9513592493014,135.22276758087108,599.8851602355528
144,15418.296875,11300.0,[17],1,473.76330982568595,146.7530754349282,202.3497417333911
144,6910.09375,3419.0,[18],1,351.0391885963866,167.81069811824193,725.2027604545877
168,3651.421875,1453.0,[0],1,145.59481965501948,437.0911930711917,486.72701772854
168,17517.4140625,9441.0,[1],1,280.3514087990085,139.26428076704013,251.47543448951902
168,24626.015625,9380.0,"[2,5]",2,177.2618086817514,137.64721981644155,170.40215029202415
168,18547.6328125,10658.0,"[3,11]",2,289.3967445306545,472.94936390551817,507.31648538370445
168,11065.171875,7139.0,[4],1,408.18893035721237,183.13210721704274,392.9922433988405
168,12493.4375,6529.0,[7],1,407.68355761774274,426.89003977087884,741.1253101628353
168,3650.3203125,2077.0,[8],1,266.63883734518026,396.4666114489103,427.8370412699217
168,13668.8984375,4502.0,[10],1,204.82835520190625,514.0586241918945,520.022567198911
168,9520.5390625,5659.0,[12],1,489.23657323106625,443.7723761702699,623.2856751316426
168,21863.046875,9790.0,[14],1,300.2662440547839,565.0931441108909,558.6349712521453
168,11975.8671875,7570.0,[15],1,547.0423710182836,135.10967760032995,602.5487950702961
168,16343.1484375,8634.0,[17],1,477.4593897576515,144.90385688192106,201.71187993057077
168,6960.046875,3505.0,[18],1,376.86022790794283,175.36804709020046,704.9335470531591
