time_in_hour,cumulative_size,size,pcore_ids,pcore_power,SCA-1,CD11b,Ly6C
-1,0,0,[],0,0.0,0.0,0.0
0,16088,16088,"[1,15]",2,165.8190576827473,117.39998756837396,149.86393585280945
0,9044,9044,[3],1,85.63268465281334,131.39705882352965,195.63080495356115
0,8043,8043,[6],1,184.7436279995038,398.67847817978327,550.0624145219442
0,6698,6698,[8],1,223.80621080919653,484.3599581964775,564.5362794864135
0,6542,6542,[13],1,174.39834912870847,172.79730969122602,276.0738306328352
24,8916.0,2690.0,[0],1,89.13402871243126,414.9559219380888,539.1002691790043
24,34324.0,18236.0,"[1,15]",2,171.78880666589217,114.53970982403006,148.5869362545153
24,15365.0,6321.0,[3],1,87.98861047836563,128.91311422063123,200.4904653433132
24,16696.0,11172.0,"[4,17]",2,328.08181600383,146.35098227120275,460.5566003833248
24,14635.0,6592.0,[6],1,189.58612914246717,393.25302357362557,555.53064571233
24,8580.0,3225.0,[7],1,122.13030303030706,514.554662004665,600.2927738927758
24,12231.0,5533.0,[8],1,226.46038753985624,486.5632409451425,567.352710326219
24,8255.0,3598.0,[9],1,160.57456087220015,361.17867958812707,784.6589945487589
24,9740.0,5880.0,[10],1,367.79271047227184,344.50770020533884,659.5875770020563
24,7602.0,4332.0,[12],1,260.59734280452335,542.016969218627,703.035516969216
24,14087.0,7545.0,[13],1,178.8201178391453,166.34947114360756,280.99311421878474
24,7332.0,3467.0,[16],1,150.73827059465552,300.3246044735415,471.75654664484824
48,13440.0,4524.0,[0],1,92.14047619048134,417.1101190476195,536.5607142857139
48,51122.0,16798.0,"[1,15]",2,172.93644614843203,114.09324752552772,145.40608739877138
48,8508.0,2413.0,[2],1,304.68770568876096,143.9519275975555,421.50622943112285
48,21813.0,6448.0,[3],1,89.43162334388339,128.0106817035714,202.0626232063448
48,22655.0,5959.0,"[4,17]",2,330.3586404767131,145.10328845729418,450.2876627675998
48,8421.0,2742.0,[5],1,198.3984087400548,426.9618810117545,402.50730317064466
48,20956.0,6321.0,[6],1,191.05955334987698,392.68815613666925,553.5055831265469
48,15182.0,6602.0,[7],1,123.95033592412501,526.6671057831645,594.4626531418807
48,19373.0,7142.0,[8],1,224.47323594693566,494.7008723481142,562.8496360914633
48,13932.0,5677.0,[9],1,165.77002583979464,363.2177720356019,783.7179155900101
48,14689.0,4949.0,[10],1,362.44434610932444,345.87705085438034,657.0252569950338
48,7643.0,2446.0,[11],1,164.70679052728207,133.74721967813682,652.9265995028153
48,12224.0,4622.0,[12],1,257.72390379581,540.7311845549731,704.6954352094232
48,20316.0,6229.0,[13],1,179.4265111242394,165.31571175428166,282.762797794844
48,8405.0,3157.0,[14],1,388.27281380130415,335.39464604402156,484.2759071980952
48,11303.0,3971.0,[16],1,151.97151198797016,299.40122091480225,472.2958506591197
72,16668.0,3228.0,[0],1,93.94756419487,420.99184065274886,528.1016918646499
72,71409.0,20287.0,"[1,15]",2,173.4002576706043,115.92646585164414,141.6398073072026
72,11051.0,2543.0,[2],1,307.37706994841807,146.33001538322367,421.86707085331636
72,29995.0,8182.0,[3],1,88.94465744291307,129.63497249541552,201.50658443073877
72,30301.0,7646.0,"[4,17]",2,333.29533678756303,148.0487772680771,437.4983333883355
72,15879.0,7458.0,[5],1,197.32357201335287,431.330751306755,404.32886201901795
72,24974.0,4018.0,[6],1,193.84359734123586,393.8049571554447,548.7905421638447
72,17701.0,2519.0,[7],1,125.39494943788942,530.237274730242,587.692446754423
72,28743.0,9370.0,[8],1,226.86755036008688,501.9551890895158,552.3018821974003
72,15218.0,1286.0,[9],1,171.05467209883156,362.8560914706268,780.3930871336581
72,20694.0,6005.0,[10],1,356.8211075674023,349.6402822074016,664.0831642021841
72,9081.0,1438.0,[11],1,171.57967184231032,134.91509745622736,647.032155049005
72,15437.0,3213.0,[12],1,265.0594675131153,538.6950184621363,701.8592990866077
72,26851.0,6535.0,[13],1,181.8781795836299,168.2096383747339,281.30758630963714
72,11288.0,2883.0,[14],1,389.44746633592786,336.26718639263,485.2695783132506
72,14692.0,3389.0,[16],1,154.27627280152674,303.2324394228173,465.3998774843469
96,19947.0,3279.0,[0],1,94.99007369529767,423.5289517220648,526.2846543339843
96,87458.0,16049.0,"[1,15]",2,174.56473964646054,116.08934574310052,142.17372910425664
96,13864.0,2813.0,[2],1,314.9784333525645,145.76709463358324,421.54746105020035
96,36716.0,6721.0,[3],1,89.49877437630023,130.0898245996295,201.97614119185127
96,22633.0,5809.0,[4],1,363.96575796403397,145.22414173993747,208.24751469093758
96,17905.0,2026.0,[5],1,197.6204970678602,431.88215582239394,405.75677185143735
96,29088.0,4114.0,[6],1,195.29403877887833,395.3945269526999,547.2162747524674
96,24861.0,7160.0,[7],1,128.04332086400822,536.16157837577,585.034350991515
96,40950.0,12207.0,[8],1,228.58454212453913,508.2893040293016,552.1552869352672
96,18579.0,3361.0,[9],1,178.6519726573028,359.68690456967437,783.2524355455106
96,24686.0,3992.0,[10],1,361.66803046260304,353.5546463582586,667.9999594912106
96,10969.0,1888.0,[11],1,174.1594493572822,136.0096635974111,648.970279879662
96,19828.0,4391.0,[12],1,269.5753984264656,543.4600564857773,697.6223522291665
96,33391.0,6540.0,[13],1,183.64756970441363,167.43706387948802,281.58515767722054
96,13795.0,2507.0,[14],1,404.91605654222207,337.0959043131581,477.7520840884352
96,17035.0,2343.0,[16],1,154.77945406516247,304.29568535368617,463.33219841502864
96,18277.0,4800.0,[17],1,330.0082617497366,155.21491492039132,720.6530065109155
120,21979.0,2032.0,[0],1,95.84198553164909,425.55193593885105,524.1541016424771
120,98906.0,11448.0,"[1,15]",2,176.96798980850647,116.00340727559583,142.42917517643104
120,17517.0,3653.0,[2],1,322.51561340411934,145.18433521721718,420.29411428897555
120,40208.0,3492.0,[3],1,89.39616494230656,130.38629128531645,202.26350477516914
120,54106.0,13196.0,"[4,17]",2,362.023213691642,149.53803644697416,434.2861235352826
120,21361.0,3456.0,[5],1,200.48949019240808,432.272225083093,407.1614624783473
120,32782.0,3694.0,[6],1,198.24318223415264,396.61454456714495,544.8822829601531
120,29139.0,4278.0,[7],1,129.94567418237136,538.0513401283514,580.8065479254576
120,61452.0,20502.0,[8],1,236.7233775955171,515.2267460782391,548.856863893742
120,18925.0,346.0,[9],1,180.21416116248488,359.38282694847976,783.2171202113639
120,31644.0,6958.0,[10],1,370.35927822019363,360.7876690683845,680.0311591454897
120,11899.0,930.0,[11],1,178.06521556433555,135.66341709387376,646.0092444743256
120,24999.0,5171.0,[12],1,284.82779311172163,547.6484259370372,693.4916996679846
120,38786.0,5395.0,[13],1,186.47537771361016,168.4063837467116,281.8262517403199
120,16723.0,2928.0,[14],1,416.88076302098585,338.08521198349627,474.31752675955113
120,19556.0,2521.0,[16],1,156.80589077521256,304.8852014726965,459.9199222744996
144,22714.0,735.0,[0],1,96.09056088756361,426.8963194505588,523.2522673241172
144,108918.0,10012.0,"[1,15]",2,180.13052938908277,115.57417506748298,143.16245248719264
144,24097.0,6580.0,[2],1,349.83948209320397,137.12848072374112,429.8602730630371
144,42170.0,1962.0,[3],1,89.57936921983067,130.2321318472852,202.41126393170495
144,70736.0,16630.0,"[4,17]",2,384.17358912010786,147.04143576113958,397.53453686948654
144,24269.0,2908.0,[5],1,203.2102270386102,436.2861263340043,406.6391693106438
144,33924.0,1142.0,[6],1,199.30916165546512,397.0901721495147,544.5839523640986
144,31922.0,2783.0,[7],1,131.17774575528244,539.1446964475922,577.9146356744503
144,80758.0,19306.0,[8],1,245.14710616904478,520.64200450728,544.0218182718413
144,19465.0,540.0,[9],1,182.06658104289892,358.92478808117033,782.8204469560794
144,42326.0,10682.0,[10],1,389.8374757832002,359.39526532154946,691.1405991589063
144,13576.0,1677.0,[11],1,193.50154684737976,133.74918974661227,648.8092221567483
144,30548.0,5549.0,[12],1,305.2927523896782,551.6023962288896,693.0835406573273
144,42446.0,3660.0,[13],1,189.14627997926954,168.21549733779304,281.97540404278385
144,22074.0,5351.0,[14],1,443.3771858294793,330.1315121862831,474.0050738425305
144,20039.0,483.0,[16],1,157.47941514047875,304.6399021907309,459.1244573082549
168,23263.0,549.0,[0],1,96.42427889782604,427.70695954949883,522.2841422000597
168,117974.0,9056.0,"[1,15]",2,183.46316137454093,115.38878057877226,144.12299320189226
168,33841.0,9744.0,[2],1,376.518453946394,130.5489494991282,446.9705091457118
168,43641.0,1471.0,[3],1,89.71753626177828,130.35842441740604,202.48401732315932
168,85095.0,14359.0,"[4,17]",2,392.6328691462497,146.37650860802492,371.5427815970391
168,29385.0,5116.0,[5],1,209.61204696273904,439.3489535477255,407.0244682661235
168,35475.0,1551.0,[6],1,201.258407329105,397.6689781536327,543.9501338970994
168,33002.0,1080.0,[7],1,131.77422580450025,539.7312587115957,576.3774316708008
168,97157.0,16399.0,[8],1,253.2083123192304,524.0542523955913,539.06732402191
168,19552.0,87.0,[9],1,182.39520253682628,358.9316693944343,782.5726268412482
168,54469.0,12143.0,[10],1,406.60865813581484,357.5432631405017,692.89225063797
168,15277.0,1701.0,[11],1,208.68468940237094,132.3509196831845,648.6890096223053
168,36329.0,5781.0,[12],1,323.6046684466928,554.3898263095639,690.0102397533641
168,46387.0,3941.0,[13],1,192.67878931597426,168.79761571129788,281.9507189514297
168,28639.0,6565.0,[14],1,459.97286916442437,325.50420754914654,474.6555396487331
168,20496.0,457.0,[16],1,158.25248829040078,304.52741998439006,458.2971311475456
