time_in_hour,cumulative_size,size,pcore_ids,pcore_power,SCA-1,CD11b,Ly6C
-1,0,0,[],0,0.0,0.0,0.0
0,35438,35438,"[0,6,9]",3,165.31065522885254,439.1122806027437,547.9139341949304
0,25562,25562,"[1,2]",2,135.88881934121298,124.98509506298413,166.79571238557224
0,7080,7080,[3],1,180.92005649717686,168.09943502824902,297.98460451977485
0,5482,5482,[10],1,370.662167092297,353.8755928493259,576.8296242247355
24,28039.875,25825.0,"[0,6,9]",3,184.67665913275422,435.78446096853287,553.2259995809527
24,25163.625,23566.0,"[1,2]",2,150.35994913292748,120.48177925477742,157.29935571683345
24,11695.5,11253.0,[3],1,203.2170599803353,146.09755889017183,291.7911322730961
24,5430.75,5183.0,[7],1,222.07826957602418,154.40182065092307,713.0679579247809
24,5425.9375,5206.0,[8],1,311.502943039795,407.84676611184574,772.1043944018887
24,6336.625,5994.0,[10],1,376.20754344780664,354.6535616357283,582.2478448700988
24,6697.4375,6434.0,[11],1,366.7351319067888,150.96979255125606,259.2914734180049
48,24680.00390625,23559.0,"[0,9]",2,171.07984465536504,502.22254953679607,571.9242542157971
48,24156.7265625,22584.0,"[1,2]",2,147.08855840813283,122.56668497160946,154.19774965629745
48,9437.96875,8707.0,[3],1,207.16336026356288,144.03477972948343,289.3690656921008
48,10276.48828125,9645.0,[6],1,175.99223766630723,349.6116845149786,477.6432648707745
48,5558.12109375,5219.0,[8],1,284.44292452133755,406.19813842217076,762.6400748060796
48,7256.0390625,6860.0,[10],1,362.8450536352743,348.6241794281258,567.5996029169638
72,33057.78076171875,30873.0,"[0,6,9]",3,191.44658055737784,460.7602454848871,496.69327119958086
72,28158.79541015625,26649.0,"[1,2]",2,141.4998252707253,128.31019813812935,147.6064580940274
72,10617.873046875,10028.0,[3],1,218.8429897646414,151.11173653062497,268.286407256449
72,6153.382568359375,5806.0,[8],1,314.379203987577,395.2200477657438,734.2255771892485
72,5551.50244140625,5098.0,[10],1,371.3290482051152,359.96344009491327,552.6636866409942
96,29300.15626525879,27922.0,"[0,9]",2,194.87028045834396,521.0908394858268,562.8358192721821
96,23130.924713134766,21371.0,"[1,2]",2,143.9876304429383,126.85780292148314,158.3574067550353
96,11481.617065429688,10818.0,[3],1,232.09186715353516,143.99350873025875,274.3929204679752
96,6831.955032348633,6144.0,[6],1,176.04218242053892,357.7309733133465,460.3260864306428
96,5543.939804077148,5253.0,[11],1,445.0725271963125,183.37376924963294,224.3973508632524
120,33948.259766578674,32117.0,"[0,9]",2,229.2502224802441,527.5428199331227,549.2373900525706
120,16519.682794570923,15074.0,"[1,2]",2,162.2421854760585,128.62693366842248,157.86033005401686
120,10741.601066589355,10024.0,[3],1,265.01248312696185,147.7789843065547,286.04196277119513
120,7743.99718952179,7317.0,[6],1,196.8539605352054,359.4757399933401,448.3426143112861
120,5830.286650657654,5530.0,[8],1,400.9469024711796,450.5357302500306,757.274549820769
120,5896.496237754822,5550.0,[11],1,455.64871881009725,173.03874708082984,213.32496233648308
144,29194.766235411167,27073.0,"[0,9]",2,252.38072886440648,536.9157066260356,535.9195967961308
144,14127.480174660683,13095.0,"[1,2]",2,192.5131592027157,123.20581854802329,157.84723344690374
144,10032.350066661835,9361.0,[3],1,306.3081060563478,140.32130274674918,295.43758651563235
144,5702.063984692097,5502.0,[4],1,365.9782693378446,321.9856921397728,744.289226081897
144,7108.612409412861,6915.0,[5],1,562.3960835672472,137.49094075399643,580.7064773644007
144,6996.392915666103,6632.0,[8],1,465.77790157008445,495.9449919669368,747.4738117493273
144,11270.531014859676,10902.0,[11],1,504.69145395750206,149.8668645554306,212.05148734462904
168,29824.360378734767,27792.0,"[0,6,9]",3,275.2277249118363,517.4092998196486,502.76650330754904
168,7429.755591824651,6949.0,[1],1,265.80575667914314,122.12631795271653,117.6158870879252
168,7031.211919091642,6629.0,[2],1,165.83471973128115,134.81047821099594,218.04188263476038
168,10468.021879166365,9841.0,[3],1,339.6511705176545,149.05543233919957,309.54012783659357
168,6911.378999043256,6555.0,[4],1,393.8389096698326,355.29319677172236,696.0273847021925
168,8378.288275588304,7934.0,[5],1,548.6458373077406,137.286946347742,595.1108287809666
168,5811.173242971301,5536.0,[7],1,367.4518089580755,134.3061433315704,608.4811780572653
168,7053.2745572291315,6616.0,[8],1,497.39022594554586,507.5266952572207,721.1404063180609
168,9244.40818842873,8540.0,[11],1,496.8841378669616,146.8956604779474,219.12801368827868
