time_in_hour,cumulative_size,size,pcore_ids,pcore_power,SCA-1,CD11b,Ly6C
-1,0,0,[],0,0.0,0.0,0.0
0,38723,38723,"[0,3,7,8,9]",5,NA,NA,NA
0,37838,37838,"[1,2,11]",3,NA,142.87240340398552,NA
24,26597.0,15162.0,"[0,7,9]",3,NA,NA,NA
24,59284.0,40365.0,"[1,2,11]",3,NA,139.96349773969328,NA
24,13150.0,8344.0,[3],1,NA,NA,NA
24,5524.5,4565.0,[4],1,NA,NA,NA
24,6572.5,4393.0,[5],1,NA,NA,777.216432103463
24,7015.0,5750.0,[6],1,NA,NA,NA
24,8180.5,5060.0,[8],1,NA,NA,NA
24,8673.0,6361.0,[10],1,NA,NA,NA
48,32917.5,19619.0,"[0,7,9]",3,NA,NA,NA
48,64964.0,35322.0,"[1,2,11]",3,NA,NA,NA
48,17328.0,10753.0,[3],1,205.25728589565975,NA,NA
48,9819.25,6533.0,[5],1,NA,384.4078468314781,NA
48,7118.5,3611.0,[6],1,NA,NA,NA
48,10070.25,5980.0,[8],1,NA,NA,NA
48,10255.5,5919.0,[10],1,NA,NA,NA
72,36743.75,20285.0,"[0,7,9]",3,NA,NA,NA
72,72864.0,40382.0,"[1,2,11]",3,NA,NA,NA
72,15941.0,7277.0,[3],1,221.46315318988766,NA,NA
72,8413.625,3504.0,[5],1,NA,NA,NA
72,7401.25,3842.0,[6],1,NA,NA,NA
72,11561.125,6526.0,[8],1,NA,NA,NA
72,10826.75,5699.0,[10],1,NA,NA,NA
96,59671.375,33329.0,"[0,3,7,9]",4,NA,NA,NA
96,72655.0,36223.0,"[1,2,11]",3,NA,144.12993943981834,NA
96,6212.8125,3714.0,[4],1,NA,NA,NA
96,8151.8125,3945.0,[5],1,NA,NA,NA
96,9452.625,5752.0,[6],1,NA,NA,NA
96,9542.5625,3762.0,[8],1,NA,NA,NA
96,8688.375,3275.0,[10],1,NA,NA,NA
120,29010.28125,14344.0,"[0,9]",2,NA,NA,NA
120,62374.5,26047.0,"[1,2,11]",3,NA,144.88541591515838,NA
120,33514.75,21048.0,[3],1,249.88071017238465,NA,576.5733669503664
120,7681.40625,4575.0,[4],1,NA,NA,NA
120,8739.90625,4664.0,[5],1,NA,NA,NA
120,12578.3125,7852.0,[6],1,NA,NA,NA
120,14792.9375,7319.0,"[7,8]",2,NA,NA,NA
120,8495.1875,4151.0,[10],1,NA,NA,NA
144,25935.140625,11430.0,"[0,9]",2,NA,NA,NA
144,53202.25,22015.0,"[1,2,11]",3,NA,NA,NA
144,34330.375,17573.0,[3],1,NA,NA,NA
144,12229.703125,8389.0,[4],1,NA,NA,NA
144,9634.953125,5265.0,[5],1,NA,NA,NA
144,21551.15625,15262.0,[6],1,NA,NA,NA
144,5672.140625,1121.0,[8],1,NA,NA,NA
144,11496.59375,7249.0,[10],1,NA,NA,NA
168,25047.5703125,12080.0,"[0,9]",2,NA,NA,NA
168,48806.125,22205.0,"[1,2,11]",3,NA,NA,NA
168,30480.1875,13315.0,[3],1,NA,NA,552.6583969504704
168,16814.8515625,10700.0,[4],1,NA,NA,NA
168,9007.4765625,4190.0,[5],1,NA,NA,NA
168,24731.578125,13956.0,[6],1,NA,NA,NA
168,5841.6640625,3571.0,[7],1,NA,NA,NA
168,14174.296875,8426.0,[10],1,NA,NA,NA
