time_in_hour,cumulative_size,size,pcore_ids,pcore_power,SCA-1,CD11b,Ly6C
-1,0,0,[],0,0.0,0.0,0.0
0,38943,38943,"[0,3,7,11]",4,NA,NA,NA
0,34276,34276,"[1,2]",2,160.5220270743411,141.66539269459736,NA
0,3349,3349,"[4,10]",2,NA,NA,NA
24,47450.5,27979.0,"[0,3,7,11]",4,NA,NA,NA
24,53871.0,36733.0,"[1,2]",2,NA,138.4179892706651,NA
24,8437.5,6763.0,"[4,10]",2,NA,NA,NA
24,5777.0,3648.0,[5],1,NA,NA,NA
24,8847.0,6709.0,[6],1,345.6967333559339,NA,NA
24,6946.0,5087.0,[8],1,NA,NA,NA
24,2970.5,2256.0,[4],1,NA,NA,NA
48,59702.25,35977.0,"[0,3,7,11]",4,NA,NA,NA
48,66104.5,35696.0,"[1,2,8]",3,NA,139.7660295441304,NA
48,9329.75,5111.0,"[4,10]",2,NA,NA,NA
48,8951.5,6063.0,[5],1,NA,380.7113612243741,NA
48,9983.5,5560.0,[6],1,NA,NA,NA
72,67469.125,37618.0,"[0,3,7,11]",4,NA,NA,NA
72,69341.75,39764.0,"[1,2]",2,NA,139.15707167759595,NA
72,6953.875,2289.0,"[4,10]",2,NA,179.98216821556332,NA
72,5691.75,1216.0,[5],1,201.85852330126966,NA,760.7383932885283
72,9890.75,4899.0,[6],1,345.19674948815236,NA,NA
72,9402.75,4214.0,"[8,9]",2,NA,NA,NA
96,71549.5625,37815.0,"[0,3,7,11]",4,NA,NA,NA
96,67632.875,32962.0,"[1,2]",2,NA,141.24878526160518,NA
96,2327.8125,1240.0,[4],1,NA,NA,NA
96,14620.25,6829.0,"[5,6]",2,NA,NA,NA
96,7696.25,4125.0,[8],1,NA,NA,NA
96,6923.125,4534.0,[10],1,NA,NA,NA
120,79028.78125,43254.0,"[0,3,7,11]",4,NA,NA,NA
120,56885.4375,23069.0,"[1,2]",2,NA,143.4976872376165,NA
120,3565.90625,2402.0,[4],1,NA,NA,NA
120,10236.1875,6210.0,[6],1,389.612996782243,NA,NA
120,8375.125,4527.0,[8],1,NA,NA,NA
120,9977.5625,6516.0,[10],1,NA,NA,NA
144,72133.390625,32619.0,"[0,3,7,11]",4,NA,NA,NA
144,54909.28125,22279.0,"[1,2,8]",3,NA,144.54174982940617,NA
144,5175.953125,3393.0,[4],1,NA,NA,NA
144,13979.09375,8861.0,[6],1,NA,NA,NA
144,18280.78125,13292.0,[10],1,NA,NA,NA
144,9675.78125,7363.0,[9],1,NA,NA,NA
168,66852.6953125,30786.0,"[0,3,7,11]",4,NA,NA,NA
168,41609.359375,18134.0,"[1,2]",2,NA,NA,NA
168,8488.9765625,5901.0,[4],1,NA,NA,NA
168,16264.546875,9275.0,[6],1,NA,NA,NA
168,8072.28125,4093.0,[8],1,NA,NA,NA
168,13585.890625,8748.0,[9],1,NA,NA,NA
168,20028.390625,10888.0,[10],1,NA,NA,NA
