time_in_hour,cumulative_size,size,pcore_ids,pcore_power,SCA-1,CD11b,Ly6C
-1,0,0,[],0,0.0,0.0,0.0
0,30386,30386,"[0,8,10,13,14,16]",6,NA,NA,NA
0,35811,35811,"[1,2,5]",3,162.90918991371652,143.55463405099033,NA
0,8862,8862,[9],1,NA,NA,NA
24,50659.0,20273.0,"[0,8,10,13,14,16]",6,NA,NA,NA
24,75009.0,39198.0,"[1,2,5]",3,NA,140.8935461077996,NA
24,5053.0,3160.0,[3],1,NA,NA,NA
24,3603.0,2704.0,[4],1,NA,NA,NA
24,3874.0,1303.0,[6],1,NA,NA,NA
24,5282.0,3545.0,[7],1,NA,NA,NA
24,16970.0,8108.0,[9],1,NA,NA,NA
24,7100.0,4021.0,[11],1,NA,NA,NA
24,7368.0,4161.0,[12],1,337.277280130289,NA,599.3703854505978
24,5075.0,3527.0,[15],1,NA,NA,NA
48,64384.0,19579.0,"[0,8,10,13,14]",5,NA,NA,NA
48,108031.0,33022.0,"[1,2,5]",3,NA,139.38232544362177,NA
48,9744.0,4691.0,[3],1,245.04351395730535,NA,NA
48,4959.0,1356.0,[4],1,NA,NA,NA
48,6404.0,2530.0,[6],1,NA,317.69300437226815,NA
48,8340.0,3058.0,[7],1,NA,NA,NA
48,9492.0,3638.0,[16],1,163.9420564686066,NA,NA
48,28239.0,11269.0,[9],1,193.28329615071698,NA,NA
48,10077.0,2977.0,[11],1,NA,NA,NA
48,12710.0,5342.0,[12],1,NA,342.6056648308429,NA
48,7613.0,2538.0,[15],1,NA,NA,NA
72,86205.0,21821.0,"[0,8,10,13,14]",5,187.84039208862754,417.0933704541486,NA
72,148613.0,40582.0,"[1,2,5]",3,NA,138.66534556196152,NA
72,13305.0,3561.0,[3],1,259.7374671176234,436.0535137166498,745.8014280345741
72,4984.0,25.0,[4],1,NA,136.77829052969514,NA
72,6780.0,376.0,[6],1,123.6942477876135,316.9501474926262,760.4709439528013
72,8465.0,125.0,[7],1,NA,181.63130537507413,NA
72,12972.0,3480.0,[16],1,162.08402713537055,298.24807277212415,477.1421523280899
72,35192.0,6953.0,[9],1,200.1263923619038,526.6988804273702,604.0055694476007
72,13549.0,3472.0,[11],1,235.69126872831797,141.13550815558222,684.0036165030616
72,18996.0,6286.0,[12],1,353.49289324067684,337.9915771741428,582.5163192250968
72,10932.0,3319.0,[15],1,307.61754482253457,309.3693743139401,733.1223929747524
96,83246.0,15297.0,"[0,8,10,13]",4,181.96959613675293,431.64827138841423,540.1768973884566
96,183393.0,34780.0,"[1,2,5]",3,NA,137.67466042869538,NA
96,17642.0,4337.0,[3],1,NA,435.42064391792445,746.3794921210783
96,5573.0,589.0,[4],1,NA,136.30881033554655,NA
96,8937.0,2157.0,[6],1,132.85140427436806,303.7842676513374,762.8753496699112
96,9461.0,996.0,[7],1,NA,181.091322270373,NA
96,21484.0,3228.0,[14],1,NA,382.53393222863536,447.9727238875477
96,50244.0,15052.0,[9],1,203.5631319162501,537.1960035029036,600.3665313271148
96,16284.0,2735.0,[11],1,NA,138.17557111274732,683.2971628592478
96,21702.0,2706.0,[12],1,365.8143949866308,NA,577.706156114639
96,15640.0,4708.0,[15],1,NA,289.2239769820969,730.9384271099738
96,16387.0,3415.0,[16],1,172.2619759565534,285.3367913590047,470.5508024653669
120,99242.0,15996.0,"[0,8,10,13]",4,NA,NA,NA
120,208129.0,24736.0,"[1,2,5]",3,NA,142.72822624429983,NA
120,20604.0,2962.0,[3],1,NA,433.72820811493125,NA
120,8381.0,2808.0,[4],1,NA,NA,NA
120,9252.0,315.0,[6],1,NA,303.2919368785133,NA
120,15376.0,5915.0,[7],1,NA,NA,NA
120,25423.0,3939.0,[14],1,NA,NA,NA
120,74216.0,23972.0,[9],1,NA,NA,586.9506710143055
120,18334.0,2050.0,[11],1,NA,NA,NA
120,23657.0,1955.0,[12],1,NA,NA,NA
120,19343.0,3703.0,[15],1,NA,NA,NA
120,18036.0,1649.0,[16],1,NA,NA,NA
144,107967.0,8725.0,"[0,8,10,13]",4,NA,NA,NA
144,226663.0,18534.0,"[1,2,5]",3,NA,141.98090116163658,NA
144,27560.0,6956.0,[3],1,NA,NA,742.3192307692259
144,16613.0,8232.0,[4],1,NA,NA,NA
144,9398.0,146.0,[6],1,NA,NA,NA
144,31165.0,15789.0,[7],1,NA,NA,NA
144,27070.0,1647.0,[14],1,NA,NA,NA
144,93371.0,19155.0,[9],1,NA,NA,NA
144,20195.0,1861.0,[11],1,NA,NA,NA
144,28122.0,4465.0,[12],1,NA,NA,NA
144,23401.0,4058.0,[15],1,NA,NA,NA
144,18468.0,432.0,[16],1,NA,NA,NA
168,116253.0,8286.0,"[0,8,10,13]",4,NA,NA,NA
168,244477.0,17814.0,"[1,2,5]",3,NA,141.9734617162351,NA
168,35829.0,8269.0,[3],1,NA,NA,NA
168,27532.0,10919.0,[4],1,NA,NA,NA
168,9414.0,16.0,[6],1,NA,NA,NA
168,46491.0,15326.0,[7],1,NA,NA,NA
168,30551.0,3481.0,[14],1,NA,NA,442.6854440116582
168,108132.0,14761.0,[9],1,NA,NA,NA
168,21904.0,1709.0,[11],1,NA,NA,NA
168,33965.0,5843.0,[12],1,NA,NA,NA
168,26657.0,3256.0,[15],1,NA,NA,NA
168,18788.0,320.0,[16],1,NA,NA,NA
