time_in_hour,cumulative_size,size,pcore_ids,pcore_power,SCA-1,CD11b,Ly6C
-1,0,0,[],0,0.0,0.0,0.0
0,35645,35645,"[1,2,4,19]",4,153.97654650021278,141.9332304671064,226.01405526721788
0,11096,11096,"[10,13]",2,201.01883561643885,495.031813266043,598.1698810382126
24,31061.0,11380.0,"[0,3,7,9]",4,167.12881104922786,418.42612922958114,549.1153858536433
24,72345.0,36700.0,"[1,2,4,19]",4,164.88774621605197,139.37426221577095,226.02302854378266
24,8110.0,4057.0,[13],1,231.0840937114672,442.69691738594366,585.1945745992622
24,7036.0,4442.0,[6],1,280.49260943717763,396.2737350767481,757.8102615122243
24,5805.0,2144.0,[7],1,207.32403100775232,384.01757105943216,500.3355727820838
24,12903.0,5860.0,[10],1,204.57529256761987,527.326745718052,617.8746028055488
24,8859.0,4968.0,[11],1,362.2759905181106,330.2483350265269,608.1360198668033
24,7620.0,5242.0,[12],1,317.2244094488161,137.3002624671917,696.6791338582678
48,39075.0,13819.0,"[0,3,9]",3,155.88680742162796,434.8539731285999,554.7301087651955
48,104877.0,32532.0,"[1,2,4,19]",4,164.19593428492772,138.28386586191402,224.69552904831352
48,9059.0,3460.0,[5],1,143.77635500607448,330.80560768296584,470.7644331603936
48,12111.0,5075.0,[6],1,274.48666501527276,399.8334571876821,760.8895219222204
48,20610.0,5943.0,"[7,8,16]",3,218.04463852498776,366.43624454148494,522.5910237748657
48,10766.0,2656.0,[13],1,233.03000185769957,445.6193572357431,584.8566784321023
48,22127.0,9224.0,[10],1,202.08329190581657,540.3202874316489,615.5098748135752
48,14185.0,5326.0,[11],1,361.1470567500802,331.9247796968633,604.7283045470592
48,9949.0,2329.0,[12],1,318.09598954668456,135.99025027640948,694.3461654437631
48,6700.0,2735.0,[14],1,118.1377611940327,355.2234328358195,772.9216417910422
48,8461.0,2999.0,[15],1,338.1726746247453,136.5109325138871,228.28247252097808
48,7651.0,2259.0,[17],1,316.9402692458467,184.6552084694813,387.82838844595386
72,52644.0,13569.0,"[0,3,9]",3,166.75296330066348,437.83350429298713,544.328052579591
72,145755.0,40878.0,"[1,2,4,19]",4,167.96205962059975,140.4781997187045,218.06346952077047
72,12256.0,1490.0,[13],1,238.20088120104367,442.3235150130547,585.2256037859021
72,11346.0,2287.0,[5],1,150.28327163758476,330.01110523532446,467.7405252952586
72,15945.0,3834.0,[6],1,281.6538099717737,395.59874568830423,751.924114142365
72,24970.0,9735.0,"[7,8]",2,215.00664797757364,388.88334000800916,502.6662394873828
72,6303.0,928.0,[16],1,238.30445819450998,319.36918927494725,517.0721878470569
72,29835.0,7708.0,[10],1,213.2690129043073,537.9356460532969,608.7330987095678
72,17989.0,3804.0,[11],1,357.7125465562219,329.3694479959984,607.1364722886202
72,11549.0,1600.0,[12],1,318.3491211360249,139.8310676249024,692.9907351285838
72,6893.0,193.0,[14],1,121.38589873785264,354.2686783693591,770.7900768895964
72,10059.0,1598.0,[15],1,338.43712098617755,139.53494383139443,226.35450840043654
72,9304.0,1653.0,[17],1,319.0946904557149,186.41648753224433,387.5053740326738
96,66024.0,13380.0,"[0,3,9]",3,169.65368653823052,438.72364594692834,544.7862595419836
96,172233.0,33177.0,"[1,2,4]",3,171.64684468133603,139.89046814489572,196.9668936847169
96,33333.0,4531.0,"[5,7]",2,190.56145561455756,368.9980499805014,475.202892028919
96,19552.0,3607.0,[6],1,289.96460720130494,389.9024652209499,752.1048997545022
96,30859.0,4786.0,"[8,13,16]",3,238.33831297190392,392.0179850286786,565.2074921416771
96,46165.0,16330.0,[10],1,219.23060760316173,538.0330120220984,601.4851944113412
96,20513.0,2524.0,[11],1,365.4537122800118,325.8493150684942,608.2378491688175
96,14595.0,3046.0,[12],1,328.84933196299517,141.63542309009918,692.3355258650247
96,7942.0,1049.0,[14],1,127.71014857718717,348.21782926214934,769.0948123898246
96,13639.0,3580.0,[15],1,354.496297382503,145.844050150304,225.5944717354636
96,11431.0,2127.0,[17],1,328.0405913743293,186.79503105589967,390.5452716297782
96,7999.0,1300.0,[19],1,166.6785848231048,172.69258657332122,708.355169396175
120,78172.0,12148.0,"[0,3,9]",3,172.75290385304368,444.85478176329013,539.9429719080988
120,193477.0,21244.0,"[1,2,4]",3,173.26500307530358,140.24313484290045,197.1035988773851
120,15076.0,2083.0,[5],1,153.15508092332567,332.307707614753,465.3331785619522
120,25421.0,5869.0,[6],1,311.84925848707246,393.68230990126466,756.1945635498109
120,23495.0,3155.0,[7],1,217.67405831027781,394.6802298361372,475.71785486273683
120,16939.0,1373.0,"[8,16]",2,234.0698978688233,343.8063049766806,542.668516441348
120,20395.0,5102.0,[13],1,256.8726648688386,448.8366266241739,579.1909291493009
120,64039.0,17874.0,[10],1,230.53917144240037,541.4565811458696,591.4885616577087
120,24114.0,3601.0,[11],1,378.2399850709099,332.0297752343052,607.6069503193135
120,20335.0,5740.0,[12],1,348.6831079419663,140.53513646422377,694.9745266781434
120,7975.0,33.0,[14],1,127.93429467084898,348.1241379310331,769.0011285266442
120,20297.0,6658.0,[15],1,373.84120806030256,146.35837808543155,217.1889441789417
120,15250.0,3819.0,[17],1,340.353049180325,186.07685245901527,390.33062295081993
120,6659.0,954.0,[18],1,215.93692746658704,181.70641237423098,482.8915753116081
120,8346.0,347.0,[19],1,168.32278936017443,172.62089623771823,707.1473759884972
144,47697.0,2567.0,"[0,3]",2,146.99805019183862,444.4820009644196,555.0755393420969
144,218517.0,16694.0,"[1,2,4,19]",4,175.40992691644334,141.0022469647673,216.96494094280843
144,39106.0,6064.0,[9],1,209.8428885593008,458.4931212601664,511.86365263642335
144,15465.0,389.0,[5],1,153.14503718073445,332.34206272227743,463.67824118978274
144,33811.0,8390.0,[6],1,339.3066753423386,406.6461506610299,756.9043506550944
144,24902.0,1407.0,[7],1,219.67982491365996,396.47735121677107,472.410529274757
144,17443.0,504.0,"[8,16]",2,235.02608496244875,343.32305222725427,542.2619388866591
144,25372.0,4977.0,[13],1,269.5428030900194,457.3971306952513,572.4466340848164
144,79059.0,15020.0,[10],1,239.26596592418196,545.4370280423507,584.4065065330574
144,29652.0,5538.0,[11],1,400.47760690678143,338.5454944017281,607.616585727776
144,27674.0,7339.0,[12],1,381.43408975933795,136.14482908144777,689.428705644288
144,8094.0,119.0,[14],1,128.6074870274302,348.09599703483894,768.8692858907815
144,33708.0,13411.0,[15],1,410.79447015545225,143.9797080811675,210.47261777619482
144,22019.0,6769.0,[17],1,370.91107679730715,180.62500567691455,394.6773695444842
144,7471.0,812.0,[18],1,218.6778209075095,177.040155267033,482.6012581983665
168,48785.0,1088.0,"[0,3]",2,146.62326534795798,445.6008404222595,554.2804755560098
168,234399.0,15882.0,"[1,2,4,19]",4,178.598270470439,140.98723117419453,216.25712993655938
168,15875.0,410.0,[5],1,153.08869291338922,332.77404724409615,461.864314960629
168,41933.0,8122.0,[6],1,359.76250208665726,418.35189468914956,750.5720792692885
168,73374.0,9366.0,"[7,9]",2,217.98440864611388,439.3245972687882,491.3858996374766
168,18037.0,594.0,"[8,16]",2,236.4483561567885,342.78605089538155,542.2657315518102
168,89053.0,9994.0,[10],1,246.14152246414864,549.6673217073026,579.3530818725519
168,36671.0,7019.0,[11],1,418.50767636551586,343.82776580949627,608.3358784870921
168,36697.0,9023.0,[12],1,405.61173937923655,134.27179333460344,678.9692890427054
168,32519.0,7147.0,[13],1,283.50053814692654,464.9700482794676,562.5568129401238
168,8111.0,17.0,[14],1,128.75144864998398,348.1248921218082,768.7769695475263
168,45376.0,11668.0,[15],1,420.8614686177726,143.54077045133985,208.58731488011148
168,30874.0,8855.0,[17],1,390.75477748266746,178.5244218436222,397.8031677139369
168,8286.0,815.0,[18],1,223.31390296886315,173.48419020033833,483.5756698044892
