time_in_hour,cumulative_size,size,pcore_ids,pcore_power,SCA-1,CD11b,Ly6C
-1,0,0,[],0,0.0,0.0,0.0
0,25810,25810,"[0,8,9,10,11]",5,166.71383184812268,411.9691592406054,537.2384734599
0,36285,36285,"[1,2,5,18]",4,161.27548573791086,140.67697395618038,231.85283174865603
0,4135,4135,[3],1,198.57992744860977,433.9603385731557,582.5625151148724
0,6167,6167,"[8,9]",2,195.26593157126675,364.34700826982294,514.2656072644725
0,3883,3883,[12],1,338.8781869688343,360.6214267319104,598.5075972186454
0,6198,6198,[14],1,202.3165537270093,526.5116166505344,629.1419812842844
24,4449.75,3659.0,[0],1,138.80549469071593,382.5131748974672,535.1225068824085
24,44337.625,39802.0,"[1,2,5,18]",4,185.79209249480726,137.52777691633264,253.36734883747107
24,17551.25,15045.0,"[3,9,10,11]",4,202.5227334235462,426.5830923723384,566.2240225055202
24,4315.25,3940.0,[7],1,284.0640171484838,378.65563988181475,771.5121082208448
24,3083.75,2759.0,[9],1,221.44077827320604,348.30798540737766,559.5792865828938
24,5650.375,5165.0,[12],1,352.0246001371536,349.4059465079747,622.2596951529755
24,6131.75,5357.0,[14],1,233.9511150976481,535.6702205732444,649.4424511762539
24,4143.125,3904.0,[17],1,353.0164127319322,142.17501885653945,252.02241665409557
48,11167.375,10159.0,"[0,11]",2,171.0102516817984,411.66150561344966,524.4215614121484
48,39557.203125,34015.0,"[1,2,5,18]",4,176.53779751712594,136.79397044074966,230.96482032942018
48,3654.234375,3099.0,[3],1,219.67128887292617,431.2546745855623,594.8795703614372
48,5032.40625,4493.0,[7],1,260.749001782198,394.96398343237894,766.6192396778392
48,10221.046875,9420.0,[10],1,162.99305202042058,496.6412411889061,553.5703656823324
48,5974.296875,5268.0,[12],1,343.9390304821381,340.2444456068303,606.1645669600225
48,7577.46875,6811.0,[14],1,210.41950436945191,552.1331228683719,640.3706176617335
72,15217.205078125,13531.0,"[0,8,11]",3,198.88498999320996,410.6427308008296,475.216174280526
72,41825.904296875,37213.0,"[1,2,5]",3,168.66991668356934,142.54679892185163,185.40027848882337
72,6054.05078125,5425.0,[7],1,300.0769945484552,381.99950510924714,727.162125113804
72,10240.630859375,8963.0,[10],1,194.11332958117484,495.02303572835393,512.167526986843
72,4238.787109375,3492.0,[12],1,341.1651014924885,338.5211686715731,589.2041332393961
72,5882.18359375,4935.0,[14],1,238.37115588054147,551.0629486286382,603.4958763851904
96,8063.740234375,6670.0,"[0,11]",2,176.8110178969579,423.60919850023095,507.28085817104227
96,37351.238037109375,32123.0,"[1,2,5]",3,177.43391711773364,141.3058006523809,199.5269549213236
96,14959.55126953125,13367.0,"[3,10]",2,198.17412820985828,483.3764758425253,551.9422012046105
96,4255.75634765625,3499.0,[7],1,322.35590065339557,390.3582382501457,755.8145465086426
96,12880.27294921875,12145.0,[14],1,230.39301065222745,552.0495340026662,592.8879941425697
96,3849.107666015625,3461.0,[17],1,428.1097076642071,159.09167100354568,198.85935787547137
120,3789.7562866210938,3216.0,[0],1,152.78642402896523,419.6669857824192,491.8125572835266
120,21300.60171508789,17936.0,"[1,2]",2,218.46479417491614,139.73792801014102,188.51122815502256
120,7136.303039550781,5832.0,[5],1,144.73229122311145,150.3462464446889,251.90014336494727
120,37594.18927001953,33680.0,"[3,10,11,14]",4,246.66292173610933,513.8798196264516,548.7898837366298
120,3610.416015625,3228.0,[4],1,364.69587234850115,194.9451455813202,380.00221535468864
120,5536.969543457031,5005.0,[7],1,388.7152537879848,410.3950140870514,762.5713463123277
120,4395.138458251953,3914.0,[17],1,450.12371362131745,151.14725681966,188.67184566171426
120,4389.996032714844,3967.0,[18],1,362.8400200164852,181.79294471885208,745.2081406512656
144,9450.165943145752,8279.0,[1],1,302.60758247276425,138.28487355740435,262.1613216946497
144,15164.447151184082,12781.0,"[2,5]",2,188.90281550176192,133.45961562885338,172.44544252777482
144,21965.709926605225,18634.0,"[3,11,14]",3,296.5296489028249,528.7500086572079,542.2660889644512
144,5644.302001953125,5193.0,[4],1,445.67264055404246,184.28924145305365,380.02232336150075
144,6455.121192932129,5763.0,[7],1,460.1813004556984,474.6329302194932,751.8781824297471
144,10498.563732147217,9131.0,[10],1,217.6027480094744,519.8065874068557,528.3519129974394
144,5564.488414764404,5275.0,[15],1,577.235224198008,132.6282657819304,607.1953875122496
144,3704.4389839172363,3637.0,[16],1,352.77609048994736,332.9687529823564,738.3948591716252
144,9133.392307281494,8584.0,[17],1,505.3682520468037,139.98184870961364,186.90184360593148
168,3826.5899419784546,3474.0,[0],1,183.36077287424274,458.0086860070589,460.67995363317806
168,10036.270742893219,8855.0,[1],1,331.5342490246018,142.81309383099165,272.69546322015003
168,14432.55589389801,12537.0,"[2,5]",2,211.6540457390372,136.24407038215583,175.8715499610532
168,10102.68195772171,8958.0,"[3,11]",2,319.3717601360219,480.99956778092053,513.3889792765046
168,6522.537750244141,5817.0,[4],1,470.45199118196206,192.5244536548649,384.7349285135378
168,5880.890149116516,5074.0,[7],1,499.1905449188433,502.33664648271235,724.809338494199
168,7982.320466518402,6670.0,[10],1,244.14611615229856,523.9699208805815,513.1644421108188
168,4130.384819984436,3805.0,[13],1,387.02369415144386,124.99578785230246,537.9202913294673
168,9686.031783103943,8085.0,[14],1,330.4494848143978,579.6285449871154,548.7815849103251
168,6438.5610518455505,5743.0,[15],1,556.0994624224601,131.76531980054017,618.4951001237064
168,5369.0548729896545,4906.0,[16],1,403.32623506411994,359.54052422393437,701.5969154422894
168,7434.674038410187,6293.0,[17],1,492.26647924179804,137.31720277796273,189.21932223362379
