time_in_hour,cumulative_size,size,pcore_ids,pcore_power,SCA-1,CD11b,Ly6C
-1,0,0,[],0,0.0,0.0,0.0
0,25810,25810,"[0,8,9,10,11]",5,0.1873189121889019,0.4660284606794179,0.5503769192203786
0,36285,36285,"[1,2,5,18]",4,0.18120841094147286,0.15913684836671987,0.21030382154638755
0,4135,4135,[3],1,0.22312351398720198,0.49090536037687293,0.6008491259631096
0,6167,6167,"[8,9]",2,0.21939992311378287,0.41215724917400787,0.5247946628780317
0,3883,3883,[12],1,0.3807620078301509,0.40794279042071313,0.6186053421143044
0,6198,6198,[14],1,0.22732197047978575,0.5956013763015094,0.652719355550428
24,12742.5,9181.0,"[0,9,11]",3,0.20572037307691676,0.44160037356727494,0.5498661818188179
24,48804.25,39733.0,"[1,2,5,18]",4,0.20579424924600095,0.15545343820545288,0.23190022004294966
24,12160.5,9128.0,"[3,10]",2,0.2121188097953933,0.50663802635229,0.59725255992855
24,4803.5,4053.0,[7],1,0.31404289709165506,0.42440784834964385,0.8100011405937075
24,3346.5,2697.0,[9],1,0.23930787994164626,0.4052107861728985,0.5728624993635937
24,6216.75,5246.0,[12],1,0.39448915421050534,0.3965489617434437,0.642244177778564
24,7199.5,5650.0,[14],1,0.2561102479807052,0.6044675283822818,0.6701804799300118
24,4530.25,4052.0,[17],1,0.3921576493595756,0.16381202929228125,0.24144893845860932
48,15225.625,12040.0,"[0,9,11]",3,0.20087503557214798,0.4524534337485127,0.5417023302699412
48,46067.0625,33866.0,"[1,2,5,18]",4,0.19859087791481328,0.15407306948906188,0.21137399345029212
48,15529.125,12489.0,"[3,10]",2,0.20027067660196943,0.537136648757318,0.5819361768622958
48,3800.75,3008.0,[6],1,0.18697331691631114,0.3326649963108609,0.4639158078488493
48,5840.875,4640.0,[7],1,0.2941535137277151,0.439649525834425,0.8059400303797487
48,3190.625,2354.0,[9],1,0.24070792019280515,0.4061646154732513,0.5718306433493523
48,6931.1875,5377.0,[12],1,0.38813055020910536,0.386116332504089,0.6290155746964592
48,8809.875,7010.0,[14],1,0.2376318485815616,0.6230804910984351,0.6654448650154712
72,18313.828125,14615.0,"[0,8,11]",3,0.22203089634802,0.4654784102206234,0.4863979988149158
72,48418.109375,37719.0,"[1,2,5]",3,0.19085337790771095,0.1603155113011899,0.15994932013846172
72,3877.1875,2927.0,[6],1,0.19957451076458507,0.3600440717854867,0.4334719982594774
72,6699.21875,5239.0,[7],1,0.3305542817833359,0.4293838766275741,0.7711443635678904
72,11596.546875,8821.0,[10],1,0.21331528020641358,0.5605188980065758,0.5338335557401915
72,5259.796875,3527.0,[12],1,0.3855217339045857,0.38537288952834464,0.6133616673515344
72,6731.46875,4529.0,[14],1,0.2657002790067169,0.6221045446180192,0.6390834202985889
96,10297.4375,6859.0,"[0,11]",2,0.1982327400607157,0.4769432951623094,0.5105574729343156
96,48088.19140625,35129.0,"[1,2,5,18]",4,0.20904420107261398,0.16359972183681382,0.22252724000809604
96,19696.984375,15589.0,"[3,9,10]",3,0.2276429752412047,0.537981697530064,0.5651020499999747
96,5409.8046875,3735.0,[7],1,0.3506866799197311,0.43011011774586116,0.7935446449616917
96,3629.94921875,2315.0,[12],1,0.4191753744581729,0.40839366596180754,0.6170950942024532
96,13039.8671875,11357.0,[14],1,0.2625780750552763,0.6256890687374177,0.6181737371499672
96,4432.34765625,3595.0,[17],1,0.46798194105121127,0.17911361684323873,0.18060327107153204
120,4327.408203125,2931.0,[0],1,0.16513821953548102,0.46968893559080543,0.5039807652308352
120,25892.9619140625,17724.0,"[1,2]",2,0.2351488469092795,0.15719088421486752,0.15740459088118827
120,8444.919921875,5610.0,[5],1,0.1623037972087597,0.17142682319340813,0.23672061155969643
120,42969.435546875,34049.0,"[3,10,11,14]",4,0.2725132131306104,0.5790587527680965,0.5639411980088196
120,4308.30859375,3423.0,[4],1,0.394560635044824,0.22049381331124904,0.3751183823530852
120,6364.451171875,5012.0,[7],1,0.4193147040433269,0.4494859236198504,0.8036978370958809
120,3883.4873046875,2976.0,[12],1,0.449995680023037,0.45379429275854,0.6298741882610951
120,5368.0869140625,4260.0,[17],1,0.4965201912656408,0.1716151327121271,0.16778371659139882
120,4989.166015625,3971.0,[18],1,0.3925994576371274,0.19748573856333132,0.7768460621109692
144,10975.122314453125,8271.0,[1],1,0.3201340079010573,0.15707250626780367,0.23633447771692778
144,17666.34814453125,11786.0,"[2,5]",2,0.20123989795126604,0.15239670520180226,0.14305537242652341
144,26937.787841796875,19523.0,"[3,11,14]",3,0.3240897974596727,0.5958994483073699,0.5572226369527046
144,6183.0771484375,5106.0,[4],1,0.4612408846843393,0.20728544927445294,0.37691268549608237
144,8511.11279296875,6920.0,[7],1,0.485802742165424,0.5036111616517406,0.7937128628481162
144,12187.571044921875,8860.0,[10],1,0.2332636638181488,0.5831315090325092,0.5372601455257876
144,4435.871826171875,3465.0,[12],1,0.5118944660654359,0.48916661197399675,0.6206683567570389
144,6653.838623046875,5913.0,[15],1,0.6381139019144608,0.15168718128093242,0.619890075336059
144,10972.021728515625,9630.0,[17],1,0.5576795687614117,0.16218401862835474,0.1675876360346405
144,4509.29150390625,3262.0,[18],1,0.42635998845971224,0.19994384672215784,0.7668206042252125
168,12080.780578613281,9337.0,[1],1,0.35216369316605306,0.15955260431235951,0.2414157871431021
168,15537.587036132812,11121.0,"[2,5]",2,0.2217143418719824,0.15427949006990443,0.14450733823453452
168,12636.761535644531,9880.0,"[3,11]",2,0.34491136920969007,0.5457953472570723,0.5134574632434624
168,8174.769287109375,6629.0,[4],1,0.49848475144449766,0.2092494446710761,0.3794000138807714
168,8675.778198242188,6548.0,[7],1,0.528422840588435,0.5369577648962222,0.7637742534599611
168,8793.892761230469,5747.0,[10],1,0.2517439323102174,0.5883793926991042,0.5231124216750401
168,4087.9679565429688,2979.0,[12],1,0.5468900357798641,0.4826440587305029,0.60005678289365
168,3866.7796630859375,3234.0,[13],1,0.40651614200938285,0.13913867690231152,0.5760129304023687
168,12552.685424804688,8575.0,[14],1,0.35709387638955725,0.6493367586840166,0.5663589756875292
168,8216.459655761719,6553.0,[15],1,0.6204429110500134,0.15048933303521944,0.6309280773783755
168,3652.1458129882812,3221.0,[16],1,0.41902991188982447,0.39039838445079295,0.7289055816445825
168,9547.005432128906,6804.0,[17],1,0.5529653322029032,0.15820572069523767,0.16588872582728142
168,4052.3228759765625,2925.0,[18],1,0.45951987377927406,0.20930672298354458,0.7335716876325832
