time_in_hour,cumulative_size,size,pcore_ids,pcore_power,SCA-1,CD11b,Ly6C
-1,0,0,[],0,0.0,0.0,0.0
0,34856,34856,"[1,2]",2,164.36340945605048,144.26985310993825,NA
0,1866,1866,[5],1,NA,NA,NA
0,35854,35854,"[3,7,8]",3,184.84754839069717,NA,NA
0,1532,1532,[12],1,NA,263.5868146214097,NA
24,69628.0,29811.0,"[0,3,7,8]",4,NA,NA,NA
24,74791.0,39935.0,"[1,2]",2,NA,141.1609418245506,NA
24,3784.0,1918.0,[5],1,NA,NA,NA
24,6917.0,3079.0,[6],1,NA,NA,NA
24,3179.0,1647.0,[12],1,NA,NA,NA
24,8574.0,5578.0,[10],1,NA,340.28528108234156,NA
48,103963.0,34335.0,"[0,3,7,8]",4,NA,NA,NA
48,107572.0,32781.0,"[1,2]",2,NA,139.34891979325351,NA
48,5964.0,2180.0,[5],1,NA,NA,NA
48,8742.0,2788.0,[4],1,NA,NA,NA
48,13077.0,6160.0,[6],1,NA,370.1343580331901,NA
48,14647.0,6073.0,[10],1,NA,NA,NA
72,135611.0,31648.0,"[0,3,7,8]",4,193.08261866662883,NA,NA
72,146833.0,39261.0,"[1,2]",2,180.45281374078263,138.73849202835686,NA
72,7495.0,1531.0,[5],1,232.3769179452965,198.04016010673763,352.8632421614403
72,10792.0,2050.0,[4],1,212.54271682727946,182.95450333580368,725.655300222383
72,5845.0,291.0,[12],1,NA,264.2706586826349,427.591103507271
72,16422.0,3345.0,[6],1,210.9878212154438,374.47229326513406,758.461210571183
72,8116.0,2080.0,[9],1,364.7872104484919,141.28474618038433,653.5008624938386
72,22038.0,7391.0,[10],1,340.23999455485364,349.1777838279332,624.3309283964053
72,6847.0,2403.0,[11],1,235.5123411713149,156.0868993719882,511.22038849130917
96,170220.0,34609.0,"[0,3,7,8]",4,193.33716954529459,NA,549.4246563270891
96,181193.0,34360.0,"[1,2]",2,184.1684888489087,137.8222006368884,195.34439520290448
96,8765.0,1270.0,[5],1,NA,196.90496292070705,346.98779235596027
96,15566.0,4774.0,[4],1,225.0349479635105,176.44539380701536,725.331491712706
96,6694.0,849.0,[12],1,NA,257.6311622348373,418.08903495667744
96,21008.0,4586.0,[6],1,221.04198400609266,376.058215917748,766.4567783701472
96,9822.0,1706.0,[9],1,NA,139.6293015679091,649.8706984320897
96,28495.0,6457.0,[10],1,363.27373223372155,346.93932268819276,617.8227408317242
96,8236.0,1389.0,[11],1,246.68892666342782,154.09373482273006,505.5054638173864
120,222472.0,52252.0,"[0,3,7,8]",4,NA,NA,NA
120,204983.0,23790.0,"[1,2]",2,NA,140.0971056136349,NA
120,11903.0,3138.0,[5],1,NA,187.90145341510558,NA
120,16770.0,1204.0,[4],1,NA,177.83452593917698,NA
120,8309.0,1615.0,[12],1,NA,NA,NA
120,23856.0,2848.0,[6],1,NA,377.47510060362293,NA
120,13121.0,3299.0,[9],1,NA,NA,NA
120,29430.0,935.0,[10],1,NA,NA,NA
120,9155.0,919.0,[11],1,NA,NA,NA
144,250583.0,28111.0,"[0,3,7,8]",4,NA,NA,NA
144,226502.0,21519.0,"[1,2]",2,NA,142.8370345515711,NA
144,16480.0,4577.0,[5],1,NA,NA,NA
144,18332.0,1562.0,[4],1,NA,NA,NA
144,20501.0,12192.0,[12],1,NA,NA,NA
144,26907.0,3051.0,[6],1,NA,NA,NA
144,21457.0,8336.0,[9],1,NA,NA,NA
144,38795.0,9365.0,[10],1,NA,NA,NA
144,10442.0,1287.0,[11],1,NA,NA,NA
168,277759.0,27176.0,"[0,3,7,8]",4,NA,NA,NA
168,242256.0,15754.0,"[1,2]",2,NA,143.04751997886504,NA
168,21950.0,5470.0,[5],1,NA,NA,NA
168,19135.0,803.0,[4],1,NA,NA,NA
168,27738.0,831.0,[6],1,NA,NA,NA
168,32509.0,11052.0,[9],1,NA,NA,NA
168,51943.0,13148.0,[10],1,NA,NA,NA
168,12372.0,1930.0,[11],1,NA,NA,NA
168,34337.0,13836.0,[12],1,NA,NA,NA
