time_in_hour,cumulative_size,size,pcore_ids,pcore_power,SCA-1,CD11b,Ly6C
-1,0,0,[],0,0.0,0.0,0.0
0,32723,32723,"[0,8,9,10,11,15]",6,NA,NA,NA
0,34443,34443,"[1,4,5,7]",4,161.2952123798766,142.47725227186936,NA
0,1541,1541,[19],1,NA,NA,NA
0,6795,6795,[16],1,195.7168506254604,NA,NA
24,25615.375,21525.0,"[0,8,9,10,11,15]",6,NA,NA,NA
24,41329.375,37024.0,"[1,4,5,7]",4,NA,137.9793427798028,NA
24,2949.25,2818.0,[2],1,NA,NA,NA
24,3652.625,3460.0,[19],1,NA,NA,NA
24,3280.125,2990.0,[13],1,NA,NA,NA
24,3096.75,2856.0,[14],1,NA,NA,NA
24,7286.375,6437.0,[16],1,228.80677977732486,NA,NA
24,4975.375,4664.0,[17],1,NA,NA,NA
48,30201.921875,27000.0,"[0,8,9,10,11,15]",6,NA,NA,NA
48,35111.09375,30460.0,"[1,4,7]",3,NA,135.72801019976708,NA
48,3219.078125,2704.0,[5],1,NA,NA,NA
48,4311.28125,3989.0,[6],1,175.43317314313623,402.4343328911801,NA
48,3580.8125,3284.0,[12],1,NA,NA,NA
48,3297.015625,2887.0,[13],1,NA,282.1686231392971,NA
48,2745.09375,2358.0,[14],1,NA,NA,NA
48,9536.796875,8626.0,[16],1,202.19970345127186,NA,NA
48,3777.921875,3156.0,[17],1,NA,NA,NA
72,40845.88671875,36457.0,"[1,4,7]",3,NA,144.1732407935434,NA
72,2959.384765625,2557.0,[5],1,NA,NA,NA
72,11841.806640625,10764.0,"[8,9]",2,NA,NA,NA
72,14666.689453125,12915.0,"[10,15]",2,201.49332664833108,NA,NA
72,3825.126953125,3413.0,[13],1,294.79866630243265,NA,NA
72,2186.62890625,1611.0,[10],1,NA,NA,NA
72,8095.099609375,6903.0,[16],1,228.79066063067165,NA,NA
72,3832.240234375,3360.0,[17],1,316.72920029335455,NA,NA
72,2809.072265625,2555.0,[19],1,NA,158.2251313232447,NA
96,20769.468994140625,17186.0,"[0,8,9,10,15]",5,NA,NA,NA
96,36020.73583984375,30915.0,"[1,4,7]",3,NA,143.0551142979751,NA
96,3193.923095703125,2824.0,[5],1,NA,NA,NA
96,2880.23876953125,2643.0,[6],1,NA,NA,NA
96,20334.073486328125,19167.0,"[11,16]",2,NA,NA,579.0764176725061
96,3316.140869140625,2838.0,[13],1,NA,NA,NA
96,3289.76708984375,3026.0,[14],1,NA,NA,NA
96,2794.030029296875,2315.0,[17],1,NA,NA,NA
96,3609.134033203125,3258.0,[19],1,NA,NA,NA
120,13345.945343017578,11647.0,"[0,9,15]",3,NA,NA,NA
120,19821.338592529297,16521.0,"[1,7]",2,NA,140.06391762369685,NA
120,6969.253387451172,5767.0,[4],1,NA,157.36025274852383,NA
120,3603.2403869628906,3204.0,[5],1,NA,NA,NA
120,3561.0298461914062,3201.0,[6],1,373.57590095130826,NA,NA
120,3486.3222045898438,3079.0,[8],1,NA,NA,NA
120,7069.1893310546875,6293.0,"[10,11]",2,NA,NA,NA
120,23484.485931396484,21229.0,[16],1,253.67215050853005,NA,559.5231315694355
120,3634.517608642578,3220.0,[13],1,NA,NA,NA
120,3412.2208862304688,3001.0,[14],1,NA,NA,NA
120,3469.2537536621094,3120.0,[17],1,389.6260754449259,NA,651.2547983534251
120,4435.141754150391,3984.0,[19],1,NA,NA,NA
144,2813.451671600342,2411.0,[0],1,NA,NA,NA
144,17080.667324066162,14603.0,"[1,7]",2,NA,134.30112234226442,NA
144,4994.93888092041,4721.0,[2],1,NA,NA,NA
144,4379.255813598633,4138.0,[3],1,NA,NA,NA
144,5434.1566734313965,4563.0,[4],1,NA,NA,NA
144,3865.4050483703613,3415.0,[5],1,NA,180.95483530459842,NA
144,5794.128730773926,5349.0,[6],1,NA,NA,NA
144,32297.22515106201,27607.0,"[10,11,15,16]",4,NA,NA,NA
144,3579.3147010803223,3125.0,[13],1,NA,NA,NA
144,3082.5276107788086,2656.0,[14],1,NA,NA,NA
144,3649.6567192077637,3216.0,[17],1,NA,NA,NA
144,8770.392719268799,8216.0,[19],1,NA,NA,NA
168,4136.681458950043,3785.0,[0],1,NA,NA,471.7709717919429
168,8187.590571403503,7235.0,[1],1,NA,NA,NA
168,6102.367360115051,5478.0,[2],1,NA,NA,NA
168,3748.406976699829,3201.0,[3],1,NA,NA,NA
168,13886.762428283691,12025.0,"[4,7]",2,NA,NA,NA
168,4507.175631046295,4024.0,[5],1,NA,190.5312854515556,NA
168,6706.266091346741,5982.0,[6],1,NA,NA,NA
168,13809.035125732422,12162.0,"[9,10,15]",3,NA,NA,NA
168,4289.894894599915,3746.0,[11],1,NA,NA,NA
168,3380.4143376350403,2933.0,[13],1,NA,NA,NA
168,3692.315951347351,3307.0,[14],1,NA,NA,NA
168,11765.07009267807,9698.0,[16],1,NA,NA,NA
168,3303.2070899009705,2847.0,[17],1,NA,NA,NA
168,3729.12735080719,3484.0,[18],1,NA,NA,NA
168,7512.2990899086,6416.0,[19],1,NA,NA,NA
