time_in_hour,cumulative_size,size,pcore_ids,pcore_power,SCA-1,CD11b,Ly6C
-1,0,0,[],0,0.0,0.0,0.0
0,39793,39793,"[0,3,6,7]",4,0.199813783520733,0.480445269200239,0.5762918034010848
0,40477,40477,"[1,2,5]",3,0.18034711348073484,0.1816968118982049,0.25026184135035895
0,2188,2188,[8],1,0.3169550972618758,0.2357294415445825,0.39824737482848316
0,3188,3188,[4],1,0.2794478592474579,0.15768372062655772,0.7080379373653435
0,4354,4354,[9],1,0.3792059993909719,0.38993295809543294,0.6307514376356179
24,34855.125,29881.0,"[0,3,6,7]",4,0.22729837700185204,0.47824710707432144,0.58911227510303
24,43769.25,39286.0,"[1,2]",2,0.2080958535547769,0.1574552510405436,0.18527525585210802
24,8831.875,7982.0,"[5,8]",2,0.3088992644270016,0.27834914796934085,0.5915115151433005
24,6896.5,6498.0,[4],1,0.34062912143189195,0.1549608702099208,0.7164843630536579
24,6897.25,6353.0,[9],1,0.40076170237201036,0.3899963040224068,0.6811197629603042
48,42014.890625,37658.0,"[0,3,6,7]",4,0.21279057167136103,0.5004511953956303,0.5769016167118343
48,39674.15625,34203.0,"[1,2]",2,0.20025614203455883,0.15662191609490136,0.17552217945181864
48,4694.0625,3832.0,[4],1,0.2979819376468449,0.15734207027205663,0.7080485686779406
48,6650.046875,6093.0,[5],1,0.21775369233558373,0.39890159623721755,0.8065587796676572
48,6589.15625,5727.0,[9],1,0.3830808960734438,0.3845187372180726,0.6563400596687544
48,3033.9375,2487.0,[8],1,0.4116390090379678,0.2073969055564209,0.36693973983161066
72,39433.861328125,34182.0,"[0,3,6,7]",4,0.23631431430598498,0.5009029019367688,0.521794272161562
72,45187.26953125,40228.0,"[1,2]",2,0.20000404177858586,0.16593868908322823,0.16427083861801026
72,3083.2421875,2704.0,[8],1,0.3913032823861625,0.21299632888591483,0.3408123892371496
72,4372.7578125,3786.0,[4],1,0.32566737955208175,0.17623831775436524,0.680178007789602
72,10754.900390625,9100.0,"[5,9]",2,0.34121827846795305,0.3945139103904202,0.7098115910196277
72,2612.640625,2015.0,[6],1,0.28264005751128474,0.43706174029391537,0.5483334959112092
96,42677.232666015625,37748.0,"[0,3,6,7]",4,0.2335502550646843,0.5324936768354579,0.5626725437390198
96,39483.40869140625,33835.0,"[1,2]",2,0.20696439073805267,0.1632043249718848,0.1809872498610656
96,6216.5947265625,5670.0,[4],1,0.38422751184920295,0.16172549189740834,0.6967262945240116
96,5881.906982421875,5159.0,[5],1,0.30069009770932115,0.37623561324903687,0.8043235507752197
96,3655.45556640625,3034.0,[9],1,0.4556314311109241,0.3978362110283791,0.6463468093002778
96,4939.4052734375,4554.0,[8],1,0.48024550956248224,0.20028412809761736,0.26019090100932296
120,49476.65408325195,44142.0,"[0,3,6,7]",4,0.2702529570111446,0.5425544134073982,0.5487328451726989
120,30459.42608642578,25524.0,"[1,2]",2,0.23196325319202568,0.1663172697301355,0.19327557941345175
120,6717.0743408203125,5940.0,[4],1,0.4355928112586715,0.1540560907424082,0.6956016695624081
120,9999.170318603516,8807.0,"[5,9]",2,0.43643054629606354,0.4134782794757062,0.7462635895354861
120,6204.4256591796875,5587.0,[8],1,0.4971214336975665,0.1855807346692157,0.22094624143514957
144,37924.70258331299,32453.0,"[0,3,6]",3,0.30347499365240055,0.5779972293836906,0.548144998081501
144,26410.428260803223,22603.0,"[1,2]",2,0.2687383837601531,0.16031212541121506,0.20075352108262337
144,9921.634292602539,9082.0,[4],1,0.5476106490418773,0.1493559687806014,0.640645835243204
144,7539.779796600342,6794.0,[5],1,0.42667403398128606,0.3698028781333067,0.7742145566565634
144,12791.553207397461,12016.0,[8],1,0.5576306476818848,0.17013720706413052,0.20350822601188107
144,6087.116493225098,5583.0,[9],1,0.547454196438256,0.552179929796874,0.7351491244602303
168,35736.58782291412,30996.0,"[0,3,6]",3,0.33484089939077555,0.5694632782568021,0.5273221185408734
168,16202.587572574615,14195.0,[1],1,0.24858411578072054,0.15861477883892022,0.15100674443179593
168,22087.66011095047,19195.0,"[2,8]",2,0.4678865092577546,0.17655443802616552,0.259214163794176
168,12232.204286575317,10992.0,[4],1,0.5575989021490777,0.1521920959640971,0.6228232839923468
168,7534.472474575043,6592.0,[5],1,0.45850684251434165,0.36758551838323084,0.724192081946065
168,6934.889561653137,6174.0,[9],1,0.5650899583009115,0.5592274708470167,0.7320053417744815
