time_in_hour,cumulative_size,size,pcore_ids,pcore_power,SCA-1,CD11b,Ly6C
-1,0,0,[],0,0.0,0.0,0.0
0,42805,42805,"[0,3,7,8,10]",5,190.8340614414221,415.47127672001045,557.8114005373202
0,37139,37139,"[1,2]",2,166.95527612483156,147.90045504725498,213.90382078138828
0,4354,4354,[5],1,169.70969223702426,342.4598070739555,750.7742305925609
0,3050,3050,[6],1,185.564590163935,165.63180327868818,717.2924590163946
24,76760.0,33955.0,"[0,3,7,8,10]",5,206.5951146430443,413.27970297029714,568.5557582074
24,79287.0,42148.0,"[1,2]",2,185.31391022488157,144.76151197548083,217.9066934049719
24,3123.0,2045.0,[4],1,250.9673390970207,157.84534101825184,503.530259365994
24,8073.0,3719.0,[5],1,191.71249845162973,349.41545893719785,756.9967793880852
24,12757.0,8133.0,"[6,9]",2,286.1125656502288,187.0902249745236,689.8267617778463
48,117254.0,40494.0,"[0,3,7,8,10]",5,205.97670015521985,422.19679499207075,565.1199276783723
48,114317.0,35030.0,"[1,2]",2,184.49178162478285,142.95758286169044,212.1589352414779
48,5146.0,2023.0,[4],1,250.0985231247552,152.86669257675885,501.06548775747933
48,14962.0,6889.0,[5],1,196.93670632268496,361.53081138885346,760.2176179655146
48,9938.0,3096.0,[6],1,211.73606359428464,158.74683034815806,715.197826524449
48,8383.0,2468.0,[9],1,370.43146844804255,222.48550638196303,658.1666467851595
72,145146.0,38055.0,"[0,3,7,8]",4,200.2642029404883,433.1632149697555,555.6579513042025
72,154715.0,40398.0,"[1,2]",2,183.68751575477728,141.5592024044174,203.9111786187512
72,6196.0,1050.0,[4],1,257.5401872175578,152.71578437701746,495.86620400258073
72,16990.0,2028.0,[5],1,208.0730429664511,359.13166568569875,757.341024131842
72,22855.0,4534.0,"[6,9]",2,287.01334500109016,189.85438634871934,687.9228177641647
72,14098.0,3935.0,[10],1,343.132288267834,332.894311249823,541.0193644488587
96,185013.0,39867.0,"[0,3,7,8]",4,203.70736650938034,441.05374216947047,556.4160626550429
96,190713.0,35998.0,"[1,2]",2,187.72107826944458,140.54847860397211,202.4857927881169
96,7607.0,1411.0,[4],1,267.3770211647146,151.0984619429472,488.1150256342832
96,21488.0,4498.0,[5],1,220.95425353685653,355.4616064780363,761.9438756515264
96,29125.0,6270.0,"[6,9]",2,300.2624206008543,187.15323605150132,686.9910042918457
96,16054.0,1956.0,[10],1,354.5873925501387,334.0487106017202,538.6114986919138
120,233099.0,48086.0,"[0,3,7,8]",4,217.1557278237992,442.50483271056333,553.16451808028
120,221295.0,30582.0,"[1,2]",2,194.6096884249537,145.87896247090754,209.08509907589578
120,9029.0,1422.0,[4],1,277.2331376675131,157.27057259940207,485.9668844833321
120,23839.0,2351.0,[5],1,230.97827090062333,358.3071437560318,753.7094676790094
120,34616.0,5491.0,"[6,9]",2,315.48379362144243,186.8288941529921,684.6600704876366
120,18122.0,2068.0,[10],1,363.41198543206696,336.3017327005863,539.4020527535586
144,264196.0,31097.0,"[0,3,7,8]",4,222.99466305318666,452.49722554466587,552.1023785371336
144,254002.0,32707.0,"[1,2]",2,211.22531318650925,145.7109274730105,209.15493578790952
144,12407.0,3378.0,[4],1,305.1904570000783,150.13637462722673,477.35076972676717
144,29014.0,5175.0,[5],1,255.7989591231792,366.54060108913177,755.1745019645588
144,21592.0,1773.0,[6],1,254.75546498702965,168.55511300481587,701.3640237124868
144,23945.0,9148.0,[9],1,447.55702651910235,194.10544998955785,659.4369596993116
144,24844.0,6722.0,[10],1,396.2400177105087,356.3752213814222,546.3487763645161
168,162398.0,13107.0,"[0,7,8]",3,204.70257638640823,409.84375423342277,510.5298217958328
168,214322.0,12820.0,[1],1,187.35589906775758,139.67677140004093,185.76036524481697
168,70382.0,17882.0,[2],1,334.48925861725985,166.67363814611508,284.87256684947744
168,129615.0,14710.0,[3],1,258.837148478181,519.2175596960163,596.6931219380438
168,17628.0,5221.0,[4],1,330.7989562060342,148.61419332879507,470.03710006807313
168,32841.0,3827.0,[5],1,270.3273042842749,371.8448281112053,751.3201485947329
168,22878.0,1286.0,[6],1,258.0547687734918,167.7940816504933,699.0375469883738
168,34700.0,10755.0,[9],1,467.76365994235954,183.35887608068916,651.8348703170075
168,35236.0,10392.0,[10],1,422.5183619025957,379.3639459643571,561.7831195368387
