time_in_hour,cumulative_size,size,pcore_ids,pcore_power,SCA-1,CD11b,Ly6C
-1,0,0,[],0,0.0,0.0,0.0
0,35968,35968,"[0,6,7]",3,166.60890235765362,437.88339635231415,550.9178436387874
0,35036,35036,"[1,2,3]",3,160.04826464208512,132.12766868364025,195.39051261559413
24,27826.0,25578.0,"[0,6,7]",3,185.3575725041346,436.96078757277564,563.290530888377
24,32882.9375,30935.0,"[1,2]",2,156.43130460896657,125.3020373407945,193.29660329160012
24,8296.8125,8055.0,[3],1,332.4765836277456,123.03923946696412,237.38155466331204
24,6108.0625,5788.0,[10],1,374.9861555935222,365.88533598010775,608.8761575376789
48,34918.125,33179.0,"[0,6,7]",3,173.26798011867237,457.5609781363548,549.0890087749913
48,36689.734375,34116.0,"[1,2,3]",3,183.51771027147973,127.34190815891559,194.35186762475652
48,7028.75390625,6647.0,[10],1,363.0379529177242,352.28323388135925,573.9465210149572
72,31940.3828125,29758.0,"[0,6,7]",3,191.04671029113476,463.1078250122483,506.7761557619299
72,41880.1083984375,39587.0,"[1,2,3]",3,181.34922026536566,132.3361139934163,181.00953387659285
72,6151.952880859375,5842.0,[9],1,314.2072107041365,378.298771362418,736.6460388217535
96,42433.27392578125,40437.0,"[0,6,7]",3,217.98418341556703,461.8456523099033,564.7924802567298
96,37494.641342163086,35384.0,"[1,2]",2,194.85199022997878,144.14781396120037,212.63847770417968
96,914.7986907958984,730.0,[11],1,312.40047898455003,270.7604850407028,327.1441558812633
120,49529.98703098297,46784.0,"[0,6,7,10]",4,256.3066544695312,470.17416931929665,540.865204183221
120,25909.415083885193,23566.0,"[1,2]",2,211.97487767471662,153.03935456311987,217.62834852931056
120,8156.791507720947,7890.0,"[3,11]",2,360.82172926689896,182.58440991234798,287.2846452109419
120,5320.816074371338,5087.0,[6],1,236.71187020195745,358.0659701206294,473.93118033034364
144,35641.37997627258,32648.0,"[0,6,7]",3,274.723307070834,501.2450724981314,533.5464736304675
144,22387.338442742825,20768.0,"[1,2]",2,240.506797272268,147.07976647237376,220.60692760041442
144,4233.5734323859215,4059.0,[11],1,405.4315596273103,200.9247761663796,401.87318814561246
144,11034.226036846638,10699.0,[3],1,474.7517795163787,152.05032372681555,215.68172513219915
144,4972.795217812061,4538.0,"[6,10]",2,344.60760981051413,414.6081930664862,553.7350679392512
144,5545.9409212470055,5432.0,[8],1,546.7749966067338,141.8018231386495,566.0881656570996
144,6133.408191621304,5834.0,[9],1,447.8656608616872,435.2185542775083,725.0321407428418
168,32585.586248517036,30358.0,"[0,6,7]",3,301.68942752795897,497.0881759529785,516.6063504034715
168,22225.208652671427,20826.0,"[1,2]",2,267.1431924242462,153.4571996682283,232.30500116439455
168,15216.237466827035,14262.0,"[3,11]",2,444.5993258930093,173.89293644190977,290.41184094371374
168,6158.799701113254,5848.0,"[6,10]",2,359.849329363616,403.80045190211985,542.5069584593738
168,6567.621307577938,6221.0,[8],1,514.675360525826,140.88594485276303,562.8584607823173
168,6289.3380119763315,5906.0,[9],1,471.74852526885496,455.19541324069144,693.0631445075694
