time_in_hour,cumulative_size,size,pcore_ids,pcore_power,SCA-1,CD11b,Ly6C
-1,0,0,[],0,0.0,0.0,0.0
0,35438,35438,"[0,6,9]",3,0.18574230924590174,0.49673334909812633,0.5622649601279849
0,25562,25562,"[1,2]",2,0.1526840666755202,0.1413858541436472,0.13785714074117175
0,7080,7080,[3],1,0.2032809623563785,0.1901577319324084,0.2839472210687916
0,5482,5482,[10],1,0.41647434504752473,0.4003117566168845,0.5944650603838926
24,28039.875,25825.0,"[0,6,9]",3,0.20750186419410588,0.4929688472494716,0.5681804004242235
24,25163.625,23566.0,"[1,2]",2,0.16894376307070505,0.13629160549182967,0.1272821333149593
24,11695.5,11253.0,[3],1,0.22833377525880372,0.16526873177621249,0.277050258656009
24,5430.75,5183.0,[7],1,0.24952614559103842,0.17466269304403062,0.7461781268650122
24,5425.9375,5206.0,[8],1,0.35000330678628655,0.4613651200360246,0.8119202610266022
24,6336.625,5994.0,[10],1,0.42270510499753555,0.4011918118051225,0.6004987136638071
24,6697.4375,6434.0,[11],1,0.41206194596268403,0.17078030831590052,0.24085910180178718
48,24680.00390625,23559.0,"[0,9]",2,0.19222454455658994,0.5681250560370996,0.5890025102625802
48,24156.7265625,22584.0,"[1,2]",2,0.16526804315520544,0.13865009612173015,0.12382822901592143
48,9437.96875,8707.0,[3],1,0.23276782052085718,0.16293527118719844,0.27435307983530155
48,10276.48828125,9645.0,[6],1,0.19774408726551373,0.3954883308992971,0.4840125443995262
48,5558.12109375,5219.0,[8],1,0.3195987915970085,0.459500156586166,0.801380929628151
48,7256.0390625,6860.0,[10],1,0.40769107150030826,0.39437124369697485,0.5841866402193361
72,33057.78076171875,30873.0,"[0,6,9]",3,0.21510851748019982,0.5212219971548496,0.5052263599104464
72,28158.79541015625,26649.0,"[1,2]",2,0.15898856771991607,0.14514728296168478,0.11648826068377216
72,10617.873046875,10028.0,[3],1,0.24589099973555215,0.1709408784283088,0.25087573191141316
72,6153.382568359375,5806.0,[8],1,0.3532350606601989,0.44708150199744773,0.7697389500993859
72,5551.50244140625,5098.0,[10],1,0.41722364966866876,0.4071984616458295,0.5675542167494367
96,29300.15626525879,27922.0,"[0,9]",2,0.21895537130151005,0.5894692754364557,0.5788817586549913
96,23130.924713134766,21371.0,"[1,2]",2,0.16178385443026774,0.14350430194737912,0.12846036386974977
96,11481.617065429688,10818.0,[3],1,0.2607773788241968,0.1628885845364918,0.25767585798215503
96,6831.955032348633,6144.0,[6],1,0.19780020496689765,0.4046730467345549,0.46472838132588284
96,5543.939804077148,5253.0,[11],1,0.5000814912318118,0.2074363905538834,0.20200150430206282
120,33948.259766578674,32117.0,"[0,9]",2,0.2575845196407237,0.5967678958519488,0.5637387417066488
120,16519.682794570923,15074.0,"[1,2]",2,0.18229459042253762,0.14550558107287612,0.12790682634077602
120,10741.601066589355,10024.0,[3],1,0.29776683497411444,0.16717079672687182,0.2706480654467652
120,7743.99718952179,7317.0,[6],1,0.2211842253204555,0.40664676469834854,0.45138375758495114
120,5830.286650657654,5530.0,[8],1,0.45050213760806695,0.5096558034502608,0.7954059574841527
120,5896.496237754822,5550.0,[11],1,0.5119648525956149,0.19574518900546362,0.1896714502633442
144,29194.766235411167,27073.0,"[0,9]",2,0.2835738526566365,0.6073707088529814,0.5489082369667381
144,14127.480174660683,13095.0,"[1,2]",2,0.21630692045248956,0.1393730979050037,0.12789224214577255
144,10032.350066661835,9361.0,[3],1,0.3441664112992672,0.15873450536962577,0.28111089812431217
144,5702.063984692097,5502.0,[4],1,0.4112115385818479,0.36423720830291045,0.7809456860600189
144,7108.612409412861,6915.0,[5],1,0.6319057118733115,0.15553273840949822,0.5987822687799562
144,6996.392915666103,6632.0,[8],1,0.5233459568203196,0.5610237465689331,0.7844919952665115
144,11270.531014859676,10902.0,[11],1,0.5670690493904518,0.16953265221202557,0.1882533266643976
168,29824.360378734767,27792.0,"[0,6,9]",3,0.3092446347324003,0.5853046378050324,0.5119894246186515
168,7429.755591824651,6949.0,[1],1,0.29865815357207093,0.13815194338542594,0.08309118829390334
168,7031.211919091642,6629.0,[2],1,0.18633114576548443,0.15250054096266508,0.1949241454730071
168,10468.021879166365,9841.0,[3],1,0.3816305286715219,0.1686147424651579,0.2968152871231554
168,6911.378999043256,6555.0,[4],1,0.44251562884250856,0.40191538096348683,0.7272019874189226
168,8378.288275588304,7934.0,[5],1,0.6164559969749894,0.15530197550649547,0.6148227491992947
168,5811.173242971301,5536.0,[7],1,0.41286720107648933,0.1519300263931792,0.6297117795737921
168,7053.2745572291315,6616.0,[8],1,0.5588654224107257,0.5741252208792089,0.7551674903319163
168,9244.40818842873,8540.0,[11],1,0.5582967841201816,0.16617156162663732,0.19613364553260432
