time_in_hour,cumulative_size,size,pcore_ids,pcore_power,SCA-1,CD11b,Ly6C
-1,0,0,[],0,0.0,0.0,0.0
0,35968,35968,"[0,6,7]",3,0.18720101388500407,0.4953432085433418,0.5656100708672466
0,35036,35036,"[1,2,3]",3,0.1798295108338035,0.14946568855615414,0.1696999026899712
0,5121,5121,[10],1,0.4098598193382993,0.40207609338179057,0.6121331484098183
24,27826.0,25578.0,"[0,6,7]",3,0.20826693539790403,0.49429953345336614,0.579388119029373
24,32882.9375,30935.0,"[1,2]",2,0.17576551079659164,0.14174438613212048,0.16736815511314046
24,8296.8125,8055.0,[3],1,0.3735691950873546,0.1391846600305024,0.21646052857829848
24,4885.25,4666.0,[5],1,0.23620399977230172,0.15573756802323746,0.7220966874627958
24,6108.0625,5788.0,[10],1,0.42133275909384516,0.4138974388915246,0.6301516230931836
48,34918.125,33179.0,"[0,6,7]",3,0.19468312372884536,0.5176029164438403,0.563573506430948
48,36689.734375,34116.0,"[1,2,3]",3,0.20619967446233678,0.1440519323064656,0.16854328243291372
48,4959.24609375,4678.0,[9],1,0.3235575346077228,0.409937569586512,0.8040907044569537
48,7028.75390625,6647.0,[10],1,0.4079078122671059,0.3985104455671485,0.5912544777449412
72,31940.3828125,29758.0,"[0,6,7]",3,0.21465922504621882,0.5238776301043533,0.5164545164386747
72,41880.1083984375,39587.0,"[1,2,3]",3,0.20376316883748952,0.14970148641789174,0.15368544975121698
72,6151.952880859375,5842.0,[9],1,0.35304180977992866,0.4279397866090701,0.7724343416723313
72,5384.297119140625,4945.0,[10],1,0.4165246971292358,0.4111438411176886,0.5779719060948131
96,42433.27392578125,40437.0,"[0,6,7]",3,0.24492604878153598,0.5224498329297549,0.5810606684373384
96,37494.641342163086,35384.0,"[1,2]",2,0.21893482048312224,0.16306313796515878,0.18890699076189274
96,914.7986907958984,730.0,[11],1,0.35101177413994383,0.3062901414487588,0.31641888182768746
120,49529.98703098297,46784.0,"[0,6,7,10]",4,0.2879850050219452,0.5318712322616478,0.5544155948588206
120,25909.415083885193,23566.0,"[1,2]",2,0.23817401985923217,0.17312144181348402,0.19446363978765097
120,8156.791507720947,7890.0,"[3,11]",2,0.40541767333359435,0.20654345012709047,0.272031898898599
120,4790.531065940857,4555.0,[9],1,0.4288569141099161,0.40014474025665603,0.7770879645820471
144,35641.37997627258,32648.0,"[0,6,7]",3,0.3086778731132966,0.5670193127806916,0.54626556083571
144,22387.338442742825,20768.0,"[1,2]",2,0.2702323564856944,0.16637982632621467,0.1977805429848713
144,4233.5734323859215,4059.0,[11],1,0.45554107823293294,0.22729047077644748,0.3996360669772967
144,11034.226036846638,10699.0,[3],1,0.5334289657487401,0.17200262865024382,0.19229590771959815
144,4972.795217812061,4538.0,"[6,10]",2,0.38719956158484736,0.469013793061636,0.5687472916918165
144,5545.9409212470055,5432.0,[8],1,0.614353928771611,0.16040930219304242,0.5825035252306231
144,6133.408191621304,5834.0,[9],1,0.5032198436648171,0.49232868130939855,0.7595012703149685
168,32585.586248517036,30358.0,"[0,6,7]",3,0.33897688486287525,0.5623169411232788,0.5274012810729082
168,22225.208652671427,20826.0,"[1,2]",2,0.3001608903643216,0.17359411727175147,0.21080735096257747
168,15216.237466827035,14262.0,"[3,11]",2,0.49954980437416774,0.19671146656324634,0.2755142994918861
168,19405.346302054822,18333.0,"[4,5,9,10]",4,0.4914489111635331,0.375123201234323,0.6822248153141627
168,6567.621307577938,6221.0,[8],1,0.5782869219391303,0.1593732407836686,0.5789069719179479
168,2790.596937790513,2670.0,[6],1,0.34295312647251047,0.44203816633895665,0.4859853187543068
