dimension,min,median,max,mean,std,mean - 3std,% below mean - 3std,mean + 3std,% above mean + 3std,mean + 4std,% above mean + 4std
AF700 CD48_[R 730_B-A],-1.232938,0.44987849999999996,6.336546,0.5805669384527626,0.984751947518198,-2.373688904101831,0.0,3.5348227810073567,0.03305555555555555,4.519574728525554,0.004166666666666667
APCCy7 Ly6G_[R 780_A-A],-1.822884,0.859116,6.071835,1.428644856663881,1.420092126419885,-2.831631522595774,0.0,5.6889212359235355,0.0011111111111111111,7.10901336234342,0.0
BV421 CD117_[V 440_F-A],-2.4708810000000003,1.8719225000000002,6.3829980000000015,1.7256504658472271,1.2460678837969719,-2.0125531855436884,0.027777777777777776,5.463854117238143,0.06638888888888889,6.709922001035115,0.0
BV510 SCA-1_[V 525_E-A],-1.299624,1.1914865,7.208975,1.2909025147111257,0.9596578969244941,-1.5880711760623565,0.0,4.1698762054846075,1.1366666666666667,5.129534102409102,0.1547222222222222
BV605 CD11b_[V 610_D-A],-2.036779,2.3905659999999997,6.7842259999999985,2.1329769089582817,1.6284830657898344,-2.7524722884112216,0.0,7.0184261063277855,0.0,8.646909172117619,0.0
BV650 CD150_[V 660_C-A],-1.2265,0.3708475,5.061557,0.3826752693805591,1.0081609948490262,-2.6418077151665194,0.0,3.4071582539276375,0.02,4.415319248776664,0.0025
BV711 CD11c_[V 715_B-A],-2.631977,0.379803,7.578415,0.4090696169249969,1.1776083942314353,-3.123755565769309,0.0,3.941894799619303,0.4041666666666667,5.119503193850738,0.08305555555555555
BV785 B220_[V 780_A-A],-2.630665,1.4800045000000002,7.752647,1.571018492333322,1.4121506580111804,-2.6654334817002194,0.0,5.807470466366864,0.058055555555555555,7.219621124378044,0.006388888888888889
FITC Ly6C_[B 525_B-A],-0.5139239999999999,3.5939140000000007,7.035427,3.07829455656944,1.7575058440638365,-2.1942229756220692,0.0,8.35081208876095,0.0,10.108317932824786,0.0
PE CD115_[YG 582_D-A],-0.5139239999999999,0.42969650000000004,7.777011999999999,0.7692324819916692,1.0417881641094424,-2.3561320103366583,0.0,3.894596974319996,1.8280555555555558,4.936385138429439,0.07972222222222222
PECF594 CD135_[YG 610_C-A],-2.183971,0.30421750000000003,7.32062,0.3192053216583388,0.7413044358260413,-1.904707985819785,0.23277777777777775,2.5431186291364627,0.4855555555555556,3.284423064962504,0.05222222222222222
PECy5 CD3-CD19-NK11_[YG 670_B-A],-0.513876,0.183475,5.88899,0.460968800022211,0.6822836861778198,-1.5858822585112482,0.0,2.50781985855567,1.8849999999999998,3.19010354473349,0.21
PECy7 CD16-32_[YG 780_A-A],-0.411119,2.1692715,6.21936,1.8435453372555717,1.084847653424099,-1.4109976230167254,0.0,5.098088297527869,0.0016666666666666668,6.1829359509519675,0.0002777777777777778
PerCPCy5-5 CD45_[B 695_A-A],-0.335319,1.9738935,4.873818,1.8526693893333788,0.8314025712340328,-0.6415383243687198,0.0,4.346877103035477,0.021666666666666667,5.17827967426951,0.0
_FSC-A,23552.0,65344.0,251264.0,68913.68,21911.938912364647,3177.8632629060594,0.0,134649.49673709393,1.705833333333333,156561.43564945858,0.6088888888888888
_SSC-A,1024.0,16192.0,255680.0,21708.33671111111,19739.499305514397,-37510.16120543207,0.0,80926.8346276543,2.7472222222222222,100666.3339331687,1.6061111111111113
