time,power,power this day,pcore_ids,pcore_power,SCA-1,CD11b,Ly6C
-1,0.0,0.0,[],0,0.0,0.0,-0.04788418708240535
0,42343.0,42292.0,[0 2 4 6],4,0.2828419167489036,0.4139174280544268,0.6610149575476179
0,39417.0,39379.0,[1 3],2,0.2226933396957305,0.1432817133246488,0.1777327996529356
0,8240.0,8239.0,[5],1,0.21930566161230564,0.35863009598910595,0.44223246913313285
1,88439.0,46096.0,[0 2 4 6],4,0.2636403483083811,0.4405646906764347,0.6519590428503859
1,73351.0,33934.0,[1 3],2,0.21552383422237048,0.14352127078065222,0.17247245062859204
1,18210.0,9970.0,[5],1,0.2104672701133496,0.36853321356422547,0.4513218097694683
2,125292.0,36853.0,[0 2 4 6],4,0.27123427090047825,0.44843676845098157,0.638203241859526
2,114117.0,40766.0,[1 3],2,0.2128280624271612,0.14747052292961021,0.1665264401695475
2,30591.0,12381.0,[5],1,0.20938786798937647,0.3884789777137026,0.44311539290673574
3,171862.0,46570.0,[0 2 4 6],4,0.27496813814166665,0.4568078692622496,0.6366988415292003
3,150806.0,36689.0,[1 3],2,0.2183276914890459,0.14934931384980935,0.16819922361055104
3,37332.0,6741.0,[5],1,0.20749491053252228,0.3906488095324707,0.445808536273692
4,224080.0,52218.0,[0 2 4 6],4,0.2887217446417596,0.4659209966220828,0.6317424764381603
4,180569.0,29763.0,[1 3],2,0.2283427462538702,0.1509236426059811,0.17021512952849321
4,45351.0,8019.0,[5],1,0.20988880985492006,0.3932694016335777,0.4452912911559136
5,237549.0,42653.0,[0 2 4],3,0.2759862767047772,0.5039060862299068,0.6363665061586992
5,212908.0,32339.0,[1 3],2,0.2490896263048057,0.1511721450099285,0.1723635464660894
5,48391.0,3040.0,[5],1,0.21238857443776926,0.3953397480235279,0.4429962657102975
5,41152.0,11968.0,[6],1,0.5102347067380804,0.25326683154120505,0.5769317487106281
6,241312.0,35338.0,[0 2],2,0.2897685908792191,0.5562884061849535,0.6170152904286679
6,243581.0,30673.0,[1 3],2,0.26406678552675966,0.1520274337649139,0.17508575576250707
6,53223.0,4832.0,[5],1,0.21711032676377465,0.399827333690244,0.43994794855466013
6,91884.0,19157.0,[4 6],2,0.44028099181234237,0.2204419264817662,0.6365376301425476
