time,power,power this day,pcore_ids,pcore_power,SCA-1,CD11b,Ly6C
-1,0.0,0.0,[],0,0.0,0.0,-0.04788418708240535
0,31784.0,31743.0,[0 2 4],3,0.27158262089327556,0.49099218793598826,0.6531831721021123
0,41035.0,40989.0,[1 3 6],3,0.22731570610454666,0.14632010418211644,0.18622193070557594
0,8230.0,8229.0,[7],1,0.20264352123636584,0.37668762336227274,0.4660786627228846
0,8950.0,8949.0,[5],1,0.3277243110915809,0.15856657145023945,0.7150977342573799
1,70254.0,38470.0,[0 2 4],3,0.25701117262146417,0.502548590009595,0.6460035120415382
1,76063.0,35028.0,[1 3 6],3,0.2195262147418632,0.1465875691399655,0.18017412713824998
1,19075.0,10845.0,[7],1,0.19399790890482935,0.38661386643577705,0.47403065498690455
1,14607.0,5657.0,[5],1,0.3082497771193252,0.16230704487744796,0.7117443615144402
2,99764.0,29510.0,[0 2 4],3,0.2659533577895506,0.5079759272607342,0.6321220530340165
2,117812.0,41749.0,[1 3 6],3,0.2164765840987598,0.15036836624283526,0.17331709907075468
2,32471.0,13396.0,[7],1,0.19686309547084532,0.40527767833490574,0.4612902491234443
2,19952.0,5345.0,[5],1,0.3131079759963219,0.1676830388407278,0.7046654174919592
3,137180.0,37416.0,[0 2 4],3,0.2670627290314849,0.5182558058606441,0.6301567186447954
3,155749.0,37937.0,[1 3 6],3,0.22285236235398045,0.15235501610100222,0.17499345536271363
3,39932.0,7461.0,[7],1,0.1956342355037308,0.4075933328740341,0.4637814128115829
3,27138.0,7186.0,[5],1,0.32318333842590447,0.16636437394393241,0.7079496021407319
4,180364.0,43184.0,[0 2 4],3,0.2796762302649382,0.5279540538986378,0.6244115278091786
4,186971.0,31222.0,[1 3 6],3,0.23352776753999147,0.15409692470274727,0.17751411825844518
4,48311.0,8379.0,[7],1,0.1989356879897338,0.4099169024676237,0.4622921301613071
4,34353.0,7215.0,[5],1,0.34143291543155296,0.1645186856239562,0.7086712779029313
5,84335.0,17419.0,[0 4],2,0.40092180529362564,0.4452478895978041,0.7083213845303139
5,222223.0,35252.0,[1 3 6],3,0.25695768098519695,0.15448745759706642,0.18150852340613818
5,190580.0,28821.0,[2 7],2,0.22619313485386436,0.5389285220776361,0.5395037736170871
5,42861.0,8508.0,[5],1,0.3697111829223738,0.15985911946657708,0.703524143851546
6,103349.0,19014.0,[0 4],2,0.42331234811336416,0.450484900939046,0.7020718886193892
6,256185.0,33962.0,[1 3 6],3,0.2739173565100543,0.1555967402657357,0.18590439997751992
6,216648.0,26068.0,[2 7],2,0.2353358360208575,0.5444539412598445,0.5355543429103935
6,53817.0,10956.0,[5],1,0.3966828492646622,0.1566695312428383,0.6918242234168483
