time,power,power this day,pcore_ids,pcore_power,SCA-1,CD11b,Ly6C
-1,0,0,[],0,0.0,0.0,0.0
0,38779.0,38734.0,[0 2 4],3,236.96492947213608,378.07999174811096,646.1727739240317
0,38524.0,38486.0,[1 3],2,194.6450524348474,125.41973834492843,198.70620911639375
0,7361.0,7360.0,[5],1,174.08449938867133,303.8379296291265,440.17905175927126
0,5335.0,5330.0,[6],1,395.4791002811591,256.5085285848177,489.997938144328
1,80304.0,41525.0,[0 2 4],3,218.19688932058224,402.33591103805696,637.1689828651067
1,72042.0,33518.0,[1 3],2,189.06307431776145,125.90404208655961,194.65016240526285
1,16391.0,9030.0,[5],1,167.58605332194767,314.7734732475137,449.23866756146674
1,11262.0,5927.0,[6],1,385.5675723672465,279.0835553187715,506.4798437222502
2,129895.0,38329.0,[0 2 4 6],4,244.82342661380213,394.47385965587637,609.0803187189603
2,112451.0,40409.0,[1 3],2,187.13559683773678,129.53245413557835,189.81980595992744
2,27653.0,11262.0,[5],1,170.55451488084725,334.2803312479662,440.85310816186734
3,177454.0,47559.0,[0 2 4 6],4,248.02546011924116,401.8799181759746,608.2645756083062
3,148552.0,36101.0,[1 3],2,191.65647046152432,130.86038558888407,191.50679896601793
3,33993.0,6340.0,[5],1,169.7775130173887,336.7828082252251,443.5678522048697
4,230909.0,53455.0,[0 2 4 6],4,259.86238301668527,409.8151826043992,604.2564300221999
4,177697.0,29145.0,[1 3],2,200.2775004642758,132.0485489344219,193.28851922091997
4,41393.0,7400.0,[5],1,172.83320851351837,339.55482811103576,442.85405744933445
5,247092.0,44567.0,[0 2 4],3,251.29173749048667,434.0446149612288,615.1644003043426
5,208872.0,31175.0,[1 3],2,217.8497261480725,131.87346796124,194.9554368225504
5,44027.0,2634.0,[5],1,174.79344493152087,341.1324414563822,440.84495877530566
5,40008.0,11624.0,[6],1,452.20353429314423,264.48467806438725,508.93523795241083
6,288654.0,41562.0,[0 2 4],3,264.97365704268367,437.1375141172478,611.5292391583092
6,238365.0,29493.0,[1 3],2,230.60639775134916,132.34757200092338,197.13874520168494
6,48118.0,4091.0,[5],1,178.82168834947518,344.8643335134515,437.8787563905482
6,54862.0,14854.0,[6],1,468.60980277788104,251.484944041413,511.47621304363884
