time,power,power this day,pcore_ids,pcore_power,SCA-1,CD11b,Ly6C
-1,0.0,0.0,[],0,0.0,0.0,-0.04788418708240535
0,40651.0,40597.0,[0 2 4 5],4,0.2474195391354023,0.4338621959286829,0.6558857873191746
0,39739.0,39706.0,[1 3],2,0.22218871394274886,0.1425672422056184,0.18049740032554137
1,106320.0,56059.0,[0 2 4 5 6 7],6,0.2552302039211709,0.4299142603733643,0.6175500254725388
1,73680.0,33941.0,[1 3],2,0.21473278007539628,0.14241361384192783,0.17467812112330622
2,155942.0,49622.0,[0 2 4 5 6 7],6,0.259913791053689,0.43781556502820956,0.598698208251086
2,114058.0,40378.0,[1 3],2,0.2116878442093656,0.1457553071553888,0.16797072844702937
3,192337.0,48778.0,[0 2 4 5 6],5,0.24528577035870888,0.4656381132221317,0.6013222337699566
3,150359.0,36301.0,[1 3],2,0.2166861842492205,0.14734461013503689,0.1691752482932776
3,17304.0,4921.0,[7],1,0.47212510454165135,0.22540233419730768,0.59750214170906
4,247772.0,55435.0,[0 2 4 5 6],5,0.25731085773491863,0.4756841067137802,0.5984769854690887
4,179573.0,29214.0,[1 3],2,0.2263153471997305,0.14849131926407702,0.1708596042552153
4,22655.0,5351.0,[7],1,0.48786164722920006,0.21914079079163928,0.5969200543250889
5,266291.0,43779.0,[0 2 4 6],4,0.27088068181218705,0.5175803956244117,0.5842415525142588
5,211536.0,31963.0,[1 3],2,0.2470317056028518,0.14866561762772215,0.17282422687871318
5,62173.0,14258.0,[5 7],2,0.40981014013633804,0.19568521872955055,0.6579692120667547
6,308714.0,42423.0,[0 2 4 6],4,0.28544500626120245,0.5225416247995551,0.5822665338629436
6,241787.0,30251.0,[1 3],2,0.26199745964539584,0.14940495286912234,0.1753941695244775
6,79499.0,17326.0,[5 7],2,0.4375889259295309,0.19327372511985216,0.6450630789125403
