time,power,power this day,pcore_ids,pcore_power,SCA-1,CD11b,Ly6C
-1,0,0,[],0,0.0,0.0,0.0
0,24462.0,24430.0,[0 2],2,203.62390646717398,459.25202354672496,635.610538794866
0,40792.0,40745.0,[1 3 6],3,201.21050696215082,128.87291625809019,209.03706609138996
0,14601.0,14593.0,[4 8],2,271.2214916786496,348.01849188411796,519.8739812341612
0,10144.0,10142.0,[5 7],2,288.85587539431975,150.39757492113557,680.3197949526813
1,55307.0,30845.0,[0 2],2,192.78396947945353,471.01455511960773,628.1288444500626
1,75635.0,34843.0,[1 3 6],3,194.37138890725444,129.07532227143528,203.67906392543134
1,17896.0,10281.0,[8],1,174.8510281627211,344.917858739383,460.9067389360743
1,14241.0,7255.0,[4],1,364.3899304824017,354.92970999227623,587.1754090302649
1,16920.0,6776.0,[5 7],2,268.8969267139462,156.13682033096921,679.7938534278951
2,98814.0,29266.0,[0 2 4],3,235.6572145647367,451.7733418341544,607.9485194405578
2,117226.0,41591.0,[1 3 6],3,191.75183832938407,132.48531895654568,197.62565471823618
2,31139.0,13243.0,[8],1,176.91171842384483,361.279841998781,451.1372234175824
2,22820.0,5900.0,[5 7],2,275.54255039438823,158.9808063102537,673.2766871165644
3,52392.0,10481.0,[0 4],2,313.1477324782362,396.48457779813816,677.4893113452383
3,154943.0,37717.0,[1 3 6],3,197.28685387529876,134.3180653530657,199.02876541695997
3,121098.0,33056.0,[2 8],2,182.6500107351082,459.3154139622425,526.8844489586686
3,31566.0,8746.0,[5 7],2,290.25232845466434,158.29015396312468,675.6673319394282
4,64803.0,12411.0,[0 4],2,328.3053099393507,401.964199188311,677.0835609462437
4,185901.0,30958.0,[1 3 6],3,206.6249455355302,135.90622965987316,201.13437259616686
4,159218.0,38120.0,[2 8],2,192.04519589493688,468.4027245663106,526.9280923010886
4,40077.0,8511.0,[5 7],2,311.48424283254525,156.15198243381468,674.7394266037884
5,81012.0,16209.0,[0 4],2,348.5305139979221,410.54150002468765,676.117118451576
5,163291.0,15481.0,[1 3],2,166.64214194291543,128.76103398227795,185.55358225499438
5,187042.0,27824.0,[2 8],2,199.8584275189529,476.8514558227535,525.9610301429492
5,29323.0,9689.0,[5],1,441.8640316475103,138.51021382532392,654.8751150973648
5,57062.0,18971.0,[6],1,398.5955451964486,158.04750972626204,256.85855735866244
5,22269.0,1826.0,[7],1,217.90839283308543,172.3728052449594,681.8490727019647
6,99330.0,18318.0,[0 4],2,366.1618544246403,417.9387093526634,669.6343501459775
6,177158.0,13867.0,[1 3],2,169.9448797118987,128.80261122839633,185.95702706059222
6,211470.0,24428.0,[2 8],2,207.11787014706405,481.54077174066987,522.4872700619442
6,41970.0,12647.0,[5],1,456.4096974029049,139.5913509649732,642.1678341672658
6,76313.0,19251.0,[6],1,406.92462621047065,157.32903961317055,257.2722865042632
6,23758.0,1489.0,[7],1,222.29526896203328,172.19791228217863,677.997053624044
