time,power,power this day,pcore_ids,pcore_power,SCA-1,CD11b,Ly6C
-1,0,0,[],0,0.0,0.0,0.0
0,46254.0,46211.0,[0 2 4 5],4,237.3956630777871,363.5822415358675,625.1961776278806
0,41326.0,41281.0,[1 3 6],3,203.65743115714233,128.81048250496116,214.51672070851217
1,98255.0,52001.0,[0 2 4 5],4,220.84274591623853,384.19746577782394,615.5760012213088
1,76394.0,35068.0,[1 3 6],3,196.44818964840437,128.62599157001824,208.5001439903661
1,5350.0,2931.0,[7],1,285.1145794392499,393.7340186915874,345.060186915887
2,141441.0,43186.0,[0 2 4 5],4,225.11046301991664,391.1169180082158,601.2355681874398
2,117859.0,41465.0,[1 3 6],3,193.20936882207016,131.38244003427806,201.60858313747755
2,10699.0,5349.0,[7],1,275.7225908963448,396.8145621086082,360.0411253388162
3,191351.0,49910.0,[0 2 4 5],4,227.7515560409922,399.00386201273693,601.9397024316422
3,155520.0,37661.0,[1 3 6],3,198.34743441358296,132.81313014403304,202.6604745370372
3,13128.0,2429.0,[7],1,291.57739183424667,395.9584856794638,363.06985070079105
4,246542.0,55191.0,[0 2 4 5],4,239.031337459742,407.28251981406277,599.2854118162215
4,186397.0,30877.0,[1 3 6],3,207.5249440709916,133.9908099379283,204.7371953411272
4,17060.0,3932.0,[7],1,300.94185228604647,396.37198124267263,368.97262602579065
5,238116.0,48094.0,[0 2 5],3,276.79829998823965,419.981790387873,625.0255421727105
5,221537.0,35140.0,[1 3 6],3,228.57784478439447,134.29484916740782,208.32005488925273
5,80346.0,6766.0,[4 7],2,209.5153710203371,381.33206382396276,466.9095412341642
6,223425.0,32538.0,[0 2],2,272.2331610159982,490.0944880832443,612.5307150050344
6,255157.0,33620.0,[1 3 6],3,243.53822548470313,135.20477588308384,212.01386989187253
6,90986.0,10640.0,[4 7],2,220.95297078671365,386.81158639790897,462.9277581166359
6,60431.0,13202.0,[5],1,375.6318611308752,147.7292283761644,654.8022207145087
