time,power,power this day,pcore_ids,pcore_power,SCA-1,CD11b,Ly6C
-1,0,0,[],0,0.0,0.0,0.0
0,31785.0,31745.0,[0 2 4],3,241.7063709296827,434.0331602957365,629.5547270725185
0,41036.0,40990.0,[1 3 6],3,202.31094648601388,129.34866946096164,210.23162588946224
0,8227.0,8226.0,[7],1,180.3190713504326,333.01507232284064,461.5298407682008
0,8950.0,8949.0,[5],1,291.72089385474726,140.15027932960942,685.1287150837976
1,70259.0,38474.0,[0 2 4],3,228.7406310935258,444.24171992200485,623.1232724633096
1,76064.0,35028.0,[1 3 6],3,195.37840502734804,129.58432372738727,204.7987747160287
1,19072.0,10845.0,[7],1,172.63386115772138,341.7818791946311,468.6799496644261
1,14603.0,5653.0,[5],1,274.3871807162889,143.4229952749432,682.0747106758885
2,99764.0,29505.0,[0 2 4],3,236.7020067358955,449.04160819534155,610.6633254480504
2,117814.0,41750.0,[1 3 6],3,192.66535386287157,132.9272497326294,198.64232603934954
2,32473.0,13401.0,[7],1,175.19342222769995,358.29372093739573,457.2448495673343
2,19947.0,5344.0,[5],1,278.6968967764559,148.18458916127628,675.7322905700112
3,137180.0,37416.0,[0 2 4],3,237.69002041113723,458.13162997521084,608.8920323662077
3,155751.0,37937.0,[1 3 6],3,198.33943281263296,134.68303253269676,200.14680483592394
3,39933.0,7460.0,[7],1,174.08934966068492,360.3389427290743,459.4807552650723
3,27134.0,7187.0,[5],1,287.6644431340737,147.0331687182114,678.6969853320511
4,180365.0,43185.0,[0 2 4],3,248.9136306933148,466.70712166993906,603.7322706733219
4,186973.0,31222.0,[1 3 6],3,207.84030314537705,136.2226631652702,202.4098880587036
4,48310.0,8377.0,[7],1,177.03003518940403,362.3917615400585,458.1393086317568
4,34350.0,7216.0,[5],1,303.9061426491973,145.40320232896522,679.3365938864588
5,84341.0,17419.0,[0 4],2,356.8131869434766,393.5819352390893,679.0570303885288
5,222224.0,35251.0,[1 3 6],3,228.69330945352596,136.56647346821276,205.99667002664097
5,190574.0,28821.0,[2 7],2,201.3027590332365,476.4276029258946,527.4854964475644
5,42859.0,8509.0,[5],1,329.0802631885933,141.28911080519734,674.7218320539389
6,103357.0,19016.0,[0 4],2,376.73209361726435,398.2275994852803,673.4446626740221
6,256187.0,33963.0,[1 3 6],3,243.78833820607653,137.54756486472814,209.94478642554213
6,216636.0,26062.0,[2 7],2,209.43693107331922,481.3102993038994,523.9375126941052
6,53818.0,10959.0,[5],1,353.09193949979436,138.47638336615842,664.2183841837085
