time,power,power this day,pcore_ids,pcore_power,SCA-1,CD11b,Ly6C
-1,0.0,0.0,[],0,0.0,0.0,-0.04788418708240535
0,24462.0,24430.0,[0 2],2,0.22879090614289216,0.5195158637406391,0.6599226489920557
0,40792.0,40745.0,[1 3 6],3,0.22607922130578745,0.14578384192091653,0.1848965101240423
0,14601.0,14593.0,[4 8],2,0.3047432490771344,0.39368607679198864,0.5310400681894891
0,4588.0,4587.0,[5],1,0.44167246260395493,0.15251250557227775,0.7097104288712887
1,55307.0,30845.0,[0 2],2,0.21661120166230735,0.5328218949316829,0.6515911408129873
1,75635.0,34843.0,[1 3 6],3,0.2183948189969151,0.14601280799936117,0.17892991528444468
1,17896.0,10281.0,[8],1,0.19646182939631585,0.39017857323459615,0.46537498767937
1,14241.0,7255.0,[4],1,0.4094268881824738,0.40150419682384186,0.6059859788755734
1,16920.0,6776.0,[5 7],2,0.3021313783302766,0.17662536236534976,0.7091245583829567
2,98814.0,29266.0,[0 2 4],3,0.26478338715138955,0.5110558165544732,0.629118618530688
2,117226.0,41591.0,[1 3 6],3,0.21545150374088098,0.14987027031283448,0.1721889250759868
2,31139.0,13243.0,[8],1,0.1987772117121852,0.4086876040710192,0.4544957944516508
2,22820.0,5900.0,[5 7],2,0.30959837122964967,0.1798425410749476,0.7018671348736797
3,52392.0,10481.0,[0 4],2,0.35185138480700695,0.44851196583499797,0.7065582531684168
3,154943.0,37717.0,[1 3 6],3,0.22167062233179644,0.1519435128428345,0.17375140915028953
3,121098.0,33056.0,[2 8],2,0.2052247311630429,0.5195875723554779,0.5388468251210118
3,31566.0,8746.0,[5 7],2,0.32612621174681394,0.17906126013928134,0.7045293228724144
4,64803.0,12411.0,[0 4],2,0.3688823707183716,0.45471063256596267,0.7061064153076211
4,185901.0,30958.0,[1 3 6],3,0.23216286015228113,0.1537400788007615,0.17609618329194532
4,159218.0,38120.0,[2 8],2,0.21578111898307512,0.5298673354822518,0.538895425725043
4,40077.0,8511.0,[5 7],2,0.34998229531746655,0.1766425140654012,0.7034960207169135
5,81012.0,16209.0,[0 4],2,0.39160731909878893,0.46441346156638874,0.7050301987211314
5,163291.0,15481.0,[1 3],2,0.18723836173361283,0.14565727826049543,0.15874563725500487
5,187042.0,27824.0,[2 8],2,0.2245600309201718,0.5394247237813954,0.5378185190901439
5,29323.0,9689.0,[5],1,0.4964764400533823,0.15668576224584155,0.6813754065672213
5,57062.0,18971.0,[6],1,0.44786016314207705,0.1787867757084412,0.23814984115663967
5,22269.0,1826.0,[7],1,0.24484089082369148,0.19499186113683192,0.7114132212716756
6,99330.0,18318.0,[0 4],2,0.41141781396027005,0.47278134542156486,0.6978110803407321
6,177158.0,13867.0,[1 3],2,0.1909493030470772,0.14570431134433973,0.15919490763985772
6,211470.0,24428.0,[2 8],2,0.232716708030409,0.5447293797971378,0.533950189378557
6,41970.0,12647.0,[5],1,0.5128198847223651,0.15790876805992443,0.6672247596517437
6,76313.0,19251.0,[6],1,0.4572186811353603,0.17797402671173143,0.23861056403592784
6,23758.0,1489.0,[7],1,0.2497699651258801,0.19479401841875407,0.7071236677327885
