time,power,power this day,pcore_ids,pcore_power,SCA-1,CD11b,Ly6C
-1,0.0,0.0,[],0,0.0,0.0,-0.04788418708240535
0,38779.0,38734.0,[0 2 4],3,0.2662527297439731,0.4276922983575916,0.6716846034788772
0,38524.0,38486.0,[1 3],2,0.2187023061065701,0.14187753206439868,0.1733922150516634
0,7361.0,7360.0,[5],1,0.19560056111086663,0.3437080651913196,0.4422929306896117
1,80304.0,41525.0,[0 2 4],3,0.24516504418042948,0.45513112108377485,0.6616581100947736
1,72042.0,33518.0,[1 3],2,0.2124304205817544,0.14242538697574617,0.1688754592486223
1,16391.0,9030.0,[5],1,0.18829893631679517,0.35607858964650874,0.4523815897121011
1,11262.0,5927.0,[6],1,0.43322199142387247,0.3157053793198773,0.5161245475748889
2,129895.0,38329.0,[0 2 4 6],4,0.27508250181326077,0.4462373978007651,0.630378974074566
2,112451.0,40409.0,[1 3],2,0.2102647155480189,0.14652992549273572,0.16349644316250272
2,27653.0,11262.0,[5],1,0.19163428638297444,0.3781451710949844,0.4430435502916118
3,177454.0,47559.0,[0 2 4 6],4,0.2786802922688103,0.4546152920542699,0.6294705741740604
3,148552.0,36101.0,[1 3],2,0.21534434883317338,0.14803211039466527,0.16537505452785964
3,33993.0,6340.0,[5],1,0.1907612505813356,0.38097602740410086,0.44606665056221567
4,230909.0,53455.0,[0 2 4 6],4,0.291980205636725,0.46359183552533845,0.625007160381069
4,177697.0,29145.0,[1 3],2,0.22503089939806273,0.14937618657740032,0.16735915280726057
4,41393.0,7400.0,[5],1,0.19419461630732401,0.38411179650569655,0.445271778896809
5,247092.0,44567.0,[0 2 4],3,0.28235026684324344,0.4910006956574986,0.6371541206061722
5,208872.0,31175.0,[1 3],2,0.24477497320008146,0.1491781311778733,0.16921540848836344
5,44027.0,2634.0,[5],1,0.19639712913654034,0.38589642698685767,0.44303447525089723
5,40008.0,11624.0,[6],1,0.5080938587563417,0.2991908122900308,0.5188588395906579
6,288654.0,41562.0,[0 2 4],3,0.2977232101603187,0.49449945035887766,0.633106056969164
6,238365.0,29493.0,[1 3],2,0.25910831208016766,0.14971444796484545,0.17164670957871372
6,48118.0,4091.0,[5],1,0.20092324533648898,0.3901180243364836,0.43973135455517615
6,54862.0,14854.0,[6],1,0.5265278682897538,0.28448523081607807,0.5216884332334508
