time,power,power this day,pcore_ids,pcore_power,SCA-1,CD11b,Ly6C
-1,0.0,0.0,[],0,0.0,0.0,-0.04788418708240535
0,27712.0,27680.0,[0 2],2,0.22519879434050472,0.5093412331623014,0.6407854958671316
0,41436.0,41389.0,[1 3 6],3,0.22672365451092452,0.1508137829303573,0.1854495977481889
0,7173.0,7166.0,[4],1,0.41500743267903206,0.40615385877028753,0.6024189945157485
0,7597.0,7596.0,[5],1,0.3635182722925785,0.1609025532226645,0.7348990179865267
1,63330.0,35618.0,[0 2],2,0.21288856125485311,0.5206939624590904,0.6334988853592131
1,76642.0,35206.0,[1 3 6],3,0.21898414897924925,0.15063778340172604,0.1792017106229991
1,13085.0,7005.0,[7],1,0.18900834217068468,0.2887435442123109,0.529091693594989
1,14661.0,7488.0,[4],1,0.4110718722529837,0.4009906696777025,0.5963403201895126
1,12280.0,4683.0,[5],1,0.34130906196244504,0.16474567777499355,0.7334931770202288
2,24249.0,5999.0,[0],1,0.2768379189504373,0.49038211959666483,0.7908767803526123
2,118624.0,41982.0,[1 3 6],3,0.21602936518521343,0.15403228132052957,0.17243217776156922
2,88805.0,30640.0,[2 7],2,0.19990878891954544,0.48736544887993993,0.5390733732688423
2,21044.0,6383.0,[4],1,0.4121006494685205,0.40321334914735724,0.5932631237381903
2,17276.0,4996.0,[5],1,0.34214608302483407,0.17185128009563005,0.7252871756897432
3,31043.0,6794.0,[0],1,0.2820790805938949,0.48834174403830005,0.7931228663567153
3,156353.0,37729.0,[1 3 6],3,0.22228750313411688,0.15515898978217102,0.17387068867365282
3,121795.0,32990.0,[2 7],2,0.2026728371628352,0.503538872435859,0.5432727562314404
3,26062.0,5018.0,[4],1,0.4236097758241086,0.40771319418956165,0.5941543542134101
3,24745.0,7469.0,[5],1,0.35120421558321674,0.17136004439856564,0.7263247260137993
4,70324.0,13219.0,[0 4],2,0.3656941801958021,0.45722436371432545,0.7009851886318254
4,187397.0,31044.0,[1 3 6],3,0.23287601344811013,0.156518264259411,0.17619590238334168
4,159840.0,38045.0,[2 7],2,0.21336801689330007,0.5159393273363856,0.5419902293718961
4,32437.0,7692.0,[5],1,0.36945996959360483,0.17072010944431462,0.7258228783113732
5,87803.0,17479.0,[0 4],2,0.39136502847858684,0.46358127766792595,0.6992262010315762
5,165050.0,15612.0,[1 3],2,0.18794366024596254,0.14831113840451554,0.15868821555727716
5,156471.0,26247.0,[2],1,0.22714672546924825,0.5674861078300858,0.5505435028063838
5,41899.0,9462.0,[5],1,0.3999116655863964,0.16663185624469234,0.7176360471472049
5,57326.0,19367.0,[6],1,0.4523190449888962,0.18017090631764923,0.2414121066036808
5,31449.0,1833.0,[7],1,0.19895625555340102,0.3228402977801166,0.48989267524803526
6,107009.0,19206.0,[0 4],2,0.41265722582821307,0.46944835569926485,0.6928415737402024
6,179159.0,14109.0,[1 3],2,0.19174384112135742,0.14830804251104057,0.15905403657134198
6,179156.0,22685.0,[2],1,0.23635488975648364,0.571670393374912,0.5458870039031425
6,53880.0,11981.0,[5],1,0.42632153850003557,0.16392889175543401,0.7030176354945114
6,76970.0,19644.0,[6],1,0.46195135124876524,0.1785800808565578,0.243090068065161
6,33824.0,2375.0,[7],1,0.20322452377409148,0.3252921297148521,0.48540637714842605
