time,power,power this day,pcore_ids,pcore_power,SCA-1,CD11b,Ly6C
-1,0,0,[],0,0.0,0.0,0.0
0,27712.0,27680.0,[0 2],2,200.4269269630492,450.25765011547435,618.4253752886842
0,41436.0,41389.0,[1 3 6],3,201.78405251472282,133.31938411043586,209.53373877787365
0,7173.0,7166.0,[4],1,369.3566150843385,359.0400111529342,583.9722570751422
0,7597.0,7596.0,[5],1,323.5312623403948,142.2378570488354,702.9393181519009
1,63330.0,35618.0,[0 2],2,189.47081951681923,460.2934628138359,611.8819990525732
1,76642.0,35206.0,[1 3 6],3,194.8958925915318,133.16380052712583,203.92313613945316
1,13085.0,7005.0,[7],1,168.21742453190936,255.24929308368286,518.1243408483001
1,14661.0,7488.0,[4],1,365.8539663051555,354.475751995089,578.5136075301824
1,12280.0,4683.0,[5],1,303.7650651465761,145.6351791530943,701.6768729641655
2,24249.0,5999.0,[0],1,246.38574786588916,433.49779372345165,753.2073487566457
2,118624.0,41982.0,[1 3 6],3,192.26613501484,136.16453668734817,197.84409562988915
2,88805.0,30640.0,[2 7],2,177.91882213839546,430.8310568098669,527.0878891954204
2,21044.0,6383.0,[4],1,366.76957802698325,356.4406006462638,575.7502851168949
2,17276.0,4996.0,[5],1,304.5100138921024,151.91653160453697,694.3078837693894
3,31043.0,6794.0,[0],1,251.05038172856646,431.69410172985727,755.2243339883302
3,156353.0,37729.0,[1 3 6],3,197.83587778936396,137.1605469674392,199.13587842894023
3,121795.0,32990.0,[2 7],2,180.37882507492333,445.12836323329947,530.8589350958335
3,26062.0,5018.0,[4],1,377.0127004834566,360.4184636635725,576.5506100836423
3,24745.0,7469.0,[5],1,312.57175186906295,151.48227924833202,695.2396039603916
4,70324.0,13219.0,[0 4],2,325.4678203742639,404.1863375234637,672.4846993913793
4,187397.0,31044.0,[1 3 6],3,207.25965196881805,138.36214560531934,201.2239203402408
4,159840.0,38045.0,[2 7],2,189.8975350350371,456.09036536536496,529.7072259759627
4,32437.0,7692.0,[5],1,328.8193729383083,150.91657674877416,694.7889447236131
5,87803.0,17479.0,[0 4],2,348.3148753459423,409.80584945844646,670.9051285263554
5,165050.0,15612.0,[1 3],2,167.26985761890666,131.10704634959174,185.5020175704349
5,156471.0,26247.0,[2],1,202.1605856676309,501.6577193217959,537.3880655201326
5,41899.0,9462.0,[5],1,355.92138237189283,147.30256092030805,687.43717033819
5,57326.0,19367.0,[6],1,402.56395004011756,159.2710811848019,259.78807173010534
5,31449.0,1833.0,[7],1,177.07106744252687,285.39082323762307,482.92362237273574
6,107009.0,19206.0,[0 4],2,367.2649309871096,414.9923464381502,665.1717332187018
6,179159.0,14109.0,[1 3],2,170.65201859800814,131.10430957975987,185.83052484106508
6,179156.0,22685.0,[2],1,210.35585188327045,505.3566277434222,533.206529505022
6,53880.0,11981.0,[5],1,379.4261692650317,144.91314031180366,674.3098366740712
6,76970.0,19644.0,[6],1,411.13670261140106,157.8647914771971,261.2948811225146
6,33824.0,2375.0,[7],1,180.8698261589414,287.55824266792933,478.89492667928664
