time(in hour),cumulative size,size,pcore_ids,pcore_power,SCA-1,CD11b,Ly6C
-1,0,0,[],0,0.0,0.0,0.0
0,39512.0,39512.0,[1 3],2,187.7928224336935,139.36700242964218,212.56152561247117
0,26438.0,26438.0,[2 5],2,194.88573265753985,424.7123836901445,568.6742945759895
24,54091.0,34335.0,[1 3],2,179.91686232460484,138.98026473905034,205.05171840047205
24,48100.0,34881.0,[2 5],2,183.4184303534333,442.7890644490673,561.016580041579
48,68410.5,41365.0,[1 3],2,179.89038963317472,145.496345590223,197.70257855153818
48,56597.0,32547.0,[2 5],2,199.85497906249572,443.8614414191589,530.781044048269
72,68416.25,34211.0,[1 3],2,183.23979683189592,145.1257248826122,203.4988928068997
72,64840.5,36542.0,[2 5],2,204.23096868469653,462.750333510695,544.4570966448359
96,58973.125,24765.0,[1 3],2,191.5182021471668,146.36497451169527,208.72705257691598
96,73744.25,41324.0,[2 5],2,222.97465988873648,477.53143465422846,537.5953947256742
120,16459.21875,7718.0,[1],1,247.68388346196522,159.8678039472557,308.02724347107966
120,66696.125,29824.0,"[2, 5]",2,237.9863527491291,495.63382805223415,532.8656888799596
120,33508.34375,12763.0,[3],1,185.04940933554877,136.33287418152426,165.38109258234982
120,19093.09375,14141.0,[6],1,467.1463814631954,155.91851602100795,240.32321078138494
120,14688.8125,9214.0,[7],1,401.405446747309,425.3359976342528,743.7498308661746
120,11761.53125,8179.0,[8],1,503.45209090015726,135.44981122249715,610.5822185142774
144,17447.609375,9218.0,[1],1,276.7221861519334,159.4476078832432,310.8951360635922
144,60479.0625,27131.0,"[2, 5]",2,256.33531878284157,502.3210284550976,520.8115998305095
144,28496.171875,11742.0,[3],1,196.47202557361095,137.84305567359678,166.79679891213394
144,22025.546875,12479.0,[6],1,469.4739652463249,155.1628407353677,240.6629368595409
144,16919.40625,9575.0,[7],1,435.8918724984778,444.0520103579267,723.2551027758414
144,16059.765625,10179.0,[8],1,512.8056001751297,138.23742174008208,597.8529292437918
