time,power,pcore_ids,pcore_power,SCA-1,CD11b,Ly6C
-1,0,[],0,0.0,0.0,0.0
0,22124.0,[ 0   2 ],2,227.32082806002427,464.04949376243076,656.7630175375164
0,41254.0,[ 1   3   6 ],3,199.87838755029972,130.57015077325877,210.07909536044934
0,15934.0,[ 4   7 ],2,226.20961466047444,361.07819756495576,509.94583908622917
0,10687.0,[ 5   8 ],2,299.39487227472415,158.291943482736,677.9155983905671
1,49838.0,[ 0   2 ],2,209.79860748826312,475.6949516433269,646.4864962478388
1,76430.0,[ 1   3   6 ],3,193.02925552793633,130.7776789218888,204.60714379170426
1,25244.0,[ 4 ],1,162.8853985105407,364.6569877990816,504.98375851687416
1,10681.0,[ 7 ],1,367.2692631775993,362.759104952721,525.3681303248748
1,17806.0,[ 5   8 ],2,280.12349769740354,162.8102325058968,676.2140289789947
2,70815.0,[ 0   2 ],2,217.85837746240196,479.52422509355534,632.4826943444102
2,118291.0,[ 1   3   6 ],3,190.49335114252455,133.99591684912613,198.4132774260087
2,57124.0,[ 4   7 ],2,224.38731531405466,373.7229885862331,498.64991947342924
2,23769.0,[ 5   8 ],2,285.33287054566586,163.80659682780086,669.2827211914667
3,101173.0,[ 0   2 ],2,218.12591304003888,487.48119557589035,626.7777964476414
3,155864.0,[ 1   3   6 ],3,195.66701098393742,135.25695478109103,199.44987938202624
3,50060.0,[ 4 ],1,166.4626048741543,379.57590890930675,485.91396324411176
3,20365.0,[ 7 ],1,375.7606187085637,370.35315492266216,530.4660446845044
3,32537.0,[ 5   8 ],2,298.2429234410029,161.58809970187784,671.1762608722372
4,63688.0,[ 0   7 ],2,331.7107618389611,396.1310450948379,664.8075618640762
4,186840.0,[ 1   3   6 ],3,204.78390066367274,136.67652001712693,201.4380753585965
4,158510.0,[ 2   4 ],2,191.40828969781074,472.5135701217507,535.0037978676137
4,40961.0,[ 5   8 ],2,317.8489782964255,158.35250604233295,669.5561631796099
5,80633.0,[ 0   7 ],2,351.45217218756176,405.81919313432303,663.619312192278
5,220873.0,[ 1   3   6 ],3,224.33527411680154,136.81641939032846,203.86074803167585
5,185710.0,[ 2   4 ],2,199.01904043939413,480.7138333961482,533.4909105594493
5,52783.0,[ 5   8 ],2,351.13960934391565,154.9614459200871,660.8557300646066
6,100399.0,[ 0   7 ],2,368.1613960298358,414.31779200987904,655.6570384167227
6,253539.0,[ 1   3   6 ],3,238.55537412390308,137.63285332828488,206.88258611101375
6,208717.0,[ 2   4 ],2,205.72226507663262,485.3893789197742,529.9130928481991
6,67344.0,[ 5   8 ],2,376.9267046804447,153.2173170586825,649.7952304585463
