time_in_hour,cumulative_size,size,pcore_ids,pcore_power,AF700 CD48_[R 730_B-A],APCCy7 Ly6G_[R 780_A-A],BV421 CD117_[V 440_F-A],BV510 SCA-1_[V 525_E-A],BV605 CD11b_[V 610_D-A],BV650 CD150_[V 660_C-A],BV711 CD11c_[V 715_B-A],BV785 B220_[V 780_A-A],FITC Ly6C_[B 525_B-A],PE CD115_[YG 582_D-A],PECF594 CD135_[YG 610_C-A],PECy5 CD3-CD19-NK11_[YG 670_B-A],PECy7 CD16-32_[YG 780_A-A],PerCPCy5-5 CD45_[B 695_A-A],_FSC-A,_SSC-A
-1,0,0,[],0,0.0,0.0,0.0,0.0,0.0,0.0,0.0,0.0,0.0,0.0,0.0,0.0,0.0,0.0,0.0,0.0
0,119589,119589,"[1,2,3,7,32,40,44,56]",8,0.16477598268518365,0.2340711699659612,0.3115814535497589,0.28064928239412684,0.25757235443947674,0.21941109208263226,0.2529556846406834,0.4996150968342251,0.16094421886029084,0.09845326828776696,0.24656211125811472,0.2169051564922474,0.1420421745350499,0.25963133673885114,0.1990980368273304,0.04770232638675288
0,38978,38978,"[2,3,32,41,55]",5,0.17455280004274715,0.24241842455302046,0.36451648996788016,0.2841238980564415,0.2609756185106908,0.25699984354726374,0.2431433688266167,0.4106733507751541,0.19272743387172214,0.10940352253292902,0.25395269701589845,0.16009307811617363,0.13779257116209562,0.21790170993189187,0.19886388749033446,0.05141429240684887
24,140971.625,126023.0,"[1,2,3,7,32,40,44,56]",8,0.16286884434389612,0.23267578648165152,0.31749871474513347,0.287611692873396,0.25351681315010854,0.2251284715874372,0.2529197172813416,0.4893119688588996,0.16084971112520224,0.09662046512509906,0.24529242507877697,0.20626853989964053,0.1328019975524362,0.25201610356633547,0.2100596708497844,0.05194378984561447
24,49684.125,45072.0,"[2,3,32,41]",4,0.1695089439104537,0.23780629398729078,0.3615742454901588,0.28698388201598496,0.25742817705868143,0.24076743341806497,0.24957846903898012,0.40641183790089225,0.18927690766500918,0.10209459529750217,0.2490477705796753,0.15723612693933617,0.12868916230547922,0.21167940882242609,0.21246674507732843,0.053461035031223604
48,141325.859375,123259.0,"[1,2,3,7,32,35,37,40,41,44]",10,0.16193649599220858,0.234773972795542,0.3226484725783576,0.282564599895978,0.2538877603682074,0.22113547347999768,0.25481889163142496,0.4766740417056275,0.17785988367371855,0.0958911145504707,0.24482779584507308,0.18616110942919614,0.1358163390250213,0.22646831757186467,0.19548712282770447,0.055787354307594544
48,14642.8125,13361.0,"[55,56]",2,0.1738654289956512,0.27020097814170724,0.3772681391949108,0.31127574918641376,0.29000615990357104,0.2915933697965276,0.23526134514957095,0.33385219896627544,0.35659115224479715,0.11434566751225096,0.26321177712459193,0.10117073330678254,0.14190557043102148,0.16374684785521243,0.13304160049653818,0.0731592851534809
48,28915.65625,25778.0,"[3,32,35,37]",4,0.17996634063419525,0.23697854759566814,0.34002782133009174,0.2922895504368098,0.25025028047144265,0.2638234255744251,0.241530965642797,0.506079359827383,0.2794043745086731,0.11001053877208969,0.24974890259976099,0.19771773485080518,0.15152051394849791,0.27862968867609905,0.19541915091823397,0.0644508308673377
72,144449.376953125,127381.0,"[1,2,3,7,32,37,40,41,44]",9,0.16179661590630212,0.24210293289492282,0.3153345583424823,0.2972158163804199,0.2623161768433569,0.22229303081342403,0.2510577081758954,0.48715658611142587,0.1648180614937978,0.0971846769396909,0.24613099104472239,0.18119939076799743,0.14496944086806848,0.2448937063112662,0.20072437332504564,0.06186816562624238
72,57313.22265625,49627.0,"[2,3,32,37,55,56]",6,0.16795005222058043,0.2581147660839641,0.3433124098375587,0.30478776651569106,0.2810188535096011,0.25085000175355,0.24613849059367465,0.4181109128544406,0.24289434428752368,0.10514932964316495,0.25222951923805575,0.14652836562947816,0.1493443230476181,0.22498340961873486,0.19337878421388924,0.06713440492935982
72,43030.888671875,38315.0,"[51,52,53,54,59]",5,0.16637711311489975,0.36923650659987195,0.4601679810209589,0.3180762932837625,0.46640742560159704,0.2211180235607193,0.2659218309395395,0.3176931260787199,0.5101337963734178,0.1155870514100278,0.25290720660974053,0.09396470587016573,0.27380139978601575,0.28556696226188233,0.18814552742410387,0.0838472853947847
96,104623.96728515625,88066.0,"[1,2,3,7,32,40,44]",7,0.18092531991112684,0.23642984790625177,0.315568647110443,0.3016856855437239,0.25563037822432816,0.22158615307857357,0.26070113611109536,0.5295908485141627,0.15081758271008558,0.10471643703449746,0.2507797223571584,0.23889629122939837,0.14926830706189018,0.27508579522962384,0.20817417862576218,0.05224848301089637
96,58671.077392578125,52775.0,"[8,15,26,27,36,45,52,53,59]",9,0.19172411384106883,0.47546406536803604,0.5057727644801846,0.3374381676939054,0.5710614911135055,0.3714166325564162,0.2442030436725745,0.35133342550889113,0.5479768565845325,0.13508819186725943,0.2528580786694915,0.08944613441131813,0.38565920270387977,0.45233701276408,0.19386238680735834,0.07397034990689856
96,43383.045654296875,40816.0,"[9,33,34,54]",4,0.14127950182683854,0.47385009145026746,0.5299458006112895,0.3420768180723199,0.5972754235941278,0.07136106912006186,0.3719574304848924,0.3341842531969613,0.5622827234842093,0.11456184946078445,0.22874062854813962,0.09640261564100511,0.3955827891781434,0.46321451087497684,0.19520588637166617,0.07318532732017345
96,46417.15869140625,38263.0,"[3,7,32,40]",4,0.18651520297919025,0.23794276783545973,0.3280739335147798,0.307398894664865,0.2516707395976812,0.25424093655835717,0.25303050104916475,0.5510922413022482,0.1797441241754523,0.10834473111724494,0.25326238554418273,0.24998201780439583,0.15408604273206306,0.2871297390515257,0.2092034025996163,0.055747566161257346
120,88171.53845214844,81222.0,"[8,15,26,27,45,52,53,59]",8,0.18745985966532694,0.4962076298882585,0.5307571253235103,0.3472625186235248,0.5953645042104345,0.379133576495347,0.25022459851226375,0.3617104678499199,0.5607480333392912,0.12184491656441628,0.25325064997448926,0.08690159033257709,0.4075177872228257,0.48528958599808164,0.1851165075918426,0.0689440646451973
120,65461.88070678711,60039.0,"[9,33,34,54]",4,0.12943396342924193,0.48890596588801577,0.5479879217227189,0.35175241833676224,0.6156154555204317,0.06510718337809712,0.3831636955812817,0.33880028371864057,0.5677035276943843,0.09832332798038847,0.2267839738779657,0.09378649012042163,0.4113322369441197,0.48958354861737613,0.18500894459865447,0.06786801862144957
120,23248.434478759766,21158.0,"[26,33]",2,0.1577374682717284,0.4869706373460311,0.5533055936101743,0.3606650922373445,0.6250367213433556,0.3052663699048716,0.3658894289821414,0.35429135631203973,0.5816027796034849,0.11753845383996758,0.24857583285008147,0.09116486539806087,0.4220807874077924,0.5001978434891234,0.18863531552950608,0.07295055795242848
144,79375.47047805786,67654.0,"[8,11,15,26,27,36,45,52,53,59]",10,0.18613024619620383,0.4886866146303586,0.5260382479240224,0.36475009795175295,0.5929930992304597,0.3739753724922417,0.2723236094591766,0.3562206695091736,0.5414152767750853,0.12945962079162926,0.2440511339215872,0.09295035015751532,0.40258497048137026,0.47092873097405863,0.1836099175786584,0.06660219618710717
144,57157.56308364868,48667.0,"[9,10,33,34,54]",5,0.1339647409396559,0.4866245106416665,0.5352290140933488,0.3678798122480345,0.6039939583280913,0.07040944586175672,0.3842919934216723,0.3357287227953477,0.544057825813683,0.11064898915686752,0.21945777276743758,0.09976959080523717,0.40192504872778567,0.4759843898792499,0.18157727399901907,0.06449168004163486
144,3755.8596687316895,2812.0,"[10,33]",2,0.19557655370154506,0.34524953344717646,0.5825103578930287,0.3914577469238174,0.5774046715254287,0.13735951508252606,0.35881013792399236,0.37794442614260454,0.5823888298810087,0.12844990614692112,0.2370659602861307,0.10682160587214214,0.36182783231078863,0.40231241955052105,0.18826480167771198,0.09098490706477526
168,47481.35782146454,45619.0,"[51,52,54,56]",4,0.16876278959888738,0.31924005717729576,0.4383792889783876,0.3734335171154936,0.4371172697232347,0.23286928863397652,0.28098505611575453,0.3221793259697063,0.4948495821680556,0.13533364926990868,0.2529517327979918,0.09730788321810833,0.24763464217312636,0.2608700760550585,0.1653212821263668,0.08319538244438343
