time_in_hour,cumulative_size,size,pcore_ids,pcore_power,AF700 CD48_[R 730_B-A],APCCy7 Ly6G_[R 780_A-A],BV421 CD117_[V 440_F-A],BV510 SCA-1_[V 525_E-A],BV605 CD11b_[V 610_D-A],BV650 CD150_[V 660_C-A],BV711 CD11c_[V 715_B-A],BV785 B220_[V 780_A-A],FITC Ly6C_[B 525_B-A],PE CD115_[YG 582_D-A],PECF594 CD135_[YG 610_C-A],PECy5 CD3-CD19-NK11_[YG 670_B-A],PECy7 CD16-32_[YG 780_A-A],PerCPCy5-5 CD45_[B 695_A-A],_FSC-A,_SSC-A
-1,0,0,[],0,0.0,0.0,0.0,0.0,0.0,0.0,0.0,0.0,0.0,0.0,0.0,0.0,0.0,0.0,0.0,0.0
0,192385,192385,"[1,2,4,5,7,8,9,12,16,17,18,25,26,33,35,36,42,44]",18,0.33676734741274195,0.5587278279647596,0.9123454081243199,0.6188614598487385,0.856234755282371,0.24255962940457731,0.07656732662110821,1.8752861827481242,1.6490422151311188,0.4600012807339434,0.20632965675598003,0.7117716066117437,0.9430359884346501,1.1699117962678982,68084.66971957272,16047.680390882799
0,3245,3245,[43],1,0.1683068813559312,0.04482159352850035,-0.16919270200308167,0.9908327771956831,0.38702927365178175,0.15571337473035518,-0.038371878274269466,3.85626154083205,0.9374865359013879,0.424668155315871,0.1898326979969296,1.8040199790446843,0.8494393248074,2.164009715562403,72079.08782742682,13012.472110939914
0,139073,139073,"[4,5,8,10,11,13,14,15,22,24,27,34,39,40,45,46,48]",17,0.4893287335068637,1.6597180947272325,1.8964901159031649,0.7507526512047589,2.521144850977533,0.39439670066799093,0.08752819249602739,0.7716599086522926,4.008215178985141,0.8585887640735469,0.1991028249480391,0.18506257338232546,2.057597753086508,1.6678131431406482,69047.497990264,21534.66936069533
0,17961,17961,"[19,20,28,29,32,38,41,47,49]",9,1.7350384810979318,0.37873229068537606,2.027019526418353,1.2309572116808662,1.8303220293413482,0.7320964296531385,-0.10741857235120511,0.8417097216190661,5.21367097611491,3.0983223120650316,0.670960857747342,0.2749487142141325,2.4005512858415483,1.9559324750849105,83741.66427259057,41184.714436835406
0,7709,7709,[7],1,0.18164782384226186,0.04883133610066315,-0.15272221662990582,0.9161826051368438,0.332720277208455,0.2741100474769733,-0.07640302425735701,3.754928035542875,0.7265117670255553,0.3681162044363735,0.18961759865093475,1.6885563265014953,0.7906635571410013,2.032420081074068,71464.82916072124,12825.520300946931
0,3407,3407,"[13,14]",2,1.735499544467275,0.3785505955385928,1.890922190196647,0.9261494608159699,1.6868452204285358,0.45274427032580156,0.07047214998532159,0.7810467918990271,5.375466839154679,2.857887331670089,0.5066616918109794,0.2376170995010276,2.193123907543288,1.7943848106838847,76382.33754035804,34514.40915761676
0,754,754,[16],1,0.9350250026525184,0.3288394655172451,2.5891122997347513,1.0463798461538465,0.8304838726790411,0.38813265915119555,0.22995772148541205,1.083397198938993,1.6649746034482744,0.9080346299734753,0.6380110066313005,0.465138596816977,1.1190564283819646,1.3093466949602133,71566.34482758623,23089.824933687007
24,301432.5,209234.0,"[1,2,4,5,8,9,12,16,17,18,25,26,33,42,44]",15,0.346376628011249,0.40097395727899565,0.8855548070662556,0.6976804906056784,0.6526222795767005,0.28860401143539494,0.06294674485830098,1.9095988222188982,1.5742791627993071,0.4180720222238804,0.20468808068472732,0.7247384187040289,0.7706548852910674,1.1180946619939816,69492.37455151638,17122.381216358473
24,5477.0,0.0,"[7,43]",2,0.17769571882417323,0.04764349470513052,-0.15760141373013914,0.9382968837867374,0.34880871006025327,0.2390363572211056,-0.0651367225670958,3.7849469532590856,0.7890106829468696,0.3848690874566373,0.18968131942670174,1.7227611423224416,0.8080752210151535,2.071402038707321,71646.79642139858,12880.90268395106
24,194031.5,125939.0,"[4,5,8,10,11,13,14,15,22,24,27,28,34,35,36,39,45,46,48]",19,0.4447300156031415,1.7069537532024346,1.9979114505763316,0.7525107545218237,2.647175220268371,0.36579198797618373,0.13588832116433736,0.773009947475018,4.112857384543246,0.7656877101733531,0.12067835501193036,0.15320328298755592,2.0330763177989106,1.6440236650930362,67760.70038112368,22066.224422323205
24,22125.0,13801.0,"[19,23,29,32,40,47,49]",7,1.9225764145310682,0.35688689658757067,2.0423702451073518,1.1519030555932188,1.678491987683616,0.7051699420790964,-0.05079915615819974,0.9575027166327756,5.588728116113007,3.1105619919096044,0.5352159880903997,0.2633377050621476,2.384103351276836,1.8743720423728807,78882.80298305082,40158.99190960445
24,1703.5,0.0,"[13,14]",2,1.735499544467275,0.3785505955385928,1.890922190196647,0.9261494608159699,1.6868452204285358,0.45274427032580156,0.07047214998532159,0.7810467918990271,5.375466839154679,2.857887331670089,0.5066616918109794,0.2376170995010276,2.193123907543288,1.7943848106838847,76382.33754035804,34514.40915761676
24,16711.0,0.0,"[12,7]",2,0.309834416163012,0.11118103099756205,0.19194701807193848,0.5875646733887718,0.2984941031955062,0.22797523487522353,-0.03540841529532113,2.886239899257956,0.6660038316976827,0.3461999745676524,0.16480641855663292,1.19062308147329,0.6954646398779246,1.3251397927712367,69632.2661719826,12923.701035246178
24,8585.5,5640.0,"[16,17,25,26,33,42,27,35,36]",9,0.710398043154157,0.29975170572476806,1.2559186972802965,1.0478333062721985,0.6267569874788883,0.2649042432007451,0.3023642087822478,2.042696399277852,1.8513347673985145,0.7023196804495951,0.4105620488032171,0.8962717593617211,0.8838917275056778,1.6254022385417268,72828.88404868662,21149.601537475995
48,340531.5,189797.0,"[1,2,4,5,8,9,12,16,17,18,25,26,33,39,42,44]",16,0.30978850038029115,0.4617044838436475,0.9128644952941203,0.6323971981402523,0.6891026513707388,0.2967362617775484,0.04415164954342643,1.7093283031973723,1.7048418307080309,0.38358210711123397,0.19116330144933658,0.5895019366328837,0.7726523882452901,0.938472750788842,67194.6732211262,17471.411743113295
48,23131.5,20393.0,"[7,43]",2,0.1764273717225464,0.06343302575492382,-0.30124995622851936,0.9826422880163395,0.22027066007392548,0.3478276254134034,-0.07156387898537941,3.9626698101506586,0.769778541264078,0.30594042210838457,0.1571511457644288,1.6350504984653043,0.7078883987095516,1.940887078313122,71069.53340682611,13822.911959881485
48,169054.0,90772.0,"[6,10,11,15,27,34,36]",7,0.3671000614966351,1.864676694749896,2.167605188500404,0.7340353968421534,2.89713856882121,0.32609674154708146,0.1640137803645656,0.7502965086200262,4.146155530712071,0.5313113483132651,0.08628152008084822,0.10960054564517674,2.208662345512379,1.634375259032614,66930.84548132538,22619.222165698637
48,13138.25,10711.0,"[5,6,13,14,22]",5,0.8545773919091195,0.7413950464483565,2.6214325174775897,0.9264821084048491,2.7048850278195347,0.19957790645633877,0.46036991760697976,0.7983212778338191,4.830758506231803,0.8879352023100499,0.24172076893802252,0.16971692493292467,2.2268672337259554,1.4978556992750167,69585.60843339107,31701.16324472453
48,1938.25,1456.0,"[24,46]",2,1.2065305045788717,0.3018335356636137,1.2668378454791691,1.0854100910615219,0.7742423557332683,-0.11720582174642002,0.16504102889203986,0.7462511191796719,5.06253630697795,1.0411631983748224,0.29592466593576594,0.9451244518251007,0.9460801031858631,2.446815339223525,79011.41338836569,24481.861472978224
48,23472.25,7157.0,"[19,23,29,40,45,49]",6,1.8274948793255843,0.3700865875129149,1.883348921524362,1.0864529312805535,1.8698315246194954,0.32742577391387573,0.14639860469277588,1.0007860462034999,5.6405914863189635,2.9228983523096437,0.4530481979891188,0.2539758477883466,2.3675819784958843,1.909076564986315,75802.17013707668,36724.325277721444
48,13014.25,11087.0,[7],1,0.28127188862209085,0.058433562325909794,-0.37604335593676197,0.9511922903547969,0.06752239201260357,0.8305381005436454,-0.31853451643392994,3.947373025145522,0.6759006434485274,0.3287987587452279,0.1817484944579899,1.6099289369921497,0.6969050529611766,1.8879524180225504,71148.71529285214,13771.201260157082
48,2070.75,1301.0,[14],1,1.5763340201617793,0.4095250318725028,1.571637538090053,0.8088962051189212,1.612187990341666,0.5669338195098355,0.034999173487871627,0.9209261553784898,5.7112511256791025,2.478028792466493,0.41679878111795476,0.19881309960159466,2.058081615477485,1.6747075485935012,70596.28830133998,30138.483158276085
48,684.5,496.0,[16],1,0.9713590825420011,0.3033638133674246,2.5052385573411224,1.140121044558073,0.7497660379839308,0.09509231300219101,0.3107492059897732,0.994429516435356,1.5318233466033608,0.7561185723155616,0.5702982552958411,0.3275016559532521,0.939627358290725,1.3031022542001436,64461.72096420753,26745.899196493792
72,304327.75,148170.0,"[1,2,4,5,9,12,16,17,18,25,26,33,35,42,44]",15,0.2824581822311538,0.4230433001919951,0.8237383745287583,0.6440228386041165,0.6084478118825132,0.24125620723011987,0.06429986677725097,1.7172673877139726,1.4711091197302832,0.3465115070688508,0.1905243326623336,0.524789733112575,0.6971103475886596,0.8284471823461668,67012.28180473199,18081.956259328887
72,54090.75,42525.0,"[7,43]",2,0.21070889744549137,0.1418170664231191,-0.1495317947754562,1.182875346572681,0.27808183454195223,0.24164799572246887,-0.0605971646422776,3.7614884886187117,0.8625334216594543,0.3285160033092591,0.17238367295933354,1.4774260642646853,0.7502381207946712,1.93129233856067,74086.99565082771,16445.14213613236
72,229815.75,134693.0,"[6,8,10,11,15,34,36,39]",8,0.4273262507187845,1.7132579942334374,1.8384635567449341,0.9341001731615561,2.583145381063973,0.38445138033947646,0.09289542344684154,0.757434435493971,3.8339059868715126,0.6380292939588571,0.23706182071452586,0.1429514623192708,1.989672834935703,1.5911289961659483,69888.40554226594,25032.188646774575
72,48651.5,23155.0,"[5,6,13,14,19,22,24,27,28,40,45,46,48,49]",14,1.5962556041797245,0.5306764083224582,1.8418390277458063,1.408077920577985,1.8643851188581144,0.4887562930176834,0.08827178082381604,0.8893385772869262,5.218564859459632,2.311820662410205,0.4684223148849429,0.24876280936353523,2.264623180526297,1.7685145019757915,76708.40438629844,38057.46453860618
72,11933.25,0.0,[10],1,0.602157902258394,1.501222040192323,2.138391206775198,0.7407408067269969,2.5138737668384628,1.0600182833679244,-0.3465817597678704,0.7889416816353476,4.231344253273462,0.6926653331028957,0.23474663878238244,0.14999268722895875,2.0053241647811775,1.5204090221021014,68899.26214568554,23918.127919887513
72,10137.125,3630.0,[7],1,0.3221608917962455,0.0736859670024761,-0.37584441135923674,1.0539850791397956,0.034495409608243044,0.8975449588024225,-0.4173354755169951,3.8288880381025123,0.6702229680012833,0.32275532451262434,0.1986469283943899,1.5597905368755969,0.6927829719718376,1.8602979289616137,72900.02717733086,13252.279714416023
72,7404.0,4228.0,"[13,14,20,32]",4,1.4686554144719073,0.5081754971636969,1.6799303693273813,1.7620762201006235,1.461938540974479,0.8614985508002408,-0.20617645821514996,1.0863813358488605,4.997550002144109,2.5620736722379776,0.7061613983826325,0.33732144806861164,1.9960490131685527,1.887644854436792,83722.27876823326,49762.99729875746
72,8813.5,0.0,"[17,25,33,42]",4,0.4435379124212857,0.20928636412889245,0.7403532715152896,0.9071662273500851,0.3394259225194398,0.2560266296590452,0.0693162032535306,2.3674175952090604,1.7468777275202867,0.395421670278549,0.21534939628126581,0.9850827803653475,0.6033940750553125,1.5654585938191425,70901.92273217217,18265.265785442705
96,237585.875,85422.0,"[1,2,4,5,9,12,16,17,18,25,26,33,35,42,44]",15,0.35814719301705567,0.4164629906470725,0.8823553617086848,0.7271851716879243,0.5976811836028308,0.2532474995996268,0.12454485507528013,1.7710756396679264,1.4626706099173474,0.40563782836284856,0.233745775760843,0.5690401856239284,0.717325449725018,0.8619450078276922,67404.27655474047,17877.032816029096
96,81851.375,54806.0,"[7,43]",2,0.41956767972742304,0.1449224802614859,0.09623055214250753,1.3076183493840308,0.30662326715799937,0.26855071903572636,0.09919043058608468,3.6937691663197594,0.9274537083196593,0.4449900814005904,0.2386899286549733,1.629899465669487,0.7660914660039232,1.8955174956071386,74003.25934659032,15632.723530911984
96,247514.1875,130230.0,"[6,8,10,11,15,27,34,36,39]",9,0.49729661241868994,1.9522181388753914,1.9917025452149786,1.0704243602288424,2.8712431950198636,0.40284519300611143,0.32157522675592043,0.911302875530855,3.9223614755181857,0.7255527810221455,0.2284868629520478,0.15201073937933118,2.242024377691729,1.8389723739341142,69891.58940232478,24004.461061449252
96,233.1875,0.0,[5],1,0.9984837480568218,0.7095774392924121,1.4055312307692334,1.7250677732511424,1.079716128919857,0.810874030286785,0.5908032010184923,1.4892190560171548,2.811246637898693,1.0357206231573333,0.8571267022246003,0.511958464486735,1.193076505762527,1.6694118681318721,63458.581613508395,24176.527472527476
96,44306.875,20279.0,"[6,13,14,19,22,24,28,29,32,40,41,45,46,48,49]",15,1.8458552162644033,0.4528723583247469,1.8198689165451252,1.705036694031679,1.684882588901274,0.4556123152896696,0.25021477302478434,1.0215335496127826,5.2776464581639395,2.6352935812458607,0.6332704710597947,0.3095791584912059,2.296286718177193,2.004494257863482,78676.99737343262,40046.421870194914
96,13651.9375,0.0,"[9,10]",2,0.42768952254944703,1.3467830143889872,1.8827088245395518,0.728414058705023,2.2250337262522355,0.5397298412359164,0.007774785451697408,0.6992457403573713,3.9790817761719226,0.5860320856105635,0.1904619511928085,0.16303973516579473,1.7306625976898835,1.3372227442899576,65770.06348000061,21775.95055646841
96,10206.125,4419.0,"[13,14,20,47]",4,1.9133381612022171,0.3993494103969497,1.6603305589474453,1.6572787795625201,1.6922722947801017,0.7957776985204961,0.016284239923331167,1.0582623834523366,5.375184045058734,2.782108689371578,0.6443156569094604,0.29792555080894945,2.317037608164211,2.0563746763156887,78636.26440005397,39759.21047410254
96,20907.25,0.0,"[12,16,17,18,25,26,33,42]",8,0.30713275049624134,0.1290655932481588,0.27412308975057176,0.7605355246535108,0.24819002091381437,0.2522817667166857,-0.006980532799634176,3.0127660776016683,0.9130708563267563,0.334846586438313,0.17704911139376556,1.208209014839359,0.6291902837652023,1.4825034248167497,71541.33001709904,15494.5158258498
96,19148.625,5896.0,"[19,22,24,28,29,32,36,39,40,41,20]",11,1.7850780897224967,0.42421079050388366,2.02827835793367,1.5414192947013041,1.403808900671717,0.6708525566489787,0.04916304898850443,0.933501243189784,5.204127222852158,2.707376376260699,0.6548069891441317,0.2798719684572637,2.2374623838199836,1.7805668567488586,78959.15471737538,44596.09648212332
120,341504.1875,151891.0,"[1,2,4,5,7,8,9,12,16,17,18,25,26,33,35,42,43,44]",18,0.42813173545794836,0.6055374249484107,0.9688871199812374,0.9887938636862534,0.8825393422867172,0.3307813594969744,0.1678142830574738,2.0417033712752053,1.6935698288507468,0.49623840986576695,0.28216892289288786,0.7537063189707405,0.9586187817228521,1.2803041547197336,68566.84442266179,18009.854470671664
120,261001.5625,166798.0,"[6,10,11,15,22,27,34,36,39,46,48]",11,0.427780162232378,2.20779597117847,2.146371263701861,1.197855923059131,3.131302623818448,0.32306733097036333,0.5335568658467906,1.1001734658302889,3.919447804882949,0.6304845414225156,0.2004574518138691,0.178738655700458,2.414503838549571,2.0708742339254402,68340.3457555928,21851.69801042868
120,116.59375,0.0,[5],1,0.9984837480568218,0.7095774392924121,1.4055312307692334,1.7250677732511424,1.079716128919857,0.810874030286785,0.5908032010184923,1.4892190560171548,2.811246637898693,1.0357206231573333,0.8571267022246003,0.511958464486735,1.193076505762527,1.6694118681318721,63458.581613508395,24176.527472527476
120,56045.40625,32877.0,"[6,13,14,19,20,24,28,32,40,41,45,47,49]",13,1.7523436565050792,0.6282982864864586,1.9558481687521243,1.875262849483648,2.055850021088377,0.5133402804093536,0.31697921325008194,1.2145908834237642,5.141154036353347,2.396027950192734,0.6423748328520493,0.3062512077556546,2.4056886933881074,2.1726777227811374,76082.5504052797,36853.07521524117
120,17195.96875,10370.0,"[9,10]",2,0.47704626717380916,1.683065188418059,1.9721648940921983,1.0315484284525307,2.482030886634066,0.4616968245373705,0.279848913864269,0.9530717603362775,3.8278974880577326,0.6262262215308437,0.2501024391490625,0.1921895204217543,1.956963575932583,1.6278593847940388,65532.8968308344,21289.978094429745
120,6431.96875,3254.0,"[13,14]",2,1.8218828518678551,0.5196995144906102,1.603705502193637,1.8919044150410858,1.6555997276203436,0.6411538915718822,0.18702606889900064,1.3090112258396789,5.303964181753271,2.171812389203346,0.6027106896702521,0.30298962402647145,2.2306063289962648,2.054860153481382,71478.87651039982,31195.705358487623
120,15006.71875,8687.0,"[16,17,18,25,26,33,42]",7,0.5417709515404565,0.4646150783940577,1.033454462282522,1.1991155690805115,0.7560054968045655,0.32361159865268263,0.2164682341201325,2.3900341657382613,1.7976291807711129,0.5404188922191108,0.3513311914330024,0.988491783813505,0.9199505433857741,1.721373007488314,69929.3805316367,18562.64868027861
120,28352.84375,17821.0,"[19,20,22,24,27,28,32,34,36,39,40,41]",12,1.3966100349876756,0.8416149090644502,2.227816801957704,1.6956720813454553,2.0956043635404726,0.9094223128279684,0.16610646424686104,1.241852001037154,4.72636176061925,1.789999017287733,0.6075211747741394,0.2721585483312411,2.2476416636801204,1.967485970170544,74568.60492168445,36729.54999443394
144,299431.09375,128679.0,"[1,2,4,5,7,8,9,12,16,17,18,25,26,33,35,42,43,44]",18,0.4649373449388652,0.5036172015149156,0.9148891557699308,1.2670474231755686,0.7860567502242062,0.32890652350822913,0.24066476074252918,2.303786583672631,1.5533765365811925,0.5251624087311414,0.28949136235836637,0.9401489131850027,0.9536008414131235,1.3972938854558021,68890.99786083915,17375.316710908493
144,276840.5,146345.0,"[6,10,11,15,27,34,36,39,46,48]",10,0.4220050525552481,2.2146723730953415,2.066077568388796,1.4175497621022037,3.0846374745578022,0.33814767181866334,0.6479872058311655,1.2097603585338725,3.789905520559811,0.6487721396531244,0.15900494104807494,0.2552526195752819,2.378876489883906,2.128415539386557,67570.94160717061,20630.31838549622
144,286.296875,228.0,[5],1,1.084493525296075,0.6881324474158177,1.5618300251050576,2.3925882681875215,1.146745769415487,0.7541120872673688,0.5922039748403627,1.8134400145172753,2.96354358336517,1.0917538331605092,0.7119308802052058,0.8305583761938558,1.3031415621350213,1.9907247992141028,68166.1544506904,22485.21923265841
144,53782.046875,25470.0,"[6,13,14,19,20,22,24,28,32,37,40,41,45,47,49]",15,1.7213886494139656,0.5797561304419987,1.9325486375567942,2.1680822418023413,2.1452677708755616,0.4994153202096645,0.5011517307032936,1.282553932951024,5.076960018377123,2.4404708364507064,0.6565725994396914,0.37744866966758983,2.3333170107206365,2.311887350072091,75686.80969805509,36365.033996300495
144,13479.984375,4882.0,"[9,10]",2,0.5195478871104049,1.6584491132338615,1.9715753595098886,1.2825059386532636,2.5167114353978746,0.4801598878974527,0.4272456103470543,1.090698520236602,3.7369934752184792,0.7009932948039824,0.27786761199068444,0.27237735478643665,2.013060416868056,1.7401447812254014,66394.77896279102,21864.51102618571
144,3960.984375,745.0,"[13,14]",2,1.8219156284067501,0.48798274047644385,1.574083604446503,2.0793969536336925,1.6320118908020924,0.6655691430910098,0.315838062425295,1.4245072282063678,5.27322123280989,2.0916063416961532,0.6282107933397287,0.3386773121659329,2.136257845457453,2.129217708263803,70717.71142747827,30706.606612150503
144,4143.5,2843.0,"[16,17]",2,0.8278458139518239,0.6714212860956925,1.4962484158169436,1.9620502052763347,1.066644982261375,0.41074533076279174,0.6339667695864035,1.8193850154685034,2.663412947794739,0.797219663094305,0.49788969067515465,0.6709178169308854,1.1787491929754448,1.7303070115052164,64809.232532882816,20359.128273198974
144,15130.96875,10158.0,"[25,26,33,42,34]",5,0.7826388023837698,0.4600787637471604,1.1103331787187263,2.128933852998092,0.8135095085854567,0.3642880025413502,0.6136157501357942,2.3409517585839126,2.446000899892809,0.6667224946508724,0.4057404424390385,0.9345526387789109,0.9672453719596198,2.0227605368769757,68056.03758847229,18776.257468643573
144,25533.25,11757.0,"[19,20,22,24,27,28,32,36,37,39,40,41]",12,1.4417033629128226,0.8149397630185593,2.252538634691413,1.943453931005401,2.1631530149364084,0.9981056553966356,0.24348542591461175,1.2543270245837546,4.659674198310652,1.937085465402959,0.6555576385993045,0.34698099501875224,2.2626202531515296,2.0878707118518287,75387.09188998662,36975.94097891964
168,368122.1171875,217568.0,"[1,2,4,5,7,8,9,12,16,17,18,19,25,26,33,35,39,42,43,44]",20,0.4080252501646282,0.5950033136720139,1.0705341177530836,1.5349850049149416,1.065305262229864,0.36999987746578644,0.3064922051092833,1.9494779312816108,2.11123213761643,0.6328102338528291,0.30706308163712226,0.7397758209612231,1.0874629233237254,1.3765826341850573,68020.19832252084,20425.56645318371
168,237006.953125,97419.0,"[6,10,11,14,15,27,34,36,46,48]",10,0.45948729950949474,2.0509447758292545,2.0311632754968527,1.5795430068428775,2.97718947139079,0.34270555911954736,0.6850300161322003,1.2152923553068695,3.7283787309786276,0.7404290120500788,0.18871219950795126,0.2766140911703239,2.278985628270156,2.0442685295695764,68675.36692653687,22275.980262973564
168,71081.984375,38308.0,"[5,6,13,20,21,22,24,28,29,31,32,37,38,40,41,45,47,49]",18,1.7026501356646484,0.5018586305639183,2.032339700354042,2.4735222836264943,2.1620224310816627,0.5807147069845835,0.6103797129799755,1.1943093958836517,4.928036897368183,2.6385674298095876,0.7040149145336563,0.40827350406792695,2.3257400196562137,2.2982207490414366,77884.37586791837,40234.57713155601
168,13132.9921875,6393.0,"[9,10]",2,0.5317583094127771,1.6778608817368816,2.028244239992557,1.461156603154746,2.5587394273909463,0.42171788120389286,0.5470742591106577,1.0550867044983891,3.557732482258132,0.8202957271018855,0.29273737546541856,0.28099345447147417,2.0489424379059566,1.7438574513412328,68206.1804889045,23600.803006264585
168,8020.4921875,6040.0,"[14,13]",2,1.3079179151489881,0.4503946979436506,1.6655111794631527,2.51152310063674,1.7521999079486812,0.7690711265508277,0.4373480645758008,1.3523771470539825,4.9580038221986245,1.8828147692220005,0.66195631330294,0.36214502962236517,1.9913142909490582,1.9828548915600048,72882.1430573835,35305.57026678721
168,3674.75,1603.0,"[16,17]",2,0.7998906551614942,0.5795075054000294,1.4114867486138518,2.1742278121725938,0.9422635934417332,0.4901424605776705,0.5871022303260434,1.8697730111699817,2.8503774612133426,0.8201049568040334,0.5380127425420129,0.7047961021094122,1.075560882657833,1.7320622731031847,66921.45030274168,22359.18960473504
168,13012.140625,6856.0,"[23,30]",2,1.5709377613622808,0.5716156956388065,2.4586256315202086,2.674327161880075,2.1158392274906777,1.4859777649400698,-0.11284660988596773,1.3251283834171659,4.661134931246287,2.983195952101823,1.2943132557401378,0.5646988344532826,2.284340933186791,2.495984767269011,105059.19620738794,74541.89168048553
168,47198.0546875,26058.0,"[26,35,27,34,36,20,22,24,28,29,32,38]",12,1.4333352336108238,0.6312569084294171,2.006483914652366,2.406353331644031,1.838094737363884,0.8678828147414348,0.5757634433334489,1.567369202827309,4.375681077119666,2.003224453586789,0.6628691536835034,0.4414515965281627,2.0235427181463193,2.0990981587538933,73760.01925397149,35321.62338126019
168,10228.546875,5796.0,"[33,42]",2,0.645769983107938,0.3449354771365978,1.2199718632243899,2.0267674891365535,0.6839638321761878,0.35913190492218994,0.31456738154017794,1.9540103853790116,1.6533699496827956,0.6621528535433175,0.34124480934868684,1.1758383183202048,0.8386494453299375,1.9931798917941104,75137.66597466965,19837.22819865361
168,20352.2265625,10623.0,"[21,37,40,41,23,30]",6,1.569686715585479,0.5390861460697045,2.3623027738849243,2.636990734652423,2.0416842764132475,1.3890584519368814,0.005143538117945212,1.2970663582819753,4.675610143703172,2.878592030179822,1.1888319228750732,0.5339723218409385,2.2793401492411927,2.418981964704403,99086.26187936279,67655.55610200793
