time_in_hour,cumulative_size,size,pcore_ids,pcore_power,AF700 CD48_[R 730_B-A],APCCy7 Ly6G_[R 780_A-A],BV421 CD117_[V 440_F-A],BV510 SCA-1_[V 525_E-A],BV605 CD11b_[V 610_D-A],BV650 CD150_[V 660_C-A],BV711 CD11c_[V 715_B-A],BV785 B220_[V 780_A-A],FITC Ly6C_[B 525_B-A],PE CD115_[YG 582_D-A],PECF594 CD135_[YG 610_C-A],PECy5 CD3-CD19-NK11_[YG 670_B-A],PECy7 CD16-32_[YG 780_A-A],PerCPCy5-5 CD45_[B 695_A-A],_FSC-A,_SSC-A
-1,0,0,[],0,0.0,0.0,0.0,0.0,0.0,0.0,0.0,0.0,0.0,0.0,0.0,0.0,0.0,0.0,0.0,0.0
0,129915,129915,"[2,4,5,7,8,14,18,21,38,49]",10,0.2928807561328577,0.1759770944771577,NA,0.5400779592194915,0.31809656625485916,NA,0.009527288311589999,NA,NA,0.34931259900704437,0.18463104245852957,NA,0.6231274506408028,NA,69108.13648924298,14017.866574298563
0,4984,4984,[30],1,1.4051968061797726,0.2735286849919696,NA,0.6932015483547431,1.0509680357142872,NA,0.27728396749597906,0.6955177377608321,NA,NA,0.3897850232744786,0.15603416552969784,1.7821440182584278,NA,61214.75441412521,20174.39486356343
0,15899,15899,"[5,23,43]",3,0.3677182995785928,0.13178876287817154,NA,0.7396206583432892,0.2852424899050243,NA,-0.1272551916472615,NA,NA,0.40939749141455384,0.21038603924775146,NA,0.6598879209384246,NA,72475.59821372411,15428.983458079165
0,135057,135057,"[9,10,11,12,13,15,16,19,20,29,32,34]",12,0.2342139342055587,NA,NA,0.6587994480774846,NA,NA,NA,NA,NA,0.555235102830658,0.12901794269826672,0.13145398049712254,2.0495823668377056,NA,66662.718348549,18619.821379121357
0,5326,5326,[10],1,0.46786813086744394,2.0959304776567738,1.923042955689081,0.6759654988734436,NA,NA,-0.4200574581299321,0.8444794119414185,NA,NA,0.2422440904994403,0.12365603022906546,2.104111999436719,NA,67906.53548629362,20785.411941419436
0,25551,25551,"[12,13,14,33,35,46]",6,0.4905544239755757,NA,NA,0.7733794998630175,NA,NA,NA,NA,NA,NA,0.25873797874838855,0.14311837732378463,1.925269014950492,NA,NA,20929.74834644437
0,19833,19833,"[16,19,20,29]",4,0.3195394078051743,NA,NA,0.6758312507437103,NA,NA,0.015015898805026406,NA,NA,NA,0.19798937876266676,0.1376328976957607,2.0052124642262896,NA,67187.96672212983,19577.462209448902
0,7853,7853,[33],1,0.7820850920667255,NA,NA,0.8748552353240653,NA,NA,NA,NA,NA,0.5469652129122623,0.21763037195975699,0.08687306379727655,2.3362090924487533,1.6554144132178656,74212.77982936446,27921.228575066856
24,305721.0,158993.0,"[1,2,4,5,7,8,14,15,18,21,23,29,30,35,36,49]",16,0.35991272275375374,0.2720513775304916,NA,0.5943528283173194,0.4650302370887176,NA,0.03650024255776119,NA,NA,0.43100216130720503,0.2024652063351864,NA,0.6748020070848891,NA,69490.59504580966,16294.81667271788
24,23950.0,13515.0,[38],1,0.2259208414613738,0.028772527139871773,NA,1.0005939614613593,0.089548504926932,NA,-0.290320889060538,NA,NA,0.35414496626305436,0.20072367924843304,1.791027242296459,0.6987635656367382,NA,73430.97586638827,13209.249937369517
24,8385.0,5184.0,[43],1,-0.09102173619558385,0.02646852355396323,NA,1.2002740961240366,0.4872693042337568,-0.38081221633870055,0.0575037592128913,NA,NA,0.3608400443649381,0.15827939785331324,2.1733162859868873,0.7825577443053132,NA,76046.55551580209,13372.099701848469
24,268324.0,126019.0,"[6,9,10,11,12,13,16,19,20,26,32,33,34]",13,0.3171892949680237,NA,NA,0.7372708221590365,NA,NA,NA,NA,NA,NA,0.11166801613347621,0.13514223720203755,2.0667978458393574,NA,67879.4004859797,21860.712392480717
24,9342.0,4016.0,[10],1,0.48277996510383714,1.979803116784419,1.9696658529223012,0.7191154033397504,NA,NA,NA,NA,NA,0.6784827514450847,0.23651912727467517,0.1279508254121171,2.0438781414043925,NA,NA,21967.49646756578
24,852.0,592.0,[46],1,1.299431157276994,0.7313929694835624,NA,NA,1.2039080915492968,NA,0.7687259178403769,NA,NA,NA,1.1515622969483572,0.5532535974178396,1.678302803990607,NA,NA,34941.070422535195
24,18877.0,9986.0,"[8,14,13]",3,0.3748813430100113,NA,NA,0.8341150295597894,NA,NA,0.2388989856968835,NA,NA,0.5800006738888589,0.27725442570323366,0.22363306796631,NA,NA,NA,20015.305821899732
24,24137.0,12714.0,"[25,27,31,40]",4,1.1403379326759693,0.5768343899821824,2.6999021977876256,2.1330529473836823,NA,NA,NA,1.0468509424949155,NA,NA,1.2720690905249246,0.4867077279695067,2.2535598133570756,NA,NA,NA
24,15320.0,6240.0,"[20,26,29]",3,NA,NA,NA,0.9497898483681495,NA,NA,0.050942804830290456,0.7801443808094004,NA,NA,0.2965619433420361,0.17647494190600443,1.9717320423629188,NA,68027.14986945159,29089.399477806728
24,6230.0,3678.0,[23],1,0.7957916903691771,0.10159216565008977,0.8623333914927831,0.9685258916532846,0.2948530083467089,NA,NA,NA,NA,NA,0.18462136308186894,1.2209029778491178,0.3904759619582697,NA,80508.7229534511,16416.554735152527
24,34930.0,16083.0,"[42,45,48,50]",4,1.9389427041797969,0.33178895908961037,NA,1.0116074521042049,NA,NA,NA,0.8847992979387342,NA,NA,0.3980654308903522,0.21285995198969165,2.4673803543945,NA,74802.19227025477,33055.16816490123
24,16967.0,8664.0,"[30,35,36,46]",4,1.15254623180291,0.3646248507102037,NA,NA,0.8214703025873762,NA,NA,0.9676238082159379,NA,NA,0.5133314330759675,0.2587512825484768,NA,NA,66414.7995520716,29073.977485707575
48,435769.0,160023.0,"[1,2,4,5,7,8,14,15,18,29,30,35,36,49]",14,0.3496922341194495,0.3167997824787956,NA,NA,NA,NA,NA,NA,NA,NA,0.1993179978061721,NA,NA,NA,NA,16938.956483825106
48,67358.0,19663.0,"[21,38]",2,NA,0.0630221750348956,NA,NA,0.21888280671932492,NA,NA,NA,NA,0.31897214850500133,0.1633066485940775,NA,0.6998427327860085,NA,72720.88886249592,13678.011817452956
48,10139.0,3909.0,[23],1,NA,0.1027221169740673,NA,NA,NA,NA,NA,NA,NA,NA,0.17454983696617088,NA,0.3141172426274791,NA,NA,16781.161061248633
48,372098.0,103774.0,"[6,9,10,11,12,13,16,19,20,26,32,33,34]",13,NA,NA,NA,NA,NA,NA,NA,NA,NA,NA,NA,0.11834617356180288,NA,NA,NA,21867.19343828778
48,17739.0,5269.0,"[17,43]",2,NA,0.10560039618918715,NA,NA,0.48220299937990285,NA,NA,NA,NA,0.37944868927222175,0.17174865009300566,NA,NA,NA,NA,15482.407802018102
48,1742.0,890.0,[46],1,NA,0.7911728208955213,NA,NA,NA,NA,NA,NA,NA,NA,NA,0.5937327123995406,NA,NA,NA,NA
48,16826.0,9501.0,"[8,39,47]",3,NA,0.2780605090336383,NA,NA,NA,NA,NA,NA,NA,0.5021985851063816,0.4513589438369201,NA,NA,NA,NA,21399.772732675607
48,6072.0,1987.0,[17],1,NA,0.23779078013834454,NA,NA,NA,NA,NA,NA,NA,NA,0.21145873270750526,NA,NA,NA,NA,19208.221343873494
48,34629.0,10492.0,"[25,27,31,40]",4,NA,0.5862002641138973,NA,2.135105590487743,NA,NA,NA,NA,NA,NA,1.2661474908313854,0.47868243579081304,NA,NA,NA,NA
48,43831.0,14867.0,"[28,41,44,48]",4,NA,0.30418324922999496,NA,NA,NA,NA,NA,NA,NA,NA,0.5152665941685126,0.19658494661312775,NA,NA,NA,NA
48,41970.0,13892.0,"[42,45,50]",3,NA,0.32935375763640407,NA,NA,NA,NA,NA,NA,NA,NA,NA,0.19924611534429126,NA,NA,NA,NA
48,3355.0,2850.0,[29],1,NA,0.4629215478390494,NA,NA,NA,NA,NA,NA,NA,NA,0.3866206751117711,0.19127320655737645,NA,NA,NA,26383.22265275707
48,10139.0,3909.0,[23],1,NA,0.1027221169740673,NA,NA,NA,NA,NA,NA,NA,NA,0.17454983696617088,NA,0.3141172426274791,NA,NA,16781.161061248633
48,1819.0,1224.0,[35],1,NA,0.4656592242990598,NA,NA,NA,NA,NA,NA,NA,NA,NA,0.4730598037383176,NA,NA,NA,24246.6410115448
48,3568.0,2026.0,[39],1,NA,0.19433373850897206,NA,NA,NA,NA,NA,NA,NA,NA,0.28476689545964673,NA,0.391984669562779,NA,NA,18303.408071748876
48,7759.0,2979.0,[44],1,NA,0.187997936203117,NA,NA,0.5841693816213391,NA,NA,NA,NA,NA,NA,0.20405818868410774,NA,NA,NA,35823.63500451087
48,9927.0,2810.0,[36],1,NA,0.36114805842650943,NA,NA,0.370772949229373,NA,NA,NA,NA,NA,0.5711297555152584,0.2842786924549183,NA,NA,NA,35815.114334643025
48,3278.0,1579.0,[45],1,NA,0.14986892251372463,NA,NA,NA,NA,NA,NA,NA,NA,NA,0.16311604972544336,NA,NA,NA,21443.709579011636
72,650014.0,175953.0,"[0,6,8,9,10,11,12,13,14,15,16,19,20,26,29,30,32,33,34,35,46]",21,0.36823327194644784,NA,NA,0.8018654426320002,NA,NA,NA,0.7395997031002408,NA,0.5866630486143355,0.18369452975320621,0.14622759941477959,1.8720782553975792,NA,67245.245450098,22797.958099363987
72,469270.0,124606.0,"[1,2,4,5,7,18,36,49]",8,0.29863726636691257,0.2064181801201923,NA,0.5665885491849059,0.3017192768235808,NA,-0.004919914151777061,NA,NA,0.3357092564451175,0.1828875237347365,0.6815462963517713,0.5638472041149062,NA,69203.70174952583,16697.74647431107
72,97116.0,19619.0,"[21,23,38]",3,0.260636565704937,0.09412152764735504,NA,0.9394765198628248,0.24844251480704616,NA,-0.09114616044729873,NA,NA,0.3450418978541121,0.16875151659870014,1.5192861250772305,0.6722353885353575,NA,73742.83487787828,14756.57877177808
72,15162.0,3495.0,[43],1,-0.0744075776282751,0.07272624673525874,NA,1.3179810376599406,0.4966711720089827,NA,NA,NA,NA,0.3572825862682981,0.15372278103151782,2.0276573829969724,0.7789486381743916,NA,75133.99498746873,14204.361429890481
72,4388.0,1561.0,[8],1,0.883467220829538,0.6927278491340045,NA,1.3913896943938115,NA,NA,-0.1993815177757563,NA,NA,0.8693956540565212,0.6810419188696515,0.39979073040109636,1.0985181629443956,1.3664888049225146,NA,30656.043755697283
72,4330.0,762.0,[39],1,0.8904872484988455,0.26429455334873175,NA,NA,NA,0.9352794840646681,-0.4162171025404162,NA,NA,0.5238033466512669,0.30463450785220036,0.7561667427251746,0.4936829152424963,NA,75060.78152424938,19146.37598152426
72,10893.0,462.0,[47],1,0.6159354138437463,0.25472707867437805,NA,NA,0.3248832857798716,NA,NA,2.9491074564399042,NA,0.4124547630588443,0.4239899003029479,0.23723563279170123,0.5033804993114855,NA,54758.23666574873,19615.20976774077
72,54125.0,12615.0,"[22,25,27,40]",4,1.2386838716120006,0.6303360450254036,2.6590204301339413,2.2286915947344164,2.1529526769514917,NA,NA,1.0636923370161466,NA,3.067966015852192,1.3588036062448077,0.4808036330900718,2.3396863888406387,2.4023794875011464,NA,NA
72,18397.0,3412.0,"[31,50]",2,2.063987157688743,0.44715026422787973,NA,NA,NA,NA,NA,1.142086655269868,NA,NA,0.6077666629885345,0.25988604489862643,2.611993058922645,2.285149583084203,NA,NA
72,43993.0,7921.0,"[28,41,48]",3,2.0569505854340466,0.3604829011206281,NA,1.100920366285544,NA,NA,-0.13613973545791191,0.8632361690723487,NA,NA,0.4729360706930712,0.20337817214102305,2.4590013765144376,NA,NA,36412.028459072935
72,35342.0,6522.0,"[42,45]",2,1.830212423207539,0.34458698214588157,NA,1.084498538933858,NA,NA,NA,0.7731886434836772,NA,NA,0.31494240402353046,0.21225428326070883,2.431093295399222,NA,74204.73317865448,29884.226133212604
72,14904.0,3790.0,"[29,44]",2,1.6366950348899645,0.3252031379495395,NA,1.3082542620772908,0.9207128372249054,NA,0.10833351939076108,1.0154301181562007,NA,NA,0.6222028509125086,0.21658002804616072,NA,NA,NA,33022.99087493283
72,2581.0,762.0,[35],1,1.0299788221619546,0.6190538295234349,NA,1.5695648574196088,NA,NA,1.3886945645098856,NA,NA,1.006173731886864,0.7247882766369558,0.45113628438589626,1.6232676718326235,NA,NA,23835.15226656332
72,4330.0,762.0,[39],1,0.8904872484988455,0.26429455334873175,NA,NA,NA,0.9352794840646681,-0.4162171025404162,NA,NA,0.5238033466512669,0.30463450785220036,0.7561667427251746,0.4936829152424963,NA,75060.78152424938,19146.37598152426
72,8986.0,1227.0,[44],1,1.7999291963053679,0.2100407286890671,NA,NA,0.586369034720676,NA,0.3597052082127652,0.8578372498330813,NA,1.0797865658802581,0.7530724552637458,0.21836695025595154,1.062000682951255,NA,62739.21566881826,35599.825506343026
72,2377.0,635.0,[46],1,1.2484388506520807,0.9104897854438416,NA,1.9841159629785499,NA,NA,NA,NA,NA,1.3157340378628475,1.2173167559949492,0.5467408548590662,1.660518976861587,NA,64372.34160706776,33652.12620950778
72,21437.0,4229.0,"[27,40,45]",3,1.0337234561739004,0.530196937491259,NA,1.9155837297662903,2.304818798852452,NA,NA,0.8299575836637638,NA,NA,0.9931194641507699,0.39860076755142926,2.1290739878714366,NA,NA,NA
96,767718.0,135553.0,"[0,6,8,9,10,11,12,13,14,15,16,19,20,26,29,32,33,34,35,46]",20,0.3566437311213193,NA,NA,0.8567543236969737,NA,NA,NA,NA,NA,0.5554035927202413,0.1801249801906475,0.14720537059440786,1.9523257764074806,NA,67420.38734014318,22353.620219924414
96,550700.0,81430.0,"[1,2,4,5,7,18,36,49]",8,0.32117491930271314,0.21002396699836368,NA,0.5985012241093242,0.3029411139404501,NA,0.01648566074268354,NA,NA,0.3494014929289988,0.19492735469766442,0.7252487033284865,0.5744980084510604,NA,69425.88501906673,16593.40295623739
96,144843.0,29878.0,"[21,23,30,38]",4,0.45795550317240075,0.13780600115987696,NA,NA,0.37121997141043694,NA,0.008142792478755823,NA,NA,NA,0.21353846900435824,NA,0.8453701812030935,NA,72290.99734194964,16184.449093156112
96,24981.0,5204.0,"[3,17,39]",3,1.0841711503542724,0.2865924774028259,NA,NA,NA,NA,NA,NA,NA,0.5995667826348029,0.3112737569352775,1.015262580641287,0.582378038269085,NA,79280.88195028229,20609.598654977784
96,19997.0,4835.0,[43],1,-0.01983561904285147,0.08440201245186074,NA,NA,0.5245342415362355,NA,NA,NA,NA,0.39489751152672625,0.17517205890883858,2.0739184284642684,0.802925857328607,NA,75296.27364104634,14121.727859178849
96,5357.0,969.0,[8],1,0.9220175895090634,0.6798172983012822,NA,NA,NA,NA,-0.18843511405637914,NA,NA,0.8939415833488918,0.6976911295501349,0.42154711834982694,1.111286875676687,NA,NA,30526.27963412356
96,14430.0,3537.0,[47],1,0.6616483654192562,0.2954025954262045,NA,NA,0.3834708316701394,NA,NA,NA,NA,0.43052085606375745,0.46099910277200795,0.2371870753984766,0.5465878127512157,NA,55160.64199584196,19457.04670824671
96,63896.0,9771.0,"[22,25,27,40]",4,1.2834731478809231,0.6348817624577427,2.661919569002746,2.2764247709559347,2.173406121729046,NA,NA,1.0972792254757522,NA,3.0824605789251303,1.3998057862620517,0.5013905161042984,2.382416798156375,2.456340464536112,NA,NA
96,24641.0,6244.0,"[31,50]",2,2.1145945265614126,0.488328969887605,NA,NA,NA,NA,NA,1.274072014853278,NA,NA,0.6651340646483561,0.29794353488089165,2.6212862798587606,NA,NA,NA
96,51889.0,7896.0,"[28,41,48]",3,2.090119982019303,0.3619190405866335,NA,1.20072607799341,NA,NA,-0.08724033357744121,0.8942402667617402,NA,NA,0.5034859842355828,0.21086248861993995,2.463109242305685,NA,NA,35892.560195802456
96,41875.0,8404.0,"[37,42]",2,1.9332771364776453,0.4049778157373045,NA,NA,NA,NA,NA,NA,NA,NA,0.423305352047755,0.2616167729910429,2.491548947964172,NA,NA,31138.49351641801
96,4348.0,816.0,[45],1,1.1953647838086547,0.16198923528058895,NA,NA,2.8135166554737823,NA,NA,NA,NA,NA,0.2020601216651392,0.18153835533578822,1.7261088238270426,NA,73522.2962281509,21347.930082796724
96,19222.0,4318.0,"[29,44]",2,1.670094020029133,0.32858277187597684,NA,NA,0.9453894018832569,NA,NA,1.0713586846842178,NA,1.3334414489647277,0.6426005610238326,0.24009905592550107,NA,NA,NA,32361.678909582697
96,3305.0,724.0,[35],1,1.076458673827532,0.6031417503782048,NA,1.660083853252654,NA,NA,1.4232314529500791,NA,NA,1.0525399231467434,0.7217917425113445,0.4856200750378198,NA,NA,60088.21543116491,23596.36429652042
96,8368.0,704.0,[40],1,1.141719336520077,0.6061128918499006,2.3380364961759166,2.052116910253336,NA,NA,NA,1.0809865922562265,NA,NA,1.1808641018164447,0.42950878740440024,2.129757966897701,NA,NA,NA
96,5672.0,1342.0,[39],1,0.9459034730253875,0.2719965601198915,NA,NA,NA,NA,NA,NA,NA,0.599486442348376,0.33564115426658736,0.7723032089210184,0.5236709365303293,NA,74660.24259520459,19137.839210155147
96,2904.0,527.0,[46],1,1.2948518519283752,0.8761324455922943,NA,NA,NA,NA,NA,NA,NA,1.3310689252754777,1.1961708378099156,0.5575801012396686,1.6699725454545429,NA,NA,32963.74655647385
96,4348.0,816.0,[45],1,1.1953647838086547,0.16198923528058895,NA,NA,2.8135166554737823,NA,NA,NA,NA,NA,0.2020601216651392,0.18153835533578822,1.7261088238270426,NA,73522.2962281509,21347.930082796724
120,964901.0,197183.0,"[0,6,8,9,10,11,12,13,14,15,16,19,20,26,29,32,33,34,35,46]",20,0.359680883611889,NA,NA,0.9259521198558098,NA,NA,NA,NA,NA,0.544885545517105,0.18158104573734946,0.14385993871495362,NA,NA,67069.9141818695,21788.498840813714
120,628905.0,78205.0,"[1,2,4,5,7,18,36,49]",8,0.32573953627655206,0.21982285124621148,NA,0.6226875089417336,0.30924951951090307,NA,0.033298244510674646,NA,NA,0.35815252104530937,0.20818799012887546,0.7302379120153211,0.5740636489199443,NA,69313.9226306041,16529.363309243716
120,155785.0,23793.0,"[21,30,38]",3,0.42573028471932495,0.14109451620503055,NA,NA,0.3854324124787536,NA,NA,NA,NA,NA,0.22427401945629644,NA,0.8848675328561785,NA,71321.6870943929,15845.066880636827
120,30162.0,5181.0,"[3,17,39]",3,1.1012393105563272,0.29246405563291544,NA,NA,NA,NA,NA,NA,NA,NA,0.3261641733969949,1.0350095162787614,0.5927620408792525,NA,78421.21450832178,20345.413699356825
120,15663.0,2812.0,[23],1,0.8483506081210475,0.11995927753305224,NA,NA,0.26004402796397175,NA,NA,NA,NA,0.4769933326310405,0.21847164923705575,NA,0.40905151018323427,NA,80365.42884504847,17046.82474621725
120,26332.0,6335.0,[43],1,-0.016241471555512144,0.08194077172261371,NA,NA,0.5545329206668668,NA,NA,4.303123888880475,NA,0.420053913033577,0.19111321984657792,2.11834538151299,0.8116321223606356,NA,75075.07215555252,13913.568889564069
120,6418.0,1061.0,[8],1,0.9313082955749519,0.6860431738859436,NA,1.4740426910252449,NA,NA,NA,NA,NA,0.897199465877221,0.716007069959502,0.4304448839202273,NA,NA,NA,30255.795574945463
120,19824.0,5394.0,[47],1,0.7009045475181588,0.3102610478208181,NA,NA,0.43539744491526555,NA,NA,NA,NA,0.4534686329196952,0.5051359861279385,0.24815829661017108,0.5788673014023432,NA,54840.3228410006,19134.053268765158
120,75527.0,11631.0,"[22,25,27,40]",4,1.3443513348868443,0.6619102792378921,2.681638334966298,2.318939554053524,2.223159479060459,NA,NA,1.1149003376805515,NA,3.0818217880890373,1.4304011637295284,0.5189369168641715,2.420159837726893,NA,NA,NA
120,33575.0,8934.0,"[31,50]",2,2.1589438371407192,0.513824588294888,NA,NA,NA,NA,NA,NA,NA,NA,0.7157635346835542,0.32573480211466677,2.641666759285179,NA,NA,NA
120,59404.0,7515.0,"[28,41,48]",3,2.1210833256683026,0.3626193486633884,NA,1.3035750232139232,NA,NA,NA,0.936130192512294,NA,NA,0.5270469420577757,0.219245453454316,2.4718705684802296,NA,NA,35491.18362399827
120,51304.0,9429.0,"[37,42]",2,1.97302772959225,0.40753031268517104,NA,NA,NA,NA,NA,NA,NA,NA,0.4596898481989724,0.276199029939189,2.500287534539218,NA,NA,30768.169655387363
120,5164.0,816.0,[45],1,NA,0.1578420778466314,1.2688856837722722,NA,2.8537664885747573,NA,NA,NA,NA,NA,0.2154659500387326,0.1886213627033323,1.7323872261812499,NA,73273.38187451592,21036.790085205303
120,13811.0,2475.0,[44],1,NA,0.23296692860763413,NA,NA,0.6315850186807621,NA,NA,NA,NA,1.074398304612266,0.7895830218666302,0.2722431010064429,1.1194573356744564,NA,61699.17428136997,34731.05437694567
120,4264.0,959.0,[35],1,1.1176429948405235,0.5829098968105022,NA,NA,NA,NA,NA,NA,NA,1.0522214427767294,0.7393774329268314,0.4950429859287069,1.6327229038461546,NA,NA,22884.652908067554
120,9428.0,1060.0,[40],1,1.184525084111158,0.6122922347263362,2.34713798525669,2.0840712599703015,NA,NA,NA,NA,NA,NA,1.1992046093551263,0.44339939775138193,2.1467140014849315,NA,NA,NA
120,6940.0,1268.0,[39],1,0.9597280538904884,0.2767995017291107,NA,NA,0.1146843138328606,NA,NA,NA,NA,0.6189699544668575,0.3535476412103842,0.7876405380403457,0.5288672997118206,NA,73824.7285302594,18967.46051873198
120,5164.0,816.0,[45],1,NA,0.1578420778466314,1.2688856837722722,NA,2.8537664885747573,NA,NA,NA,NA,NA,0.2154659500387326,0.1886213627033323,1.7323872261812499,NA,73273.38187451592,21036.790085205303
144,1115726.0,150825.0,"[0,6,8,9,10,11,12,13,14,15,16,19,20,26,29,32,33,34,35,46]",20,0.36745809608182833,NA,NA,1.00551849975621,NA,NA,NA,NA,NA,0.560456599761951,0.1721160053230073,0.15466679656206128,NA,NA,66889.46159182454,21412.12235979077
144,695257.0,66352.0,"[1,2,4,5,7,18,36,49]",8,0.3389303643602424,0.22100293262346948,NA,0.6893479565124827,0.3136165058187159,NA,0.05823663012525593,NA,NA,0.3685415427431886,0.21592399071854018,0.7599327227082853,0.5871000679460913,NA,69258.35910461887,16473.14417546305
144,184032.0,28247.0,"[21,30,38]",3,0.4301869949084933,0.13018493016975974,NA,NA,0.37172245385042935,NA,NA,NA,NA,0.6164101542014461,0.22559871190880365,NA,0.8814809950171693,NA,71397.79586158924,15575.514866979793
144,38568.0,8406.0,"[3,17,39]",3,1.120940178930718,0.2859006244555111,NA,NA,NA,NA,NA,NA,NA,NA,0.33412643696847866,1.0606927250829705,0.5915286990250975,NA,77848.03484754199,20157.30014519808
144,18956.0,3293.0,[23],1,0.8875320193078664,0.11701631689175596,NA,NA,0.2546832429837411,NA,NA,NA,NA,0.4863329300485316,0.2350658314517875,1.2532819168073406,0.43045879262502584,NA,80169.07870858785,17151.02764296259
144,39848.0,13516.0,[43],1,0.013981177549696522,0.05478293906843135,NA,NA,0.5701023537944176,NA,NA,NA,NA,0.44930015305661175,0.19045068568058676,2.1868955354848327,0.8429701555410635,NA,74489.71371210608,13690.722344910575
144,7239.0,821.0,[8],1,0.9404751864898533,0.6704933856886308,NA,NA,NA,NA,NA,NA,NA,0.913793723995029,0.7185539617350605,0.4626588857577051,1.0999580388175159,1.4289269524796184,78742.79209835596,30116.52217157065
144,86369.0,10842.0,"[22,25,27,40]",4,1.357498987900745,0.652318739883524,2.658170332700393,2.3838254007919564,2.2606891563755407,NA,NA,1.1464764631754463,NA,3.07194777238362,1.4397502084775744,0.5414433881832614,2.4267538191943685,NA,NA,NA
144,42401.0,8826.0,"[31,50]",2,2.1574023622556,0.5032866990637168,NA,NA,NA,NA,NA,NA,NA,NA,0.7326138572203447,0.35765894452960834,2.619139591825662,NA,NA,NA
144,68727.0,9323.0,"[28,41,48]",3,2.145942868988892,0.35377337162977707,NA,NA,NA,NA,NA,0.9411584437412,NA,NA,0.5502833170515204,0.23444714062886685,2.4561303971073865,NA,NA,35299.49533662163
144,61948.0,10644.0,"[37,42]",2,1.9804401338057926,0.4015818554594106,NA,NA,NA,NA,NA,NA,NA,NA,0.4844568585103701,0.3035971756634611,2.482370623974934,NA,NA,30880.26861238452
144,5750.0,586.0,[45],1,1.2431644158260926,0.1500924241739119,NA,NA,2.8625942492174006,NA,2.2047784933912955,NA,NA,NA,0.21754640904348,0.20956937304348044,1.7664352179130343,NA,73350.94539130427,20943.282086956533
144,20954.0,2879.0,"[35,44]",2,NA,0.3262190248162722,NA,NA,0.7996393466163991,NA,NA,NA,NA,1.091726907177624,0.7696556988641801,0.35457872019661907,NA,NA,NA,31299.207024911553
144,6156.0,1388.0,[31],1,NA,0.9951295857699916,NA,2.966177406432753,NA,NA,NA,NA,NA,NA,1.6564945810591292,0.9058070961663454,2.5360367191358084,NA,NA,NA
144,29001.0,9177.0,[47],1,0.7562397612151297,0.2629161906486073,NA,NA,0.4623984057101529,NA,NA,NA,NA,0.47172953415399643,0.5195745751525891,NA,0.6372942021309634,NA,55725.68780386878,18502.216613220306
144,5750.0,586.0,[45],1,1.2431644158260926,0.1500924241739119,NA,NA,2.8625942492174006,NA,2.2047784933912955,NA,NA,NA,0.21754640904348,0.20956937304348044,1.7664352179130343,NA,73350.94539130427,20943.282086956533
168,1295060.0,179334.0,"[0,6,8,9,10,11,12,13,14,15,16,19,20,26,29,32,33,34,35,46]",20,0.36885307250320043,NA,NA,NA,NA,NA,NA,NA,NA,0.5842850186616847,0.17783753044261852,0.1565682099593867,NA,NA,66680.17046932169,21664.622723271415
168,759692.0,64435.0,"[1,2,4,5,7,18,36,49]",8,0.3355654912793722,0.22640913183104816,NA,0.7437424691138124,0.33052487203894065,NA,0.07452595309677301,NA,NA,0.3746520938472435,0.2205890054877444,NA,0.5981305780434626,NA,69074.80164066501,16614.442779442048
168,206332.0,22300.0,"[21,30,38]",3,0.41905140161486987,0.12576117120466446,NA,NA,0.37375273847490353,NA,NA,NA,NA,0.6301951629606667,0.2298310558420451,NA,0.8925415519502561,NA,71307.73316790425,15814.796037454329
168,51929.0,13361.0,"[3,17,39]",3,1.04333878782568,0.27526235253904874,NA,NA,NA,NA,NA,NA,NA,NA,0.3549524013171932,NA,0.5874578571318513,NA,78863.3045889581,20791.912649964357
168,23327.0,4371.0,[23],1,0.8471257482316592,0.12194215779998707,NA,NA,0.23912013572253654,NA,NA,NA,NA,0.49281547185664454,0.24655365820722963,NA,0.40897380061731126,NA,81097.7397865132,17703.302096283183
168,53675.0,13827.0,[43],1,-0.014410718528178323,0.05375626360499819,NA,NA,0.5830124326967998,NA,NA,NA,NA,0.48147245928271853,0.19686428437819803,2.1644588541406455,0.8645056464834721,NA,74598.868598044,14091.029343269653
168,8059.0,820.0,[8],1,0.9305059915622336,0.642537354138232,NA,NA,NA,NA,NA,NA,NA,0.9157815485792292,0.7125601945650892,0.4890158542002778,NA,NA,NA,30192.75245067624
168,102289.0,15920.0,"[22,25,27,40]",4,1.3605543703623997,0.6392100005963455,2.651431713742429,2.48478405878445,NA,NA,NA,NA,NA,3.0869833711542927,1.4493328936151437,0.550197147269013,2.402547558368925,NA,NA,NA
168,52154.0,9753.0,"[31,50]",2,2.143777714345954,0.48723356189363054,NA,NA,NA,NA,NA,NA,NA,NA,0.7439126754419556,0.37505346034819664,2.6251795921693444,NA,NA,NA
168,77233.0,8506.0,"[28,41,48]",3,2.155757407312927,0.34533315326349934,NA,NA,NA,NA,NA,NA,NA,NA,0.57224928783033,0.23649160374451728,2.4499191797936057,NA,NA,36394.947030414354
168,72743.0,10795.0,"[37,42]",2,1.9597097038202984,0.39635674589995284,NA,NA,NA,NA,NA,NA,NA,NA,0.4988450213491311,0.3204220960229861,2.4839265395708225,NA,NA,31495.468704892763
168,6433.0,683.0,[45],1,NA,0.15598570884502116,NA,NA,2.847660670760147,NA,NA,NA,NA,NA,0.21203651391263545,0.24936130576714,NA,NA,74261.22058137727,20967.983833359267
168,23534.0,2580.0,"[35,44]",2,NA,0.3318605518823894,NA,NA,0.8198120780997624,NA,NA,NA,NA,1.1066536508880729,0.774971648508541,0.37561192194272086,NA,NA,NA,31473.25231579821
168,42156.0,13155.0,[47],1,0.6792146866875188,0.23589468894107535,NA,NA,0.4779964795284033,NA,NA,NA,NA,0.5042030457586105,0.551749219636589,NA,0.6857417648021659,NA,57554.300028465754,19069.52690008543
168,7829.0,1673.0,[31],1,NA,0.9611792462638946,NA,NA,NA,NA,NA,NA,NA,NA,NA,0.9459049098224626,NA,NA,NA,NA
168,6433.0,683.0,[45],1,NA,0.15598570884502116,NA,NA,2.847660670760147,NA,NA,NA,NA,NA,0.21203651391263545,0.24936130576714,NA,NA,74261.22058137727,20967.983833359267
