time_in_hour,cumulative_size,size,pcore_ids,pcore_power,AF700 CD48_[R 730_B-A],APCCy7 Ly6G_[R 780_A-A],BV421 CD117_[V 440_F-A],BV510 SCA-1_[V 525_E-A],BV605 CD11b_[V 610_D-A],BV650 CD150_[V 660_C-A],BV711 CD11c_[V 715_B-A],BV785 B220_[V 780_A-A],FITC Ly6C_[B 525_B-A],PE CD115_[YG 582_D-A],PECF594 CD135_[YG 610_C-A],PECy5 CD3-CD19-NK11_[YG 670_B-A],PECy7 CD16-32_[YG 780_A-A],PerCPCy5-5 CD45_[B 695_A-A],_FSC-A,_SSC-A
-1,0,0,[],0,0.0,0.0,0.0,0.0,0.0,0.0,0.0,0.0,0.0,0.0,0.0,0.0,0.0,0.0,0.0,0.0
0,119927,119927,"[2,3,6,7,17,20,24,35,42,43,46,47]",12,0.2868423952571173,0.14254348783844106,0.3366524040874883,0.5742791745061613,0.30215023740274516,0.2253975306978402,0.00288290675994185,2.561329897737779,0.7878689245124112,0.36212019990494204,0.18129217494808714,1.008320306252969,0.6221354250002075,1.1528433426584537,69779.06599848243,13780.930065790006
0,134252,134252,"[10,12,13,15,18,19,22,28,31,33,36,37,38,51,53]",15,0.244520227482647,1.939678480693022,1.9021356918332661,0.6795152525623456,2.6678499423546804,0.19950731440872338,0.21156849170216185,0.6555001875949742,3.797609006949616,0.5502042192816502,0.12774891341655836,0.13572243293209685,2.030516203915028,1.581728455978307,66859.8473318833,19063.466317075334
0,26016,26016,"[3,6,7,17]",4,0.26398124811654555,0.18187047140222878,0.7508012568034985,0.5359084116697499,0.3299250761070027,0.26125519799353913,-0.007616477629152296,1.4046344122462928,0.9077093415590379,0.38051749742465857,0.19010221340713684,0.5676854321186953,0.5043090861393008,0.8042992105627318,70282.64944649447,12665.210332103368
24,137607.4375,130112.0,"[2,3,6,7,17,20,24,35,42,43,46,47]",12,0.2708564929057702,0.12877461161301618,0.39061848670108157,0.649610228321142,0.2523392992334581,0.2624439593390433,-0.0028607750112499275,2.5001353961000516,0.7750541432099144,0.33159796478206605,0.16418573297364691,0.9720649518053861,0.5479448501366434,1.1386112116518954,72702.49069204566,14875.652371624155
24,19478.75,18596.0,"[50,51]",2,0.41545175068985585,0.5826565914522219,2.0985298858114514,0.8622445391259701,0.9422999968074306,0.3038016937046826,0.18866127764871798,0.7963040655361575,2.256292665686956,0.5477652174837983,0.3121271699030945,0.23224106878650008,0.8003145253770126,0.7002434211865469,62049.53213116851,23915.888442533524
24,129013.75,120797.0,"[10,12,13,14,15,18,19,22,26,28,29,31,33,36,37,38,53]",17,0.33083886117080574,1.7428826674138382,2.0455559338311775,0.7513842729171327,2.6506106844096045,0.24681043482623033,0.21463538814468253,0.7423822273643337,4.033834332337148,0.6153573176279673,0.09203923172190853,0.14725598543420737,1.9582899889391632,1.5535427768919963,67209.98051758055,22526.296398639657
48,120203.1171875,112115.0,"[2,3,7,17,20,24,42,43,47]",9,0.2339656978950131,0.1520432792374682,0.28983665275068304,0.5734427357446172,0.22828203876430297,0.2690357650765183,-0.023214752109799175,2.408805569909398,0.7705872243829611,0.2869587108187447,0.15616527575223138,0.8170117081491108,0.5451350504534714,0.929823477588912,68819.83732872971,15332.609040205945
48,28819.4296875,27162.0,"[35,46,49,50,51]",5,0.5647168476221966,0.5038610522584501,1.570740474119289,0.7780793237096995,0.8247634632820184,0.2793623317195677,0.15946834545244082,0.6799112416067499,2.8592853983422475,0.802929440679803,0.29380111764077066,0.2538450924468545,0.9321717944275597,0.8046033682133655,59408.926410594795,22568.212089988163
72,141912.70922851562,133428.0,"[2,3,4,6,7,17,20,24,35,42,43,47,50]",13,0.2631764140439594,0.2502711614989481,0.3693565528145353,0.7724215359314872,0.3565886018632014,0.2676761912903156,-0.035224901122617336,2.4441169672177114,0.8508826495616347,0.33545415555603897,0.18445948795658973,0.7731865393499666,0.6453730653029127,1.0711998521007293,70095.89833206116,17807.884640876287
96,106801.60189819336,98431.0,"[2,3,17,20,24,42,43,47,50]",9,0.4229890577318842,0.20504650371715627,0.49467143956271453,0.8430843814805837,0.3309957538972501,0.197766374038864,0.14343016757636473,2.7809096567854352,0.7914906334744857,0.4191473945410825,0.24277965244162214,1.1298351441069412,0.6802455021322106,1.1775177369388772,71028.34122565362,15513.634176506665
96,112225.57395935059,106106.0,"[10,12,15,19,22,26,28,31,33,36,37,38,53]",13,0.3125934132311128,2.430052455605048,2.0481630682024696,1.0757123800653905,3.200870329194944,0.17858605353527035,0.6224610376443831,0.9684325039239252,3.753005124914963,0.5779428211133276,0.1377838104119964,0.15612563394679513,2.4149406117692562,2.0085910039098294,68818.68190231499,20383.26688406181
96,22626.324951171875,20888.0,"[3,17,35]",3,0.37491116215149467,0.22391084294563957,0.8150217544925775,0.7794240923234637,0.4051448646788183,0.03296250015498248,0.2068079699100802,1.9603620755337028,1.0381058350107422,0.4193011889926841,0.23750988128148443,0.8509699151697017,0.5986175202073961,1.0535690009854595,72997.1757181822,14931.39878227304
96,28650.14910888672,26774.0,"[12,22,26,28,31,40]",6,0.47940049747526325,2.275043279960234,2.2108679432789677,1.1587762380680853,3.3141732219667603,0.8741675266235911,0.4501812359817201,1.202489981988744,3.9039156565024373,0.6522330458433997,0.22765405838164154,0.153644875182114,2.4869834284452277,2.051589608570223,71175.70460608919,22551.996595257235
120,90243.57400417328,84061.0,"[2,3,17,20,24,42,43,50]",8,0.37071091368912445,0.25518583006210793,0.7462601563044227,0.7979415785159505,0.3605283105922634,0.26095001497526127,0.12734403711361164,2.366863114177982,0.8404811993804967,0.4204481642896476,0.2823136562139834,0.9151535800513306,0.6167227125255702,1.0571959508424438,69179.7490673658,15544.557987180728
120,125769.56459903717,120292.0,"[10,12,15,19,22,28,31,33,37,38,53]",11,0.1392488682003814,2.5523746644231906,2.241510657955945,1.1562582164599937,3.383423709800445,-0.20248787995704642,1.026091324219618,0.9525928607949323,3.8061132535549382,0.42087941358536274,0.10449143142650863,0.1506048725911937,2.5140445655680175,2.1209836922800416,66302.25165177719,19040.550921441856
120,62453.98559474945,59732.0,"[12,15,19,22,28,36,40]",7,0.5451592938444489,2.471225342901188,2.201585269982331,1.142903802460122,3.2965326510996253,1.0700950565374046,-0.20066295782362653,1.1080140118588506,3.818574144458464,0.5381236536697561,0.24297836276238005,0.10979598056137962,2.5004266788995557,2.1238681155798167,66982.15799248833,20075.874845275914
144,109264.42969626188,101146.0,"[10,12,15,18,19,22,28,31,33,37,38,53]",12,0.1785788582009118,2.5683286040268225,2.178557958041147,1.3580858898845176,3.382474429974533,-0.07870932242149498,1.0872370531819735,0.9417299910027244,3.6677345984554104,0.519224614808072,0.024270233496555438,0.19956612660275908,2.5249950442348523,2.110189824421325,66150.10050094873,18240.78996672178
144,55986.2060084939,51825.0,"[12,15,18,19,22,28,36,40]",8,0.5018313175280795,2.5062048830983557,2.139440399195179,1.297366905370883,3.3029114511545727,0.9174416674902488,0.038428283603329394,1.0071335495263156,3.664682958689245,0.5897160057104677,0.1394800393997322,0.16097253012783974,2.510743512300121,2.09344765050182,66736.58745569414,19061.665193312612
168,108112.76707826555,101432.0,"[10,12,15,19,22,31,33,37,38,53]",10,0.210298259819363,1.9394124729246096,1.984807816118345,1.4896293286159872,2.9188060100780153,-0.12144924741946395,0.9267308148859015,0.80516882336669,3.498179595297539,0.6412178987073452,0.10850000107373292,0.18574820058069996,2.0778471365747944,1.6768380457354144,66808.11501168614,21984.190990978117
