time_in_hour,cumulative_size,size,pcore_ids,pcore_power,AF700 CD48_[R 730_B-A],APCCy7 Ly6G_[R 780_A-A],BV421 CD117_[V 440_F-A],BV510 SCA-1_[V 525_E-A],BV605 CD11b_[V 610_D-A],BV650 CD150_[V 660_C-A],BV711 CD11c_[V 715_B-A],BV785 B220_[V 780_A-A],FITC Ly6C_[B 525_B-A],PE CD115_[YG 582_D-A],PECF594 CD135_[YG 610_C-A],PECy5 CD3-CD19-NK11_[YG 670_B-A],PECy7 CD16-32_[YG 780_A-A],PerCPCy5-5 CD45_[B 695_A-A],_FSC-A,_SSC-A
-1,0,0,[],0,0.0,0.0,0.0,0.0,0.0,0.0,0.0,0.0,0.0,0.0,0.0,0.0,0.0,0.0,0.0,0.0
0,101716,101716,"[7,17,20,24,26,40,51,56,58,63]",10,0.33019036289275494,0.16925076890557866,0.5074379994789564,0.5762051248279509,0.3678503594517979,0.23874150082582934,-0.005537828237448306,2.4746004702996576,0.8748274770340961,0.40450601851232804,0.1871587761315765,0.9895603720260362,0.6691060486649064,1.1937455031951663,69851.99889889505,14411.960517519345
0,6680,6680,"[17,20]",2,0.42578015613772346,0.20368385089820462,0.8864200479041937,0.6354610788922059,0.47417863667664895,0.22522006467066435,0.035876952395210715,2.5955269568862187,1.28394254880239,0.5377787118263481,0.21022296526946294,1.064163555389224,0.7377686579341306,1.3785005790419111,71059.3245508982,16916.052694610826
0,50084,50084,"[54,55,62]",3,0.17547004352687035,1.8000170707810925,1.8095677202699432,0.706517522621994,2.581353209388229,-0.3194345440460076,0.47296076389666286,0.7082604048997938,3.7636326748662143,0.5662717965218463,0.08730879815907455,0.20459517909911273,1.9611619716276594,1.6332552707052264,67490.03178659832,19757.959268429004
24,178308.5,124613.0,"[7,17,20,24,26,31,40,51,56,58,59,63]",12,0.3290993916694982,0.1758556995235745,0.6425758647456599,0.6680685531452517,0.34566150957189556,0.2796506303232873,-0.001669585521722805,2.361800838880386,0.9375453597557061,0.3974589776595093,0.19222254776131198,0.9305732151580013,0.6177659716025837,1.1555106525488155,71860.26680724678,16228.50392437819
24,8046.0,4706.0,"[17,20]",2,0.4152554397837456,0.19432338043748887,0.8674626966194481,0.6921129412751625,0.4396921664802358,0.2684798785732039,0.04540359395972615,2.556872718493665,1.386599504847125,0.5007788737882185,0.20886516355953466,1.0054453416604492,0.7026362475142897,1.3376974803629091,72195.77429778769,17900.333084762657
24,149646.0,103495.0,"[33,34,35,36,37,38,39,41,45,46,48,49,50,52,54,62]",16,0.3724887162837629,1.5667865184134526,1.9945737224449682,0.8279040738509593,2.503512934314989,0.20347584224436321,0.2212305261015972,0.8271424995856997,3.963389213122969,0.690728129408743,0.1534804479638634,0.21573071584940473,1.900003819126467,1.6061526473611072,69791.25220854534,25112.26227229593
24,58249.5,41056.0,"[34,36,37,38,39,41,45,46,48,49,52,55]",12,0.4835553289212804,1.5576329044541142,1.9395306538339372,0.8513938835097306,2.3427534899870346,0.772488715946062,-0.11263222965861885,0.9006366538253454,3.8035094900042066,0.761820605395756,0.24842635186569018,0.2243785125709229,1.839182095254042,1.5744026203143384,70303.00153649374,26342.98869518192
24,15304.5,9943.0,"[26,31,40,51]",4,0.40871683272893855,0.29545168751020556,0.9186707931980784,0.6906537358946734,0.50374494625764,0.3079715959685072,0.05403153993923793,2.036782062432615,1.5286418679800096,0.4755829786664053,0.24221012842627987,0.7453629756934235,0.6991638430853658,1.032681598059396,70406.26011957263,18206.14433663304
48,223248.25,123525.0,"[2,3,7,17,24,26,37,40,51,56,58,59]",12,0.30128125313748555,0.17105296539165904,0.6175930464527659,0.6167494711772639,0.29769229261930974,0.28909621255597884,-0.0038129128907069543,2.288214392632435,0.937362013286778,0.37603205122324634,0.1809469598820943,0.8183764863688752,0.5949954150178097,0.9706235580715641,69336.96729089697,16401.384413987435
48,630.75,13.0,[3],1,0.7463015192231446,0.3700432675386436,1.440354155766943,1.1023407166072166,0.8866589274673009,0.37092603804993907,0.35151526159333857,1.931086693618706,1.9066152009512511,0.9010162524772091,0.3992063674197355,0.7506797800237821,1.0100028561236623,1.6190138680142687,71869.41260404282,22883.614744351944
48,137976.5,86202.0,"[23,29,31,32,34,36,38,41,43,45,46,54,55,62]",14,0.22801771056121556,1.4919064926708523,1.671108585536286,0.682460358869077,2.0896338261117138,0.17961010763608587,0.18461062763224367,0.6767443243106648,3.537813969043643,0.46973928016184074,0.14903812421498008,0.1638347159606891,1.5775573202085136,1.1868884001387945,64155.98702677639,20543.062680963714
48,8359.25,4605.0,[17],1,0.3269652362652211,0.20646261339236416,1.1013270151628345,0.681100882136549,0.4299894387953529,0.14730519894129857,0.06187885806141713,2.873833135867459,1.3695799294793134,0.44610520537129494,0.1818627267099444,1.0383129930017634,0.7051273233842742,1.3753845768460047,71985.31734306316,18467.553428836392
48,29787.5,15226.0,[33],1,0.16095048167854697,1.7622628794460415,2.3545966057994048,0.7675838917079245,3.1922504732606183,-0.673214516181284,0.8453753433822917,0.6755460904406307,4.364690515451126,0.4179915683592139,-0.02827907227865012,0.14641076084767446,2.3019424086529803,1.7236841162316325,69285.3257238774,24433.824389425048
48,29025.25,6479.0,"[29,31,32,34,36,38,41,43,45,46]",10,0.39620672622974484,1.601549366095028,1.8136841753214843,0.7565456480995043,2.2078453101954403,0.6415948388472104,-0.0861574682560815,0.8470716438187402,3.5622910122824094,0.6325200290609064,0.21689366214761518,0.20076798675291174,1.7700031059508552,1.4424543307292805,67173.65163090751,23100.779080283588
48,2236.75,741.0,[26],1,0.5184208004917827,0.6127323733094836,1.548183081368054,0.9764458758243011,0.879222903431319,0.45770551659774084,0.09418737643902686,1.2356462893707487,2.29215357572371,0.60687666390969,0.4089971243992343,0.3793985772884745,0.880504247457249,0.9853657078350244,65823.6602213032,22282.751313289325
48,19014.75,13070.0,"[37,40,51]",3,0.5581298362061038,0.2704578333793499,0.877763021325551,0.7292604188853469,0.47552950392459126,0.5103217066093442,-0.005361451925478988,1.924590622871711,2.532091495615252,0.7527434179650011,0.26494395723057096,0.5703716192824027,0.8662875473513941,0.9811408000105184,67898.69548639866,20633.46149699574
72,269068.375,142862.0,"[0,1,2,3,4,5,14,16,17,18,21,23,26,29,31,32,34,40,41,43,45,46,51,55,56,58,59]",27,0.39170133861094736,0.6924092616184301,1.116841454108077,0.7897558727595797,1.0054641607268016,0.4608358612824752,-0.02913512384397876,1.2855819028388193,2.209592794935933,0.5197294311933699,0.25816112011537484,0.3549142005503234,0.9547530075594205,0.9112319960929907,67626.5705027578,21357.690185626503
72,95755.25,57657.0,"[1,7]",2,0.2676459700838876,0.17219587374844458,0.2539662508087339,0.5589121484396511,0.2682567963127238,0.20567438412124406,-0.0502239347333453,2.8085883831904264,0.6297802172191583,0.2913310159886795,0.1410085939099721,0.8872834572242854,0.6374351110826831,1.0708419771670312,70938.50908435826,16580.296620811678
72,52122.5,24053.0,"[3,20,24,63]",4,0.2416481888196187,0.1286147349153599,-0.002143756786916917,1.1312777385126558,0.26913309281981235,0.2995063261643187,-0.05649398525589566,3.5702809679529786,0.9054127940213111,0.3527416243488992,0.1775691820782792,1.4861456471413579,0.7186624741690056,1.9303190043311498,74034.06175835773,15819.317031991948
72,4463.0,0.0,"[17,20]",2,0.35151774448241646,0.2034803806296348,1.1060436151131445,0.7024768911886561,0.4416598113096639,0.14799563785570813,0.09144945725967979,2.833570174826356,1.3826237074837495,0.4546843788090966,0.185942037866917,1.0490546396482177,0.7082434070972433,1.4361957249047685,72489.88214205697,18648.283217566728
72,145557.375,106559.0,"[36,38,39,50,54,62,64]",7,0.3414904686880229,1.733749122668998,1.7056899157737937,0.9516894376521763,2.5969451962138836,0.0835437384304587,0.2790711903965719,0.7078024857465861,3.694538633993958,0.6432288101367206,0.23220357148771775,0.1552449415634124,1.9555397564010373,1.58724728028123,70050.3736894121,25110.606233452454
72,11433.25,0.0,"[38,39,41,43,45,46]",6,0.5363731993964991,1.8928288821529335,1.9792312576476596,0.7856878967485059,2.677359319616025,1.1622457448450791,-0.45006183428817037,0.9833037253952273,3.8328778023855867,0.7014707755559463,0.24578969511075677,0.15885201133754878,2.0825417962302977,1.6971658865917385,69130.39004657467,23992.87831543957
72,40149.625,0.0,"[4,5,14,16,18,21,23,26,29,31,32,34,50]",13,0.31069038043941477,1.2588852655566614,1.6475299411575954,0.7498293766068844,1.8989135762164744,0.3054033095670279,0.15012034984759914,0.7660859839008478,3.4170271529061513,0.5395601343785884,0.20314845325143027,0.1976698336503776,1.4368602751987085,1.1467832656126906,65122.3618651483,22049.501284258567
96,183390.6875,81730.0,"[2,3,7,17,26,31,40,43,51,56,58,59]",12,0.3581748663907707,0.241545768818344,0.6107634580739871,0.679223202778847,0.34473339377098666,0.25214662796060194,0.04909674610114134,2.318874231590592,0.8591099514083832,0.37309092974936997,0.20911377692434874,0.8049785441807669,0.6263580461937269,0.9433128973635818,69974.1027362685,16664.21845983853
96,54931.25,28870.0,"[3,20,24,63]",4,0.3663857575036973,0.16114439096712685,0.13644107711798847,1.3526115705142887,0.34495396755490715,0.2993220777744907,0.09096886445784858,3.6049044401149235,1.0136803453806116,0.4529679547536717,0.23586147598019735,1.6240943639834025,0.775274899823634,1.9640805957196654,74280.76717715341,15808.754251905768
96,216471.375,98095.0,"[23,28,29,32,34,36,37,38,41,45,46,54,55,62,64]",15,0.49062012462646654,1.689970023517274,1.7618853884578223,1.0482670042609605,2.4487953705605405,0.39808389032007696,0.24987520509956518,0.8700098200905138,3.691897396906675,0.731058429360751,0.2776503168135318,0.17783273815417844,1.9398383158249528,1.6035746360612928,68907.27079273167,24197.575813430343
96,3988.5,1757.0,"[17,20]",2,0.5302768423749538,0.29709731938699235,1.3241774218691313,1.0315572600444929,0.6009283294314898,0.21954691158957118,0.26675230985958986,2.5772602612824436,1.5628495994108023,0.6057133807979195,0.30089436091262955,1.0045091626864695,0.8313321927886462,1.4830281326626513,72613.02344239686,20125.078600977868
96,33596.875,26150.0,[33],1,0.1421042276476585,2.395547150512501,2.2183093039103245,1.0549665539298636,3.4355690289070586,-0.5049188424872129,1.0550808000818135,0.9017661623365427,3.9506561521644534,0.5073219354367006,-0.029133426230132375,0.14261367394103042,2.550219309874438,2.069224889191682,69119.98452236986,20919.84626546365
96,12236.5625,1250.0,"[28,29,32,34,39,50,57,61]",8,0.6285671133590409,1.7031262144035546,2.132593515003704,0.9689975510892008,2.678514082764249,1.0566853157443108,-0.21414558352785518,1.0100289252496353,4.000945218336441,0.8546888401307567,0.3181728614500634,0.19958569962969608,2.1245848913859615,1.771034996016039,72632.32496871566,28568.982506320695
96,7741.5625,783.0,"[31,38,41,43,45,46,39,50]",8,0.6356070833730267,1.777030446058213,2.1137721818269974,0.9078760969523194,2.76185654411657,1.2270172537762878,-0.41291794367256296,1.0559563575909268,4.005010696879667,0.7717147481209393,0.2850638826545069,0.16893308836233178,2.1542074218867344,1.7593959900052487,71526.28374439912,26512.692754208176
96,2455.0,545.0,"[26,37]",2,0.9864906483197566,0.5483775774694513,1.4208745654786172,1.083559795442972,1.0075940090886006,0.6752828095468464,0.08950182660386918,1.1832667224032667,4.449660318635451,1.3654504984470504,0.42105425193482926,0.25346302163951107,1.465871608961299,1.0557240098268825,66038.76008146632,26057.87861507127
120,172590.34375,80873.0,"[2,3,7,17,18,26,31,40,43,51,56,58,59]",13,0.377929437489698,0.2805590759877399,0.7596326954819435,0.7724143315607934,0.4094781547252868,0.2582054589949463,0.10563801189614885,2.237787918139989,0.9224168374891027,0.4147852857351404,0.25270367305528385,0.8152593979555169,0.6494511272652249,0.9861174849936309,69454.33175197514,16462.108483401073
120,46580.78125,19186.0,"[3,24,63]",3,0.3769852063062453,0.15253484200835077,0.21726611269738072,1.4000957564808805,0.40465347114991346,0.29442345008905635,0.1329026508431279,3.4882437945927256,0.9925068296199341,0.48429562404290094,0.2561262765692609,1.6086723289862754,0.779678522142644,2.021278064808122,73174.5891445309,15195.763252682646
120,4828.40625,2905.0,[17],1,0.5979630788950783,0.3520967479952639,1.3794841526513029,1.1957946428233899,0.6654719002841154,0.26018705251473806,0.27645449417834156,2.608326054301047,1.6124012394747194,0.6301085931305007,0.37230476646020527,1.0654874465759256,0.8869637566743714,1.614865820372918,71141.2392028944,20042.263428020397
120,230389.125,141711.0,"[33,34,36,39,54,62]",6,0.34572847914480054,2.2781285013535886,2.0503213048198945,1.1657668019285707,3.0959284442047292,0.2055128198972187,0.583099281446668,1.0698899629867968,3.7737309521157774,0.5829619628114223,0.18100483481344298,0.18634841961113902,2.3680303808613608,2.047382626053721,67957.64312226094,21272.082890197285
120,43468.28125,15595.0,"[34,38,41,45,46,50,55,57,61,64]",10,0.7438618996473703,1.4124293331790008,1.924597554519274,1.2518951694935678,2.2941326642436874,1.0071037881228058,-0.030918912037866786,1.0609413859602856,3.8344857923996023,0.8805467501360541,0.42761035756314847,0.22059764349291844,1.9006463449167166,1.6324451905340347,70744.8826493455,27919.44132826737
120,50.3125,0.0,[38],1,0.5725746664596267,1.2370883037267113,2.336286029192545,0.9477627906832273,2.1409958068323003,0.7597410254658401,-0.07307251242236079,0.8251339403726656,4.306442248447199,0.833157283229813,0.32325957763975177,0.2146818074534158,1.8142461372670797,1.4820753397515511,72564.71055900623,31494.837267080748
120,8597.65625,7055.0,"[41,45,46,50]",4,0.8600165859191213,1.4734905352984904,2.5564213589095997,1.484468116634242,3.238226348688785,1.4609604659990973,-0.003382166011806742,1.3263893808668739,4.247959363551102,0.8682533421099506,0.4421070249595611,0.20874714284779727,2.4282792812103584,2.094250283918217,74979.23169468407,30710.444139936284
144,160286.171875,73991.0,"[2,3,7,17,18,26,31,40,43,51,56,58,59]",13,0.4327892195709424,0.25787254815523397,0.7744124862267259,1.0676582321474948,0.41487863637380196,0.27184479183277976,0.183596662393688,2.4005568315073313,0.9498471270762342,0.45289021144223707,0.2659675254144389,0.9583036736885138,0.7057438552153016,1.1043332996093274,69270.47336721442,16096.6757070727
144,50286.390625,26996.0,"[3,24,63]",3,0.39231712076608694,0.10638084954613092,0.1956874380919551,1.758712960736465,0.3972720369974385,0.3023791254601236,0.1899271520291963,3.543118759744851,1.0434042778712138,0.511418221496918,0.25032583773006545,1.7155151240031743,0.8084966315401491,2.1209490624706087,72864.60991651245,14904.329316238263
144,331618.265625,157991.0,"[8,9,10,11,13,14,15,16,21,22,23,28,29,30,32,33,34,36,38,39,41,45,46,50,54,55,57,62,64]",29,0.4395012255070778,2.121973975224959,2.0453619217252723,1.377424829589394,2.9718860501223126,0.3899494572534492,0.5831007543748092,1.163990872032028,3.7162934036123505,0.6778903524952354,0.196808060658495,0.25663856181059297,2.3055024946608786,2.0402254256276584,67889.33637768448,21686.40662312745
144,4662.203125,2248.0,[17],1,0.633923307385525,0.3518270020276155,1.3600643322932782,1.4711120199342416,0.6655384321689364,0.2756754980008833,0.3591582228124448,2.7506058488844873,1.6487541374752377,0.6692622678521757,0.35852002665384575,1.2200844651469085,0.9545420070312799,1.7041113651606457,71477.93115513388,19705.98975135816
144,27986.421875,8265.0,"[9,10,11,13,16,21,23,28,29]",9,0.5610304640375285,1.318471115350024,1.9717749072518962,1.3371536269848474,2.3098926117257625,0.41294148888104987,0.4967949626643615,1.1270374261374476,3.564797824754305,0.7002932881793672,0.31128065327437904,0.2885077388722531,1.81562473127816,1.6018420484235942,66444.13359826847,23379.569275502407
144,22145.578125,2459.0,"[15,30,32,34,36,38]",6,0.7705623761960172,1.8485009001373918,2.103512942110292,1.3553631639979185,2.817418426347811,1.150491087199257,0.02239992980892902,1.1832391578750476,3.8432676689957215,0.9337101147851808,0.4093397919421178,0.2291157341879092,2.2917249399054893,1.994791119039698,72502.54452320843,28586.142498819976
144,9490.609375,5180.0,"[14,41,45,46,50]",5,0.8892502559915381,1.4922547927902525,2.4668626990726117,1.6701693642169322,3.200086212598294,1.466797705467078,0.07159788069786233,1.3911676167840348,4.133246467941172,0.9554292141162531,0.4013969913219979,0.2712822498604691,2.4016714890294586,2.126011070732745,73748.06383283468,29963.44173105312
168,164088.0859375,83945.0,"[2,3,7,17,18,26,31,40,43,51,56,58,59]",13,0.37590453226683684,0.35313262133363565,0.8868685313824276,1.2820006207092898,0.6325239410743682,0.3129726743846417,0.22498148592651335,2.1412420112278783,1.282443632451849,0.49085121722088865,0.2711182025111629,0.8085089465494266,0.803915749401987,1.1105022452369893,68195.10481865298,17620.120948947173
168,49526.15625,23977.0,"[3,20,24,63]",4,0.3085247008894243,0.09723705408267369,0.19983382418112905,2.065950452128042,0.4237237889530725,0.3072908556545384,0.3175628949141225,3.6081252042703786,1.1647549115932687,0.5427087225615236,0.25684849359887396,1.7096393276168196,0.8242562925043627,2.1379080759362044,73845.17905122103,15570.905303195212
168,363770.765625,195543.0,"[8,9,10,11,13,14,15,16,19,21,22,23,28,29,30,32,33,34,36,37,38,39,41,45,46,49,50,54,55,57,62,64]",32,0.4512810213887477,1.7405635141551095,1.9056520299271784,1.5673223693471208,2.6396017620272736,0.3924435042333474,0.5629970984970347,1.1178746803549564,3.6389410587080335,0.7898486442945957,0.24635973170701853,0.2677816822022713,2.050325951926892,1.8142350496616422,67946.39831772473,23999.47889985156
168,13938.6328125,12781.0,"[9,10,11,14,15,16,18]",7,0.4397925962603937,0.9913599255452832,1.4637397925420839,1.642690900878574,1.7648352790899873,0.8106175993475946,0.1432750402747458,1.1195360754316352,3.3987158387081524,0.8194502872591608,0.38639779039483857,0.2927293169120192,1.4385045420170375,1.3423046297672008,66559.45722797199,25770.24930148607
168,9049.0625,6312.0,"[17,20]",2,0.4249816436483409,0.26030489183790007,1.1054294768536015,2.154437529049099,0.7312644616215405,0.12836694117311853,0.6299177012518595,3.2751044706305974,1.8855162798528888,0.6619218068903868,0.3264839179818426,1.4825633711140647,1.008695323009118,2.013838817379215,74935.91325068203,19226.05811375485
168,15343.125,2234.0,"[13,21,23,28,29]",5,0.5924950367331661,1.30012937927054,2.0286775329631497,1.4331279298820734,2.397200836161336,0.4624435935353801,0.5231733762856847,1.1251580594367359,3.6302180860172526,0.7462002218985501,0.3219385030087736,0.28506832890443556,1.8734292608924918,1.6290207423968395,67219.39285510627,24541.51546702505
168,31911.6328125,21101.0,"[30,32,34,36,38]",5,0.6060712395122354,1.151249842841648,1.7365068731778357,1.7505216773436199,2.035888640802028,0.8144694715416516,0.20028998656789598,1.1654448762204312,3.8618497468855035,1.027093572300359,0.43718879971596936,0.27991296503259167,1.7518754685771754,1.6126938646775772,68705.22286910952,30876.51806441078
168,34758.484375,31025.0,"[26,31,40,43,51,41,46]",7,0.3552869380133372,0.8136580301594654,1.3545942952473689,1.5393514474381926,1.48143137239625,0.37235405940297706,0.32634356186349756,1.195221439380132,2.67987476532326,0.6387998167340435,0.3066382143997668,0.3796357589214956,1.186584625995991,1.2277380944841267,64420.67520385101,22070.510058020867
