time_in_hour,cumulative_size,size,pcore_ids,pcore_power,AF700 CD48_[R 730_B-A],APCCy7 Ly6G_[R 780_A-A],BV421 CD117_[V 440_F-A],BV510 SCA-1_[V 525_E-A],BV605 CD11b_[V 610_D-A],BV650 CD150_[V 660_C-A],BV711 CD11c_[V 715_B-A],BV785 B220_[V 780_A-A],FITC Ly6C_[B 525_B-A],PE CD115_[YG 582_D-A],PECF594 CD135_[YG 610_C-A],PECy5 CD3-CD19-NK11_[YG 670_B-A],PECy7 CD16-32_[YG 780_A-A],PerCPCy5-5 CD45_[B 695_A-A],_FSC-A,_SSC-A
-1,0,0,[],0,0.0,0.0,0.0,0.0,0.0,0.0,0.0,0.0,0.0,0.0,0.0,0.0,0.0,0.0,0.0,0.0
0,166797,166797,"[1,2,5,7,8,11,15,17,18,23,38,42,48]",13,0.3514733581779097,0.31989691063988523,0.7332483061266091,0.6195572149079434,0.5423021143485904,0.25594477592522913,0.04526518752136921,2.1355586148611696,1.2739328397273355,0.44135264801525254,0.21859141028316031,0.8320018584806739,0.7581255378394088,1.1304089069527616,68511.43653662833,15295.698411841919
0,9,9,[21],1,0.3815097777777776,0.11925488888888891,1.017533888888889,2.6121582222222224,0.7469624444444443,-0.3999550000000003,0.4149142222222224,2.505932555555555,1.638575777777778,0.3026427777777778,0.13573355555555544,1.1891006666666666,0.39683355555555544,2.1156023333333334,64647.11111111111,21944.888888888887
0,152155,152155,"[7,9,10,12,14,16,19,20,31,37,39,45,46]",13,0.3859195171962775,1.7930264691597264,1.9492397106108856,0.7231296878972131,2.66837478216292,0.3452373076336588,0.1206217986132625,0.729415537215341,3.985240405816428,0.7138046167197926,0.15616708954683478,0.16455530157405263,2.090304285728366,1.6640218884690035,68542.35452006196,20956.851000624334
0,1880,1880,"[9,25]",2,0.9649715994680863,1.0647084962765927,2.7285566797872254,1.034848107446812,2.554575094680852,1.19000526276596,-0.30666208297872366,1.018519869148931,4.641686564893617,0.9715435978723422,0.38974081755319157,0.20877381648936155,2.1059988797872315,1.5563397297872346,75037.92340425524,32866.62127659576
0,4097,4097,[5],1,0.6345927202831381,0.1865197517695827,1.3129713070539375,0.6291679633878506,0.2566429070051268,0.6706707014888951,-0.2519756824505719,2.245141825726127,1.1381750585794523,0.5549462692213788,0.3086990849402027,0.8955631039785203,0.6804697322431074,1.0838266070295335,70752.67952160118,18480.066390041524
0,17541,17541,"[12,22,27,28,32,33,36,41,43]",9,1.7517961048970936,0.39386587167207976,1.8395073921099168,1.0050423526594856,1.72899790964027,0.5429217678011515,-0.006400948064534173,0.794661713471291,5.313966691294683,2.9249736965395305,0.5381847948235547,0.23431708876346902,2.319400852174904,1.8319298315945522,76941.31737073143,32014.411949147736
0,2333,2333,"[15,16]",2,0.6938448045435044,0.9337415460780099,2.0513199155593624,0.9474486112301759,1.7491347818259748,0.3115826459494213,0.21430384612087172,1.0831304303471971,3.528351624089155,0.8454201868838406,0.36887841577367864,0.2955623351907408,1.5797047106729534,1.4021958354050574,67493.58251178739,24497.680240034304
0,6601,6601,"[20,25]",2,0.6634716315709728,1.0696292717770062,2.828767970004551,0.9750927700348391,2.9529015803666083,-0.20066167414028202,0.6225942584456794,0.8979714291773964,4.796808119678835,0.8776362622329971,0.1805533199515179,0.21892995227995815,2.22985333676715,1.7303052505680967,76501.52401151345,28475.52067868502
24,196044.75,175194.0,"[1,2,5,7,8,11,15,17,18,21,23,38,42,48]",14,0.34929470826941533,0.29574966622289045,0.8124004254755599,0.70302346462669,0.5066252418471997,0.302821146306524,0.0287506681962979,2.115402609049722,1.2276881387655103,0.42664374149269524,0.20283616267141014,0.80743913711984,0.6935838802856208,1.1218068895303217,71348.54534997728,17500.78661122012
24,162912.75,143222.0,"[5,7,9,10,12,14,16,19,20,25,30,31,36,37,39,45,46]",17,0.40696072482279644,1.5147692729459452,1.9689384943482007,0.8290295275185549,2.406028241702249,0.371321846717801,0.1347670718989158,0.8733235591597412,3.8729039079760423,0.700116608675501,0.16314691759238809,0.22245821579418967,1.8393249327891823,1.562499885124091,69487.53906615666,25209.247379348653
24,1304.875,1187.0,[9],1,0.6140057721046075,1.2565716672095046,2.024940277038031,0.9546282438930946,2.2030271457994,1.0401816950857368,-0.2368801234792648,0.9185277334035784,4.021685590382218,0.8871421890027794,0.30745643356643493,0.21079252093112366,1.824587471022126,1.5108916671137098,68782.67420250985,30063.740971357398
24,7790.625,5813.0,"[13,22,27,28,32,33,34,35]",8,1.6251551453509838,0.45517272593662517,2.1567479551383886,1.2123683586522254,1.7603975590373038,0.8003856589330105,-0.05481684824709099,1.0424882816686711,5.270721941869233,2.679889796309666,0.5739722174889668,0.2874355282631368,2.20514776468512,1.8372351533253133,80344.42628158841,42891.70432410751
24,3292.125,3288.0,[17],1,0.7696057344040701,0.16000289657136202,1.102772373125262,1.1909732691650485,0.6269787077875195,0.4157518608421611,0.1361138756502216,0.9179490304514575,1.189656397729431,0.7638162975661623,0.2293261556365569,1.0219743060333346,0.6249915785396997,2.1465876319626394,78742.6892964272,18850.793332573914
24,10210.25,6950.0,"[14,15,16]",3,0.6461576196224392,1.2738602866604762,2.122486973090768,0.9279201285105749,2.250937649653531,0.8492841886951756,-0.1411740053010484,0.9580149739354997,3.998584096275805,0.861343825432778,0.3080014898876158,0.2313292359148883,1.8199588216865488,1.5361359692343521,70832.59978942732,28276.844935236633
24,9869.0,9317.0,[43],1,1.7505802376887118,0.4330113678817513,2.001452586102943,1.0277543144695533,1.9161526511804667,0.09302068117336848,0.3199728648546034,1.10339539872328,5.720240455327319,2.735636910084616,0.3706348257675578,0.2590112804868788,2.342754216903936,1.843356187240354,75259.0762995237,36022.904042962655
24,8328.25,7761.0,"[21,25,30,28]",4,1.2186922303154935,0.6676050967490212,2.2741596490709326,1.102763166331457,2.016903207321469,0.834933729685104,-0.025285025170353137,1.1341312511482036,4.728903148440547,1.6269399033560483,0.4231766133041144,0.28882951930177414,1.9835731193828248,1.7051601409659913,75420.56974754599,35826.94851859632
24,1754.5,1594.0,[23],1,0.5974283198204617,0.28864551909375935,1.286251725847821,1.021753260473076,0.6321680812909691,0.34316740973211557,0.23733772435166411,2.3158432543459755,1.7378132643915625,0.6940555991735539,0.3215295527928186,0.896671200341977,0.8235413248788851,1.5253841154887449,71614.2353946993,21164.625819321755
48,162750.96875,145058.0,"[1,2,5,7,8,15,21,23,38,42,45,48]",12,0.3291869149702602,0.3745222260338834,0.9333085377253969,0.5712360461391262,0.5524159560013158,0.2854705810505973,0.036775997778428327,1.6072091979960401,1.5344818844922372,0.3910709071556002,0.19460018849686067,0.4827563560315773,0.6983905923134893,0.722595953408208,65860.02846142813,17941.66532111653
48,42761.03125,35923.0,"[11,17,18]",3,0.25045011434878384,0.08943778581478234,0.0024407670487840427,0.8608937015894242,0.21731897869373462,0.2981762470210554,-0.05508438442675345,3.4557010260934318,0.7655340125946984,0.3031758587743808,0.15097771532965742,1.4468835848162027,0.6492381600738267,1.7826074004328503,71943.50660100172,14596.800843057206
48,93066.84375,79837.0,"[4,9,10,14,16,19,31,36,46]",9,0.36617939341581995,1.4968689595263989,1.8569561548574653,0.7434714151977091,2.1736363198163446,0.39336490029528104,0.1486212244141365,0.7189184377989002,3.9004854079607987,0.5159770912934188,0.17269143973401269,0.13548813507260726,1.7453009023610107,1.2464682996040477,64192.664748018935,22395.625423796453
48,3818.375,2967.0,"[5,7]",2,0.4837882518250587,0.3128573042279088,1.3737747572715833,0.792765306593127,0.4673697254231195,0.5310218848004706,-0.08616619460994945,1.8629113316651376,1.4405299114029226,0.5359411949864165,0.2889870191753632,0.6120645270157479,0.6864814093118813,1.1447317843200642,69514.15091498336,21914.79595377619
48,41430.34375,35219.0,"[12,20,25]",3,0.36881997534453426,2.1433037511406567,2.1741096762698846,0.7108150784196581,3.2861520323936015,0.4608832786635142,0.006402060857787273,0.856039485235395,4.143395936284261,0.4743076216956017,0.07028607786186214,0.07931614878625304,2.4583086444717885,1.8314261769196916,68089.09175415669,22591.823052397358
48,3508.515625,3097.0,[17],1,0.7518889874679915,0.11231478240441906,0.7136673120443575,0.9969882933665928,0.1952041740720163,0.4454912461332916,-0.17695904842680932,0.42712478756151073,0.8600104635551901,0.39389639174775737,0.17004703756040174,1.2925244068939419,0.29605163923489486,2.309621066311881,81982.6427308558,17262.10696296954
48,4836.015625,395.0,"[14,19]",2,0.4616211385308868,1.6035811869178311,1.9113079082664428,0.8027864611169555,2.379488917342228,0.9040985009773663,-0.2019606009692989,0.840634121054586,3.782688682257151,0.7265745306020869,0.22597239714382678,0.18495989483530184,1.866087872273476,1.5298064440316033,69279.08095830453,25283.943742427247
48,3557.1875,2943.0,"[15,21,23]",3,0.46171037307388385,0.5805187929016928,1.42312601809716,1.0508708126504422,0.9507024175173537,0.0904036888298343,0.3336991557849416,1.180905480936485,2.207872158688397,0.5993696743433184,0.3727767358692775,0.4336925760080812,0.9151671106650249,1.2838957291135888,63480.44459281379,21424.521479399114
72,176297.142578125,158875.0,"[2,5,11,15,17,18,21,23,38,42,48]",11,0.28433461414944006,0.23052142729077119,0.44536095579506263,0.798585011136737,0.3225207727132178,0.2673522042946117,-0.011901691303767947,2.444017209045474,0.9553485896747659,0.34049502307795065,0.19671411503999225,0.766059838026131,0.6203746286907462,1.0573522802293551,69840.99521589624,18322.214188432292
72,186927.94921875,167071.0,"[8,9,10,12,14,16,19,20,25,28,31,36,45,46]",14,0.4126102498703179,1.5564744902118761,1.6062390024444713,0.9859867702472287,2.3183252083295742,0.35935948106392757,0.08659812882455187,0.7185619854161249,3.6110873217434194,0.6520881131184301,0.28928375492774405,0.15024394776334726,1.7741345366794357,1.433543990392514,69867.31373081915,26080.151990379683
72,13547.1328125,11138.0,"[13,22,24,26,27,32,34,35,37]",9,1.9541611558035494,0.4629532933366862,1.573044807556569,1.7856089219621194,1.5440217811761747,0.8628272608153968,-0.21878928600999092,0.9203563719221375,5.265833358262363,2.977440785610922,0.6528612374399825,0.26653301132172846,2.372830109441116,1.937053972481637,83545.82636893305,45078.318421852346
72,2637.478515625,0.0,"[5,11,17]",3,0.32946908028797983,0.1404409175541308,0.4775760736432231,0.8967517455555387,0.2972254564129364,0.27943681012878585,-0.039221503092071064,2.8858774726327185,1.2859656517055464,0.3687089653477641,0.1788688461376564,1.3037155701757057,0.6390301583336343,1.7760550403905795,72860.65653674614,16726.367243808934
72,604.501953125,0.0,"[14,19]",2,0.4616211385308868,1.6035811869178311,1.9113079082664428,0.8027864611169555,2.379488917342228,0.9040985009773663,-0.2019606009692989,0.840634121054586,3.782688682257151,0.7265745306020869,0.22597239714382678,0.18495989483530184,1.866087872273476,1.5298064440316033,69279.08095830453,25283.943742427247
72,444.6484375,0.0,"[15,21,23]",3,0.46171037307388385,0.5805187929016928,1.42312601809716,1.0508708126504422,0.9507024175173537,0.0904036888298343,0.3336991557849416,1.180905480936485,2.207872158688397,0.5993696743433184,0.3727767358692775,0.4336925760080812,0.9151671106650249,1.2838957291135888,63480.44459281379,21424.521479399114
96,165386.97338867188,135580.0,"[1,2,5,8,11,15,17,18,21,38,42,48]",12,0.472971688450218,0.4395972872858409,0.782007434201831,0.9819281280233505,0.6566822359371431,0.3172208066394677,0.15111540452835115,2.4093503896899326,1.3342288590904663,0.5071727195726002,0.275550987877339,0.9488868686027274,0.8756674055008346,1.2806155629673799,70510.00482791444,17616.105696641633
96,132208.54638671875,115996.0,"[5,9,10,12,14,16,19,20,23,24,25,26,31,34,35,36,37,39,45,46]",20,0.45824453203648696,2.043562093132654,1.9439946906738776,1.1710346234397875,2.8617283058868144,0.3155627383737927,0.5337869630812628,1.0923047840033524,3.7466319436548097,0.6910277799239596,0.23345324999619388,0.21732671693056715,2.232880745939007,1.9400783146848048,69805.05936931903,22957.76032568216
96,8530.251708984375,6633.0,[9],1,0.7080214449713762,1.9074806470384642,2.0581475660885338,1.158062192284758,2.866776246490802,1.0988463776758655,0.05606735000208429,1.133438766887794,3.9309743424994426,0.8907666554548169,0.3999330419482261,0.20200147545212688,2.303277784352057,1.9410629706224796,72722.4899786379,28024.00645657045
96,3190.25439453125,3126.0,"[28,33,40]",3,1.8437766944348535,0.5375611775138851,1.8322064576746038,1.9828028331096648,2.0018245603055873,0.918170077136317,0.2077500547348694,1.354862408401075,5.235428563638715,2.1558634924991305,0.6774503887520735,0.34412545596360344,2.3597840169131605,2.2851693873396974,76477.32016864723,35130.2990194901
96,7039.7255859375,6765.0,"[11,17]",2,0.6355281811360332,0.29849652453883424,0.8980482566235128,1.1918444002339066,0.5538307613679962,0.2658002368620169,0.2683353039393168,2.8472200979617446,1.4699547565020583,0.6125576993098903,0.31146657307823,1.2684678526901036,0.8786583103086228,1.6680197848133111,73372.93679244159,17584.649883286467
96,4610.85888671875,4394.0,"[14,15,16,19]",4,0.675142186025175,1.4170351461780455,2.1083821325748446,1.3248656172070237,2.2425635812606566,0.47798738878246616,0.3821006562416014,1.1558821935092558,3.386324557000614,0.8375271652732786,0.3845661424349709,0.2965331662386974,1.9255535722026522,1.7197838868711621,68980.15159060551,25953.7671023068
96,16980.65234375,15346.0,"[43,44,47,49]",4,1.959630971512458,0.4971659379515585,1.6826112381816363,2.0209911134316294,1.8634827623239754,0.4380203923987773,0.3542452259255984,1.3056756899805348,5.3173019560222485,2.6884294440280128,0.679670228019182,0.338497972695329,2.397860439643862,2.2358499748445793,78509.71025618073,37642.37371990685
120,145095.5191040039,124514.0,"[1,2,5,8,11,15,18,21,38,42,48]",11,0.42434609922931443,0.45015197347569247,0.9259008298779832,1.0068120319312563,0.6706490174433601,0.29192440319180046,0.19109631271064753,2.2543361826997126,1.3133195975350436,0.4936054922552958,0.3136759513616072,0.883560249553476,0.8244185962354688,1.2604098533372214,68729.18534170522,16814.999841379802
120,1973.8525695800781,1882.0,[17],1,0.9911489885966167,0.16854129773332582,1.2447353473367633,1.8722069769055651,0.5539179467024482,0.4719685737266761,0.05489728385889325,0.9818741181938733,0.9682984140997547,0.7530588915123576,0.36847531744049844,1.222498352901573,0.6524367449875544,2.57639159824252,75754.90594795685,17644.39063271669
120,225293.45919799805,205557.0,"[6,7,9,10,12,14,16,19,20,22,23,24,25,26,28,31,33,35,36,37,43,45]",22,0.5213043955071306,2.1295146141773857,2.154015672953489,1.3170706392586622,3.07416477023772,0.36091720996634846,0.5685098906252914,1.1839199431978589,3.9225305905112067,0.7233064089748874,0.2518427303340829,0.20881952501521883,2.4210709542563746,2.1256765017577806,68116.2541400868,22422.068807432308
120,112.7486572265625,94.0,[34],1,1.5485049480288253,0.970421355751772,2.631921272284186,2.205672059298997,1.8595021552942348,1.4152785040770903,0.17474139258063648,1.529333710323697,3.212593908307863,1.7476692692819253,1.114368480872356,0.6303119629140022,2.1095422453458443,2.339012212875027,86940.17222783409,47561.31706287207
120,13204.647399902344,9801.0,"[8,9,39]",3,0.6214504933806932,1.5207001858650102,1.7727521829679236,1.2573176759569509,2.104696439469119,0.6344680669515621,0.20906810932149478,1.0946729212380788,3.579211173552491,0.6856810783404391,0.3749717263990511,0.29077846189926737,1.7182608177219425,1.6892367457962536,66671.47455015857,22625.864605118128
120,11950.58560180664,10903.0,"[5,11,17]",3,0.6623792301967726,0.32802855443443946,1.1839318293648469,1.3638427489186236,0.6342531773325959,0.32005597503180994,0.24445439182596607,2.4834376306965895,1.4712996289906757,0.6255478837767899,0.38535136671232006,1.1855559226394552,0.870773338071766,1.8518488310385022,71118.31301182609,18264.2925571077
120,10589.357360839844,10013.0,"[14,15,16,19]",4,0.6216327826344166,1.4831366085677962,2.2338904556240826,1.3437592834691494,2.5537601469770537,0.5602937701257049,0.4342239914209456,1.135565103219736,3.608036896923634,0.7118620294641506,0.3925940031352777,0.25928127189741546,2.01743439909144,1.8376576704470196,68578.08584368142,25334.911984655126
120,16834.66375732422,15140.0,"[22,24,26,28,33,44,47,49]",8,1.9586090754385796,0.5807615759168319,1.881961453067777,2.160839065559846,2.080902661531477,1.014777847365924,0.08641880124958368,1.4687713411730083,5.332494365624336,2.5572047555195736,0.7384290640170317,0.3385881364292199,2.4852266839280266,2.3546844785595415,75785.018875373,37060.60506499092
144,115590.84435272217,98705.0,"[1,2,5,11,15,18,21,38,42,48]",10,0.4837421324275635,0.27033272970026,0.7956382170519389,1.4211424852292835,0.4895787529893294,0.25943347378263115,0.2784004059846299,2.666888698124583,1.0876121608574674,0.5157295029065595,0.2903237355186348,1.1598472629669754,0.8136334762805034,1.3800131556874367,69410.74074849655,16069.57235880596
144,15181.665493011475,14933.0,"[17,24]",2,0.45501449554588014,0.050389306206828355,0.07521903329773894,2.6692943369773228,0.3610894905556674,0.6330063691312557,0.20870233018113282,3.555325929437312,1.4285681236113814,0.6135772510241405,0.2874297659417566,1.9838665874240498,0.8449886949663984,2.4786510515071276,73173.36210721517,15151.097065639411
144,175552.37928771973,149247.0,"[7,8,9,10,12,14,16,19,20,23,25,26,28,31,34,35,36,37,45]",19,0.4295792631748949,2.277768067844354,2.0874963205748105,1.4768908520151611,3.1168442982348057,0.4250876816383229,0.6783050490979421,1.1937771752652027,3.6480455480854608,0.6978743947572777,0.15843714361033445,0.2689133641852339,2.4057878104086705,2.1240028970403495,67469.30878119718,20629.863538275033
144,4972.745990753174,4714.0,"[5,13,30]",3,0.7476814044293854,0.36616875417637385,0.9440577990099848,2.5259996117884973,0.8665967223373525,0.18665973346901077,0.8565236932672549,2.9630671758570797,2.6526464075084615,0.7185781582172796,0.42236844033121157,1.245231368625635,1.208887128290753,2.1358737746236938,67469.26715015149,17742.477892343075
144,7173.190547943115,4207.0,"[8,9,10]",3,0.5636700695127379,1.6383989579456668,1.924896580752574,1.4217122553120887,2.3772427431676886,0.4567757993554735,0.49829632151016856,1.1307149870056437,3.4443736554961353,0.7761539839651056,0.33524010148142835,0.3099767984847721,1.9397718452980492,1.7417402995651672,66328.63005175491,22632.43854437414
144,6089.760314941406,5843.0,"[17,13]",2,0.7344131901891293,0.16431939724780786,0.6490826246889632,2.6792394534375243,0.5184415548954293,0.3211499618309239,0.35249413272749663,2.36686998246953,1.964091671372457,0.6276439536921091,0.30334823380826403,1.4373605191414662,0.7786628012255427,2.391972427037892,71776.87231430855,16004.452226689733
144,5055.6696701049805,3732.0,"[14,15,16,19]",4,0.6977332152800424,1.4026513496947484,2.227329844557015,1.6530871973042855,2.570218511923969,0.6082371795466435,0.5754290116457339,1.1803512286113582,3.6219180765220496,0.8699799745044926,0.37502449553352424,0.34182801614903924,2.0618332637795453,1.8978833047862598,68149.45491839905,25100.820043535794
144,36619.38432312012,32814.0,"[32,33,40,41,43,44,47,49]",8,1.9815232477413292,0.4137972597459685,1.890360128800395,2.4855679422998764,2.0080897692806183,0.5574827107502969,0.5389809116017177,1.2813176168623257,5.277769048407816,3.0591999911615297,0.7468178918692248,0.43032930256669966,2.3541510571783135,2.4619096910345775,77064.59111267573,39092.43617244832
144,1583.8697700500488,1207.0,"[33,40,41]",3,1.5524612276961325,0.5599018636354662,2.2271981330715804,2.564335347520585,2.2394754581270795,1.0827669046291628,0.812640964060773,1.380323961486444,4.718674609136576,2.519059668352786,1.0139251534619813,0.547519401847397,2.325987380806055,2.5377205544329082,87764.16168392965,49949.597580109694
168,186776.0011920929,170476.0,"[1,2,4,5,8,10,11,14,15,17,18,19,21,23,26,30,31,37,38,42,48]",21,0.3633811277931869,0.6515883486814031,1.1656633968863006,1.6010456560393753,1.1893479373553144,0.3567777307787421,0.33391272966951524,1.701987073290221,2.2237820254189233,0.6368334313906548,0.3009447641668155,0.6113348743088831,1.1132782953059035,1.292944072745362,67226.48588553214,21196.758213494708
168,17699.495333194733,15810.0,"[13,24]",2,0.19450185141780607,0.0948416787907127,-0.015398199621789121,2.5259483774046223,0.4214083730028726,0.4617020083030787,0.4451417370975981,4.0632183535651025,1.7737921348146877,0.5659234742626947,0.2825912205250338,1.7483301984724355,0.9023170958437353,2.182467854413984,72808.37492146817,15835.403911790389
168,146436.49018669128,124074.0,"[6,7,9,12,16,20,22,25,27,28,34,35,36,39,41,44,45]",17,0.5576452728916483,1.6933771686370473,2.014385345086714,1.8191623779735235,2.728353083892707,0.42532141754078956,0.656446474432558,1.141060058393256,3.753564901620893,0.9794685463141636,0.28350574792539796,0.295554051236125,2.1372130575938844,1.9033775087493348,70365.70828333241,26765.71627356517
168,6288.033962249756,5251.0,"[5,6,33]",3,0.6059763501489059,1.15093913494895,2.277662745871939,2.0350529538118134,2.8435328271004976,-0.3615073475759406,1.1332872785443833,1.1312541056269203,3.9407225863798456,0.9419456352785319,0.25250430053107475,0.35841519147473255,2.102754151787259,1.9008629867268045,71022.3311972298,29114.738289576453
168,4463.648818492889,3567.0,"[8,9,10]",3,0.5713083722633512,1.3530238117839053,1.888187378884909,1.7627192162530063,2.2413457616744297,0.4653935323499827,0.5261226851476146,1.1363279261882835,3.465027854245674,0.9178844110039562,0.37380069507083613,0.319146051369374,1.8476447822382362,1.643139235179112,68319.68646474379,26529.737014662634
168,7746.6736426353455,6409.0,[11],1,0.3341918403306541,0.20489709655213728,0.793969074850172,1.8043572726617794,0.4896598449326799,0.2865546487170232,0.3654335304844194,3.1241546821617048,1.5540426502916196,0.5433226091752511,0.2833507588484707,1.2013078518217648,0.8309637637193931,1.5770600121332343,71493.47284182931,18359.24211398717
168,7436.220039367676,6675.0,"[17,13]",2,0.4778504807195103,0.175373366997992,0.6259112969328386,2.6884407704967663,0.5191954736933346,0.27639116980226563,0.46514741929097303,2.6694187442201507,2.0337702787624696,0.6265976686368492,0.32198633644591146,1.4620069320717526,0.8312866026660354,2.235791069260765,74565.8292295418,17825.830469283774
168,4488.483000278473,3998.0,"[15,16]",2,0.7342897062376248,1.3851788825666942,2.2907684562876685,1.922934765239844,2.7464315539600004,0.7088007801293112,0.7745128815729392,1.1786521134265389,3.450781592755653,0.9838040683978199,0.4008134321634125,0.34403782762012713,2.1004532379228333,1.8256401042474317,71639.59383716312,28505.087202769242
168,18873.632642269135,17675.0,"[21,23,26,30,22,25]",6,0.7688576570430465,0.9413667730142294,1.920324541130055,2.120198301527974,2.0432916895633686,1.0156217140528374,0.29363070089940946,1.270166724519295,3.9723500015159323,1.2492961622993461,0.53980924387493,0.3418406949339321,1.8011573408633068,1.696107690689131,71493.46416215775,34734.56698449412
168,33636.121205329895,29346.0,"[32,40,43,47,49]",5,1.8230609847138506,0.39196251076080824,2.0964648465410485,2.7124281479021204,2.1713764785776024,0.5703586976916872,0.6916560662044748,1.0908595726564085,5.030985816695872,2.9813074414469156,0.7526352899494739,0.424255653637612,2.3584191312876928,2.3675521582179297,80120.27572928074,43687.06464822989
168,6529.495419025421,6319.0,"[33,34,40,41]",4,1.2019403064914307,0.48947931877337236,1.9448900345066735,2.7078230822484355,2.0044243452029575,1.1201813752258805,0.5203817231199896,1.3053401705835297,4.790160343060492,2.120390563686391,0.8012978163947384,0.42676676595825,2.0313040983945343,2.0738751956071884,79972.80220291886,44681.72089075091
