time_in_hour,cumulative_size,size,pcore_ids,pcore_power,AF700 CD48_[R 730_B-A],APCCy7 Ly6G_[R 780_A-A],BV421 CD117_[V 440_F-A],BV510 SCA-1_[V 525_E-A],BV605 CD11b_[V 610_D-A],BV650 CD150_[V 660_C-A],BV711 CD11c_[V 715_B-A],BV785 B220_[V 780_A-A],FITC Ly6C_[B 525_B-A],PE CD115_[YG 582_D-A],PECF594 CD135_[YG 610_C-A],PECy5 CD3-CD19-NK11_[YG 670_B-A],PECy7 CD16-32_[YG 780_A-A],PerCPCy5-5 CD45_[B 695_A-A],_FSC-A,_SSC-A
-1,0,0,[],0,0.0,0.0,0.0,0.0,0.0,0.0,0.0,0.0,0.0,0.0,0.0,0.0,0.0,0.0,0.0,0.0
0,169753,169753,"[0,5,6,7,8,10,11,12,13,14,16,18,21,25,27,29,35,36,40,47]",20,0.33590593599523944,1.7804004774643154,1.948977287812292,0.7325229669814428,2.608344873722403,0.3361887636801719,0.14917504378125956,0.7252285185180871,3.8812785999245896,0.603346499207671,0.16607093864615008,0.1711025266946684,2.007151562175626,1.6084479188467957,68041.96836580208,20541.42571854399
0,129098,129098,"[2,3,4,9,15,19,22,23,38,39]",10,0.29481192461540684,0.14966184417264738,0.41681117244264465,0.5499569192164087,0.30239809448635935,0.2306625348649851,-0.0033220977784353956,2.5322904160250364,0.8076421647895381,0.35584249150257974,0.17701096240065528,0.9894347074005809,0.6176735060341753,1.0999984493175712,69642.65757796411,13921.873925235073
0,2777,2777,[41],1,0.5295381433201323,0.7180777320849767,1.355241806985953,0.9416723773856694,1.1920199265394298,0.0340095257472115,0.38969475657185226,0.8760979917176837,2.287136293482179,0.6926345030608568,0.40405793194094297,0.3718983424558888,1.1040404148361551,1.3436102027367718,64240.67410875045,18140.761973352517
0,4604,4604,[4],1,0.4380323998696747,0.2009611741963555,0.8232678796698525,0.6445320369244092,0.4230648779322266,0.2634619730668999,0.027865839052986452,2.656853423979161,1.3460641880972988,0.5129844511294522,0.2262744863162487,1.00848911794092,0.6998729220243282,1.3657240975238871,70793.53605560382,16923.829713292784
0,35526,35526,"[5,6,7,8,10]",5,0.38428019138096037,1.7217622574171032,1.961055903085072,0.725580059336822,2.45716027137871,0.5428332026121705,0.07510376833867927,0.7355328714462686,3.869235732224278,0.6192474534706977,0.21117382590215916,0.17611331377019845,1.9436087461295921,1.4993801637110888,68383.17131115249,21399.284355120144
0,18067,18067,"[12,13,14]",3,0.3340094111363232,1.4179210404051497,1.5504691741296273,0.6603875147506493,1.9263251038357097,0.43398794088670445,0.14025887297282758,0.6792202695522254,3.4192925428682264,0.5422933181491082,0.2312502298112573,0.18146571113079046,1.565217233408979,1.1312502797918866,63441.94918912932,17973.100127303944
0,13404,13404,"[19,22]",2,0.18995417882721544,0.13320082557445057,0.4666630909430003,0.7750581375708689,0.4500766218292993,-0.04846756796478635,0.08549497351536983,3.2423126344374937,1.103798054610564,0.39523912824530016,0.18994227260519292,1.4065973234855296,0.7287913895851997,1.6424374626230933,71041.01223515358,14911.532079976138
0,12127,12127,"[16,21,25]",3,0.43834947489073994,1.901511861631068,1.8768605171105874,0.7557035070503839,2.6109975983342903,0.9909654755504242,-0.22685981833924584,0.8145431491712682,3.7794080473324034,0.6798473132679151,0.25637285569390666,0.1767709746021281,2.0511138768862884,1.722810900964787,68757.2313020533,20448.19262802011
0,5141,5141,"[27,29]",2,1.0344994361019235,0.6345411756467563,3.079674762692093,1.1321448192958599,1.7596886022174667,0.7851901684497153,0.00896058334954386,0.9425352234973654,4.266219960708051,0.976083275043765,0.5032459787978922,0.25423212273876805,1.7559200807235902,1.384959919276407,70556.69480645796,32314.074304609938
24,174022.5,141454.0,"[2,3,4,9,15,19,22,23,38,39,43]",11,0.29053357386113987,0.13909598899424092,0.4655089811920905,0.6299441307144198,0.2644967710784476,0.2664124893706279,-0.008695355172469554,2.452892139315317,0.8135995023660697,0.34016160545188223,0.16710215027223096,0.9583959559539672,0.5573303689407955,1.114533510718441,72270.96514531167,15095.55125342985
24,10095.25,8119.0,"[41,45]",2,0.7229325619722176,0.38407387380203195,2.847146051657957,1.1101022716624147,0.6051277136524646,0.43798630984869047,0.17096509284069095,0.9573646740546442,1.734860787845765,0.7721870988831389,0.4800024183155438,0.3444306123176708,0.7661289437359143,0.9480546340358105,67204.14927812581,29724.0734008569
24,180641.0,141621.0,"[6,7,8,10,11,12,13,14,16,18,21,25,27,29,35,36,40,46,47]",19,0.373249692860425,1.6043772064370745,1.9949162507099776,0.8007368055480266,2.494321621926907,0.34420145979871797,0.16485604824071443,0.7943584459355919,3.9451040818183523,0.6273906938665629,0.1429650673836509,0.17678150888502508,1.8735637917167174,1.5321365689655153,67738.79179145384,23407.8782114802
24,5725.0,4574.0,[4],1,0.42349691655022337,0.19433104986898853,0.8319269310917088,0.7660711682969445,0.39155008585151974,0.27862542794759415,0.07258824729257407,2.6455281800873554,1.5653083321397316,0.48262884021833785,0.2240117192576494,0.9524430542794775,0.666311139432311,1.3476118709607021,72162.83947598262,18161.662882096105
24,9463.0,6997.0,"[7,8]",2,0.3794026837683633,1.6900035404998532,1.9483953759114514,0.7727255742100825,2.3360989033076174,0.5168111185406286,0.0389291460424781,0.7793015454929666,3.845019442090242,0.648519356652221,0.1924891688682262,0.1822490023776815,1.833051256499001,1.5253439774120259,68374.95424284048,23388.253196660757
24,6671.75,4755.0,"[12,13]",2,0.3574401962753384,1.6226301465132793,1.8634089729831165,0.7569838076591591,2.2639927048750352,0.4823215241878065,0.0985092786375441,0.7560567499531632,3.789473642597524,0.6468221314497734,0.19790866534266982,0.18256269813017267,1.796996725147073,1.4535394247011655,67116.17191891174,23054.293101510168
24,18108.25,14873.0,"[28,31,34,44]",4,1.2535252352795008,0.5822885100575648,2.819760993870205,2.213977617273907,2.1272117799897816,1.6043340340866734,-0.626037088109014,1.0839521258128202,4.419042919484209,3.226569222426239,1.3661258703077288,0.5125946291883525,2.298790565639974,2.431065340024574,117229.53151188027,98171.93643781106
24,10938.75,7907.0,"[16,21,25]",3,0.5008989747000343,1.7027746195406155,1.9602289828133919,0.8567856147640227,2.5145729382013484,0.9931102151068438,-0.20314726282710183,0.8687250039081271,3.849357468129352,0.7195611785624504,0.24763289902868424,0.18867413381327802,1.933881407313447,1.6611361448977275,69589.13294480633,24104.52382584849
48,132562.1875,106186.0,"[1,3,4,11,14,21,22,39,41,45]",10,0.2500163668504627,0.72347056656286,1.384345922368038,0.6259332142607614,1.0577593439338684,0.21351517060907832,0.12325103135980786,0.785923732402487,2.3474121025641335,0.39518123190247956,0.19846872042272734,0.22876339712493332,0.8673496785188094,0.7032485458018514,63526.2139439272,18981.774210688858
48,121595.0,91253.0,"[2,9,15,19,23,38]",6,0.23708744645699187,0.1088853886354273,0.15541597164665966,0.5817817561690375,0.1873527270673141,0.2559843941367834,-0.03145443238517576,3.072419402856302,0.6479755986317287,0.2686533491621784,0.13265760269182225,1.0833072239617163,0.5930200455066014,1.128884128153914,70145.85395781079,14790.255191414057
48,2886.25,1455.0,[4],1,0.38670158815505173,0.2148024579038501,0.7501187576006982,0.7241182592031157,0.3668854944564641,0.244554537462099,0.05005131639238236,2.785210552360331,1.812407733694235,0.4077590279991319,0.2046837440233924,0.8552790563663941,0.665582874079686,1.4021461530749284,70019.60051970558,17986.907579038598
48,76993.1875,58668.0,"[12,13,18,25,36,40]",6,0.18457898532337724,2.1179857724116804,2.039644342992203,0.6506071084170739,2.9887035574722067,0.06188722728959295,0.33652142395228246,0.606485627314437,3.976792783518183,0.39179510727491285,0.03615904924543223,0.09998448247856362,2.270828420191404,1.6285959407423223,65625.50272386127,20415.16008153313
48,26958.375,17955.0,"[12,16,35,47]",4,0.598203498706338,1.8879331505538683,2.2599405993174737,0.7379170542456679,3.1981418958417334,1.3438526784510387,-0.5748957654555369,1.0185818161981293,4.218108492548694,0.5259777461804548,0.1694753044508439,0.0700051766774693,2.3387042526904938,1.7259285798429944,69644.4519374778,24140.002058729413
48,1394.375,1038.0,[29],1,1.1636308082025961,0.7653514615419112,2.073594423890626,1.8530328474226794,0.8948205716270636,1.15099355970417,0.5029441634692944,1.5491863605558018,2.529557475437032,1.116421013267594,1.1117597659793805,0.5031674114746734,1.4226988485880772,1.3803635954280573,61551.189601075785,31587.861228148806
48,9721.625,6661.0,[19],1,-0.03420748509122307,0.06539526680854157,-0.12182118919161677,1.1164930866689042,0.43038004174970235,-0.3395905591271997,0.27719627096806754,4.158565633986097,0.8847953232805751,0.28376214098723096,0.1275012602509804,1.8558934123217585,0.7205770322734127,2.1474387348051516,72816.7947231044,13806.911087395321
48,1472.625,145.0,[25],1,0.3884039033189066,2.0162792882607494,1.9990135198200476,0.799257731898813,2.7063595523724566,0.8362673192852894,-0.1471857438672428,0.8578545846702319,3.956340441091577,0.6917884804346005,0.1811751497326255,0.15711825074272046,2.085038462694165,1.750974896910282,69485.8582463289,22842.901621254583
48,15614.125,9837.0,"[21,16,35]",3,0.5140930084258646,2.3554459601642757,1.915183683387634,0.6841445824734094,3.1663656675165863,1.419288234523228,-0.6843724976503647,1.0706406165211133,3.9239925490581435,0.579898135782506,0.15980985578762885,0.0640294943760843,2.331150983392443,1.8669596154843748,66391.1329004989,19862.72737024966
72,266467.203125,209535.0,"[1,3,4,6,7,8,9,10,11,12,14,15,21,22,29,38,39,41,45]",19,0.29317795321533935,0.7797541414119236,0.9710858249124974,0.7643887031960044,1.0669948879360254,0.29549425425719167,0.049808546066910875,1.4714955877448226,2.014434175648494,0.41528473132223465,0.22327704560873984,0.41020342958728195,0.9926361039887602,0.9725524429613475,68056.31855749604,20425.493847536713
72,51563.40625,39305.0,"[2,19,23,43]",4,0.2499062638368732,0.16520132151829214,0.08525447844918022,0.93151353985475,0.3210346205384904,0.23066417110851067,-0.07093508243338942,3.2465951886800344,0.674503277129675,0.34112556253405446,0.1642381527967065,1.2054672543782565,0.7092044786228017,1.6484592954408652,72583.81294389369,16503.302106811396
72,2020.5625,1299.0,[4],1,0.41502652489251424,0.3839552359955478,0.7711218866188272,0.9185861364873613,0.5831153144699734,0.30202640128058045,0.08203449781156413,2.509426722107084,1.8103670415261863,0.4915623964319945,0.27269192120851127,0.7457542353227748,0.8068351726700477,1.3814714682560563,70788.11271613737,21386.35652200808
72,85012.90625,62231.0,"[6,7,8,10,13,18,25,35,36,40]",10,0.3304138442940503,1.7756856063395468,1.7645723828269833,0.9644838507875453,2.64787887066247,0.17081082114057566,0.21165114193561596,0.7750670111944409,3.7550293813020184,0.5794585359377388,0.23621079250484778,0.1656981652984325,1.9947173506509888,1.6253593426781123,70946.61839066367,25563.303924808406
72,13386.328125,9827.0,"[16,47]",2,0.8002605057188685,1.535922168268692,2.197966129597009,1.1011911189168084,3.1050691176024903,1.5249380862435402,-0.6309981521083121,1.0411165879004445,4.0999547689573586,0.7218462049946003,0.4169015373836342,0.12311428366862276,2.2596369629402635,1.7517207520336144,76437.274691412,31573.600023344734
72,4753.421875,2832.0,[27],1,1.269537711839163,0.5205091248113969,3.3979762615550144,1.3720538508968998,1.7559590982647366,0.7161642251108564,-0.05429736441181987,0.8688691064003162,4.736453588779782,1.1139871138850599,0.4642583176658932,0.21176676810126738,1.924759936844843,1.375865759374004,68546.95913141526,44402.09591116933
72,2545.84375,783.0,[46],1,0.6705782941313687,0.34850315462702675,0.5236289481569267,1.8246318695729533,0.5089021640173339,0.37935563245240256,0.9179701477407973,2.4025856162004287,4.406558518983164,0.6444861721924241,0.3983226061902285,0.2341744304319563,0.7351709384720192,1.3840325760860286,58349.74789792193,22751.529821891072
72,7639.546875,6108.0,[16],1,0.691520460549647,1.957058608564398,1.784419840586907,0.995793607993773,3.0280102098659927,1.5557923687759556,-0.7104395535341332,1.0461294673236297,3.7708013391562365,0.7290460326978637,0.42827240296482394,0.1166450582495302,2.2179199136769756,1.8120690552961378,72851.673810824,27032.509961528376
72,10100.40625,7670.0,[19],1,0.09202563218064341,0.15237323411342008,-0.12684274472559887,1.2730574991398935,0.4407232257953826,-0.10505685475213244,0.10255746064049642,3.8856944599505603,0.9503383925445389,0.3450202610383878,0.16457697974246432,1.5580237526228906,0.7878228360214518,2.0821864139932535,73763.102845492,16174.625748345512
72,13346.4375,8771.0,"[25,29,35,27]",4,0.7862712339364879,1.3172446204722186,2.2645017743428792,1.1521100879647288,2.0766934681961007,0.931282310960792,-0.1759947767662724,0.9514103858953522,3.809079840260502,0.8431685206199676,0.41093530106348775,0.20534374861269078,1.863609331786808,1.531391932810958,69587.69229616523,31776.456526320282
96,117958.515625,66390.0,"[1,3,4,7,9,10,11,12,14,21,22,29,39,41,45]",15,0.3865631616800178,0.8645138275995778,1.1986035636853951,0.9157040203792142,1.1778971712944624,0.3085496889425514,0.2014632897891806,1.3616898262585027,2.2666004421534867,0.5091124374878547,0.2901681158802534,0.42976949374058104,1.0749903855640115,1.0208569950414577,67905.67928105028,20034.12662687954
96,104652.06640625,77018.0,"[2,15,19,23,38,43]",6,0.40927588767153145,0.16503236267925825,0.3033243859976622,0.9036944918029106,0.30899811937558974,0.22425763758374928,0.1015037098664,3.137506486669462,0.6392698758947141,0.4037882100513207,0.20842215926433827,1.2840228936858091,0.7058165797272268,1.4022199791232266,71588.07213770036,14913.484664902726
96,1038.140625,533.0,[4],1,0.5453875366603456,0.39408709189356106,0.9260046968663982,1.1481896434806784,0.6027152250191898,0.3147027033157219,0.2692446820449752,2.5458874993904326,1.8537290377553042,0.5545690393920927,0.3487329941564683,0.8816483089921867,0.8458295073410992,1.5327606930848412,71587.12578076801,20445.150675034965
96,76738.08984375,56743.0,"[7,10,13,18,25,36,40]",7,0.2492362995861348,2.1778076944709968,2.013921322472943,1.0846701246413941,3.071002032476654,-0.2559539817038481,0.7990270536732895,0.9244981179472109,3.793790108588356,0.555243104527411,0.12220745640324049,0.17992704920867475,2.304064672407295,1.925015559277439,69183.65145405597,21898.42278028585
96,14729.43359375,7567.0,"[12,13]",2,0.3881534848622381,1.9551113182082576,1.7819324538897683,1.0384405558351353,2.6085754615508647,0.4499193991293444,0.339073703268733,0.8594820227266,3.591395505933981,0.6381590133228673,0.28400460779556225,0.18828167998997503,2.0650371244152628,1.7287429248894497,69520.13383491547,23645.725532024768
96,48778.6484375,44479.0,"[16,35,47]",3,0.5982585965261322,2.5122882648570277,2.07819547157562,1.1408640534980647,3.306196295991198,1.32111678815751,-0.0884299157891606,1.1992646715516369,3.8713842805872782,0.7142044353886866,0.26318639420039913,0.14879814937576252,2.546440967987325,2.155672209053827,71351.18440108994,22988.60759101979
96,21307.8359375,16553.0,"[33,42,48]",3,2.0985447222662055,0.41931937366040195,1.4389322163614962,1.9103347035683709,2.0053473578053924,0.39008743577590543,0.2690192361972126,1.2408863341941045,5.595633147648518,2.8205462347971815,0.5757592012320867,0.2879629877694988,2.472766483710693,2.3034304452788974,75630.85771482979,32283.173489213037
96,5560.46875,2371.0,"[21,25]",2,0.4690312198197386,1.61700401666198,1.4370483790492248,1.0721048313316608,2.0243211458446893,0.6954174568718992,0.021753978542719654,0.9259150828603229,3.0071806506301493,0.6506999580879308,0.34474916882780793,0.21797093980807436,1.6799287944129788,1.5315764429096352,67588.02214291741,22133.391631775634
96,5844.3984375,3136.0,[22],1,0.4351612786502326,0.3702122857831269,1.1412736819610898,0.877331044975628,0.5189361747540082,0.3067535540234214,0.140224619191319,2.121887285429535,1.5861535144369037,0.49557664467244933,0.3134457501554011,0.7054447923900129,0.697506332933645,0.8599719055138271,68827.70178175415,20112.71151463137
120,131303.916015625,94346.0,"[2,3,4,9,15,19,22,23,38]",9,0.3492991516866988,0.20387128271160648,0.4681683122314473,0.9050493299668041,0.3497304989458536,0.2270897710880675,0.1411779061500016,2.7396765431901917,0.8193810266120237,0.4111025461069494,0.24777434486754002,1.1047248378133796,0.6410510514459863,1.2441388058190466,70426.0669791227,14553.004481298996
120,15108.484375,12122.0,"[39,45]",2,0.5511070046186826,0.5816101789744259,2.321884615816088,1.1913985760664696,0.7233152709416419,0.4743282705695264,0.2223296515346629,1.1766662498451286,1.7220473926696105,0.6860471295588298,0.5457310803814219,0.40973192721707674,0.8235947646466738,0.8056674711154774,65694.49888980013,25875.778563989745
120,884.53515625,625.0,[4],1,0.7204804128371209,0.4331571755667074,1.1613311493965361,1.3761195063018614,0.6483990105391704,0.3518450680883769,0.410440602681275,2.5093978111163597,2.048415509159118,0.6413602628245328,0.4939462541887285,0.8359609964703822,0.8948911332190287,1.7135418295858533,70032.22815656182,20909.327621764594
120,123830.21484375,94359.0,"[11,12,13,14,18,21,25,29,36,40,41]",11,0.20740854423957766,2.2000413160189396,2.0998583286763304,1.1549882226324826,3.05813186308152,-0.36152194742588684,0.9063281952582916,0.9814207400707327,3.711184425271689,0.46586003558013567,0.12353889819451691,0.18147301243018987,2.2791728656355823,1.9519452354844147,66188.88680534919,19803.10450407217
120,84754.662109375,72560.0,"[16,35,47]",3,0.549723402006359,2.663058308297055,2.2260359138665913,1.2092974479430207,3.4454467572183263,1.350766677706342,-0.023706539326599607,1.2762126244772016,3.894458844627921,0.6057172995667367,0.2690630799593108,0.13659513331783013,2.6433741327876166,2.2594153243258424,68573.88948556877,21359.23618692886
120,5617.3583984375,1935.0,"[12,13]",2,0.4055570339786281,1.899339997863077,1.8162778655652931,1.0718240904358796,2.5700188855344313,0.43509174965295605,0.33943646064158495,0.8923230901712826,3.559343361098018,0.6249863439770179,0.2994151514667056,0.19346996319218435,2.0122796163976178,1.7335804268630601,68271.09354357264,22608.61191184195
120,25036.958984375,19710.0,"[33,42,48]",3,2.152877350521175,0.4357060768702268,1.595575269855431,2.147093867305737,2.11519641245186,0.391458290514223,0.27560563763102985,1.4278417241819819,5.616057668860011,2.835243766129853,0.6225177900625494,0.3020985022416871,2.537702553505619,2.4159973383792894,72850.50289606997,31443.85728130193
120,3149.1171875,1759.0,"[21,25]",2,0.5310990546125904,1.5930301932653532,1.609998438962616,1.1626217653533812,2.106654949898845,0.6968362390563372,0.07834715978436702,0.9544106928696499,3.154286228466497,0.6771227724098675,0.3780692597562654,0.2336096169183074,1.7152843388396914,1.6338565813561996,66251.27577917423,21214.511924224782
144,202405.271484375,144692.0,"[0,5,6,7,8,10,11,12,13,14,16,18,21,25,35,36,40,47]",18,0.3630074852837091,2.4156821043605747,2.1598491858707356,1.374454435305792,3.283209611942213,0.3650226718704117,0.6710417539737388,1.0785271233622553,3.72186033887619,0.5948807774027859,0.1202979176716581,0.20462796450774623,2.472925527399583,2.114104835647107,66871.26600656439,19782.692354416322
144,110978.31787109375,84065.0,"[2,9,15,19,22,23,38]",7,0.3901747963028832,0.1125417631178327,0.2976011628989621,1.4698241843100726,0.32863805094663023,0.2303595742271276,0.2394292951017034,3.4520541887807017,0.8522382379357959,0.4446961617160957,0.22979068723239848,1.5431707989705723,0.762393499559452,1.615893186633728,70837.48761422053,14316.432061293208
144,29396.6484375,19928.0,"[3,39,45]",3,0.43533190909807806,0.38151786110661234,1.5045273193594966,1.1014015710986578,0.479772852718086,0.35486891101721807,0.2068553073829631,1.0894478086492838,1.2390166955542208,0.5271900299183826,0.3842507009359277,0.4094643000074478,0.6384958685443837,0.6456587487633902,68087.41479935919,18428.446317886486
144,14902.491455078125,9022.0,"[5,6,7,8,10,12,13]",7,0.5531510167136309,1.637201709723894,2.3029497053649295,1.4570050338162073,3.005752206830579,0.5923918201110858,0.7038693478915703,1.1246798088661958,3.8146929190490666,0.6930960766690627,0.24676473193539072,0.2361393711724522,2.2570857453088298,1.8602148318092049,67896.32497567809,23358.33716562935
144,6497.55859375,2885.0,[11],1,0.37479156479957565,1.464473569815448,1.7811804473495996,1.210833119626248,2.244819919772269,-0.22810138323634277,0.7270976830355349,0.7674382252509604,3.368694081382351,0.5974162453182886,0.23575827011205286,0.24866265777947416,1.70495807653761,1.4427065136752841,63004.100939355085,19038.242200345685
144,26483.795654296875,19740.0,"[33,42,44,48]",4,2.056919265566852,0.37960164693394205,1.7599617100284823,2.4618194453374262,2.276050767585041,0.4483077624439944,0.49627409801789035,1.3412296961085461,5.461473743135464,3.0765345517353073,0.6729567275202388,0.3998087314169504,2.4367749444405518,2.582315690961421,75564.181841994,35683.57592217609
144,1569.279296875,782.0,"[21,25]",2,0.6060263371728718,1.5245096537109037,1.8295389824575152,1.4024846216615168,2.358071837870782,0.7548527790306085,0.2705720216361276,1.103469845463931,3.2762212069755763,0.7314181378971693,0.3324858022596646,0.2805370942109293,1.8925030165990737,1.7504392914854756,66767.10896597388,21903.14120609206
144,4640.77490234375,3125.0,[22],1,0.5199866242368325,0.39680193713034173,1.3402160808499226,1.2639265986730583,0.5303236177891293,0.3224165253595528,0.2928934442919955,2.319380777773481,1.6062808208653783,0.5766820237036222,0.36713655766143605,0.8949758857193353,0.766840852343258,1.0199790004713127,67562.95287852123,18946.035217086333
168,214259.9764404297,163401.0,"[0,5,6,7,8,10,11,12,13,14,16,18,21,25,29,35,36,40,47]",19,0.3785148948438519,1.8597293539161663,1.9663211003540444,1.5279750536116654,2.812694744395652,0.35974996449760366,0.581498618817387,0.9663306680007855,3.5752026231759655,0.7193289583727206,0.1941315186474939,0.20300671761076117,2.0793230575388075,1.7270924595231787,67149.74877282785,23170.137504956936
168,64027.119201660156,53353.0,"[1,3,22,39,41,45]",6,0.32550566738091624,0.5415075600927017,1.347472884541749,1.3420163214115837,0.9840896908880588,0.2909500227080639,0.3105798395892472,0.9604476478879502,1.9992054730622164,0.5416504844830453,0.32344496718554616,0.3388470243016197,0.8611411536761607,0.8331879161182918,63896.4226484607,20352.02085011272
168,87217.3857421875,60633.0,"[2,9,15,19,23,38]",6,0.24619740166246196,0.09985058738460406,0.2175845474079754,1.7036596454873,0.33357103270364385,0.26425095776989904,0.2967327457512954,3.5302151363169934,0.9063058261760423,0.4478184796852325,0.22072092966815005,1.4381907002923497,0.7598518490422218,1.6072109502889207,71716.24906171548,15033.901425477965
168,27908.063110351562,25340.0,"[6,7,8,10,30]",5,0.6686214094432916,1.1332525908468365,1.8338540849171658,1.8897982030937945,2.175182792252287,0.6691782860537394,0.3860382944592522,1.0498967106616597,4.064285325565133,1.1473576231013718,0.4038491844358889,0.2396222882507152,1.910473478841829,1.5847630781969995,67920.43288361901,29225.01645436121
168,11203.856079101562,9903.0,"[12,13,27]",3,0.7021567240491813,1.1944325655132224,2.3516652430295486,1.7218584150479348,2.244623485938559,0.43825573396585793,0.5375676252545714,0.9594952949827973,3.5808834010669393,0.9150182363200082,0.3827612177963928,0.2615131613454017,1.8862318109394578,1.4952904375181404,66800.15767886664,28945.78745779846
168,3245.60693359375,2034.0,[5],1,0.7404519678469694,1.0874542554316924,2.732991588243508,1.9595858798122214,3.522157762437136,0.8929330576830308,1.1812583649838002,1.246853978154574,4.098094781052415,0.8944171582489729,0.29322568848785924,0.26264705212482686,2.417970350939374,1.939951242956133,71566.4035162915,30590.0294373269
168,26244.94891357422,19624.0,"[33,42,44,48]",4,1.8306197297955376,0.3615003887453283,1.9823355222473587,2.7462189666425645,2.447966021097973,0.43272212535443466,0.6717991312601632,1.1721513937256103,5.216164430075205,2.945369173643323,0.6924931844526299,0.4031784966988349,2.4393904471235417,2.506907121070727,78366.01619781074,40049.60012289186
168,7540.31982421875,7148.0,"[21,25]",2,0.4917204172378369,1.2497120986960155,1.7294966086336045,1.6432106603015968,2.2380208376210464,0.863888129739274,0.3084271850773641,0.9842548292136897,3.375701321881221,0.8093979159461656,0.3544570808406897,0.23292728749335678,1.7048074242842208,1.4592057676122734,67090.80891081964,24399.01765398581
