time_in_hour,cumulative_size,size,pcore_ids,pcore_power,AF700 CD48_[R 730_B-A],APCCy7 Ly6G_[R 780_A-A],BV421 CD117_[V 440_F-A],BV510 SCA-1_[V 525_E-A],BV605 CD11b_[V 610_D-A],BV650 CD150_[V 660_C-A],BV711 CD11c_[V 715_B-A],BV785 B220_[V 780_A-A],FITC Ly6C_[B 525_B-A],PE CD115_[YG 582_D-A],PECF594 CD135_[YG 610_C-A],PECy5 CD3-CD19-NK11_[YG 670_B-A],PECy7 CD16-32_[YG 780_A-A],PerCPCy5-5 CD45_[B 695_A-A],_FSC-A,_SSC-A
-1,0,0,[],0,0.0,0.0,0.0,0.0,0.0,0.0,0.0,0.0,0.0,0.0,0.0,0.0,0.0,0.0,0.0,0.0
0,116439,116439,"[1,2,3,18,23,33,41,51,57]",9,0.26714047195527635,0.13841972572763428,0.34432243828099285,0.49390278052885694,0.2772314808268699,0.17785848753423994,0.024006121110624612,2.5845556831989436,0.7280426367454208,0.3296443218251627,0.15991688103642376,0.9813733562809777,0.5914828052027231,1.0202102270115703,70259.09545770747,13534.351892407169
24,239829.0,123390.0,"[1,2,3,18,23,33,41,51,57]",9,0.25478442475680696,0.12949221668355015,0.37381767769951946,0.5353105368491669,0.25095927040516264,0.19506129080720136,0.019157229059035163,2.5401554544738225,0.7237610360089871,0.31366558070542216,0.1531128582364869,0.952601012746586,0.5521143009310793,1.0108725013530455,71933.63885101456,14162.817140545905
24,13221.0,8067.0,"[42,44]",2,0.3709694172150375,0.5275992236593376,1.2560685562362939,0.7603675495802178,0.8760695399742913,0.22980907699871467,0.2660559856289342,0.6091684466379124,2.145641702140529,0.5075486924589677,0.31033722668481367,0.22055407699871554,0.7641305275697797,0.7294490181529434,56140.41660993865,17419.690492398444
24,148822.0,71250.0,"[8,10,11,12,14,15,26,27,28,37,39,46,54,55,60]",15,0.4442461518189531,1.8218919020238893,2.046909605239819,0.6992999131781601,2.751815894659391,0.9818784571837484,-0.29344998566072267,0.8271251828963413,3.9936161352488324,0.5771574840144592,0.17006532681996145,0.10807717332114863,2.0508797069519282,1.5453969578019384,67224.34908817249,21285.573369528673
24,32903.0,17242.0,"[3,18]",2,0.16356931741786984,0.08992173895998024,0.27334663127983205,0.8351326086375166,0.3204690388110474,0.11597163978968505,0.009452900829705513,3.633098857976475,0.9059310933957369,0.36044051761237694,0.1729991972768521,1.5757226056894598,0.694392544874329,1.813389865969662,73535.40868613793,14934.37267118502
24,60682.0,27719.0,"[35,48,52]",3,0.04152519157245904,1.8075146877492339,1.8858403964602304,0.6583187323918382,2.6288200699383846,-0.5518900923997219,0.7237094111268512,0.3592966754226996,3.808463087175738,0.4501972031904047,0.007146661827229561,0.13245997106226126,1.9002444059852843,1.4539561700009758,66177.56092416192,18931.824791536288
48,359812.0,117528.0,"[1,2,3,13,18,23,33,41,51,57]",10,0.2475636542666777,0.13550978945116077,0.385562554144935,0.531633146220793,0.23867873078440782,0.21070500385757307,0.006933077949038413,2.5128252561865727,0.7435383217457955,0.303247968386269,0.15163028165819314,0.9035685675074816,0.5505306666259061,0.9616534220815314,71358.0131846631,14742.346425355465
48,38517.0,20429.0,"[32,42,44]",3,0.5642567171898074,0.48496285899732383,1.0673059331464274,0.7273393161461197,0.9064515321546436,0.3212819471661885,0.1599231845418969,0.6927676440532826,3.2541436307864084,0.9081279596022492,0.2976444317314386,0.17534724017966175,0.9940062821092036,0.7819991856842514,56778.16403146656,19292.87535373986
48,339144.0,104080.0,"[4,5,6,9,10,11,12,15,26,28,34,35,37,39,46,48,52,54,55]",19,0.16810114458459902,1.8404787201955477,1.9300739796782458,0.6344129260019362,2.6544187162709725,0.05468091541351083,0.33037340158752615,0.558969184402494,3.8627117806919746,0.4335984105689614,0.06782106730769,0.11265333615514361,1.9595279260432164,1.415714162311582,65093.18519566914,19495.32932323732
48,74621.0,19160.0,"[8,14,27,60]",4,0.6786596606183275,1.839509588735046,2.3745956632851493,0.7570294686616403,3.246036319052268,1.4777393710349631,-0.7317346841773784,1.068308003618259,4.334306926830276,0.5754572181155412,0.1741963562804152,0.07162371600487882,2.348829129950018,1.757476944157818,70345.38631216434,24208.709934200702
48,28797.0,7057.0,"[5,6]",2,0.1339872673889677,2.3984393957009047,1.9805728033128314,0.6229299809702442,2.842128106851401,0.5639080300031329,0.24271200864673492,0.14067462614161386,3.910245614716796,0.5329356777094864,0.12259850230927904,0.09780356422544467,2.26501444678265,1.7310525377990744,66763.4389693372,18594.561377921313
48,21260.0,8033.0,"[10,11,49,56]",4,0.5601664544684861,1.5597184236594561,1.9252870300564537,0.8918009833960481,1.932766526952022,0.7780548967544687,-0.13382010343367856,1.0914676160395143,3.3890478430856086,0.6548417941674504,0.3496231810442181,0.1761561729068678,1.6850383544214518,1.327230687064913,62711.068297271915,22471.462652869246
48,69637.0,24452.0,"[19,21,47,50]",4,2.0053845803236774,0.3224341746341639,1.6011607723336598,0.8785734178382238,2.019753992705026,0.4247881951548731,0.17070867382282362,0.8741669869322264,5.642893997458257,3.1848295020032404,0.3560814486838906,0.18147757208093251,2.4968603820239164,1.935299899148441,72037.80059451165,28347.34408432284
48,20738.0,6880.0,[3],1,0.4611918889960607,0.1646966219500401,1.009273784791215,0.529021595042908,0.11813657937120725,0.7991175860256516,-0.3843702027678435,2.9936156322692495,1.1337167057575464,0.41347794821100914,0.20771481965474958,1.0724009673546193,0.6460211615874271,1.1970894023531613,73025.48442472731,18270.04957083602
48,42565.0,11206.0,"[26,28,34]",3,0.3292010724303993,1.7503677159638205,2.408246508375431,0.733761228709036,3.184743860495679,0.10918209904851484,0.3509580556560512,0.8526489231058307,4.342211300505108,0.4529872207917316,0.026631630940917805,0.1110789032773406,2.295385559473745,1.6648720438153373,66322.169294021,22989.275132150873
48,28236.0,4481.0,[40],1,1.3470265048519623,0.584646821185725,2.8390603495183364,2.302114379196747,2.154934903775304,1.8247321652146125,-1.032429953711579,1.1502004566510808,4.360542589460288,3.3482079730840115,1.4763301680833014,0.5021787910823066,2.397226310348482,2.4773802967842222,123320.97124238496,109089.12423856072
48,72255.0,27708.0,"[37,39,46,42,49]",5,0.3610797360736244,1.3779584873849524,1.589292214158187,0.6452645397273522,1.7910107435748457,0.7691248037229248,-0.18449680004152036,0.588122874569236,3.260538574216324,0.4952269375406507,0.2376634242059401,0.1206350615735946,1.441146278998,1.0549850035291743,60029.0088159989,18981.94206629295
72,482874.0,126177.0,"[1,2,3,18,23,33,41,51,57]",9,0.2422624758508456,0.15719393709125384,0.3400661788561621,0.5718548879044998,0.26069966726930005,0.20734492236484803,0.00278573099399404,2.5284479878622426,0.7391825577003514,0.3013248545583326,0.15062220493959178,0.8729835704241729,0.5716294839047021,0.9803725146477109,71027.37810691813,15207.28571014378
72,43177.0,16752.0,"[42,44]",2,0.2948005081640668,0.6952352917757101,1.1075643846029317,0.75237114192741,1.0172630022929159,0.2936350944484343,0.16162457303655442,0.6859654867406348,2.3261755577043117,0.4328356669754656,0.2726207088959356,0.19290035266461658,0.8026631047780087,0.6906363669777955,57656.83618593249,18581.687101929194
72,38890.0,7767.0,"[7,22,56]",3,0.44018640861404523,0.1662867273077877,0.09090604440730665,1.2323370074055155,0.19127457824633654,1.001077190408849,-0.4759373891488794,3.16663339809718,1.0603818258421196,0.4702494676009269,0.30730377289792177,1.5233217739778935,0.7205238309076866,2.069250150989976,72432.27564926735,16556.107174080727
72,475203.0,136059.0,"[4,5,6,9,10,11,12,15,26,28,34,35,37,39,46,48,52,54,55]",19,0.20520149318290937,1.7691348616864788,1.8146842698615138,0.7304257173229085,2.546998530960449,0.08772651760405514,0.2902661680418732,0.6168295474355197,3.7450331531829604,0.4639663033587742,0.12421161199529518,0.1283770488296586,1.8856444166892943,1.4091551983362856,66386.8149653938,21017.196877965816
72,89451.0,14830.0,"[8,14,27,60]",4,0.6939176515075347,1.7924440417658651,2.334551710254797,0.8335886757778028,3.210941651574592,1.4647729920067942,-0.7022627281193095,1.0664522622552832,4.280977796737909,0.6098554427116526,0.22579803266593323,0.0832882304166529,2.3248435509496863,1.763450378676602,71536.96785949876,25847.32271299358
72,33315.0,4518.0,"[5,6]",2,0.17617704751613528,2.3025502933513184,1.937897743628993,0.6937557740957536,2.7856041786582533,0.5721614350592876,0.21019401275702165,0.21515778421131415,3.8729882965630904,0.5638946704487467,0.15818100399220203,0.11141301413777915,2.2185796435239395,1.728082515113315,67805.72450847982,20390.715053279288
72,27201.0,10690.0,"[10,11,49]",3,0.4351212330061427,1.7805694036983848,1.8380005790228293,0.8443882267196088,2.261518394691374,0.6664978533509813,-0.11446028811441389,0.9025376835410488,3.6201589260321323,0.6043912020146337,0.25485207959266276,0.14221612220139013,1.8369901074960455,1.4405681630087166,67061.83566780633,22776.10852542181
72,102706.0,20977.0,"[19,21,32,47,50]",5,1.863722880143327,0.34810491773605845,1.398531348275656,1.0360210309426976,1.8186232397328213,0.4341518062722667,0.1257153982240622,0.8851142090140796,5.5542644029560355,2.957266405234348,0.3744149832726449,0.18253124494187134,2.3426218544680846,1.8125207346698302,71358.21159425937,28751.488092224336
72,12882.0,1609.0,[29],1,2.265105502949859,0.30571185677689394,3.2507298747088966,1.2448940336904148,0.4643378851886313,0.8459451485017848,-0.16001115610928363,0.7470263635305159,5.475174548750211,3.7203307961496814,0.5384974661543263,0.2085251496662025,2.596855269135228,1.3108942131656676,76065.96242819456,46931.7435180873
72,6668.0,760.0,[22],1,0.8424074845530887,0.12283333908218541,0.687379183713261,0.9621020874325215,0.09736759073185874,1.0005682898920203,-0.4920951337732413,0.6234226787642552,0.7254021889622063,0.46372687537492707,0.20875034493101507,1.0470490443911242,0.376769528344331,2.129168774595086,80326.23875224956,16875.69046190765
72,49941.0,7376.0,"[26,28,34]",3,0.354195690434711,1.719680623896204,2.364791161350398,0.7998413327326257,3.1532212705992717,0.11216131881620428,0.3363532851965245,0.8641759989587667,4.298010294607639,0.4854278106165274,0.07151524568991086,0.12014351050239236,2.2745563108468043,1.6766575222762812,67373.00927093967,24152.970264912587
72,50357.0,7618.0,"[15,37,14,27]",4,0.6166683401711748,1.2643515917350094,2.492105837460547,0.8424455882399706,3.0545345425660675,1.2294081177989147,-0.2377397272474564,0.664217462060888,4.373776404908961,0.5234158492364497,0.21457629439799586,0.0948991829338508,2.1997839677105504,1.504879004289379,68807.38789046225,27095.146096868353
72,36765.0,8529.0,[40],1,1.3542538859513156,0.6260624402284765,2.7476668344077164,2.3427939866177137,2.146028652985169,1.802359267401066,-0.9961363048823495,1.1645363711410335,4.36851225072759,3.234974434897311,1.5022067037943767,0.49692218822249834,2.4077322051951575,2.474604669685817,124352.83209574287,110098.7151910787
72,17167.0,2953.0,[58],1,0.6158920457855155,0.31221604223218913,3.4206769263703722,1.0381332966156216,0.366043648744693,0.6100816709384218,0.013883234053696736,0.9032082620143251,1.338073058367789,0.6330932007922182,0.4468272265393036,0.24208243758373604,0.5280165030581904,0.6024415694064218,58616.80479990676,30172.08737694406
72,37157.0,7882.0,"[46,49,44,51]",4,0.46889106924671076,0.9071707447856392,1.819750176763447,0.8908486018516064,1.257374891352907,0.4326803913125401,0.07894697575153753,0.8969023245956351,2.717378713486025,0.5991879929219254,0.32452124907823476,0.25587441701429214,1.1505954255994872,0.9840638618026223,73976.80544715663,24252.40358478889
96,590255.0,76693.0,"[0,1,2,3,32,41,42,44,51,52,56,57,58]",13,0.3268115229638022,0.35487645420030933,0.7775551586399141,0.6198391563798729,0.5266679449373499,0.24303399053799457,0.07843624847056407,1.7283376428492652,1.3559139820501267,0.4079132884804041,0.20564913387433803,0.550638181919678,0.6800260839196587,0.7348353218591934,67419.80119101075,17188.084959890126
96,175803.0,40329.0,"[18,23,33]",3,0.24989095625785618,0.1235629675090868,0.1746173700960716,0.8285962335796406,0.31189447038447593,0.11204961728753204,0.04727893757217272,3.5602634894114553,0.7811159051722593,0.3495188808837124,0.16622754297139242,1.4296976492551459,0.7172913475196755,1.6865410444076743,72471.04251918335,14875.089594603056
96,7800.0,1132.0,[22],1,0.9071630358974374,0.1280028528205137,0.7238784494871857,1.0239530578205187,0.13137090461538792,1.026913820128206,-0.4957279055128181,0.6451029614102675,0.7303119717948682,0.5097349934615404,0.2274711224358934,1.0329746060256428,0.43462681769230604,2.1580142051282105,80164.85743589749,17027.035897435948
96,498241.0,86412.0,"[4,5,6,9,10,11,12,26,28,34,35,37,39,46,48,54,55]",17,0.21197202165618378,1.9628099926481353,1.9034730281490204,0.7929183381616491,2.7448105590708036,0.06102856486519359,0.3785540166947299,0.6794130110669245,3.795383092517483,0.4873060494539768,0.11527503745175727,0.13063447018611485,2.0484542426335945,1.5748819740466895,67028.50451889749,20877.101707808055
96,120474.0,27696.0,"[5,8,14,15,27]",5,0.6229411359712396,2.0070218770689037,2.2130850305958085,0.8520525526835798,3.216094918131693,1.3939549851669175,-0.5154818045304492,1.0262685856865006,4.144209910470344,0.6054492587031203,0.211771855520702,0.08422818186496728,2.3608324316367058,1.820351741188962,68113.07336022763,23406.00441589053
96,31795.0,6405.0,[7],1,0.27019622025476053,0.041437005283839756,-0.45212103815064975,1.402845490077044,0.06800005563767275,1.0019167635162793,-0.5180623343292945,4.333623355055809,0.7988738717408387,0.41688982286523624,0.23526165736750926,2.033451115741489,0.7504018352256642,2.3523800315772982,74740.22255071555,13793.631451485939
96,13580.0,2289.0,[60],1,1.0643068580265285,1.1512329184830636,3.081438006406487,1.1943979122238635,3.6056194641384542,1.7847326318851249,-0.9249699197348966,1.319449407069213,4.795397956332865,0.6396769787923354,0.32799321848307184,0.09529907290132478,2.5369639382916023,1.8959497935198775,93910.47540500748,36765.07805596447
96,30100.0,2899.0,"[10,11,49]",3,0.45825926548172835,1.7721962442192578,1.8647197505980002,0.8707965991029938,2.2562370952491686,0.6678460119933587,-0.08361549734219853,0.9236586282059807,3.6158855454817282,0.6184461959468445,0.26461870269103027,0.1465173724916945,1.843366844584713,1.4491897301328933,66882.82578073084,22774.63388704314
96,104009.0,19021.0,"[19,21,47,50]",4,2.0441651655145323,0.3462490180849658,1.4991492350277227,1.1840684265688681,1.984161917468675,0.42251590241228865,0.16995207486852282,0.9310945739791681,5.582371847234413,3.1380776337720766,0.40440691624763936,0.1974616827293788,2.4850652969935227,2.0222832887154065,72705.59678489369,29192.51864742456
96,15439.0,2557.0,[29],1,2.28869915007448,0.3122753374570779,3.2259298139128005,1.3383145253578617,0.4661390702765682,0.8428453765787884,-0.12877333855818174,0.7858173331822065,5.456186084461454,3.687945925966724,0.57637576203122,0.21762398037437736,2.6064081720318635,1.3504883465250335,75674.26905887708,46314.77997279619
96,7800.0,1132.0,[22],1,0.9071630358974374,0.1280028528205137,0.7238784494871857,1.0239530578205187,0.13137090461538792,1.026913820128206,-0.4957279055128181,0.6451029614102675,0.7303119717948682,0.5097349934615404,0.2274711224358934,1.0329746060256428,0.43462681769230604,2.1580142051282105,80164.85743589749,17027.035897435948
96,51387.0,9268.0,"[26,14,15,27]",4,0.669837619008693,1.107525165800685,2.684477117617298,0.9302789375523055,3.2757311321345823,1.2023457673341464,-0.055803287621388975,0.8400818067799305,4.523612024266846,0.5179712167085094,0.2074930394068546,0.09881388142915426,2.2656959781073067,1.5286233026251852,69148.98787631118,28189.677856267146
96,21287.0,6194.0,[36],1,0.7224689306619012,0.2684386369145355,0.28643541941092243,2.3650987115610236,0.3685227831540283,0.36611827382910866,1.4955527768121377,3.200324837036691,4.188850004509847,0.48260801428100997,0.4918781277305295,0.23569568328087886,0.5590214642269878,1.6890923154507365,55484.313994456534,19554.160191666266
96,15748.0,1820.0,[37],1,0.3491059257683504,2.0951576435102988,1.79759671545593,0.7157942160274358,2.5308244117983327,1.2209538288671349,-0.22813006019812132,0.2040139676784336,3.6975014467233893,0.5941706612268217,0.25360804057658237,0.10321394253238281,2.0829975538481214,1.5685225089535193,65929.44881889765,20040.936753873513
96,43389.0,6624.0,[40],1,1.3944629126276367,0.6347099220770369,2.7466345295581767,2.376220541289277,2.1701294305699546,1.8053921918228084,-0.9419259076033075,1.1933861853004273,4.393569195349039,3.2433191834796853,1.5381470890087372,0.5193098895111734,2.452275262854647,2.5230240369217687,124955.77035654137,109793.08488326689
96,36033.0,5433.0,"[32,29]",2,1.7084260562817437,0.346509679654754,1.8520429328948498,1.2002353503732697,0.7964471786418086,0.6296340024422058,0.015458413787373004,0.8795345420309242,5.396743882857406,2.6958760187050914,0.468050018566315,0.1930443658313229,2.1028915654261415,1.2531608292676184,69178.02148030988,33961.58499153551
96,42607.0,5450.0,"[44,51,46,49]",4,0.4926610949374528,0.9023220570798229,1.840393559579399,0.9359077578097477,1.2346528748562395,0.4488528682141464,0.10554324683737315,0.9246912105287901,2.688239471589179,0.6251135213931959,0.3511418188560529,0.26532621348604724,1.1489640958762686,0.9831651148402838,74249.17783462802,24392.08130119462
120,672711.0,82456.0,"[0,1,2,3,32,41,42,44,51,52,56,57,58]",13,0.3348916192243021,0.36148852975349044,0.8014245735345633,0.6471106022942998,0.5274250944060563,0.2449956978435146,0.09434707394555897,1.7287628370949806,1.3502897450881508,0.41740611978249476,0.2205348399892304,0.5562030366249386,0.6791764228740066,0.7406762077177211,67343.58427318705,17112.273175256443
120,205044.0,29241.0,"[18,23,33]",3,0.25381675687657257,0.12667038714616385,0.20040594382668386,0.8537061725922399,0.32619263737053483,0.09285701195352836,0.06987337434405161,3.5771077002448664,0.7749991677200906,0.3570783568258492,0.17449158537192666,1.456577587722647,0.7210185783978152,1.7096960632010754,72393.81330836297,14734.412828466022
120,9427.0,1627.0,[22],1,0.9327243468759991,0.12969886761429805,0.7590413913228109,1.0803556769916258,0.12958843460273162,1.0466392332661452,-0.5099319536437852,0.6533021083059452,0.7229155343163222,0.5182548094834009,0.24971678137264686,1.0409508772674279,0.43985312358120165,2.200830594780949,79593.63700010607,17065.012411159456
120,562122.0,101340.0,"[4,5,6,9,10,11,12,26,34,35,37,39,46,48,54,55]",16,0.1867870987383511,2.00300979478654,1.9568148938504506,0.8476593949053783,2.820642297771649,-0.05416016604402718,0.5144543556718961,0.6803051146637138,3.793114847346317,0.461161814148882,0.10874353328103536,0.13232578590057054,2.092473691026155,1.6218267212651292,66633.71495867448,20504.9142783951
120,229338.0,71405.0,"[5,8,14,15,27,28]",6,0.5367383386137414,2.3463758433055295,2.20478437422059,0.9528102091367394,3.3462224797373135,1.2519889019612822,-0.26663237884694535,1.1286740248366551,4.056532262193811,0.5722730514175564,0.19695455758314306,0.0857084529340999,2.494115346540924,2.002105248101041,67372.62262686562,21458.88426688999
120,39706.0,7911.0,[7],1,0.27825773326449843,0.04365111139373434,-0.3967209420742379,1.5229742533118582,0.08882045582530429,1.0175451086989502,-0.47824323938447266,4.352767674633559,0.8055261510351123,0.44556441804765545,0.24905375250591089,2.080394268095514,0.7613420883745524,2.3847305076562715,74570.73490152639,13725.52259104404
120,16429.0,2849.0,[60],1,1.092680959096741,1.132609985817762,3.115517903463371,1.264730915636989,3.6425514146935343,1.8116494901698206,-0.909754403493815,1.3764714456144675,4.784347215168342,0.6398491666565221,0.34065011473615403,0.0923113554081193,2.5616642681843014,1.93981460849717,92679.65865238337,36020.01339095479
120,32791.0,2691.0,"[10,11,49]",3,0.4802165689365996,1.7577393910219166,1.891315744198097,0.888308262358577,2.2431065449056056,0.6611525441737081,-0.07969898301363987,0.9391548480985703,3.61090416147723,0.622475415510353,0.27541174203287433,0.14810098896038582,1.8365316546918273,1.451477749778907,66575.09682534842,22706.53093836717
120,126579.0,22570.0,"[19,21,47,50]",4,2.0795157805797215,0.35176202665529477,1.5025648292528606,1.356111301590329,2.013946793275339,0.41430948048254845,0.19987420636125597,1.0202895310201487,5.569949956509393,3.115654192733393,0.43215710216545444,0.20887581153271917,2.4979902557375224,2.099365589039267,72012.82335932514,28748.618586021174
120,18411.0,2972.0,[29],1,2.3248608021834807,0.3062093428385042,3.2075919286296126,1.449660272826018,0.43708569925588225,0.8358384900331302,-0.12163422600617713,0.819709351854887,5.442511410787036,3.7072552363261306,0.6016105084460506,0.22559898511759424,2.622393817609032,1.3867102554451096,74444.93487588965,45407.42121557777
120,9427.0,1627.0,[22],1,0.9327243468759991,0.12969886761429805,0.7590413913228109,1.0803556769916258,0.12958843460273162,1.0466392332661452,-0.5099319536437852,0.6533021083059452,0.7229155343163222,0.5182548094834009,0.24971678137264686,1.0409508772674279,0.43985312358120165,2.200830594780949,79593.63700010607,17065.012411159456
120,63663.0,12276.0,"[14,15,26,27]",4,0.6787808356816329,1.0937640936179536,2.737583839310117,1.0216415242605663,3.3539925978826015,1.2178954862478923,0.06360356882333029,0.8837732683819541,4.512129453575874,0.5167772004775198,0.21639943438104137,0.0998080340857328,2.3100497182350783,1.5840430184879803,68564.58539497043,27725.731303897035
120,27809.0,6522.0,[36],1,0.7567568413103676,0.2688508650077126,0.30973802981051124,2.577713158006414,0.3934448154194645,0.3792582871372596,1.594132369232987,3.31786740731415,4.188263357761908,0.501155699305971,0.533333696105581,0.24741535941602044,0.5746778320327933,1.7924959381495131,55201.33827178227,19383.54230644757
120,17908.0,2160.0,[37],1,0.35593073531382347,2.113039824045127,1.8087840986151407,0.7419969815724716,2.5504695078177497,1.2330736831024998,-0.21008531661826702,0.1827281656242863,3.6781760516528936,0.5872701565222197,0.2644473970850987,0.10252079662720393,2.087979715490298,1.5821759702926055,65741.46973419705,19855.338842975234
120,49842.0,6453.0,[40],1,1.4571160926327364,0.6679449285341859,2.764536087877674,2.4058411528831143,2.215639745255008,1.8153574243810453,-0.9340278939649285,1.2148336379157891,4.406909732374277,3.247272122567299,1.5672112285221478,0.5339466403234276,2.486361655009831,2.5682106437943637,125039.95570001175,109421.20524858756
120,42007.0,5974.0,"[32,29]",2,1.7526676889090005,0.34561580424690197,1.870299939748143,1.2973253794605677,0.780413663698913,0.6288505270788232,0.019185209536512815,0.9218747919632473,5.392910721903511,2.717109288666191,0.4908141159806738,0.20110936734353968,2.129331510248296,1.2892550856047829,68520.01923488962,33600.98726402739
120,48587.0,5980.0,"[44,51,46,49]",4,0.5114596186016858,0.8630149737378301,1.8433746537756943,0.970007905324465,1.1622535015127413,0.47360575174429576,0.11080306211537971,0.9418372820507517,2.602184363142409,0.6402007098606602,0.38007858916994586,0.2763116689443703,1.1089630929672598,0.9595981373618474,74782.65577212002,24371.487681890205
144,732898.0,60187.0,"[0,1,2,3,32,41,42,44,51,52,56,57,58]",13,0.34575328862270704,0.35759924509003493,0.8145669380923488,0.7046605126156757,0.5232645489686054,0.2485054026208433,0.1171554810983153,1.7591512933136713,1.3395950239855945,0.42615907961408495,0.2282562881328527,0.5810937083086589,0.6845015939107412,0.7546028774658946,67309.72034853409,17046.537422669895
144,178500.0,25146.0,"[23,33]",2,0.3605620323809513,0.1373347433837484,0.3749849946442585,0.7524010081120558,0.2755453681624873,0.24045253774229725,0.005048250000001087,3.4056901031316897,0.7748028394957859,0.36852361891876995,0.18299991576471664,1.335713382739505,0.7232643149691914,1.5442208923249345,72010.63690756293,15078.599350140128
144,11197.0,1770.0,[22],1,0.9654406290970854,0.12757780450120437,0.7872292412253432,1.2023773557202873,0.10745624506563267,1.0625632029114886,-0.5405711688845214,0.686308839599906,0.7149937092971305,0.5175528930070591,0.2618746854514544,1.0531787489506153,0.4401519387335887,2.23404306841118,79409.34464588718,17169.92480128609
144,641447.0,79325.0,"[4,5,6,9,10,11,12,26,34,35,37,39,46,48,54,55]",16,0.18397770906559496,2.0598613061484476,1.9849870628407396,0.9172254244699842,2.8845867944724852,-0.08638658456739279,0.5963167492606578,0.6982032195941459,3.7780975839079525,0.46952508667590087,0.09636605630863437,0.14159139895735862,2.141288382402619,1.6755947353124936,66458.82046061486,20202.596192670673
144,286026.0,56688.0,"[5,8,14,15,27,28]",6,0.536411376448293,2.4219650769091103,2.2024780424227166,1.0386280357834567,3.3857024297860954,1.2630697072328994,-0.19670718147300903,1.1772221900351147,4.0011346124862746,0.5773327327480725,0.17968966293275157,0.09723948413430827,2.5262233377595056,2.0485515154915683,67083.83198730226,20806.250844328893
144,119422.0,28026.0,"[7,18]",2,0.14472457376363268,0.0480202088643531,-0.30491692529014935,1.6606422699669965,0.3237214459144715,0.2459464696454583,0.035638794593992884,4.27887747692218,0.8511509305236867,0.41496928195810034,0.2041163092311109,2.0434881085059664,0.7870463959153265,2.336816864907631,73648.33467870229,13449.26971579774
144,17571.0,1142.0,[60],1,1.1081370025610628,1.126752076205105,3.11211068419555,1.3125733740253862,3.638498957031477,1.8146719275510754,-0.8970797700756867,1.400338744863701,4.7678485128905965,0.6585532163223461,0.3385808419555114,0.10262180433669266,2.560904850890666,1.956951236696826,91981.12344203566,35735.74093677057
144,34851.0,2060.0,"[10,11,49]",3,0.5019799160138887,1.7388816727496947,1.9147241073139871,0.9340297957590917,2.23642634535593,0.6584782762331116,-0.05604048638490777,0.9623259684657612,3.6023504384666043,0.6361525474448356,0.2855015234283056,0.1575516982009133,1.8384456966227614,1.4587532034088027,66422.40119365297,22733.15405583767
144,25728.0,1745.0,"[53,61]",2,1.432224263564995,0.5415111846237708,3.740935918921027,1.4748686332789318,1.6202361141169215,0.8010741185867547,0.045508855410440585,1.057647530006212,4.876103365593888,1.1578578004508744,0.5270884427860625,0.22701230398787176,1.9924664146843836,1.4842031630519295,72733.34577114429,41598.82338308451
144,150512.0,23933.0,"[19,21,47,50]",4,2.104162545936564,0.3440854824133561,1.5298796677009086,1.5110484884128912,2.034957164365632,0.4197785002391856,0.24407307166206538,1.03934095447539,5.545968158319641,3.1630305005846724,0.45250712741177423,0.22507552802434216,2.4866847597002133,2.162160344922678,71666.28127989823,28882.9310088231
144,21413.0,3002.0,[29],1,2.341592837948917,0.2992166492317625,3.158878960117683,1.5479263314341747,0.42282678111427874,0.8399083239153786,-0.1077759032830401,0.8305668388362384,5.399606494045685,3.777343796385382,0.6254542216877774,0.2377278330920457,2.6040805104842843,1.4127971199738385,73967.5972540051,44946.512866016084
144,11197.0,1770.0,[22],1,0.9654406290970854,0.12757780450120437,0.7872292412253432,1.2023773557202873,0.10745624506563267,1.0625632029114886,-0.5405711688845214,0.686308839599906,0.7149937092971305,0.5175528930070591,0.2618746854514544,1.0531787489506153,0.4401519387335887,2.23404306841118,79409.34464588718,17169.92480128609
144,97259.0,13628.0,"[24,38,40,43]",4,1.3047211882396639,0.6305881200711627,2.6291743991610033,2.403624986499961,2.3260386002529283,1.3513862492725568,-0.308147827645771,1.0858868493918195,4.40990341757574,3.1347269297442852,1.4266693445234022,0.5392808365703909,2.4287730596345805,2.5998159100957117,116843.40937085512,93988.38087991971
144,20953.0,3387.0,"[15,26]",2,0.36873374886651145,1.4202332486040143,2.4902437794110575,1.0323325236481748,3.346958008686109,1.0981733921634136,0.8016387997900112,0.2579004519161887,4.2063028860306435,0.503868530902495,0.20451197007588284,0.11061426745573588,2.311593168758649,1.6113953238677055,66651.17854245205,23637.149047869003
144,37799.0,9990.0,[36],1,0.8000790583877821,0.23375957752849486,0.26613713712007314,2.893098962168327,0.4202588963993703,0.3809011665652695,1.6708800870658131,3.526857568242529,4.218428007037262,0.5083844610439344,0.5438627201248751,0.3646477802322853,0.6201214820762367,1.930942914442183,55740.1463530779,18832.67091722008
144,19871.0,1963.0,[37],1,0.37301770504755183,2.122210938704635,1.8298294811031144,0.7931363257007651,2.5816159079060097,1.2458628367469993,-0.17592651814201865,0.18011659227011956,3.6557886370590214,0.592582826480795,0.26491880408635504,0.10936511700467944,2.111085546122511,1.600677199285391,65763.24815057116,19844.589602938988
144,21413.0,3002.0,[29],1,2.341592837948917,0.2992166492317625,3.158878960117683,1.5479263314341747,0.42282678111427874,0.8399083239153786,-0.1077759032830401,0.8305668388362384,5.399606494045685,3.777343796385382,0.6254542216877774,0.2377278330920457,2.6040805104842843,1.4127971199738385,73967.5972540051,44946.512866016084
144,5386.0,916.0,[44],1,0.7586379611956917,0.2986096847382149,1.6438362797994786,1.2900211873375387,0.9235346982918751,-0.26478639918306823,1.0639376045302593,0.5879249344597097,1.4341576288525872,0.7556346284812413,0.4381294184923896,0.5103767330115123,0.9266683301151127,1.7196279485703727,70239.33457111039,20101.786854808743
144,21525.0,913.0,"[46,49]",2,0.5671642084552897,1.3961487279442482,2.2549206798141577,0.9352357272938412,1.9628395648780406,0.3758026933797909,0.17174346736352186,0.7990767943321679,3.756339951173055,0.6860452110104508,0.3087662142624925,0.17104700320557675,1.6778555829036064,1.2881074655981406,65208.18322880394,25569.223507549377
144,25283.0,3125.0,"[56,59]",2,1.513061787446104,0.44392300506270166,3.232816841197655,1.590139434798079,0.700274738994588,0.789771497330223,0.273849462484673,1.2377673923584944,1.8772728619230308,1.0576825210615848,0.8105026824348402,0.30548098928133416,1.120079122888896,1.4256512443539082,59590.42961673837,32012.795949847547
168,831408.0,98510.0,"[0,1,2,3,32,41,42,44,51,52,56,57,58]",13,0.34141926312232673,0.37007908178053706,0.8421539436269572,0.783280400470054,0.5709472507529356,0.2506906992619864,0.13975957545511797,1.703459213536557,1.4391254060689773,0.4475445413310938,0.23583484243354436,0.5595344708422334,0.7137351663286794,0.7656539119265116,66865.64301522232,17452.98624020928
168,192549.0,14049.0,"[23,33]",2,0.35163578282930263,0.13440361333476725,0.3745986811253319,0.7990667367994795,0.27396900465856433,0.24338454712307134,0.011427864392957954,3.427835985302484,0.781802758861372,0.36988853685555456,0.1827632483211996,1.3305113579037124,0.7253365499223597,1.5423860440407386,72001.20189666015,15092.18445175006
168,14187.0,2990.0,[22],1,0.9317037542821007,0.13405006477760661,0.7934807759921174,1.4209990119123055,0.0968066442517701,1.0789571468245536,-0.5430588215267482,0.7070353991682583,0.7459334269401535,0.5272315997039544,0.2827953282582536,1.078523995911753,0.4321357765560023,2.2253318728413363,80158.21132022256,17853.157961514087
168,737261.0,95814.0,"[4,5,6,9,10,11,12,26,34,35,37,39,46,48,54,55]",16,0.18182366980349873,2.0560931267570224,1.985323521918311,0.9647092779070006,2.901414881937326,-0.06481092253489695,0.6048774129921464,0.6976489307436742,3.7356592579181647,0.4795016848063265,0.0934026045647447,0.1376754448194072,2.135314193575971,1.658325619442765,66307.40355993337,20249.939730977243
168,314306.0,28280.0,"[5,8,14,15,27,28]",6,0.538139552254806,2.4304367807041647,2.2056969034157627,1.0724679572677571,3.4069992850056834,1.2713200485864002,-0.18425882482994993,1.1949815185201191,3.9678034568382503,0.5804149531666577,0.17427806463129958,0.09450318673203706,2.5226106156261743,2.0401458727672788,66963.76285530691,20789.816191864025
168,145499.0,26077.0,"[7,18]",2,0.11936546872487264,0.046723835524622004,-0.2756112713695624,1.8344843666279487,0.3379133887037016,0.26249482124963364,0.10686388016416126,4.3104928362944275,0.9251208797586169,0.4410461291417819,0.20948767848575933,2.0405646858191404,0.8014185184503065,2.3331219952439644,73762.6266572279,13723.857126165796
168,18690.0,1119.0,[60],1,1.1151752233279983,1.1165235013911214,3.1045214649010204,1.3599553749598794,3.644188270197984,1.8259763141787004,-0.8901913272873128,1.4154714108079203,4.74400446243984,0.6772777949170664,0.34449105516320033,0.10362891556982534,2.558185522043864,1.958466410700905,91933.6098448372,35879.28346709446
168,39904.0,5053.0,"[10,11,49]",3,0.5261152692963145,1.682597613071358,1.976612826132707,1.0156178815406993,2.192705482934048,0.6524624253959541,-0.0373654235415124,0.9706442413793153,3.5938700990627424,0.6698677273205705,0.29982446709602595,0.15727943010725776,1.8173704961156774,1.4327263730202524,65694.47153167594,23623.911788291858
168,30139.0,4411.0,"[53,61]",2,1.4065991444971655,0.5589170371611654,3.6936043469259086,1.5833873284117042,1.697774655662104,0.817355093101962,0.09422009598857484,1.0788987002554706,4.830782993430425,1.1727802956634221,0.544122529480068,0.23217428544410745,2.010060964166032,1.5055357056305814,73914.61906499884,42255.019476425776
168,174536.0,24024.0,"[19,21,47,50]",4,2.082145166848121,0.3379655955161045,1.5789070591740377,1.6670866489721443,2.0932301694091726,0.4219274792134635,0.2979312394291167,1.0251979141495138,5.492004973197536,3.1506302381629054,0.460920122066498,0.23639196840193333,2.4892370458243525,2.1927042617511736,71407.11885227147,29368.995553925786
168,60953.0,14061.0,"[24,29]",2,1.700461806408225,0.43984996822141476,2.7408963370301813,2.1698356937476464,1.493023968270637,1.074026470870989,0.24211149087002015,0.8074519889094729,4.860414118501133,3.3760726653323108,0.9807742150181249,0.39266858006988725,2.450265106229378,2.028036616917949,90054.56873328717,60583.69904680654
168,14187.0,2990.0,[22],1,0.9317037542821007,0.13405006477760661,0.7934807759921174,1.4209990119123055,0.0968066442517701,1.0789571468245536,-0.5430588215267482,0.7070353991682583,0.7459334269401535,0.5272315997039544,0.2827953282582536,1.078523995911753,0.4321357765560023,2.2253318728413363,80158.21132022256,17853.157961514087
168,85164.0,13384.0,"[38,40,43]",3,1.3782242877624598,0.6411385453008585,2.673405815473655,2.536584470997132,2.3687102967216176,1.3499459602296733,-0.4209034997299237,1.2202019810483082,4.470686634740026,3.177045528814984,1.4842921337536947,0.558303009475831,2.4369148896834325,2.640654131017792,121041.22417923063,99590.956554414
168,24503.0,3550.0,"[15,26]",2,0.36738981998122466,1.4275978512018974,2.4766620028975983,1.101792179161741,3.376237312941258,1.1122183562012824,0.8501666310247713,0.30197223580785026,4.137045635514022,0.5278727827204815,0.20253332012406666,0.1119698441415331,2.3048243144104816,1.5969340944782278,66443.54732073603,23722.109455984944
168,52402.0,14603.0,[36],1,0.727424306629495,0.21620767344757397,0.27021283204843094,3.036162038090193,0.43803522903704195,0.3857282642838138,1.6555659571009005,3.6143187769932217,4.204924997710017,0.5273192820312121,0.571639577019964,0.43048409558794987,0.660982279893891,1.9571166741727561,57519.84305942519,19338.26769970619
168,23667.0,3796.0,[37],1,0.3719564029661515,2.15519373642623,1.8624252620526343,0.8426518415515276,2.6430693497274658,1.2821163082350864,-0.15401415798370488,0.14704956263995372,3.59391850010561,0.6001846094984588,0.2613056314277369,0.10137043419106828,2.1305167521021016,1.5978023406008426,65794.50407740721,19786.338107913944
168,6669.0,1283.0,[44],1,0.7122277617333959,0.3120069377717849,1.6737223535762493,1.454404763682712,0.9357558140650881,-0.29359188678962456,1.0771902878992345,0.5825117815264598,1.4449880260908752,0.7472086305293092,0.44808951252061835,0.516159526915581,0.9200060502324187,1.7098126419253277,70176.43664717341,20428.41805368119
168,24460.0,2935.0,"[46,49]",2,0.612322297097307,1.306221116966475,2.338760683033517,1.0439074658626293,1.8658085899836467,0.39531298503679313,0.19147931475877833,0.8019120774325366,3.7603016340147213,0.7461934051512674,0.3463731974243749,0.1764696502044174,1.6485837145543805,1.256176079354046,64310.174979558615,27135.463614063756
168,30815.0,5532.0,"[56,59]",2,1.4407882095408053,0.43258953396074373,3.095581431251039,1.76131057926334,0.6891472036021407,0.8139408502028187,0.2730687058575376,1.3009910907025617,1.9475107068310922,1.0586611016388154,0.8245517579750103,0.33157758705176044,1.0902546782086593,1.4101456030180055,59192.9426577964,31688.376180431358
