time_in_hour,cumulative_size,size,pcore_ids,pcore_power,AF700 CD48_[R 730_B-A],APCCy7 Ly6G_[R 780_A-A],BV421 CD117_[V 440_F-A],BV510 SCA-1_[V 525_E-A],BV605 CD11b_[V 610_D-A],BV650 CD150_[V 660_C-A],BV711 CD11c_[V 715_B-A],BV785 B220_[V 780_A-A],FITC Ly6C_[B 525_B-A],PE CD115_[YG 582_D-A],PECF594 CD135_[YG 610_C-A],PECy5 CD3-CD19-NK11_[YG 670_B-A],PECy7 CD16-32_[YG 780_A-A],PerCPCy5-5 CD45_[B 695_A-A],_FSC-A,_SSC-A
-1,0,0,[],0,0.0,0.0,0.0,0.0,0.0,0.0,0.0,0.0,0.0,0.0,0.0,0.0,0.0,0.0,0.0,0.0
0,130775,130775,"[2,4,6,10,17,21,24,25,26,27,35,43,44,49]",14,0.34901090314662175,0.2152849273714339,0.6235153298948575,0.5944570823934257,0.4184792521200489,0.26100091234563183,0.010698063467783125,2.3919611474287894,0.9733207074134974,0.42730613975912723,0.2050663694895749,0.9412115850659539,0.6967883554731406,1.1462326490384218,69336.93393997324,15253.716688969569
0,159977,159977,"[8,9,11,13,14,15,16,18,19,20,22,23,28,30,31,32,33,37,38,39,40,41,45,47,48,50,51]",27,0.39096367551585587,1.6500729611194043,1.898607501697121,0.7825838319883527,2.4822771893647153,0.35407009633884434,0.1256810681473035,0.8008363524319155,3.842034446189134,0.722517209642635,0.21041072615437972,0.21398180279040158,1.9738160949323964,1.6338754484582132,69606.55954293438,22739.972471042678
0,81531,81531,"[9,11,14,15,18,19,20,22,23,27,28,30,31,32,33]",15,0.4058577103678367,1.5683942847628507,1.8125265694521047,0.7713193645484582,2.3205574571880603,0.44543503826765307,0.07870850731624346,0.8273810233898802,3.660819040561258,0.7165446663600362,0.23840173637021733,0.22432102058112924,1.8745790791600725,1.5577315587199958,68817.13213378956,22038.20622830579
0,45053,45053,"[4,10,17,21,24,25,26,35]",8,0.38119473828601813,0.22950871067408896,0.8502561616540443,0.6076034688034144,0.43043253334960996,0.2666453067054366,0.05387587117395132,2.0171398009677484,1.1403249129247732,0.4610785222959617,0.2184493353383825,0.8187559135240705,0.6534096475040524,1.0100461968570353,69809.2632233148,15936.840965085583
24,370552.0,177121.0,"[0,3,5,6,7,8,9,11,13,14,15,16,18,19,20,21,22,23,27,28,30,31,32,33,37,38,39,40,41,43,45,47,48,49,50,51]",36,0.42701555040858064,1.500542663113396,1.9456759221674669,0.8344887756860073,2.329035518035248,0.3902907809889018,0.12589348717049953,0.8516786046303824,3.771697667083156,0.7354796401260829,0.21583177728630965,0.22806622424382872,1.8378052079789065,1.5622624472273856,69655.6851400074,24791.973919989712
24,255195.0,136041.0,"[2,4,10,17,24,25,26,35,44]",9,0.31583943579615803,0.16076105740708302,0.5291331281137972,0.6196500085463885,0.32476144416230346,0.26519752697740806,-0.00542374383902855,2.4661560554360173,0.8829052928701563,0.3781136480181774,0.1773347837810193,0.9671447266796056,0.6146821739454192,1.1416702353102515,71179.49715315737,15396.658523873835
24,21509.0,10839.0,"[3,5,6,7]",4,0.42823593449253483,1.3925444468362036,1.855765684039254,0.8329043571528243,2.100675914454414,0.4102331382676998,0.13708123050816523,0.8944261984750606,3.522735442186996,0.7046123010367761,0.25658729178483775,0.2479311409177556,1.68622629573666,1.4472492464084787,68443.6661862476,24008.465293598016
24,59657.0,28838.0,"[12,29,34,36,42,53]",6,1.792990037765901,0.40459186675495884,2.027730127780495,1.1244573560856281,1.8085595071659846,0.610381109090312,-0.010548559280555647,0.9595797234020953,5.520850467606497,3.0109512435254913,0.5283163627403376,0.26201429580769875,2.38314661902208,1.887199667264534,79821.91099116587,40062.64290862753
24,21847.0,8970.0,"[11,13,14,15,16,46]",6,0.6308053658625878,1.3057251084817172,2.1800125256099228,0.9825937660090656,2.0360652448391092,0.576909171236333,0.08631271945805663,0.9005042829221455,3.6110296940083315,0.9329345108252826,0.3710365659358339,0.26883102883691135,1.7507652394378996,1.6008937703574875,72120.17833112116,28997.035748615373
24,23127.0,11881.0,"[19,20,22,23,27]",5,0.5424610100315641,1.3695307249535125,1.7734790462230294,0.8109444039002085,2.1285129148181734,0.4945831068448132,0.06615017844942406,0.8653635292515207,3.835989577160896,0.9007016747956919,0.25089268106541907,0.2327017261209834,1.8122007116357493,1.5420601356855608,68522.73861720074,23777.40165174903
24,23979.0,15119.0,"[21,30,24]",3,0.42489320801535024,0.3573961440426987,1.4717988820634829,0.7923264392176326,0.5926017226323195,0.33011637028232865,0.1296024126527251,1.2038380531715123,1.6546196079486206,0.5452439577964098,0.30496561382877596,0.4504903293715363,0.6926658364819255,0.7633741510071277,69862.29751032157,19987.045998582005
24,18675.0,9685.0,"[29,31,33,52]",4,1.1851183094511348,0.6541732122623789,2.753065432128522,1.8573046404819347,2.193926463346713,1.4161414190629313,-0.42732818077643975,1.0573238270950447,4.458779165140553,2.6543561900937083,1.0627026948326646,0.4284332813386884,2.2474532450870113,2.191031355127177,102420.77129852737,73174.8515127175
24,44832.0,24921.0,"[10,17,25,26,35]",5,0.39178445072715706,0.16714761928979005,0.5919536773063898,0.7555884509056003,0.39575492491969877,0.2967197049428969,0.01595960146770814,2.6557249622814023,1.2457027037830102,0.47373019976802044,0.19909243323965153,1.1578547201329437,0.6862326316247337,1.5116872891684523,72645.71448965021,16628.51962883653
48,520213.0,158889.0,"[0,3,5,6,7,8,9,11,14,15,16,18,19,20,21,22,23,27,28,30,32,33,37,38,39,40,41,45,47,49,50,51]",32,0.40544495458398644,1.523934184997282,1.9218908544423203,0.7968708327165981,2.3589144586544353,0.37206234009915073,0.13341883183811465,0.8036099992656824,3.8593364568532498,0.6465487000997668,0.18988362698740424,0.1965355622773728,1.852817886279273,1.5026092197830594,68118.92623982874,23873.968301445817
48,405473.0,135566.0,"[1,2,4,10,24,25,26,35,43,44]",10,0.3169968497705189,0.1759813780769548,0.6336404180500259,0.5970125697123958,0.31900371715502684,0.2661347534854299,0.00991002264762475,2.2096228757722347,0.8992505103644407,0.3678558763814105,0.182249392285053,0.8135554858079319,0.5854016624707504,0.9827913721505417,69815.56627444972,16068.936772608731
48,26374.0,12912.0,[17],1,0.21106973936452267,0.08685825305224792,-0.06328747179039818,1.0289166066201596,0.2542502469098413,0.3955074777432199,-0.06360459827860199,3.9716001305831172,1.133017620118295,0.3701670729885448,0.17987179915826568,1.746024963790116,0.7456864230302661,1.9964097321604617,73064.1704709183,14888.840221430113
48,22702.0,1193.0,"[3,5,6,7]",4,0.41435548502334396,1.4043332704166973,1.8474151951370072,0.815445148224827,2.10502361439521,0.4137140938243309,0.13230268756056907,0.8792258721258079,3.5186095074442787,0.683033432869352,0.2500369752444773,0.23932045502598875,1.6917742695797653,1.4241603760021126,68085.59457316526,23686.376883093984
48,89261.0,29481.0,"[12,29,31,34,36,42,48,53]",8,1.8403270678347836,0.38297295158020317,1.9137851333505256,1.0774883488533682,1.8169232183596509,0.5878880100827979,0.022584188570593522,0.90168079353804,5.570100816582838,3.0528832394550864,0.49765661129721206,0.24274917043277522,2.426998787958913,1.8672483403390088,77927.32449782084,38570.429101175185
48,26337.0,8325.0,"[11,14,15,16]",4,0.6243484042221956,1.1304607654630408,1.5945311901887096,1.0531036729695868,1.6544764989558423,0.5178643578615694,0.12919371860881235,1.068899028666905,4.096498510802295,0.7125101946311255,0.29270605987774045,0.38063677582868227,1.458234427117735,1.7505245199149455,70762.1369176445,24581.375251547244
48,7154.0,3723.0,[19],1,1.265741495666757,0.4332769625384425,1.4548938993570033,0.8440444911937379,1.644105397679621,0.361585679899354,0.07703898797874986,1.0521423782499313,5.559717675845718,1.7049892917249094,0.33441799566675856,0.22367422882303467,1.9662782753704238,1.5814856030192865,68038.7721554376,25995.844562482525
48,7721.0,2522.0,"[21,46]",2,1.4303336053619982,0.3191107219272098,3.2941663424426966,1.2841263582437494,0.7114686339852274,0.6642410391141043,0.21612942144799518,1.1313778362906395,1.8307165788110336,1.106263716746534,0.6821432661572278,0.356937588136251,1.1321411855977193,1.400960318093511,70201.84950135995,36537.18637482188
48,29377.0,8770.0,"[23,25,26]",3,0.4067175534942311,0.4148819662661247,1.0405737977329284,0.6964639514245801,0.7251997922524525,0.28652719634407564,0.03494828168295516,2.4364326174898805,1.786969254212476,0.5239777332947534,0.20936328474656518,0.8846522848486946,0.9027874129420973,1.392220060727772,71384.39132654786,19175.022636756625
48,520.0,148.0,[30],1,0.7708453173076932,0.7870486865384616,1.7543478923076905,1.4357422653846177,1.5743638480769193,-0.3556794403846154,0.7550523365384616,1.4574017134615387,2.7393343692307712,0.9853162769230778,0.5134313750000024,0.638973151923077,1.394545373076923,2.0255635634615383,72703.13846153842,26455.876923076918
48,39591.0,20916.0,"[29,31,33,52]",4,1.2632290220504674,0.586643804829373,2.4781148743401373,1.5764904232780284,1.9574367687605725,1.2502252077744946,-0.3119045798792728,0.9529493498269832,4.730043515192841,2.57831861478619,0.8753367588593433,0.34266396842717106,2.2640558046778216,1.9156912338662793,93247.50049253622,63887.32954459329
48,8446.0,3649.0,[35],1,0.7459632092114516,0.12537169003077553,0.8339721268055995,1.0377234225668874,0.36072426687189285,0.39196220755387534,-0.05082922093297837,0.619064645394273,0.9154476270423865,0.5234436552214049,0.18393019168837021,1.1890326986739261,0.42995451622069925,2.2868807296945195,78747.45346909793,17114.930618044003
48,36142.0,15344.0,"[38,39,41,45,49,43]",6,0.8472232222621885,0.546721941951192,2.819034131564386,1.0602934019146737,1.3309336925737383,0.5240503459133359,0.14811959529079832,1.006656826074929,3.1435354705328975,0.8794083420674018,0.425548673205697,0.30018799980632005,1.404218156383155,1.1681487478280133,68373.04587460568,32883.62924021913
72,712870.0,192657.0,"[0,3,5,6,7,8,9,11,14,15,16,18,19,20,21,22,23,27,28,30,32,33,37,38,39,40,41,45,47,49,50,51]",32,0.4358772842187224,1.5001094058089164,1.8455022067137175,0.8906166566316513,2.330190901388763,0.3768356870397169,0.12400498298989238,0.7953847902843396,3.7987229124482647,0.6930642623409574,0.24047361219998953,0.19312212912452376,1.8333609166201446,1.5041119683476718,69443.78315260849,25529.49011180167
72,556042.0,150569.0,"[1,2,4,10,24,25,26,35,43,44]",10,0.2986923520057869,0.18748303699179392,0.5624293837983769,0.6421201398275631,0.31312544352766203,0.2621151210232149,-0.0016935557619635055,2.2818201277204953,0.8897516945752323,0.3530319234985887,0.18098913699684127,0.8023302672621866,0.5889851323838854,0.9967461917786711,69852.8350016726,16539.466241758633
72,26374.0,0.0,[17],1,0.21106973936452267,0.08685825305224792,-0.06328747179039818,1.0289166066201596,0.2542502469098413,0.3955074777432199,-0.06360459827860199,3.9716001305831172,1.133017620118295,0.3701670729885448,0.17987179915826568,1.746024963790116,0.7456864230302661,1.9964097321604617,73064.1704709183,14888.840221430113
72,22702.0,0.0,"[3,5,6,7]",4,0.41435548502334396,1.4043332704166973,1.8474151951370072,0.815445148224827,2.10502361439521,0.4137140938243309,0.13230268756056907,0.8792258721258079,3.5186095074442787,0.683033432869352,0.2500369752444773,0.23932045502598875,1.6917742695797653,1.4241603760021126,68085.59457316526,23686.376883093984
72,106035.0,16774.0,"[12,29,31,34,36,42,48,53]",8,1.8486653538548647,0.39978276727496187,1.8661310664120427,1.2123881971141652,1.7606215444617432,0.6155513925213423,-0.008446377186780207,0.9070307892016691,5.510886412835392,3.033763477257512,0.5318035119818996,0.2476035976611486,2.4115312392323327,1.8726783446220632,79516.2225302964,40867.58855095014
72,26337.0,0.0,"[11,14,15,16]",4,0.6243484042221956,1.1304607654630408,1.5945311901887096,1.0531036729695868,1.6544764989558423,0.5178643578615694,0.12919371860881235,1.068899028666905,4.096498510802295,0.7125101946311255,0.29270605987774045,0.38063677582868227,1.458234427117735,1.7505245199149455,70762.1369176445,24581.375251547244
72,7154.0,0.0,[19],1,1.265741495666757,0.4332769625384425,1.4548938993570033,0.8440444911937379,1.644105397679621,0.361585679899354,0.07703898797874986,1.0521423782499313,5.559717675845718,1.7049892917249094,0.33441799566675856,0.22367422882303467,1.9662782753704238,1.5814856030192865,68038.7721554376,25995.844562482525
72,7721.0,0.0,"[21,46]",2,1.4303336053619982,0.3191107219272098,3.2941663424426966,1.2841263582437494,0.7114686339852274,0.6642410391141043,0.21612942144799518,1.1313778362906395,1.8307165788110336,1.106263716746534,0.6821432661572278,0.356937588136251,1.1321411855977193,1.400960318093511,70201.84950135995,36537.18637482188
72,29377.0,0.0,"[23,25,26]",3,0.4067175534942311,0.4148819662661247,1.0405737977329284,0.6964639514245801,0.7251997922524525,0.28652719634407564,0.03494828168295516,2.4364326174898805,1.786969254212476,0.5239777332947534,0.20936328474656518,0.8846522848486946,0.9027874129420973,1.392220060727772,71384.39132654786,19175.022636756625
72,520.0,0.0,[30],1,0.7708453173076932,0.7870486865384616,1.7543478923076905,1.4357422653846177,1.5743638480769193,-0.3556794403846154,0.7550523365384616,1.4574017134615387,2.7393343692307712,0.9853162769230778,0.5134313750000024,0.638973151923077,1.394545373076923,2.0255635634615383,72703.13846153842,26455.876923076918
72,48908.0,9317.0,"[29,31,33,52]",4,1.3586997934898182,0.5674099257585605,2.317097454015705,1.6404360272552578,1.8056481669869924,1.1470950756113518,-0.27830971949374783,0.9481430249447937,4.819034891653713,2.61907809642594,0.8410929566124254,0.3277347488754415,2.2363161747157827,1.8782213948842694,91431.60022900136,61679.29336713813
72,8446.0,0.0,[35],1,0.7459632092114516,0.12537169003077553,0.8339721268055995,1.0377234225668874,0.36072426687189285,0.39196220755387534,-0.05082922093297837,0.619064645394273,0.9154476270423865,0.5234436552214049,0.18393019168837021,1.1890326986739261,0.42995451622069925,2.2868807296945195,78747.45346909793,17114.930618044003
72,39923.0,3781.0,"[38,39,41,45,49,43]",6,0.9220460816822376,0.5468502966460433,2.813719629912583,1.1381574091125466,1.34696116419107,0.5588430796032333,0.136887861608598,1.0095191780176846,3.2350139197455094,0.9833011366630792,0.47337228028956657,0.3048264352879293,1.458296892568192,1.2233965640608195,70247.46797585348,35884.233950354384
96,885322.0,153967.0,"[0,3,5,6,7,8,9,11,14,15,16,18,19,20,21,22,23,27,28,30,31,32,33,37,38,39,40,41,45,47,49,50,51]",33,0.5013325829009037,1.5350373349459363,1.8649272732102076,0.9637790373513817,2.3659852668486745,0.3819472343870396,0.1911296872855397,0.8457491616315882,3.851073142306435,0.7729383206596031,0.2554837826497218,0.19617677588492954,1.9077388233365933,1.574770647559881,69538.79227670838,25567.759563187108
96,680915.0,124873.0,"[1,2,4,10,24,25,26,35,43,44]",10,0.3314534110542393,0.21729634459365021,0.5770512733116542,0.7124640357665948,0.3532223339432954,0.26505727726072115,0.03162469546859992,2.361993666481097,0.9343246848402528,0.37987761572589773,0.19699873377879795,0.8630323744902064,0.6304115643112601,1.0660847402054605,70225.6404514513,16540.601514138907
96,26374.0,0.0,[17],1,0.21106973936452267,0.08685825305224792,-0.06328747179039818,1.0289166066201596,0.2542502469098413,0.3955074777432199,-0.06360459827860199,3.9716001305831172,1.133017620118295,0.3701670729885448,0.17987179915826568,1.746024963790116,0.7456864230302661,1.9964097321604617,73064.1704709183,14888.840221430113
96,901.0,0.0,[3],1,0.4321021842397341,1.2467197857935624,1.682740896781357,0.8475456348501664,1.7256639866814698,0.3508619278579357,0.1380122053274122,1.0112204162042158,2.96379316315205,0.7007527569367374,0.2806040277469455,0.2620312319644844,1.4217673518312983,1.3486908479467257,66539.3296337403,22272.21309655939
96,21801.0,0.0,"[5,6,7]",3,0.413622042704461,1.4108471803128229,1.8542209170221704,0.8141184871336189,2.1207019330305976,0.4163116719875217,0.13206672244392648,0.8737707515251629,3.5415391678363384,0.6823011219210143,0.24877368850053339,0.23838185541947599,1.7029332179257755,1.4272794092931496,68149.49919728443,23744.82198064307
96,97815.0,10265.0,"[12,29,34,36,42,48,53]",7,1.8789125695343312,0.4380656872770117,1.9228949115473228,1.264234997505509,1.9389248936768495,0.6245470584675197,0.026360962050802073,0.9533735137146517,5.493058372816041,3.032492578326436,0.5466839473598153,0.2596200104891886,2.479718825670913,2.0061162183918677,80298.11444052542,40380.62971936815
96,27870.0,1533.0,"[11,14,15,16]",4,0.6594795460351639,1.13771710434159,1.6074015335486185,1.0936819661284503,1.6715320792608521,0.527454107570873,0.1311524717976451,1.096275087334059,4.099410375565125,0.7580062287405792,0.310158338858991,0.3820321537495498,1.4886736942590528,1.7739734905992075,71147.74596340163,24989.108862576242
96,7154.0,0.0,[19],1,1.265741495666757,0.4332769625384425,1.4548938993570033,0.8440444911937379,1.644105397679621,0.361585679899354,0.07703898797874986,1.0521423782499313,5.559717675845718,1.7049892917249094,0.33441799566675856,0.22367422882303467,1.9662782753704238,1.5814856030192865,68038.7721554376,25995.844562482525
96,7721.0,0.0,"[21,46]",2,1.4303336053619982,0.3191107219272098,3.2941663424426966,1.2841263582437494,0.7114686339852274,0.6642410391141043,0.21612942144799518,1.1313778362906395,1.8307165788110336,1.106263716746534,0.6821432661572278,0.356937588136251,1.1321411855977193,1.400960318093511,70201.84950135995,36537.18637482188
96,13499.0,0.0,"[23,26]",2,0.44736540914141965,0.6732279443662499,1.4305408976220435,0.7128153389880785,1.0884068338395512,0.34237778487295256,0.04289514178828213,1.9042012077931671,2.1563871843840254,0.6094684829246612,0.22811910719312634,0.6890507242017949,1.1146343409882231,1.395366670049629,70865.20068153196,21196.30787465737
96,31063.0,7033.0,"[29,52]",2,1.327582393458454,0.6324036074751231,2.614668441361099,2.1274482535170516,2.1222371293822113,1.4235225416411825,-0.3556866713131517,1.0915600327399329,4.366602038373627,3.001049985706469,1.220855311882313,0.4655959355825309,2.354168697260399,2.3793243026108195,107061.97031838549,80084.98445095429
96,520.0,0.0,[30],1,0.7708453173076932,0.7870486865384616,1.7543478923076905,1.4357422653846177,1.5743638480769193,-0.3556794403846154,0.7550523365384616,1.4574017134615387,2.7393343692307712,0.9853162769230778,0.5134313750000024,0.638973151923077,1.394545373076923,2.0255635634615383,72703.13846153842,26455.876923076918
96,15567.0,9174.0,[33],1,0.9269137116335766,1.3149034429241397,2.771132149225927,1.224333516412936,2.9697864402261085,0.9688251081775492,0.24494058913086247,1.0673266624269169,4.60784487781848,0.9541633779790631,0.3810652284319409,0.2040371784544215,2.4443342132716435,1.8909951952206512,74806.3303141263,32686.543585790434
96,8446.0,0.0,[35],1,0.7459632092114516,0.12537169003077553,0.8339721268055995,1.0377234225668874,0.36072426687189285,0.39196220755387534,-0.05082922093297837,0.619064645394273,0.9154476270423865,0.5234436552214049,0.18393019168837021,1.1890326986739261,0.42995451622069925,2.2868807296945195,78747.45346909793,17114.930618044003
96,50826.0,3327.0,"[38,39,40,41,45,49,43]",7,0.9482726160036183,0.6867142887498519,2.7985432344666097,1.141947039349942,1.7375707924684267,0.7443647533939295,0.011021494195887716,1.054386993054738,3.5469420579821276,0.9487531983630438,0.44471395309488004,0.27189966871286375,1.6741811205091874,1.3558939576988174,71854.70743320345,35493.84393814183
96,6487.0,0.0,"[36,42]",2,1.7316528658856176,0.417033564976109,2.1361829147525957,1.1404678763681262,1.7270263283490075,0.7988589668567923,-0.1104271116078297,0.9148613425312142,5.386945401726533,2.9900453016802917,0.5851398241097603,0.26941386804378076,2.339596154462772,1.83536326684138,80058.58362879607,42449.63033759826
96,10862.0,0.0,"[48,51]",2,1.9283588338243474,0.3500056276008108,1.7554668352973768,0.97082016488676,2.3123032042901825,-0.1416906751979361,0.5453418759896946,0.7022604295709844,5.659657782084338,2.9888303317989267,0.32734677895415265,0.21655486862456486,2.568674573375071,2.080243923955078,73552.72178236043,32380.14067390909
120,1107347.0,219828.0,"[0,3,5,6,7,8,9,11,13,14,15,16,18,19,20,21,22,23,27,28,30,31,32,33,37,38,39,40,41,45,47,49,50,51]",34,0.5014664748981112,1.6390757883996554,1.9146722370124203,1.033689036284024,2.4742316141444287,0.3851611812584528,0.25921709879650123,0.9167580806946591,3.840479571942685,0.7564097662575563,0.25835104564876366,0.20102116083034338,1.9871151577229247,1.6719493515862902,69126.14935697669,24891.792177158462
120,784845.0,103930.0,"[1,2,4,10,24,25,26,35,43,44]",10,0.34342334132981533,0.23631820624963362,0.6225000406462446,0.75088024080934,0.3823652380342617,0.2681633839216402,0.052477883852214635,2.351294902073649,0.9599508153648143,0.39383999902018607,0.2121902585007036,0.8712206458651051,0.6459177465576097,1.091246950098424,70098.05865871598,16538.009680892173
120,34982.0,8608.0,[17],1,0.27084565971071095,0.15490967760563112,0.08104941578527658,1.1429400616602692,0.3579543276542063,0.38828109659253096,0.018054621233766888,3.740601610856996,1.2322254613515553,0.4258950989937603,0.2108879618089201,1.6543583972043034,0.7928022511005698,1.9729047961237274,72501.86084271905,15175.228403178675
120,901.0,0.0,[3],1,0.4321021842397341,1.2467197857935624,1.682740896781357,0.8475456348501664,1.7256639866814698,0.3508619278579357,0.1380122053274122,1.0112204162042158,2.96379316315205,0.7007527569367374,0.2806040277469455,0.2620312319644844,1.4217673518312983,1.3486908479467257,66539.3296337403,22272.21309655939
120,21801.0,0.0,"[5,6,7]",3,0.413622042704461,1.4108471803128229,1.8542209170221704,0.8141184871336189,2.1207019330305976,0.4163116719875217,0.13206672244392648,0.8737707515251629,3.5415391678363384,0.6823011219210143,0.24877368850053339,0.23838185541947599,1.7029332179257755,1.4272794092931496,68149.49919728443,23744.82198064307
120,120161.0,22346.0,"[12,29,34,36,42,48,53]",7,1.89413131612587,0.47397496357388036,1.9191900928337957,1.4305494973910098,1.9878631486672176,0.6016621701800096,0.08881418003344876,1.03465339179933,5.455682230374249,2.9659052100764782,0.5753624410582456,0.27161632058654595,2.4946055307545754,2.082313849352126,79419.70549512737,39508.207022245035
120,33428.0,3361.0,"[11,13,14,15,16]",5,0.7509487721969597,1.1150959529735576,1.684168676139763,1.2266638094710962,1.723795991623788,0.6411362258286548,0.11215240376332636,1.124436220683262,4.040715300915401,0.9502432667823367,0.4049521697379461,0.39320303030393555,1.5717970228251699,1.8713924658071062,73304.68445614469,28220.408280483414
120,12942.0,5788.0,[19],1,1.3573777421573026,0.6583410372430918,1.664000082753827,1.3111067324988368,1.8961659375676043,0.4170751719208763,0.22545952650286605,1.2154641212331851,5.319734654226548,1.6512831143563629,0.4064179178643097,0.25038785048678647,2.1305734099830005,1.8288735905578697,67899.07958584449,26482.89537938483
120,7721.0,0.0,"[21,46]",2,1.4303336053619982,0.3191107219272098,3.2941663424426966,1.2841263582437494,0.7114686339852274,0.6642410391141043,0.21612942144799518,1.1313778362906395,1.8307165788110336,1.106263716746534,0.6821432661572278,0.356937588136251,1.1321411855977193,1.400960318093511,70201.84950135995,36537.18637482188
120,18722.0,5223.0,"[23,26]",2,0.4627238047751283,0.5986859821066166,1.3658971030338738,0.7906357063348,0.9870553450486086,0.3284986423459011,0.08133745791048907,2.0459008441939908,1.998709458444611,0.5864510640957138,0.26347623010362353,0.7728931099241558,1.0456215441192227,1.4213349664565669,70804.80119645328,20813.393440871685
120,36351.0,5288.0,"[29,52]",2,1.3667115661467395,0.6761743343236812,2.6316573755054598,2.156129053175991,2.1685226118951184,1.4451579135374637,-0.33697214142665644,1.1274781672306355,4.375339311078115,2.9532715629831348,1.2298250316910293,0.47421320634920583,2.387394401502025,2.4224312765536022,106481.26896096423,78634.50821160324
120,1805.0,1285.0,[30],1,0.6403821628808868,1.2124398216066492,1.7848774448753404,1.3049250858725778,1.868434403878123,-0.10205946371191144,0.5919269462603864,1.3340953783933496,2.8425566775623246,0.7040605700831045,0.47528565761772956,0.4762092033240979,1.5495833124653764,1.8894772952908625,67602.89861495848,22908.59612188366
120,16897.0,1330.0,[33],1,0.9228755899272041,1.308961099070856,2.764183597147419,1.261314400011849,2.966721744392492,0.971898596200506,0.2566365650707296,1.0834847470556874,4.604323431141649,0.9487539303426676,0.3867823599455562,0.20827354323252578,2.4354764572409064,1.9144320020121819,74690.03775818206,32654.824880156237
120,10416.0,1970.0,[35],1,0.7448547043010698,0.15723123588709154,0.9198179926075336,1.1313055050883185,0.47205430712364826,0.38039908246928156,0.012887051363281277,0.814593307699695,0.9746288315092154,0.5490853942012267,0.22072028561826995,1.1454275883256555,0.5206442211021486,2.259658749519953,77359.4715821814,16795.45314900151
120,78522.0,26386.0,"[38,39,40,41,45,47,49,43]",8,0.9232073113777004,0.9760246345737409,2.6384891290848453,1.3015673363261353,2.046349204388584,0.8077500881281641,0.13974685791243457,1.1635250704261346,3.6524240956165115,0.9532381443289776,0.4687321065433987,0.2871371963653494,1.8617418656427507,1.5970739797126927,71820.04329996684,33108.85489416971
120,7084.0,597.0,"[36,42]",2,1.7064780436194258,0.4311070607001719,2.177567544889905,1.2297608447205013,1.7800726684076804,0.8500792168266542,-0.11793459034443643,0.9308494832015808,5.323738867024282,2.9496101861942483,0.6209423942687757,0.2775073130999439,2.3591205954263135,1.9012896699604787,80974.4460756635,43452.49463579899
120,22675.0,11813.0,"[48,51]",2,1.9229612753252503,0.5065362764718926,1.8108239934729995,1.5666158316207173,2.2655847053142337,-0.0818219173980157,0.5678975842116789,1.047210729878738,5.479299939007731,2.8012336355457483,0.4767262906284411,0.27034791448732454,2.546478109547961,2.233803137375964,73391.83276736506,32590.005203969195
144,1282288.0,174941.0,"[0,3,5,6,7,8,9,11,13,14,15,16,18,19,20,21,22,23,27,28,30,31,32,33,37,38,39,40,41,45,47,49,50,51]",34,0.5050360741260951,1.690900524148244,1.9200358336606098,1.1214798269429433,2.524104664629921,0.3880338143677673,0.31905710974054635,0.9718384622651,3.82027850416601,0.758182033783365,0.24898240147144168,0.22226828477534077,2.0240595974586104,1.7384339372574733,68895.88795028884,24325.464033040647
144,886515.0,101670.0,"[1,2,4,10,24,25,26,35,43,44]",10,0.3590395421735688,0.23520694236871398,0.6356790318189875,0.8450470661026461,0.39020171388413205,0.27192022266512694,0.07982969080162139,2.3950291231180563,0.9749065277722301,0.4075550181170082,0.21989011324454077,0.9136175188530338,0.6638743153584635,1.1311748701691473,70030.759745746,16449.742012261086
144,45530.0,10548.0,[17],1,0.30959860847792187,0.14484735829121753,0.10624134906654303,1.401319636723,0.37351645846693504,0.3755125745662189,0.07910410491983688,3.7540529135514884,1.279444849967061,0.4532228603997297,0.22197243841421344,1.706155908851322,0.814519467142553,2.0338093012079965,72593.0690094443,15140.423632769562
144,901.0,0.0,[3],1,0.4321021842397341,1.2467197857935624,1.682740896781357,0.8475456348501664,1.7256639866814698,0.3508619278579357,0.1380122053274122,1.0112204162042158,2.96379316315205,0.7007527569367374,0.2806040277469455,0.2620312319644844,1.4217673518312983,1.3486908479467257,66539.3296337403,22272.21309655939
144,21801.0,0.0,"[5,6,7]",3,0.413622042704461,1.4108471803128229,1.8542209170221704,0.8141184871336189,2.1207019330305976,0.4163116719875217,0.13206672244392648,0.8737707515251629,3.5415391678363384,0.6823011219210143,0.24877368850053339,0.23838185541947599,1.7029332179257755,1.4272794092931496,68149.49919728443,23744.82198064307
144,148629.0,28468.0,"[12,29,34,36,42,48,53]",7,1.9031499229221691,0.46765217376824,1.9047576641637893,1.6462408589440898,2.017058342820054,0.5848684167221707,0.19366721164777845,1.089421505641559,5.41618001782962,2.9791815530952883,0.6049619799568062,0.30540285538488543,2.4663467731398296,2.1724060986146747,79031.98692045311,39292.63742607425
144,45538.0,6475.0,"[11,13,14,15,16,46]",6,0.9292590483991392,0.9463717168299026,1.9480896676841293,1.4140196481619633,1.492967470332467,0.6607583367736887,0.1585755202468384,1.1768975053801198,3.7379936359084796,0.9917996530809426,0.4707077426544881,0.43821255786376045,1.4731166102815174,1.8766895246826791,72752.17919100536,29380.37226052962
144,13876.0,934.0,[19],1,1.3756571767800423,0.6557954403286312,1.6605687716921236,1.4014382264341192,1.8860639159700106,0.42392048501008817,0.2687559359325511,1.2591717395502955,5.296053683626408,1.6446318486595572,0.41883714161141006,0.2631940248630714,2.1086101697895603,1.8648967118045527,67834.7650619775,26697.75036033426
144,2086.0,0.0,[21],1,0.7499067813998113,0.40553968648130656,1.5366833748801612,1.0133983993288607,0.8604179769894515,0.3640347492809197,0.30762450527324825,1.5999885906040214,1.7568679132310638,0.863856308245447,0.433825385906045,0.599744751677854,1.01358506088207,1.414822001917541,69427.60498561841,21842.837967401756
144,21281.0,2559.0,"[23,26]",2,0.48220969174380546,0.5561996951740915,1.335040599172975,0.9105583153047427,0.9281638367088094,0.32110575565058097,0.11507314557587245,2.134111307410361,1.9312207486020405,0.5879640771110338,0.2731098678633521,0.8368197502467016,1.0244192420938942,1.452640751468435,70711.63949062527,20459.50171514499
144,41939.0,5588.0,"[29,52]",2,1.4013652757576576,0.6646919586542412,2.603232106821784,2.2308193569231407,2.1501247666610923,1.441549168458968,-0.2853457986838053,1.1730463336035788,4.4101273132406735,2.937931019814484,1.2261847680202225,0.49728168990676225,2.374746779632331,2.453238229452303,105644.89110374617,76896.66153222526
144,2813.0,1008.0,[30],1,0.7125046551724139,1.2422778357625344,1.8207393995733994,1.5884545446142941,1.9419869409882682,-0.07322420725204304,0.7391411610380354,1.4170847781727716,2.918587830074652,0.8240857838606471,0.4560346932100927,0.541907836829008,1.665764777461785,1.9926441450408825,67956.05545680766,22185.74902239599
144,23233.0,2672.0,"[38,39,36]",3,0.9195101390694231,1.1279269127103682,2.6423818610166685,1.4549549467137348,2.7241174208668526,0.6411878130245716,0.31442387625361734,1.107008758490085,4.582274676408557,1.1114200562561947,0.43125140072312274,0.26053618064821094,2.3004743250548745,1.9371926540696365,75240.44454009389,34463.30719235552
144,12087.0,1671.0,[35],1,0.7756037254901929,0.17095711011830517,0.9557362805493472,1.278098083395372,0.49456305228756925,0.38601116166129246,0.03844861413087797,0.878465924960699,1.0074818391660445,0.5760282869198315,0.2354155025233613,1.155222452883269,0.5564238284934228,2.289396996773379,77065.55737569294,16943.58037561016
144,17220.0,554.0,"[42,45]",2,1.6096913417537702,0.5060511625435518,2.9054037547619136,1.3329370601045452,1.471792689198614,0.7193968674216082,0.10055754163763453,0.9459568741579574,4.805697284843201,2.0503609860046543,0.5842769013356608,0.257618555458768,2.0952134796747988,1.5573851598722468,73651.0773519164,45899.78536585365
144,34110.0,5375.0,"[41,47,49,43]",4,0.7155899862210457,0.7303428749633487,2.2999197953972357,1.3183318949281717,1.0773771461741357,0.5554005599530913,0.3224202970976222,1.287389759132215,2.143708842744066,0.8163415905599541,0.5412656324538339,0.45763092222222324,1.1495795426854278,1.2689558624157153,67835.39935502772,27224.581178540004
144,1839.0,0.0,[51],1,1.4320589048395866,0.5365711332245757,2.109887165851004,0.9650645655247403,1.8155891876019585,0.7113375633496437,-0.0066655954323011635,1.2126439679173489,5.490046162044589,1.5749910119630215,0.4129269483414917,0.26839312996193543,2.045052927678086,1.6891435682436133,74138.34475258284,31341.20717781395
168,1601496.0,242966.0,"[0,3,5,6,7,8,9,11,13,14,15,16,18,19,20,21,22,23,24,27,28,30,31,32,33,37,38,39,40,41,43,45,47,49,50,51]",36,0.49611864429071595,1.5709608319177808,1.8821875986533745,1.2123037494224236,2.379147709514712,0.39074245671798025,0.3441189419205375,1.0106620375604942,3.664072740317198,0.7606368241369365,0.2637948912398307,0.2465464932513125,1.9146824211268711,1.6654807694511964,68521.46495027136,24362.422654817452
168,870967.0,60694.0,"[1,2,4,10,25,26,35,44]",8,0.34301603162691374,0.20917987061279453,0.528050676731739,0.8808089890374591,0.3628593138706542,0.26212137999254836,0.0828345621762927,2.510292857561775,0.8966372044049905,0.39255630935385866,0.20616699771975844,0.9639216706878591,0.6557615051810343,1.1708445507579517,70442.96274830174,15888.810299356395
168,58957.0,13427.0,[17],1,0.2617446181454075,0.12601112714347495,0.07068643026272747,1.622071823718966,0.3759979612599018,0.3916451702936026,0.1461951359126279,3.8628699826144706,1.2945744459690904,0.4768972952999573,0.2283572499957498,1.7357829249622814,0.8234032341197933,2.0954125758433957,72993.82533032552,15219.636820055282
168,901.0,0.0,[3],1,0.4321021842397341,1.2467197857935624,1.682740896781357,0.8475456348501664,1.7256639866814698,0.3508619278579357,0.1380122053274122,1.0112204162042158,2.96379316315205,0.7007527569367374,0.2806040277469455,0.2620312319644844,1.4217673518312983,1.3486908479467257,66539.3296337403,22272.21309655939
168,21801.0,0.0,"[5,6,7]",3,0.413622042704461,1.4108471803128229,1.8542209170221704,0.8141184871336189,2.1207019330305976,0.4163116719875217,0.13206672244392648,0.8737707515251629,3.5415391678363384,0.6823011219210143,0.24877368850053339,0.23838185541947599,1.7029332179257755,1.4272794092931496,68149.49919728443,23744.82198064307
168,182438.0,33809.0,"[12,29,34,36,42,48,53]",7,1.87756968373364,0.45190622534778546,1.9323398146493713,1.8644982489777449,2.0576462101261943,0.5873938864107204,0.28445604643219413,1.0948883963593157,5.349296596684892,2.9727370187735063,0.632139367560486,0.32922032620945385,2.445147786173932,2.2155175249619132,79394.44089498936,40188.88977077146
168,53226.0,7688.0,"[11,13,14,15,16,46]",6,0.9454002956637721,0.9065482725735512,1.9708459649983054,1.5572695580731106,1.4387116517679348,0.6957781938526308,0.18885813198437784,1.1995607476233383,3.655106511347842,1.0019686963701946,0.49398603652351003,0.48279242430390945,1.4468525843760527,1.8975266406267612,73047.88005861794,29310.5991808514
168,15335.0,1459.0,[19],1,1.3710577234430958,0.6214639509618562,1.652948493902835,1.5389031649820568,1.865642184349508,0.4264720979458736,0.32552525503751095,1.2854132578415367,5.279299105901547,1.623983342810567,0.4422862377567638,0.2706489909357679,2.075092758787077,1.8869482701010794,67793.21969351146,26872.496119986805
168,2086.0,0.0,[21],1,0.7499067813998113,0.40553968648130656,1.5366833748801612,1.0133983993288607,0.8604179769894515,0.3640347492809197,0.30762450527324825,1.5999885906040214,1.7568679132310638,0.863856308245447,0.433825385906045,0.599744751677854,1.01358506088207,1.414822001917541,69427.60498561841,21842.837967401756
168,23605.0,2324.0,"[23,26]",2,0.48593236513450355,0.538217992543935,1.3334995534844403,1.0314053862741015,0.9151767192967624,0.3188461431900005,0.14659942732472953,2.159043709722509,1.8917569817835251,0.5955138045329335,0.27794530506249293,0.8652583532726108,1.013485859055292,1.4932791357339443,71067.93713196345,20421.959415378074
168,53428.0,11489.0,"[29,52]",2,1.3917371030358805,0.6343276624990652,2.5391503358725287,2.353926188477938,2.085550358313973,1.4581560964849862,-0.23601111645579476,1.2034923152467036,4.449750232761863,2.8871951766114976,1.2161638136183268,0.5147857408849177,2.2974022496443918,2.4352432901287746,104293.59526839879,74989.33113723127
168,2883.0,70.0,[30],1,0.7116653423517165,1.2325254710371167,1.8237969417273603,1.594895218869238,1.9357928154699962,-0.07983894935830671,0.7443752317030854,1.4174930825528955,2.908692134235171,0.8259733225806455,0.4559811318071425,0.5484961016302463,1.6621054141519243,1.9984481932015272,68147.41311134229,22240.588276101258
168,21286.0,1724.0,[33],1,0.9425438770083583,1.281439904867069,2.7259533647467964,1.4646347247956415,3.001229627172768,0.9879919356384466,0.40107958437471947,1.1486772809358254,4.5623546323875175,0.9870369574837944,0.4074638128817001,0.2381186527764717,2.4177178122709595,1.9737656244479849,74616.17964859528,32802.690970591284
168,27534.0,4301.0,"[38,39,36]",3,1.0698160824435206,1.0193343930050096,2.562446178433944,1.6658817197283455,2.6947405110408833,0.7873104596498821,0.2541298493135864,1.1333796607467184,4.647814960049389,1.3882691783613037,0.4931304500254372,0.290008683300642,2.320672295089701,2.0367470313793814,76906.62250308708,36219.344228953145
168,14884.0,2797.0,[35],1,0.7619841197930612,0.18544539975812402,0.98125692461704,1.398184771566767,0.49046428366029327,0.39294389082235637,0.0607743870599311,0.8997761019887021,1.0367264799113078,0.5868449564633152,0.25040086556032204,1.2070609013034195,0.5721819205186766,2.3323494700349214,78486.34238108041,17777.81456597686
168,17760.0,540.0,"[42,45]",2,1.6085976482545032,0.5029096002252249,2.9271395220720824,1.358219691441461,1.457833764020283,0.7276335937500062,0.09698738029279763,0.9494454713400962,4.799551179222968,2.028395229166672,0.592241307713969,0.2575615713963967,2.085022757319821,1.5527221258446005,73355.02702702704,45967.00540540533
168,50027.0,9152.0,"[41,43,47,49,46]",5,0.8625579336558193,0.6832658706698371,2.563159226697565,1.497917002098859,1.0871554211925538,0.6115739253203256,0.3887564914945911,1.255614607731816,2.131898095808264,0.9099870313230894,0.5924690867331677,0.44822337649669286,1.2143895224378811,1.3385653537689648,68291.44006236613,29615.235932596363
168,18682.0,16843.0,[51],1,0.8111567072583237,0.5015277840166834,1.5665303991007309,2.2452270357563244,1.4494048485708189,0.7317194316454299,0.3135106979445492,1.3139273719087652,4.6416081507332985,1.4388716050744148,0.5603764290761308,0.3319846325875163,1.611361730756876,1.6081449305213582,69232.2689219569,35485.3518895193
