time_in_hour,cumulative_size,size,pcore_ids,pcore_power,AF700 CD48_[R 730_B-A],APCCy7 Ly6G_[R 780_A-A],BV421 CD117_[V 440_F-A],BV510 SCA-1_[V 525_E-A],BV605 CD11b_[V 610_D-A],BV650 CD150_[V 660_C-A],BV711 CD11c_[V 715_B-A],BV785 B220_[V 780_A-A],FITC Ly6C_[B 525_B-A],PE CD115_[YG 582_D-A],PECF594 CD135_[YG 610_C-A],PECy5 CD3-CD19-NK11_[YG 670_B-A],PECy7 CD16-32_[YG 780_A-A],PerCPCy5-5 CD45_[B 695_A-A],_FSC-A,_SSC-A
-1,0,0,[],0,0.0,0.0,0.0,0.0,0.0,0.0,0.0,0.0,0.0,0.0,0.0,0.0,0.0,0.0,0.0,0.0
0,169753,169753,"[0,5,6,7,8,10,11,12,13,14,16,18,21,25,27,29,35,36,40,47]",20,0.33590593599523944,NA,NA,0.7325229669814428,NA,NA,0.14917504378125956,0.7252285185180871,NA,0.603346499207671,0.16607093864615008,0.1711025266946684,2.007151562175626,NA,68041.96836580208,20541.42571854399
0,129098,129098,"[2,3,4,9,15,19,22,23,38,39]",10,0.29481192461540684,0.14966184417264738,NA,0.5499569192164087,0.30239809448635935,NA,-0.0033220977784353956,NA,NA,0.35584249150257974,0.17701096240065528,NA,0.6176735060341753,NA,69642.65757796411,13921.873925235073
0,2777,2777,[41],1,0.5295381433201323,0.7180777320849767,NA,0.9416723773856694,1.1920199265394298,NA,0.38969475657185226,NA,NA,0.6926345030608568,0.40405793194094297,0.3718983424558888,1.1040404148361551,NA,64240.67410875045,18140.761973352517
0,4604,4604,[4],1,0.4380323998696747,0.2009611741963555,NA,0.6445320369244092,0.4230648779322266,NA,0.027865839052986452,NA,NA,0.5129844511294522,0.2262744863162487,1.00848911794092,0.6998729220243282,NA,70793.53605560382,16923.829713292784
0,35526,35526,"[5,6,7,8,10]",5,0.38428019138096037,NA,NA,0.725580059336822,NA,NA,0.07510376833867927,0.7355328714462686,NA,0.6192474534706977,0.21117382590215916,0.17611331377019845,1.9436087461295921,NA,68383.17131115249,21399.284355120144
0,18067,18067,"[12,13,14]",3,0.3340094111363232,1.4179210404051497,NA,0.6603875147506493,NA,NA,0.14025887297282758,NA,NA,0.5422933181491082,0.2312502298112573,0.18146571113079046,1.565217233408979,NA,63441.94918912932,17973.100127303944
0,13404,13404,"[19,22]",2,0.18995417882721544,0.13320082557445057,NA,0.7750581375708689,0.4500766218292993,NA,0.08549497351536983,NA,NA,0.39523912824530016,0.18994227260519292,NA,0.7287913895851997,NA,71041.01223515358,14911.532079976138
0,12127,12127,"[16,21,25]",3,0.43834947489073994,NA,NA,0.7557035070503839,NA,NA,-0.22685981833924584,0.8145431491712682,NA,0.6798473132679151,0.25637285569390666,0.1767709746021281,2.0511138768862884,NA,68757.2313020533,20448.19262802011
0,5141,5141,"[27,29]",2,1.0344994361019235,0.6345411756467563,NA,1.1321448192958599,NA,NA,0.00896058334954386,0.9425352234973654,NA,NA,0.5032459787978922,0.25423212273876805,1.7559200807235902,NA,NA,32314.074304609938
24,324248.0,154495.0,"[0,5,6,7,8,10,11,12,13,14,16,18,21,25,27,29,35,36,40,47]",20,0.3612457993634528,NA,NA,0.7750389963238047,NA,NA,0.1542984683452211,0.766043679822233,NA,0.6159905635161956,0.15112277419752473,0.17738281931114352,1.9367982171732754,NA,68142.19397498216,22363.400458907956
24,234384.0,122831.0,"[1,2,3,4,9,15,22,39,41,45]",10,0.3415338937000787,0.1961875296905924,NA,0.5599018277783454,0.31883047475083615,0.26405998040821843,0.022117551825208803,NA,NA,0.36984308916991115,0.196834548667999,0.7213063706993648,0.5663427895462118,NA,70138.01952351694,15955.678612874524
24,65887.0,34731.0,"[19,23,38,43]",4,0.23918247640657553,0.07100222878564733,NA,0.8966629537541642,0.2926190689817396,NA,-0.04588713594486871,NA,NA,0.38652357144808935,0.17991934357309525,NA,0.6887363605415252,NA,73515.71897339381,14213.169578217241
24,2575.0,1170.0,[20],1,1.4428709266019422,0.3549388427184459,NA,NA,NA,NA,-0.02794895223300564,NA,NA,NA,0.41973242601942173,0.37817864427184333,NA,NA,72757.56116504845,24677.356116504787
24,4339.0,2369.0,[46],1,0.9472771286010595,0.3080284102327684,NA,1.014974798110166,0.6630210961050911,NA,0.33650395067988237,NA,NA,NA,0.37810500530076263,0.2334009492970751,1.1415789117308135,NA,59609.63539986174,20605.41876008293
24,9305.0,4701.0,[4],1,0.4304416562063449,0.18745287393874266,0.8202737935518534,0.7031287731327107,0.39867279602363404,NA,0.0466220830736086,NA,NA,0.486371001397096,0.2170162745835591,0.9810592075228406,0.6765102598602958,NA,71643.53272434173,17704.67662547024
24,14625.0,4761.0,"[7,8]",2,0.360986013675219,1.7333896744615367,1.8670913089914492,0.7518764868376002,NA,NA,0.05394289094017379,0.7367747679316263,NA,0.6525041159658126,0.20903284123076116,0.1890234867692293,1.8690135776410224,NA,67843.18140170944,21818.954393162385
24,1042.0,103.0,[13],1,0.3081759309021115,NA,NA,0.7806588243762045,NA,NA,0.04523385124760093,NA,NA,NA,0.20676917370441306,0.20572767850287998,1.985320525911706,NA,68668.74472168906,18807.278310940485
24,10205.0,4912.0,"[16,21]",2,0.5687757860852554,1.462538166683002,NA,0.8351834988730977,NA,NA,-0.30470608045075753,0.872151355120045,NA,NA,0.28893503811857046,0.19047256041156202,1.8797546374326322,NA,69163.58020578144,23407.857324840767
24,27229.0,14288.0,"[28,31,34,44]",4,1.2513917731462805,0.5772651747401678,2.7645024732454275,2.1978672963384676,2.129730021704803,NA,NA,1.055811423041607,NA,3.1957218755003876,1.3736663187410496,0.516769593741967,2.3069103067317855,2.4425380196849,NA,NA
24,31201.0,15575.0,"[33,42,48]",3,1.877762738277619,0.36952828415756,NA,0.9949348758052721,NA,NA,0.05585604756257201,0.982163337264832,NA,NA,0.42629933572642065,0.24024512909842632,2.4137106386974736,NA,NA,32314.97246883112
24,4353.0,2779.0,[29],1,0.7374868302320241,0.8663190229726587,NA,1.1647908977716628,NA,NA,0.08896208385022408,NA,NA,0.8498489393521741,0.5900475430737342,0.36449220491615175,1.2082324422237583,NA,66471.31449575006,25452.489777165247
24,6068.0,2501.0,[27],1,1.2186047249505554,0.49939345336188845,NA,1.1953429462755456,NA,NA,-0.01678969957151999,0.9093283899142905,NA,1.0329783951878708,0.4560993071852377,0.2367164937376427,1.928810628048769,1.4764157943309189,71423.54647330244,39619.40672379687
24,5230.0,2453.0,[41],1,0.6011370021032545,0.6282011158699778,NA,1.06328686978968,1.093224334799232,NA,0.4077164902485544,NA,NA,0.7234006894837443,0.4157431619502825,0.42850952676864373,1.0382270948374765,NA,65964.97131931173,19840.721988527715
48,456433.0,132185.0,"[0,5,6,7,8,10,11,12,13,14,16,18,21,25,27,29,35,36,40,47]",20,NA,NA,NA,NA,NA,NA,NA,NA,NA,NA,0.13592474395803888,0.15064874026417752,NA,NA,NA,22062.85669966891
48,324281.0,118393.0,"[1,3,4,9,15,22,39,41,45]",9,0.32256727355595616,0.2108861033763958,NA,NA,0.32085300498025093,NA,0.039585039256079035,NA,NA,0.35614151816171813,0.19684705173598305,NA,0.5484233929061487,NA,NA,16459.179440053536
48,131832.0,37449.0,"[2,19,23,38,43]",5,NA,0.08778497649280936,NA,NA,0.2567256476955495,NA,NA,NA,NA,0.3457888533512369,0.1623844572941353,NA,0.6558021011211198,NA,72788.0507312338,14501.197402754935
48,6130.0,3555.0,[20],1,1.3082078965742154,0.29661254192495745,NA,NA,NA,NA,NA,NA,NA,NA,0.3583070306688412,NA,NA,NA,NA,23201.440783034166
48,15910.0,1285.0,"[7,8]",2,NA,NA,NA,NA,NA,NA,NA,NA,NA,NA,0.202634998617214,0.180309155185417,NA,NA,NA,NA
48,14166.0,9827.0,[46],1,0.763425205068476,0.2618806485246292,NA,NA,NA,NA,NA,NA,NA,NA,0.3571382216574932,0.2951811380064946,NA,NA,59171.65494846801,20586.969363264132
48,6130.0,3555.0,[20],1,1.3082078965742154,0.29661254192495745,NA,NA,NA,NA,NA,NA,NA,NA,0.3583070306688412,NA,NA,NA,NA,23201.440783034166
48,16209.0,6004.0,"[16,21]",2,0.5310404576469883,NA,NA,NA,NA,NA,NA,NA,NA,NA,0.25476383601703256,0.1348624121167249,NA,NA,NA,22242.860632981636
48,14427.0,6612.0,[30],1,1.7834449293685324,0.3422317669647188,NA,NA,NA,NA,NA,NA,NA,NA,0.41851012899424855,0.19741472288070894,NA,NA,NA,30578.731545019666
48,38809.0,11580.0,"[28,31,34,44]",4,NA,0.5928353800664814,NA,2.1809538338271985,NA,NA,NA,NA,NA,NA,1.3369417965935764,0.50360494555387,NA,NA,NA,NA
48,69669.0,22322.0,"[32,33,37,42,48]",5,2.009999234695494,0.3402156822403062,NA,NA,NA,NA,NA,NA,NA,NA,0.41719037507356793,0.21754737447071293,NA,NA,NA,NA
48,5351.0,998.0,[29],1,NA,NA,NA,NA,NA,NA,NA,NA,NA,NA,NA,0.37515636049336565,NA,NA,NA,26526.869743973137
48,6796.0,1566.0,[41],1,NA,0.5837281924661597,NA,NA,NA,NA,NA,NA,NA,NA,0.4715200899058245,0.4350681056503839,NA,NA,NA,20299.53619776338
48,19063.0,5895.0,"[37,42]",2,2.18479050705555,0.3268374052877281,NA,NA,NA,NA,NA,NA,NA,NA,0.5201749728794018,0.21746625473430237,NA,NA,NA,NA
72,626325.0,163096.0,"[0,5,6,7,8,10,11,12,13,14,16,18,21,25,27,29,35,36,40,41,47]",21,0.36686185141898986,1.6253348903955604,NA,0.8214945901121542,NA,NA,0.13650249975491224,0.7510064949443214,NA,0.5756249199345412,0.18572022624994977,0.16410077587194927,1.8865202908841279,NA,68129.36225761386,23287.208347104075
72,442907.0,125422.0,"[1,3,4,9,15,22,39,45]",8,0.3089907827489755,0.25306431836255516,NA,0.5995472329540994,0.3675432470067008,0.2795250644491991,0.01990869092155867,NA,NA,0.35376760712970956,0.1950531195984646,0.608373577371774,0.5837895565389565,NA,68613.90484232588,17194.026050615543
72,169416.0,37584.0,"[2,19,23,38,43]",5,0.2583254544553011,0.11962294318718181,NA,0.8452367925402524,0.28910696378735734,NA,-0.06181611015488686,NA,NA,0.3513601758629651,0.1676264033562309,1.3831541266999603,0.6803108206426746,NA,72888.32374746192,15156.796524531243
72,16006.0,1840.0,[46],1,0.7808080558540531,0.32473119992501775,NA,1.3254203776708833,0.5469738631763184,0.416613044420848,0.4888023070098706,NA,NA,0.9430242412845183,0.3596964751967975,0.28272392815194336,0.8929426305760478,NA,60223.46020242399,21639.833062601523
72,15910.0,0.0,"[7,8]",2,0.351125272721565,1.7585028821495903,1.8726435769955985,0.7385143491514712,2.3167465492771826,NA,0.02744196253928788,0.7344958831552515,3.768736835763671,0.628272947265872,0.202634998617214,0.180309155185417,1.879005642991828,1.5307027795097363,67639.0697674419,21466.851037083583
72,18697.0,4270.0,[30],1,1.726483319997852,0.4002248799807542,NA,1.032836510991077,1.1350688129646667,NA,-0.02295516441140588,0.855171633845007,NA,NA,0.45764929491363127,0.20630228662352101,2.135208920415037,NA,70806.42413221332,34245.97999679064
72,49651.0,10842.0,"[28,31,34,44]",4,1.235826350909344,0.6308469192564132,2.602556217659244,2.191665648707979,2.1143692626533217,NA,NA,1.059124143964873,NA,3.0194359277758807,1.3249276296147037,0.4910989810879973,2.3028890761112533,2.3992431253348268,NA,NA
72,84214.0,14545.0,"[32,33,37,42,48]",5,1.9693242255088304,0.3727975541833892,NA,1.1412177044196983,NA,NA,0.0465051416391562,0.9003967916260995,5.653805040670192,NA,0.44577857530815024,0.22639662953903272,2.4769645476167814,NA,76091.72973614825,34714.6969387513
72,3558.0,352.0,[31],1,1.0917483279932563,0.7057713237774017,2.389430016301285,2.05921283867341,1.9232900629567138,NA,NA,1.079849919898808,NA,NA,1.243202175660481,0.5411011104553145,2.0574384024732915,2.2091818263069074,NA,61816.89488476678
72,5351.0,0.0,[29],1,0.7869629009530958,0.8337431949168295,1.8828307774247883,1.258743580078495,1.0612853322743394,0.928957525883009,0.07600204354325912,1.21809797981687,2.72910481573537,0.8675962692954636,0.6547223382545266,0.37515636049336565,1.208586266492249,1.252970660624178,66170.01980938137,26526.869743973137
72,9188.0,0.0,[37],1,2.177289360905543,0.2854390639965194,3.1966308554636185,1.1639569806269,0.4775261225511578,0.8155993552459828,-0.1313615094688556,0.7186727238789796,5.342089374619061,3.622946662603409,0.5451833241184292,0.20872126621680565,2.456577088049633,1.2556749900957795,73857.11449717013,47071.83282542437
72,6029.0,2044.0,[44],1,1.075298262564276,0.6149740391441414,2.4318132144634306,2.0207702265715652,2.1874516128711234,NA,0.42007703068501945,0.7904394158235175,NA,NA,1.0343008444186284,0.4351859567092399,2.3184714334052154,2.3010971575717396,101205.72964007298,NA
96,762695.0,136370.0,"[0,5,6,7,8,10,11,12,13,14,16,18,21,25,27,29,35,36,40,41,47]",21,0.37871085210863487,NA,NA,0.8855505218494817,NA,NA,0.21232361947829537,0.8188879386727392,NA,0.5824297161198121,0.18977151084640909,0.1699507814355653,1.9531654145549577,NA,68176.50156877915,22940.682794563934
96,516465.0,73558.0,"[1,3,4,9,15,22,39,45]",8,0.3280797950955101,0.2593891102572501,NA,0.6262626047128088,0.37332055396783925,0.2786962914447304,0.04040673159651886,NA,NA,0.36595960801022076,0.20572186238951407,0.6467310874657517,0.5967615490207422,NA,68868.15043032945,17085.7352502105
96,213914.0,44498.0,"[2,19,23,38,43]",5,0.30791452508950745,0.12767970323587807,NA,0.9263239785708328,0.31017155704628685,NA,-0.013692324307897241,NA,NA,0.38421982300363866,0.18567193303383256,1.4283247155024912,0.7059936276821518,NA,72905.98053423343,15075.271595126971
96,17106.0,1100.0,[46],1,0.8135832676838513,0.3282960843563605,NA,1.353683927627734,0.5660047130831285,NA,NA,NA,NA,NA,0.36858580679293196,0.2859832841108392,0.9213227597334374,NA,60363.45983865303,21677.536303051562
96,5907.0,0.0,[8],1,0.27972947858473174,1.833343027594383,1.8338607635009283,0.7534143064160999,2.411749447604534,0.24055368393431165,0.09975259624174493,0.7456910157440277,3.8139659578466243,0.6206686749619094,0.1728497533434865,0.18058098324022265,1.9155683204672416,1.6527243331640382,68255.94040968336,20851.20433384119
96,30979.0,5576.0,"[20,30]",2,1.6409751103973653,0.36678675838471797,NA,1.1558589815358764,0.98839518431841,NA,-0.03181557735884377,0.9264208171664783,NA,NA,0.4549123410374838,0.37303007256528375,NA,NA,71950.61428709746,30383.98502211153
96,9121.0,2019.0,[26],1,1.828818877425719,0.3061383183861346,NA,NA,0.671918770310258,NA,NA,1.0564420444030236,NA,1.2700758194276922,0.8658132020611777,0.2861517763403164,1.255935500054815,NA,NA,41302.636114461086
96,58377.0,8726.0,"[28,31,34,44]",4,1.2759906466073947,0.6377493545574602,2.5971418134196536,2.237887681398496,2.1242690116484186,NA,NA,1.097184969816877,NA,3.015263572639914,1.35534252933518,0.5138307317607986,2.3337694706305574,2.4542670503451567,NA,NA
96,107307.0,23093.0,"[32,33,37,42,48]",5,2.0052147605282125,0.390754272489215,NA,1.313034638495167,NA,NA,0.11695966783154388,0.9763339116460288,NA,NA,0.48596190545817475,0.24297330131305805,2.480175214282385,NA,75944.10623724459,34485.08432814256
96,4042.0,484.0,[31],1,1.1440662518555176,0.7576051251855542,2.390003148688765,2.1166397201880245,1.908604145225134,NA,NA,NA,NA,NA,1.2440198436417558,0.5694905865907971,2.0726452488866793,NA,NA,NA
96,5829.0,478.0,[29],1,0.7905205112369187,0.8546812743180587,NA,1.2866514803568436,NA,NA,0.11039799605420786,NA,NA,0.874079177388923,0.6532000828615554,0.3857956114256317,1.2333857656544893,NA,NA,26432.21959169675
96,7500.0,1471.0,[44],1,1.1166372240000022,0.6240178609333475,2.4457566138666755,2.1129714746666557,2.212925603733337,NA,NA,0.8600606830666564,NA,NA,1.0940633223999945,0.47389459159999947,2.345802851466664,NA,101778.79893333335,NA
120,958833.0,196138.0,"[0,5,6,7,8,10,11,12,13,14,16,18,21,25,27,29,35,36,40,41,47]",21,0.37890728556797226,NA,NA,0.960483585032001,NA,NA,NA,0.8818943968271826,NA,0.5690534123074688,0.19175867051196827,0.16712490282040582,2.052441849482653,NA,67785.15993504602,22382.502262646325
120,592580.0,76115.0,"[1,3,4,9,15,22,39,45]",8,0.33222152748490164,0.27297699608155934,NA,0.6507012562489511,0.3853279834132013,0.2782440478062014,0.05954322713218385,NA,NA,0.37452696530932594,0.21989550886630216,0.6481563796162477,0.5984376297006279,NA,68735.19095480783,17007.766067028846
120,254109.0,40195.0,"[2,19,23,38,43]",5,0.3183981357448833,0.12761638136389486,NA,0.9876068707956143,0.3269595069399336,NA,0.017476942516796434,NA,NA,0.3982587712517133,0.19834241251195373,NA,0.7137423011975151,NA,72728.7671983281,14941.386822190449
120,18730.0,1624.0,[46],1,0.8272823916177254,0.3383034647090102,NA,NA,0.5954563196476235,NA,NA,NA,NA,0.9736150878270139,0.37932142680190495,0.2847030212493332,0.9491038523758767,NA,60266.39786438856,21484.448051254632
120,15910.0,0.0,"[7,8]",2,0.351125272721565,1.7585028821495903,1.8726435769955985,0.7385143491514712,2.3167465492771826,NA,0.02744196253928788,0.7344958831552515,3.768736835763671,0.628272947265872,0.202634998617214,0.180309155185417,1.879005642991828,1.5307027795097363,67639.0697674419,21466.851037083583
120,38255.0,7276.0,"[20,30]",2,1.657551734100115,0.3585334778460445,NA,NA,NA,NA,0.008226513318533524,0.9917753712978823,NA,NA,0.4809993927068468,0.4148549172134345,NA,NA,70984.07716638334,29189.355221539514
120,11333.0,2212.0,[26],1,1.8558538259948831,0.31479134253947727,NA,NA,0.6971960105002988,NA,0.41938296002824327,1.0810871418865298,NA,1.2330931609459097,0.88726365137209,0.29425300847084135,1.275858343333629,NA,67907.47869054964,40198.04253066257
120,70006.0,11629.0,"[28,31,34,44]",4,1.3385959017369948,0.657074199454355,2.614070120375383,2.2833149394766106,2.166617104748148,NA,NA,1.119008135345549,NA,3.0032709560323343,1.3823098180298747,0.5303175063565972,2.3682833552695484,2.515710915721496,NA,NA
120,131269.0,23962.0,"[32,33,37,42,48]",5,2.0430316623650757,0.3944288359780366,NA,1.4676438399622218,NA,NA,NA,1.0584985109355585,NA,NA,0.5148713634902391,0.25132769425378654,2.4936410547882515,NA,75009.69861886662,33814.01232583464
120,4531.0,489.0,[31],1,1.2140547854778256,0.7745997726771128,NA,2.1839106755683093,NA,NA,NA,NA,NA,NA,1.2832270825424836,0.5935185702935353,2.0988404142573325,NA,98198.41624365473,59397.0284705363
120,6880.0,1051.0,[29],1,0.8080454986918622,0.8700062819767429,NA,1.33309511845931,NA,NA,NA,NA,NA,0.8668469218023319,0.672059362645351,0.3866161168604647,1.2381739056686047,NA,NA,26182.967441860554
120,9906.0,2406.0,[44],1,1.1820212364223865,0.6499109454875973,2.476679519987903,2.205483863618005,2.3023350018170707,NA,NA,NA,NA,NA,1.1489604489198397,0.5016742615586502,2.394647503432268,NA,101593.37129012714,NA
144,1113574.0,154741.0,"[0,5,6,7,8,10,11,12,13,14,16,18,21,25,27,29,35,36,40,41,47]",21,0.3892320638493669,NA,NA,1.0521842148667204,NA,NA,NA,NA,NA,0.5848538122594512,0.18299412722459651,0.17985110778718116,2.100892035588112,NA,67567.89496881215,21988.00917406464
144,653672.0,61092.0,"[1,3,4,9,15,22,39,45]",8,0.3447959641318723,0.27665459021038563,NA,0.7192003725936043,0.3928119386022302,0.2830774985940887,0.08735027180449784,NA,NA,0.3846508244914931,0.2282283410685939,0.6719868083855445,0.6119995363255532,NA,68620.46109975636,16931.607827779
144,309875.0,55766.0,"[2,19,23,38,43]",5,0.33424956282370766,0.11790079500442951,NA,NA,0.3352070934150757,NA,0.05879848968778445,NA,NA,0.4134512741008526,0.20395253412505276,NA,0.734988711054455,NA,72680.15265510273,14849.451527228764
144,20374.0,1644.0,[46],1,0.8304933841660984,0.3540779737901185,NA,NA,0.6061810074604894,NA,NA,NA,NA,NA,0.3871268861293493,0.29550899057622426,0.9517930181113267,NA,60202.23736134283,21293.824678511777
144,5907.0,0.0,[8],1,0.27972947858473174,1.833343027594383,1.8338607635009283,0.7534143064160999,2.411749447604534,0.24055368393431165,0.09975259624174493,0.7456910157440277,3.8139659578466243,0.6206686749619094,0.1728497533434865,0.18058098324022265,1.9155683204672416,1.6527243331640382,68255.94040968336,20851.20433384119
144,17152.0,5375.0,[20],1,1.3131507733791945,0.27330457882464065,1.0623627899370267,NA,NA,NA,NA,NA,NA,NA,0.3913976074510157,0.9405708225862899,0.8719735950909545,NA,75502.13805970107,21447.8059701492
144,13352.0,2019.0,[26],1,1.8231663892300871,0.3357516776512872,NA,NA,0.7195523398741619,0.8261401165368498,NA,1.1456822195925733,NA,1.2596607085080906,0.8773700999101175,0.3395819416566819,1.3017651865638147,NA,67850.27201917308,39494.51408028746
144,28532.0,2054.0,[30],1,1.8017928423524496,0.39442812109211234,NA,NA,1.079392508236365,NA,NA,1.0124234422052618,NA,NA,0.5324527002663735,0.22848282822795274,2.116887490221499,NA,68448.823216038,31805.059301836336
144,81765.0,11759.0,"[28,31,34,44]",4,1.3553761694612618,0.6404169303858831,2.5610914534580718,2.379086034354542,2.1773305275729116,NA,NA,1.1904681098514125,NA,2.9606616315171452,1.383277425071849,0.5697561172995784,2.3570896972054047,2.570122879043593,NA,NA
144,157978.0,26709.0,"[32,33,37,42,48]",5,2.051060838293946,0.3853531563825343,NA,NA,NA,NA,NA,1.0962533797047609,NA,NA,0.5400921626872086,0.27674812849257824,2.4697777390902425,NA,74690.65799035321,33860.18934281992
144,5442.0,911.0,[31],1,1.2951904059169468,0.7778307098493182,NA,2.354404621830199,NA,NA,NA,NA,NA,NA,1.306324482543181,0.655493013230432,2.107225760933477,2.350995459389923,NA,NA
144,7498.0,618.0,[29],1,0.8350573287543368,0.8580597574019677,NA,NA,NA,NA,NA,NA,NA,0.8832058132835475,0.6790086613763693,0.4086350524139766,1.238729053747666,NA,66489.59829287807,26141.41371032284
168,1276557.0,162983.0,"[0,5,6,7,8,10,11,12,13,14,16,18,21,25,27,29,35,36,40,41,47]",21,0.39011596181525476,NA,NA,1.1256605544076748,NA,NA,NA,NA,NA,0.605906846056237,0.18704490691446152,0.18010967648996645,2.0864963040584956,NA,67426.51463898587,22200.565903441675
168,767207.0,93161.0,"[1,3,4,9,15,22,39,45,46]",9,0.35668303691965364,0.29227372785962835,NA,0.8405403961186679,0.4415119859829155,0.2994052850521354,0.13008032554314752,NA,NA,0.4168429695714476,0.24258915190423602,0.6438114248188485,0.6467188419044624,NA,67909.1152817949,17339.104361664977
168,351337.0,41462.0,"[2,19,23,38,43]",5,0.3112277978664242,0.11213852962823978,NA,NA,0.33887234939387323,NA,0.09069096651933872,NA,NA,0.42450321217236264,0.20667581603702834,NA,0.7421181521644459,NA,72919.53232366638,14952.939656227518
168,8928.0,3021.0,[8],1,0.3030372190860302,NA,NA,NA,NA,NA,0.20734592405912533,NA,NA,NA,0.24144412096773982,0.19172615557795625,1.8107179772625512,NA,67221.3620071685,23598.96774193546
168,25364.0,8212.0,[20],1,1.2156488003075092,0.25489283933922247,NA,NA,0.4225174646349066,NA,NA,NA,NA,0.8310262971928705,0.4147978985964422,1.0427423780949323,0.7930919751616438,NA,78662.53524680616,22083.204541870316
168,15557.0,2205.0,[26],1,1.7875733647232812,0.35384168078678346,NA,NA,0.7548268452786258,NA,NA,NA,NA,1.2874762937584463,0.8828782395705868,0.350590252233721,1.3259531051616595,NA,NA,39835.12296715311
168,33322.0,4790.0,[30],1,1.7350559737110693,0.38456949450814815,NA,NA,NA,NA,NA,NA,NA,NA,0.541627819038466,0.23144136666466264,2.1149033919932685,NA,68083.458135766,32597.061881039237
168,99799.0,18034.0,"[28,31,34,44]",4,1.3684863118267667,0.6216892429182881,2.539127438561477,2.5127400565636946,NA,NA,NA,NA,NA,2.9512543411657286,1.385990375815369,0.5858329081253308,2.3286634934718684,NA,NA,NA
168,182939.0,24961.0,"[32,33,37,42,48]",5,2.0394209760849167,0.37288328917289393,NA,NA,NA,NA,NA,NA,NA,NA,0.5540562953716828,0.2818726011840038,2.466249297454334,NA,NA,34568.20032907154
168,6916.0,1474.0,[31],1,1.3753969736842142,0.7755773457200679,NA,NA,NA,NA,NA,NA,NA,2.280761721081544,1.365347210092552,0.7318309638519409,2.108661145893591,NA,NA,NA
168,8337.0,839.0,[29],1,0.841433588820925,0.8361094668345923,NA,NA,NA,NA,NA,NA,NA,0.9027201831594182,0.6860320099556234,0.4072201580904402,1.2315202443324935,NA,NA,26592.97109271925
