time_in_hour,cumulative_size,size,pcore_ids,pcore_power,AF700 CD48_[R 730_B-A],APCCy7 Ly6G_[R 780_A-A],BV421 CD117_[V 440_F-A],BV510 SCA-1_[V 525_E-A],BV605 CD11b_[V 610_D-A],BV650 CD150_[V 660_C-A],BV711 CD11c_[V 715_B-A],BV785 B220_[V 780_A-A],FITC Ly6C_[B 525_B-A],PE CD115_[YG 582_D-A],PECF594 CD135_[YG 610_C-A],PECy5 CD3-CD19-NK11_[YG 670_B-A],PECy7 CD16-32_[YG 780_A-A],PerCPCy5-5 CD45_[B 695_A-A],_FSC-A,_SSC-A
-1,0,0,[],0,0.0,0.0,0.0,0.0,0.0,0.0,0.0,0.0,0.0,0.0,0.0,0.0,0.0,0.0,0.0,0.0
0,126787,126787,"[0,1,6,11,12,14,16,17,26,27,29,31]",12,0.17145263325332094,0.2369537022901618,0.3351704398755258,0.2864364900199867,0.26672486942697204,0.22501680739193838,0.25233757418923325,0.48511710877759334,0.17731911000999864,0.10879146343609465,0.24880399555230037,0.2116249894413745,0.1497406203393274,0.2739157427202724,0.19902909098306307,0.05185778581111976
0,115095,115095,"[2,3,4,7,9,19,21,28]",8,0.16861582461652586,0.38665718722118214,0.49266160921658836,0.30881859229616293,0.4908752753444113,0.18830044189592732,0.2834983896015038,0.32215646353210575,0.5571991868472186,0.1400910489171082,0.2465654791762696,0.10414192489911274,0.3169902998315537,0.36906126997218625,0.19566605053649982,0.0812459359789933
0,20467,20467,"[3,4,20]",3,0.18048636704779877,0.38070333736208317,0.48575943982112524,0.3110239378766583,0.46512168295075024,0.2684167123835985,0.2581511730342449,0.32886706819254,0.5253086750512664,0.15023407118515733,0.2576310126306953,0.10728554074415375,0.3060399812162282,0.3597487640670022,0.19526336179946005,0.08373165846390157
0,12129,12129,"[1,6,11]",3,0.1785362913491592,0.24058175703039977,0.36906245556787187,0.283473840315483,0.27083931276520445,0.22598216431574308,0.2542274066276416,0.4789861228741091,0.19618728962136328,0.11504125353260569,0.25080664002395603,0.20605908198400683,0.15159070340926575,0.2674672258407029,0.19802521196737669,0.05862297444848112
0,39631,39631,"[9,19,20,23]",4,0.19392618297352127,0.3863089120800359,0.5069010772527549,0.3148756849732123,0.49091340382776555,0.3306488765716238,0.23405835144929538,0.3346882309568291,0.5650675190606131,0.15804169533847437,0.2612259761683919,0.10401255288397125,0.32408757872272326,0.3753923253675331,0.205440244475413,0.09429197036704638
0,34591,34591,"[12,14,16,27,29]",5,0.1734550404374589,0.24278417552476816,0.36874353802520304,0.28555265901396293,0.27198148124896215,0.22748144157724043,0.25637741130882596,0.4113692608480389,0.20826028954188106,0.11230579089662554,0.25154077475721015,0.1655808759180667,0.1419899531197288,0.2099435958430241,0.19879928095063643,0.05371416814157675
24,115048.75,100696.0,"[2,3,4,7,9,21,28]",7,0.17321736272459615,0.3704782183535555,0.5036760525888978,0.3166050980362151,0.4856648196966506,0.19650641314937017,0.28362835903971595,0.32790423652367673,0.5736011937609856,0.14150579042060193,0.24306457611477938,0.10528778378686064,0.3029628235150766,0.36133127880978483,0.19758765399389433,0.09419777707065148
24,42569.75,37745.0,"[3,4,15,20,24]",5,0.18813909973738266,0.36002103214697995,0.4907549204312347,0.32177878223297096,0.449813648426188,0.29679921183858077,0.24748682900874483,0.33735329527855873,0.5264197791990924,0.15164575060142008,0.2564708835330557,0.1086665777258439,0.2819285614873329,0.3440100533156044,0.19756842157608887,0.09901072090402925
24,80752.625,74112.0,"[14,16,27,29,31]",5,0.1701221847529013,0.23553531412849998,0.34901384568710475,0.2843718164405208,0.25803171266051816,0.22790828616596767,0.2512097243545857,0.4501446614789518,0.15836838396704078,0.10141967736490184,0.24625352989390162,0.18200431686806454,0.13313144912609703,0.22492610347365313,0.20920061339326282,0.056375321331958834
24,36880.25,33186.0,[17],1,0.1618107114415448,0.22950447439642968,0.2943927505754884,0.31756310772120794,0.2582838828386582,0.23482958585808192,0.2484015078429907,0.5793429567244689,0.17535154999054323,0.10577820772743303,0.24741416592712848,0.27989345603600313,0.15126227644790757,0.3901125728744619,0.21638646957486388,0.05452676577925697
24,32392.0,28844.0,"[23,30]",2,0.20830176489561467,0.37306683528844564,0.530252607150887,0.32793498843671565,0.5035204195900166,0.3682699802281863,0.2211530796033201,0.34188682336464093,0.6114533910364593,0.16925404767296745,0.26023683141294884,0.10336465611697386,0.32970398081967833,0.3870125825150826,0.2152944091946692,0.1169521883621925
24,15916.75,14239.0,"[16,27,29]",3,0.1759569104698111,0.23802065822918858,0.34638590515843715,0.29514932646229536,0.26486431891708934,0.2322412622428142,0.2541311289717125,0.4741818412655089,0.22972500379976446,0.11075193583162599,0.24912391207800869,0.1982064678265049,0.1434103682304845,0.2609207835279831,0.2096511448627677,0.06262470849849933
48,118697.453125,103913.0,"[0,1,6,17,27,29,31]",7,0.1643961135029753,0.23264953123813886,0.3078696336153688,0.2908831809217214,0.25319292559036516,0.22904445953073696,0.2515213646178848,0.5275741359005038,0.16579109620783408,0.09831112912270268,0.24474363295459406,0.21755932976336376,0.14308893290258898,0.270295963319909,0.19886034340306308,0.05624203598213835
48,55524.890625,48720.0,"[2,4,19]",3,0.16159168406962096,0.413873465005613,0.5272817033793491,0.3038496834093444,0.5528500304424602,0.1593307392684641,0.305386896402678,0.3088194944593876,0.5926766095864148,0.1125799598886281,0.2329099010857601,0.08987717717684478,0.36847188304080897,0.38076504299670494,0.18853250299685304,0.08577452211382738
48,35847.8125,25243.0,"[5,9,15,21,23,28]",6,0.1913311381335017,0.4121075126347644,0.4956063419553836,0.3054149536332245,0.5083198442800869,0.37657839567614365,0.20529807302059003,0.33476368921439087,0.5641927671337893,0.13543709872649587,0.2531932427553554,0.0901908163740935,0.33343169523640676,0.36409472264547893,0.18818294591254883,0.08567622263641372
48,64331.90625,59299.0,"[7,20,24]",3,0.15985797236706856,0.34553284837148,0.45705025430449625,0.29719576626593136,0.41757241245545346,0.20810012272868275,0.27305467172743775,0.3081870579229367,0.5258483229134738,0.11449143532948926,0.24699255622826355,0.09468174816429846,0.2406090693582027,0.23778921212407458,0.1678281179871076,0.07472860020057544
48,43014.390625,38434.0,"[12,14]",2,0.1640379141240084,0.24977519364984457,0.3962392846668571,0.2898138516824931,0.2778428710776087,0.2268991695891259,0.25842205616961483,0.3232436795613028,0.2284137170645167,0.10630745903972777,0.25161150316977293,0.10865231176429892,0.12969109622754893,0.15112540182630668,0.17815900842440419,0.0627778895055593
48,12584.390625,11421.0,"[1,6]",2,0.17722130411161988,0.24010185883493734,0.40997393212626576,0.29157111493025717,0.26702350292452093,0.2284335183458388,0.25681794945131087,0.4837183006849613,0.21921598455250801,0.112210337581084,0.2510040478657904,0.18887915698024793,0.14728086061163068,0.2610464142859171,0.19776817049450765,0.06998698242048676
72,112375.59765625,100378.0,"[2,4,5,7,9,16,19,21,28]",9,0.17813919265532085,0.3791338348452853,0.46691974621656546,0.33827458272669636,0.4878792273651828,0.1972138408586377,0.28020318373039294,0.3186260162190201,0.5451764470471643,0.1467951001930345,0.2575732095259671,0.09791120996473576,0.3100600372719119,0.3576940479737033,0.2075300951454434,0.10096711449799207
72,91357.337890625,80669.0,"[4,5,12,15,20,24]",6,0.19542125936589338,0.3408432077196468,0.45132991505969505,0.3409508199905994,0.4212243788824435,0.2867156816454826,0.2456687291805253,0.3250388103481347,0.4923502997044898,0.15040999802159677,0.2683355920850807,0.09921398332608489,0.2583524089227934,0.30016215377724054,0.19708506925168792,0.10314470586305957
72,45648.42578125,39925.0,"[14,27]",2,0.1654961260049828,0.2558649666668658,0.35425813004030576,0.30204531300630494,0.27859475057681715,0.24202411183268813,0.25140083426333215,0.37418848340198857,0.24437041418989458,0.10414475216961105,0.251409815345615,0.12064069651810555,0.1369965207567141,0.18003746040166493,0.18641538694729184,0.06864096137694459
72,28059.126953125,24541.0,"[17,29]",2,0.16226515531455746,0.23689612894083764,0.26905809072739856,0.3694695172635863,0.2619590075499748,0.23513398410860362,0.24251646670243998,0.6135883774557961,0.19573574176553374,0.10748352670752698,0.25127470186154255,0.2939680967020517,0.1682233215901301,0.4511136329806846,0.22471993641547422,0.06729409935366652
72,20733.857421875,16789.0,"[9,15,16,23]",4,0.2148095359972328,0.390990398912517,0.4857554477739523,0.34674717968689367,0.5151834838559174,0.35829106261760824,0.2164261676405645,0.3418483598735874,0.5548834049452966,0.1738362333109126,0.2797383207214098,0.09755672357669286,0.345516683549331,0.39777955125592174,0.22584340049521587,0.12045391989720976
72,81551.318359375,77204.0,[31],1,0.16182534084286573,0.24278390213867082,0.3075221012684207,0.2871793170826781,0.2627805623732969,0.21977279704090857,0.24744522406947003,0.5085523269769717,0.15028185399794383,0.09461139165967468,0.24441549737377521,0.1861391933954055,0.1503580304585711,0.24873656035459762,0.20360009343660823,0.06230954800445558
96,97837.931640625,83128.0,"[2,4,5,7,15,19]",6,0.1746420248015523,0.4240122108511748,0.4959307171807908,0.3496508645533955,0.528513788514694,0.18002444524765657,0.3193678565147376,0.3488606032000734,0.5436054751251915,0.1392388597862271,0.24874885552148526,0.10527348424629793,0.3502445452714734,0.42455213433048505,0.19784618697451156,0.08352285180950145
96,71780.11279296875,59368.0,"[4,5,9,12,16,20,21,23,24,25,28]",11,0.20298183306279116,0.4063258639633842,0.49031311743283845,0.35633184827374803,0.49933410536591893,0.3291369863467385,0.2679640544983194,0.35872045135706554,0.5238329019938602,0.15868762328849198,0.2671549444151785,0.10676712980545405,0.33396658502183063,0.40699810159726363,0.20398200296107344,0.09518337898248849
96,12.602294921875,0.0,[9],1,0.1842383131334481,0.36715948605801685,0.5045659893122388,0.3180205739925527,0.4753279862860275,0.2574712515460538,0.2616050148879211,0.3312712969816263,0.5912732932802832,0.15402811761696492,0.25055882551631314,0.1051389575348189,0.3080684535950245,0.36257014039722574,0.20119902637166295,0.10316422443580346
96,92176.96801757812,76277.0,"[14,27,31]",3,0.18299829663655873,0.24501008774535507,0.3458911929774081,0.309991670591547,0.26951148715768863,0.2271227608665335,0.2634629657693172,0.4856145351623677,0.17331642632102204,0.11210806724690088,0.25414800323334114,0.20980218928192335,0.15412503792643342,0.2545163378456975,0.2027117945884963,0.05780602380336867
96,27139.390869140625,23632.0,"[17,29]",2,0.18741545810294688,0.23838304111969974,0.30036161604442013,0.3743614602758012,0.2750592523153305,0.22975909718404114,0.2685722498892333,0.5929081521611954,0.19942010041774186,0.1253751185714702,0.257748384601183,0.30532479663801876,0.17518070571668454,0.43914152348649843,0.21582010253976516,0.056932222088115964
96,25256.474609375,20151.0,"[15,16,20,30]",4,0.21990124779613454,0.3776595902810086,0.5186405691247387,0.3688992244214795,0.5071364259220722,0.3422401613618809,0.2660757145814517,0.36018323391921986,0.5759745468532969,0.17348965219372992,0.27425056567941114,0.1063038042396894,0.3443965917774422,0.41379988758654385,0.21467657571216778,0.11168753304048938
96,9712.085205078125,7230.0,"[27,29]",2,0.18752606277000974,0.25929313034931345,0.364884789171897,0.3322111170474715,0.29018108017964545,0.2430317822685523,0.2697789384964578,0.4697500177034371,0.28820001671378875,0.12433321255175385,0.2617658980514474,0.19265852261735017,0.1667840252786164,0.26437256719198843,0.20109098075907283,0.06930615765928694
120,116968.98956298828,105849.0,"[2,4,7,19,21]",5,0.16270050923999155,0.4469980583847056,0.5232290393241732,0.35803088344344,0.5619891556699617,0.1472632073519201,0.3388882806133521,0.3548551063098736,0.5500798640617557,0.12153419427392499,0.2435560314977296,0.10303848500832376,0.3740131412043193,0.4598383492626453,0.18739774539334855,0.0748455948426241
120,84243.12100219727,72721.0,"[14,27,31]",3,0.17781206731593216,0.25005516010158846,0.3681455870414744,0.31330012902087867,0.2750073909185438,0.2269624554050216,0.2658295197612537,0.4564638302475797,0.18499129025192315,0.1132168381808751,0.25905082495322285,0.19062384420706474,0.14766785197608584,0.24488523754839972,0.19624924007753655,0.05680929267765078
120,25224.423858642578,21832.0,"[17,29]",2,0.17769533105273863,0.23409641617348836,0.308833377858676,0.3824924284392217,0.27645115373344475,0.23194979142926958,0.27145302195584287,0.5978642692500649,0.18847922969687383,0.12361057404533238,0.25893462920922944,0.3111745871909339,0.1704745512221441,0.45322137875740165,0.2083330290491447,0.05290015115606579
120,79078.208984375,73778.0,"[23,30]",2,0.20312348999050228,0.4562883004038395,0.5303075569577413,0.36623709792817505,0.5691378877270278,0.3858130279773686,0.2625866886049301,0.37184306354210056,0.5613181358495342,0.1475079839328109,0.26472240010801473,0.10016008959585616,0.39167161785273985,0.4801924800049652,0.19890458463315244,0.0883533655021072
144,103606.54023742676,88981.0,"[2,4,5,7,19,21]",6,0.16707830809285837,0.44532751650143854,0.5156711360201188,0.38431168839269686,0.5593983456668895,0.15259185288853191,0.34858978469057295,0.3583068389814648,0.5340776893059606,0.1360087134747726,0.23655555640458042,0.11364953162297894,0.3735097221289204,0.4640872701389899,0.1862753015472387,0.07213372847331107
144,28320.719581604004,23531.0,"[14,27]",2,0.18460978739101225,0.26033561970255353,0.4162133787074947,0.3564700864907867,0.2857929293943538,0.23793645379422568,0.2761335719499924,0.3971708037868728,0.2453557625743282,0.12481873617126066,0.26601876477518116,0.15792095160865868,0.155767687883071,0.21297712164390425,0.19017063477147228,0.0619165566386852
144,83036.72352600098,74143.0,"[17,29,31]",3,0.1831195935051252,0.2305520751439218,0.3151909121139989,0.4017175488629563,0.26623869905759495,0.22805200216795196,0.2762729655534285,0.5769694005544276,0.17732187949155434,0.11814230551440737,0.2546599748359363,0.2979105018375908,0.16788277801784215,0.38634970956433634,0.20438679592266215,0.05200766531310386
144,83063.24404525757,69509.0,"[4,5,7,19,23,30]",6,0.202510900050297,0.43876997080970204,0.521649441608337,0.3915393520995515,0.5610506943734545,0.3500467059926882,0.2861829958642817,0.370411995557946,0.5485078348036966,0.1578092428873897,0.25566447626078787,0.11138373949480226,0.381743185438813,0.4734345065216066,0.19643749750432635,0.08486525081464909
144,17023.072452545166,15021.0,[32],1,0.3641908491246316,0.2595229108851596,0.49071278580320415,0.4873577314638074,0.4167471851232447,0.34320847801987425,0.27089117128435114,0.3728659971304853,0.7452156665473451,0.4469148818134534,0.31252636742286416,0.13389460665933237,0.3711872297641045,0.5157593544907789,0.2348947737760366,0.15492708103900996
168,74589.07711267471,62041.0,"[2,7,19,21]",4,0.17349965564542486,0.42107119074065685,0.5162658097600583,0.4006255375518095,0.5470967743916428,0.15283741258569633,0.3482581842782416,0.349300850504989,0.5133382472632042,0.15395873397025808,0.24199702994648248,0.11342099511651682,0.3547606373436927,0.4267282655592757,0.19709521342750974,0.0846089410886783
168,83324.79067230225,82523.0,"[3,4,5,9,11,20]",6,0.1877956645048786,0.3059276913416596,0.45152739412279286,0.42355952754015147,0.40981482593675483,0.26076657122772895,0.28655832174206053,0.3550484326354246,0.5437277939761958,0.17755396745423613,0.2710223460064942,0.11581452035968276,0.2542865311533695,0.32347858615860936,0.18570644617999202,0.10920463870029311
168,47072.75246620178,44739.0,"[4,10,12,27]",4,0.17734489436221318,0.3125219551476856,0.44733185767662736,0.39344673048811796,0.40160955084838934,0.2552019034215148,0.2854349912569417,0.3541934113031149,0.42999277447479667,0.14535439174266152,0.2641055065199782,0.11909916783651459,0.2345151621340083,0.29493030536184567,0.17608642202375926,0.08559558166265932
168,3732.4320101737976,3470.0,[7],1,0.19407574725624813,0.40035257832298515,0.5177570428207282,0.3967487631819472,0.505556336265096,0.2597704897333828,0.31086419170234175,0.34931424815955564,0.47972780481478017,0.16981581038099214,0.2617279807279717,0.11498285182065839,0.33828467109130006,0.3979528217977538,0.19990567997540123,0.09262340636448739
168,27055.894834518433,24184.0,[14],1,0.17269649671226747,0.2600850492645021,0.4132091678480486,0.3707148577958885,0.30597700933219085,0.23951645891503515,0.27335438625768527,0.37082622966092443,0.25671815400969955,0.12221957685532059,0.261149246497592,0.13753556663868352,0.16303228276525725,0.21895890413333355,0.18257098848261463,0.07031809518286303
168,63845.59044075012,53466.0,"[17,29,31]",3,0.16507365559331824,0.23107932833157502,0.3126868597833925,0.42428313778466087,0.26785382731031876,0.2359063328379862,0.2826234345027387,0.5794477302531167,0.19185364959653617,0.11964706292748482,0.25512168722578915,0.27499501756706035,0.1680391352603273,0.37439382345815575,0.20957932018931646,0.05724200351771373
168,41776.97201538086,32935.0,"[23,30]",2,0.20804754991075028,0.43030567812124876,0.521308637370218,0.4001733934386623,0.5554663546396588,0.3881999754948989,0.2724070471664804,0.363952408428058,0.5210647286106632,0.1726923366641879,0.2619952285702577,0.10808061984925732,0.3680270712802493,0.4404426884309263,0.20705991881193433,0.09680308709983705
168,32712.27789258957,31184.0,"[10,12,20]",3,0.1864774683435275,0.312879131796629,0.4557739574383579,0.40919950130088034,0.40471361449603743,0.27674133859265654,0.2811789430746687,0.3561906671571294,0.48173099553774634,0.163247140837353,0.26991463099338897,0.11911909203800035,0.2466030556374287,0.31281423874582426,0.18324749442985583,0.09737581519073114
