time_in_hour,cumulative_size,size,pcore_ids,pcore_power,AF700 CD48_[R 730_B-A],APCCy7 Ly6G_[R 780_A-A],BV421 CD117_[V 440_F-A],BV510 SCA-1_[V 525_E-A],BV605 CD11b_[V 610_D-A],BV650 CD150_[V 660_C-A],BV711 CD11c_[V 715_B-A],BV785 B220_[V 780_A-A],FITC Ly6C_[B 525_B-A],PE CD115_[YG 582_D-A],PECF594 CD135_[YG 610_C-A],PECy5 CD3-CD19-NK11_[YG 670_B-A],PECy7 CD16-32_[YG 780_A-A],PerCPCy5-5 CD45_[B 695_A-A],_FSC-A,_SSC-A
-1,0,0,[],0,0.0,0.0,0.0,0.0,0.0,0.0,0.0,0.0,0.0,0.0,0.0,0.0,0.0,0.0,0.0,0.0
0,89940,89940,"[0,1,6,9,12,32]",6,0.17107617577569062,0.23400185815267052,0.32075336442076013,0.27749815859992194,0.2595715409909207,0.21774282801860492,0.25663935053638093,0.513541072268233,0.1595207045072965,0.10431171881627344,0.24669703150262323,0.21847123429400261,0.1460486991292907,0.25815810325972766,0.19799861953990985,0.051009694996129756
0,79211,79211,"[2,3,8,20,22]",5,0.1525159208895931,0.4131925702147799,0.508559971106782,0.29995235595781455,0.5272817018165241,0.13453517260223757,0.30434010182577653,0.3063999285042584,0.5777549476907095,0.12216068535667332,0.2342063293588118,0.09314832791025493,0.3384407707594943,0.3759774716972154,0.18877147939756572,0.07032824868212133
0,48968,48968,"[5,21,26]",3,0.19650758711568794,0.39836258097480504,0.5121833224017768,0.3037509476934027,0.5190533218994899,0.38532828634633226,0.20790066273819235,0.3288814739534055,0.5833478344394933,0.13720447421123805,0.2546919670962858,0.08912602374595077,0.3385731471006035,0.361217294820155,0.19355100021301277,0.07844392487276888
0,22821,22821,"[1,15]",2,0.1660398932707044,0.23960265393219643,0.3455789920140497,0.28299906393439095,0.265092248475293,0.22312309161462152,0.26136537878610655,0.35198566233544976,0.19885470361159677,0.10492999220911488,0.2496636550727334,0.1251055404649659,0.12490869988593575,0.1718191310326364,0.19905802012837284,0.04416895489151994
0,3910,3910,[29],1,0.17199613910038136,0.2337447652226927,0.39664505803269057,0.3072441932325847,0.266720141603887,0.2568304204742056,0.2340325579272793,0.6004418495252444,0.20953688531488263,0.12533389858648525,0.2533466994736312,0.303813558783924,0.17245518602186183,0.43804328924622415,0.2203441446973314,0.06001687953925759
0,24181,24181,[31],1,0.3524138846379966,0.24778191742150518,0.444496876929942,0.3172534458469615,0.4139677845207902,0.24607987059354186,0.2585709305673266,0.3272865773532664,0.8004397574093223,0.44589792915101506,0.27357827711667243,0.09954862279134821,0.3772639805889335,0.4141838503669348,0.2123791202396563,0.09720986301419782
24,98716.5,87474.0,"[0,1,6,9,12,32]",6,0.1693781916890456,0.23266849349855515,0.32816696768157616,0.28367393862669876,0.25394642011413204,0.22326980834779842,0.2534255222291732,0.5020334617267754,0.15682014665918884,0.1002567660551061,0.24556731051704853,0.20632735417322554,0.13657296650593184,0.247860202220625,0.20835574340210783,0.056049640310653105
24,86843.625,75493.0,"[2,4,8,20,22]",5,0.1589226684216879,0.40631116131485423,0.5175892644381114,0.3071528331444942,0.5274900155898641,0.15645226323607053,0.2998208642538541,0.31687590770952884,0.5911345649035906,0.12834258519040104,0.231452248404949,0.09410020604996014,0.32993612286799445,0.3745827504968272,0.19030829779408376,0.08172323991659287
24,49799.0,43678.0,"[5,21,26]",3,0.20032416023524127,0.38567151437805025,0.5242777525808321,0.3110421926821727,0.5159709637134325,0.38508821707091134,0.20951482476521405,0.3347205291568236,0.5985125042658566,0.14172360402913817,0.2509180321522085,0.09022336253782885,0.328021227691614,0.35933336844857994,0.19320988087665494,0.09204698493854166
24,24403.375,22166.0,[15],1,0.16161105138067217,0.2364558145862616,0.363768485599405,0.2792864128724491,0.25762709226680797,0.2224441489797864,0.2544872129066129,0.31313732134890027,0.17019200779533245,0.09683358425875563,0.24635665905140805,0.10937088210191284,0.11192427942526326,0.14103952545028317,0.21625294046636948,0.04565413533896329
24,18563.25,16703.0,[11],1,0.1728354692556724,0.33571174387012853,0.4724117392352102,0.30542539206414043,0.4262524769568342,0.22494864629647252,0.2770916993391352,0.3130910960443754,0.5462939417252803,0.12900823006221324,0.24877290844620592,0.09552727137462953,0.25384276333174743,0.25819516067389003,0.1708532238465042,0.07995830762830428
24,14302.625,13278.0,[13],1,0.1744558959874597,0.28444689980627547,0.4435815322038922,0.3125262854925969,0.3383102333918319,0.24597371081708994,0.2683459363622015,0.3263242487116037,0.3890735738085149,0.12352039455406419,0.26045592599948825,0.10578605990538914,0.1750372168228571,0.18777789461731206,0.1617425990918651,0.07517024700228392
24,8944.625,7276.0,[20],1,0.17110771747843193,0.40579588694147856,0.5047315134125565,0.30441316281339637,0.4987180774327093,0.2656177065098176,0.259019593750229,0.319013354171253,0.5692428728694414,0.1345217406881373,0.2439935336132512,0.09366804935452427,0.32090613685267,0.36173307045797154,0.18877385380962994,0.08185189588958809
24,19633.625,16611.0,[31],1,0.3500815605160897,0.2578131887212004,0.487742123685425,0.332092092938957,0.4247629200259075,0.239980459296004,0.2713854002990997,0.3503576057096139,0.8188154604954433,0.43688729795095216,0.26962909106399174,0.1050740606796858,0.38230936043099417,0.4149913638081933,0.21544968512396714,0.12768187259146688
48,92735.65625,80985.0,"[0,6,9,12,32]",5,0.16332500619228785,0.23235007181535589,0.31662530291347807,0.2742633410582248,0.24979700933803378,0.21982721892241378,0.25177446902413614,0.5167253705478397,0.14664238679753683,0.0925639128031158,0.24242783479359492,0.20073072780657167,0.13861764937023355,0.2262512267663764,0.19734946511425291,0.055737091300670276
48,39312.265625,32934.0,"[2,8]",2,0.12973630701162164,0.4297390952469546,0.49277268931829077,0.2918371609537507,0.5304237726369514,0.07759458271118523,0.32639553954431416,0.2968622721721671,0.5542217993049215,0.09877743862864093,0.22559813942163764,0.08878884505271115,0.3321754979189735,0.34350263230648853,0.17166682222226984,0.0671869021902596
48,27481.421875,24431.0,[15],1,0.15713895895421284,0.23903799739881784,0.3550605851007742,0.28265784536617955,0.26275909913750584,0.22027168801867858,0.2583278657560256,0.29555106541672915,0.17659653387933194,0.10109199271498691,0.2475366980556097,0.09869819967557407,0.1102800685899165,0.14155635976332384,0.19448488589158705,0.051282488457947716
48,39716.484375,36278.0,"[11,20]",2,0.15970303875246247,0.3859900965984833,0.4770562056812171,0.288696611209966,0.46245753223829444,0.23255707218254787,0.26319851348682033,0.29915608987719344,0.5626700685671755,0.11291303626996571,0.24233467224603555,0.08788696980379586,0.2924574737122979,0.282409373711092,0.17139278452981868,0.07222160066374037
48,40246.234375,36106.0,"[13,21]",2,0.1688056598864625,0.3360477523866966,0.4404516686202474,0.2907048078989052,0.39735167879534683,0.30077824842655887,0.23104556045910932,0.30839323521999734,0.48016600817457966,0.11081050500931247,0.2524431366223228,0.08880577288136328,0.2223082267482602,0.20986252301260383,0.15100411121650395,0.069684147606796
72,126884.134765625,111857.0,"[0,6,9,12,15,32]",6,0.16349587255166886,0.24223127721109206,0.32262613251527367,0.29172218786947396,0.2623524175231163,0.22296784744239173,0.2504870898785809,0.4707877887925119,0.16286064694771935,0.09831277772199985,0.24615698733982583,0.16998250941902748,0.14271302132878055,0.22476399804793823,0.19968353142359627,0.06271479143586176
72,103538.5546875,93083.0,"[8,11,13,20]",4,0.1621909239735024,0.36576486072743886,0.44022846032011625,0.32128919189178307,0.4414968078169317,0.19821839617614753,0.2757795593797525,0.3180705418982975,0.4872451696925153,0.11889579171504869,0.25352235091137887,0.09736394274080735,0.2605819726454708,0.28813197446186495,0.18782951871565928,0.0840585503470303
72,15071.798828125,13027.0,[9],1,0.16128855477232484,0.23832277704077298,0.2898620069728269,0.30311297113302355,0.26474498825541853,0.19858585717616106,0.2528162209085449,0.5458957458677671,0.18281951076911773,0.09920326527058115,0.2448594513876068,0.21383925924859692,0.15862740436796918,0.31538750222689177,0.2072875138136648,0.06350250298767623
72,43772.740234375,38623.0,"[11,21,24]",3,0.1852423330506227,0.3603411782854874,0.4509511471272674,0.3261760701492674,0.4294936610294415,0.3168926204694144,0.23324500888422312,0.32686172046814516,0.5109354997779151,0.13364147742177104,0.2640021285794998,0.0965242216979114,0.2635178756512755,0.2854550324738206,0.19283645160865812,0.0931046261183668
72,7205.609375,6053.0,[17],1,0.1868281741700462,0.26053884452668163,0.5733345075468436,0.34169989588488653,0.2843052504571163,0.2590886041156918,0.25666342092263056,0.3473722936191466,0.25292187630138596,0.13006371631494584,0.27250150374368065,0.11750991009878398,0.14072478813069317,0.1753717838396649,0.17249601592193378,0.11675872184943632
96,85743.24462890625,72657.0,"[0,6,9,12,32]",5,0.1831586887181498,0.23703345002751852,0.32200339966825736,0.30200110149723713,0.2587178611562025,0.2154714341234002,0.2644902028299827,0.5363665406179736,0.1513627342439932,0.1067501001576776,0.25092266659473345,0.2415819487370581,0.15235513387604507,0.2732758640981529,0.2056635404211739,0.05385865259976007
96,38202.611572265625,36261.0,[2],1,0.14562126527880265,0.4968990911154691,0.5117915981801291,0.3413542734053035,0.5859489023035069,0.07948599787577111,0.3585331086965027,0.33681742514249446,0.5487095967681132,0.1230361329108111,0.23030816866371934,0.09681074086715727,0.3960313391816142,0.47920313448074786,0.19459779620154255,0.06978434659015692
96,50972.933837890625,46528.0,"[4,5,20]",3,0.18911988406200975,0.4898799324466891,0.5020429696972786,0.34057677217106885,0.5710386802783259,0.36371107041608863,0.25501087640599,0.3561766095440387,0.5470874492090135,0.14103772466956171,0.25334771406549483,0.09154362765995765,0.39180076840783257,0.4674553414789154,0.19760687199139457,0.07560256182336218
96,13492.272216796875,10718.0,[15],1,0.1658300239900154,0.24853232978959994,0.37387444456608143,0.3025122388222313,0.2689359845506378,0.2251477325600286,0.2593432531862141,0.3249868094432412,0.19998443768244875,0.10762981545051545,0.2566961005455681,0.11275578573894836,0.12297042740605829,0.1495345042394479,0.20374757270968843,0.05375356690926349
96,32094.536865234375,21464.0,"[8,11,13]",3,0.16868976083217785,0.3614024804414133,0.4551616718535872,0.3271263988943994,0.44164740351779536,0.181037694416947,0.30085399617277636,0.3178054255310636,0.48412007723409817,0.1264402612150125,0.2550722252446208,0.10082436772746545,0.26206675780587896,0.27946671696376485,0.17852851204763157,0.07492568614203991
96,5095.31591796875,4487.0,[29],1,0.20263593578596217,0.2434295840869942,0.38352465997127905,0.3430939602266567,0.2622685470002752,0.2766428954083978,0.249495746413259,0.5961546168430799,0.24165113844398675,0.1279011085343074,0.26261217113506524,0.30553758906013184,0.1787838854146626,0.4145787031404778,0.22798060195234823,0.06576592131845162
120,65378.30386352539,55320.0,"[0,6,9,12]",4,0.17559464293687713,0.23772661648577847,0.32474401893545624,0.30249399302227437,0.26070424242809237,0.2146351113775009,0.2663062348278539,0.5309081004720414,0.1433962483641903,0.10597977471528613,0.25317426779210156,0.23618082107373578,0.14581747809732581,0.28069110365723116,0.20247589865834567,0.05067206555048429
120,59339.3264465332,54564.0,[2],1,0.13395168046113734,0.5151006502953159,0.5320564069850552,0.34876112269809273,0.605830882217113,0.0766617783436416,0.3658733525398257,0.3434880777791355,0.5568319165343893,0.10459874483112079,0.22952102668806887,0.0933694182481058,0.41260940093884313,0.5019556040415432,0.18416668054178453,0.06435018131418666
120,80965.61672973633,74594.0,"[4,5,20]",3,0.18656645922942458,0.5059201511478932,0.526447387124462,0.3500826422653614,0.5919449623331735,0.3761497236720864,0.2584876913145758,0.3642147231025302,0.5592928240541766,0.1274283093354605,0.2548278556290824,0.08899274393458378,0.40946378328320354,0.492575712444628,0.18858671253831932,0.07167993194099476
120,18106.53402709961,16420.0,[15],1,0.16322799300137128,0.24935118648367824,0.37753600120602676,0.2996761927743247,0.2673590996362386,0.21948538838495507,0.26317951206108026,0.3226481521938263,0.18728429094794502,0.10598693605323652,0.2593133059139477,0.11246420330464356,0.11872967630608479,0.14857136447518515,0.19559333787941555,0.04880114891195957
144,60410.287982940674,52238.0,"[0,6,9,12]",4,0.18488816695487112,0.2317621219544264,0.3160747758591681,0.3353856625219748,0.2577483855939148,0.21470222636015537,0.27326103727542234,0.5623224622405072,0.14671125911709024,0.10772227166639174,0.25153329666005775,0.267708792538699,0.15825623986176135,0.3103814266764281,0.2032369263713732,0.049857238527934736
144,64290.17193984985,54854.0,"[2,8]",2,0.14226610221985833,0.48905244439220746,0.5237832141681148,0.3670785476944189,0.5873383955250705,0.08390414980519047,0.3683907476732801,0.3360653365104219,0.5327642887140407,0.11624722531916867,0.22501293009277729,0.10021264210632118,0.3924255102077466,0.4700576304421369,0.18258578305067089,0.0643878393194728
144,76495.70209121704,66375.0,"[4,5,20]",3,0.1857066593170465,0.49618891975075385,0.5214448898631214,0.3680507895431067,0.5884374549847182,0.37302745878663457,0.27500086122984463,0.3576070517399528,0.5374081504282858,0.1346171579038756,0.24596524039848544,0.09536313377350474,0.40248408500604127,0.4771823172496727,0.18780847948404883,0.06930196231563146
168,43386.482514858246,35486.0,"[2,22]",2,0.15090075084162227,0.45760512615806664,0.537250108020867,0.38801809960416206,0.5922525991313686,0.07928117916607547,0.37364888855096484,0.3397774681294951,0.521562543451604,0.1296045597832063,0.22674102445726857,0.10079979071121258,0.378785492716559,0.4418570948621565,0.19482769046070403,0.07976452113348717
168,28812.6597738266,23859.0,"[5,26]",2,0.21726367255870488,0.4471637173040165,0.5297924942656708,0.3835927446479438,0.5832800760955136,0.4353549317676544,0.21144536836243108,0.3710127494837129,0.5277963698079476,0.15256942436515464,0.25420451877660566,0.0904399831827278,0.3796530914243778,0.4347269112506078,0.19703186896519945,0.08802452492063545
168,75745.2127084732,72407.0,"[8,13,20]",3,0.160592552902834,0.3420030822610627,0.4593268918647792,0.3762486137961479,0.45125842741268324,0.19380111813233994,0.3099726904143179,0.3078917511762355,0.4889363049999684,0.1383469581932129,0.2530129900589629,0.09977616474238579,0.2634482999065637,0.2857719591446842,0.1723936753560007,0.08300510670557919
168,17944.577762126923,17697.0,[24],1,0.18508265178665428,0.32157349614729097,0.4418412187368752,0.3799976277073604,0.40652013025571326,0.3531794318063457,0.23745555531227355,0.3321090356446408,0.4940743036255282,0.1539202172261216,0.2695461907100503,0.09876908435194222,0.2404304063923527,0.26228994386457327,0.1710608428168868,0.09388457860987726
168,18189.28959417343,16515.0,[15],1,0.16060478924080548,0.2512632668399477,0.3763077291448708,0.34230848712855827,0.2911087839232957,0.22511080932787797,0.268118775238388,0.3158737449391557,0.22258147682291285,0.10567161765322423,0.2552135284482383,0.11411257016211697,0.1390666064469412,0.17847908772634324,0.18236684520421734,0.06022135538839392
