time_in_hour,cumulative_size,size,pcore_ids,pcore_power,AF700 CD48_[R 730_B-A],APCCy7 Ly6G_[R 780_A-A],BV421 CD117_[V 440_F-A],BV510 SCA-1_[V 525_E-A],BV605 CD11b_[V 610_D-A],BV650 CD150_[V 660_C-A],BV711 CD11c_[V 715_B-A],BV785 B220_[V 780_A-A],FITC Ly6C_[B 525_B-A],PE CD115_[YG 582_D-A],PECF594 CD135_[YG 610_C-A],PECy5 CD3-CD19-NK11_[YG 670_B-A],PECy7 CD16-32_[YG 780_A-A],PerCPCy5-5 CD45_[B 695_A-A],_FSC-A,_SSC-A
-1,0,0,[],0,0.0,0.0,0.0,0.0,0.0,0.0,0.0,0.0,0.0,0.0,0.0,0.0,0.0,0.0,0.0,0.0
0,113492,113492,"[2,3,4,9,15,25,42]",7,0.26677047661509223,0.131212998704755,0.30272867652345825,0.47953198590209345,0.2506811185193607,0.1870026109505467,0.004734889648609908,2.629201615893651,0.6926117225178864,0.3010824711609652,0.1550433296179472,0.9952245808955704,0.5830262704860228,1.0217667624854618,70027.70070137095,13282.49758573287
0,9065,9065,[45],1,0.26688783088803136,0.9257973899613883,1.1434769339216801,0.6284135673469371,1.3535681735245557,0.2043906934362909,0.26484954407060357,0.508390677440703,2.748816373303904,0.47225600904577836,0.30285806982900665,0.1565305039161604,1.085276424269169,0.748063771097629,58104.3327082185,15124.177826806384
0,110529,110529,"[6,7,8,11,12,13,18,19,23,30,39]",11,0.15849782274335333,1.9819525110423468,1.9574700922201465,0.6362328876674908,2.7639021061983704,-0.009170832541686158,0.3758702927466926,0.505688198481852,3.8600422157895156,0.48098593628821584,0.08542341176523527,0.12197147029286293,2.0758148075075304,1.5442044915361601,66399.47452704715,18359.15757855403
0,15977,15977,"[4,28]",2,0.31145822250735566,0.1250458233710976,0.4702255719471715,0.7146738269387258,0.13678231201102165,0.7524978968517242,-0.3396439222632499,3.2367378788884054,0.969629644426362,0.3761864154722444,0.23377114214182493,1.3940547634724945,0.6631015898479086,1.3326542914815076,71390.27952681991,15003.014833823614
0,22854,22854,"[10,17,51]",3,0.6487530108077437,2.0505728864968953,2.239048412444222,0.725973743064666,3.1360956058895693,1.5751207734750998,-0.8943327211429088,1.0432210840115377,4.17770803452349,0.6366362210991513,0.21920964343222282,0.07792306620285405,2.320344176205497,1.8284403016102198,71167.98039730446,21747.76791808875
0,35636,35636,"[7,8,11,12,43]",5,0.19267985556740297,1.9906618988101918,1.7260936325064598,0.6299246808003147,2.5255424959872133,0.11226820302503282,0.2510448505163332,0.5719794976989525,3.7574980384162067,0.5377605276686518,0.12996526341340608,0.12849151436749295,1.9933990645414732,1.5374280610057287,65504.52082164102,17343.484566169034
0,7000,7000,[18],1,0.13281810885714318,2.476498919571438,1.9327565340000112,0.6415519307142863,2.957391687000014,1.0196621819999894,0.21547255071427918,-0.15252131471428765,3.9176016997142757,0.6088459241428569,0.18721647328570912,0.09297182928571612,2.335002565714282,1.843655623428573,67008.24685714296,17252.58057142861
0,16437,16437,"[25,28]",2,0.2930644626756749,0.08196453044959462,0.4556827661982177,0.7426291616475003,0.17838151457079077,0.638894610208671,-0.4123278486341788,3.634922610147836,0.765604779339298,0.38592830407008816,0.2096393378962067,1.6192612005840528,0.7372398328770463,1.8333611362779136,72795.85909837557,14578.932895297186
24,126452.25,119359.0,"[2,3,4,9,15,25,42]",7,0.24538937179251108,0.11498024463038448,0.34718276594328223,0.5516142684531089,0.2104972809810639,0.21141211681978644,0.004790080698444665,2.5343951520668018,0.6741341410275369,0.2856607144638603,0.1416162050087113,0.9307018052382419,0.5090092465822079,0.9995089222928011,73050.90485934407,14340.937294512372
24,19100.0625,18178.0,"[32,45]",2,0.43059408050038894,0.5832861157685909,2.1303703344688025,0.8555014045111107,0.9019760126963003,0.3911049309000967,0.1430284676751694,0.761170980108048,2.2671960230234838,0.5448116689179708,0.32336005354366915,0.20351112022866402,0.788020358562309,0.671222601519627,59739.51697802031,23577.09248333613
24,107110.6875,100068.0,"[6,7,8,11,12,13,18,19,23,30,39,43]",12,0.2156481802259469,1.7092710452365005,2.0035051566463564,0.6949945990304425,2.621008798061124,0.03204765676160859,0.3694880204560649,0.5981225492361637,3.949354442901646,0.512279972586187,0.056955822279637136,0.12939350054937226,1.897267650121278,1.4432331159343925,65533.09530386504,21080.350324518247
24,10186.3125,9761.0,"[20,28]",2,0.14104705269325857,0.03457489506139044,-0.15291057659481933,1.2254126100649736,0.11481004420761165,0.7423569318018666,-0.3504862579380452,4.332576499414036,0.9941807641626893,0.39448753667605285,0.20507522973843617,2.1055741607549288,0.7134996792080063,2.368654469208065,76918.93685767047,13738.781723022925
24,22377.375,20949.0,"[10,17,51]",3,0.6673631867818426,1.9687387881621552,2.3018357848105473,0.7747520526983154,3.1890181797490578,1.5556353887268906,-0.8130742914020257,1.079317453225629,4.31408290515811,0.6632731315586619,0.15085452223228035,0.07919295032091689,2.2663327367793453,1.8007952081873937,71273.4137940667,24418.287846541447
24,26454.625,24362.0,"[7,8,11,12]",4,0.207875350938163,1.9016531671612276,1.947317048597354,0.6698129952300458,2.5765442268341467,0.12621959337214328,0.2572468640714982,0.6310334877148138,3.8144100309870175,0.5305600089421995,0.07484665002339064,0.13567180935280654,1.919568265593922,1.5182602101404776,65835.69005419657,20044.535728629657
24,4661.375,4476.0,[24],1,0.7470857751870383,0.09865508837252879,0.8274180744415465,0.9772722495910537,0.1950660989917239,0.44548216977286526,-0.25112489894344225,0.37964823272371273,0.8832036864658986,0.40051558760827,0.1600250763186839,1.2806716906358173,0.2917350230350493,2.3579945163578313,83238.7053176369,16683.23616958515
24,6122.5,5685.0,[18],1,0.16803979936709035,2.440027922305024,2.0484154387300983,0.6846332355553293,3.0139298995610413,0.9682689583707627,0.28683189578399126,0.05122621409759498,4.034784522437719,0.6585520880053025,0.11352128298284869,0.09846709600857517,2.238630452347896,1.7904115056349552,66671.30812576564,19920.506329113967
24,20540.25,19457.0,"[25,20,28]",3,0.2460625713751048,0.0725562921976346,0.35806333313250915,0.9307236246698505,0.13631855493178024,0.6412779017051937,-0.27259740193644655,3.8221138594649444,0.8094362974738586,0.3762851861010711,0.18963545546853622,1.6918244952045338,0.6643807312684854,1.941501410599306,75639.49942186681,14763.999074986903
24,18946.0625,17875.0,"[32,23,30,43]",4,0.5303105942758586,0.882590739959161,2.3402749786894907,0.87425417083365,1.3656027677617733,0.691834046335482,-0.05409423109023859,0.9091386173281375,2.9029194150103637,0.6236052986900319,0.3039528009810697,0.186047323718318,1.1883134228418184,1.0195201536532987,63138.914061958756,25324.629431577167
48,144364.22265625,136553.0,"[1,2,3,4,15,21,32,43,44,45]",10,0.3006362289960174,0.3113646342759231,0.8123216226732675,0.5318981657452113,0.4612708279115898,0.21833371964049153,0.06393895483334022,1.6083955613325633,1.554450656480904,0.40870491458090785,0.18274796059548848,0.4579317526394888,0.6344222243815242,0.6452683541666724,65006.1614805066,17551.278728409376
48,29149.82421875,26663.0,"[9,25,42]",3,0.2301654928362431,0.08774446476749365,-0.09384757846845604,0.6893305110449743,0.13684579316489742,0.3877211838632697,-0.15598617582318397,3.649941557888633,0.6656166664266153,0.26884087435601567,0.1425342282211246,1.3839054578507766,0.6601539224086753,1.5280101435629903,71277.58682721469,14598.064384768584
48,77976.12890625,72620.0,"[6,7,8,11,12,13,19,30]",8,0.10147100152866373,1.8652764434414042,1.8686494954199406,0.5728425029092188,2.588871240022423,-0.042991143451354574,0.31446461776848755,0.5351622706219841,3.794739397232241,0.32761372170729963,0.05342035782575172,0.09240207012718116,1.913651467527198,1.2672664195306886,63057.772778918865,18998.34224947345
48,9050.64453125,8414.0,"[20,28]",2,0.18513702277893707,0.07154296664990367,-0.0035092342042366553,1.3208678707295936,0.17334326537302047,0.6014580544039274,-0.20696429728589072,4.291845085889091,1.0676811858219675,0.3665275167328813,0.18781121716124627,1.972567482563611,0.7400816226611097,2.193667568391411,73374.26480589894,14719.280576098483
48,27148.20703125,25540.0,"[7,8,18,39]",4,0.24552986501842122,2.0256602175624243,2.2323150006772745,0.6601559995240263,3.0643038476031683,0.10828588736105749,0.2851124828438114,0.6853585089132403,4.096529949403311,0.3343419509274961,0.044963126272293596,0.08439349025927134,2.3550732132995145,1.6105814002606622,66740.63410207366,21786.195661804893
48,18509.80078125,17743.0,"[12,23]",2,0.2807224565153279,2.126748837137171,1.7782697958427476,0.5539489138498999,2.5631355629300194,0.9638638886217137,-0.25743195717303324,0.29978910626655475,3.7275818186815646,0.39282495292253705,0.16953777326285646,0.06511682918466566,2.0987073277231323,1.3717583816652077,62793.963086700904,18245.439969408042
48,8746.171875,8385.0,"[43,30]",2,0.46807783264106506,0.4949875601870497,1.2568178403931238,0.9672864518266939,1.3975711294910331,0.37893188715464565,0.2723499493787398,1.3748651460120849,3.9926628313637242,0.4297314486185919,0.21966482180194458,0.16636865819912394,1.1138593677202553,0.9503297623205695,59826.460276370904,22849.82568445116
72,181267.90673828125,170878.0,"[1,2,3,4,6,13,15,22,32,43,44,45]",12,0.25999901326658126,0.7095993398908336,0.9316315186070736,0.7217489550935321,0.9688907877204906,0.24427601918019914,0.08154759514615417,1.435331741785287,1.845836373624163,0.3675448031816285,0.20996572186641238,0.3805494956249219,0.8921528633098329,0.8218065695535159,66993.58412577941,19589.198540457703
72,40129.864013671875,38308.0,"[9,25,42]",3,0.2341271491073722,0.1703885330244126,-0.10138437622404428,0.8480082213586555,0.2548717862214711,0.30202110837179963,-0.10664563263669491,3.3705751818705627,0.6836417435931569,0.3082006545843179,0.158043984573482,1.0988335028984693,0.7199807816163325,1.4982175804184021,72098.87791885226,16773.987371164298
72,72244.11499023438,67744.0,"[7,8,11,12,18,19,23,30,39]",9,0.23146738028400016,1.865649417096896,1.6730041481449045,0.9408130124522653,2.6688443674762996,0.02698299318974806,0.263983126596965,0.6927474433159566,3.5373316828685,0.48685210136837365,0.2282949475498257,0.1387277421248133,1.9478066711235202,1.615955678851939,69667.64160922973,23210.686714652038
72,10220.665283203125,9655.0,"[20,28]",2,0.20495796255692866,0.15357480770559961,-0.2120730530645738,1.508047343405397,0.26408018945050804,0.4979648378705268,-0.2804053188736271,4.203672837381919,1.0640738700465753,0.39271901812016696,0.21274773569952643,1.7189544129318723,0.8359445243468996,2.292834360385538,75569.25472851329,17100.987183570956
72,12138.35986328125,11142.0,"[7,8]",2,0.27693883852141066,2.008380824918813,1.5897182141893738,0.8961203026685594,2.550377135169611,0.3266324265831726,-0.011489045790635366,0.9027284092250172,3.449856458017126,0.5220197688632687,0.26415561871640447,0.14169521280158848,1.9490980419118147,1.6568145573705622,69037.9468685458,22832.18068943926
72,13255.805419921875,12467.0,"[12,17]",2,0.44642908246587076,1.5741896679040757,1.939263552880663,1.0047212646250019,2.620475778777872,0.749546094201724,-0.15927250794206538,0.5926749690365529,3.7289243870618374,0.537291010154968,0.3149734312634709,0.1211356946818648,1.9316685950351404,1.5410602182412443,71184.42269952511,26365.382369778752
72,8682.51953125,7901.0,"[18,17,51]",3,0.7210654373133727,1.418135657697725,2.5648390905196075,1.1987581242148764,3.295567007588019,1.4160919709224047,-0.44022125011332136,0.844165490712085,4.195607048173919,0.6089646523223183,0.4196645348206034,0.09853572207051553,2.2847636365410984,1.725327032534526,84216.216437031,32886.50730252279
72,3554.863037109375,3355.0,[20],1,0.07926742781081031,0.22182137738130114,0.5829109659319633,1.3701327253688573,0.5665489065612723,-0.3519389266826741,0.15331898908219976,4.026747393156008,1.3998276581471676,0.39710640712831535,0.1744470313455011,1.6553034497139842,0.9025754838031034,2.2479228449196844,76440.25806802517,18645.16743383346
72,6665.80224609375,6300.0,[28],1,0.27198854936218964,0.11717900732135744,-0.6360369211615542,1.5815970167732885,0.10277404464715101,0.9512173296438615,-0.5117098871349413,4.298026929925155,0.8850168433266946,0.3903792296838049,0.23317344789090821,1.7528993828043702,0.8004103266384693,2.316785608918854,75104.74986285453,16277.47801068643
72,11272.98388671875,10458.0,"[22,43,44,30]",4,0.6301954308563422,0.795173582645087,1.6675042566324456,1.335714067863027,1.5453890680586317,0.5550221155400801,0.23830106227498282,1.1055877875941085,3.3195670350024873,0.6786131311709481,0.4597503732950301,0.2424115832585687,1.316190750582935,1.1561938760348394,68704.05211159089,28559.150112025894
96,104283.20617675781,99064.0,"[0,5,7,8,10,11,12,17,18,19,23,30]",12,0.3053701941695637,2.585493906854972,2.0553553874090276,1.0291040764038621,3.3159066282759544,0.3962391959085514,0.47631913475762966,0.9706061020125305,3.759504496136118,0.5445978193993067,0.12683810662380868,0.12557622613514297,2.4918624488266903,2.055058444200879,67906.01097466622,19290.26060440441
96,96152.37213134766,88330.0,"[2,3,4,9,15,25,42]",7,0.42014682415960003,0.1679162593573147,0.32291680550571566,0.6946566441252227,0.2585855803878143,0.18866662693937042,0.1137214920673757,2.9330510782691244,0.672507096079913,0.3654209434366258,0.2039330956459322,1.1718888316278113,0.6524479341588153,1.1259330698339627,71749.6479593424,14221.990575872407
96,5599.4635009765625,5246.0,[32],1,0.5759003726350169,0.3928802184475666,3.1141367166217413,1.1693153586210339,0.4072128766796075,0.5231879847989589,0.1367354797439817,1.0906601082029472,1.2755192824838408,0.7037847561212817,0.548076804539114,0.3496834087033457,0.5763159386697786,0.5949839722327126,61952.4560190299,30080.779545072328
96,14310.524063110352,12867.0,"[4,28]",2,0.3838715363576679,0.1636596326851012,0.181832483193348,1.366904460097087,0.164757048029204,0.7891647954208045,-0.05788053098037205,3.5011669305992292,1.0501178464321868,0.4760148008348498,0.28222338662431223,1.5577855158803064,0.6826021422733551,1.4868706537292355,73153.575307752,14918.782551073853
96,12458.425888061523,11546.0,"[7,8,51]",3,0.45058320537159835,2.204491082829044,2.1557997799834046,1.0559612754601595,3.0486931556807755,0.37860531258787833,0.30858309853582977,1.1318045640314787,3.761493955361464,0.5797554399671528,0.2086071668803342,0.15189419129570847,2.3465235275793677,1.8761274161900887,73425.22990246279,21722.141897108173
96,4676.178939819336,4454.0,[20],1,0.06097037511661951,0.1586442016020264,0.5526652084275518,2.167578690375309,0.6598220049155898,-0.46123421095918327,0.5494867338305349,4.3289464548407395,1.1652403109765177,0.5702087543797573,0.256992779990882,2.296187016519861,0.8716823510299155,2.472743459840014,76619.65637074455,15235.297975136034
96,24715.344161987305,22489.0,"[11,12,18,39]",4,0.22645709270877346,2.025534298026588,2.155906706613416,1.0622295561902346,3.1821873176578026,0.08121111115845747,0.9917981781313205,0.48812617013275394,3.7780232009615866,0.5297087982064485,0.1460490910428045,0.14107143312368753,2.3169692725311455,1.8393627729554212,68078.92323113288,20841.523371721047
96,4676.178939819336,4454.0,[20],1,0.06097037511661951,0.1586442016020264,0.5526652084275518,2.167578690375309,0.6598220049155898,-0.46123421095918327,0.5494867338305349,4.3289464548407395,1.1652403109765177,0.5702087543797573,0.256992779990882,2.296187016519861,0.8716823510299155,2.472743459840014,76619.65637074455,15235.297975136034
96,6647.612640380859,6231.0,[28],1,0.31552470581122805,0.07576084977907671,-0.5280384832867904,2.203098986877395,0.1318476963863544,1.0604332019073694,-0.1972367343162742,4.523884988578573,0.837774364897531,0.5605870937773129,0.31261181482942746,2.3003566727552265,0.7835155605983884,2.510916681326339,75749.87523891855,13466.627485028179
120,154112.76432228088,147722.0,"[0,5,7,8,10,11,12,18,19,23,30,51]",12,0.21760401046497657,2.7841065727690477,2.2328419323464996,1.1101856337102793,3.5083697013985877,0.3912199577840523,0.5834446375784106,1.0284702004853066,3.8260443610175225,0.4138947407808111,0.12430473917854457,0.11052200402025802,2.6263158793390824,2.2028626631029025,66286.67834468262,18106.964143037443
120,83489.52325820923,77480.0,"[2,3,4,9,15,25,42]",7,0.32754335315911365,0.1869626258586159,0.4256833243164895,0.7020181201786446,0.285972791732652,0.19140359738572132,0.11791825932566002,2.7439649285558465,0.6690877457694707,0.36440427548647836,0.22861795724203482,1.0759614431966509,0.5875932651858115,1.1265412797899312,71152.9416667963,13723.646781407102
120,7243.966468811035,6894.0,[32],1,0.5987651307433417,0.4511884778578059,3.0921522811503865,1.132029201030949,0.46809822686306557,0.5657774756703344,0.15472494355584354,0.9929425475269369,1.2728499798956956,0.6669051257626452,0.5724629471680056,0.315921809080561,0.6415014849921702,0.6465705167089513,57809.8846909607,28599.946878340026
120,16333.29508304596,15521.0,"[5,7,39]",3,0.4797453855756151,1.2329345289061342,2.814367032718151,1.37611669434051,3.5647027485624263,-0.08684423059655666,1.1078385390551904,1.2914234322269071,4.2757412221424,0.41442029454822016,0.13535260491836665,0.14927685732388885,2.4062128491102137,1.8632986846028616,66473.76721672915,24399.860480995543
120,6086.047213554382,5828.0,[17],1,1.0528320499833603,1.0121313182562481,2.988553056732852,1.3858673789548148,3.6859946434989896,1.7997479324741763,-0.7079953676966027,1.4273122453004277,4.4763673509563935,0.5606349730698791,0.3000595003516766,0.061887087349494996,2.5081850832490433,1.9269559803565006,66861.40506563164,26368.89629443659
120,17468.234979629517,16153.0,"[4,9]",2,0.4539223423865113,0.23320319093711284,0.31526595315066563,0.754336839967551,0.17748399913628843,0.6832362312541542,-0.06169274188906204,2.9792317619094852,1.147219537917874,0.4174961906578395,0.2786890700829763,1.086742564055885,0.6297117225594534,1.0586364985982364,70474.73055206833,15303.609397178961
120,13355.50431060791,12751.0,"[11,12]",2,0.0503521418346351,2.0497568302802316,2.0605378792308664,0.9799275575992814,2.95619803512523,-0.40559762944702005,1.0258728859331243,0.14450949171490768,3.5254095280560667,0.36771485843922114,0.11113924607002668,0.1332341814094946,2.1228145138306926,1.691774591480893,64815.455369892086,17914.00456967998
144,120667.19784384966,111208.0,"[0,5,7,8,10,12,17,18,19,23,30,51]",12,0.3125620093054051,2.726066703836799,2.1920214459932432,1.3046063311952238,3.499149671501906,0.5726076756110055,0.5742823545057401,1.1588599359360754,3.6916572259643705,0.5164659320899848,0.05105105353338635,0.15255060983198254,2.6091555610912858,2.157585354454175,65956.1194796087,17780.73010630689
144,80448.09520363808,75230.0,"[2,3,4,9,15,25,42]",7,0.4296010398955963,0.11826734057741017,0.40736886110141945,1.1406808728968088,0.2598594991465504,0.19717167436128546,0.19304310743589115,3.0996057113279187,0.6920922623099569,0.3895622219988124,0.21504364284026112,1.3299984193063312,0.6942519199414213,1.3036616582816174,71627.01159114158,13878.432654251217
144,23767.058819830418,22193.0,"[5,7,11,39]",4,0.1479093514710066,2.062137163435014,2.38817623732882,1.3507141253529515,3.3917444445471063,-0.5433488217846867,1.3335824342962463,0.4088816598982512,3.7207354202698473,0.4640333068003324,-0.01455917391796735,0.18295246917152674,2.456391827850658,1.9529088731133537,65449.04712758592,19289.985725307157
144,17007.587984621525,16092.0,"[4,28]",2,0.31932314926214067,0.03540365813553459,-0.018280770793345447,2.4051393728780295,0.16854356633985956,0.9995339340413258,0.058469901786170286,4.0753190814753255,1.3269121884813226,0.5463092979302872,0.286042985437307,2.002356584426013,0.8460454951566431,1.9819171697820532,71031.10855012781,14247.62825826182
144,8464.869093120098,7803.0,"[12,17]",2,0.5410475175254426,1.7450466001581844,2.428300397440364,1.3153375762270234,3.187694632179362,0.9044497744856221,0.34702975912091416,0.5096401798338164,3.721972567302926,0.5733453216782579,0.18660757409805173,0.15080231940228495,2.3695304683432847,1.7873170360317772,65814.2732201766,21139.5985345412
168,104329.55278931558,101732.0,"[1,3,4,6,7,13,32,44,45]",9,0.2708359124353932,0.7703528872149707,1.357316649686553,1.3185373725260088,1.3782586207159242,0.28419361605634963,0.276436678656776,0.842450495904822,2.6634220152782437,0.5738507519993578,0.27453755171793137,0.23675522443756258,1.0893675046894429,0.8922371233934472,62618.311749484375,21452.709972245826
168,51085.42624568567,46997.0,"[2,9,15,25,42]",5,0.20544588543397868,0.09875889351760403,0.24532320802977958,1.5552330483778425,0.3111340501465647,0.19283232521740312,0.2860517423971993,3.521158171612173,0.7680149717204067,0.4032273867653614,0.1988845035744773,1.302092135897145,0.7250644855923397,1.4579813977329026,71998.59621599739,15212.594250341259
168,62405.28401191905,59062.0,"[8,11,12,21,23,30,39]",7,0.34669845893984363,1.7273038797658002,2.05604161963686,1.5263968592586004,2.8934848450878285,0.13369541816023345,0.6949621714268122,0.7180205092999463,3.6422576223428007,0.7435366230584487,0.15752958098051018,0.15846174151712955,2.1284129162283842,1.6315743668713556,66472.46549124423,23436.245834595393
168,47292.59602290392,42829.0,"[7,10,18,19]",4,0.30474090614616944,2.6435115661263477,2.1092483477168105,1.3625995246993252,3.3903364222121435,0.5324968430314294,0.44102446244467686,1.024441884207962,3.4789868061124394,0.5999119395798097,0.07066899682531513,0.12177289098462685,2.4217422873856265,1.9659578515561191,67406.84425759735,19743.254241033985
168,3852.398621927947,3637.0,[17],1,1.1026239840535077,0.8796727750374154,2.6830332876961296,1.8033186600301403,3.3059827370023513,1.7341749664605988,-0.6449878857596865,1.3152094049056968,4.144211722603992,0.9128750466649173,0.35662540661607034,0.1354311062683491,2.276063427272315,1.7000673605938161,69421.75719909286,32546.316328089026
168,12464.985546723008,12024.0,"[12,29]",2,0.59397920532662,1.2516468057203842,2.395711689411914,1.5648550998743405,2.201254054423466,0.5999583123986083,0.48226922230508107,0.5343999163653099,3.581544164822987,0.8671158325895171,0.3658441490394715,0.17640177659251277,1.8391466584297964,1.320660227911271,64033.19296909257,28900.5420078616
168,8769.480010658503,7994.0,[18],1,0.19929244411277747,2.650502251611395,2.170095758020039,1.3222850178911014,3.3281120970213363,1.139386567230768,0.9036149015298727,-0.020616691204517146,3.4150531443494088,0.6764731328621468,0.19987624688908756,0.10723953139186382,2.475887990241519,1.8892428732375757,68224.78650356164,20058.10741346522
168,34994.938999753445,33744.0,"[4,32,44,21,23]",5,0.5887184530647755,0.6775882894016338,1.7128591458448112,1.6782925776106379,1.301612657207043,0.8234198225061189,0.003546176115512445,1.3531126344078173,2.8666953493144494,0.8669425048883243,0.41079284849554876,0.3456659513138961,1.2720258976103986,1.1457028948582093,64933.65681038416,25474.80399173362
