time_in_hour,cumulative_size,size,pcore_ids,pcore_power,AF700 CD48_[R 730_B-A],APCCy7 Ly6G_[R 780_A-A],BV421 CD117_[V 440_F-A],BV510 SCA-1_[V 525_E-A],BV605 CD11b_[V 610_D-A],BV650 CD150_[V 660_C-A],BV711 CD11c_[V 715_B-A],BV785 B220_[V 780_A-A],FITC Ly6C_[B 525_B-A],PE CD115_[YG 582_D-A],PECF594 CD135_[YG 610_C-A],PECy5 CD3-CD19-NK11_[YG 670_B-A],PECy7 CD16-32_[YG 780_A-A],PerCPCy5-5 CD45_[B 695_A-A],_FSC-A,_SSC-A
-1,0,0,[],0,0.0,0.0,0.0,0.0,0.0,0.0,0.0,0.0,0.0,0.0,0.0,0.0,0.0,0.0,0.0,0.0
0,99994,99994,"[0,2,5,11,13,23,39]",7,0.2807651158669573,0.13556762957778012,0.31635868149089585,0.4995847479148776,0.2746288479508818,0.16559965659939557,0.011757636268177496,2.79982385663142,0.7360941485989146,0.32095309545572526,0.15889953308198557,1.0699134542272537,0.6171332938476334,1.1030158915834956,69515.02594155667,13867.051543092559
0,117341,117341,"[3,4,6,7,8,14,17,18,21,34,35,44,48,49,50]",15,0.18977110626294658,1.8942619097672564,1.9195037250321714,0.6645773734926412,2.6571963008326125,-0.04953972871374712,0.37056737733613243,0.5912512459413195,3.8240638221763947,0.5196941487033523,0.10023154937318957,0.144121768938393,2.0120925729284753,1.544534239055403,66840.61530070473,19101.224090471325
0,20149,20149,"[2,47]",2,0.2874034015087601,0.181632366420168,0.9707130690356758,0.42705072738101135,0.29150739580128704,0.23123374157526344,0.01131797771601839,1.5142756956176555,0.8537080672986231,0.340861571542013,0.1847908868926469,0.5906759343888013,0.4764262345029493,0.6526029623802687,72560.32795672229,13442.658593478587
0,20508,20508,"[4,6,7,8]",4,0.22653977755022847,2.2116967215232997,1.9560292588745773,0.675020143797548,2.762571364540682,0.30118339321240306,0.1392124690364689,0.5922668073922353,3.8969157684805933,0.5812547078700997,0.13013536922176794,0.1355082123073933,2.1647621214160355,1.7438794655744114,68079.45699239301,19320.93778037835
24,202078.0,102084.0,"[0,2,5,11,13,23,39]",7,0.2723056426280972,0.1261868775522288,0.34143696599828743,0.543570236393859,0.2503268573768578,0.1821055384752437,0.005864019220305661,2.7600336897534703,0.7317682453310071,0.3122688572234512,0.15141302259028633,1.0379671225615874,0.577796043844457,1.0970641247290616,71023.76579340646,14515.445323092998
24,67554.0,38050.0,"[1,15,20,29,47]",5,0.37169679358735186,0.31910744289013193,1.4590808908132655,0.6792385745477745,0.47569306893744834,0.3415669829173722,0.06352647633005448,0.8138026274980064,1.3431173841667383,0.4484031764810399,0.28556722835065385,0.2763965660508656,0.5546059170589445,0.5537644132397821,68600.30719128394,18006.85294727185
24,249640.0,119655.0,"[3,4,6,7,8,9,14,17,18,21,25,34,35,44,48,49,50]",17,0.2500266465069725,1.7459003025717013,1.9937363305399693,0.7151977412594146,2.615204007602952,0.08887076363563695,0.3096736983696511,0.6584214053276729,3.8978331341011,0.5424195136116009,0.1015034049551331,0.14904479164797224,1.9451097297388151,1.5031829152099003,67103.40932542863,21227.893478609152
24,42804.0,17910.0,"[4,10,27,46]",4,0.47572180305577816,2.2495845157461885,1.902707429539325,0.7126840073824803,2.8855563905008963,1.3339444897439632,-0.549875272544623,0.8856690129660767,3.9516481451733463,0.6963782666339574,0.19465487230165923,0.11234918009999217,2.1956891206896607,1.7879123542659514,67912.50911129807,20706.01999813098
24,22349.0,9473.0,"[7,8,31]",3,0.6312947016421344,1.4199145789073429,2.4570145233791103,0.8322001629603046,3.0495765726878115,1.2389610155711723,-0.4021505871851123,0.8598938875564772,4.375954381090879,0.5947601911494894,0.20164081131147116,0.10935364745626197,2.173113426775252,1.6448700647008847,72396.70034453429,26440.814354109734
24,21255.0,12185.0,[19],1,0.19129143396847703,0.018442618960231805,-0.46331255483414857,1.0577396780051744,0.08434917271229381,0.8334880881674842,-0.319798945330505,4.155994361891289,0.7425527099035526,0.3549124870853937,0.20682106840744074,1.8937758737708723,0.7070092129381268,2.182551751587845,73981.59717713503,13150.197882851091
24,10706.0,7111.0,"[17,10]",2,0.319643422566783,1.6504230235382011,2.1550149124789884,0.7564388444797299,2.965018414907513,0.14951393909957233,0.24761985783672902,0.7600637520082203,4.1908012652718005,0.5256188215953675,0.044090301326355164,0.13486796076966268,2.0918532695684613,1.6173479980384837,68181.1918550345,22918.713244909406
24,21414.0,11899.0,[30],1,1.3059874537218745,0.5846870626692873,2.876931105024728,2.302177418557936,2.1892007806108187,1.760593415522557,-0.8675450724759535,1.087813413327726,4.399639829550786,3.357970486550872,1.4727738260016783,0.5133208325394554,2.391005786494804,2.477111223498647,122961.82758942734,108503.27001027425
24,54017.0,24269.0,"[32,36,37,41,51,54]",6,1.838503178166128,0.3423782479774915,1.6301812513838194,0.9168277325101459,1.8561634749060594,0.4053000289353317,0.17089955913877963,0.908889438621173,5.541111561378834,3.028168409963525,0.39172471368273376,0.20543107195882815,2.3365416593850026,1.8582242303348926,72940.30842142281,29319.490382657274
24,6616.0,2686.0,[35],1,0.29613787227931976,1.6012872509068732,1.6483750036275748,0.7015292586154707,2.138034303355505,0.3742504833736404,0.0722751561366275,0.703404009371229,3.4233323190749654,0.5753727128174139,0.20271269180774132,0.16926251571946827,1.719204065296255,1.4488694879081043,65925.76541717073,19868.962515114876
24,37283.0,16396.0,"[21,25,27,31]",4,0.6269974868438706,1.423183404581179,2.4649218883136954,0.8384344828205896,3.081232447388875,1.201268442104989,-0.3126112309363571,0.8601745335407505,4.445566173644832,0.6169094534238112,0.20324482994930682,0.11427169020733374,2.218346249845775,1.6591109592843942,72035.840892632,26533.85961430139
24,12950.0,7021.0,[23],1,0.22133886494208732,0.17159868849420912,-0.057082665637077756,0.5605009819304954,0.24223773675675542,0.2604951600000027,-0.01934894023165956,1.0676072058687294,0.942780906949808,0.30973042602316925,0.16323479814672615,0.35049011505791494,0.3550693304247139,0.5320412942857145,68887.18826254838,12255.505791505766
24,14034.0,6233.0,"[48,49]",2,0.3006404688613349,1.762759668590565,1.883823294071528,0.6979397133390322,2.430122123485812,0.3924590409719253,0.13872997762576356,0.665370575245829,3.8510429228302683,0.5671221428673207,0.16617425480975356,0.156357189040901,1.8944970514464958,1.463296946130826,67336.6509904518,21154.7590138236
48,299045.0,96967.0,"[0,2,5,11,13,23,39]",7,0.256126275604009,0.12698038521627586,0.30190573247840113,0.5293672592251881,0.23650986790617923,0.18599803495795397,0.004362576735938983,2.7698126647026333,0.7342167080606575,0.2933228447725259,0.14185227877409412,0.9961488225651647,0.5768588843786059,1.0425590217358545,70092.0004414051,14698.984193014427
48,114360.0,46806.0,"[1,15,20,29,47]",5,0.3353448259443841,0.3577880171563459,1.4254497263728463,0.6682767155648892,0.5035604238719862,0.36318774355543737,0.02888176998951142,0.7486967846712038,1.474395460772992,0.4274917141920249,0.27342865151276197,0.23543243245015655,0.5391091968258158,0.5327330231811862,66167.91045820207,18505.044281217204
48,314735.0,91250.0,"[3,4,6,7,8,14,17,18,21,34,35,44,48,49,50]",15,0.16748960716793548,1.8000183139657198,1.9297951752108813,0.662244691016248,2.615814688414081,-0.049008747066580094,0.38265503224300446,0.594286714102342,3.8406459803040573,0.4548122718668085,0.06986026522312327,0.13134101783722718,1.9324823198595618,1.436184514636125,65805.9665941189,20138.06103547429
48,93101.0,24142.0,"[4,9,10,25,27,46]",6,0.5206952225217734,1.994983074736032,2.076372419168434,0.7121953336054387,2.8922902421993135,1.2604649982707012,-0.47810591552185633,0.8716632250996188,4.057895005896834,0.6020827689605882,0.19596809264132586,0.10053851225013777,2.200404816940747,1.6527399404839922,67884.90263262494,22217.344174606038
48,34271.0,11922.0,"[7,8,31]",3,0.6092317883633427,1.4689669997665669,2.4661815639753493,0.7918357390213275,3.115355799509786,1.2535568028945818,-0.3829030692422166,0.7547220870998679,4.366185796912851,0.4985978971433548,0.18322422698492113,0.08751713594584454,2.262887064602731,1.6007434401680758,71975.28966181306,26278.77797554774
48,29459.0,8204.0,[19],1,0.21281251298415493,0.026717057028389668,-0.45808109243354345,1.0819922552700505,0.06516274927865595,0.8753908389286809,-0.35760822084930544,4.199091946332135,0.7498641389388633,0.34805818880477857,0.2030397886214823,1.8881313252316732,0.7101872711225748,2.1479442224108,73550.66444889529,13365.022302182677
48,884.0,586.0,[33],1,0.7882603846153826,0.16213742873303394,1.632670459276016,1.1365315927601785,0.5326619513574684,0.4662778710407216,1.2441886923076888,2.9098810871040763,1.719364248868783,0.6279788891402714,0.3925753235294134,1.4456100463800903,0.9023079932126693,2.507149941176474,86705.9547511313,24110.914027149338
48,6702.0,2176.0,[10],1,0.5373560258131909,2.2359543654133134,1.9934687632050134,0.663829812444046,2.7791649676215893,1.4057244592659017,-0.6663479009251052,0.8988100077588856,3.9610484165920563,0.5971092048642171,0.1923259541927762,0.09624139749328586,2.192821931512989,1.6243157863324396,65478.36944195769,20868.2685765443
48,11842.0,4083.0,"[38,43]",2,1.59337664558351,0.299836066289477,4.00490163181896,1.3994841492991115,0.5355327030906984,0.8138184512751263,0.08939864051679836,0.9870363311096115,1.7293120516804539,1.1290154374261143,0.7938680918763747,0.25652653639587863,1.0142622509711177,1.2884852485222131,70966.93126161135,39054.86235433201
48,26045.0,9738.0,"[17,21,42]",3,0.5734168856210384,1.343567933960467,2.754690382952577,0.8750936265310174,2.597300481512763,0.18089575507775257,0.3697946909963581,0.6522744423881761,4.43525505578805,0.6806101708965261,0.1548335086964867,0.1432623243616823,2.117042388443077,1.5551907547321995,67336.18030332128,29215.802188519894
48,26672.0,5258.0,[30],1,1.3109890431538689,0.5921777559238195,2.826404859590553,2.2675497495125705,2.1714211767021507,1.757622576747145,-0.8872065838332392,1.1006378556913696,4.385345793753771,3.304920718056402,1.4359153676139926,0.49669093926214813,2.386148088257335,2.4655033965956625,121739.53209358115,105715.21055788863
48,12422.0,4684.0,[27],1,0.43481934285944246,2.0390108525197084,1.313718504266618,0.6345142438415663,2.695755654000935,1.3906329447754076,-0.6722560444372851,0.7733950499919544,3.732104503059109,0.5238625464498466,0.20090577974561574,0.08492883400418727,2.038134281597171,1.5639134896956968,63331.67863468043,17347.920785702787
48,66885.0,22829.0,"[32,36,37,51,54]",5,1.9303213390745257,0.33570323208491715,1.6259067555057123,0.9193662803917246,2.132393256290659,0.35418025575240675,0.22601965848844507,0.8876799201016654,5.559304017836595,3.1027851018464525,0.3591781731778463,0.1988654050833517,2.4830341303281664,2.026183130836518,73875.32295731478,29255.513313896918
48,17646.0,7685.0,[41],1,1.5204193846764154,0.3294972789867452,1.2546615396690393,0.7718096547093052,0.958685877876007,0.6418949047942824,0.03520685583134098,0.8354507109259792,5.475335937096258,2.4619493896067013,0.39967475592200996,0.170471937889611,1.8767726392950386,1.119948422078653,64234.31485889129,26493.098492576108
48,10115.0,3499.0,[35],1,0.2345243165595623,1.6793183730103753,1.5824919505684538,0.6423170925358304,2.1293055042016804,0.3442621231833898,-0.05922318062284759,0.6976946804745348,3.388175710528902,0.4802706357884342,0.16351712357884685,0.13022167978250287,1.6902215271379233,1.4056244163124094,64304.333761740134,18511.514384577324
48,17753.0,3719.0,"[48,49]",2,0.28255767729397574,1.8220770831408792,1.8806162380442628,0.6678099218723599,2.4595840493437726,0.3586238234101293,0.12190929544301765,0.6864143851743352,3.8605895325860318,0.5099973559398384,0.14869601729285797,0.14217471244296953,1.916299050583012,1.4237747716442304,66684.83839351099,20503.115417112625
72,448891.0,120387.0,"[0,2,5,11,13,19,23,39]",8,0.2535605319108636,0.14937219578027738,0.25085524442906415,0.6262105313093711,0.2559369418812172,0.24682357668565635,-0.029583037668395207,2.8299992178368205,0.7523439557509538,0.30682380123014297,0.15298745639587796,1.0081828599815896,0.6111679440042269,1.1383645332831274,70463.96977439936,15386.050618078758
72,235580.0,73558.0,"[1,15,20,29,44,47]",6,0.2897042966423282,0.6888404194838218,1.3669548017997943,0.7067664766576094,1.0023977126538877,0.27900011864334906,0.10922454897699874,0.7608858862679373,2.1477390678920045,0.4236463490406658,0.2451586796672096,0.2190640977247631,0.8338151170260605,0.6793012481365155,65090.66073520685,19433.367722217485
72,359616.0,92543.0,"[3,4,6,7,8,14,17,18,21,34,35,48,49,50]",14,0.20415714071398483,1.8459759666505473,1.8969292981736054,0.7686664597932111,2.6647016284147793,-0.03179551324467966,0.3549252645683141,0.6634059231569269,3.828930916018734,0.4947315391862438,0.11013519230791236,0.1451449006301173,1.9861226638914897,1.5512168569557494,67910.0359494572,21902.06958533546
72,116949.0,23848.0,"[4,9,10,25,27,46]",6,0.5418438054622037,1.9324681397104637,1.985124737167474,0.7926494927874539,2.823887974783857,1.245423203302299,-0.4661651025404212,0.887072258112501,3.9775462038666505,0.6376708697295356,0.24459923240899561,0.11477815688035031,2.156478559406245,1.6565800743315509,68993.36975946793,23719.01817031354
72,22908.0,3771.0,[31],1,0.9177978124672748,1.052904020080323,2.847093400907967,0.9941688857167805,3.4222968275711705,1.6085141799371547,-0.6950451891479044,1.0856649086345218,4.71716829317274,0.5915112225859901,0.25853529797450925,0.08891151191723512,2.3801425467522357,1.690515211585476,77739.7646237122,32470.914614981448
72,4913.0,0.0,[8],1,0.3746886537756986,1.8139000460004135,1.8886093317728467,0.7257061125585174,2.4704724264197115,0.8130292236922421,-0.21600229839202312,0.7797918288214891,3.8317822874007637,0.545385684917569,0.1583282582943264,0.12464716873600601,1.8955739798493738,1.4939609134948095,65329.46224302863,20863.114186851224
72,15186.0,2508.0,[16],1,1.1114173803503162,0.26438004260504755,0.8732610827735989,1.2192904755696268,0.22585992242856756,0.5825087767022259,-0.33248279876202336,0.7120241588963379,4.7451284628605155,0.5735585264717539,0.2995058441986016,1.0638868572369358,0.5621378027130218,2.5537759861056326,82253.28381403902,21813.097326484785
72,20775.0,4383.0,"[17,10]",2,0.3286636288808693,1.5819769847894238,2.0950646077978283,0.8081950087124015,2.8941217820457203,0.1782711002647428,0.22990956245487482,0.7678497160529463,4.099381199614915,0.47748704428399324,0.08631973910950208,0.13513933270758183,2.062850913116724,1.5151699682791853,68379.0725391095,23833.455210589666
72,13493.0,1651.0,"[38,43]",2,1.5721677639516713,0.3191131193211283,3.9708403899799847,1.4270808242051487,0.5629444022826711,0.8153562819980731,0.10271942755502605,0.9949029165493259,1.756146360038532,1.118234408878683,0.7898003007485395,0.26384473156451493,1.0282339607944837,1.2952687248202825,71747.06410731503,39331.69258133838
72,25138.0,3473.0,"[21,42,45]",3,0.9740172007319583,1.0867042401941336,3.0685765354443393,1.0594689562813366,1.911624980626947,0.7814719680165514,-0.015384091614283335,0.7538539358739809,4.503479302450464,0.9766336705784086,0.36032690826637115,0.17036525710080408,1.9567113503063087,1.4335878437027634,66058.84827750825,35056.31697032382
72,34406.0,7734.0,[30],1,1.318512280532487,0.6312667415276167,2.7365623951054805,2.3045538726384716,2.1561011436377293,1.724199732256016,-0.8354275273208147,1.1225790844329637,4.38106924460851,3.193065965267683,1.4552985157240208,0.4945695847235987,2.386410908242732,2.4556936637795594,122151.62657675997,105952.85566471008
72,83196.0,16311.0,"[32,36,37,51,54]",5,1.909794767104186,0.3650623093538128,1.538954031119284,1.0898312664551222,2.082114389393729,0.34356649968747943,0.1984783580580758,0.8904738528054201,5.505734503798286,3.03813887451319,0.3831574804918536,0.20795670516611542,2.4565501947930066,2.0266330700394306,74847.96846002206,30489.809702389484
72,7731.0,3727.0,[29],1,0.6006769663691724,0.7294206482990604,1.7223443457508751,1.174779612986677,1.1803935426206165,-0.1053145424912676,0.5080784822144633,0.8869493629543515,2.0360889445091184,0.6656265875048472,0.4546036211356834,0.3642404656577428,1.1188666953822284,1.420974389470963,68096.70366058734,22451.574181865217
72,22950.0,5304.0,[41],1,1.5307725185620995,0.37017994357299777,1.239259404444459,0.9954544234858598,0.9679982193028285,0.663897339477113,0.02007963769063048,0.8710130874509692,5.414871910065401,2.449353514945522,0.4312649040086951,0.18176626610022018,1.8902116924183008,1.1864194591721136,66466.06919389962,29506.942047930137
72,27046.0,3983.0,"[48,49,45]",3,0.5020409811802089,1.4477753481106168,2.146892660948003,0.8181641534792621,2.086248829845449,0.49571484389558673,0.04346905664422884,0.7584821221622455,3.9875272001035174,0.6474001109960784,0.23846966734452835,0.16242715133476426,1.7764758726613992,1.2913396613917048,65748.52325667374,25527.232714634367
96,498724.0,85738.0,"[0,2,5,11,13,23,39]",7,0.2892653433402048,0.16017104447150077,0.3179264551295118,0.6311772612847921,0.27728846298153753,0.18900207520793777,0.027678723490343504,2.785663465888926,0.7486882614211473,0.3219446505522081,0.16126711641108793,0.9998642571362031,0.6181213558461266,1.0907912134447044,70394.1057899759,15335.345593955763
96,267998.0,32418.0,"[1,15,20,29,44,47]",6,0.30054966154971274,0.6995451140083122,1.388526983238667,0.7416268150993623,1.0098558142411656,0.2777181177919248,0.13769901742551482,0.7893579317382908,2.141028002727615,0.4364203719281481,0.25778549197755485,0.22862281899491743,0.8435127483003556,0.686470968145283,65297.48048866046,19434.556496690224
96,427471.0,75748.0,"[3,4,6,7,8,14,17,18,34,35,48,49,50]",13,0.21046592673889353,1.9282569217584404,1.9254637086866828,0.8299591026268276,2.751142714815759,-0.0812453412746097,0.46004718309546133,0.7157168574944226,3.8204610670852346,0.5048007470962922,0.10730032911473053,0.14872997066233662,2.0539157229683482,1.6257762087603584,67972.20347579123,21607.532075860112
96,160117.0,35275.0,"[4,9,10,21,25,27,46]",7,0.5434956241373441,2.0777563586252468,2.0031141844151343,0.8576688060043605,2.926067386180089,1.256116794050606,-0.3716564480785918,0.9265898871762381,3.9547016587932613,0.6491429722078169,0.24453479855354843,0.11596934701499595,2.2473561838280793,1.7645227328890687,69048.73211464143,23124.083314076608
96,27712.0,4804.0,[31],1,0.9344807206986239,1.0966380905384083,2.8436721351760874,1.0489620255845864,3.4738146618071784,1.6331559854575717,-0.6522814727194182,1.1508842248484248,4.6817960545251704,0.6087210978998262,0.26482494406756185,0.0902459841584844,2.4111646815459027,1.7371466011836139,77266.21247113166,31878.297921477795
96,4913.0,0.0,[8],1,0.3746886537756986,1.8139000460004135,1.8886093317728467,0.7257061125585174,2.4704724264197115,0.8130292236922421,-0.21600229839202312,0.7797918288214891,3.8317822874007637,0.545385684917569,0.1583282582943264,0.12464716873600601,1.8955739798493738,1.4939609134948095,65329.46224302863,20863.114186851224
96,44502.0,8597.0,[19],1,0.26531425362905137,0.059650642757618666,-0.44756288270190536,1.2419120915015145,0.11766255199767084,0.8437733833535412,-0.28976803327939304,4.137717376634759,0.7580947908408658,0.3904959663385905,0.2200809521369962,1.8517700446496899,0.739570315671204,2.166231435710765,73768.54972810241,13763.962069120402
96,18866.0,3680.0,[16],1,1.1467362880843777,0.27806136610836507,0.8675526030425078,1.318800626629939,0.2271358789886775,0.5771075601611364,-0.3243441535566691,0.7370355411851861,4.705959018127854,0.5969277900455859,0.3166798528039849,1.0827822766352257,0.5780959234601873,2.5947575854447202,81616.38503127298,21503.111205342833
96,9862.0,634.0,[10],1,0.561469001419594,2.032094318393825,1.9075890070979526,0.8334851022105103,2.6511638996146725,1.3391241033258996,-0.546828943317788,0.9273127990265753,3.8991161468261857,0.6663736713648313,0.27224053782193636,0.12691804562969067,2.096448319103635,1.6363771377002636,67850.65585074035,24111.750152099015
96,17185.0,3692.0,"[38,43]",2,1.5603751721268437,0.3432057802734998,3.959423927785861,1.4970386587721944,0.5865944475414646,0.8272044035496096,0.17254886703520844,1.0637087920861248,1.7584926677916743,1.1340764784986996,0.810944471515862,0.299553654989816,1.0627333647948776,1.3306601891766152,71677.8623217924,39033.18475414602
96,44138.0,7684.0,"[22,37]",2,2.1855222238887064,0.36010639247361587,2.065337086909223,1.2648915265077867,1.4338495064343695,1.1204208970728085,-0.3364745205491855,0.9787331930082828,5.662142258009004,3.308788891839239,0.5423534806969066,0.21055065261226502,2.5624953269518405,1.8232406102451482,75776.13339979167,37814.03996556234
96,65285.0,9678.0,"[24,28,30]",3,1.228992593627953,0.6144959822317486,2.6130155954966505,2.2557514772765432,2.188753722845967,1.4148707945469885,-0.48168258667381414,1.0692747243930483,4.332968760542248,3.08082418534121,1.3622538767404646,0.4992230460902247,2.349908308692651,2.468219026330692,115292.84190855453,93097.33702994585
96,12973.0,2416.0,[42],1,1.4567991005935446,0.45239350057813477,3.8034592592307006,1.4179523210514215,1.563202506282284,0.5699238173128856,0.14790782124413182,0.9656136156632869,4.931372661527769,1.2440838486857322,0.4963700668311155,0.22641115694133895,1.9478454071533187,1.4970945253218233,67990.77715254777,43617.45779696289
96,72086.0,13628.0,"[32,36,51,54]",4,1.869140828413282,0.37299930639790935,1.5079193061620795,1.225576447645881,2.1707695097799964,-0.029629883902560383,0.5213371158338611,0.9035664722276002,5.39581961651363,2.930721832866282,0.37103937469134696,0.2255218190910876,2.414688876120181,2.1107607521571463,73755.76860971618,28724.566545515034
96,9022.0,1291.0,[29],1,0.6439316619374984,0.7139509374861444,1.7486105281534035,1.2189174450232714,1.1707422552649067,-0.10872515883395817,0.5437921974063502,0.897128300376866,2.030306741188213,0.6957898992462811,0.4722037052759904,0.38025131434272097,1.145060865107518,1.4523911713589066,68254.40390157397,22435.10707160272
96,26682.0,3732.0,[41],1,1.587562642343164,0.3622954620343446,1.2353673793943614,1.071111696274654,0.9408002172250947,0.6690345808035325,0.060137042575523214,0.8956480066711507,5.409739006333935,2.448595202421095,0.4561202464207894,0.1875828368937864,1.9109338303350505,1.224115561577094,66206.18184543871,29127.066336856074
96,7666.0,978.0,[45],1,1.1741806386642268,0.47837316110096273,3.129342226193564,1.1738451978867754,1.1284709619097342,0.8802057468040736,-0.11538837685886305,0.907983518914703,4.42874455139578,1.0298694428645923,0.47630578476388763,0.1996014085572675,1.5272430446125758,0.9436454596921509,60498.62561961914,37536.150273936895
96,4602.0,1179.0,[38],1,1.0269029654498072,0.601078997827035,3.17440006431984,1.6628609374185115,0.6517106816601603,1.1411792014341609,-0.20772069991308229,1.3272656305953938,2.3033399587136056,1.1676107429378595,0.8941943813559274,0.4363554880486763,1.0416020938722288,1.1399181242937901,94144.94567579325,45183.1655801826
96,9289.0,0.0,[48],1,0.27938125600171904,1.6841427529335755,1.7552856529228076,0.6677875121110994,2.393386323070301,0.40013735741199286,0.14383748971901333,0.6183732009904128,3.868985399397111,0.5103711201421014,0.16289439842825315,0.142324189148459,1.8487557475508871,1.355330904618365,65694.11562062654,20460.742814081186
96,14493.0,3251.0,[53],1,0.6848917885185879,0.26239940240115933,0.28789661457254034,2.25669095577175,0.3455085649624019,0.3192284482163896,1.371410764576002,3.0592910226316237,4.200182827433929,0.4449614578762161,0.45490424667081353,0.24767115545435703,0.5383920017249689,1.6672981277858223,55535.23273304352,19513.61457255226
120,571184.0,72460.0,"[0,2,5,11,13,23,39]",7,0.2936964928411896,0.16490884923422877,0.33441595729049034,0.6622597207659786,0.28695760471057197,0.1820919392157414,0.04970991470347741,2.8096314756155234,0.7507938666296633,0.33089065713850485,0.1719228916041069,1.024196088799749,0.6202004490041769,1.1144369830772491,70380.55710243962,15200.859631922427
120,306971.0,38973.0,"[1,15,20,29,44,47]",6,0.30607992192421785,0.6992546523319754,1.4099715178436996,0.7619026123705424,0.9940577227067298,0.2785537111420979,0.15159644586949073,0.793956974365658,2.0998854431037275,0.444931920516921,0.2731880714074024,0.2323452762182734,0.8348346841525683,0.6822820193405883,65151.534653110524,19295.6550553635
120,484482.0,92787.0,"[3,4,6,7,8,14,17,34,35,48,49,50]",12,0.19485582141132474,1.9625549711692107,1.988468515810704,0.8910084363175388,2.8286074186388457,-0.19857506306941852,0.5950339286578195,0.7273191847643314,3.8184296224255942,0.4816053168022719,0.10349050304863283,0.15010616893713424,2.100509615599764,1.6736883045376294,67471.31076902743,21237.531483109764
120,274627.0,78734.0,"[4,9,10,18,21,25,27,46]",8,0.48867654327869214,2.351954715137266,2.059775131279894,0.9577706857118908,3.131881291409781,1.1497264607012492,-0.16761388287749224,1.0258305256911928,3.9390163517935144,0.612963418771641,0.22315380869689827,0.11371120214327324,2.3993848627738705,1.9547967519399008,68463.64268626203,21732.338218747653
120,39759.0,7134.0,"[8,31]",2,0.8871821557886308,1.1673440775925017,2.7536748020071182,1.0852943600442768,3.3937593408033657,1.5519791101134295,-0.5653758571644389,1.159008504263158,4.55584303013159,0.5974910044266702,0.2557289905681768,0.09343988503231682,2.3749984867828737,1.7519922324756763,74642.61616237838,29739.88681807872
120,52521.0,8019.0,[19],1,0.271664096285299,0.057249680927630386,-0.43813323215476796,1.3261779892424173,0.12373523815236709,0.8681832264998739,-0.28847003688048467,4.165891645532278,0.7517875642885831,0.410265376001981,0.2305389641286495,1.8891975615658594,0.745215771310526,2.202243691380586,73617.29015060648,13626.470173835118
120,22523.0,3657.0,[16],1,1.1628181426097786,0.2810407048350654,0.8781388041557592,1.4024771138392147,0.22844518789682722,0.5669626022288379,-0.348545642809575,0.7459913698885425,4.667076454424365,0.6050119954712968,0.3266058579230071,1.1018296316654075,0.5862498656484404,2.634591709807755,80614.84953159015,21120.58535719037
120,10995.0,1133.0,[10],1,0.5705626175534357,2.0382112764892986,1.9131088741245947,0.8514105939972745,2.668833791814461,1.3461632087312403,-0.5409166001818946,0.9368538281036964,3.882173765438837,0.6543451306957685,0.27997995188721125,0.12555377780809596,2.0985997728058283,1.643010576534789,67598.13296953175,23712.637380627595
120,5724.0,1122.0,[38],1,1.0312547896575788,0.6245280768693249,3.1398408137665874,1.6937054065338875,0.650133157407411,1.1492974159678522,-0.21207618867924394,1.355908012054515,2.285425776030748,1.172195883298404,0.9183411726065578,0.4414307101677173,1.0443192388190101,1.1564162103424251,92765.1600279526,44280.81062194269
120,52935.0,8797.0,"[22,37]",2,2.2192698453953,0.36176055262115403,2.062009469254742,1.4066563370548795,1.4149446461509512,1.1215145918390428,-0.32955459973552825,1.0494898772645578,5.653776459299149,3.3057833897421576,0.5708012749031819,0.22088928740908798,2.5721742555020355,1.8684739248323494,74819.61137243808,37046.72553131189
120,77387.0,12102.0,"[24,28,30]",3,1.290376895357115,0.6411474544561777,2.6291568781448844,2.2989025967151924,2.2369308354503947,1.4094421690206442,-0.444966023841217,1.0885581418972223,4.347146164924345,3.0759091789447894,1.3891766350549921,0.5175103668187191,2.388432892333323,2.5299222799048833,114999.0666132554,92129.93893031185
120,16264.0,3291.0,[42],1,1.4889742758239122,0.4470538869896874,3.826957360243474,1.504949430275461,1.5516220493728512,0.578251380841128,0.1876603312838192,1.0132853438883225,4.921894294638437,1.2415715943187409,0.5206474586202621,0.23156216435071197,1.976978090629606,1.5425220401500235,66812.67879980341,42318.0245941958
120,88248.0,16162.0,"[32,36,51,54]",4,1.9098092602551924,0.3744503135935031,1.514665251552446,1.3864249104569155,2.1880046591877558,-0.03068544323950695,0.5463078804165589,0.9925103863543434,5.404133462469439,2.895626338183279,0.4000567997915008,0.2337060477064653,2.4270967384869855,2.174733439341409,72840.36914151037,28245.36741909158
120,10503.0,1481.0,[29],1,0.6516118145291887,0.712238536322956,1.763907204608223,1.234153186803769,1.1680125609825778,-0.12238095172807473,0.5543945611730128,0.8931578174807253,2.030626570884518,0.6954003686565696,0.48649275559363536,0.3842950837855872,1.1381244934780597,1.4675107357897779,67808.49662001335,22093.558031038734
120,29922.0,3240.0,[41],1,1.6144898149522262,0.3698172159615196,1.2328857970055682,1.1477206876545756,0.9309198278189976,0.6772549677160575,0.09405088426576791,0.9355897567341684,5.403283075329244,2.4469855247643593,0.4755972137891735,0.1939942709711906,1.919703509892384,1.2498978167568993,65716.14410801402,28716.352115500064
120,8904.0,1238.0,[45],1,1.210042418575916,0.4856046108490575,3.138908069070071,1.270276128593892,1.0974837277628122,0.8952067355121291,-0.03165732378706565,0.9798346694744025,4.422646885444744,1.0459119025157193,0.5051771200583959,0.2079689163297399,1.5417566025381886,0.9747045732255217,60058.68104222821,36487.76999101521
120,15373.0,2790.0,[43],1,1.7729255366551497,0.2573734898848712,4.255937378390664,1.4714837508619119,0.5801945594223681,0.7138986026149821,0.35593558615755416,1.000571865023082,1.539157502439338,1.0959111036882914,0.7937578857087244,0.2684636545892155,1.0896072281922784,1.4391427205490184,62490.123723411365,36061.68321082401
120,24521.0,2499.0,"[48,49]",2,0.317296438399741,1.7767843289425214,1.8554705645772933,0.7881382024387351,2.4230805726112252,0.368104248929487,0.18133536279107787,0.768092887810444,3.833383989437618,0.5396039703111603,0.19374637449533827,0.15991994563843315,1.8825412198931635,1.450320040862937,67250.41229966146,21520.531789078777
120,14593.0,2793.0,[52],1,0.8745619960940239,0.1235420852463518,0.8390676028918174,1.189953328033985,0.22997697265811468,0.5833972684848892,-0.2927538296443464,0.5238417431645388,0.921754351058729,0.4787980113753122,0.2278028107996981,1.2569360584526854,0.39767739662851964,2.427462966833399,80376.08826149494,17190.17282258625
120,19858.0,5365.0,[53],1,0.7186647634706347,0.28618621840063074,0.29986378693724314,2.520468795900898,0.41149622182496604,0.3304973719911444,1.5053211646691502,3.2226212084298638,4.202010471799772,0.4715431736831487,0.5006619922449493,0.25785401304260314,0.5784672847215196,1.803644375465803,55221.94460670748,19182.892939873072
144,644025.0,72841.0,"[0,2,5,11,13,23,39]",7,0.30609835177982925,0.1599684513986248,0.34118147191492376,0.7520061357447245,0.29441860541129694,0.17619579585109846,0.08039917462054769,2.873775674579341,0.7616703527580438,0.34173119537130003,0.1769974685315021,1.0779450606327308,0.6369710577477586,1.1574619560156771,70383.4303078295,15102.099055160877
144,333401.0,26430.0,"[1,15,20,29,44,47]",6,0.31907100442409964,0.6873268037168403,1.4222510828911532,0.809662461306345,0.9763580637850753,0.28256244332200864,0.1696883366486741,0.8139571660432909,2.0704887814373514,0.4576297124273758,0.28277637267135125,0.2447102213820571,0.8348333701158613,0.6892010671293709,65156.33543990564,19232.781953263457
144,555788.0,71306.0,"[3,4,6,7,8,14,17,34,35,48,49,50]",12,0.2005879177528176,2.0085992517848847,2.0136022475224142,0.972437969862602,2.884529819783769,-0.2312375332482859,0.6757473149114372,0.7476033324001174,3.802182910705158,0.49641607575550195,0.09335715887354601,0.1618781252815903,2.1431069391044892,1.7289418711846831,67252.37277523085,20911.97731509125
144,341548.0,66921.0,"[4,9,10,18,21,25,27,46]",8,0.4921305642457252,2.4167912541780385,2.0711596177111242,1.0578984145098227,3.1908578904107006,1.156092495988852,-0.08282215678615623,1.0662462417785878,3.9011533787578805,0.6240341762885458,0.20737460694837795,0.12835160286987446,2.4389598444142626,2.013365996870126,68152.32332790746,21149.303383419036
144,43398.0,3639.0,"[8,31]",2,0.9037571847089596,1.1591411246601302,2.756594165076765,1.1436723159823163,3.3948772608645945,1.5604289224849153,-0.5493177480298836,1.1901575860638522,4.5322582516936665,0.6127482489515629,0.256283724019541,0.10597200631365022,2.380517005553252,1.7734414016775049,74273.9407345962,29601.52781234156
144,65043.0,12522.0,[19],1,0.28158778915486926,0.04469404141875666,-0.4499818413818746,1.5466802687914085,0.13042730510585177,0.8851408351398111,-0.2696308391986788,4.209278174653714,0.7851187139738464,0.4309789856556402,0.2344318640284242,1.9501481441200519,0.7643899918515492,2.24988455012837,73401.9269713882,13484.75759113198
144,28678.0,6155.0,[16],1,1.1844465635330155,0.26997552238649813,0.8840209020852297,1.620202680626293,0.2270264254480865,0.5667222228886304,-0.3597388472348162,0.7651013904735073,4.614376959202199,0.6159111233698319,0.3355936357835274,1.1226983718529842,0.5835446307273785,2.672579124904111,79719.49619917726,20785.668177697233
144,11707.0,712.0,[10],1,0.5869186134791107,2.0186984961134167,1.9242065860596145,0.8967136660117903,2.6749139748868154,1.3445726526010071,-0.5219014054838933,0.9581116495259332,3.8691617521141137,0.6652068403519255,0.2845344358076276,0.13616546186042744,2.1067714342701005,1.6573269108225852,67651.35662424206,23727.184077902122
144,6564.0,840.0,[38],1,1.0392111662096248,0.6181823255636796,3.117737037324783,1.7794787882388658,0.6418422355271214,1.1430238747714785,-0.19311667093236196,1.4066316133455272,2.2743445907983,1.190402334856807,0.9247239379951155,0.47459833577087396,1.043850612888488,1.183060504265696,91475.76355880576,43639.85862279102
144,62422.0,9487.0,"[22,37]",2,2.2374661635481052,0.35345105550928624,2.057115541459772,1.5315725178943325,1.3832007108551432,1.1194126685783783,-0.30789069842364514,1.0589663097305388,5.612410520153155,3.354111242510663,0.593237915798912,0.23760231838134238,2.549449265627507,1.900382409823467,74273.97981480902,36808.43907596687
144,89694.0,12307.0,"[24,28,30]",3,1.3096351658305048,0.6277299523936994,2.5937792730951785,2.3779762881463475,2.2707378966709046,1.3926219496956407,-0.3720943555421825,1.1335315509621653,4.400601754208774,3.0572786666220737,1.392550325885804,0.5458151091377337,2.3924559931321996,2.585547560305033,114408.70943429897,90323.25765380141
144,17410.0,1146.0,[42],1,1.4917686385985103,0.44438989586446986,3.8146448431361235,1.5494928571510682,1.5554268188397553,0.5817531557725506,0.2110278116599691,1.0347896340608735,4.901847430729445,1.2481351605399187,0.532209090924745,0.24111212021826367,1.9692159896611061,1.5580076170591592,66796.45077541666,42070.5415278575
144,104562.0,16314.0,"[32,36,51,54]",4,1.9391545684952416,0.3675238645205634,1.543486531273318,1.5307985143455842,2.2118087483694047,-0.013085423920739192,0.5910491998814069,1.018284731221652,5.403261081214993,2.9458187070254773,0.42172482133088796,0.2526627267458539,2.4227482857156497,2.2379686795776745,72651.68883533217,28541.115280886013
144,11623.0,1120.0,[29],1,0.6659229495827301,0.7038577774240768,1.7688941436806407,1.2804263418222535,1.1618870773466408,-0.11991364742320987,0.5820157449023688,0.908555952077784,2.031544909231704,0.7092853407898084,0.4905404238148434,0.4048573961971972,1.147037660414707,1.4897386394218413,67659.3540394046,21951.377785425426
144,31815.0,1893.0,[41],1,1.6230489466604,0.36827722756562853,1.2421286102153157,1.193727303630376,0.926069860914668,0.6762028769134063,0.11495212839856928,0.9439038945465961,5.382903260820409,2.4606918162816025,0.48352926016029096,0.20218200298601008,1.9172979582586733,1.2630186935407797,65335.23734087678,28495.783246895877
144,9477.0,573.0,[45],1,1.2215023168724286,0.47962918413000066,3.1405857832647412,1.3121878478421478,1.0940536115859496,0.893963110266961,-0.012337875593546155,1.000742486124313,4.408082689775245,1.0525576341669276,0.51431520322887,0.2184288796032512,1.5410706819668718,0.9848746854489847,59959.86915690615,36098.56621293649
144,17424.0,2051.0,[43],1,1.754459290920553,0.2664433406221365,4.251139684056454,1.544877998393039,0.5849040253099225,0.7211346695362788,0.40408034779613855,1.054148608298878,1.5458775311065156,1.1186049222910999,0.7847211489325163,0.2968507274449025,1.103197085055088,1.454280001721762,62532.27180899916,35677.766758493926
144,12047.0,939.0,[48],1,0.33375289300240385,1.6704487636755863,1.8129159056196635,0.8104618494231093,2.433711862621388,0.4104418796380769,0.2516464654270689,0.6702831792147332,3.8465331695857645,0.5532071861874289,0.20290078326555339,0.16156896198224047,1.8682319996679824,1.4179926635676914,65803.68755706819,21224.194571262517
144,18148.0,3555.0,[52],1,0.9077133710050747,0.11771101493276781,0.8799220029204475,1.3762762823451484,0.22250151256335915,0.5796606419440116,-0.3052221752810187,0.5469759494710176,0.9260778405333968,0.4833203321027103,0.24197678763500408,1.2673655033061457,0.410295383237822,2.470566708838424,80095.99999999965,17241.578135331692
144,29057.0,9199.0,[53],1,0.7685598962040008,0.23787060068141708,0.237290129607314,2.908958221082709,0.44262520088103186,0.32751050865540177,1.6073262524692749,3.5045659614206643,4.220299131878737,0.4863400467013087,0.5169991472622875,0.40522041232749284,0.6335691875967943,1.9703774806759136,55892.807653921605,18471.23873765357
168,698482.0,54457.0,"[0,2,5,11,13,23,39]",7,0.295359569741247,0.15775808043585204,0.3352376916971531,0.8093723751635693,0.29920233072722224,0.1731028571631099,0.0988203923708757,2.897576857996274,0.7757208868603643,0.3449913032991544,0.17819265783083615,1.0808600497407161,0.6408338439072155,1.165681616127541,70390.35338920684,15123.028785280014
168,403666.0,70265.0,"[1,15,20,29,44,47]",6,0.31776467981449485,0.6896509423830439,1.4191396087507733,0.9109643295447052,1.029590971776202,0.28869650519488665,0.19420828759420905,0.7848890860389468,2.1548187120193396,0.48229393440120916,0.28892206317104385,0.23905834780982171,0.8685268158452751,0.7107284211650224,64531.55929902427,19638.55520157752
168,634550.0,78762.0,"[3,4,6,7,8,14,17,34,35,48,49,50]",12,0.19891037305334835,1.9963080163832956,2.017719086949795,1.0348569224300626,2.8998704760065706,-0.2327446375620481,0.7062730197683371,0.7429047827168884,3.7731493030336405,0.5127563975179249,0.09259536237177546,0.16061356281144834,2.138046779342857,1.7169133187266505,67166.41843195961,21069.226431329156
168,380867.0,39319.0,"[4,9,10,18,21,25,27,46]",8,0.493627477229581,2.424771702544456,2.076760031063333,1.0971833295034719,3.2157899359645046,1.1764339124287495,-0.07158560902099653,1.0722835639501227,3.864444719665928,0.6287917674831368,0.20395202083668718,0.12452001818744973,2.4353363542444106,2.00298547211756,68136.49102705167,21150.82768525498
168,47874.0,4476.0,"[8,31]",2,0.8992476495383708,1.127197130739023,2.7152236360237656,1.2099097160254106,3.364026959351651,1.5503087075448077,-0.522487784705707,1.2008834074862942,4.497868693487106,0.6361136294230642,0.2628622226887263,0.10909379903496241,2.3506176014538096,1.7610749493462226,73771.4366879728,29809.322805698215
168,77365.0,12322.0,[19],1,0.262375744613196,0.03838909624508924,-0.4594547411620513,1.7047561409810736,0.12995682392554286,0.9107310655852003,-0.2440005923608779,4.249552755677678,0.8238828910877075,0.4520644790667624,0.2396934745556969,1.9531572256834475,0.7714940360886807,2.253079631461231,73434.18734569885,13614.487998448869
168,37615.0,8937.0,[16],1,1.1255825680180822,0.2577769628073847,0.886604895121641,1.896865845620121,0.2210249006513405,0.5738339510567612,-0.3448782337099532,0.7670860132393935,4.548199067925078,0.6390279044264325,0.35724821720058886,1.1618702056360422,0.5721972404625782,2.6549208575036465,81455.5725109665,21428.894643094533
168,13034.0,1327.0,[10],1,0.5957668919748274,2.0388611763848186,1.9434395610710493,0.9425679248120304,2.7088854153751707,1.3588457810342185,-0.5362479983120996,0.9745702391437856,3.8428007497314707,0.6738108668866035,0.28220686251341975,0.13175004127666368,2.121368692956881,1.659394436704003,67514.80988184756,23367.262237225757
168,26773.0,2785.0,"[38,43]",2,1.5582971989690992,0.36402484805587854,3.9632173115078424,1.6985513468793285,0.6110716057595313,0.8442874783177092,0.2697727610652545,1.1583720169573688,1.7641649785604927,1.1608282091659574,0.8384908483173352,0.3424200049676913,1.0992635609008996,1.3838952426698536,70379.5352033765,38377.70410488172
168,71879.0,9457.0,"[22,37]",2,2.2370411875652128,0.3444886075348874,2.1041679619638782,1.6404830816511167,1.3319057931941005,1.1212542458158767,-0.30333926406879286,1.0156275159643213,5.5419129451021885,3.38611000027826,0.6152788598895298,0.2391107108613122,2.534657133724724,1.8852095735193986,73731.21607145334,37820.20695891696
168,108189.0,18495.0,"[24,28,30]",3,1.330792606475711,0.6132428356025268,2.5841461208902747,2.502553050005082,2.3131337585244283,1.3758682429452278,-0.2527876659272219,1.1544090497924766,4.468693661028399,3.073419118939999,1.3928922434813051,0.5505769497915673,2.378042388828793,2.5987178290861284,114230.19079573722,89038.84572368789
168,19464.0,2054.0,[42],1,1.495018502671596,0.44213850066792615,3.808898101674887,1.639174734381435,1.5562126571619475,0.5857013812166101,0.23112113501848564,1.0445992603267427,4.878372003185336,1.262472440865178,0.5611358341553463,0.247681377517468,1.9625498585080141,1.5654421472975768,66732.80065762444,42752.47348951893
168,124084.0,19522.0,"[32,36,51,54]",4,1.9173099682472945,0.3601600193497876,1.6027203269720647,1.7018965220173827,2.2725039432642657,0.012663286636464655,0.6440585376116115,1.0074538908803508,5.3677573224106405,2.9442093161970897,0.4346766292592159,0.26421894133006774,2.4313006394780987,2.26669702416106,72677.36101350706,29413.206795396713
168,12846.0,1223.0,[29],1,0.6389949000467157,0.6772191527323739,1.7566919099330627,1.3109713464113342,1.1430433697649116,-0.15172162167211356,0.5958308204110412,0.8834115750428109,2.015501024132033,0.6985977692666948,0.4741968387046458,0.43708081854273906,1.1235773398723485,1.5088578998131765,67903.32243499938,21937.083605791606
168,38687.0,6872.0,[41],1,1.5461260155349563,0.3622074450849362,1.2747050440974994,1.3556215041228468,0.9840988970713949,0.701814129397484,0.11236310520331028,0.9117344108098333,5.310977134954917,2.4055752819292975,0.4966726250161311,0.20399748701113973,1.9273157148396027,1.2785122061932888,65131.60906764518,29616.783725799094
168,13800.0,4323.0,[45],1,1.1450564051449332,0.47143577710144324,3.0204301189130214,1.5469759389130462,1.0917910730434857,0.9267826460144992,-0.01317391891304176,0.9995376063768404,4.3804219813043535,1.1322923625362238,0.5488343952898509,0.2227091976086959,1.544378237826082,0.9989284466666675,59693.55130434768,37896.76057971001
168,7412.0,848.0,[38],1,1.043074698327035,0.6084481268213686,3.1654303108472575,1.8299597742849323,0.6308865314355185,1.1622076745817551,-0.20003043497032014,1.409255715461419,2.275145330005406,1.2008038209660108,0.9361560240151054,0.4630185377765802,1.044544855909339,1.17993416055046,91572.49865083644,44442.04209390181
168,14399.0,313.0,[49],1,0.34015408840892114,1.8435450568789333,1.9219977613028525,0.8884940625737885,2.447337523300235,0.34438745565664197,0.2138743048822871,0.8858253316896953,3.8061794638516706,0.5751488291547994,0.2030836440030681,0.17474294034307658,1.9228593100909905,1.5108022184874117,68259.3535662198,22005.777067852003
168,22827.0,4679.0,[52],1,0.8635474604634925,0.12175987146799994,0.8768090104262529,1.5961879374862944,0.2083490308844662,0.5760113089323986,-0.3107513274192799,0.5501030473123869,0.9566386328908766,0.49080246672799455,0.2531835886012206,1.3020803141017054,0.38869974661584994,2.4735871129364044,81169.48385683596,17810.462347220302
168,42238.0,13181.0,[53],1,0.6963708126331454,0.2209297609735308,0.21913027593635404,3.066794743240705,0.472391289241894,0.35340326431174907,1.6177840696055417,3.6051972726928314,4.230813262607112,0.5176653781192239,0.5529601375065183,0.4423340159571837,0.6799927076092637,1.9967281511435357,57627.20734883294,19181.13850087597
