time_in_hour,cumulative_size,size,pcore_ids,pcore_power,AF700 CD48_[R 730_B-A],APCCy7 Ly6G_[R 780_A-A],BV421 CD117_[V 440_F-A],BV510 SCA-1_[V 525_E-A],BV605 CD11b_[V 610_D-A],BV650 CD150_[V 660_C-A],BV711 CD11c_[V 715_B-A],BV785 B220_[V 780_A-A],FITC Ly6C_[B 525_B-A],PE CD115_[YG 582_D-A],PECF594 CD135_[YG 610_C-A],PECy5 CD3-CD19-NK11_[YG 670_B-A],PECy7 CD16-32_[YG 780_A-A],PerCPCy5-5 CD45_[B 695_A-A],_FSC-A,_SSC-A
-1,0,0,[],0,0.0,0.0,0.0,0.0,0.0,0.0,0.0,0.0,0.0,0.0,0.0,0.0,0.0,0.0,0.0,0.0
0,139196,139196,"[1,2,5,7,11,15,21,23,30,35,37,41,47]",13,0.3504539311761856,0.22652478284577127,NA,0.5727866410385394,0.39917871923762105,0.2691441210954322,0.013037847007092651,NA,NA,0.40876040964539495,0.20962620984798752,0.8587140205681221,0.6657880645780051,NA,69009.54441219584,15130.946521451757
0,6575,6575,[18],1,0.05319388562737837,0.024096217034222267,-0.08607110509506155,1.0233352261596864,0.4234356296577926,NA,-0.01172969277566116,NA,NA,0.3615089234980975,0.18193993946768483,1.8689003055513354,0.8089202509505683,NA,72210.75711026604,12817.423574144517
0,142957,142957,"[9,10,12,13,14,16,17,19,20,22,25,28,32,33,36,40,42,45,46]",19,0.3980954746252403,NA,NA,0.75663276269088,NA,NA,0.1364962880866254,0.759581398420508,NA,NA,0.1871197896290533,0.1774139046846258,2.0443797815846714,NA,68983.11744090881,21963.785362031882
0,1789,1789,"[5,7]",2,0.8104485941866943,0.18109278647289173,NA,NA,0.5044215064281765,NA,NA,NA,NA,NA,0.24934385299049566,1.118580320290665,0.6300348630519833,NA,74990.50642817223,15967.80324203468
0,4978,4978,[12],1,0.38371633848935716,NA,NA,0.7299725158698376,NA,NA,-0.021397014262761083,0.7504787215749293,NA,NA,0.21769872438731097,0.168185649859385,2.0201423527521127,NA,69082.63881076727,22771.426275612695
0,49256,49256,"[14,15,16,17,19,20,22,25,28,32]",10,0.5086057200747127,1.4840681767094361,NA,0.7903270725190832,NA,NA,-0.010043623254019085,0.8196682524971557,NA,NA,0.2694254768150066,0.19352589049049929,1.8917102767581575,NA,68854.69546857238,23202.661036218924
0,17902,17902,"[21,23,30,35,18]",5,0.33531958043794163,0.21835785744609826,NA,0.8163138877778957,0.554413399117414,NA,0.07419668299631654,NA,NA,0.5048365489330796,0.24699881409898472,NA,0.8257936769634663,NA,70318.46452910284,16035.886046251837
24,242242.5,164341.0,"[1,2,4,7,8,11,15,21,23,30,35,37,41,47]",14,0.34915057688473183,0.32902498411302394,NA,0.6437935059620008,0.5326723196156684,0.29678789109673276,0.030257079550443322,NA,NA,0.41456118666625663,0.2015015336202386,0.7371657076957956,0.7041171838075485,NA,70237.01991186518,17008.07321588896
24,17644.5,14357.0,[18],1,0.10462865397149734,0.05645688313639763,-0.05935492663435671,1.0393081539290052,0.3147872497095343,NA,-0.010095209782069237,NA,NA,0.35833466592989416,0.16965802561705745,1.7981095173850323,0.697107324492049,NA,74522.06681968892,13888.622063532488
24,206671.5,133174.0,"[6,9,10,12,13,14,16,17,19,20,25,28,32,33,36,40,45,46]",18,0.4165299793198354,1.6206330763724042,2.0427254114065048,0.8106557055907504,NA,NA,0.13908637011634228,0.8128768975838461,NA,NA,0.16315302941625287,0.18178952021686612,1.9720564624803183,NA,69345.7701521498,24755.154106879716
24,10942.5,7024.0,"[4,42]",2,0.5296050963216781,1.2036644181402671,NA,0.8886623141878127,NA,NA,0.08114815627141336,0.8603259770619176,NA,0.7171972575736779,0.3390043978524018,0.24676875289011058,1.4798105681516973,NA,66787.560429518,23954.294905186118
24,178.0,134.0,[22],1,1.4933604016853936,1.0336813230337083,NA,2.1727622612359556,NA,NA,NA,1.5868184494382014,NA,NA,NA,0.6517348174157302,2.068288398876406,2.2633232387640443,84080.0,NA
24,3678.0,2870.0,[7],1,0.7822100615823782,0.13341244942904096,1.0442887132952765,1.100199757205004,0.4569520800706992,NA,0.05881075625339571,NA,NA,0.6310941566068512,0.2039860000000009,1.1279889596247954,0.5117058954594932,NA,79181.88580750412,17284.924415443173
24,7092.0,4603.0,[12],1,0.3957556869007375,1.7038090451212557,1.9542242133389762,0.7705929399323228,2.435455469402132,NA,-0.01463207649464815,0.7855392494359892,NA,0.7096132332910258,0.19860727058658512,0.17242569620699388,1.9116010965877033,NA,68566.84038353078,24845.0580936266
24,9451.0,5192.0,[14],1,0.4161499660882433,1.620009119458246,1.8690526205163391,0.7852756172891859,2.2213478716537893,NA,-0.025275006718864734,0.8112762642577422,NA,0.706812685588828,0.2405766422600828,0.19580017998095833,1.8005588693260055,NA,68198.4230240187,24291.514548725107
24,35432.5,21990.0,"[24,26,27,34,43,44,48]",7,1.786590344937551,0.42274516252029004,2.0407558320468513,1.1401830056868727,1.9213942914696829,NA,0.03973710678049658,1.0130192962111,NA,NA,0.5235762409793296,0.26226544343470026,2.4054665540534748,NA,NA,NA
24,2089.5,1456.0,[21],1,0.5228024857621443,0.2087333460157974,NA,0.7951055532424016,0.5435637973199321,NA,0.12904072577170922,NA,NA,0.6063744814548936,0.2573932940894972,0.7222744879157692,0.6915188894472358,NA,69749.47882268488,17845.785116056464
24,20953.0,12081.0,"[17,19,20,22,24]",5,0.4337969681668483,1.5361171073354654,NA,0.8710626456593289,NA,NA,0.10535609955615266,0.8229252297761667,NA,NA,0.2676391244690568,0.215979035865985,1.830721421848891,NA,70230.79387199928,26469.832482222082
24,11481.0,7773.0,"[28,30,32,27]",4,1.4262227847748454,0.4964796018639541,NA,1.097541774453445,NA,NA,0.007931159829281942,1.0913086424091958,NA,NA,0.4631571038237121,0.27390455905408917,1.9856558184391653,NA,72865.57198850287,33712.89608919088
24,2654.5,1927.0,[35],1,0.8676813974383111,0.41432015539650013,NA,1.1527283000565136,0.8590000742135975,NA,0.31846371369373117,1.3869611382557991,NA,0.8970667246185721,0.48330263401770424,0.5579882130344682,1.0779435752495754,NA,69403.6300621586,23586.52552269731
24,14635.5,10799.0,[39],1,1.2418085446346183,0.6135570262375665,2.8286691842096316,2.1732585118376933,2.160234947080729,NA,-0.59955096060949,1.0825022708482646,NA,3.1648787704895733,1.33270738543268,0.5037921392504494,2.306490388507384,2.389499356427864,114888.8770455405,NA
24,5289.5,3207.0,"[26,40]",2,1.4427415096890102,0.4529079001796035,NA,1.2732212617449625,NA,NA,-0.07549760185272492,0.9950218844881302,NA,NA,0.6549388748463949,0.2922997562151409,2.1864560460346025,NA,NA,NA
24,1150.0,813.0,[42],1,1.472859096521739,0.44052786260869636,NA,1.6453638299999995,0.9206464069565246,0.7570962152173895,0.45452624521738816,1.0482562547826109,NA,1.3878619878260876,0.9168288569565224,0.4099848343478263,1.4111502821739124,NA,NA,NA
48,269733.5,144785.0,"[0,4,6,8,9,10,12,13,14,15,16,19,20,25,30,32,33,46]",18,0.33722723537955046,NA,NA,0.7144421222901465,NA,NA,NA,NA,NA,NA,0.14050211014112524,0.13716122234260975,NA,NA,NA,22565.355271036
48,215270.75,125664.0,"[1,2,7,11,21,23,28,35,37,47]",10,0.3342916967911371,0.1834696217519034,NA,0.5593962393265137,0.29962032378178316,NA,0.022459426531472815,NA,NA,0.3815532320751909,0.1830020480998864,NA,0.5722507023620264,NA,NA,16882.02020943385
48,25443.5,13060.0,[41],1,0.25755019031383086,0.0805803342700484,NA,0.793577843909036,0.153306355906226,NA,-0.15070239406922203,NA,NA,0.30222490808064795,0.1588611514827054,NA,0.6663112171871101,NA,71274.76770098502,14037.517165484254
48,1044.25,850.0,[17],1,1.4397139839597795,0.8480005451280839,NA,2.1853348474981993,NA,NA,NA,NA,2.7225500663155384,1.5859093524060337,1.4075480057457495,0.6648923701220968,1.827492674646877,NA,NA,41591.9712712473
48,6874.5,547.0,[6],1,0.4233540986617188,NA,NA,NA,NA,NA,NA,NA,NA,NA,0.16291898665357651,0.163675998363513,NA,NA,NA,NA
48,23458.25,12797.0,"[7,18]",2,NA,0.06902985038313103,NA,NA,0.30373343267295283,NA,NA,NA,NA,0.35081021595813744,0.16054238834951295,NA,0.6451162273933543,NA,75157.62616563466,14569.768844649492
48,5109.0,1563.0,[12],1,0.3360764485711556,NA,NA,0.6787263531023728,NA,NA,NA,NA,NA,NA,0.18287494333529608,0.14365451081424985,1.9570534226854552,NA,NA,NA
48,11592.0,6547.0,"[14,45]",2,0.5292068284592837,NA,NA,NA,NA,NA,NA,NA,NA,NA,0.3301604349120013,0.2173063237362005,NA,NA,NA,21946.207039337478
48,4114.5,1427.0,[27],1,1.9063957326528118,0.4330483520476429,NA,NA,NA,NA,NA,NA,NA,NA,0.48541264126868633,0.20464830823915414,2.419420939907645,NA,NA,NA
48,1789.75,745.0,[21],1,0.4801035267495457,0.19376529641011153,NA,NA,0.45563552744796043,NA,NA,NA,NA,NA,0.23946667188155013,0.6521765756390558,0.5759634372119008,NA,71214.44224053637,18405.09121385667
48,28302.0,10286.0,"[19,20,25,32]",4,NA,NA,NA,0.8870758547894204,NA,NA,NA,NA,NA,NA,0.2689199509398654,0.16988398897604318,NA,NA,NA,NA
48,10239.25,6931.0,"[28,30,35]",3,0.9867290291036974,0.42310920753473,NA,NA,NA,NA,NA,NA,NA,NA,0.4063303100568909,0.2764089092951145,NA,NA,NA,24681.953072734832
48,12262.75,4945.0,[39],1,1.2501473567103594,0.6036165668182001,2.7303590669099536,2.1647759468308716,NA,NA,NA,NA,NA,NA,1.323150559601233,0.4761251178569196,2.34805303708383,NA,NA,NA
48,28444.75,15670.0,"[43,44,48]",3,2.0631732376097576,0.3402810680354049,NA,NA,NA,NA,NA,NA,NA,NA,0.3650104748855272,0.2038709017393373,NA,NA,NA,31955.20748116959
48,2816.5,1946.0,[46],1,1.4467586354518016,0.4735646880880551,NA,NA,NA,NA,NA,NA,NA,NA,0.36529305574294524,0.20172843839872323,2.1751998861175292,NA,NA,27426.431386472534
72,319882.5,180963.0,"[0,4,6,8,9,10,12,13,14,15,16,17,19,20,25,28,30,32,33,46]",20,0.43629766193836694,1.4948684223636786,1.7388150001887346,0.9298569808640682,NA,NA,0.10849196105366765,0.7526824530894265,NA,0.6747892599337283,0.2545397955722044,0.16144907610880632,1.8089506548369454,NA,69182.07026642613,25728.019907309645
72,246290.75,142186.0,"[1,2,7,11,21,23,35,37,47]",9,0.2993684742910585,0.24201078282882849,NA,0.6600387963976591,0.356351885566649,0.259789478530968,-0.0027784425633097243,NA,NA,0.3477254231345497,0.19003424665865865,0.6823794763704125,0.6078273311386017,NA,69648.81784638678,17949.35132561805
72,35984.375,14121.0,"[18,41]",2,0.19640079338254357,0.11790417992877611,-0.17231772947979618,1.1127656099279086,0.2460962578515007,NA,-0.09228624140338848,3.828767984309171,NA,0.34065162827268847,0.17656741549978605,1.5413911759062127,0.73470632763526,1.9127396211098582,73080.51741901887,15566.567656100658
72,11580.25,3372.0,"[24,38,40,45]",4,1.1153506231514887,0.4334497286543888,NA,1.5783950492757035,NA,NA,NA,NA,NA,NA,0.549564749713948,0.4025302522290124,NA,NA,NA,33923.0085706267
72,3437.25,0.0,[6],1,0.4233540986617188,1.5317807527092953,2.247907403883923,0.8291001910684628,2.708145567713998,0.4484382364535586,0.15101176609207512,0.8062841281547684,4.279615361771757,0.6605004447232509,0.16291898665357651,0.163675998363513,2.0397667436904516,1.5731827822023425,70419.68550440032,26903.98894465044
72,6690.125,0.0,[9],1,0.4413555394891562,1.7841482848414514,1.7781469795220501,0.71682804396402,2.2993475919919164,1.093312358307948,-0.39843428228171485,0.7888127088245569,3.6178388700696886,0.6251221234468739,0.24327329640702766,0.14674152611124613,1.8884851701388197,1.445030109284196,66751.49178827018,22065.91476242944
72,2587.5,0.0,[7],1,0.6972318325120752,0.12106875429951591,0.7993008300966107,1.024383586183574,0.28285822536232086,0.319126510386472,-0.012671794057966146,0.3956612271014457,0.8115982296618355,0.4284164937198064,0.16929120521740382,1.2309224612077283,0.3433579205314031,2.2716060927536197,81094.04753623181,17172.350144927528
72,3197.625,198.0,"[12,36]",2,0.4763333678511448,1.5680037183456363,2.038019542785666,0.9514019383526868,2.4649276736249512,NA,0.22257499171258877,0.7308878457058019,3.826133721942069,NA,0.3566919453891595,0.21495108076306635,1.9993933302060105,NA,73046.99956999345,30546.703881787238
72,2569.75,0.0,[14],1,0.3982116444693058,1.641699516489922,1.8637569653176258,0.7719335483023775,2.2183922561533085,0.6831386916042435,-0.03065930406654127,0.8009888870026183,3.674392155024796,0.6783526899017419,0.23417590757856033,0.18767482488569265,1.8145486220449518,1.4255547147582492,67829.02305671768,23769.443720206327
72,3959.75,286.0,"[21,17,19]",3,0.5376433429825116,1.1387699103163058,NA,0.9835783586400626,NA,NA,0.18276672785528714,1.0820573365427113,NA,0.7393941573647332,0.3949394316876069,0.3661434333291249,1.4676954147042038,1.457923249731678,69597.29275838131,24332.121977397514
72,30504.0,6977.0,"[16,20,25,28,32,24]",6,0.9378755755105825,0.9274514325334433,NA,1.1029313130859948,NA,NA,-0.08495922043420379,0.9107762259457783,NA,NA,0.37597588181878017,0.18926842348134643,2.0725928496590593,NA,74356.338578547,36480.05979543663
72,1589.0,0.0,"[30,35]",2,0.8479461929672751,0.5426605684392722,1.760324281702332,1.2858281407331669,1.0252130198237852,NA,0.557965005034613,1.2398670771711795,2.0850802988514796,0.8980078495909366,0.5876481824260491,0.49488091755821206,1.2003212623505353,1.5326044668816836,65848.86091881685,23529.943360604153
72,23606.875,12368.0,"[39,48]",2,1.6499880979481552,0.567502014360227,NA,1.8493583198909165,2.0333855939212557,NA,-0.4002312862142934,1.0480328791030074,NA,2.9945136557782583,0.936484489566062,0.34808380962113705,2.416474563787016,2.2125237020253605,NA,NA
72,13869.875,4755.0,"[43,44]",2,1.8796818723853004,0.3970454854946466,1.648099528014852,1.253381016366414,1.9486225235267036,NA,0.3825549046043992,0.8105380187636788,5.5806078342360905,2.9836572311574643,0.4067927824511832,0.23924547996106693,2.4453130113825785,1.9597028018006684,76223.61989563722,35462.48715291222
72,4588.5,1582.0,"[44,46]",2,1.6912336330227726,0.4641554657295406,1.6794030532853879,1.2189712966928177,1.5675660406995684,0.6892927405742644,-0.05552070791108177,1.1048273501961416,5.629405481884059,NA,0.46862190165631556,0.24822655511060332,2.26087549011115,1.6924641667211466,76248.64944971114,35539.86008499511
96,302198.875,141300.0,"[0,4,6,8,9,10,12,13,14,15,16,17,19,20,22,25,28,30,32,33,35,36,46]",23,0.452494125849656,NA,NA,1.0572635111714517,NA,NA,0.3212240830539588,0.941238751221563,NA,0.6771242464641459,0.24702557652597612,0.19009010895287792,2.005895243861362,NA,69077.70284717322,24102.00372850493
96,239425.4375,105309.0,"[1,2,7,11,21,23,37,41,47]",9,0.3756635656408709,0.24177550602028042,NA,0.7817172886715578,0.3716523075103879,0.26884122865677895,0.05955957342773255,NA,NA,0.40078610379196955,0.22137569305813587,0.8935381765745427,0.665193054818474,NA,70471.2529803772,16977.073407248077
96,16358.3125,9751.0,[18],1,0.2799110314022295,0.12044436237311107,NA,1.4536772318660645,0.4129959953502338,NA,0.17699088105054894,3.9577849356901984,NA,0.4685213571005503,0.22866397515788917,1.8167047911230192,0.8140410134984891,NA,73910.75943805312,14741.423725705115
96,9941.875,4709.0,"[34,38,40,45]",4,1.253861425020429,0.4677397069277647,NA,1.7041463601496187,NA,NA,NA,NA,NA,NA,0.5413339333689526,0.478132410781419,NA,NA,72520.15821965173,30139.609278933814
96,1718.625,0.0,[6],1,0.4233540986617188,1.5317807527092953,2.247907403883923,0.8291001910684628,2.708145567713998,0.4484382364535586,0.15101176609207512,0.8062841281547684,4.279615361771757,0.6605004447232509,0.16291898665357651,0.163675998363513,2.0397667436904516,1.5731827822023425,70419.68550440032,26903.98894465044
96,6310.0625,2965.0,[9],1,0.4953214571666158,NA,1.8185989800715254,0.9446766588781688,NA,NA,-0.12691453442417533,0.9679095837501528,NA,0.6744811426293366,0.2604142580303357,0.17564718086191766,2.059890357573709,1.664156522370017,67838.46213884577,22069.023880508215
96,2231.75,938.0,[7],1,0.8288904641256833,0.18583134306037463,NA,NA,0.5375929015626713,NA,NA,NA,NA,0.6625031736305563,0.24252223983421972,1.1371980280889447,0.6029569587487419,NA,78808.72678391385,17755.11773272097
96,1919.25,642.0,[12],1,0.39434193978767906,NA,1.9548473591897895,0.8686416832095913,NA,NA,0.1345721656571488,0.7817044874951136,NA,0.6285320854826056,0.20477762218314766,0.17045834515435798,2.0632846581346835,NA,67686.87768659633,22514.865702748437
96,1284.875,0.0,[14],1,0.3982116444693058,1.641699516489922,1.8637569653176258,0.7719335483023775,2.2183922561533085,0.6831386916042435,-0.03065930406654127,0.8009888870026183,3.674392155024796,0.6783526899017419,0.23417590757856033,0.18767482488569265,1.8145486220449518,1.4255547147582492,67829.02305671768,23769.443720206327
96,18660.3125,8585.0,"[24,26,27,48]",4,1.8650329245524417,0.5234251541875254,NA,1.8012076670172221,NA,NA,-0.07502396774571762,1.173496350074517,NA,NA,0.7411554720848033,0.31213405746152356,2.4487268075226454,NA,NA,NA
96,15888.3125,5540.0,"[17,19,20,22,25,30,32,24]",8,0.9684607506697114,1.1058431119533658,NA,1.3746714300448875,NA,NA,NA,1.0730643592381188,NA,NA,0.5532521932119909,0.29878653838316716,2.01853863380708,NA,NA,36170.640022343425
96,10530.25,3651.0,"[21,23,35]",3,0.5462094047565318,0.4600123369340783,NA,1.0052946677844865,0.7185587915054175,NA,0.18842399502029705,NA,NA,0.5962525736687162,0.3552554177666707,0.6873170775741295,0.8880872077170509,NA,69990.82452933186,21371.512737114524
96,16731.3125,9937.0,"[39,44]",2,1.628680501634279,0.6180476191534674,2.321869673232452,2.1617058381963408,2.0388563004247273,NA,NA,1.2150659655884706,NA,2.9779991365814915,1.1720035919290424,0.4630341133503423,2.4546912359684754,2.4301749270454733,NA,NA
96,15678.8125,9543.0,[43],1,1.9516301782739902,0.4508749504346863,1.6129034950111927,1.676549724173952,NA,-0.20316111257628666,0.5794661705127577,1.060983058793505,NA,NA,0.49227193566159233,0.2789302291428397,2.453316019086263,NA,74742.87099230272,33033.89335129807
120,344752.65625,198850.0,"[0,4,6,8,9,10,12,13,14,15,16,17,19,20,25,30,32,33]",18,0.3922523784192147,NA,2.048370276995962,1.155137383457526,NA,NA,NA,1.054763242882832,NA,0.5820602347372174,0.22166967848969454,0.1822783692045532,2.2383912336238536,NA,67741.12700400711,22101.425401272765
120,202279.6875,92422.0,"[1,2,7,11,21,23,35,37,47]",9,0.3889926230995133,0.2788120378312873,NA,0.8076476507804173,0.4198080531864177,0.2545580602618558,0.11622557864992711,NA,NA,0.4258156241044654,0.2610519421843178,0.8316919656698976,0.657514055417232,NA,69606.04211928105,16727.89236437787
120,36631.09375,17994.0,"[18,41]",2,0.30568102461707114,0.11221409417119199,NA,NA,0.37813375616599876,NA,0.1301922460341567,NA,NA,0.4574997583448144,0.24428515858964772,1.697802750276197,0.7833405633465443,NA,72457.6943324277,14306.337713434954
120,15822.25,7829.0,"[24,28,34,40,45,46]",6,1.423144051148306,0.48511972876605336,NA,1.8264560443758007,NA,NA,NA,NA,NA,NA,0.6107615727733116,0.2924925034366165,NA,NA,68841.63908420102,30939.60201614814
120,3978.3125,3119.0,[6],1,0.5638634018585198,NA,2.6026647054498535,1.3043712719746159,NA,NA,0.5780294112767699,1.0175599802365949,NA,0.6303528564953703,0.2754096963772299,0.18307945902785294,2.289770650228586,NA,71170.01995192695,28184.27310574522
120,5550.3125,2047.0,"[9,36]",2,0.604569590456612,NA,NA,1.1856661354540736,NA,NA,NA,1.047791114194017,NA,NA,0.3704469482236403,0.22273081570294528,2.1149492387196602,NA,69500.66397162326,24646.454051010583
120,2633.875,1518.0,[7],1,0.8929306006003477,0.17363837423473338,NA,NA,0.5832570327108324,NA,NA,NA,NA,0.6656031455080434,0.2912437041905993,1.1195164704451612,0.6488960225309693,NA,76435.64557923214,17194.102225807997
120,2490.625,1531.0,[12],1,0.4604328796863255,NA,2.139940928105396,1.1598344930489315,NA,NA,NA,0.9634466227603462,NA,0.6806226780552019,0.24522229628607706,0.19377547461731637,2.181149208757843,NA,67241.32777917187,22931.331693851957
120,642.4375,0.0,[14],1,0.3982116444693058,1.641699516489922,1.8637569653176258,0.7719335483023775,2.2183922561533085,0.6831386916042435,-0.03065930406654127,0.8009888870026183,3.674392155024796,0.6783526899017419,0.23417590757856033,0.18767482488569265,1.8145486220449518,1.4255547147582492,67829.02305671768,23769.443720206327
120,11478.0,6659.0,"[22,26,27]",3,1.8147871859562874,0.6194896785862021,NA,2.0886068803335696,NA,NA,NA,1.3976776209297137,NA,NA,0.8592717668937362,0.3960096075290763,2.4584097266809333,NA,NA,NA
120,11256.03125,5304.0,"[17,19,20,25,32]",5,1.033724033293262,1.0025753472083014,NA,1.4051605906028222,NA,NA,0.12209447771333704,1.0833108337446862,NA,NA,0.499326070462224,0.23318233413197853,2.0843715919271073,NA,69302.626891694,33818.308206988964
120,12335.96875,6361.0,"[21,23,30,35]",4,0.6748117496067143,0.5497962683337083,NA,1.2452774165157399,0.8756098782219595,NA,0.37841997007987116,NA,NA,0.6680705247029118,0.4623816964364864,0.6666115804317143,1.0182574064536878,NA,68274.27898599356,21146.442349734407
120,25916.78125,13241.0,"[39,44,48]",3,1.857430772759433,0.5871265667949328,NA,2.1847340522055556,NA,NA,NA,1.2979733254768622,NA,NA,1.022573249539093,0.4182430500122386,2.515063723998807,NA,NA,NA
120,18309.40625,10470.0,[43],1,1.9941764102945492,0.44621252168708825,1.6905415633255454,1.9604011144886093,NA,NA,0.6576048963237722,1.2536396472305191,NA,NA,0.5485325710179838,0.30077997890599584,2.4922864515745795,2.321120244986784,72919.97041138365,31795.963563810423
144,326073.328125,153697.0,"[0,4,6,8,9,10,12,13,14,15,16,17,19,20,25,30,32,33]",18,0.4013587249001631,NA,2.0737110898341933,1.3356017371141182,NA,NA,NA,NA,NA,0.626352301637143,0.17755119823387222,0.22225638089390454,2.3243504922908955,NA,67321.61303173112,21122.998819331926
144,179724.84375,78585.0,"[1,2,7,11,21,23,35,37,47]",9,0.43645155076779485,0.25546479862150395,NA,1.0401308058946959,0.4141705192622669,0.25758880107073434,0.1872778146811247,NA,NA,0.4528168807448708,0.2706584412382096,0.951851647738506,0.7006496303064819,NA,69438.23696049236,16353.407301265202
144,21940.46875,12942.0,[41],1,0.4427394488188934,0.09912130957491927,-0.013045010974312987,1.4817013017255514,0.25305671057192614,NA,0.0921430819718112,3.6929656470976466,NA,0.4564731986034708,0.24047664215170972,1.6214085231122692,0.8005402330525119,NA,71806.25910738537,14215.97863536969
144,21063.296875,5906.0,"[4,6,28,40,46]",5,0.9370516541110077,1.12545189732361,NA,1.5410373824365675,NA,NA,NA,NA,NA,NA,0.4082945580820039,0.25831152154035475,2.0069414860431927,NA,67389.05017688492,26372.071964636303
144,3780.15625,1005.0,"[9,36]",2,0.6775663568180834,NA,NA,NA,NA,NA,NA,NA,NA,NA,0.4110424339354406,0.29571015967015335,2.125292423630792,NA,70108.35755797132,25014.669962385775
144,30455.015625,19821.0,"[7,18]",2,0.2687921628934282,0.038269700513718696,NA,NA,0.4671722116810497,NA,0.3260605474267715,NA,NA,0.5067275752721391,0.23275734531720138,1.9676103224673973,0.8164435512197522,NA,73275.3410629716,14035.50913463023
144,1634.3125,389.0,[12],1,0.49642807876974215,NA,NA,1.298647619182379,NA,NA,NA,NA,NA,0.7185153670216792,0.2643108963822711,0.22614420665226287,2.178676147328771,NA,67904.85051053579,24080.468086733727
144,321.21875,0.0,[14],1,0.3982116444693058,1.641699516489922,1.8637569653176258,0.7719335483023775,2.2183922561533085,0.6831386916042435,-0.03065930406654127,0.8009888870026183,3.674392155024796,0.6783526899017419,0.23417590757856033,0.18767482488569265,1.8145486220449518,1.4255547147582492,67829.02305671768,23769.443720206327
144,11598.84375,4791.0,"[22,24,26,27,34]",5,1.676623247779282,0.6105665544908838,NA,2.4137873029976045,NA,NA,NA,NA,NA,NA,0.9892477403553199,0.5438122054232226,2.3424167425133957,NA,NA,NA
144,60743.328125,35226.0,"[31,39,43,44,48]",5,1.9710136682606245,0.42185395944410287,NA,2.348331092407545,NA,NA,NA,1.295652390607981,NA,NA,0.8176286430780855,0.41640951025357054,2.4028682069406773,NA,NA,NA
144,9139.015625,3511.0,"[17,19,20,25,32]",5,1.0572698119566344,0.9559914815582875,NA,1.6102611690793451,NA,NA,NA,1.1553530370560932,NA,NA,0.5071904216742373,0.28537878344734335,2.0868582304969996,NA,68830.95913297537,32704.901628833795
144,9308.0625,3984.0,"[21,23,35]",3,0.6806228808207255,0.48371044798527985,NA,NA,0.7624471631515655,NA,0.39245456188016004,NA,NA,0.6834516973289296,0.4499669507198014,0.7950425660046065,0.9718809655893065,NA,67775.07950768476,20761.093406925465
144,846.015625,158.0,[34],1,1.351956855942379,0.6780593561917057,2.4051949485455704,2.1993793077846573,NA,NA,NA,NA,NA,NA,1.1791359919106066,0.5160056929356369,2.1825157700064586,2.5138288727121663,NA,NA
144,2087.015625,493.0,[40],1,1.7926927179285561,0.43115809080699385,NA,1.8855807594501663,1.5825078779657056,NA,NA,1.3999246275408304,NA,NA,0.562226149286138,0.29647033606600504,2.149042144591935,NA,65675.11203947017,27446.929152722598
144,2399.921875,1556.0,[30],1,0.9959327967837484,0.8506976906344517,NA,NA,1.5255007715225064,NA,1.2179895902861486,NA,NA,1.0802803175819498,0.6583885392818778,0.6719162517594979,1.6177133338845673,NA,67111.21544321092,23308.636661349632
168,357943.265625,193523.0,"[0,4,6,8,9,10,12,13,14,15,16,17,19,20,25,28,30,32,33]",19,0.4050088939256402,NA,1.9302900594054964,1.494904146406629,NA,NA,NA,NA,NA,0.7286690799968586,0.2195387718234012,0.22667533107346016,2.0656795656976445,NA,67119.54718033376,23270.6442820089
168,159502.421875,69640.0,"[1,2,7,11,21,23,35,37,47]",9,0.39032219210993224,0.28589597068108485,NA,NA,0.5122842769382476,NA,0.23105369978385148,NA,NA,0.4684632607658791,0.27509091870694835,0.8469415613285083,0.7375968821862992,NA,68766.14220062285,17273.553101025507
168,53571.7734375,29191.0,"[18,41]",2,0.19322639893866,0.055228008054763134,NA,NA,0.3637124109727532,NA,0.30811669820409016,NA,NA,0.49522848903041405,0.23090876042100072,1.7803882214552318,0.8127532198617354,NA,72749.54167882548,14486.525378992752
168,15333.046875,6185.0,"[4,6,40,46]",4,0.9597741659589396,0.9650731107931638,NA,NA,NA,NA,NA,NA,NA,NA,0.473826831905654,0.2899719490163696,2.071994672365657,NA,70135.739150018,30885.663975379906
168,7992.078125,6102.0,"[9,36]",2,0.6608051115938978,NA,NA,NA,NA,NA,NA,NA,NA,NA,0.4012436544879452,0.29085966250271234,2.055622707033128,NA,71217.36200495418,27219.705951010026
168,3862.96875,2046.0,[7],1,0.7450885311754201,0.16546092878291407,1.1410800781114596,1.9677065604214738,0.5344043034926975,NA,0.31427978703029913,NA,NA,0.6512859053593839,0.2874231279618171,NA,0.628759973229379,NA,78490.32793754808,19039.04891801159
168,2630.15625,1813.0,[12],1,0.5380208515148805,NA,2.1607332091071165,1.525241207081323,NA,NA,NA,NA,NA,NA,0.2888982774015325,0.2246331068229055,2.168786956864491,NA,70136.07689657214,25968.781512505262
168,7645.4140625,1391.0,"[16,17]",2,0.8273111434325939,NA,NA,1.7129941810715792,NA,NA,NA,NA,NA,NA,0.3496553550187915,0.24108795231312175,2.4291018841206977,NA,NA,30863.55644979152
168,71855.7109375,42403.0,"[20,25,31,34,38,43,44,48]",8,1.6590352816172007,0.5160416449616747,NA,2.398024015072528,NA,NA,NA,NA,NA,NA,0.6143797246279443,0.4383621883675073,NA,NA,NA,35380.04779065161
168,13472.1484375,7514.0,[39],1,1.4521677638333494,0.5784700972196766,2.51694528699255,2.684514502700313,2.2306072792839244,NA,NA,1.3881076658395317,NA,2.928524012251546,1.3872682970242272,0.596524696418248,2.2833225105881194,NA,NA,NA
168,3744.09375,1264.0,[32],1,1.3532686036465822,0.5159676608992463,NA,1.9553671033774171,NA,NA,NA,NA,NA,1.1950495174044904,0.6376812470703728,0.32415889148116805,2.0306877932055496,NA,NA,39916.68290891488
168,10332.03125,5678.0,"[21,23,35]",3,0.5820233878797718,0.4746825427841239,NA,NA,NA,NA,0.461472999531948,NA,NA,0.6720144963977307,0.43078063910397146,0.7778472633119098,0.9700647824824186,NA,68845.09200453683,21427.223761058598
168,589.0078125,166.0,[34],1,1.3588742071677762,0.663227169007734,NA,2.2779128245327835,NA,NA,NA,NA,NA,NA,1.173470602443198,0.5004666001883469,2.175688263247248,NA,NA,NA
168,5334.578125,4015.0,"[36,40]",2,1.246146607523728,0.4784514537495568,NA,2.521066606315515,NA,NA,NA,NA,NA,NA,0.6710495918066925,0.38935015847082655,2.0497163566194048,NA,NA,36574.963929317186
168,11197.890625,7941.0,[45],1,0.6202859461722059,0.1927249977255725,NA,3.2718393674520496,0.4764366709110961,NA,NA,NA,NA,0.5411788025939638,0.5559914762252944,NA,0.7870091461477856,NA,61517.87765832018,19018.48920764937
168,1577.9609375,378.0,[30],1,0.9937947177577893,0.7942567826605695,NA,NA,NA,NA,NA,NA,NA,1.0877742261274674,0.6652424035914661,NA,1.6124938141787046,NA,NA,24336.935463587786
