time_in_hour,cumulative_size,size,pcore_ids,pcore_power,AF700 CD48_[R 730_B-A],APCCy7 Ly6G_[R 780_A-A],BV421 CD117_[V 440_F-A],BV510 SCA-1_[V 525_E-A],BV605 CD11b_[V 610_D-A],BV650 CD150_[V 660_C-A],BV711 CD11c_[V 715_B-A],BV785 B220_[V 780_A-A],FITC Ly6C_[B 525_B-A],PE CD115_[YG 582_D-A],PECF594 CD135_[YG 610_C-A],PECy5 CD3-CD19-NK11_[YG 670_B-A],PECy7 CD16-32_[YG 780_A-A],PerCPCy5-5 CD45_[B 695_A-A],_FSC-A,_SSC-A
-1,0,0,[],0,0.0,0.0,0.0,0.0,0.0,0.0,0.0,0.0,0.0,0.0,0.0,0.0,0.0,0.0,0.0,0.0
0,84688,84688,"[0,1,6,13]",4,0.33654238307671336,0.14302803231863992,0.4169317518893063,0.44677246307623575,0.2764789342173537,0.23824483720243528,0.024177894447856563,2.78540863638296,0.7024232539084684,0.3703425752526921,0.16649884324815822,1.0077312128991152,0.6213924664060958,0.9908356695871885,69765.5582845269,14404.373323257074
0,41444,41444,[4],1,0.2157744447688461,1.554629314617301,1.7311727956519287,0.5902167090290411,2.357458177830282,0.15789754087443764,0.36362164822410303,0.4114094791525704,3.7010040069973873,0.46754608647814555,0.15874705892288432,0.1195648081748869,1.7889667158575313,1.115843928361157,63729.947302384266,17807.986101727583
0,29585,29585,[7],1,1.963395860841649,0.2697911081629263,1.633003071252292,0.8293445221565006,1.6923343827277382,0.3875572339023261,0.028442412337327028,0.7565593816122895,5.709770238600646,3.259652071657908,0.41279764914652883,0.1697358207199634,2.432784414770982,1.7808249045800253,71663.06817644081,26195.09075545027
0,53644,53644,[11],1,0.5012444794385149,2.1312983405786587,2.156439433897558,0.6702896535866176,2.9833297078703356,1.3295279412049987,-0.5908063269331243,0.8194497534859821,4.085982838733109,0.6097599291253403,0.20150526191183848,0.07187698969129985,2.277040418182845,1.7237646985869868,67862.92685109287,20150.923271940876
0,53507,53507,[12],1,0.04203826762852669,2.1783609177490675,2.236924324275346,0.6702613306109586,3.118416318892805,-0.640202338217431,0.7247627211206016,0.5469706244977468,4.101195229465303,0.4648420189694744,-0.015892478255215003,0.11719906982264194,2.290993657203713,1.7897295674397624,68264.81828545725,19216.021828919573
24,98654.75,79197.0,"[0,1,13]",3,0.296245538336976,0.12729614575324044,0.41819460086819316,0.4927424989800304,0.24190419766913918,0.19071489857305646,0.04938043078258847,2.6842037109921106,0.6674948337941137,0.31834505815737024,0.14730612151973554,0.9251097417711724,0.5535381185751312,0.9260965986584431,71714.68808141553,15284.561483354792
24,53123.0,42762.0,[4],1,0.2711056909483598,1.3319047261779025,1.9390083095598443,0.656598041173317,2.3467235665436674,0.19200215552585975,0.333396172359409,0.5068398435988253,3.8758181720253373,0.4897588448506308,0.12329183437492874,0.12333951039097535,1.7217930812642424,1.1143150984272308,63953.09421531173,21211.42977617993
24,31810.25,24414.0,[7],1,1.9909336897933831,0.3568985460897034,1.9225391566790777,0.9453128376230988,1.7588376290111198,0.44925288525711493,0.0863651405521697,0.9942378599114354,5.866447880706719,3.2126353268836043,0.37827789063273753,0.20197179729804404,2.476146382023107,1.7945561747078422,72436.99725717359,32934.41378172109
24,56146.0,42735.0,[11],1,0.545219640165838,2.05378274682971,2.253835594877659,0.7187661706488533,3.011293577213823,1.3472502118672682,-0.5780260661400538,0.8799615623196879,4.209007978916599,0.643931905416239,0.16067969339757449,0.07632161355662126,2.227198846476126,1.7195420610684617,67743.77344779672,22531.24183379082
24,55793.75,42417.0,[12],1,0.07405846526716564,2.1065573977103176,2.284335176946343,0.7119492422225044,3.12583621942871,-0.656703413334825,0.7539464553063553,0.6103407760770669,4.189988780656397,0.4928766186042234,-0.06598678150330306,0.12115968665396915,2.2182063703192263,1.7675940991822607,67881.00817743855,21082.877275680825
24,53628.5,44366.0,"[1,16]",2,0.236753469395939,0.1471608828887505,0.7385230227024846,0.5164581155961829,0.3532766585444369,0.0463618497300875,0.11119111667769,1.539535167713992,0.6925624878935562,0.33836706931949156,0.14606697905499422,0.581498332318634,0.484030892575777,0.8399891372451134,72645.8437584493,13676.815573808624
24,25481.5,20981.0,[14],1,1.3054983400211906,0.5918278419343532,2.9468380649294112,2.244229820732683,2.1952800004905444,1.5729740345250491,-0.5782667803896913,1.103409776690898,4.474187165885083,3.2571280378215963,1.3856037776229835,0.5063943488413194,2.373761343886736,2.4322108304848697,120501.15793811115,101047.66893628846
48,109223.75,82423.0,"[0,1,6,13]",4,0.28241774991588087,0.13057126463165813,0.38685542886505697,0.4418528802647059,0.2132617626689468,0.2502559966450788,-0.009559837649216085,2.804601693394299,0.7073763566732313,0.2951862405091631,0.13051309709941794,0.892487822386387,0.5884300046916314,0.8907024258700595,69437.1785989771,15612.90407992762
48,56247.75,42967.0,[4],1,0.198536808389014,1.4513508781095275,1.9167803780095345,0.5883668576131891,2.3131021544573325,0.09517742734598023,0.3121971966711792,0.4615442329315371,3.8783251762982336,0.38267770689050973,0.11301249551093173,0.10686451524949903,1.7161223123591771,1.0439428095957202,62700.8942402144,20581.024200968066
48,38474.5625,30522.0,[7],1,2.0269832638496563,0.3229821103212589,1.7832464351527633,0.8981515175708594,1.767350540011011,0.4774733719275479,0.07661842174454225,0.8439746961856245,5.8034328222786735,3.076735463223249,0.3676055805085543,0.18252805630343483,2.529709495804851,1.7724234014909415,71140.13254861586,31849.741969125687
48,38010.1875,32539.0,[8],1,0.3110015095229497,0.8532839283942084,1.2953425912461065,0.6704090492187347,1.1871640735378528,0.5439638827600517,-0.07909792037499708,0.6341994910344901,3.117709847360011,0.46478740212410097,0.26885280589579974,0.1310322182013698,0.933515744048884,0.6381131655608765,57823.4003186649,19542.723907899563
48,51273.5,37237.0,[11],1,0.572378013168382,2.0366635510132145,2.2308606458598956,0.679763129361429,3.109512934489753,1.3572638305338096,-0.613154831977031,0.898347255941164,4.162077248540914,0.47443772286610797,0.15663955232965332,0.05309961574083544,2.3687143903685715,1.6725516637675903,67527.60166557733,22513.2761367959
48,45921.4375,31973.0,[12],1,0.018805810992401417,2.1659604841448123,2.235384213586211,0.6785101942270786,3.2841883947979293,-0.6909255120538741,0.8595176537796072,0.5643419307989457,4.1184638443360075,0.32863972827096855,-0.07410129486092121,0.09787004609367067,2.3989385765090625,1.7405134109926805,67140.43095885208,20997.19870485326
48,56942.125,43535.0,"[1,16]",2,0.1991031613480405,0.1793844169847798,0.7790072189218296,0.5130256768264676,0.3564074640995063,0.06863908987524248,0.10091780380848059,1.3187769431407221,0.8224075385402204,0.3298428706208255,0.15572138873570962,0.46864162531143827,0.45050804878857587,0.7210678091603955,68558.63514050428,15167.15507192602
72,127593.9375,100288.0,"[0,1,6,13]",4,0.2654567118997677,0.19820128550644345,0.3608441941696774,0.5860988299205259,0.2810420477507254,0.2400048756814228,-0.01602535107405556,2.6756399352376867,0.7051062209934346,0.3116131643025998,0.15464963587574632,0.7810128997672299,0.6262916650819274,0.9441175920674567,70597.83519103337,17319.406880127084
72,14302.203125,10924.0,[2],1,0.011986176217395617,0.143376248357721,-0.318693516191229,1.2724376176561583,0.4868059538838603,-0.30337413864014195,0.2717659825059675,4.025422647971646,0.8740081649822226,0.3160704630536614,0.13978069527858805,1.598994286074808,0.7870425508318789,2.1106769238830325,73492.12382270678,15561.44120278676
72,168509.84375,133465.0,"[4,8,12]",3,0.2501206628469388,1.5346831000537962,1.6127822126442708,0.86549901918583,2.2298231623556917,0.06390801764214604,0.2920448795724164,0.6404470160015721,3.4878698452290933,0.4782564113972425,0.21543760477754992,0.13207395679638467,1.6536124644765944,1.2337298409939814,66482.55398432797,22706.614141050708
72,31381.640625,21763.0,[7],1,1.9357389490486396,0.3974283863141679,1.3111349474115452,1.5277477653644236,1.7155538267771884,0.4378981866751235,0.02008880748297548,0.868292308863448,5.583662965926536,2.99187096445621,0.4375059435776727,0.20257494260826303,2.4192741137413445,1.8888886018297855,74547.13706511319,34161.686917858475
72,39394.375,26576.0,[11],1,0.604855664610672,1.9612340016999887,2.061964454325626,0.9233610433806332,3.025869696489361,1.3871553336921687,-0.6425351236145751,0.9133929108628926,3.9334087541117824,0.5943023066070608,0.33181034974140156,0.07764727413296646,2.2375424530949197,1.734288510835545,71224.09432818767,25642.978724754517
72,32715.296875,22829.0,[16],1,0.20951986919632737,0.30562548344165963,0.7766224154115506,0.6194330900491449,0.467822139063383,0.18558065683721692,0.08788896691053116,0.6662792352889353,1.046384866102394,0.3346521173380741,0.18921260198045164,0.20707871485624474,0.44430364188293314,0.43895756991784446,65546.96318952455,16339.020674101745
96,103028.484375,71130.0,"[0,1,6,13]",4,0.41604426545533824,0.18253650695647972,0.42731141742597156,0.6491381803501897,0.2868331614423414,0.2278051384840405,0.09787941140098821,2.9510738562808543,0.6796901695184699,0.3840998093159659,0.1985688375761958,1.0806886422170379,0.6703937191040418,1.0667304995160656,71386.98098265604,15546.895710121411
96,63135.62109375,32114.0,"[4,8]",2,0.3999379410653048,1.3336752457525929,1.6802337708740054,0.9342508677633368,2.0476456559615515,0.3412538554266149,0.2823689976507002,0.7025901172380715,3.4276381763022563,0.5736983743986434,0.28214307883458734,0.15724170426720752,1.5767340551376319,1.099996510543177,64453.18532556316,21902.55354337358
96,32672.41015625,24827.0,[7],1,2.1670615747694315,0.38005890945870746,1.464693295896422,1.7647623320053598,1.7468670546263287,0.4211090226997689,0.18551221658480044,1.092580094453858,5.6766706595252066,2.934272246315926,0.5517499333827227,0.24328990699267827,2.4900727360064616,2.107402122265803,72198.92719786921,30807.490744830837
96,56038.59375,46190.0,[11],1,0.5960499607315031,2.4864692057771345,2.1758291540388623,1.0311419453281823,3.3805059019019734,1.4173435114559714,-0.2366232905261998,1.14005334971879,3.917750082494585,0.6360968872717335,0.24457723985354152,0.08474943041786409,2.554602553457375,2.067028211918856,69152.2795082631,21474.79584103589
96,60852.83984375,49747.0,[12],1,0.05974874337776881,2.5418909857153844,2.1236141805190027,1.0295710719902798,3.4151246606770154,-0.6768500815235845,1.1370838555859493,0.8185456423214781,3.8157199400502466,0.46494833805227964,0.020665318421301926,0.14203618962144793,2.5088562494573825,2.073953348370518,68886.38452640013,19957.84574505346
96,24223.82421875,16045.0,[16],1,0.27792991893827157,0.3134316624937816,0.9456532873228691,0.7298290468151816,0.4539493503064165,0.19031038278849088,0.14768927588896608,0.6424242062071461,1.0289563239035902,0.4064145848829438,0.2613010236703577,0.22726118013161678,0.49673970480668583,0.46625426649626506,67829.61514095686,15877.797928466223
120,76866.6201171875,53675.0,"[0,1,13]",3,0.3552668077092682,0.19411388476293467,0.4532173724552879,0.6527739764400575,0.32861144771572137,0.12704478761862092,0.20486379298768886,2.9061746835528632,0.6289344671390277,0.37376266811635706,0.21866103332732356,1.0642852717723692,0.6250109298154817,1.0677258753641596,70711.65220304302,14567.504926623173
120,27018.24609375,19774.0,[4],1,0.4620785628254096,1.232786505817156,2.4951133379113704,1.0868488595714734,2.7194403186667864,-0.03683636416247715,0.7322547977181548,0.7061519595723702,3.933289908886604,0.5122627097063072,0.22809554684466793,0.15151256436838834,1.9816463539150475,1.338548488150109,64148.42375356602,23265.229025928682
120,38655.1025390625,30487.0,[7],1,2.2278359229329423,0.3984626610362496,1.593520507439178,2.0727687609915733,1.8725405155025094,0.40517730829220344,0.2528646900997411,1.352680183290131,5.675795103603137,2.9256566007592535,0.6014604162360278,0.26896837806933305,2.5343919407386055,2.258211082831665,69209.3348829957,29147.44883256782
120,30033.6591796875,21494.0,[8],1,0.4210868126757643,1.3827284737036698,1.3800191235855341,0.9700140919056692,1.7331732223445724,0.6408521522880835,0.06371861349114738,0.7732661378782484,3.143181210595135,0.5827403677595845,0.3698271705718734,0.1595945676186159,1.36419525508719,1.0315040180392299,61687.472617490086,18638.09134198294
120,86150.6484375,72141.0,[11],1,0.5481851501129016,2.710940662844145,2.326979196234175,1.1350336844434556,3.56160364520233,1.4522223005487251,-0.13191758395922548,1.2391125196695145,3.9409521677605084,0.5295839339034561,0.23682887113688755,0.07418710067016121,2.693505149515178,2.235465455435248,66882.15043143457,19615.965319471914
120,89729.2099609375,74516.0,[12],1,-0.02855715353124766,2.7408970295912605,2.303672984686384,1.1342759810233742,3.614419864744613,-0.6846643618063818,1.2742282173775523,0.9099575587123829,3.874725920928975,0.36026055922981337,0.009546087872884357,0.1324570644268116,2.655132663873023,2.2400979068516618,66891.29760378964,18671.219532823736
120,31246.9560546875,25191.0,[16],1,0.2867672384372648,0.36572808311980864,1.129733355281588,0.7617661264120743,0.47497161024372136,0.2051898679249542,0.18115315506654772,0.6449834551239433,1.087486080637131,0.42728219243717247,0.3228830333660162,0.22940165426891979,0.5178749818256329,0.49090256687293626,66116.14177343517,15973.491613917598
144,68745.65502929688,49529.0,"[0,1,13]",3,0.43802467600718153,0.1471885583252348,0.434834621097401,0.9225070193647067,0.315210572758323,0.09761397881913458,0.2876071943224878,3.161977751496811,0.6308475343432752,0.3887929911298572,0.21150955042328734,1.2546154245916303,0.71719288076887,1.1915431598668815,70542.57938004693,14229.001736846196
144,14434.875244140625,11741.0,[6],1,0.713345030432077,0.17495265747559152,0.9261861608928617,1.4519307734315596,0.1616358041618402,0.9123381731744604,-0.2875957775778306,3.500467822436149,1.2467678574423182,0.5874823125388647,0.3315480926907002,1.5392347977107583,0.8240184224409536,1.6579408899183514,73236.66921981152,17830.705267186197
144,39042.775634765625,29379.0,[7],1,2.2292281231612394,0.33720158585147164,1.7437010641904434,2.3334332351066522,1.9997979389380354,0.36540725226846926,0.5004171191322815,1.1665849992835167,5.569147715192281,3.318148151146085,0.6066335642798832,0.3177556244608234,2.459868898622501,2.391818335151177,69055.07388516433,30757.39125408021
144,80584.662109375,59047.0,[11],1,0.5384424063926285,2.7574860840677307,2.241445803617974,1.2663194648728533,3.5243185736933973,1.4392017197206635,0.000942946404549172,1.2141584176445606,3.7743874354602425,0.5830082071474102,0.16511075394509467,0.10475621572564697,2.666397209886957,2.1924432208767906,66321.02012026488,18564.27098955299
144,81725.30249023438,59293.0,[12],1,-0.027944818271496752,2.793987387855326,2.228587261232047,1.2758199291239132,3.5704563640316693,-0.6770400821206566,1.3375221849055516,0.8802852451712417,3.7240302894002064,0.4174556248601312,-0.06287721258482248,0.1641938785946211,2.6309511827918475,2.21401720708046,66095.32794886833,17604.15167131127
144,24336.739013671875,16525.0,[16],1,0.3100023141187829,0.35170194094178875,1.1481974665464052,0.8830134660980646,0.4533225073387843,0.21549850427919792,0.2223495094738439,0.6659787654154985,1.0962289675272743,0.45139073531328155,0.32110462824160857,0.25553395682797964,0.5356176177263877,0.5143793870049911,66356.64092949271,15488.558406006801
168,59078.41375732422,41892.0,"[0,1,13]",3,0.29835403245897063,0.15118022512266194,0.4604249818711055,1.1511284461561306,0.35365578344624193,0.14399373448698238,0.3045785024649277,3.0964066475972114,0.7309678271220973,0.38735988795346254,0.20282929515375558,1.079290330462667,0.7231148139857503,1.1337589366620036,71023.67003234217,15341.181144877313
168,34637.640380859375,29829.0,[4],1,0.344808532069246,1.1611033271603723,2.213205573468565,1.5339846796918426,2.7820595982106204,-0.31213860222948187,0.941260344657346,0.7060093504585305,3.7726798536191057,0.681487707373173,0.15700523645086184,0.16471001674533026,1.9322548935388157,1.3721906436095854,64101.73286358452,24672.214036709138
168,42972.693908691406,33212.0,[7],1,2.0028165344880655,0.31770685773226415,2.0189476154827255,2.6412962739644867,2.134110147761961,0.4260041111992168,0.6459346267771697,0.9481569991644458,5.264871529441672,3.1852769336702464,0.6297224673457449,0.32155122670428304,2.4875776109149683,2.2860293001956036,71138.9938348007,36658.46513621344
168,65957.60369873047,61905.0,[8],1,0.36088213001996516,0.9929730781947725,1.3788441450071942,1.4010719918333816,1.703283124643261,0.6195867025477719,0.10121577299571749,0.7152931001520408,3.5206305798623103,0.7427225040380688,0.31790265793759787,0.1526837391663376,1.376918392679754,1.0063265240000505,61439.97652682456,23929.363434798503
168,59611.16552734375,39465.0,[11],1,0.5654244414776,2.5531564295142166,2.2386648338732384,1.3581620523707008,3.4709972621288796,1.4444039382728577,-0.014023434943055246,1.151081404033464,3.614560803986873,0.6640879827426628,0.17962968830747617,0.09063630337086681,2.5217934414162,2.0037711378466114,67359.67515084511,20696.283210300306
168,57674.325622558594,37243.0,[12],1,0.00032842057930126956,2.675142623379812,2.213813269653158,1.35764915519104,3.521513948283187,-0.6823808760918947,1.3339805411804901,0.8252217654749843,3.554275845209523,0.4901906845084708,-0.05706705984044902,0.15851558529921828,2.5035337420087935,2.0502445736193726,67486.95537292492,19201.289709962643
168,33379.18475341797,27295.0,[16],1,0.24284002215649414,0.40677969037080697,1.0778315009383648,1.0639601496516438,0.7315158632216661,0.20692622061156207,0.2503172023581519,0.5437853712643843,1.540904338270805,0.45947165728955086,0.27406046753322855,0.2285534502256582,0.664496565787502,0.6124328528663332,62714.11307662011,17913.730347923345
