time_in_hour,cumulative_size,size,pcore_ids,pcore_power,AF700 CD48_[R 730_B-A],APCCy7 Ly6G_[R 780_A-A],BV421 CD117_[V 440_F-A],BV510 SCA-1_[V 525_E-A],BV605 CD11b_[V 610_D-A],BV650 CD150_[V 660_C-A],BV711 CD11c_[V 715_B-A],BV785 B220_[V 780_A-A],FITC Ly6C_[B 525_B-A],PE CD115_[YG 582_D-A],PECF594 CD135_[YG 610_C-A],PECy5 CD3-CD19-NK11_[YG 670_B-A],PECy7 CD16-32_[YG 780_A-A],PerCPCy5-5 CD45_[B 695_A-A],_FSC-A,_SSC-A
-1,0,0,[],0,0.0,0.0,0.0,0.0,0.0,0.0,0.0,0.0,0.0,0.0,0.0,0.0,0.0,0.0,0.0,0.0
0,85017,85017,"[0,2,4,9,10,11]",6,0.2825874778926589,0.1341367226319483,NA,0.4450431522048506,0.23863757830786314,NA,0.02573069095592828,NA,NA,0.29677969013256356,0.1505163386734356,NA,0.5721698063328512,NA,69101.37219614898,13302.54946657727
0,11637,11637,"[14,29]",2,0.3739030807768353,0.1527561405860567,NA,0.5016862906247348,0.3002540937526934,NA,NA,NA,NA,0.4279190975337299,0.19014222187848873,NA,0.7163837173670183,NA,72326.70413336778,16228.594998711022
0,52696,52696,"[3,6,7,8,25,26,42]",7,0.3768377153294378,NA,NA,0.6335532587103359,NA,NA,NA,NA,NA,NA,0.17367068593441592,0.09267692299225949,2.229753363974489,NA,NA,18076.259298618486
0,55297,55297,"[5,13,15,19,32]",5,0.03390378969925889,NA,NA,0.6285583934390644,NA,NA,NA,NA,NA,NA,0.014198676257300313,0.13021206201059798,2.1370530474709253,NA,NA,17360.182577716645
0,1380,1380,[54],1,0.4798716181159435,0.393319657971015,NA,0.787851742028987,0.3846718115942007,NA,-0.023550186231882986,NA,NA,0.6355596239130447,0.4093135934782621,0.7356152115942043,0.6793464869565194,NA,NA,23156.08115942027
0,21280,21280,"[13,15,23]",3,0.2128580560150366,NA,NA,0.6078304458176733,NA,NA,NA,NA,NA,NA,0.08766175225563844,0.13050158383458754,1.9484766187969829,NA,NA,18959.118796992505
0,14137,14137,[34],1,1.8990171662304591,0.26740633005587355,1.3763185634858943,NA,NA,NA,0.3584842538021018,NA,NA,NA,0.3505054849685201,0.1678345119190786,2.3628064878687223,NA,NA,23277.180731413995
24,140088.5,93761.0,"[0,2,4,9,10,11,29]",7,0.2764564346502405,0.12155801949839429,NA,0.49472085736159377,0.20594959130835022,NA,-0.007985204609942897,NA,NA,0.29340825381812363,0.14309952702755924,NA,0.5314805102381707,NA,71334.93652940824,14334.500833401687
24,18795.5,13425.0,[1],1,0.23640462153175612,0.16139453917161806,NA,0.4301904477401579,0.2787701835279699,NA,0.05643939482852556,NA,NA,0.2823809968875539,0.15917803788140716,0.20328802625628084,0.3700921117820748,NA,NA,12564.052459365364
24,11679.0,8095.0,"[14,18]",2,0.10567939562462847,0.12315748082027511,NA,NA,0.48692577600821974,NA,0.18381826226560483,NA,NA,0.3894453046921832,0.1529098438650558,NA,0.7331489838599204,NA,75528.99803065331,15734.20190084765
24,66067.0,39719.0,"[3,6,7,8,25,26,42]",7,0.4014918761030455,NA,NA,0.6722874436481145,NA,NA,NA,NA,NA,NA,0.14154487156976714,0.09484351493181187,2.185236229827295,NA,NA,19783.602464165153
24,74533.5,46885.0,"[5,13,15,19,32]",5,0.06942854789457109,NA,NA,0.6689460401966962,NA,NA,0.6554299433073707,NA,NA,NA,-0.01917119195395811,0.13323780538281527,2.0639237949915166,NA,NA,19184.80275312436
24,3366.0,2676.0,[54],1,0.49397370008912755,0.36963384224599727,NA,0.8826376613190741,0.3643201625074277,NA,-0.08228449361259793,NA,NA,0.595784333778964,0.4007173040701173,0.5987793012477742,0.6452490350564474,NA,NA,24577.720736779556
24,40597.0,28334.0,"[23,30,44,45]",4,0.2981050665812752,NA,NA,0.7113490822844062,NA,NA,NA,NA,NA,NA,0.09120998334852493,0.1340466660713847,NA,NA,NA,22335.377293888694
24,9500.0,5837.0,[15],1,0.22787176799999687,NA,NA,0.6735996147368417,NA,NA,NA,NA,NA,NA,0.08038935857893259,0.12888251084210567,2.0932181126842058,1.6414164693684186,NA,19585.21600000004
24,20574.5,14805.0,"[21,48]",2,0.13120677165909034,0.009853035237799901,NA,1.1300606480837954,0.13381777924129423,NA,NA,NA,NA,0.3433918502029213,0.19584309681887557,NA,0.6961714971931284,NA,74754.94578240067,13062.930520790218
24,18923.5,13519.0,"[28,39]",2,0.4211744957856629,NA,NA,0.6623095422094298,NA,NA,NA,NA,NA,0.5608469696673425,0.23871066412132746,0.12252153840462954,1.579063241762885,NA,NA,20524.269189103532
24,14921.5,8546.0,"[6,7,8]",3,0.4042493896391104,NA,NA,0.6750093078108734,NA,NA,NA,NA,NA,NA,0.19301737767650584,0.11706182146567057,1.9515017466072453,NA,NA,20432.04342726937
24,11912.0,7702.0,[27],1,0.8710996274345215,0.9657710747565531,2.9351593828072295,0.9099494500503607,NA,NA,NA,1.0730235634654162,NA,NA,0.17652410224984072,0.08145581955171333,2.308963506631971,NA,NA,30661.678979180553
24,5851.5,3852.0,[14],1,0.2551625234555288,0.16283748654191177,NA,0.6280171195419957,0.4711676568401222,NA,NA,3.15067441228745,NA,0.4142994874818441,0.15393043963085873,NA,0.7008586751260334,NA,74485.43997265637,17230.650602409616
24,16043.5,8975.0,[34],1,1.88574148094243,0.33205485249477906,1.6170127852401222,NA,NA,NA,0.4609686326549496,0.8858722359834177,NA,NA,0.3066008755259215,0.19063969978496353,2.404038678561413,NA,70986.31395892412,27328.219403496714
24,11976.0,7646.0,[38],1,2.050794709878083,0.377645535696407,NA,NA,NA,1.2100925059702659,NA,1.1628157719188388,NA,3.188352025050084,0.4234680319388806,0.1830146619488947,2.5682960675935163,NA,NA,30418.335337341283
24,8515.5,5294.0,"[28,30]",2,0.3070683487170436,NA,NA,0.662278459867303,NA,NA,0.07051643925782924,NA,NA,NA,0.1414413340966445,0.11781382895895709,1.8613484066701926,NA,NA,20101.813399095787
24,18695.5,12968.0,"[32,51]",2,0.3207112425717442,NA,NA,0.7566846172340957,NA,NA,0.21045840402770777,NA,NA,0.5150766168329252,0.2601352271937123,0.18695867000080324,NA,NA,NA,18871.214142440658
24,18900.0,13599.0,[46],1,1.3668055540740658,0.5993055641798999,2.9471633415343716,2.3349605634655837,2.156963805238114,NA,NA,1.1280441855819974,NA,3.3851324839682495,1.5062850358200977,0.5231842891005272,2.417261437671939,2.470195540158732,NA,NA
48,149088.25,84964.0,"[0,2,4,9,10,11]",6,0.23987883778567398,0.12551548717286254,NA,NA,0.1976492954089215,NA,NA,NA,NA,0.25738624586444747,0.12452015142205664,NA,0.5321472603290348,NA,NA,14420.125422358851
48,21713.75,12316.0,[1],1,0.19725776772782844,0.1786708307178584,NA,NA,0.3032394160957992,NA,0.0917793340049311,NA,NA,0.30685050037419004,0.16830549759946623,0.16950884281848955,NA,NA,NA,13934.63367681784
48,33780.0,17335.0,"[14,18,29,48]",4,NA,0.09481580411485879,NA,NA,0.29592000126554163,NA,NA,NA,NA,0.33384626432060505,0.15455145657193325,NA,NA,NA,NA,15324.179040852547
48,66901.5,33868.0,"[3,6,7,8,25,26,42]",7,NA,NA,NA,NA,NA,NA,NA,NA,NA,NA,NA,0.06783222034632985,NA,NA,NA,18739.774265150998
48,47924.25,20932.0,"[5,15,19]",3,NA,NA,NA,NA,NA,NA,NA,NA,NA,NA,NA,0.10889733569643967,NA,NA,NA,18030.006270311864
48,71284.25,42967.0,"[13,23,32,44,45]",5,NA,NA,NA,NA,NA,NA,NA,NA,NA,NA,0.04773562740016635,0.11677834360325279,NA,NA,NA,21164.79463556113
48,8038.0,3288.0,[15],1,NA,NA,NA,NA,NA,NA,NA,NA,NA,NA,0.08157547602014459,0.11178081842498278,NA,NA,NA,19132.21199303308
48,11082.75,5481.0,[21],1,NA,0.034246856217994726,NA,NA,-0.028564532313727575,NA,NA,NA,NA,0.36769690433331337,0.21175917653559306,NA,NA,NA,NA,13736.076695765827
48,10998.25,6398.0,[22],1,NA,0.2909068060373272,NA,NA,0.3946546241220279,NA,NA,NA,NA,0.5305087958993481,0.36533968147205353,0.2280636987247988,NA,NA,NA,28086.397017707364
48,32235.5,20518.0,"[28,30,39]",3,0.3369320593289953,NA,NA,NA,NA,NA,NA,NA,NA,NA,0.18926387105054454,0.09125522854461776,NA,NA,NA,19985.11702936201
48,19271.75,11811.0,"[6,7,8]",3,0.3800673487747608,NA,NA,NA,NA,NA,NA,NA,NA,NA,0.17465317947254322,0.08393777905483457,1.9804565735337984,NA,NA,18791.096397576788
48,13509.0,7553.0,[27],1,NA,NA,NA,NA,NA,NA,NA,NA,NA,NA,NA,0.06233792044192776,2.48253087848841,NA,NA,32616.428159005078
48,6695.75,3770.0,[14],1,NA,0.15948230926333862,NA,NA,0.4388523681439729,NA,NA,NA,NA,0.34896392554979105,0.1332279796512772,NA,NA,NA,NA,17356.15099130044
48,7598.0,5596.0,[28],1,0.09426871936693049,NA,NA,NA,NA,NA,NA,NA,NA,NA,0.13112176681363685,0.0807793545011839,1.773454431791246,NA,NA,16610.20268491705
48,19442.75,11421.0,[34],1,NA,0.3256852011675204,NA,NA,NA,NA,NA,NA,NA,NA,NA,0.18805964160162758,NA,NA,NA,27140.508827197737
48,13515.75,8212.0,[36],1,NA,0.30013981830457226,NA,NA,NA,NA,NA,NA,NA,NA,0.4919699369994355,0.1916104102066103,NA,NA,NA,NA
48,16164.0,10176.0,[38],1,NA,0.3460136127660238,NA,NA,NA,NA,NA,NA,NA,NA,NA,0.16962644016023298,NA,NA,NA,29420.72358327143
48,4673.75,2418.0,[30],1,0.35669510821075323,NA,NA,NA,NA,NA,NA,NA,NA,NA,NA,0.0944021207274679,1.9919047858250827,NA,NA,24184.485691361348
48,15765.0,10221.0,"[40,50]",2,NA,0.3867561996035689,NA,NA,NA,NA,NA,NA,NA,NA,NA,0.17708452056771207,NA,NA,NA,NA
48,17346.0,11301.0,[51],1,0.2745115211287801,0.6124730433529377,NA,NA,NA,NA,NA,NA,NA,0.43458978105903323,0.27800509763056747,0.15312848434797954,NA,NA,NA,18652.52346362268
48,12859.0,3409.0,[46],1,NA,0.5966518983202391,2.869165947313155,2.2978053735710184,NA,NA,NA,NA,NA,NA,1.4680321679368475,0.5034063976981085,NA,NA,NA,NA
48,5733.0,4050.0,[54],1,0.452030408032442,0.4023496899529073,NA,NA,0.3518519988662172,NA,NA,NA,NA,0.5685668598901098,0.39984769086865324,NA,0.5986489525553814,NA,NA,26660.641200069793
72,186324.625,105750.0,"[0,2,4,9,10,11,29]",7,0.2503511715017579,0.17536353337152244,NA,0.5590030172991076,0.24830614095694648,NA,-0.029053300815711225,NA,NA,0.28678046351227116,0.14274496885743515,0.7866630368201415,0.5872473901269054,NA,69732.88324074174,16047.201018115562
72,18930.875,8074.0,[1],1,0.2163205504764032,0.2124053679637199,NA,0.4929166649521006,0.33997861285465936,NA,0.08011634400811918,NA,NA,0.30958693907439905,0.17583013295740502,0.20349393051694753,0.3733856641201192,NA,NA,15014.43203232823
72,24046.5,13187.0,"[14,18,48]",3,0.06958247482482083,0.15052410561308038,NA,NA,0.46212057345144064,NA,0.1977287459401511,NA,NA,0.3462992238839352,0.1594561174859188,NA,0.7718422515698736,NA,74154.19424864321,16483.333541263775
72,66623.75,33173.0,"[3,6,7,8,25,26,42]",7,0.4289641588491331,NA,NA,0.8050022627722817,NA,NA,NA,NA,NA,NA,0.25678700135462096,0.0990610643464227,2.1416561085949084,NA,NA,21986.5020506951
72,70243.5,40328.0,"[5,15,19,32]",4,0.07042867844533185,NA,NA,0.8130389626388905,NA,NA,0.5752860971121891,NA,NA,0.4501961771569615,0.09602732532012981,0.13893423358211077,2.002536066780205,NA,NA,20551.647341035045
72,56908.5,34860.0,"[6,23,28,39]",4,0.3655724062244705,1.5222511827934313,NA,0.7988482796133245,NA,NA,-0.12669169962747917,0.6751823579891436,NA,0.5411413181927999,0.2620026254975065,0.12601579959057108,1.6256786367194676,NA,NA,22919.192036338907
72,62306.5,35553.0,"[13,30,44,45]",4,0.2463330297079691,1.1383718817398742,NA,0.8259218058228255,NA,NA,0.5386424293051402,0.6114623182593322,NA,0.4080863247313744,0.12922619135041336,0.13696026863368804,NA,NA,NA,23706.95295033428
72,6382.0,2363.0,[15],1,0.27246335239736563,NA,NA,0.8181135470855567,NA,NA,0.18231774614149465,NA,NA,0.5364215105766247,0.16622233894154848,0.1369103438185516,2.062453838393131,NA,NA,22348.205578188667
72,11370.375,5829.0,[21],1,0.3262087967085501,0.0896582354473785,NA,NA,0.0445201369128041,NA,NA,NA,NA,0.38925705293361057,0.2193319032903327,1.7444535260270584,0.7518008785110438,NA,74295.95593812873,15119.927706869745
72,11583.5,4829.0,[27],1,0.9551060779988914,0.9377665827362383,NA,1.1097564641731825,NA,NA,NA,1.095618918893249,4.700625713288306,0.5535587384965673,0.29879626226962985,0.08658201749255512,2.398672151314366,NA,NA,35264.33564984661
72,25169.5,10933.0,"[8,23,25]",3,0.35749818128091415,NA,NA,0.787911091037762,NA,NA,-0.04813854302826792,NA,NA,NA,0.2110864745922747,0.12108578951210891,1.9662998689683953,NA,NA,23263.75653072169
72,8046.875,4699.0,[14],1,0.22971695881941945,0.244916519285435,0.9781051773825116,NA,0.5179528462912626,NA,0.18247067459416977,NA,NA,0.3884203586174805,0.1628947861592338,1.1701674204582544,0.7812278854058207,NA,NA,19418.78406213588
72,17266.375,7545.0,[34],1,1.8830550111922786,0.3661993924318159,NA,NA,NA,NA,0.5056651393242695,NA,5.696728240583221,NA,0.3134545872034584,0.19808684413347089,2.434605201750508,NA,NA,28792.846674533514
72,11194.875,4437.0,[36],1,2.0884388419365996,0.35194688030237087,NA,1.3024176068290076,0.5066349489498632,NA,-0.13839685325874918,0.7740191520338531,5.500636364173322,NA,0.5061724049620886,0.19457101074151917,NA,NA,NA,42120.64681383195
72,15274.0,7192.0,[38],1,2.0793129385147786,0.39132212337142525,NA,NA,NA,NA,NA,1.0242846588728973,NA,NA,0.46268577953549794,0.18421772688064797,2.5622841309660154,NA,NA,31341.960455676253
72,5314.875,2978.0,[30],1,0.46301398377196024,1.0402694530680439,NA,0.9343425697452901,NA,NA,0.12309733871916384,0.7171839739881039,NA,NA,0.22173165003880513,0.11105358242197405,1.9574862956090224,NA,NA,27328.791740163186
72,27836.0,19163.0,[51],1,0.26927381372143966,0.8494848182569252,NA,0.7698895956091132,NA,NA,0.05003184635901947,NA,NA,0.42087881395045434,0.27703233078566747,0.17333834353894173,0.8793076349511454,NA,58853.70627963774,19844.185371461364
72,15356.5,8927.0,[46],1,1.4171975225148776,0.7005774383648711,2.665392425503843,2.4092683450900076,2.0957542871585235,1.774542875207578,NA,1.184300170505964,NA,3.076352741461288,1.5342994626868114,0.48936806596555127,2.4574179417835857,2.4522359347344818,NA,NA
72,6259.5,3393.0,[54],1,0.46008609259924604,0.5541574001517757,NA,0.9913651342759082,0.5837972761003245,NA,-0.25995369963654724,1.4274414730609335,NA,0.5673323317956745,0.41358437397155967,0.36912254245546516,0.7106651495327138,NA,83197.14354181645,26766.591580797132
96,167053.3125,73891.0,"[0,2,4,9,10,11,29]",7,0.34011190444479933,0.17163090265607384,NA,0.6224109054530862,0.25011909072140615,NA,0.03877798988422132,NA,NA,0.32762730379635374,0.1726534646327238,NA,0.618997926987008,NA,70331.85143215884,15210.709910346695
96,15965.4375,6500.0,[1],1,0.23406801082025153,0.21407568662775533,NA,0.5449398438227804,0.32564693803803024,NA,0.1056955555359691,NA,NA,0.32302991638187095,0.20347331948310154,0.209017446527074,0.3883661062294722,NA,NA,14325.093941209056
96,9346.4375,5323.0,[14],1,0.3785191672763064,0.23733440897266256,NA,NA,0.5181423182897271,NA,NA,NA,NA,0.42576572866667084,0.19552659279939677,NA,0.8098671595661407,NA,74002.69931725328,17696.694382217815
96,51817.9375,36909.0,"[3,25,26]",3,0.5183106580370951,NA,1.9607928248820783,0.9623617008251268,NA,NA,NA,NA,3.8265274306677077,NA,0.19224478507563036,0.09331652935096124,2.560756049219201,NA,NA,19488.231618635797
96,52108.0625,34895.0,"[5,19]",2,-0.01093459909634964,NA,2.0092471720558875,0.9568238801925077,NA,NA,NA,NA,NA,NA,-0.010566877388220153,0.14129852938664877,2.4642774155043328,NA,NA,18832.547381703116
96,53618.1875,13637.0,"[7,8,15,23,28,39]",6,0.4132614348792609,NA,NA,0.8508573520015896,NA,NA,NA,NA,NA,NA,0.2756666205217191,0.132079600298873,1.7319910272995052,NA,NA,21692.04126864592
96,63043.5,19830.0,"[13,32,44,45]",4,0.24020309546681395,NA,NA,0.9038790392714882,NA,NA,0.6589485835633404,NA,NA,0.4473530786401473,0.1374257596391728,0.15324205648678813,NA,NA,NA,22111.833765574538
96,7063.6875,4155.0,[18],1,NA,0.15657124419788415,NA,NA,0.5947627797450048,NA,NA,NA,NA,0.48338646009078257,0.21542782397650173,NA,0.857954477441846,NA,76709.73269981163,15624.166839203934
96,4499.0,1308.0,[15],1,0.30699113058457383,2.0828567775061195,1.974822975577903,0.863516597410535,NA,NA,NA,NA,NA,NA,0.17277798589964055,0.14556775597354932,2.1106270603050667,1.6527655507612804,NA,21631.68081795953
96,22215.3125,11439.0,"[21,48]",2,0.25435560585462413,0.08677396127952353,NA,NA,0.21359477783060754,NA,NA,NA,NA,0.4289927884539093,0.2359452165679592,NA,0.7771305067225592,NA,74369.06161009433,14017.15613948708
96,16054.8125,7783.0,"[22,54]",2,0.5075541194968822,0.44951456057179806,NA,NA,0.5202640348999759,NA,0.04803935086831723,NA,NA,0.6322349220872278,0.4835886429302807,0.3241742813798051,0.6419895814962057,NA,NA,28094.920697454334
96,10372.5,7094.0,[42],1,0.11421685250663094,NA,NA,0.9378342621957079,NA,NA,NA,NA,NA,0.5971775302181231,0.20984290341046563,0.1090537011207533,2.508601624493857,NA,NA,20176.387948903324
96,17354.1875,8905.0,"[27,30]",2,0.8355547540183073,NA,NA,1.1677400169303667,NA,NA,NA,NA,NA,NA,0.27336290648871886,0.10294619101297464,2.364727932844012,NA,NA,30350.745720593266
96,10483.5625,2377.0,"[8,23]",2,0.40618639108246923,NA,NA,0.8124559561992855,NA,NA,NA,NA,NA,0.5633565064893243,0.2634124040372807,0.13672382527409255,1.7926139536297905,NA,NA,23559.165884688526
96,17692.1875,9059.0,[34],1,2.0374987718413697,0.36881924099265717,NA,NA,NA,NA,NA,NA,5.729429759971764,NA,0.40418231233772106,0.22922511293120784,2.4611638828826203,NA,NA,27727.3315128498
96,11107.4375,5510.0,[36],1,2.211151161130757,0.3305553670513506,NA,1.4563602724863283,0.5228445456535291,NA,-0.05929691311002516,NA,NA,NA,0.5952069731655083,0.21519804616838933,NA,NA,NA,39149.03396935588
96,15778.0,8141.0,[38],1,2.2086531662718407,0.3957538347818157,NA,1.6614211952639764,NA,NA,NA,NA,NA,NA,0.5304530372868994,0.2170069615405983,2.577899707706126,NA,NA,29429.390290277566
96,17880.0,3962.0,[51],1,0.28895380930508274,0.8671886770973103,1.1806332858396402,0.807505003673799,NA,NA,0.08818407995664623,NA,NA,0.446825837279778,0.2984074596126898,0.18185549213506846,0.8988766318931757,NA,NA,19434.49910514527
96,13412.25,5734.0,[46],1,1.5284136670021768,0.6962502002367388,2.7496815223489786,2.4866775359605824,2.2027547663796168,NA,NA,NA,NA,3.2065027460810134,1.6572724630375122,0.5570896247460331,2.599551749967367,NA,NA,NA
120,144706.65625,61180.0,"[0,2,4,9,10,11,29]",7,0.3407732728679771,0.1823890450929473,NA,0.6465033324894667,0.2620097800114176,NA,0.06956940957666724,NA,NA,0.34178063004833004,0.19781681354930347,NA,0.603058268474823,NA,70175.69409147346,14608.717862624206
120,17203.71875,9221.0,[1],1,0.22896497949026973,0.234096127359813,NA,0.5611369530733654,0.32969649025192105,0.12294624920121056,0.1453232368128896,NA,NA,0.3259828991515312,0.2296108760533282,0.21373239535601496,0.38718031030718036,NA,NA,13421.279396351507
120,9985.21875,5312.0,[14],1,0.37687351794371593,0.23483832710538444,NA,NA,0.5352437415554796,NA,NA,NA,NA,0.4417931051648206,0.2196127345326082,NA,0.7992792519536712,NA,72998.05244627217,17157.371539807216
120,85904.96875,59996.0,"[3,25,26]",3,NA,NA,2.115273832703585,1.0808427743462055,NA,NA,NA,NA,3.865612146494015,0.5337328418201296,0.1984189132235219,0.08773117718889378,2.693806520109981,NA,66556.20047588907,18300.542179057444
120,79999.03125,53945.0,"[5,19]",2,NA,NA,2.18890764506247,1.0648782702013069,3.564609490757133,NA,NA,NA,3.816343976285664,0.3462777725472429,-0.02458671817589897,0.13006702680813487,2.6256225483757913,NA,66676.07265556738,17707.714054349854
120,13675.84375,4048.0,[32],1,0.18652005108687741,NA,NA,NA,NA,NA,NA,NA,NA,0.4587225631485269,0.17193892515314735,0.16222518825391774,1.7813652931903259,NA,65566.00531502854,19111.09945227319
120,22206.65625,11099.0,"[21,48]",2,NA,0.0686822506807494,NA,NA,0.2536003159384901,NA,NA,NA,NA,0.4735272650908433,0.2557812173756937,NA,0.7875831870483659,NA,73830.07191818873,13472.199534767806
120,18738.40625,10711.0,"[22,54]",2,0.5262814040581771,0.4987811661944299,NA,1.131800305865792,0.5476835198514425,NA,0.09095760059136238,NA,NA,0.6551598519234433,0.5352276789114621,0.3269426386482307,0.6852872502930997,NA,NA,27284.284008945524
120,17484.25,12298.0,[42],1,NA,NA,2.2177641308356075,1.0661724810222082,3.410309848831792,NA,NA,NA,NA,0.509663963801347,NA,0.10250746136880462,2.6377151799494407,NA,66808.42987259956,18786.95168508797
120,21229.09375,12552.0,"[27,30]",2,0.833292239235371,NA,NA,1.3232675973052936,NA,NA,NA,NA,NA,0.5431587310177212,NA,0.09919909019314799,2.4661534602498576,NA,NA,28242.59580086876
120,9985.21875,5312.0,[14],1,0.37687351794371593,0.23483832710538444,NA,NA,0.5352437415554796,NA,NA,NA,NA,0.4417931051648206,0.2196127345326082,NA,0.7992792519536712,NA,72998.05244627217,17157.371539807216
120,20277.46875,8292.0,[45],1,0.23793756274127942,1.2977290101220915,NA,0.8323129963059275,NA,NA,0.5628800700716123,NA,NA,0.48904133511332726,0.22788813696236554,0.1532560499430552,1.322550325823459,NA,62194.86098332675,18835.108992585574
120,20190.09375,11344.0,[34],1,2.1075827788178794,0.39518729701911637,NA,1.8734120894466946,NA,NA,NA,NA,NA,NA,0.46800966865402893,0.2604010278478188,2.5035308798451705,NA,69698.40821070992,26899.438740842812
120,11487.71875,5934.0,[36],1,2.3123534334139295,0.3112891183818518,NA,1.726094532655802,0.5015965451392264,NA,NA,NA,5.466090261684313,NA,0.6462777872238634,0.23580958664824048,NA,NA,NA,37222.332240680844
120,18131.0,10242.0,[38],1,2.2616718229396255,0.4131336980085827,NA,1.9796118931353859,NA,NA,NA,NA,5.796271675598744,NA,0.5865452006594425,0.23950529781003627,2.6019936872259413,NA,NA,28247.509569246133
120,11027.96875,3713.0,[39],1,0.5249399234418195,1.319678082457945,NA,0.855176131894753,NA,NA,-0.2594123367715664,0.7885291711217293,NA,0.6194547146885002,0.34310399483131393,0.13675943433032578,1.4618886253418126,NA,62863.04102920126,21405.826526303685
120,12735.71875,7306.0,[44],1,NA,NA,NA,1.4107878470787183,NA,NA,NA,1.1937551580299504,NA,0.38727973556164674,NA,0.159021760503802,2.5282912839994833,NA,NA,28539.22948007941
120,15589.0,6649.0,[51],1,0.3219347176334191,0.8674553175476336,NA,0.8831546170276448,1.1322895323465336,NA,0.15257978868512412,NA,NA,0.49130013273982776,0.3541040091049701,0.19112190273189478,0.8895238374574942,NA,NA,18832.448906279915
120,11973.125,5267.0,[46],1,1.723164477162389,0.8002438391032163,2.865309908320716,2.5683681624340884,2.33967096574098,NA,NA,NA,NA,3.252334856277095,1.7458071842720781,0.6085571967844623,2.6767452417184314,2.7073001246489614,NA,NA
144,98299.875,40016.0,"[0,2,4,10,11]",5,0.37963794477628654,0.15078328085440784,NA,NA,0.2614135192024034,NA,0.18114607789160608,NA,NA,0.3450814842438432,0.19273102046575152,NA,0.6575954426590412,NA,70251.22051274223,14176.282645323769
144,25006.375,10091.0,"[1,9]",2,0.23072092908121244,0.23154381405678803,NA,NA,0.3176612136480088,NA,0.13086543741658208,NA,NA,0.31645909333307753,0.2250912851804059,0.23150235963391774,0.3960847051801756,NA,NA,12530.487125782955
144,30044.546875,17296.0,"[14,29]",2,0.5257283972793445,0.16382500749564688,NA,NA,0.2977283005989526,NA,NA,NA,NA,0.46121630314777406,0.23801517687538798,NA,0.7936211906200715,NA,72644.0842020519,16329.685484730599
144,91014.484375,48062.0,"[3,25,26]",3,0.5113345937574754,NA,2.113182324734215,1.2005715682541345,NA,NA,NA,NA,NA,NA,0.1472271560505316,0.11224544284967153,2.682048825772927,NA,66355.64045077309,17799.825194032404
144,93294.765625,50340.0,"[5,15,19]",3,NA,NA,2.177308802925048,1.1959211162129701,NA,NA,NA,NA,NA,NA,-0.05769911304928854,0.15900407472233735,2.605469454510878,NA,66031.38373016317,17271.617407528032
144,25308.453125,16541.0,"[18,48]",2,NA,0.03214162625505068,NA,NA,0.587701282333414,NA,NA,NA,NA,0.49485557470175545,0.20723174133518674,2.2686583697887492,0.8681388062214911,NA,73100.17162496969,13589.177746318614
144,16169.171875,6376.0,"[15,32]",2,0.28299514201793774,NA,NA,NA,NA,NA,NA,NA,NA,NA,0.13207742221549168,0.16872406293032216,2.0593981055229538,NA,65298.733241401635,18630.02461280963
144,17205.296875,10987.0,[21],1,NA,0.0122156436989318,NA,NA,0.08068652045382718,NA,NA,4.425950954907611,NA,0.5502276260145186,0.2866773676920147,2.228420512425785,0.8374686839717899,NA,72817.39775269073,13596.347897949247
144,15567.203125,6198.0,"[22,54]",2,0.5521193227528651,0.4863455960718648,NA,NA,0.5244011697639595,NA,0.16314288535392008,NA,NA,0.6995150494649732,0.5428131817894468,0.3709369299257944,NA,NA,NA,26673.336479638172
144,21400.125,12658.0,[42],1,0.076756424817912,NA,2.1876069117484813,1.2020152228389405,NA,NA,NA,NA,3.6986505660897193,NA,0.17675528102787208,0.12381149417205706,2.647730777437766,NA,66411.13044900434,17839.87747735111
144,17404.546875,6790.0,"[27,30]",2,0.853980730477226,NA,NA,1.4818262683880192,NA,NA,NA,NA,NA,NA,0.24182518372444806,0.1400368206835345,2.461423703900115,NA,NA,27344.598191384965
144,20710.046875,10615.0,[34],1,2.128902807570725,0.3545341657181815,1.5682531449273687,NA,NA,NA,NA,NA,NA,NA,0.4875560701508759,0.3075935464497508,2.454884607789981,NA,NA,27856.160562166715
144,14071.859375,8328.0,[36],1,2.3683116214219586,0.2844464838146692,NA,1.977578395927622,0.5934603952269546,NA,NA,NA,NA,NA,0.6820637257114495,0.267356615904525,NA,NA,NA,36198.162902690034
144,18850.5,9785.0,[38],1,2.260668976040905,0.3816452703799338,NA,2.2766447490633843,NA,NA,NA,1.4751394901171349,5.734409613386401,NA,0.6146379727104461,0.2923831305958354,2.542916962974283,NA,NA,29839.6366144135
144,10051.859375,3684.0,[44],1,0.5965444097438335,NA,NA,1.581680774971677,NA,NA,NA,NA,NA,NA,NA,0.1998778958697004,2.512599910158106,1.9353390132842259,NA,28092.207567319005
144,24428.234375,6495.0,"[45,51]",2,0.3015404456983952,1.082886445983049,NA,NA,NA,NA,0.4302550890088117,NA,NA,0.5311389981597875,0.29591704062089974,0.18956338925244598,1.1500508805461358,NA,NA,18317.066519466607
144,11251.5625,5265.0,[46],1,1.6845238812220618,0.7681894511123564,2.8077250449465425,2.6917427263477447,2.45578760966255,NA,NA,NA,NA,3.2384508456520056,1.7346805336231057,0.6475059699819479,2.6473387274989744,2.800765176167199,NA,NA
144,12739.359375,8064.0,[47],1,NA,0.1693799834432994,NA,NA,0.4909730860841006,NA,NA,NA,NA,0.5618967989167473,0.6798975009940804,NA,0.6791941313375526,NA,55781.05665144542,18915.208599333444
168,83076.9375,33927.0,"[0,2,4,10,11]",5,0.3184237983541811,0.1427463673903384,NA,NA,0.2745412169226098,NA,0.21134613084097298,NA,NA,0.34796295733689286,0.1884148590239354,NA,0.6762171285379474,NA,70337.13713267294,14557.925344804604
168,24176.1875,11673.0,"[1,9]",2,0.19157452921295626,0.2383189777799779,NA,NA,0.4048622684912102,NA,0.16173197090272318,NA,NA,0.3155826755572376,0.2101474815343236,0.23505700517070038,0.42798448228240926,NA,NA,13905.233900092817
168,26540.2734375,11518.0,"[14,29]",2,0.4122080337096752,0.14886466033608192,NA,NA,0.31865414557975,NA,NA,NA,NA,0.4582178763665481,0.23074416594532732,1.4551689835650723,0.7897304840753462,NA,73119.68315134275,16510.800521024168
168,66593.2421875,21086.0,"[3,25,26]",3,0.5516838264088046,NA,2.110695135870842,NA,NA,NA,NA,NA,NA,0.5936333825216861,0.1532313322759875,0.10027693986427733,2.60582738672726,NA,NA,18478.470721327547
168,81979.3828125,35332.0,"[5,15,19]",3,NA,NA,2.1841054706350858,NA,NA,NA,NA,NA,NA,0.44992620499856795,-0.055211663092223695,0.15295943103157994,2.529537129952939,NA,NA,18275.119445904915
168,45685.3359375,27935.0,"[28,32,42]",3,0.14815497629795216,NA,NA,NA,NA,NA,NA,NA,NA,0.5826150889676195,0.16403714659552815,0.13519025303353138,NA,NA,NA,19536.733815880038
168,18038.6484375,9436.0,[21],1,0.32093944501930705,0.01456312528569148,NA,NA,0.09923535531564953,NA,NA,NA,NA,0.587212342593398,0.291451281810716,2.1414375591470898,0.8542626822633935,NA,73459.29389284394,14279.295585390193
168,42539.859375,32610.0,"[39,45]",2,0.2752160606447791,1.0151200684483057,NA,NA,NA,NA,NA,NA,NA,NA,0.2554000594222239,0.1526966341054775,1.3578443149850998,NA,NA,22961.879478474184
168,21218.0234375,10863.0,[34],1,1.959214533342627,0.3337480391265073,NA,NA,NA,NA,NA,NA,5.477096769051384,NA,0.47466715347801447,0.32467801640446536,NA,NA,NA,31066.50595620535
168,18614.9296875,11579.0,[36],1,2.2096384011074015,0.2847999666384302,NA,2.2977792606967546,NA,NA,NA,NA,NA,NA,0.7573903903041481,0.265561306058097,NA,NA,NA,42288.21995113939
168,12204.2109375,9483.0,[37],1,0.47183593418574765,0.26305103235435867,NA,NA,NA,NA,NA,NA,NA,0.6392741750868495,0.497069596357937,NA,0.6809727313491346,NA,60856.53970613346,20519.514762770817
168,20228.25,10803.0,[38],1,2.104004499767897,0.3519550013297503,1.719609814334928,NA,NA,NA,NA,NA,NA,NA,0.6276515719990265,0.3062364426803289,2.578181595307236,NA,NA,NA
168,21846.75,16250.0,[51],1,0.27195586333421895,0.707773125673723,NA,NA,NA,NA,0.14451541780600685,NA,NA,0.5387017211631108,0.31613370750725434,0.17882459427245745,0.9239088242659107,NA,57684.640850469645,19781.50129882007
168,13622.78125,7997.0,[46],1,1.536505549419745,0.7102051724214458,2.7730394382582717,2.8395983200354933,NA,NA,NA,NA,NA,3.2527780777890434,1.7441778472216787,0.6397875725404865,2.42604982617353,NA,NA,NA
168,13574.6796875,7205.0,[47],1,NA,0.16910089629014502,NA,3.8504989722662626,NA,NA,NA,NA,NA,0.5792015570556178,0.7492049813911348,NA,0.7063509506658484,NA,58758.629585527626,20483.367151273702
168,14820.015625,7766.0,[48],1,-0.138539087465114,-0.004140256791645314,NA,NA,0.5290936011496359,NA,NA,NA,NA,0.48906870369886135,0.20554961666074023,2.1622038272775344,0.8544834343007507,NA,72831.56720693412,13286.738825553635
168,5239.09375,2449.0,[54],1,0.6153818371572495,0.49498660042887455,NA,NA,0.5037392611764959,NA,NA,NA,NA,0.7648741188644829,0.6045186844680299,0.4368095583861714,NA,NA,NA,25803.768161239615
