time_in_hour,cumulative_size,size,pcore_ids,pcore_power,AF700 CD48_[R 730_B-A],APCCy7 Ly6G_[R 780_A-A],BV421 CD117_[V 440_F-A],BV510 SCA-1_[V 525_E-A],BV605 CD11b_[V 610_D-A],BV650 CD150_[V 660_C-A],BV711 CD11c_[V 715_B-A],BV785 B220_[V 780_A-A],FITC Ly6C_[B 525_B-A],PE CD115_[YG 582_D-A],PECF594 CD135_[YG 610_C-A],PECy5 CD3-CD19-NK11_[YG 670_B-A],PECy7 CD16-32_[YG 780_A-A],PerCPCy5-5 CD45_[B 695_A-A],_FSC-A,_SSC-A
-1,0,0,[],0,0.0,0.0,0.0,0.0,0.0,0.0,0.0,0.0,0.0,0.0,0.0,0.0,0.0,0.0,0.0,0.0
0,166797,166797,"[1,2,5,7,8,11,15,17,18,23,38,42,48]",13,0.3514733581779097,0.31989691063988523,0.7332483061266091,0.6195572149079434,0.5423021143485904,0.25594477592522913,0.04526518752136921,2.1355586148611696,1.2739328397273355,0.44135264801525254,0.21859141028316031,0.8320018584806739,0.7581255378394088,1.1304089069527616,68511.43653662833,15295.698411841919
0,9,9,[21],1,0.3815097777777776,0.11925488888888891,1.017533888888889,2.6121582222222224,0.7469624444444443,-0.3999550000000003,0.4149142222222224,2.505932555555555,1.638575777777778,0.3026427777777778,0.13573355555555544,1.1891006666666666,0.39683355555555544,2.1156023333333334,64647.11111111111,21944.888888888887
0,152155,152155,"[7,9,10,12,14,16,19,20,31,37,39,45,46]",13,0.3859195171962775,1.7930264691597264,1.9492397106108856,0.7231296878972131,2.66837478216292,0.3452373076336588,0.1206217986132625,0.729415537215341,3.985240405816428,0.7138046167197926,0.15616708954683478,0.16455530157405263,2.090304285728366,1.6640218884690035,68542.35452006196,20956.851000624334
0,1880,1880,"[9,25]",2,0.9649715994680863,1.0647084962765927,2.7285566797872254,1.034848107446812,2.554575094680852,1.19000526276596,-0.30666208297872366,1.018519869148931,4.641686564893617,0.9715435978723422,0.38974081755319157,0.20877381648936155,2.1059988797872315,1.5563397297872346,75037.92340425524,32866.62127659576
0,4097,4097,[5],1,0.6345927202831381,0.1865197517695827,1.3129713070539375,0.6291679633878506,0.2566429070051268,0.6706707014888951,-0.2519756824505719,2.245141825726127,1.1381750585794523,0.5549462692213788,0.3086990849402027,0.8955631039785203,0.6804697322431074,1.0838266070295335,70752.67952160118,18480.066390041524
0,17541,17541,"[12,22,27,28,32,33,36,41,43]",9,1.7517961048970936,0.39386587167207976,1.8395073921099168,1.0050423526594856,1.72899790964027,0.5429217678011515,-0.006400948064534173,0.794661713471291,5.313966691294683,2.9249736965395305,0.5381847948235547,0.23431708876346902,2.319400852174904,1.8319298315945522,76941.31737073143,32014.411949147736
0,2333,2333,"[15,16]",2,0.6938448045435044,0.9337415460780099,2.0513199155593624,0.9474486112301759,1.7491347818259748,0.3115826459494213,0.21430384612087172,1.0831304303471971,3.528351624089155,0.8454201868838406,0.36887841577367864,0.2955623351907408,1.5797047106729534,1.4021958354050574,67493.58251178739,24497.680240034304
0,6601,6601,"[20,25]",2,0.6634716315709728,1.0696292717770062,2.828767970004551,0.9750927700348391,2.9529015803666083,-0.20066167414028202,0.6225942584456794,0.8979714291773964,4.796808119678835,0.8776362622329971,0.1805533199515179,0.21892995227995815,2.22985333676715,1.7303052505680967,76501.52401151345,28475.52067868502
24,218308.5,176607.0,"[1,2,5,7,8,11,15,17,18,21,23,38,42,48]",14,0.34920606799094633,0.30305061667548827,0.8084744857323383,0.6956948999683839,0.5153560446581191,0.29895309679536664,0.030194789807779898,2.1105947055703203,1.2436937390825342,0.4266438830645598,0.20455132227444528,0.807208290999893,0.7025060882524045,1.1248844448086055,71013.01250294881,17299.341363254196
24,183976.5,144595.0,"[5,7,9,10,12,14,16,19,20,25,30,31,36,37,39,45,46]",17,0.41259918199742907,1.532303898803653,1.9677888947351971,0.821220322723287,2.4230213218141974,0.37300721917065327,0.13243213656635033,0.8628505057276277,3.8950149598467836,0.7020875946493174,0.16250254406404796,0.2205510546795365,1.8610726563365523,1.5784101158435975,69436.5124241411,24689.175932795835
24,4574.75,4339.0,[9],1,0.4565488288431052,1.4764651363462504,1.7851040205475655,0.8015410508771059,2.180711423739005,0.7465133943384896,-0.09398554418274152,0.8465736510738275,3.806650163724799,0.7407869500519147,0.21056807552325285,0.20093614284933659,1.7684488150172175,1.452532923602381,67387.94294770196,25371.38510301111
24,14875.5,11845.0,"[22,27,28,32,33,35]",6,1.7391912775368865,0.4644933131491422,2.1313067165137416,1.1765766631709917,1.8051233055191411,0.9301730217807818,-0.1522252100265562,1.0891105572417787,5.4795691993882505,2.796504389751609,0.5602597620920302,0.2725875450236984,2.3172584820342172,1.8700071518604398,80801.93714496991,42490.28429296489
24,13530.25,10924.0,"[41,43,47]",3,1.7959403385931478,0.41459696535540536,2.0339720463221203,1.0568117962528407,1.8369874655124465,0.28081802790044663,0.2128998426488815,1.040700760333333,5.6624215871103685,2.879417072596593,0.4230834697622079,0.2581030572605829,2.3502730669241085,1.8329200337946492,76483.72498660412,37145.04491786923
24,2543.25,2535.0,[17],1,0.8240546154526667,0.17442292254006153,1.1528424833382473,1.185588584488352,0.5970533084635838,0.43149329548805615,0.14965721016415223,0.9188463700973157,1.3470463075788905,0.7675240763786498,0.24046867285952844,1.0091168597267257,0.6470032981421413,2.1487995992332642,77870.07018578597,19548.555588321993
24,4971.25,4388.0,"[15,16]",2,0.5738568839326088,0.8504816500377159,1.8386596821221972,0.9711892979632948,1.5615990784008043,0.3861364576816677,0.1758484914759899,1.086842142821228,3.155328206537584,0.7517164630626084,0.33406149036962285,0.3438235174251949,1.3263320570279107,1.3130385007794798,68242.57078199649,25955.313452351023
24,6431.0,5342.0,"[25,28]",2,1.308007895622765,0.6591260410122839,2.416142051352828,1.0783234848390602,2.2001379487249264,0.8297043435313325,-0.06218216669258059,1.0091298066397183,5.2485915934924545,1.7954774868216457,0.41213249055357215,0.23881021287513604,2.1630735478930165,1.743798462797389,77844.42606126581,38255.786036386286
24,1875.25,1552.0,"[21,23]",2,0.6663506285828555,0.2767234651379784,1.3096860174643332,1.0243175512598297,0.6648249570723883,0.3255463250233279,0.296558372883613,2.1545657399013383,1.7035671933075625,0.7909524366084532,0.36284203506198853,0.8593300431942401,0.8500131238501546,1.5558691638448248,72299.33502199696,21399.335555259357
48,189864.0,149106.0,"[1,2,5,7,8,15,17,23,38,42,48]",11,0.29201715538227613,0.4013339867974457,0.9325014131895024,0.5735433947216801,0.5718011472899573,0.2565406121332321,0.04674705758233433,1.5546803946541958,1.4616482818856502,0.3430197317267235,0.18374283776972566,0.5037879071687559,0.665775968004732,0.7452646237540408,66371.75462436277,17564.10668689159
48,46288.0625,32473.0,"[11,18]",2,0.20284960461997592,0.08694355258848097,-0.007378837437843178,0.8350069120520889,0.22773828790901085,0.2715777005585964,-0.058411464173393046,3.7140513192966553,0.726759657742475,0.29910657329575985,0.14845441210678834,1.481725464456949,0.6792269596980406,1.740489284653571,71503.13738018359,14351.101690635564
48,126110.875,85816.0,"[5,7,9,10,14,16,19,20,21,31]",10,0.29328556772561853,1.682928226811339,1.9833987425801705,0.7172063158961217,2.5684283551834857,0.1548747680379423,0.27402631446039916,0.7458640163105605,3.8107399488832896,0.4874939858680917,0.10984367277059004,0.16046949623049744,1.9803130995666511,1.4720714200589362,66626.26365886373,22380.847773833855
48,27269.0625,21497.0,"[12,25,28]",3,0.7242873082637111,1.833522218638337,2.2397642790868804,0.7598828239694662,3.1982986665428936,1.4146540156312561,-0.5924913778503571,0.9936108227822413,4.373923810215318,0.6684255739219139,0.19248061339659772,0.0699319351141976,2.4566284944293595,1.795897052538933,69598.75147889668,25370.40457478127
48,4464.8125,3829.0,[17],1,0.7553036632977368,0.11991514143930626,0.7446908992118848,1.0271582723518664,0.21997151116368752,0.4291312972129304,-0.1544630909052671,0.44039350671220934,0.9440284687066917,0.41412202680683496,0.17861842643168124,1.2464981724036601,0.3310849525036045,2.2821743554040683,81545.84139871493,17631.09201114271
48,5323.0,3861.0,"[15,23,21]",3,0.5038566801380802,0.7347824837497585,1.3442792864456048,1.0636782028461376,1.0158465996618475,0.46309599392964484,0.17882932380706462,1.4047944357739954,2.6183847033979877,0.5650093308402205,0.3933679209092551,0.3470263204255103,0.9387770241170373,1.2443804067959812,62753.59609242907,21285.185046026687
72,252252.0,204786.0,"[1,2,5,7,8,15,17,23,38,42,48]",11,0.3641448710470967,0.6131803152099167,0.9317996829815187,0.7738723471919382,0.870831527909647,0.36218993692623624,-0.007738371754423046,1.4990551722707695,1.9170648686867753,0.4616217026035121,0.24139569982626297,0.40763579860089183,0.8846489735316793,0.9158516326614199,67895.6062707135,21074.59511916643
72,49683.015625,38111.0,"[11,18]",2,0.22316921345668406,0.15428095580798606,-0.08458115513445819,1.1312411789668109,0.2788839185140426,0.2664600681687328,-0.09197924529350754,3.6942591141266714,0.8089070127175099,0.33313179867428955,0.1741310725137697,1.4414160425000662,0.7540572158565818,1.8731282571609424,74107.10933471056,16598.117860322694
72,133583.4375,94083.0,"[5,7,9,10,12,14,16,19,20,21,25,28,31,37,46]",15,0.4355252705508228,1.7065900708714379,1.8551543710184535,1.0102457961391154,2.7154727633155438,0.23996587610213038,0.21133107177186794,0.7693542058846745,3.842325590195528,0.7133997805458682,0.26957959887220273,0.15296058292757397,2.077256064196765,1.6588036876454857,72290.5807765277,27485.14536467114
72,565.515625,0.0,"[33,35]",2,1.1464108231149661,0.5608962909126087,2.4257925350482137,1.9343832801370424,1.9373352638908012,1.483818866521151,-0.638308811952585,1.1020865362915462,3.7257421760837848,2.7732184129804125,1.0918165325062876,0.4211223271074511,2.043297111761944,2.274338872212863,93801.02450750144,69787.72160362515
72,5373.0625,0.0,"[11,17]",2,0.3192788611069126,0.11724576569460865,0.33526701424350147,0.8889631862270111,0.2904700019832771,0.20328825526933936,-0.029237624236640336,2.9829040167007674,1.2189751091614434,0.3434239938059074,0.157826056438942,1.406926212730749,0.6400068303371008,1.8641213954361453,73671.1998045808,15759.618839348961
72,1099.984375,0.0,"[15,23]",2,0.4588753708717448,0.8122634564411353,1.4105946052500649,0.9315929614341085,1.0633392953024927,0.6329746206338154,-0.0767212624327045,1.0868781949317414,2.520044302802594,0.5811138737766145,0.3708401027571333,0.33249187198681585,0.9867702777596247,1.1331621211807008,63598.82430148153,21353.854230883975
96,221771.4453125,146230.0,"[1,2,5,7,8,11,15,17,18,21,23,38,42,48]",14,0.45600620947798176,0.507836953643158,0.8226666827442433,0.96639936964056,0.7587811206388939,0.3247571501588995,0.1363225934759864,2.2198734613220896,1.5574807068103396,0.5083461652538211,0.26724161035825755,0.8369296534818409,0.9183517567810836,1.255678694075525,69946.71380209325,18381.63590450399
96,155228.12890625,121023.0,"[5,7,9,10,12,14,16,19,20,25,28,31,32,35,36,37,39,46]",18,0.5033854987608584,1.9847225635738566,1.9771988386529196,1.172867861701929,2.850657801644234,0.328960197767064,0.4820973227013301,1.0625929153623548,3.817942607959853,0.7506678520552389,0.24932022915455443,0.21394470959523515,2.254016241850926,1.9429905932734115,70641.22676420718,24111.227308617716
96,12903.48046875,8667.0,"[22,24,33,34,45]",5,1.919595528572563,0.5179424988558381,1.8042059987155263,1.8154407164915267,1.766807199093877,0.5166755855745053,0.2660951790217627,1.0651025740248126,5.251646709598398,2.7276059039763783,0.6939022058662032,0.31732938646610576,2.3948413350831017,2.12401678556597,80382.43561587515,40953.9497525347
96,6330.265625,4987.0,"[11,17]",2,0.5852055475024491,0.28110039327685143,0.7748141834774342,1.169513345650366,0.5470346162224149,0.25041514245613317,0.20200513598608927,2.8348418455676745,1.4515019408632144,0.591279368261847,0.2829499895343961,1.2815829853068168,0.8704928493355336,1.7456759000245572,73352.71942083791,17379.84229532233
96,12360.4296875,9564.0,"[14,15,16,19]",4,0.6246868416810176,1.5246329122571711,2.031578108812132,1.221873098258364,2.394234717891963,0.33653570438742464,0.4330224229190365,1.0670659769624464,3.5469343075783626,0.8000939719891188,0.3324224955500017,0.2711515850085504,1.9947211827682234,1.7137968906572432,69863.9207804644,25494.591043115775
96,240.67578125,150.0,"[21,23]",2,0.7051422075373717,0.7698104263710563,1.3320911283170749,1.562627073377373,1.184637916851965,0.0372988538133181,0.7671900457857914,2.231524859997079,2.639933887410123,0.7000151963222047,0.49956296094980024,0.5845584119909764,1.1050790082937052,1.7520853098859013,67067.94890688654,21912.35537954652
120,185170.861328125,129728.0,"[1,2,5,7,8,11,15,17,18,21,23,38,42,48]",14,0.436892954823475,0.4800753106484206,0.9233217609583435,1.0125140502713212,0.7228220191178307,0.3014841269742372,0.18536183150414498,2.201324462820075,1.4231647152893045,0.5032673448103503,0.3047659074512534,0.8566314018073682,0.8614724898966847,1.276991568723644,68905.38197085955,17261.070491937207
120,229774.0576171875,191277.0,"[5,7,9,10,12,14,16,19,20,25,28,31,33,35,36,37,39,46]",18,0.4244764210062897,2.2138092483832787,2.1412252779818295,1.2640539895861433,3.0713676719614607,0.37523343113765595,0.5604933541978112,1.1719240650585219,3.7888188669658116,0.6038772871903052,0.23058072828184972,0.2111580572666657,2.3731508005416146,2.1006419836337016,68042.27790419197,21790.796410170828
120,8639.6201171875,4148.0,[9],1,0.6141188776057962,1.8825516660409445,2.081706389901831,1.207380453401492,2.7629821913736623,0.8561193977422377,0.21133293263320274,1.0677968783802814,3.8521408832796697,0.7793245403299113,0.3611507851460174,0.19984136006029396,2.214665522449447,1.873183559167649,70237.23198550104,26349.89160832549
120,180.748046875,159.0,[24],1,1.3920858092508335,0.7898088124547518,2.5410309085722322,2.2495943889543253,2.384610069827001,1.4054993164420846,0.3880426103162864,1.3064606816993165,3.9072870264093464,2.1980413569583876,1.1866305868082936,0.4477576925537319,2.3039875683736213,2.566668057773144,90762.56062587122,53227.58726213761
120,10490.56640625,8908.0,"[11,17]",2,0.5827752813791034,0.24169112591223074,0.9511554408456591,1.3150810343536676,0.5582894365169908,0.2434553137708384,0.20949406600126297,2.6599875663722177,1.3735250943773845,0.5805289680347124,0.3206457981221904,1.2655595067258159,0.7954772899838388,1.8830381025766252,71861.59606342753,17231.29100587021
120,14554.107421875,11464.0,"[14,15,16,19]",4,0.5825056204466286,1.4257072867012974,2.2015226056392065,1.3523463658056456,2.6157064861463257,0.26961456784053617,0.5650928274405245,1.123607960627186,3.7254988389913737,0.709444786598311,0.34523795537918556,0.25452945006577654,2.0434135736653776,1.8325437091607195,68354.44917973783,24974.975823915738
120,21679.892578125,15955.0,"[21,24,26,29,34,40,41,45,49]",9,1.7713165132662245,0.6344194879232656,2.129380582970977,2.1692634627259397,2.1293940485962444,1.0411670761172933,0.08406426236364295,1.3366693588962861,4.855115351288609,2.581569559895342,0.9391009204777281,0.40881042115416777,2.4472466137449116,2.417542593111106,85750.19914424229,49277.02825441744
120,6313.9091796875,5733.0,"[28,31,33,35]",4,1.1134656428951655,1.1687207761195957,1.9951217311421687,1.6598620575278402,2.421938153190586,0.6013513120896741,0.3484072360002206,1.316275346936937,4.57773741300897,1.1680789928394693,0.4767325208295854,0.28901029629044706,2.1907235351393557,2.079351158259225,69790.9193551006,27501.73895771719
120,8.24609375,0.0,[23],1,0.6580372957129317,0.28250627261960926,1.3725881785883414,1.0069026300331583,0.6428509878019888,0.2828801945760282,0.28093715573187916,2.2064321726669753,1.7206990017764134,0.7513575085267642,0.349054344268116,0.8763600194220742,0.8334693401231651,1.5676840351729078,72990.50686878242,21983.158692562796
120,20428.353515625,18043.0,"[43,44,47]",3,2.0220387264194564,0.4974883285671603,1.7954821112235968,2.1464221198705435,1.9864156577772696,0.21042466257767933,0.446658460939668,1.4051393742206182,5.4592781592968835,2.73143985054923,0.6268454274836475,0.32823868661342914,2.481434861739391,2.3025506232783686,72817.88961172111,33278.5763934681
144,126083.86596679688,88066.0,"[1,2,5,7,8,11,15,21,23,38,42,48]",12,0.50140379410699,0.3922575036128788,0.9577430444840012,1.2932080206702117,0.6162932438376632,0.29441713053958507,0.2727296858554151,2.35172808218441,1.3392572468875463,0.5296850998161095,0.30496840612876186,0.965871336934212,0.8678941719553267,1.250844242115092,68672.7747844005,16892.734463605077
144,36804.849365234375,28530.0,"[17,18]",2,0.38605082911178745,0.07091392677323238,0.1334756875598373,2.012044090159265,0.3841760376509158,0.3196850064539607,0.22880493304337435,3.584673811677006,0.963963805415312,0.5163537560987951,0.2484649911036514,1.8060657849058392,0.7997726721791417,2.1861857518741212,72479.96660617524,14475.938792749434
144,199926.31787109375,147003.0,"[10,12,14,16,19,20,25,28,31,37]",10,0.3955508935009826,2.3011844148123206,2.0903579424594576,1.441410105883965,3.1672413057232602,0.36904937176216723,0.683092327131313,1.1992860241161396,3.6852468569012875,0.6538446090718061,0.14455177653523288,0.26069383307476723,2.4238856593916926,2.135541194041651,67457.36034155503,20422.90707823482
144,2215.283203125,1380.0,"[5,7]",2,0.7924213381546845,0.7208629813407801,1.692886072152684,1.8122099136520395,1.1217842249125938,0.4058783479957693,0.5544881973305591,1.6785885180342355,2.227410905343401,0.7827492951718106,0.4999025161843993,0.723250789318477,1.23919166674359,1.7061208582826388,66122.67857259358,20464.49420176774
144,618.80517578125,339.0,"[24,34,35]",3,1.3433782245439747,0.8514457138465406,2.4575706625731004,2.4415037040932286,2.2206373900397938,1.1817188266935632,0.685226498282983,1.4367210956681573,3.9204791670988146,2.199216756045666,1.1042813394686233,0.6206265079262185,2.245135626937467,2.465950917781952,89022.80073825491,50585.38887236222
144,3760.128173828125,3223.0,[17],1,0.9726587396113386,0.13250303326406687,1.122421335781001,2.575887878686895,0.40075506384761495,0.5295168035175177,0.01962098031034598,0.9848254859119852,1.0465336190523842,0.7329135969689279,0.32335361818325126,1.3963980396761757,0.5482640284585557,2.6197327806508905,76753.8607940728,18303.83937548881
144,9151.52685546875,5513.0,"[14,15,16,19]",4,0.6720385203023573,1.330087333943215,2.2980374319693326,1.667578700570576,2.7255032117358815,0.2660796481472638,0.7460340730350707,1.2264069370078414,3.8306892179132626,0.8379657887282065,0.32545271911587603,0.3254229368067,2.125529257447012,1.9408192029713358,68365.57581179758,26244.22307262056
144,13105.55322265625,8318.0,"[21,23,25,28,31,24,34,35]",8,0.9751527953573971,1.2596470670540585,2.3192573954176434,1.8596442770093509,2.752005104157219,1.0894947142279074,0.35763738047484317,1.4438027446813146,4.000351678139732,1.0858394659533124,0.48698867752105857,0.39149883904615623,2.2180955814565713,2.1364036391354437,72496.14036571237,30132.696949158955
144,17778.88134765625,14201.0,"[44,45,47,49]",4,2.0151678924054988,0.4323482158138172,1.8967932648958636,2.4444832573174486,1.8861893029819163,0.873181834953346,0.32869670792128547,1.298771248608253,5.284716007734323,3.1980086630556093,0.7894355314481714,0.43094488778582607,2.39331392325789,2.4181505544567092,79069.78212107494,41379.11047410225
168,195710.0199584961,164148.0,"[1,2,5,7,8,11,14,15,19,21,23,38,42,47,48]",15,0.3536073307005356,0.6182908910351221,1.1451751109508095,1.5288504211143872,1.1320838194249099,0.35778562667231584,0.30866448193083507,1.7121202888234777,2.213671611247293,0.607198401920687,0.29687699032852377,0.5954832799115555,1.0686957599971842,1.2191529724369714,66697.10695116236,20911.3330182643
168,28960.212341308594,19759.0,"[17,18]",2,0.2779680221720384,0.07168886072824865,0.10417144491504216,2.257320763507812,0.3799180627268659,0.37679582577336723,0.31366081500424325,3.616315620731185,1.033037853706917,0.5488519811170322,0.25731558877061955,1.7478332014192395,0.796570498434889,2.1550569402253625,74126.78063041359,15436.232490402814
168,11918.321899414062,10014.0,"[5,7,46]",3,0.5455679336341885,0.48886495903909477,0.9377012012245767,2.4352637076579975,0.9401089498947308,0.4453686686088212,0.8334008905597128,2.412872872878985,3.1022783604677437,0.6215122763421735,0.4583437571764488,0.6013046130654247,0.9921220872448772,1.7205970929248628,64399.86853798263,20496.85703507661
168,166385.61450195312,119396.0,"[12,13,16,20,22,24,25,28,31,34,35,36,37]",13,0.5021003839073903,1.8511927479656487,2.044624509241959,1.707159268654344,2.83753430819506,0.4341933898499051,0.6532372761317449,1.1462134897710379,3.6758734224685603,0.8925094848687968,0.2514433595020562,0.27454135727007245,2.199968388439369,1.9165011866077226,69435.488416848,25379.011969443465
168,41678.46472167969,33155.0,"[27,32,33,39,40,41,43,45]",8,1.6344911263822886,0.3709528680278513,1.8868329902182155,2.7325672124763654,1.8715563219767977,0.46534552025658704,0.6219440432757652,1.202792392620223,4.900509491450501,2.4910573316184648,0.6955360044912093,0.5339287437244027,2.0802080074011493,2.3411517266712947,78469.56881098513,39231.76705661491
168,2769.345947265625,951.0,[8],1,0.6120643417022247,1.3511438165594631,1.7913471042046036,1.52042942684663,2.0513992704298043,0.5257670582989913,0.37674873400789455,1.104214230231935,3.4977764201780412,0.8342503144152317,0.3822274740633129,0.3013106716650652,1.741609411625964,1.5649486006677444,67085.03539402894,24114.158031553798
168,3566.0320434570312,2626.0,[17],1,0.8395211450991151,0.15493710611412537,1.1182534254594478,2.6769388575274866,0.3743639303645301,0.5639950615546525,0.06311025517246183,0.9844303736449831,1.119347305302023,0.7379806785709412,0.34930863135275336,1.4699685394959185,0.5617915185876304,2.4984923280356375,81428.51355984101,19752.720859727317
168,4258.301574707031,2000.0,"[15,16]",2,0.7136586343542968,1.2492559201942992,2.4015834947929418,1.9230187355089234,2.923929907515325,0.2777297911668095,0.9388322025921685,1.287931810990254,3.8492762741077153,0.9048351776913589,0.32389559910074395,0.343845381913511,2.193721579320231,1.9607833537918318,70410.65192875708,29151.980739368366
168,22763.903442382812,17713.0,"[22,24,29,44,49]",5,1.557201835697281,0.4763926230095197,2.0218590521300865,2.577119924877668,1.9154953438971511,1.1652063600774383,0.20851493866307358,1.2385088777741187,4.831662280103967,2.6322682383259783,0.8574937223793913,0.42642383078025103,2.173992725570071,2.196415959613877,83063.26334533154,47930.541446004245
168,15491.808349609375,11468.0,"[21,23,25,28,31,34,35,36]",8,1.018638925328905,1.033866413838819,2.348548001244516,2.1919202086411027,2.4119836220795485,1.138173594466178,0.480170222019797,1.38709893434444,3.721331589610267,1.2636366661824647,0.5894840149619989,0.42672124240332954,2.0438224339520055,1.976446351882197,74032.21907419665,33557.4127028166
168,4570.9083251953125,2733.0,[42],1,0.8003664292847723,0.7211891459618718,2.2968456672734017,1.9074078793076077,1.1930742832174426,0.5158054104384213,0.5973556216771407,1.3559669836336399,2.2079660692837315,0.9432473164195138,0.6131684965404158,0.5328749717513199,1.3358081495962204,1.373199311294371,67018.25008251466,27002.025281479637
