time_in_hour,cumulative_size,size,pcore_ids,pcore_power,AF700 CD48_[R 730_B-A],APCCy7 Ly6G_[R 780_A-A],BV421 CD117_[V 440_F-A],BV510 SCA-1_[V 525_E-A],BV605 CD11b_[V 610_D-A],BV650 CD150_[V 660_C-A],BV711 CD11c_[V 715_B-A],BV785 B220_[V 780_A-A],FITC Ly6C_[B 525_B-A],PE CD115_[YG 582_D-A],PECF594 CD135_[YG 610_C-A],PECy5 CD3-CD19-NK11_[YG 670_B-A],PECy7 CD16-32_[YG 780_A-A],PerCPCy5-5 CD45_[B 695_A-A],_FSC-A,_SSC-A
-1,0,0,[],0,0.0,0.0,0.0,0.0,0.0,0.0,0.0,0.0,0.0,0.0,0.0,0.0,0.0,0.0,0.0,0.0
0,104427,104427,"[3,9,12,23,24,25,26,31]",8,0.2444380295134383,1.7536342701887309,1.8778597497007579,0.7255862889099558,2.539469231013038,-0.1051888325720367,0.39508623728537984,0.6996617378934533,3.812021678473975,0.6110245896655081,0.13147922758480046,0.18608169559596766,1.9634614822603207,1.583685476074192,67829.86070652213,20648.766162007883
0,40631,40631,"[19,36,37,42]",4,0.48481600292879645,1.8508416168442858,1.8837716550663228,0.7680411182840516,2.5412160075804047,1.0860491797888259,-0.3074997486401987,0.8453741283748775,3.767885562304635,0.7549698379808557,0.27800508112032896,0.17645294533730582,2.03500889901799,1.6535546293716712,69141.35276020777,22593.069528192656
0,71295,71295,"[10,13,21,22,32,41]",6,0.31218892145311794,0.13843027182832435,0.3109334562451922,0.5277657010168979,0.3146461086892529,0.21308187083245933,-0.012302106781689748,2.7953997199943936,0.7103556092012066,0.36873112888702064,0.16413497191948956,1.0770460143488354,0.6625882288940318,1.2027017423942776,69518.63216214327,13885.804277999825
0,25930,25930,"[14,17,18]",3,0.35996216112611057,0.31596903243347674,1.3280558667180844,0.6453279970304666,0.49138244805244957,0.2917959001156887,0.07065522988815287,0.9810603504049258,1.325834672580021,0.48661834327034137,0.28550666097184285,0.3660908358657923,0.5862125274585416,0.5871160937524094,69169.22545314292,16988.764211338246
0,12210,12210,"[13,27]",2,0.23227768501228385,0.10221059795250387,0.32618727723178154,0.843339006470103,0.36641739090909375,0.31348033054873015,-0.07485283677314225,3.5022460149877297,1.0141258565110562,0.4448671063882069,0.20354555585585832,1.5254823307944312,0.7674825712530745,1.8944371086814071,71511.8126126127,14782.721048321037
0,6547,6547,[32],1,0.39152406980296695,0.19581666748129134,0.9732275596456366,0.5756288988849718,0.44062711654193887,0.2290388000610939,-0.006509394226367871,2.8507722185733977,1.1922499350847762,0.5184477301053946,0.20717088223613978,1.1411058283183129,0.7548471232625636,1.397912951580873,71872.02932640916,16887.475790438366
0,40168,40168,"[19,23,24,25,26,36]",6,0.3907672012547283,1.8386144237950646,1.9328594887472659,0.7540137369298985,2.5052660228042227,0.6097789187910785,0.0021085856901001954,0.7770617902808179,3.8482883966092394,0.7143814196873116,0.23222224696275306,0.18157239626070665,2.012794482523397,1.6272454088826938,69182.13582951608,22718.53256323444
24,223006.0,114375.0,"[2,7,10,13,14,21,22,32,41]",9,0.3005493051980699,0.1523420033855527,0.4672210158650385,0.5475702969471712,0.28962572408814546,0.2441177355631694,-0.00421993380448038,2.3684131024367163,0.8079790610835603,0.34943809278226057,0.16379012605938348,0.8856479895653033,0.5742457010618521,0.9999844384590548,70957.06856317766,14695.024026259314
24,205017.0,97060.0,"[3,4,9,12,23,24,26,31,36]",9,0.2798755038118801,1.6506404050395855,1.9508085385260867,0.7722979673783259,2.518276498773241,-0.04576163675207501,0.375067939507459,0.7412800953774559,3.9003015730451405,0.627447658491734,0.12099201753999766,0.1907509070320994,1.911273402673924,1.5652300151206877,68153.04892764948,22724.37630050202
24,99308.0,47342.0,"[5,6,19,28,30,42]",6,0.5773414744431535,1.6676663561042377,2.1183986715370238,0.8505972528497199,2.638328525003009,1.1722688046078906,-0.33524841437749986,0.8921688510794628,4.043353457445538,0.7865613035908513,0.27164627016957965,0.17328274413944655,2.0585140281447614,1.663680875468238,71303.51504410527,26760.948966850614
24,21710.0,10913.0,"[25,37]",2,0.42276990902809786,1.2836627341778075,1.7294516407646303,0.814581664854916,1.8226190259327502,0.5431776205435317,0.08553868217410443,0.8443720552740643,3.1885289386457965,0.66562474790419,0.2891146408106886,0.23203602823583724,1.4832147959004973,1.2429523578995856,66079.24237678491,22767.10529709808
24,2943.0,1910.0,[17],1,0.8108125613319788,0.2742322861026203,1.7316097200135983,0.8866511651376094,0.7018979320421344,0.3915328620455305,0.1650829113149852,1.2382393506625906,1.3536830852871233,0.7622608372409115,0.38988810635406335,0.4826942646958893,0.9783405198776732,1.2192417054026488,69361.66904519196,21867.232076112847
24,7440.0,4288.0,"[15,35]",2,0.5396283000000031,0.6846384418010723,1.4323433762096616,0.9643308129032291,1.121106181451609,0.37722863642473103,0.24034047110215662,1.1572045435483966,2.4007321776881736,0.7209202599462384,0.4019787200268814,0.38669856102150335,1.0442910067204285,1.1585789596774199,64876.57634408612,21649.44516129031
24,28659.0,15620.0,"[13,18]",2,0.4535512626748972,0.38087590449773145,1.733534333682273,0.809949927876056,0.5958428305942567,0.36090946829965564,0.08773062448096924,1.4227988207543678,1.6556809941030712,0.5765754904916384,0.33462025314910004,0.5283995582539522,0.7317002199657981,0.8089776663526309,69240.26881607871,22499.670190864945
24,23004.0,12361.0,[16],1,1.2515157187445742,0.5779131464527882,2.7865050306033594,2.0593132915144863,2.096797525691217,1.5515256381498854,-0.539953091245001,1.0549528305512115,4.448786120587747,3.0586257960354657,1.223762343114236,0.4726970225178173,2.2853419797426437,2.3304923119892123,108560.79012345678,83443.76699704415
24,2943.0,1910.0,[17],1,0.8108125613319788,0.2742322861026203,1.7316097200135983,0.8866511651376094,0.7018979320421344,0.3915328620455305,0.1650829113149852,1.2382393506625906,1.3536830852871233,0.7622608372409115,0.38988810635406335,0.4826942646958893,0.9783405198776732,1.2192417054026488,69361.66904519196,21867.232076112847
24,22466.0,14042.0,[27],1,0.14811990207424763,0.061843791507158574,-0.0021790695272660976,1.020441776328664,0.288496189263757,0.35847864648803385,-0.08278292205999449,3.93808425260392,0.9475156377637218,0.3954833561381693,0.19184972589692606,1.7770346746194354,0.726208040461137,2.1460630482951912,74218.3950859078,14226.035431318449
24,46375.0,20979.0,"[4,23,24,19,25]",5,0.46242477748787025,1.5861816899407062,2.017884200194071,0.8165099825552624,2.3782594443342275,0.5779376802803244,0.03842482063611641,0.8126668140377302,3.90669124694339,0.736426034005388,0.24209496327762148,0.19603668396765472,1.902814526469002,1.545106270490566,69617.06229649603,25350.094318059284
24,3567.0,3436.0,[30],1,0.6179702388561825,1.537056171572749,2.2295695405102207,0.8298318278665526,2.4818362980095423,1.0563527350714896,-0.25225974095878545,0.8776369203812702,4.321404078777682,0.7814129904681796,0.2584306652649295,0.17569387832912764,2.020612384356602,1.5643204224838818,70992.75805999445,29075.592935239787
24,50752.0,24466.0,"[34,38]",2,1.8989517034205556,0.38454091249605815,1.9430671861798632,1.0121208928121104,1.805971534678434,0.4799632506305296,0.05460226062027074,0.9486888191992287,5.6876642730532865,3.107857001142826,0.4566389259142478,0.23344987269466877,2.4353843203223677,1.8729786963863402,76998.39974779307,35906.116015132284
24,12732.0,6185.0,[32],1,0.3810553884700041,0.1826357551052462,0.918554627945328,0.6455779048853199,0.3963174798146589,0.2471623887841614,0.0005683092994064332,2.840139495208933,1.2623283144831956,0.47754158419729764,0.1970539236569313,1.1208605863179357,0.7058155735155452,1.388480771127864,72928.65347156765,17344.497643732328
24,11324.0,4424.0,[36],1,0.4589045411515349,1.818048807400225,2.082106664606172,0.8087415424761462,2.608462615153637,0.8438556221299958,-0.10244476280466452,0.8428474259978791,4.044780727746385,0.7652532933592343,0.2419107982161659,0.18371312442600063,2.0559527687212844,1.6660335593429882,70596.08053691297,25729.03426351114
48,358437.0,120334.0,"[0,2,7,10,13,14,17,21,22,32,41]",11,0.2891949719532312,0.1526590339892384,0.44940384042941695,0.5357761470300209,0.28189156311987995,0.24002532724579062,0.010733573481525926,2.344852428638796,0.7998710248774569,0.3367661428228692,0.15685149313826097,0.833100842761771,0.5702499317285844,0.9421665445894267,69988.37160226211,14941.844954622346
48,240950.0,62349.0,"[3,4,9,12,23,24,26]",7,0.21010261270802255,1.7244023043660306,1.973208034696,0.7327474880099527,2.6314635205311956,-0.2242184115750161,0.48019340318322756,0.6756836408923057,3.901642114579746,0.5304765133969708,0.08009504238638998,0.16692974713425757,1.9704836895413962,1.5455212913259995,67252.0398754927,21887.671168292156
48,155455.0,44823.0,"[5,6,19,28,30,36,42]",7,0.5777137484223811,1.7350105492650458,2.167437744408336,0.8005758369110039,2.717559417760762,1.1883157348686135,-0.37645941355376333,0.8687840983178288,4.07661174054229,0.6934971616287692,0.24259959174038226,0.1402499310668699,2.1340081639445483,1.6343723969830466,69992.11553182598,25914.44500337718
48,50586.0,13784.0,"[25,31,37]",3,0.35599433339263387,1.2565091272486564,1.7862332367650988,0.7217730938204356,1.9285680700589292,0.47512625048432633,0.09723405147667963,0.7176223092752938,3.5663933265528267,0.5694247078836033,0.22426089506977664,0.18146582208515905,1.4976890423041915,1.096783392677817,64799.60400110701,22467.424821096607
48,27078.0,21111.0,[35],1,0.30904559402466436,0.8249625815052783,1.1756053756924558,0.6824335108575261,1.1166386343895378,0.49714482033386864,-0.0076132259398753455,0.7280223065588429,3.0356350046162857,0.4673655522933772,0.26189061791860313,0.17416041978728392,0.8745733082945583,0.6918447988773195,59298.9071571018,19271.539700125544
48,41391.0,12732.0,"[13,18]",2,0.4512970775047671,0.3806083992172429,1.9323418109009096,0.8436431985697239,0.5539781257761454,0.4010484520306241,0.07320229269647216,1.2930012648884914,1.6607928556449507,0.5703920726244779,0.3597268695851774,0.4508885459882619,0.6743570877727022,0.7372885356961691,66532.66884105245,24216.320649416422
48,33631.0,10627.0,[16],1,1.2114021384139766,0.5768573845856539,2.7090804312092813,2.0734200819779143,2.0927348639053416,1.5074811254497156,-0.5340672338318893,1.0297945010853162,4.373541727989068,3.08664508661651,1.22819775216318,0.4600234299307139,2.281975730129925,2.345263250869712,108566.4783087034,85291.08215634343
48,3074.0,131.0,[17],1,0.8169029375406669,0.27388672608979014,1.738415522121024,0.8846966428106664,0.6924616297983097,0.39197877813923054,0.16342550032530978,1.2169946600520514,1.346094564411192,0.755021447299936,0.39434663955758165,0.47174916916070386,0.980304229668182,1.2280582869225756,69049.89980481456,21968.593363695534
48,15499.0,10131.0,[20],1,1.4357031168462513,0.34991393347957844,1.3050580140654113,0.8314807332731222,1.0855617132718454,0.6038386560423223,0.013311672172401146,0.91074568920574,5.485151173624138,2.2327988279888937,0.3974728672817638,0.18116462371765696,1.8862952771146513,1.218756716562358,65522.27421123914,27367.868378605
48,32332.0,9866.0,[27],1,0.13630567360510937,0.06185969080167508,-0.05361392304835455,1.070295856736359,0.2646679030062966,0.3909584421316339,-0.10962377653717992,4.079926608963217,0.9515372586910739,0.3774814293269807,0.18528181120871956,1.8408069524310329,0.7370877560930266,2.1727389995669872,73747.19683285928,14201.91315105775
48,11462.0,644.0,[23],1,0.4243613250741505,1.6168903342348662,2.1441906474437356,0.8049027221252825,2.553934926190887,0.4908503237654871,0.12428693578781536,0.7795807598150439,4.167283326644565,0.6969860823590942,0.20067088998428995,0.180845311289481,1.9950390256499761,1.5474761489268871,70431.64264526262,26078.777176757965
48,9857.0,232.0,[25],1,0.42740986283859317,1.4982697586486813,1.8103861710459523,0.8008895361672108,2.0430399522167018,0.6240583875418513,0.013574554631231806,0.8257703104392808,3.4382373509181274,0.6775823063812522,0.2691247319671257,0.20740298589834605,1.6499517939535373,1.359118488282442,67850.86253423958,24018.686415745087
48,5592.0,2025.0,[30],1,0.5743981527181754,1.41837927950644,2.224895820457785,0.7454125506080076,2.5682229710300493,1.1734499223891264,-0.3814047970314727,0.8466490563304712,4.281315914878384,0.6414574257868356,0.24754548068669768,0.13633537929184636,1.9555071494992853,1.3513757263948525,69676.18884120177,27484.394849785407
48,1436.0,60.0,[22],1,0.6395389477715858,0.3412259679665737,1.5628182430362174,0.9193662722841274,0.7072680598885817,0.32563494220055333,0.22820311977715813,1.8983952660167125,1.6768487110027843,0.7522751587743718,0.42076385584958764,0.6861185264623957,0.8659350006963787,1.2980551915041776,69946.4735376045,21618.005571030648
48,72334.0,21582.0,"[34,38]",2,1.982011951502739,0.36238250612436573,1.8877310392346467,0.9825256005612766,1.8850728385406534,0.46600449382034004,0.06881387814859385,0.8952249537561756,5.738920747725835,3.1712337693339223,0.42435614090192697,0.21731195678380466,2.5288426781320146,1.9118151242292674,75862.90176127398,34637.17178643524
48,11474.0,150.0,[36],1,0.45876712576259426,1.8259297199756093,2.08377770010461,0.8069562353146145,2.6128377195398076,0.8436877480390501,-0.10189781427575584,0.8447686227993705,4.044962451194009,0.7611350513334468,0.2411161823252428,0.18254224028238009,2.060899616437148,1.6652659589506718,70595.82081227141,25639.005752135286
72,436442.0,138992.0,"[0,2,7,10,13,17,21,22,32,41]",10,0.28632282322508185,0.18456059821235904,0.3860343630173051,0.6027898263915961,0.30404474748075927,0.2472383084762737,-0.009904911016823892,2.591406711929632,0.813650801098431,0.33045464555427884,0.16126921772424296,0.878342575130258,0.6182572528056424,1.0359581705404128,70180.17353050341,15984.406706962118
72,338152.0,85728.0,"[3,4,9,12,23,24,26,36]",8,0.24136633392675533,1.6778363380077392,1.8702598335097682,0.8034453917173412,2.5528785226317656,-0.14875537627753155,0.4314233663914515,0.6967079912140046,3.7909689100729698,0.5527892773309006,0.12740082532115116,0.17408171984195797,1.9142424134117295,1.5298659265626169,68078.5812770587,22790.549102178906
72,189140.0,45159.0,"[5,6,19,28,30,42]",6,0.614905518562975,1.6877816044728586,2.079379878513247,0.8990305658242481,2.6700766426932376,1.1517331115998826,-0.37282979635190694,0.8861029746854099,4.008506814301589,0.7522109412392944,0.2971661695463754,0.1504975646663843,2.1117606361742673,1.6513858770223104,71708.62641429633,27880.568975362137
72,120298.0,42634.0,"[25,31,35,37]",4,0.3599521531031171,1.1232604763836518,1.4659894072470014,0.795607493225174,1.6390680276729608,0.492702591639105,0.03230127979681985,0.7446162342183538,3.289726641365603,0.5347485275399327,0.2559050276978905,0.1804775617799117,1.272583517681102,0.9980573684516827,63790.550532843416,21681.86124457601
72,102724.0,8445.0,"[14,18]",2,0.3470737171741669,0.31662582958219154,1.3287721445523712,0.7114917220999883,0.48996298136755856,0.3156297128908452,0.07932546760251125,0.8582188511448159,1.374940923318798,0.4683030376542946,0.27391841743894707,0.299752880952848,0.5562035818893286,0.5774278415852143,67944.31057980633,19359.890346948952
72,38198.0,5866.0,[27],1,0.1495892642546901,0.08572759618306014,-0.05237672278653571,1.1173452117911893,0.2753897793601605,0.38667158068484553,-0.10447850371746714,3.995099797764248,0.9823245646368924,0.3806878882402204,0.18776375765746778,1.7675360046599287,0.7467756330697882,2.13285783755694,73832.64547882108,14885.61788575305
72,8099.0,0.0,[13],1,0.40463132707742333,0.20981817039140704,1.038571744289436,0.5790354296826727,0.4001012944807991,0.23977350821089582,0.01283781775527526,2.392292876404518,1.3052316572416318,0.4524446071119852,0.19554237955303977,0.8885663160884067,0.6657812220027143,1.1445014791949624,70928.61044573408,18156.686998394758
72,42224.0,8593.0,[16],1,1.2564162642810006,0.6157076650956812,2.6162820384141816,2.088756490526707,2.086030082488653,1.4612543455143812,-0.47867543453959094,1.0489249231479767,4.36382792224802,2.981877378907717,1.2200589643330688,0.45358169694960615,2.2956940921276896,2.320325874431598,108375.42857142905,83739.63016294035
72,3074.0,0.0,[17],1,0.8169029375406669,0.27388672608979014,1.738415522121024,0.8846966428106664,0.6924616297983097,0.39197877813923054,0.16342550032530978,1.2169946600520514,1.346094564411192,0.755021447299936,0.39434663955758165,0.47174916916070386,0.980304229668182,1.2280582869225756,69049.89980481456,21968.593363695534
72,111626.0,23793.0,"[20,34,38]",3,1.8297489341551219,0.4128890511171148,1.7530837195366664,1.1509933155537269,1.7235299828713577,0.510359553634461,0.04154959139447589,0.9122613326733866,5.548830085007096,2.9056538063891915,0.4733621155107177,0.22910850909285985,2.369852999390831,1.8101704836328454,76376.1337322845,36737.25390142089
72,11462.0,0.0,[23],1,0.4243613250741505,1.6168903342348662,2.1441906474437356,0.8049027221252825,2.553934926190887,0.4908503237654871,0.12428693578781536,0.7795807598150439,4.167283326644565,0.6969860823590942,0.20067088998428995,0.180845311289481,1.9950390256499761,1.5474761489268871,70431.64264526262,26078.777176757965
72,9857.0,0.0,[25],1,0.42740986283859317,1.4982697586486813,1.8103861710459523,0.8008895361672108,2.0430399522167018,0.6240583875418513,0.013574554631231806,0.8257703104392808,3.4382373509181274,0.6775823063812522,0.2691247319671257,0.20740298589834605,1.6499517939535373,1.359118488282442,67850.86253423958,24018.686415745087
72,5592.0,0.0,[30],1,0.5743981527181754,1.41837927950644,2.224895820457785,0.7454125506080076,2.5682229710300493,1.1734499223891264,-0.3814047970314727,0.8466490563304712,4.281315914878384,0.6414574257868356,0.24754548068669768,0.13633537929184636,1.9555071494992853,1.3513757263948525,69676.18884120177,27484.394849785407
72,1436.0,0.0,[22],1,0.6395389477715858,0.3412259679665737,1.5628182430362174,0.9193662722841274,0.7072680598885817,0.32563494220055333,0.22820311977715813,1.8983952660167125,1.6768487110027843,0.7522751587743718,0.42076385584958764,0.6861185264623957,0.8659350006963787,1.2980551915041776,69946.4735376045,21618.005571030648
72,11474.0,0.0,[36],1,0.45876712576259426,1.8259297199756093,2.08377770010461,0.8069562353146145,2.6128377195398076,0.8436877480390501,-0.10189781427575584,0.8447686227993705,4.044962451194009,0.7611350513334468,0.2411161823252428,0.18254224028238009,2.060899616437148,1.6652659589506718,70595.82081227141,25639.005752135286
96,600385.0,102956.0,"[0,2,7,10,13,14,17,21,22,32,41]",11,0.31704549908808866,0.20121505182341215,0.47402952070921245,0.6488549786753555,0.3322634645119411,0.24613141469223665,0.02813856227919853,2.4168998581226884,0.8621105272350246,0.3587030131832074,0.18022098758131477,0.8560314369379651,0.6224368859281982,1.0116677807640075,70246.10770755436,15813.447064799964
96,396177.0,69499.0,"[3,4,9,12,23,24,26]",7,0.2540679979049667,1.739193783579032,1.8797366718512323,0.8685514994358661,2.610689873266201,-0.2028777830590789,0.5281860401790239,0.7578878657948365,3.784771775688655,0.5591938402128317,0.12602217291765028,0.18190688395842314,1.966754083460165,1.6009541921010102,68021.13552275859,22375.156154950848
96,260745.0,60131.0,"[5,6,19,28,30,36,42]",7,0.6314017777330367,1.7740580084335256,2.0655934006557977,0.9813325467755822,2.7136837620970478,1.13305139631057,-0.244869557234074,0.9602149832748283,3.9788436826938427,0.7865134852173622,0.31093861010564927,0.16711425957928228,2.1655248124029254,1.7465166468081799,71723.73953095949,27396.062697271285
96,133873.0,13575.0,"[25,31,35,37]",4,0.3782434534372012,1.1512498781307632,1.501113880483755,0.8256943490995337,1.689841647860293,0.4894158549894425,0.07324903573533925,0.7841937605192855,3.304313775682931,0.5499265875419169,0.2593897441082378,0.18670250589738024,1.3184294767354263,1.0321070252478155,63970.89157634463,21663.688062566758
96,45927.0,4190.0,[18],1,0.47298670050296154,0.4871857553726673,2.0314324245432798,0.9835654895812791,0.6721630526705429,0.4358493174167617,0.10211821876022809,1.0674025749776468,1.810537192392272,0.6204566743745435,0.4168503311559557,0.3495897330110924,0.7360652707557603,0.7132642964487104,66515.0200971107,26270.46504234964
96,47373.0,9175.0,[27],1,0.20971572254238136,0.10043768517932428,-0.011645240010131008,1.2096116132818056,0.31237612243259383,0.3784028690604251,-0.03869827127265424,3.938306229687771,1.0035896323855336,0.4196429310999903,0.20563611808412618,1.7731946779600283,0.7674198542207612,2.14274819424567,73947.16281426145,14883.860426825244
96,8099.0,0.0,[13],1,0.40463132707742333,0.20981817039140704,1.038571744289436,0.5790354296826727,0.4001012944807991,0.23977350821089582,0.01283781775527526,2.392292876404518,1.3052316572416318,0.4524446071119852,0.19554237955303977,0.8885663160884067,0.6657812220027143,1.1445014791949624,70928.61044573408,18156.686998394758
96,48480.0,6256.0,[16],1,1.2926667334777477,0.6371653491130407,2.6087996493605714,2.124811274752487,2.1029473280115654,1.4745704733910763,-0.4257945656765476,1.0906520862004987,4.377079683312722,2.955575169389458,1.2389946017945341,0.4708557189975283,2.3222511264026413,2.3665749920172994,108313.75577557778,82492.52277227683
96,3074.0,0.0,[17],1,0.8169029375406669,0.27388672608979014,1.738415522121024,0.8846966428106664,0.6924616297983097,0.39197877813923054,0.16342550032530978,1.2169946600520514,1.346094564411192,0.755021447299936,0.39434663955758165,0.47174916916070386,0.980304229668182,1.2280582869225756,69049.89980481456,21968.593363695534
96,132289.0,20663.0,"[20,34,38]",3,1.8646266733666546,0.4237268667916352,1.7308728615984594,1.2772310508130023,1.7347884555556377,0.4979419118671975,0.0892502137139135,0.970380894594407,5.528314696588537,2.882133433074544,0.499646690465569,0.24159361416292957,2.3790955672656144,1.870847769663398,76174.79524374651,36238.67090990203
96,11462.0,0.0,[23],1,0.4243613250741505,1.6168903342348662,2.1441906474437356,0.8049027221252825,2.553934926190887,0.4908503237654871,0.12428693578781536,0.7795807598150439,4.167283326644565,0.6969860823590942,0.20067088998428995,0.180845311289481,1.9950390256499761,1.5474761489268871,70431.64264526262,26078.777176757965
96,9857.0,0.0,[25],1,0.42740986283859317,1.4982697586486813,1.8103861710459523,0.8008895361672108,2.0430399522167018,0.6240583875418513,0.013574554631231806,0.8257703104392808,3.4382373509181274,0.6775823063812522,0.2691247319671257,0.20740298589834605,1.6499517939535373,1.359118488282442,67850.86253423958,24018.686415745087
96,12476.0,1410.0,[29],1,1.3903736737736418,0.3293847617826047,3.784892618146839,1.3659460720583643,0.6249874225713365,0.6887951722507211,0.21098597362935712,0.9798390086566204,1.762076282863101,1.0933034137544082,0.7237925903334421,0.2985186132574539,1.0622616538153271,1.2934819454953543,68226.58031420322,38029.394036550126
96,6956.0,1364.0,[30],1,0.5992836436170221,1.5044851751006325,2.164295127084516,0.8796622886716401,2.577774649367455,1.1102969693789546,-0.221602727717078,0.973083872196669,4.182209922800442,0.6760829223691766,0.2714230458596947,0.16390430434157666,1.9959605635422606,1.461827032346182,69675.54686601492,26794.866014951152
96,1436.0,0.0,[22],1,0.6395389477715858,0.3412259679665737,1.5628182430362174,0.9193662722841274,0.7072680598885817,0.32563494220055333,0.22820311977715813,1.8983952660167125,1.6768487110027843,0.7522751587743718,0.42076385584958764,0.6861185264623957,0.8659350006963787,1.2980551915041776,69946.4735376045,21618.005571030648
96,14617.0,2792.0,[39],1,1.0996828009167345,0.3531983532872678,1.002339134295669,1.4039241514674785,0.45353861750017543,0.49229646076486144,-0.005138570021204991,1.0029087322295842,4.701744129506737,0.6943247959909656,0.3489505700896087,0.8952236287883915,0.7451005300677304,2.3841390265444224,77625.13456933727,22474.600259971197
96,11474.0,0.0,[36],1,0.45876712576259426,1.8259297199756093,2.08377770010461,0.8069562353146145,2.6128377195398076,0.8436877480390501,-0.10189781427575584,0.8447686227993705,4.044962451194009,0.7611350513334468,0.2411161823252428,0.18254224028238009,2.060899616437148,1.6652659589506718,70595.82081227141,25639.005752135286
120,687022.0,86637.0,"[0,2,7,10,13,14,17,21,22,32,41]",11,0.3251645172279778,0.20874147575186086,0.5022269107990702,0.6743131091333336,0.34168574128340534,0.2441262879179964,0.04484752129771463,2.40975155764151,0.8615688934284468,0.3667116537287064,0.1917101763538862,0.8647826906401834,0.6244749587160253,1.0230843257799571,70115.31354745544,15696.401081770218
120,511914.0,115737.0,"[3,4,9,12,23,24,26]",7,0.2516307735498542,1.8762558363201371,1.9521619191778279,0.9574773239215975,2.752607272635562,-0.2138059157026344,0.625401357851135,0.8393544401129831,3.801908270520054,0.5427254941357343,0.12613639625795203,0.18159728050413437,2.074973874844214,1.7248782221877168,67578.23328137165,21762.36152166161
120,329131.0,68386.0,"[5,6,19,28,30,36,42]",7,0.6390173773755692,1.8969290679820547,2.1148253953289076,1.048381717866126,2.834484862121752,1.1860421498126807,-0.19050498768272606,1.0231086513029402,3.9816349754991225,0.7668578812266277,0.3174562497151481,0.16204562472085482,2.2507609282778134,1.8394366418933477,71062.10057393581,26548.83595893424
120,150381.0,16508.0,"[25,31,35,37]",4,0.39018885605228393,1.1670034287509696,1.5265031084046536,0.8532780207340096,1.7090199001336823,0.4945064732579396,0.10359470965744944,0.8075652812522871,3.3076980443207606,0.5565999832492042,0.26867700036575304,0.18811214610223503,1.3357308546093152,1.0344317431324477,63649.35314966641,21477.03148669054
120,59144.0,13217.0,[18],1,0.4549102813810353,0.550309754683509,1.9910861658663346,0.9985446404199703,0.7315200882929798,0.4191019023400562,0.13964859698365428,1.1020148682199187,1.8468368890335545,0.6194902952793037,0.426415026071965,0.3649343450392314,0.7688747846780689,0.7142490507743766,66430.41363451941,25456.39063979431
120,58842.0,11469.0,[27],1,0.21824662174977383,0.09383208634988272,0.0002808769076509954,1.3301478183100546,0.34475960365043656,0.3825551428911238,0.007379057832850755,3.9754749533156426,0.999190513255834,0.44389540284150386,0.22099596747220218,1.8174014238808862,0.781121295724143,2.2136952908296754,73687.01594099452,14634.278372590872
120,9859.0,1760.0,[13],1,0.4396342838016045,0.2564463663657466,1.0794569934070606,0.6868150131859214,0.4506671992088447,0.2517023133177858,0.054421394360477215,2.3822694375697653,1.3623406455015736,0.4804592345065356,0.22943739253473883,0.8954822429252491,0.7110483785373759,1.1962533706258196,70564.47591033578,18298.384826047208
120,58897.0,10417.0,[16],1,1.3516793921252568,0.6784884242151672,2.6037448996892665,2.1749617212082195,2.1623372549026523,1.4924086484710648,-0.4243719788613918,1.127370653021353,4.3919113456543135,2.923009550927912,1.2493937860162547,0.48820320826188657,2.3597832467867614,2.453631211351994,107564.9511520118,80562.38001935573
120,3491.0,417.0,[17],1,0.8173360274992854,0.27566681924950265,1.7723901999427167,0.9432889931251807,0.7110312606702958,0.382345086508161,0.18233111314809358,1.2387792520767689,1.355647156402179,0.738900900888,0.41083385591521315,0.4849503678029229,0.9931064969922624,1.2591544316814656,68469.58693784018,21744.453738183907
120,85313.0,12366.0,"[20,38]",2,1.8892793583744705,0.42819773123672356,1.704015096456574,1.378393285536799,1.5687873313094118,0.9273331088579624,-0.13596783969616055,1.0746113194706965,5.508520263723028,2.7957454933948918,0.5536719109045438,0.24003930688172126,2.336435033922156,1.8225990230211198,75179.16378512088,35799.92995205906
120,11462.0,0.0,[23],1,0.4243613250741505,1.6168903342348662,2.1441906474437356,0.8049027221252825,2.553934926190887,0.4908503237654871,0.12428693578781536,0.7795807598150439,4.167283326644565,0.6969860823590942,0.20067088998428995,0.180845311289481,1.9950390256499761,1.5474761489268871,70431.64264526262,26078.777176757965
120,15163.0,2687.0,[29],1,1.3930637629097207,0.34178760720171564,3.77015266800766,1.4208649895798975,0.6508870142451944,0.7002625192244314,0.255453545208717,1.023913082635354,1.7579545135527375,1.0702099532414437,0.7535346709094499,0.3189185249620772,1.07537272307591,1.3334391264921213,67294.55859658375,37213.09819956462
120,19890.0,3077.0,"[25,30]",2,0.5404806597285077,1.5118916834087535,2.030930255505272,0.913380648516847,2.363430210206132,0.8968474460030176,-0.03695362408245417,0.9261490459527382,3.8065427376571113,0.6965072966314713,0.29337263851181117,0.1876933984414294,1.8633461487179463,1.4459803790346943,68677.2898944193,25684.059125188487
120,2601.0,1165.0,[22],1,0.7252882133794665,0.44740557400999226,1.6799282299115776,1.1524898650519053,0.8278542349096489,0.35628373663975155,0.3129769004229237,1.8499806689734761,1.7921112383698583,0.725344376778159,0.5009741564782879,0.6731228631295647,0.9966773102652847,1.44389766051519,68857.15955401763,21397.923875432538
120,72871.0,13529.0,[34],1,1.9182318150293132,0.42907653454736705,1.7667023830330062,1.4719098115162481,1.9824330842859141,-0.03066288833692199,0.4444832812092492,1.002764393627095,5.541366553388802,2.9563370915864815,0.49769843497414534,0.26366171988856746,2.469950891054067,2.0814144241193455,75708.12334124645,35273.02240946358
120,18291.0,3674.0,[39],1,1.13185824066481,0.35982254901317834,1.0253413830298963,1.5025383773440542,0.45204483975725696,0.48141434754796864,-0.028908755836206,1.0190707479634633,4.65508749417745,0.7073799644633932,0.364349221420357,0.9281163363949496,0.7562184397244563,2.4615193282488588,76801.32961565821,22009.14898037289
120,11474.0,0.0,[36],1,0.45876712576259426,1.8259297199756093,2.08377770010461,0.8069562353146145,2.6128377195398076,0.8436877480390501,-0.10189781427575584,0.8447686227993705,4.044962451194009,0.7611350513334468,0.2411161823252428,0.18254224028238009,2.060899616437148,1.6652659589506718,70595.82081227141,25639.005752135286
144,771073.0,84051.0,"[0,2,7,10,13,14,17,21,22,32,41]",11,0.34121827550568384,0.20433384064283766,0.5125855083448632,0.763547110019422,0.3452993125099848,0.2454497824473183,0.07000764383787672,2.4592728226678773,0.8699717341950733,0.37822376385375545,0.19878441642231248,0.9083167156948848,0.6392787338332427,1.0620973016238353,70066.24761079648,15613.932439600316
144,606942.0,95028.0,"[3,4,9,12,23,24,26]",7,0.2593321007213305,1.9428190521878381,1.9633603684536545,1.0614149975450715,2.814785884628088,-0.20688949229580156,0.6962530276088907,0.9023482563374676,3.784880522250886,0.5595712068451403,0.11643180414436127,0.20305835777388082,2.1259098335046764,1.8010787279113984,67403.3948812243,21324.488046633356
144,382926.0,53795.0,"[5,6,19,28,30,36,42]",7,0.6458442622647731,1.9477596770472791,2.1127072082282035,1.1332217199197663,2.8820810804724597,1.2079313620360013,-0.13875579927453696,1.070223395039739,3.958299684437742,0.7794497487608639,0.30914765913779485,0.1793371315345509,2.282388062798041,1.8982608287371316,70767.70459044311,26015.656037981076
144,165809.0,15428.0,"[25,31,35,37]",4,0.41775535707349487,1.1451437478785915,1.5290656980019137,0.937216182800698,1.6922914401812097,0.4960836033448288,0.14846849407447626,0.8765430663775886,3.305959033291344,0.5832682776568087,0.2765524546194973,0.21351896438070672,1.348250610310676,1.0643236583177114,63509.94795216166,21338.982371282684
144,67958.0,8814.0,[18],1,0.46385168705670465,0.564929483960706,1.9612469227905192,1.0569994783836854,0.7537616672797927,0.41201794562818184,0.17985037559965722,1.161927550457627,1.8586642919891871,0.6288876661614394,0.42652126183817796,0.39999156333323804,0.8004210710291638,0.734499008931984,66449.09573560182,24890.952176344068
144,72945.0,14103.0,[27],1,0.2325658079100612,0.07781957999862099,0.00032878260336310916,1.506632851902094,0.3547412835286692,0.38614071559392493,0.049106584426625854,4.006219954938666,1.024047962615664,0.46436724606209623,0.2248653742545641,1.8653195574062709,0.8004914197957332,2.2550614463225642,73650.98855301936,14593.658235656894
144,14211.0,2454.0,[11],1,0.8600870602350283,0.1415518602490895,0.9446072641615673,1.357656180845805,0.434222479487715,0.34922821975933593,0.0361509231581123,0.7059910389135116,0.946060300964045,0.6041384457814415,0.23820755682217998,1.2471410245584307,0.5106325398634873,2.46520234951797,79074.89353317839,17383.842938568705
144,10798.0,939.0,[13],1,0.4574007100388977,0.2632188243193103,1.0948169519355653,0.7892025462122558,0.46454179144285446,0.2632396347471819,0.08974007538432449,2.3952493395073446,1.3806946992961584,0.49690423606222744,0.24408497008705998,0.9138818579366583,0.7279594125764014,1.2269303542322607,70398.40563067238,18379.39766623445
144,67014.0,8117.0,[16],1,1.3728012384725525,0.6539037189393269,2.5681091547139157,2.2511038161428867,2.1722470321425607,1.492043218864725,-0.38991422226698,1.170581524442622,4.4222758967082125,2.913564816053377,1.2582257925955798,0.5134390517653071,2.3556486651445914,2.5017005935625303,107268.6901244523,79369.31912734665
144,4513.0,1022.0,[17],1,0.8604972530467581,0.3041279231110181,1.7751069904719734,1.1759830099711932,0.7241761114558005,0.38081168225127415,0.2571399499224447,1.2895525493020181,1.3975335801019342,0.7580430502991403,0.4400528291601953,0.5385742563704861,1.0320095568358,1.341703104808333,68346.66784843785,21300.995346776017
144,29838.0,2407.0,[20],1,1.4986444952074571,0.44715369391379856,1.4268068066224173,1.3510603981835434,1.1287250266438917,0.6676278151685817,0.12734098786783132,1.0999182593002241,5.261677550204465,2.138229708559543,0.5220687235069352,0.23871520587840733,1.8964854453046485,1.424922613747579,68035.09725852925,30649.498759970407
144,11462.0,0.0,[23],1,0.4243613250741505,1.6168903342348662,2.1441906474437356,0.8049027221252825,2.553934926190887,0.4908503237654871,0.12428693578781536,0.7795807598150439,4.167283326644565,0.6969860823590942,0.20067088998428995,0.180845311289481,1.9950390256499761,1.5474761489268871,70431.64264526262,26078.777176757965
144,18039.0,2876.0,[29],1,1.3788942404235318,0.3541175958201368,3.736659678973339,1.5624374090027118,0.6764230947945951,0.7166170819890241,0.33693107788678933,1.0949902189700023,1.7761070387493834,1.1017136589611414,0.7669816719884714,0.3656200701812683,1.1048890606463804,1.3672062608237736,67219.6622872664,36619.20062087697
144,21715.0,1825.0,"[25,30]",2,0.564166482339399,1.5044376929772114,2.0523379199631457,0.9834442927930076,2.403737045912956,0.9224484066774148,0.011025200322358764,0.9520400794381687,3.8131277982500547,0.7168031521068389,0.3011693120884176,0.19834242951876568,1.8984031192263395,1.4816379011282528,68782.77025097859,25777.511213446913
144,3556.0,955.0,[22],1,0.7905131164229451,0.49669697075365304,1.705831560179972,1.3706499136670387,0.8840345216535477,0.380341379640043,0.40392110517436564,1.838921960348701,1.8743531870078773,0.7683678332395935,0.5161523163667114,0.7057324586614171,1.083660642857144,1.5488717904949418,68131.95950506178,21342.470191226133
144,156507.0,25754.0,"[34,38]",2,1.9984115186669278,0.41235960156414153,1.7939886418115303,1.6299001184100441,1.9096646944801159,0.45396513780213565,0.2245752239133023,1.0778028723635393,5.533595035813105,3.0362676073338273,0.56061763296848,0.2811579667427051,2.47449954561137,2.1290638137016233,76544.74588357052,36387.07738312043
144,24406.0,6115.0,[39],1,1.1564879239531252,0.35190131316069095,1.0284277621486626,1.7094533839629515,0.442790613373762,0.4781657809964768,-0.043789699991794606,1.0428292313365457,4.579777659550917,0.7228607800131072,0.3730531557403878,0.9705203234450599,0.7549922519872169,2.5144800392116538,76347.24575923973,21595.34278456111
144,11474.0,0.0,[36],1,0.45876712576259426,1.8259297199756093,2.08377770010461,0.8069562353146145,2.6128377195398076,0.8436877480390501,-0.10189781427575584,0.8447686227993705,4.044962451194009,0.7611350513334468,0.2411161823252428,0.18254224028238009,2.060899616437148,1.6652659589506718,70595.82081227141,25639.005752135286
168,720157.0,45362.0,"[0,2,7,10,13,17,21,22,32,41]",10,0.3425592241302928,0.19044458904653938,0.4528425527516937,0.8252210993811122,0.3339410774720095,0.2439035509798544,0.07604093779273935,2.697241880598238,0.8271041505449507,0.3767304489965445,0.19630643445942741,0.9918516149311938,0.6618131408345657,1.1433450465384527,70159.07120252904,15678.457580777402
168,673040.0,77560.0,"[3,4,9,12,24,26]",6,0.2558605985914706,1.9378034809119757,1.9648590271558217,1.132988975475465,2.8373608055746007,-0.2430183392042049,0.7507101311318749,0.9050164882057046,3.752859818245557,0.5755459170301992,0.1143007747741458,0.20395489799119715,2.1254451317217398,1.8009996700745974,67353.59942945445,21428.094044930007
168,17771.0,6309.0,[23],1,0.4538838830116414,1.4233729622418556,2.041871357661353,1.2213380413032437,2.4541378605030446,0.50125314107253,0.28218620178943565,0.9032797761521429,4.127649084688556,0.8023502510832267,0.2739517104833631,0.2155750220584115,1.9190762284058343,1.5834366412132113,69864.70631928419,27930.037926959558
168,429029.0,46103.0,"[5,6,19,28,30,36,42]",7,0.646945594190605,1.957318462302096,2.111564375466449,1.1919118143878302,2.906109147780206,1.2337753321803386,-0.12232202818224458,1.0829870533903079,3.921370708805252,0.7851863576261818,0.30901766450751866,0.18071858535903162,2.279414991525056,1.8978722187381118,70735.19964384705,25957.933622202527
168,220676.0,54867.0,"[25,31,35,37]",4,0.4167025726948024,1.0589612258197438,1.4951820833710934,1.1174424137921988,1.6433677428674023,0.49874522334101457,0.20416140372760072,0.8972250422157209,3.333850554944817,0.6364485527152789,0.29688610512699176,0.22436602532219763,1.32900129845566,1.0628123475004123,63234.53881708955,22072.78841378303
168,195088.0,30852.0,"[14,18]",2,0.35581497765623626,0.4226646820307023,1.354200751706904,0.8927190428370722,0.6331034860832094,0.3155758345003359,0.16501783363405265,1.007183948208009,1.5028895170640961,0.4979239549690374,0.30754419501456276,0.36000092111252313,0.6620562734458287,0.625554481833841,67489.64520626588,19306.073976871943
168,93214.0,20269.0,[27],1,0.19168988311840685,0.06709088752762904,-0.04643533335117933,1.7042113224944604,0.3559406272662744,0.400869831688375,0.12388287896667016,4.0834314894973,1.0504719541592435,0.4827671099941977,0.22776557316497925,1.8775519091230835,0.8083234637500792,2.266660602302227,73826.74980153175,14669.903490891786
168,17424.0,3213.0,[11],1,0.8181606263200163,0.14629639990815946,0.9392886982323341,1.5198850727731634,0.4103932972910802,0.3435176848599635,0.014184577307176482,0.6811187378328696,0.956768895374201,0.5983852164256264,0.2488947224517868,1.2864687082759354,0.49359062654958785,2.4773988727616887,80074.91276400365,17889.274563819967
168,11943.0,1145.0,[13],1,0.4446816140835721,0.2666098868793343,1.1141492640040331,0.8920318643556895,0.48413755572301387,0.2562928048229136,0.11109472050573554,2.3733095166206386,1.4003892312651693,0.49971213137402015,0.24894278698819772,0.9062504724943456,0.728957286778866,1.2500030377627018,70290.594992883,18487.618856233777
168,78585.0,11571.0,[16],1,1.382866678920901,0.633779095361739,2.5532077445059316,2.3625887122096736,2.1998285451804347,1.5211491129096049,-0.3423165368836183,1.1974492487242658,4.475906802074228,2.948063355920349,1.2822131757969144,0.5262237143475217,2.337442207380537,2.525800995877062,107940.67834828522,79754.02287968436
168,43720.0,13882.0,[20],1,1.3775267183211517,0.4188914355672626,1.481741065713623,1.685239423856387,1.1684992000457628,0.7375334429322984,0.16376370004577723,1.1056852949222211,5.134169857502318,2.08205616255717,0.5630649315187513,0.25046710528361926,1.880857706838992,1.4651196324108013,67854.62104300062,32884.308142726455
168,23496.0,5457.0,[29],1,1.3075635480933003,0.3791683959822678,3.7285526694330904,1.7163315543071231,0.723748842441243,0.7469856577289686,0.42859724267960786,1.1215053665730412,1.826336863636369,1.1368762656622362,0.7675173848314598,0.3681473495062938,1.1348247863040477,1.3557415781835267,67131.20054477357,37179.543752127785
168,24530.0,2815.0,"[25,30]",2,0.5814561358744403,1.4708865041174168,2.0757947139013306,1.0868119451691851,2.4550096582144216,0.9607391702812966,0.06114145059111609,0.9731498182633445,3.8015500153281674,0.7291284371381989,0.31239694847125943,0.2079635310232374,1.9162497028128853,1.486616601997553,69008.30656339182,26075.627231960865
168,4083.0,527.0,[22],1,0.7700514673034518,0.490192243693357,1.708611177075674,1.4257358314964454,0.8862455459221183,0.37287231373989504,0.4287265633113071,1.8231614974283596,1.9006075664952276,0.7631968447220184,0.5060895814352286,0.7251563387215287,1.0815492436933654,1.5761815608621141,68807.97844722014,21771.348518246436
168,16531.0,7867.0,[33],1,0.5921973096001363,0.3616500450668463,0.5840651520174145,2.4800779021837758,0.5092134473413599,0.5327701609098028,0.9185043556953545,3.090225525739532,3.700678152501371,0.5732966941503829,0.5010426266408539,0.621739857782347,0.7989805053535765,1.8745172210997405,61877.5894985179,20448.98530034465
168,181031.0,24524.0,"[34,38]",2,1.9881223132447092,0.40035338823184263,1.8347363229612497,1.7642551941159281,1.957503239428585,0.4540491291546678,0.28522775953290314,1.0601693239831955,5.491191565654512,3.0563243758195955,0.5765907907319585,0.29072214307494915,2.4796160776993923,2.1638135577552915,76564.11801293668,37046.835425976904
168,11474.0,0.0,[36],1,0.45876712576259426,1.8259297199756093,2.08377770010461,0.8069562353146145,2.6128377195398076,0.8436877480390501,-0.10189781427575584,0.8447686227993705,4.044962451194009,0.7611350513334468,0.2411161823252428,0.18254224028238009,2.060899616437148,1.6652659589506718,70595.82081227141,25639.005752135286
168,32255.0,7849.0,[39],1,1.1123757691830762,0.32896702610447237,1.024396562982496,1.9636099202604282,0.398006793427379,0.4952398584715545,-0.07773548231280447,1.0076340100759622,4.516158886560246,0.7383300165245695,0.39036693774609343,1.0472155444117237,0.7205798302898744,2.5375522597116693,78760.82467834454,22185.33064641127
