time_in_hour,cumulative_size,size,pcore_ids,pcore_power,AF700 CD48_[R 730_B-A],APCCy7 Ly6G_[R 780_A-A],BV421 CD117_[V 440_F-A],BV510 SCA-1_[V 525_E-A],BV605 CD11b_[V 610_D-A],BV650 CD150_[V 660_C-A],BV711 CD11c_[V 715_B-A],BV785 B220_[V 780_A-A],FITC Ly6C_[B 525_B-A],PE CD115_[YG 582_D-A],PECF594 CD135_[YG 610_C-A],PECy5 CD3-CD19-NK11_[YG 670_B-A],PECy7 CD16-32_[YG 780_A-A],PerCPCy5-5 CD45_[B 695_A-A],_FSC-A,_SSC-A
-1,0,0,[],0,0.0,0.0,0.0,0.0,0.0,0.0,0.0,0.0,0.0,0.0,0.0,0.0,0.0,0.0,0.0,0.0
0,126453,126453,"[2,3,6,14,17,20,22,27,35,48]",10,0.29159187206313963,0.1849095012138946,0.5362411838548762,0.5238227405597273,0.3305185662103658,0.18860774793005897,0.03176004807319366,2.369706968296523,0.8682990242066223,0.345294562683369,0.18515351646856892,0.896057266019789,0.611158309356045,0.9915134171273112,68892.1836255368,14245.129241694498
0,8762,8762,"[7,42]",2,0.21029770828577443,0.007886841360430275,-0.5578836685688233,1.0931141325039908,0.14123385174617953,0.807951706003198,-0.38831246507646133,4.147628568477525,0.8217070490755599,0.374731890435973,0.24254919401963138,1.9293929011641184,0.7993761051129916,2.2880170745263646,72443.66126455166,13069.717416115029
0,130540,130540,"[10,11,12,13,15,18,19,21,32,33,34,38,40,54]",14,0.25424212831315973,1.9469060672820655,1.965381765573769,0.6800995846024271,2.732363373854755,0.2258616436954184,0.18648366730503518,0.6457593502374861,3.871866522567798,0.5518287163091776,0.12457769678259467,0.1334477064577897,2.0814438038532184,1.6039650418875433,67423.12829783972,19460.577662019285
0,6211,6211,"[24,28]",2,0.901147885686693,1.1260427037514078,2.7438998040573135,0.8640144946063435,3.2914374643374704,1.5842165466108573,-0.7129478393173436,1.0069474137820027,4.7121761449041975,0.7050216702624367,0.25938782015778505,0.08560730091772806,2.3095742373208927,1.6864541513443883,72922.16261471584,27281.270004830087
0,3061,3061,[25],1,1.0040002090819986,0.3295294684743517,0.7547479513230968,0.712553575955563,0.860234328977449,0.3966573626265899,0.2619018899052503,0.7356890147010811,4.77949721071545,1.7641943417183938,0.3590538663835363,0.15367892910813552,1.395991038549497,0.8950793449852994,56999.0774256779,18045.930088206456
0,1780,1780,[14],1,0.5561908668539346,0.6528120803370792,0.341167908426967,1.0133010578651693,0.7993996325842643,0.6253182466292135,0.15924161853932706,1.4765439539325849,3.1354297331460645,0.5753368162921347,0.4426877280898922,0.24118327471910028,0.8593174910112363,1.112335644382022,59165.59101123594,16802.265168539358
24,199054.5,135828.0,"[2,3,6,14,17,20,22,27,35,48]",10,0.283819620470775,0.16992903711044338,0.5893282714532941,0.5845320897342186,0.30293123732696037,0.21192179501845043,0.026702586640845904,2.3015891605464835,0.8804961478288568,0.3337283144239418,0.1742090420914817,0.8531179725753455,0.5615149649392491,0.9767859674310282,70785.89471727595,15339.65083934295
24,15497.0,11116.0,"[7,42]",2,0.21908209492160347,0.028987928050591805,-0.44020625572691285,1.1300179780925221,0.10764908101568382,0.8367618621668835,-0.29681688523584704,4.079618257178822,0.811993730593019,0.38646743472929945,0.23075918842356913,1.8737058324837137,0.7089762092985715,2.205212411918434,74548.96509001777,13855.41149899978
24,180408.5,115148.0,"[10,11,12,13,15,18,19,21,32,33,38,40,54]",13,0.2800853950451332,1.8152970050191746,2.0148786847626368,0.7293033683695618,2.678288502257368,0.23900620216065205,0.20363507708617234,0.7065967476449369,3.9191433031647533,0.5696668836279873,0.10201323007507401,0.1419877464864452,1.9829670138352626,1.5512812117333667,67285.1232619306,21612.89970261929
24,8324.0,5515.0,"[24,34]",2,0.8433143274867934,1.1657872397284867,2.700041978736183,0.892798407676592,3.364680820038432,1.6895581057784914,-0.7968389271984664,1.0624585494353784,4.673721390377227,0.6103709687650146,0.21047410691975,0.08336929084574818,2.2613618677318725,1.7029980442095127,73401.2570879384,29562.095146564112
24,6935.5,4905.0,"[25,28,31]",3,1.226978397880467,0.41116060976137137,1.457026532405746,0.9243812854877071,1.2505335840963183,0.35728709609977627,0.35539410330906307,0.9911250915579344,4.898556332636427,1.7277635222406449,0.39579267976353627,0.23017779431908425,1.652461521447627,1.2921656396078145,63746.97137913625,24809.119457861736
24,3060.0,2170.0,[14],1,0.5569876828431373,0.4851746037581717,0.46732826160130436,1.1226780168300676,0.6320740075163362,0.6413553227124178,0.18227414264706754,1.4992826254902019,3.13064142826798,0.5350825478758178,0.39162080359477214,0.2909976632352943,0.6798164506535972,1.0789124897058833,60660.047058823504,18831.92679738561
24,12902.5,7916.0,"[13,15,43]",3,0.7380308339856607,1.2675818410385515,2.817578556403793,0.9717075076535475,2.3073892353032313,0.5483723696957923,0.13859803534199333,0.7259584624685109,4.466865638054636,0.851013540902927,0.2626325947684598,0.17046587622553855,2.0311475696957944,1.5680436668475084,69862.64553381126,31524.589498159265
24,13711.0,9353.0,[22],1,0.43361148497557034,0.18062104365108045,0.9395341335788876,0.6505330929910338,0.28155933969074276,0.4871771911239098,-0.07168336248266449,2.829738244985773,1.3502879784479567,0.4508346666545039,0.22730213547516032,1.0474050015316139,0.6647003887754378,1.284041274050034,73351.38443585452,18290.652468820626
24,59123.0,37276.0,"[21,32,33,38,40,24,34,25,27,31,43]",11,0.57265921038344,1.1264289310843458,2.2439641565718893,0.8628800582768137,2.375566843140566,0.49364883269624715,0.09733282321601111,0.8300279750435555,4.0361749296128515,0.6807039557448039,0.20686398356816005,0.16632509202848367,1.8223791763780621,1.4166067168191752,68157.49782656494,25845.06686061263
48,278733.25,169655.0,"[1,2,3,6,7,14,17,22,25,27,28,35,39,43,54]",15,0.3556409638274247,0.33673213868366725,0.8914243180486969,0.5786152130217612,0.5271718047703264,0.326677852037744,0.007116446029491463,1.7277198526485495,1.5910133977485637,0.41864001068315404,0.19880851739700178,0.5407172571383223,0.7073130370381019,0.7731575622212292,66713.27417163184,18070.801556685434
48,25917.25,13040.0,"[20,48]",2,0.08029645803470298,0.08904032011498764,0.3517110981971543,0.8933429776210744,0.36175193276678375,-0.10343003535290074,0.13008199319951474,3.906991630863587,0.8517028593793671,0.3149101455208422,0.13784308699803605,1.6776358298527003,0.7073927800499681,1.9439940090769647,73128.96237062177,14403.062053265634
48,18484.5,9446.0,"[42,44]",2,0.3506084445887103,0.06517075306337983,-0.2920040079255526,1.164296569815261,0.12637725916309162,0.6264719200140714,-0.23403980117125167,3.4852991018556194,1.60102484803484,0.3523542231328952,0.20252723429088748,1.7444110872623066,0.6499093789391114,2.2301761883199442,75107.80773080209,14920.19021342203
48,169312.5,89494.0,"[9,10,11,12,13,15,18,19,21,24,32,34,38,40]",14,0.27827335899741423,2.0108769444990777,2.0184903803351824,0.6654895656758915,2.873847509232919,0.36324463017497366,0.0842448347213014,0.6889363373274393,3.977531395918787,0.4712105637445543,0.08723227141528422,0.10079862752602431,2.15737534813142,1.5842804080088533,66534.91795348839,20791.05332447389
48,11964.0,6435.0,[33],1,0.3038446547350391,0.954934484244415,2.8918853274197303,0.8534633894600514,3.533357377528439,-0.8390819304371442,1.0783526298896686,0.6681002693706328,4.763948192932985,0.24552358429454857,-0.09074924928952521,0.1249681261283867,2.380889618940151,1.5435894470912783,72036.01604814429,29580.91474423277
48,1531.0,1215.0,[31],1,1.2582345024493822,0.5775730362508127,2.1216666846832166,1.8365278257674733,1.2796757898432398,-0.09187231482691027,1.6255850703788455,1.0655564781188769,2.2084475648269097,1.1201014144350108,0.9730039387655092,0.5128854278249508,1.7707303946766793,1.7810624392553869,58639.90594382765,26795.621162638792
48,4687.5,2736.0,[49],1,1.9163510827733232,0.18744134213333474,4.300270773280012,1.3164415297599965,0.5700107053333272,0.5554041978133311,0.36093806154665886,0.796707072853331,1.479709124160005,1.0338792533866665,0.7438632219199968,0.187598923946666,1.1106049770133302,1.3914284192533337,60612.63189333319,36965.71733333332
48,40813.0,21784.0,"[7,14,22,25,18]",5,0.537833663795853,0.7107820565383594,1.1493144805209101,0.7770045098559288,0.9712458581150498,0.7238872626675235,-0.12107879764412788,1.6540142901955264,3.065775454616173,0.6826558730367777,0.28573347437090657,0.4657082411976573,1.112182419069904,1.1542718899064022,65983.26572415652,20659.06921814124
48,60072.5,34639.0,"[35,43,13,19,21,32,38]",7,0.4083419691456125,1.6695549913937286,2.3543655589204673,0.7545377762578549,2.1298973899787774,0.5228932903491614,0.049504710370805505,0.6628721592908606,3.475610550330854,0.5917614285571594,0.2069087317324909,0.14052975856673133,1.8251315882641803,1.3756825526031076,63902.031178992016,24270.597827624923
72,393962.375,230899.0,"[1,2,3,4,6,7,8,12,14,17,18,22,27,31,32,35,39,54]",18,0.2777034833539007,0.704426608066937,0.9341542521871471,0.7057972761320217,0.9803476107623186,0.24903915448144143,0.059132789192123614,1.5473657906268992,1.8550993166987024,0.38176642844288167,0.20009284788934067,0.4613686355521269,0.93766885374365,0.9665371968547747,67879.2066069761,19226.999573246034
72,41166.25,20901.0,"[20,42,48]",3,0.1679406309324991,0.1251430491270229,-0.03086631039686205,1.1095470339021616,0.3092017479488667,0.2456577918531586,-0.05576070210427053,3.869197503230822,0.8652798037500354,0.3487138819026484,0.17151186830230714,1.570096846327388,0.7520763394983739,1.9929562789329844,73558.52408222767,15537.4766465247
72,4401.625,1086.0,[4],1,0.7342888767500602,0.12650500255587227,0.7024045375287389,1.1123331739698439,0.2774381687161007,0.3938538358844794,-0.14637194700820055,0.48271417945076855,0.883207369380622,0.4368210444154149,0.18217365546815367,1.231625646465785,0.35657181060971954,2.3099484001079076,81934.05480930349,17463.12146082412
72,123572.125,59868.0,"[9,10,11,13,15,19,21,24,34,38,40,43]",12,0.458103444868732,1.8618421640813025,2.010827812337316,0.9125813978911093,2.793827224098887,0.5452477792169961,-0.01465944306715894,0.809703808606729,3.953335982852122,0.6342013123054658,0.2313835100371544,0.13615488273953413,2.157284965939941,1.7005089178050874,70470.24716941628,25906.248613916727
72,9110.0,3128.0,[33],1,0.38516251708288207,0.9384556172063796,2.805770294360595,1.027084998106484,3.392844066341944,-0.7668411809961577,0.9713430317233822,0.7208665802826668,4.645563500891901,0.37637035227771476,0.007921971212965229,0.14892809665203166,2.29601855878156,1.5824946681119723,72896.41712403952,30567.65137211862
72,30543.0,13641.0,"[7,8,11,25]",4,0.5985718196804468,1.6622296424057854,1.6102794172355348,0.922546978317448,2.2649404907957726,0.8909228983564177,-0.22586647445815355,0.9222408736453556,3.9581709054939007,0.8550829083709891,0.3059556793536986,0.14950637618275497,1.890984752516947,1.5272256536685966,68105.21481190441,23996.843793995224
72,57785.0,26890.0,"[14,18,22,13,19,25]",6,0.42172053352730376,1.2333915967746818,1.3058795308059925,0.8541384041273776,1.612876330594014,0.6176111412650311,-0.03402363368304684,1.2949179121722723,3.2526618158496956,0.6465959690468986,0.255182238537246,0.34254989320109097,1.4828153498853478,1.3622361714566946,68060.70973435996,22590.41785930601
72,15984.75,6251.0,"[31,15,21,24]",4,0.8319204169990144,1.1334740295516084,2.623296677903942,1.1196540897026899,2.9840590824770454,1.0097334218473881,-0.23598215848699233,0.9883830812102148,4.242867580475143,0.6507807053832569,0.3497683210716551,0.15376952479707306,2.2181017310483484,1.6578845082031322,75096.26813056193,32129.605530271052
72,24914.75,11753.0,"[35,38,43]",3,0.6678825170431149,0.8711042907514628,2.6784635545309317,1.030301173095261,1.3242521409305845,0.5524279124213576,0.010370312545780802,0.8734926142847117,3.018122514910836,0.7312274157075652,0.3681262348257568,0.22460751951655233,1.3243864892934925,1.0513939512086212,65097.292808476974,31905.661987376974
96,314479.375,119699.0,"[1,2,3,6,7,8,12,14,17,18,22,27,31,32,35,39,54]",17,0.33711990076098175,0.654049177688313,0.9279481957528959,0.7634755683272179,0.9069407769398579,0.25042171507611033,0.12910646179539542,1.763962325346447,1.7109689785415192,0.41779077461121306,0.22744159144418763,0.5850844148403989,0.929120074062885,0.9883986665868392,68245.12240270132,18345.413997340795
96,30626.8125,17369.0,"[20,48]",2,0.2768482809384727,0.1505142986762089,0.29906036770681554,1.104694874505375,0.4383551330839639,-0.10326751858155081,0.19576713182486438,3.8060534762228624,0.8957952509116792,0.4131834318132186,0.19602052412817983,1.6584992568949866,0.8051182843035823,1.9984795142307907,73790.30645125083,15148.96778762068
96,14381.3125,7056.0,[42],1,0.31474760456060746,0.0825258682013632,-0.5826570516512368,1.5611554733964836,0.14248945670814672,0.8511458801048251,-0.22900258592965628,4.236798417212471,0.7851893624799594,0.4418760253758077,0.24826700835719917,1.917121049956323,0.7725389272884583,2.264234226213696,74244.10198999572,14096.274175253397
96,151999.25,91714.0,"[9,10,11,13,15,19,21,24,38,40,43]",11,0.4062159136040129,2.3047624919530953,2.1164999035352783,1.028075911863065,3.116609490783675,0.4828892253465087,0.2794285456721015,0.9537461920338548,3.863909953210294,0.6054481240293957,0.18194652224189722,0.13956701370031543,2.3939370538621256,1.9641053256500405,69755.35747709294,22842.814974415993
96,10876.0,6321.0,[33],1,0.39059991893274004,1.0098568349921844,2.840639456584467,1.181091135562247,3.542680875982661,-0.7686188417099546,1.2143088527491557,0.915353855111031,4.530534766234138,0.4329466198625468,0.02516480653503317,0.16418717067396305,2.3791819293168315,1.7003946011631197,71554.07539536592,28419.99006987864
96,10869.625,3600.0,"[8,25]",2,0.6825299477615376,1.0786104120427265,1.460269879032162,1.0429720183251412,1.61399429944111,0.3307608879618664,0.30456659516196893,0.8349764029807849,4.269663924594924,1.0500572879296701,0.3225968719309513,0.18405550748070842,1.6196188598560197,1.187302853007807,65743.97589613235,23840.07911956486
96,23032.6875,8903.0,"[13,15,18]",3,0.4176345286182952,1.7801390648263493,2.0563009372033805,0.992918215169754,2.6488728322764152,0.7024104688771062,0.2317972952624352,0.5943078891602398,3.8205008633409627,0.6186284671106018,0.274469191211951,0.14995606066921152,2.0919030625442616,1.618391391101777,70469.0156543825,25049.57287333488
96,6250.0625,2163.0,"[7,14]",2,0.6464361431585688,0.6491653298066993,0.7275061531484708,1.3797247320326744,0.7458471418585786,0.7029161261687358,0.14961791727082385,1.4365853245867521,2.9874979720502735,0.6445391586684167,0.48069048027519345,0.3092438217917829,0.8573182541074594,1.1639920954190488,62719.323526764645,21618.6561334387
96,4395.9375,1478.0,[25],1,1.1949783612141964,0.3748818903675257,0.9278817299637439,1.2484731413947574,0.773359689642438,0.4651214799886245,0.3113904742304494,0.9479019919812326,5.088663686727809,1.7405819539631806,0.4306371412952372,0.20330544488519287,1.5033456721546896,1.0021209102296131,62830.07344849628,25688.88843392333
96,11304.3125,5534.0,"[31,21,24]",3,0.9331301598670871,1.2358511734680846,2.5204201325379336,1.2107137521687106,3.0894324293549515,1.418885998590152,-0.416543324234663,1.1946646154233078,4.0107692122475225,0.7106205840193739,0.36892199332113673,0.15596504074772322,2.250389280611941,1.7886689532589848,71384.4451840833,28616.83450453097
96,21260.9375,11027.0,"[50,51,53]",3,2.1266924589461222,0.39026205311971873,1.8253375641184806,1.595965374286751,1.6553651364973878,0.1398299708238402,0.32730738108326074,0.9914749610141902,5.625392550437281,3.1356103288454418,0.5114252414257403,0.25102227611376493,2.5169184523142594,2.003174014895281,74409.51726611311,34604.47273315213
96,22291.375,9834.0,"[35,38,43]",3,0.7280120489539113,0.782029779365343,2.7798314180540467,1.1375806452131139,1.18074438365176,0.5579722152402014,0.11528978392988654,0.9851879045090306,2.863360476425855,0.79455842211394,0.44550208906191635,0.2749644944036659,1.270957022707778,1.0242496257380949,65180.978921219496,31327.16128996072
120,220229.90625,99767.0,"[2,3,6,14,17,20,22,27,35,48]",10,0.3278281748840055,0.28141270949534736,0.6373258533881532,0.7928925235960147,0.42667140478806465,0.18122335794100208,0.14256367923989854,2.418142496905416,0.9787006680399492,0.3892349256413393,0.23595765561046633,0.9144657333607444,0.6558609865487143,1.0678654204825997,69315.01322382291,15847.827942305168
120,13836.65625,6646.0,[42],1,0.28306619331576544,0.054662126188818494,-0.5662267137743262,1.8250597189620907,0.16333167129432935,0.902596619066659,-0.19903036210654212,4.33202543278611,0.7678797102985023,0.48826675878384285,0.27085840325854793,2.064636826608682,0.7781380784736204,2.3754604318646293,73660.65945303778,13449.352693140678
120,188218.8125,116748.0,"[10,12,13,15,19,21,32,33,38]",9,0.16263881239139422,2.3986927722199205,2.1702117423612095,1.0997732589090807,3.2623893014963286,-0.22197207835145938,0.9320794429701311,0.8873937555968152,3.799399693866109,0.45229238161949437,0.10452208131162033,0.14986657963553573,2.423488334233505,2.0152014833876715,67145.62820865752,20003.463660148183
120,75891.96875,49968.0,"[11,18,24,40]",4,0.6645728464964464,2.4337514306944676,2.2575340599326164,1.1486375762722947,3.3883009686462304,1.5396496253300913,-0.4457588206986629,1.285472347223437,3.945953707965264,0.599538690143023,0.2713126786863338,0.10253788535348418,2.5636773836357825,2.1446638635375215,69071.58004120151,22039.12518740653
120,22051.34375,8093.0,"[31,54]",2,0.44678853020721365,1.285091947209835,1.5904403541975136,0.9624065421707599,1.7985386381385489,0.6270958312036039,0.19556222616960195,0.8160846797191024,3.1392680027067645,0.565959068146353,0.3550799478404798,0.20061268491149487,1.4185251748660401,1.0790104473876956,63488.29113872021,20670.45524153136
120,24676.34375,13160.0,"[13,15,18]",3,0.3880798721017016,1.913462197629812,2.2082117932192147,1.0947245748889065,2.8527324774169966,0.6735275824315541,0.4960167813581524,0.4163575511832618,3.826005607147779,0.5840880863795436,0.27897758531513883,0.1502720720148214,2.225610177112943,1.7657461670337165,68897.97877775138,23388.621663207243
120,16465.1875,7256.0,"[14,22]",2,0.496549226694202,0.35822586737547546,0.8101948855653718,0.9770934594333571,0.4292737491430807,0.5046864870389358,0.07802095994010783,2.6309344046378005,1.9408124495735333,0.5044497128752728,0.3232185617325194,0.9057207373948031,0.7361941671917595,1.2661355297540648,68989.85401775691,18748.236665996075
120,9091.03125,2245.0,[32],1,0.32448474361750623,1.8461377634619076,1.5371434847153798,0.9924231751210932,2.36757732954182,0.18587499282602948,0.20980922096983612,0.8768239253282015,3.233451023928128,0.5581949892613939,0.26587379786052523,0.18455428100497473,1.8448409353827517,1.6439017742830417,67362.53975587222,20814.23930865927
120,21451.75,11537.0,"[21,31,38,35]",4,0.5441660958590127,0.9440298347352241,2.434288219262409,1.1279755493767936,1.2458397253269058,0.5460940355288562,0.21243889511490677,1.0151711305094508,2.1726292733430896,0.6741441640950075,0.46943210226438703,0.3132755708421229,1.1608062643505233,1.0434580389172772,63681.90054424469,25882.653116878562
144,201668.953125,91554.0,"[2,3,6,14,17,20,22,27,35,48]",10,0.3663333827126787,0.2323645212796479,0.6284708238586822,1.0433285572198208,0.40053621290902885,0.17032228048279707,0.21638816074866574,2.656269995740387,0.9727393513370005,0.41220387371219946,0.23953189274548503,1.0794885551842999,0.6962270326920373,1.190102399190256,69577.99486023388,15395.88248408029
144,190482.40625,96373.0,"[10,12,13,15,19,21,32,33,38]",9,0.17204907407221026,2.486284395337888,2.1826926544686747,1.2636248336586786,3.3355325545357473,-0.17418035834338053,1.0478590955103022,0.9074118327722096,3.73233462189198,0.5004469409447495,0.060462389928724214,0.17971615897842563,2.4838283740733447,2.0774651594035656,66538.17870384027,19078.08293449679
144,73258.984375,35313.0,"[11,18,24,40]",4,0.6841020291335975,2.5074206281578,2.2220012746011144,1.2733168793642,3.4217009006009254,1.573601441587708,-0.41947341749850375,1.345900708553684,3.8579401067751253,0.6382485748236931,0.2296519277424065,0.1307244914486818,2.5841305689270335,2.1797721997756345,68423.62781527439,21243.26228758217
144,15574.671875,4549.0,"[31,54]",2,0.5690780307099259,1.1754988168661114,1.6974154802950268,1.2264783977240707,1.7280474564492283,0.5598268193390967,0.414022413996479,0.9132372413333556,3.0104232020317543,0.6926870247186147,0.42010318861251905,0.2857571731537296,1.4538887208819613,1.198538334252618,62748.29298771346,20745.275379998857
144,20637.328125,13719.0,[42],1,0.24124448098598528,-0.018973407877398873,-0.6156732827075337,2.618790908161714,0.19670445915434254,0.8845176413174343,-0.06580884708837154,4.475296797892026,1.0359464408319603,0.528752509952012,0.2672647822309413,2.281016125988329,0.8400025602363527,2.4989490473391247,72496.41905860821,13150.967283949103
144,8101.984375,2160.0,"[15,18]",2,0.6658880861613787,1.3060028766313052,2.4414074497914204,1.3128750798492712,2.747538306194262,0.7045805656291744,0.34641409236356724,1.0098278775280733,4.007709832253685,0.687972704615191,0.30569921585568727,0.19694510516906705,2.10680578086194,1.644707607734989,69873.65882200931,26759.29994002238
144,16782.59375,8550.0,"[14,22]",2,0.5359923385054863,0.3050391461000368,0.8201967136448958,1.2240146920255945,0.3832839578944345,0.4912766667492152,0.1890000587764864,2.8130931749617716,1.9665294320361637,0.5316139002295933,0.32480553509216437,1.0386484519368098,0.7660537516502363,1.3022510634213655,68769.68186160113,18002.766229147368
144,5462.515625,917.0,[32],1,0.33937657161163415,1.8182112368271213,1.579421612481108,1.0579733157513926,2.372677023112059,0.18521509916733603,0.24957122574591661,0.9016692687177814,3.2090013466895138,0.5794210101658736,0.2637152563665395,0.20115306671891675,1.8603426291200624,1.6552105726871573,66917.18433299694,20367.406088655323
168,199664.4765625,98830.0,"[2,3,6,14,17,20,22,27,35,48]",10,0.2852391517695716,0.26224903442220127,0.6580994702052729,1.2694271567813398,0.5117148657038388,0.17942355292830592,0.27899510537607775,2.508439672494153,1.2411910512095456,0.42835242106791316,0.23729441409265473,0.9638536702495377,0.734921369071036,1.1781252591644267,68662.80856779535,16383.353673211033
168,185874.203125,90633.0,"[10,12,13,15,19,21,32,33,38]",9,0.18678453169657971,2.2575468711475652,2.114194850844472,1.3575636851800552,3.18702336859629,-0.14807546372563607,0.9869344703337273,0.8330502763094909,3.6034966042471566,0.5659533428587679,0.07493862667030493,0.17550582063381226,2.314978441512862,1.888850117080305,66804.37991252332,20439.919494611164
168,59023.4921875,22394.0,"[11,18,24,40]",4,0.6900782124380627,2.33714344684432,2.1783992973876845,1.375563284106697,3.331319352147147,1.5697152832054428,-0.3968843336092287,1.3245873918093136,3.7843858275852438,0.696143609728496,0.24157261298247423,0.12918712393383613,2.463227606173104,2.0555210791459375,68492.93497676443,22474.355292060063
168,48733.203125,37643.0,"[25,28,31,54]",4,0.6535931883499984,0.7784070725075125,1.5291883645280104,1.7242048391710223,1.5911495913515274,0.5645641009354185,0.3320112217865092,0.9061119107705369,3.795523080872574,1.0767299243077386,0.44008094840593204,0.2434624888568997,1.5066249834188072,1.2298108195873574,62991.47207964267,26532.650494641504
168,20610.6640625,10292.0,[42],1,0.1748903386759353,-0.015034313308273095,-0.6421775237993093,2.752656370857808,0.19998150263916248,0.9192436252736329,0.026092394545073283,4.517158899495295,1.1891861238610981,0.571709347533229,0.27647065025652395,2.195716898009026,0.8559134913957348,2.457842655344919,73004.82106919031,13809.770545814847
168,11196.9921875,7146.0,"[15,18]",2,0.6016437011816094,1.241902472041538,2.066558349343255,1.5005252488600904,2.478549739565939,0.9379692893376068,0.108574633745115,0.9960188487079811,3.843226260554769,0.8009323208799791,0.3467995506410415,0.18615491039934795,1.8840644682598198,1.4863936030281535,67909.78445522842,27228.093928684815
168,32467.2890625,22877.0,"[14,22,25]",3,0.5461520153702804,0.3273417033588717,0.8876684770448051,1.8183193132171747,0.664277491290878,0.5400012455673517,0.254405446464502,2.1257410848312803,3.1510425652915557,0.8396782926156715,0.3961729622969097,0.6549293743671818,1.010067423195891,1.2705568918502834,65846.91117526208,23211.900138913854
168,14725.2734375,8569.0,[52],1,0.7705098174604268,0.1696877515740156,0.19851578934389646,3.735170609866112,0.5380695757103573,0.3679463447744751,2.0268500650003944,4.025928804989305,4.392424514628584,0.5505932595834632,0.6614067614634709,0.513003322126341,0.7522443768048651,2.2963871771215953,59276.96023471544,19586.557168134044
168,37157.75,22499.0,"[21,32,38,24,35]",5,0.5878504053734566,1.3229418757129592,2.3098006541590466,1.3683847685825188,2.2694229823646697,0.8812522952998949,0.010459302562845885,1.0459831495683973,2.9296984774327903,0.7011100560196065,0.3248752122067402,0.20416352840907215,1.7377481646819528,1.3643437633642612,66402.90578681436,24948.781586613815
