time_in_hour,cumulative_size,size,pcore_ids,pcore_power,AF700 CD48_[R 730_B-A],APCCy7 Ly6G_[R 780_A-A],BV421 CD117_[V 440_F-A],BV510 SCA-1_[V 525_E-A],BV605 CD11b_[V 610_D-A],BV650 CD150_[V 660_C-A],BV711 CD11c_[V 715_B-A],BV785 B220_[V 780_A-A],FITC Ly6C_[B 525_B-A],PE CD115_[YG 582_D-A],PECF594 CD135_[YG 610_C-A],PECy5 CD3-CD19-NK11_[YG 670_B-A],PECy7 CD16-32_[YG 780_A-A],PerCPCy5-5 CD45_[B 695_A-A],_FSC-A,_SSC-A
-1,0,0,[],0,0.0,0.0,0.0,0.0,0.0,0.0,0.0,0.0,0.0,0.0,0.0,0.0,0.0,0.0,0.0,0.0
0,116159,116159,"[2,3,6,24,25,33,40,47,50,52]",10,0.2808679387477562,0.15561908175001626,0.42340019060943135,0.5390021337046607,0.312768574557281,0.18129547311874128,0.03557334425227321,2.4101458816622223,0.7895493362632263,0.36332605567368936,0.18384768140221475,0.9173437258585269,0.6021219623274997,1.0391203497361365,69236.57014953639,13998.824094559992
24,185328.5,127249.0,"[2,3,6,24,25,33,40,47,50,52]",10,0.26934871864554166,0.14477296334076506,0.49225525590775776,0.6055337676962735,0.2787690958595084,0.20671998068295272,0.035913539388172655,2.344239360859234,0.7984071161666971,0.3409272226802683,0.17391262896963466,0.8810994631910376,0.5487202261767613,1.025890013384342,71053.7965612413,15019.749687716612
24,23534.0,16519.0,"[3,21]",2,0.22434921636781047,0.1611868261239069,0.09709760869380002,0.8885272002421916,0.3036804635633472,0.5221999584006138,-0.1364924709356612,2.2629534192869896,1.2400161651227957,0.38929254574232974,0.22341239678762825,1.025430537286476,0.5892281851788924,1.2963567490226948,65684.62717770028,14082.115747429238
24,170762.5,109643.0,"[10,11,13,18,19,20,29,31,35,42,44,45,49]",13,0.22656605522875561,1.8706701711529172,1.9720302036102795,0.6824497836293055,2.697619969445864,0.16029660766562026,0.2482569920942863,0.6303448445560407,3.8789878888309794,0.5272053927413817,0.07314861948026596,0.12116953625649718,1.9701832192723794,1.5103566228416634,65669.96946050801,20053.049117926894
24,9817.0,6877.0,[21],1,0.15385116349190597,-0.01638281251909879,-0.6805775173678312,1.2403650523072107,0.03778226474482693,0.9399528933992085,-0.5095981340531797,4.398665195426309,0.7513330408984368,0.3678953420087624,0.22297979683201996,2.1317637442701365,0.714436894010395,2.3987963715493654,75755.34358765397,12953.056942039273
48,244313.25,142856.0,"[1,2,3,6,7,14,24,25,30,33,40,50,52]",13,0.33947562545522647,0.1801105920053394,0.6420791770861785,0.5871042801127175,0.2734999611114026,0.3014229945357041,0.025143850198463102,2.118084225220083,1.1498752861766581,0.411832635009563,0.19080837858671362,0.6895286319325724,0.5807490301999613,0.8414621876330901,68288.9645977041,16742.10845297993
48,15953.0,7992.0,[47],1,-0.07039511573058466,0.056538138406577954,-0.2186038052403867,1.0476962470695148,0.42341200109696997,-0.3822101429511656,0.34069978710900184,4.127925473907736,0.7599018981852897,0.270525973609979,0.12129587480409842,1.8276251795430394,0.6834384037171709,2.082679147887539,72794.96521030524,13320.527048204083
48,35459.5,22048.0,"[3,21,26]",3,0.2849324130698381,0.24350174391910828,0.3707832281123551,0.8234780448680792,0.3720568106431368,0.39061086118671384,-0.07440869808514128,1.6598965092147377,1.77050039908909,0.367068693509497,0.2208306436427585,0.7720349225313359,0.5378130224622476,1.1397197369675283,62108.18855313802,15962.645835389689
48,20095.25,10431.0,"[14,21,39]",3,0.8085633495726576,0.12117642299797149,1.1621922888120353,1.5289267465570155,0.2131273889849563,0.790611567074307,0.1966617834065203,3.0392917965190795,1.8360819351961286,0.5853318538460587,0.43999723641158495,1.074084855513115,0.7611452534305351,1.8411445348900897,65525.38654657189,22348.9312150881
48,74628.5,44218.0,"[44,45,49]",3,0.1026752057558451,1.3927658138244698,1.6213247107338433,0.5587694225161939,2.030517902131899,0.01853287120537561,0.3031263707631746,0.35411651641799935,3.5131000342262104,0.35499885715242663,0.10209634440595217,0.10887981131538393,1.449053087322537,0.9354055348459351,61282.5712428898,18375.633759220593
48,30000.25,18226.0,"[24,30,33]",3,0.7561077945267132,0.3164393925050679,1.9453104850459746,0.865799235673057,0.568671366896945,0.39972409933250064,0.10720496180865657,0.7821347728102284,2.7675216167781884,1.151344085157623,0.36454746029616114,0.286909416438196,0.9281595295122559,0.8149098432346398,63554.61171156906,26423.230473079344
72,321571.5,181066.0,"[1,2,3,6,24,25,30,33,40,45,47,50,52]",13,0.27108166282692614,0.3651479168221483,0.6140866057999608,0.679288005181589,0.5440688185415206,0.19238449880158903,0.059563330820294524,2.0372068729901303,1.3317130751524173,0.3883591315768813,0.17945564100479938,0.647129707970078,0.7161378875502814,0.9302898396258681,68249.30953147283,17694.416352195407
72,61561.25,38242.0,"[8,28,38,44]",4,0.3474117045686238,1.4121865698044616,1.5006451080651608,0.8194994727486833,1.9068037942090243,0.5243295725192352,0.0066468488009898685,0.7126538353448812,3.355049074584254,0.48290193397023295,0.2652980488030172,0.17516203639870864,1.4833178524152721,1.1650160049625378,65687.77014761741,21731.15224268496
72,9821.75,5151.0,[21],1,0.2397550633542911,0.06686709363147969,-0.6976430257337047,1.4479446760633268,0.08563596291394537,0.9428709820678585,-0.5035264570468634,4.3251095920151625,0.8107555383842021,0.3775143963779368,0.225598832272762,1.8896396053529072,0.7694025021635714,2.3183785834881747,74844.32000407249,14900.968971924516
72,9821.75,5151.0,[21],1,0.2397550633542911,0.06686709363147969,-0.6976430257337047,1.4479446760633268,0.08563596291394537,0.9428709820678585,-0.5035264570468634,4.3251095920151625,0.8107555383842021,0.3775143963779368,0.225598832272762,1.8896396053529072,0.7694025021635714,2.3183785834881747,74844.32000407249,14900.968971924516
72,81867.5,47101.0,"[8,24,28,38,46,49]",6,0.2871934476990252,1.4112381091977957,1.9167080656075304,0.9030682747870009,2.0999036632103754,0.019328354545453452,0.29541816010322774,0.6355560097382953,3.198390338614205,0.4809794273872382,0.22496866378903757,0.18791335872446369,1.5960430455828063,1.331665760487983,66976.50540202188,23737.939182215076
72,3027.625,1214.0,[33],1,0.47457639581355227,0.2330569759712704,0.9086392156806036,1.0174516484042697,0.6998850301391388,-0.257148626316007,0.6197039670533835,0.4402528825812273,1.0588006716072833,0.5137380172990383,0.200836587630576,0.7360666615333828,0.5730629909582584,1.831017333636103,76172.18380743984,18255.492011064744
96,229321.5625,99286.0,"[1,2,3,6,7,24,25,30,33,40,50,52]",12,0.3930620309159194,0.22776265120675765,0.6129137741375659,0.7081620851083876,0.32380393412524944,0.28422273209126225,0.04704933005510492,2.336424871220646,1.008688175301062,0.4335212994182577,0.22457698015205185,0.823996825138825,0.651512213244776,0.9413919435993972,69881.36294422825,17043.63358330074
96,18915.75,9962.0,[47],1,0.12036762336611506,0.11447335971347039,-0.2484398279343849,1.308940474677177,0.4847725618267891,-0.3935262581248399,0.36968120475995336,4.071104835722249,0.7374483959101615,0.3680869659807282,0.1701633783322194,1.8227815881111007,0.788198519150708,2.147480026912096,73598.94986981736,14056.273317209208
96,30116.0,11581.0,"[3,21]",2,0.27285717852635627,0.3436023255827352,0.2512040742836126,1.1763546642503133,0.4898528040555732,0.5337259442281472,-0.07131005139709279,2.160995659348454,1.4470063258400887,0.4324546742657538,0.2683645661857543,0.9378632351428684,0.6747160124103432,1.244633960168592,65319.069464736305,16252.939832647051
96,124826.5625,73328.0,"[10,13,18,19,20,31,35,42,49]",9,0.1620605932821777,2.2946986177992024,2.091666074434761,0.9690004459747876,3.1817016326177465,-0.24631394642266102,0.8173653954426845,0.7483988951405163,3.8384725540492313,0.4946835147787513,0.07848617841604932,0.13692486056503528,2.353986430122305,1.8883630339836597,68277.1706382607,20920.62538371979
96,74934.625,37486.0,"[13,18,29,41,44,46]",6,0.5334428863259175,2.009939712001457,1.9799303195101996,0.9296976618902777,2.831713221760807,1.232688965287242,-0.2764233918565675,0.8433828658489029,3.775755757065751,0.590956615533211,0.26599334676393527,0.10401830206329987,2.1500317395521433,1.6499141389327685,69352.56629361943,22588.21905093929
96,11129.875,6219.0,[21],1,0.29117346311166026,0.06921313675468443,-0.6462616653825812,1.8613306013825297,0.11191807081167271,0.9807885225182253,-0.35167177023551055,4.4456306160390415,0.8027937836285312,0.4767159715910987,0.2709355749671478,2.1496116711048026,0.7821020394939296,2.443596387038245,75310.82424555537,13892.154943339392
96,6080.0,1854.0,[20],1,0.29028632908100316,2.1192161150596247,1.8425339708676005,0.8604929890213819,2.679611156208885,0.08551094187911445,0.12355957824835784,0.9330487017886537,3.67497613849713,0.5300301467208065,0.17383380079152433,0.13994069133429432,2.094411038034541,1.7159284466282945,67648.26381578931,21625.463157894766
96,36998.0,9992.0,"[31,45]",2,0.18746251695700122,1.2135131130061048,1.5455078033390488,0.7863393350603554,2.0073983239195283,-0.20130930949139003,0.5022753823027659,0.6336256881115139,3.295965847517113,0.4018405258916039,0.17048120462761274,0.1536895115529906,1.3773286487495837,0.8952989319304321,63791.186226282116,20349.95459214016
96,12178.125,6420.0,"[35,42]",2,0.5776990155401542,0.8716397641826936,3.1312073212471057,1.291137603387213,3.453097717469839,-0.5962775569001788,1.0887342414421308,0.9874445932050318,4.700066340995634,0.5005299273749023,0.11187542283808005,0.16427102296638474,2.4077847927431324,1.749575887677702,73938.6251988709,32110.27477546826
120,198049.65625,91287.0,"[2,3,6,24,25,33,40,47,50,52]",10,0.32443666279068983,0.22492927018793463,0.5525066507261691,0.8016499397409764,0.35087672873391895,0.18569709403812973,0.12120327195737923,2.4894244248236888,0.8293783386642809,0.3864457280289051,0.23958870591639636,0.9564916122127782,0.6202369937372066,1.101345286260599,69403.54663705706,15651.742702784933
120,18385.0625,8892.0,[3],1,0.2854291609492756,0.5212670127940169,0.8688045150274912,0.8521654900411746,0.6931502032849459,0.2699578584873581,0.1368159732357599,0.822958650922474,1.7924726654162324,0.4386404178902039,0.32938633406367046,0.23967629682044989,0.6102589514432567,0.5505819429836079,58728.74971189232,16983.802693083013
120,170896.625,110824.0,"[10,13,19,20,31,35,42,49]",8,0.09831646744797351,2.564369472270168,2.251574714588599,1.0867206374833258,3.442210213007398,-0.24458175860333886,1.0182153262712634,0.8610507732331714,3.8571665480562785,0.4109767817770662,0.06597630232987894,0.13066016999823582,2.542340059427568,2.094008119799572,66701.30483852461,19267.429816124135
120,75972.84375,51888.0,"[13,29,41,46]",4,0.5716831727858418,2.616138814885768,2.298712250312708,1.1119490130424943,3.5007800184716698,1.4737223085600972,-0.3017937126292245,1.0028573668848093,3.955619301168906,0.5536248940908616,0.24677298026966987,0.07703937701670627,2.660880588318364,2.200847008658115,69042.53797923667,20754.49913641008
120,9036.0,5996.0,[20],1,0.34503075214766055,2.266410046567181,2.021879220942598,0.9737224430749221,2.9181777027307807,0.0555010791625179,0.1443375868609067,1.0994579775827495,3.6577605935182693,0.4508913299060697,0.14643186646814366,0.1308133451368133,2.2206089844649104,1.8415156460546724,65689.84882691459,19341.807879592754
144,163427.890625,73711.0,"[2,3,6,24,25,33,40,50,52]",9,0.4080659994896436,0.2102460938597286,0.6551544685635871,0.9306403431577581,0.3157397706781109,0.2619732713889049,0.13354254592388415,2.4899463388014684,0.8453401035022635,0.4071694498994899,0.25463439890825423,0.9866773525245485,0.6475460689189704,1.07650382493866,69194.34938402206,15558.336996678083
144,37835.46875,19335.0,"[3,47]",2,0.15503294600015516,0.2308558737151407,0.2884979380021315,1.6205044808079445,0.6178279468054408,-0.19244089107402162,0.45161500218505024,2.911675377291072,1.216848005493354,0.4361445637872846,0.24115227598773448,1.3681364199890977,0.7609813590690798,1.630569756832421,67165.30157961877,14437.603260829077
144,177445.3125,91997.0,"[10,13,19,20,31,35,42,49]",8,0.10456168899018214,2.630135695131444,2.2393393907448034,1.224707868965957,3.4755865093576612,-0.18933040990270067,1.1118643566733764,0.8773136621154443,3.7619560817018525,0.4502560317254457,0.021307116078808086,0.1561689141453768,2.572651550951713,2.1182744926562744,66141.17153418768,18365.54186800507
144,80070.421875,42084.0,"[13,29,41,46]",4,0.5468142848258317,2.696783711467278,2.2356065084939893,1.2144209598236322,3.499661081400211,1.4634038708137387,-0.18877497152135803,0.9747057774439902,3.834524322931759,0.5814135176047187,0.19518551012847007,0.10045408800144173,2.6585415790262563,2.2041052969438795,67802.24427286373,19457.65644187828
144,12870.0,8352.0,[20],1,0.375333033815322,2.4499164150264425,2.1223093118274012,1.1349185310654777,3.1264503177107916,0.08631043913414116,0.29854062722900787,1.218741148307617,3.5675731912599367,0.4701378451061117,0.06826777441359555,0.15919147399597067,2.3971293026272282,1.9308143602078476,66020.66332556336,18301.736130536105
144,14421.921875,9015.0,[40],1,0.5990044076389796,0.15110301283744487,1.1461496322427873,1.608241322087788,0.2028492842634284,0.7685640673313072,-0.25095182597889787,3.7488504728142757,1.0626097793604128,0.5723846284844186,0.3125591171231279,1.8092255683589458,0.8192088359788635,1.9238756255483473,74694.93492870545,17677.541399106958
168,133861.21875,60762.0,"[2,3,6,25,33,40,52]",7,0.3213887806387168,0.1869032303978475,0.4802153313474835,1.0807175869670003,0.3496248477988222,0.25544310050848296,0.15458757506597065,2.494716370830827,0.8712023954208971,0.3878188753111017,0.21939319103401633,0.971082832040189,0.6572108253154675,1.12078012148193,69867.35611205542,15192.639249745334
168,50771.84375,29839.0,"[3,47,50]",3,0.15736997094708527,0.26155514759226595,0.39384505228614497,1.8076145855487789,0.6333022057996596,0.043911004238167406,0.4306446975330527,2.546823434009154,1.6081520372311937,0.4768120742360563,0.28600134017547374,1.0753232229936096,0.7366529017696516,1.4287370547864635,65256.370288896534,16470.455773038462
168,153189.65625,64467.0,"[10,13,19,20,31,35,42,49]",8,0.11132084408731702,2.505104456711651,2.2283907667110063,1.308819802165568,3.4286224148367084,-0.23131185323401338,1.1299810457584938,0.8161043150411653,3.6523410306916975,0.5019861455251872,0.019234653550825875,0.15262487189409024,2.4770369583691734,1.9948566868795055,66629.23105815132,19481.468521148927
168,41848.109375,12967.0,"[29,41,46]",3,0.7519955264516756,2.5864440140761884,2.2845675177478113,1.315114497549902,3.570224669151363,1.6972575654452078,-0.6377172480376421,1.4398824000914603,3.8447548157548304,0.6492353815481909,0.2136011538680136,0.08966824284139352,2.6340602784491645,2.189132412163367,69420.93343972019,21320.41588796407
168,34551.8984375,26719.0,[45],1,0.136280578861101,1.0522476784271504,1.3992550592152875,1.1540385421814485,1.8518930328733147,-0.21226489755922473,0.5984044710070577,0.5691099786930658,3.124800957778864,0.5259709576068038,0.19720742007506198,0.15681394953040906,1.2787066314719535,0.8878890909245858,60888.7366726185,20369.4459154851
168,75846.515625,32081.0,"[13,19,20,31,35,42]",6,0.2852369591163457,2.3380057915725985,2.304735950835543,1.3664761235749165,3.4055174567296365,0.3519954091650339,0.9383346677278155,0.9104375473333697,3.746525462731594,0.571252176803709,0.10800888547471965,0.15220395329826353,2.480136063808967,1.962414934816134,66630.73318999293,20785.068015443157
