time_in_hour,cumulative_size,size,pcore_ids,pcore_power,AF700 CD48_[R 730_B-A],APCCy7 Ly6G_[R 780_A-A],BV421 CD117_[V 440_F-A],BV510 SCA-1_[V 525_E-A],BV605 CD11b_[V 610_D-A],BV650 CD150_[V 660_C-A],BV711 CD11c_[V 715_B-A],BV785 B220_[V 780_A-A],FITC Ly6C_[B 525_B-A],PE CD115_[YG 582_D-A],PECF594 CD135_[YG 610_C-A],PECy5 CD3-CD19-NK11_[YG 670_B-A],PECy7 CD16-32_[YG 780_A-A],PerCPCy5-5 CD45_[B 695_A-A],_FSC-A,_SSC-A
-1,0,0,[],0,0.0,0.0,0.0,0.0,0.0,0.0,0.0,0.0,0.0,0.0,0.0,0.0,0.0,0.0,0.0,0.0
0,95525,95525,"[9,19,22,35,51]",5,0.2893027597173483,0.14778913111750658,0.3806543984716164,0.4621650371002377,0.2827187643548754,0.19465806187908408,0.013062103711077633,2.3938625685003982,0.7172402374980348,0.3334222995236865,0.15619264370584096,0.9004522195655642,0.5833780733734618,0.9425873593404888,69417.21794294684,13276.748243915174
0,24162,24162,"[19,39]",2,0.18229300918797953,0.05901321314460839,0.07465053712440683,0.8411029956957234,0.3635187387219636,0.15041832435229163,-0.018935658223664387,3.7347129237231993,0.8371064418508408,0.3958450728416538,0.18349368707060432,1.6311977426951478,0.7768847675689093,2.009170652429443,71529.92765499545,13534.861021438603
0,73937,73937,"[43,45,46,47,49]",5,0.20372799780894102,1.975240967580512,1.7958682689451808,0.6856444449599088,2.6880571711998047,0.0026796676494829086,0.2975792593559312,0.6801684540893,3.8007775021166617,0.5788178791403463,0.10347788724183316,0.15961784966931236,2.045416946238007,1.657837105292345,66737.31852793593,18636.288083097777
0,16466,16466,"[35,53]",2,0.4274747025992949,0.25951485072270364,1.6041453560670447,0.6250536095590924,0.39430466713227696,0.32073308393052335,0.0680509817199102,1.9355019839669545,1.251678292299284,0.5037584415158504,0.2871948027450526,0.7224816113810257,0.6336859656868673,0.7867326922142617,68086.71832867719,20099.90234422445
24,127380.25,103499.0,"[9,19,22,35,51]",5,0.27152181190176017,0.13301629539509108,0.44171863304947,0.526063356738975,0.2409034579006586,0.21805718164511823,-0.00025292711978064375,2.3279173216020723,0.6999911401316105,0.3067897478651559,0.14546915069250543,0.8496110088691147,0.5197541830837199,0.9240822433874183,71886.53763829145,14434.176349944335
24,33454.5,27414.0,"[19,39]",2,0.16541515063743262,0.05960571414907356,0.04185289355692179,0.934970720336584,0.2757441394505884,0.24739904572629356,-0.017611342495028826,3.7983813037035263,0.835871620738614,0.36113296206788104,0.16853393261744154,1.6496585945612714,0.6771912236171501,1.9677245081229706,74078.87321586043,14068.981332855075
24,83848.25,65364.0,"[43,45,46,47,49]",5,0.23460379196345826,1.8309687753769444,1.9213139767884084,0.7443342604616077,2.626203581824892,2.1457403705849032e-05,0.3339926200695924,0.7413975907964767,3.8743825583897045,0.5951642653543775,0.07235652196973952,0.16708991935729223,1.9351865228015979,1.586762250774464,66819.93892538006,21432.047347440053
24,24578.5,20462.0,"[35,53]",2,0.4342703464511639,0.24914866224546683,1.5808761499786432,0.7212357184022586,0.3786189236629611,0.35528308090404304,0.05456069891368687,1.8473229780906326,1.4008727372398688,0.4936976541896362,0.2789288498687874,0.656251233852758,0.6188265941676686,0.8042348607319416,70222.26026812033,22087.656773196162
48,134667.75,102321.0,"[9,19,22,35,48,51]",6,0.26420930147762234,0.13876269120018803,0.3489718972633571,0.49824152324284077,0.2280579439411916,0.22866757681266114,0.01007592064219498,2.3327193313887333,0.824310309666289,0.3198235632733153,0.13856553959095397,0.7711131109963267,0.5579579136532326,0.8218753201727016,69352.00542074854,14966.070970963714
48,25930.625,17567.0,"[19,39]",2,0.12187603261587521,0.06628894012389486,-0.002642155294175108,0.9704519191448369,0.27073875983755036,0.16894313776904646,-0.008285774653522093,4.023525813557804,0.811457136185496,0.30827452889681894,0.14825520912771228,1.7343441098676702,0.7015629424136537,1.994502831545715,72587.72096700352,14062.649241967692
48,68570.9375,51385.0,"[43,46,47,49]",4,0.03825288746051991,1.9014220869090988,1.8251941218965775,0.609408875930503,2.639532881472206,-0.37900229014934494,0.5588187374106268,0.5544791389664843,3.7782084396031483,0.3574217828471439,0.016086089409224957,0.1115137505001692,1.9031077156247878,1.3749843279714882,63635.40227228196,18815.827973767937
48,30587.3125,23941.0,"[35,48,53]",3,0.4729658205996381,0.2559889370551982,1.5361934948967764,0.6641665276922395,0.374175851562224,0.4114777163652432,0.019057067356355706,1.6946554039562916,2.0325996106290027,0.6155401070051504,0.2620656212849708,0.48187599185323526,0.7079250825526094,0.653171511504977,64616.93645036645,22744.288894292335
72,159872.078125,121589.0,"[9,19,22,35,39,51,53]",7,0.256247465125492,0.2138655851931679,0.3830483417765742,0.7076547925644179,0.31698671237404286,0.2563499503498581,-0.02458549174578817,2.473700875159677,0.7792082085848352,0.3247496784511179,0.16944151123363005,0.7867367454796148,0.6215759764313568,1.010587937159915,69976.08322982435,17250.668048761276
72,174850.953125,138877.0,"[21,24,32,33,36,37,40,43,44,45,46,47,48,49,50,55]",16,0.33237859882314114,1.5895723504226615,1.520167589617532,0.9182461559494257,2.2269280823533513,0.3061598936927592,0.10886645912693904,0.8039861895039908,3.458326917897579,0.5618302521644111,0.2571699698128622,0.1742721801088447,1.7083210328352005,1.3882767098275932,68784.62424166454,23972.19296827893
72,14830.5625,10405.0,"[19,27,41]",3,0.28661028862905824,0.17612747849774646,0.405015217495337,0.9778672630431622,0.42877373079135417,0.013423481317084374,0.04667566905862364,2.924615192921948,0.8878191266219689,0.387683623627726,0.16157619556426805,1.237566436103238,0.7050506236962094,1.8113527785211334,74041.52175617067,17240.857654589934
72,59272.171875,49127.0,"[24,32,33,36,37,40]",6,0.42995752667923326,1.658711579200724,1.5339483701905787,0.9582679072005997,2.2178409985712144,0.7272110375663723,-0.15714628554240884,0.863773858584298,3.3755142067398887,0.6107357801882684,0.33077770089594827,0.1799502492645817,1.7705828122740987,1.4861662452444613,69897.67784681852,25355.260005815322
72,1251.40625,0.0,"[44,45]",2,0.5378468391559468,1.8963249038206973,1.9205520607441708,0.8420227657510204,2.5416140338494144,1.0602602125234146,-0.258627964951923,0.9091813443251535,3.6167994485453696,0.7535075211636976,0.25915931892870203,0.18356918705206338,1.9836286711199835,1.7497809692471,68577.25778499187,22731.44072917955
72,16929.390625,13045.0,[35],1,0.3019921331264783,0.3167940618451204,0.6772725463510603,0.6593671793967544,0.4252244503530753,0.3020847731016927,0.007540019131860198,2.2083041774964185,1.46186106711608,0.37199424726506714,0.19454090147589698,0.6119971982664991,0.6636065936034089,0.810954156538966,68743.18490125812,19629.121175175256
96,125220.0078125,88473.0,"[9,19,22,35,51,53]",6,0.3917172874069308,0.20689851100074064,0.5115697508283654,0.773516759874934,0.3240904398486144,0.21013646329570235,0.09971926957001198,2.605090171059227,0.7622580275255543,0.3960068604839603,0.21925979389511463,0.9931774980031667,0.6515096582063932,1.0490166397015197,70616.05552676955,15875.97862936365
96,14332.05078125,10760.0,"[39,41]",2,0.3621679587776516,0.11219322958187217,-0.2655918889682698,1.6273319694216855,0.31885755119086756,0.5029064995711399,0.10291936344594221,3.891016714553941,0.8725323379270472,0.5017638431700123,0.26020217332710205,1.8419606205249046,0.7947383963736786,2.2765459445413616,74406.95313088987,14377.081681818292
96,81576.18359375,61624.0,"[43,46,47,49]",4,0.18335758086811338,2.2966261812873654,1.872332955801847,1.030497174985539,2.943782239163688,-0.26911065000249335,0.8132034118274616,0.9147247718378315,3.6190217083162692,0.5202545941061693,0.10703953284888135,0.18101442089744246,2.2216860072886355,1.858812981451097,67802.07256378401,19969.231085416963
96,48241.0703125,36585.0,"[46,47,55]",3,0.48033926584453535,2.205633117495589,1.8048529837305627,1.0265866471976688,2.8190558375950396,0.8307085027127734,-0.0045027854994024175,1.0571757935318047,3.6341226886943363,0.6273210253593754,0.2385837401597355,0.16075212261936056,2.16141867679106,1.798130244774492,68382.02541694508,21315.520853681195
96,9632.34765625,5400.0,[35],1,0.3877860144946168,0.29245122702109283,0.7488366594109799,0.7350113902641544,0.3982300841626216,0.29208440121036405,0.11728764218428012,2.4198260589971907,1.4412503592687504,0.4178220016736437,0.23665525692764344,0.8324883169589194,0.6696539832554854,0.8325114855619493,69629.30423974237,17897.58832968824
120,102749.7978515625,73566.0,"[9,19,22,35,51]",5,0.33638426342100924,0.20324651743935584,0.4748304849672005,0.7835521500237674,0.33480926330370275,0.1711296524076893,0.14099273443135063,2.57423766844875,0.7139423819089928,0.3821396620690344,0.2307787066967939,1.0019048104064199,0.6064329855899774,1.0901616913976127,70093.00887595845,14196.653346289895
120,27321.853515625,19986.0,"[19,39]",2,0.2830196709677999,0.1100270730545736,0.16378444226094402,1.4536423054455252,0.4288225553250187,0.15990674664050797,0.2075222641265757,3.91714836960778,0.8361159012383478,0.47740196308679816,0.2502065417923869,1.811036295329314,0.797590813453617,2.14886444811099,72482.29262904736,13890.967951550243
120,102163.083984375,85101.0,"[43,47,49]",3,0.11355842064672017,2.7119815060211243,2.1519686810075584,1.1341882476902767,3.37457837739905,-0.341813406646857,0.9945799227666798,1.0167982499304071,3.7692146436824827,0.43398447515343863,0.07417795831639484,0.15892960028575065,2.541321183760824,2.173505616642816,66254.36013876334,18375.20575655884
120,55845.3056640625,47117.0,"[47,55]",2,0.5479826150485585,2.694499983012614,2.102916805472572,1.1350269538972975,3.3067503643635985,1.2495942302041552,-0.22755586373192127,1.2271755661410877,3.8100394694435047,0.5949290086443074,0.2625069382680567,0.1307671389786268,2.5476824595712015,2.1856895307157864,67600.36086263866,20409.631662576157
120,19549.291015625,15020.0,"[35,53]",2,0.4434395274705256,0.42846155423974386,1.7011321947389653,0.9699382756637189,0.5268154026348335,0.3780378747774664,0.20164499620305376,1.731446610519681,1.5195308316276792,0.565522508977159,0.410810349261284,0.6145249926761127,0.6875471979022468,0.7549486460397539,67157.00322332254,22121.79891354359
144,93375.44946289062,67688.0,"[9,19,22,35,51]",5,0.37782804639414214,0.15098203104055585,0.43517080874864256,1.1342199942541025,0.3232322492949953,0.14977891008045607,0.2287748491088064,2.8662863697819603,0.7166104285719755,0.3959234176094323,0.221424892670552,1.210832391386506,0.6772544319918393,1.24914609077743,70233.88049992162,13845.494664941793
144,189674.77099609375,136966.0,"[13,26,32,33,36,37,38,43,45,46,47,49,55]",13,0.3481367382227145,2.4850687560435043,2.1568652685640335,1.3582529708483086,3.317361226752561,0.3381378681440015,0.6655890500110129,1.0798666366673548,3.7209340953546515,0.5926682773878439,0.10741247854329261,0.19542677543392195,2.502800775323417,2.132291684566142,66760.80920358103,19498.282662671816
144,17829.313232421875,15008.0,[39],1,0.20533465211893165,-0.03471620832972988,-0.5028087396090561,2.792361332794608,0.26976645863443505,0.7117402132553317,0.13606531369547037,4.447919682729212,1.1717006845674511,0.5383738404258059,0.25959028151957053,2.3012899080162383,0.866044346619108,2.4974488808198765,72117.2366831873,13168.828281999666
144,11562.417236328125,6829.0,"[32,38]",2,0.5033384779431127,1.2076951804499494,2.627244620667159,1.5970093818429731,3.3265166062453937,-0.5079751937120488,1.2064976065884148,1.1320100375554776,4.130654755228345,0.5999662013129495,0.10239549582646124,0.24339084351496965,2.3318274468247098,1.9492959808849293,68273.21070224722,25048.970335492886
144,23169.973388671875,13499.0,"[26,33,36,37,45,46,47]",7,0.5756756710717275,1.473927180340858,2.144693042765778,1.3532302547174506,2.707288850512436,0.6132456804793303,0.38031425453390844,0.8228126278317518,3.653339541398845,0.6708756366687777,0.27317839106551167,0.21781255116452203,2.0508431967339797,1.676609918467855,66272.61585397934,22357.185549121758
144,15727.32275390625,10840.0,"[35,53]",2,0.5258507174422895,0.4079071946060644,1.7142312501378538,1.256543062462903,0.5205798541504412,0.4076112437284414,0.29193824963082404,1.929427310457534,1.5246852585714379,0.6103732721187997,0.41359212259246814,0.7405645996968675,0.7821953967744927,0.8186831534707855,67063.17040994996,21368.02610628881
168,146523.57684326172,130568.0,"[3,6,7,10,12,14,21,24,32,33,35,36,37,46,47,51,53]",17,0.336247238225718,0.9051755509538371,1.4550013745712382,1.4251497630848733,1.5878052098225868,0.3186122112578893,0.35115354364981677,0.9415256023269971,2.839396039599492,0.6621804207352441,0.29408887655460214,0.27702922144415243,1.2695801716356905,1.078917045267561,64467.56344679116,22460.257343281934
168,53583.181213378906,36512.0,"[9,19,22]",3,0.2342106295513966,0.10371558822008531,0.22234094467101606,1.5033989125073193,0.3438988955319382,0.10575205603980775,0.32543075337400573,3.4361071211864473,0.6611847381835195,0.40741338259371107,0.19769801313575286,1.3545141107170124,0.7397953376246117,1.4792734285121507,71291.27580664563,14524.788024099702
168,66637.80194091797,42241.0,"[43,45,49]",3,0.1881033780885395,2.5435725552854063,2.1565277532907685,1.4322427211149726,3.3483494093963633,-0.23304650892069234,1.0429282624344176,0.9294579337633886,3.5152520860370218,0.6002155996007291,0.02811398787252628,0.19200997683367016,2.4422649060078805,2.030603222415196,67803.54859756495,20009.563034744184
168,85404.90100097656,79369.0,"[6,7,10,12,14,21,24,32,33,36,37,46,45,48]",14,0.4627619472719178,1.1174074520682442,1.643401519221349,1.6077393500954558,1.975754259937331,0.587967081001568,0.29670934205233124,0.8808944585517917,3.5441164571790886,0.8671698188748086,0.3491748654613267,0.2252460897570735,1.6035032017181026,1.3239554086978462,65415.6089667357,25923.16644001602
168,7985.942932128906,6169.0,[35],1,0.31760910362170014,0.2298936778853342,0.6719522499095882,1.3188041874619554,0.39286935508969734,0.3862331035200022,0.25177549593812243,2.6222527741446697,1.5366857493127988,0.42855783566374595,0.24974047817171963,0.8293838255610386,0.680284390105638,0.9039526832399776,67817.76292747169,17162.018490543956
168,26465.529541015625,15873.0,[55],1,0.659299724559375,2.662972273105221,2.094920195660357,1.378755756203176,3.3579702473878643,1.5550901884898296,-0.40229579601158916,1.3116603340594275,3.5761738525133064,0.7364231706106442,0.22000005013248858,0.14289419813196458,2.511181073854133,2.1089434612946794,69264.45102772178,21788.99870375143
