time_in_hour,cumulative_size,size,pcore_ids,pcore_power,AF700 CD48_[R 730_B-A],APCCy7 Ly6G_[R 780_A-A],BV421 CD117_[V 440_F-A],BV510 SCA-1_[V 525_E-A],BV605 CD11b_[V 610_D-A],BV650 CD150_[V 660_C-A],BV711 CD11c_[V 715_B-A],BV785 B220_[V 780_A-A],FITC Ly6C_[B 525_B-A],PE CD115_[YG 582_D-A],PECF594 CD135_[YG 610_C-A],PECy5 CD3-CD19-NK11_[YG 670_B-A],PECy7 CD16-32_[YG 780_A-A],PerCPCy5-5 CD45_[B 695_A-A],_FSC-A,_SSC-A
-1,0,0,[],0,0.0,0.0,0.0,0.0,0.0,0.0,0.0,0.0,0.0,0.0,0.0,0.0,0.0,0.0,0.0,0.0
0,164645,164645,"[0,4,6,8,9,10,11,13,15,22,23,28,29,33,38,41,42]",17,0.29813451048012407,NA,NA,0.6726102751009742,NA,NA,NA,NA,NA,NA,0.14168635634243154,0.12269744832822138,2.031315918114726,NA,NA,19188.970597345775
0,128804,128804,"[1,2,5,12,14,16,17,26,34,35]",10,0.3484468011164259,0.15392142333313297,NA,0.5153211519052174,0.2705458457190755,NA,-0.009620251203379393,NA,NA,0.3988848792506452,0.1877610613257401,NA,0.6076095682975672,NA,69262.10241917969,14530.980280115482
0,9692,9692,[7],1,-0.08548576527032559,-0.0011123844407645578,NA,NA,0.40872137959142485,NA,NA,NA,NA,0.3012239952538177,0.17211293169624442,NA,0.8008205822327724,NA,73456.3235658276,12291.995047461796
0,5944,5944,[6],1,0.5912664650067267,NA,NA,0.8404439608008047,NA,NA,NA,NA,NA,NA,0.13829947173620027,0.09126619751009524,2.3153477109690423,NA,NA,26335.763122476477
0,9853,9853,[10],1,0.2168411005785158,NA,NA,0.6377498538516204,NA,NA,NA,NA,3.9353622411448215,NA,0.16771547406881115,0.09193752156703716,2.363100791941522,NA,NA,17608.788389323137
0,19783,19783,"[5,12,7]",3,NA,0.07303079563262083,NA,NA,0.3801768221200046,NA,NA,NA,NA,0.33228296087549913,0.17545887898701062,NA,0.7208020772380334,NA,72464.3793155741,13638.926350907348
0,7408,7408,[16],1,NA,0.3431598679805625,NA,1.011480460448165,0.4166933971382325,NA,0.032061673461115436,NA,NA,0.7210307419006484,0.5183182489200924,0.2573066897948164,0.575201462068036,NA,NA,28328.0086393088
24,245610.0,159065.0,"[0,4,6,8,9,10,11,13,15,22,23,28,29,33,34,36,38,41,42]",19,NA,NA,NA,0.7215635807540406,NA,NA,NA,NA,NA,NA,0.1307197755242071,0.1317254995460282,NA,NA,NA,21519.99283416797
24,200103.5,137565.0,"[1,2,5,12,14,16,17,26,35]",9,0.3049057187455477,0.13779115677636433,NA,0.5776209972189363,0.22078842519495634,NA,-0.023104581064301577,NA,NA,0.3216728484134511,0.17231000579949374,NA,0.5239838620089098,NA,71731.900821325,15306.510240950258
24,14761.0,9915.0,[7],1,-0.07590722447665987,0.01625379317120146,NA,1.171561819253455,0.3859725488449097,NA,NA,4.308603544407573,NA,0.304111934760521,0.1518766880970075,NA,0.7215177730844754,2.3846312805026777,75363.68321929424,12838.091728202662
24,3716.5,2742.0,[5],1,0.9367741759720183,0.09709512135073961,NA,NA,0.07302698856450407,NA,NA,NA,NA,0.47856343051257944,0.2023132312659781,NA,0.3249537228575272,NA,83123.29987891839,17003.912283062033
24,8439.0,5467.0,[6],1,0.5789697060078145,NA,NA,0.8524327272781309,NA,NA,NA,NA,NA,NA,0.1023955584784968,0.09701254046688135,2.25263801481218,NA,NA,28035.662993245583
24,798.0,368.0,[37],1,NA,0.40361435902255627,2.2002987662907247,1.840231989974936,2.5192721829573936,NA,NA,NA,NA,NA,0.9251094141604028,0.4043640206766921,2.015469316416039,NA,NA,NA
24,8855.5,4943.0,[30],1,1.8754377337247987,0.3437982596691249,1.676138526621862,NA,NA,NA,0.6371478100615433,NA,NA,NA,0.252512089831177,0.20387770882502454,2.504089307944219,NA,NA,27174.44480831124
24,4019.5,2880.0,[32],1,NA,0.22420417315585706,NA,1.4072133803955755,0.5809603262843628,NA,NA,0.9772900669237434,NA,1.3140338058216208,0.8101456406269425,0.24376165742007727,1.1085373884811482,1.503861380395573,NA,41584.80208981212
24,28315.5,19942.0,"[19,20,21,25]",4,1.2405033724638443,0.590905151242247,2.860493924988097,2.2804935808656084,NA,NA,NA,NA,NA,3.2699523552647842,1.4212121905670099,0.524630305768927,2.354083734156199,2.4517512427822234,NA,NA
24,8685.0,6142.0,"[28,29]",2,1.1149596190558417,0.3810305180771505,NA,1.071108463154864,NA,NA,NA,NA,NA,NA,0.39756395762809493,0.2082158617731722,NA,NA,NA,33147.036960276295
24,5439.5,3474.0,"[23,34]",2,1.5563373031528582,0.34618808704843484,NA,NA,NA,NA,NA,NA,NA,NA,0.4139385898519996,0.2290725563011301,NA,NA,NA,26843.573122529637
48,276611.5,156997.0,"[0,4,6,8,9,10,11,13,15,22,23,28,29,33,34,38,41,42]",18,NA,NA,NA,NA,NA,NA,NA,NA,NA,NA,NA,0.1140024089372641,NA,NA,NA,21486.71366157944
48,239132.0,135220.0,"[1,2,3,5,12,14,16,17,26,35]",10,NA,0.1453062924974442,NA,NA,0.2066655008624938,NA,NA,NA,NA,0.3026026071646647,0.16256032118453012,NA,0.5169546950502247,NA,NA,15865.425823394524
48,14204.5,6824.0,[7],1,NA,0.03444731257700351,NA,NA,0.38816192162693497,NA,NA,NA,NA,0.2891059524446461,0.14156029881373833,NA,NA,NA,NA,13205.80604737932
48,14103.25,8903.0,"[32,36]",2,NA,0.3079807806002215,NA,NA,NA,NA,NA,NA,NA,NA,NA,0.1768665782000609,NA,NA,NA,31509.9240246043
48,12834.5,7116.0,"[3,5]",2,NA,0.16705645500409405,NA,NA,NA,NA,NA,NA,NA,0.4160656333320334,0.23485512850130474,NA,0.3630659027231319,NA,NA,18792.53948342353
48,7638.0,4735.0,[31],1,NA,0.23439561158026434,NA,NA,NA,NA,NA,NA,NA,0.40770757744173636,0.4593553684210483,NA,0.4925903595181983,NA,NA,19936.081696779278
48,10146.75,5719.0,[30],1,NA,0.327701556089397,NA,NA,NA,NA,NA,NA,NA,NA,NA,0.2000364039963548,NA,NA,NA,26536.369182250488
48,26334.75,11778.0,"[19,20,21,25,37]",5,NA,0.5891265070012017,NA,2.2030896431710887,NA,NA,NA,NA,NA,NA,1.3313351849647361,0.48830368679216685,NA,NA,NA,NA
48,16351.5,12009.0,"[28,29]",2,NA,0.3828930680212901,NA,NA,NA,NA,NA,NA,NA,NA,0.35862052649603626,0.19196909780448268,NA,NA,NA,NA
48,10369.75,7650.0,"[23,34]",2,NA,0.37343647983315975,NA,NA,NA,NA,NA,NA,NA,NA,0.44564810933243315,0.23002546146242675,NA,NA,NA,27902.993996962297
48,26033.25,16209.0,"[35,32,36,31]",4,NA,0.2553218394073009,NA,NA,NA,NA,NA,NA,NA,NA,0.44144877319389586,NA,NA,NA,NA,25733.910595104368
72,329058.5,184595.0,"[0,4,6,8,9,10,11,13,15,22,23,27,28,29,33,34,36,37,38,41,42]",21,0.41436913663641994,NA,NA,0.8815069754393932,NA,NA,NA,NA,NA,NA,0.23441418621460786,0.14537624674677962,NA,NA,NA,23560.972605175022
72,261801.125,139336.0,"[1,2,5,7,12,14,16,17,26,35]",10,0.25425906440098367,0.17925067544781914,NA,0.6755766311403333,0.2699678655606341,NA,-0.023935753843213003,NA,NA,0.3097535000121765,0.16396130583901902,NA,0.5816464656387562,NA,70276.06769833408,16643.965238881185
72,3282.125,1068.0,[5],1,0.9479234086910153,0.13580291842175862,NA,NA,0.0704683577712637,NA,NA,NA,NA,0.46958452050881716,0.23703611181779438,NA,0.34049834261339806,NA,84222.20604029419,18439.597516852635
72,8700.75,3486.0,[6],1,0.6580520816308948,0.8804443056920448,NA,1.030540267951054,NA,NA,0.20893275924488552,0.7915556831451376,NA,NA,0.1982533182771724,0.10336197388156232,2.302704277303676,NA,NA,31668.462603798507
72,9014.625,2205.0,[10],1,0.17525034455121813,NA,NA,0.7267105009914485,NA,NA,NA,0.1601110625788693,NA,NA,0.19327950963017804,0.08733817302439006,2.3606133376180316,NA,NA,20806.122495389394
72,5761.0,1942.0,[31],1,0.6453691217453661,0.2853677780984252,NA,NA,0.3674173788621764,NA,NA,NA,NA,0.4672174787797232,0.4406102346814813,0.24291347023086252,0.565677930394029,NA,56889.52334664116,20695.90001735816
72,10145.375,5072.0,[30],1,1.9291420348927562,0.3791551662826689,NA,NA,NA,NA,NA,NA,NA,NA,0.29067921894212745,0.21326149995687704,2.5258831287779,NA,NA,28945.126227468194
72,4521.375,1946.0,[32],1,1.9071367651433422,0.2629762598766905,NA,NA,0.5582847963009079,NA,0.2609082207016633,0.9322034220784627,NA,1.106968557490807,0.7653844234607825,0.22722696336844395,1.133853192944628,NA,NA,40654.707030494115
72,40092.875,20025.0,"[19,20,21,24,25,40]",6,NA,0.5896320227721303,NA,2.00314478424782,NA,NA,NA,NA,NA,NA,1.1390140794842059,0.4013660279070793,2.4373957918458014,NA,NA,NA
72,18237.25,8347.0,"[23,27,28,29]",4,1.0964588997724405,0.5598933642476296,NA,NA,NA,NA,NA,NA,NA,NA,0.5616716437442597,0.28491253524380034,NA,NA,NA,34149.14068732956
72,9249.875,4747.0,[34],1,1.5131192776794202,0.38374772155028936,NA,1.1897364106271762,0.9969874169651041,NA,0.32554663163015407,0.7984655024527294,5.4544430711901075,NA,0.3757091952864178,0.18839960676495693,1.884447315233999,NA,NA,28221.19347558756
72,13718.375,5178.0,"[35,31,32]",3,NA,0.2519535101551753,NA,NA,0.48612724038014754,NA,NA,NA,NA,0.6728432791875848,0.4743991781461001,0.4451454395382105,0.7243180457871298,NA,NA,26520.76853125829
96,294571.375,136454.0,"[0,4,6,8,9,10,11,13,15,22,23,28,29,33,34,38,41,42]",18,NA,NA,NA,0.9586284011077932,NA,NA,NA,NA,NA,NA,0.20000028559843974,0.14397957802395955,NA,NA,NA,21841.083425027242
96,223900.4375,100244.0,"[1,2,5,12,14,16,17,26,35]",9,0.35833994591066864,0.18526543462761458,NA,NA,0.26023360185650857,NA,0.02440883866796817,NA,NA,0.3554643857721933,0.2016993725210381,NA,0.6048828730870067,NA,70732.75097106509,16116.875341076504
96,17080.125,9836.0,[7],1,0.05151671136407976,0.09233902783937342,NA,NA,0.48056361466544706,NA,NA,NA,NA,0.4125229354512845,0.20011198036459765,NA,0.8000287018866971,NA,74918.75990368944,13896.790802175028
96,9025.125,4174.0,[36],1,1.9282602712635393,0.38189063880003316,NA,1.475130414537182,NA,NA,NA,NA,NA,NA,0.49406204195925607,0.2066186412930554,2.3222691810916616,NA,NA,27577.132948297156
96,3204.0625,1563.0,[5],1,1.1215304875841208,0.1365731310835887,NA,NA,NA,NA,NA,NA,NA,0.5850169343411712,0.29943766585389087,NA,0.41757985631522454,NA,83288.2879157322,18434.3932117429
96,942.5,393.0,[37],1,NA,0.5207592528514575,2.159283282957562,2.191876448275863,NA,NA,NA,NA,NA,NA,0.9903126658488017,0.46070232526525123,2.134160136671091,NA,NA,NA
96,4965.6875,2705.0,[32],1,1.9430811612188534,0.2815439760355325,NA,NA,0.6054869547142303,NA,NA,1.0873954901008296,NA,1.213550236661591,0.8618239284716327,0.28198494342424496,NA,NA,NA,38964.77899585915
96,49092.5625,24775.0,"[18,19,21,24,30,39,40]",7,1.908117367837032,0.4437845770222335,NA,NA,NA,NA,NA,NA,NA,NA,0.7282628406415985,0.30802655578556437,2.4830405676929166,NA,NA,NA
96,10941.5625,5256.0,"[20,25]",2,1.5838151022534472,0.7702402329420481,2.869951694679115,2.6062006553223243,2.236150256002063,NA,NA,NA,NA,3.171599845811564,1.7910388860309037,0.6365479000942493,2.6708675947276723,NA,NA,NA
96,10014.5,4806.0,"[21,24]",2,NA,0.4730428221079408,NA,NA,NA,NA,NA,NA,NA,NA,0.8482995884779565,0.35061265113086204,2.555557419435572,NA,NA,NA
96,9079.5,6199.0,[31],1,NA,0.2809976577799014,NA,NA,NA,NA,NA,NA,NA,0.4990664225590594,0.5834634860950514,0.27346507880389415,0.6035452841566146,NA,57125.246103860314,20059.777300512153
96,12024.375,4671.0,"[28,29]",2,1.1384980293102533,0.4570914529809311,NA,1.318407607988985,NA,NA,NA,NA,NA,NA,0.4590616445553324,0.21564294607308165,NA,NA,62026.073870783264,32809.54660845161
96,7415.9375,2791.0,[34],1,1.6287189061817837,0.36120146454005564,NA,1.3001521443006956,0.9858006033289874,NA,0.4286122201845717,NA,NA,NA,0.4353702653743974,0.20151812772323008,NA,NA,65547.32695630194,27059.219417639433
96,1612.0,858.0,[23],1,NA,0.6559612762096823,NA,NA,1.3267289496743153,NA,NA,NA,NA,NA,1.0046451148030409,0.661286578124999,NA,NA,NA,32636.382133995096
96,7734.6875,3756.0,"[35,32]",2,NA,0.24082130643609467,NA,NA,0.6018904636822757,NA,NA,NA,NA,NA,0.6207540836976255,NA,NA,NA,NA,31300.077734232993
120,347660.6875,200375.0,"[0,4,6,8,9,10,11,13,15,22,23,28,29,33,34,38,41,42]",18,NA,NA,NA,1.0749654937306845,NA,NA,NA,NA,NA,NA,0.19092135807147548,0.1364054202913525,NA,NA,NA,20367.56488896947
120,202178.1875,91830.0,"[1,2,12,14,16,17,26,35]",8,0.35029316195460214,0.2021324288826638,NA,NA,0.28353746543133207,NA,0.07100702032644879,NA,NA,0.3751548491472978,0.23350006442877058,NA,0.5976893954944148,NA,70163.849698178,15704.108565124001
120,17845.0625,9305.0,[7],1,NA,0.08019649025816422,NA,NA,0.5334679917466669,NA,NA,4.389852389396922,NA,0.4605734578647426,0.22180360272273125,NA,0.8172816989520933,NA,74365.0145243257,13388.923798949943
120,5388.84375,2906.0,[32],1,2.0248504722140055,0.2902297640843612,NA,NA,0.6842776963460411,NA,NA,NA,NA,1.1319053673445718,0.9394125330515051,0.2841839519609348,NA,NA,NA,36436.242561310195
120,64622.84375,35564.0,"[18,19,21,24,30,36,39,40]",8,2.0175384234198317,0.449947760535538,NA,2.0301621180300384,NA,NA,NA,NA,NA,NA,0.739042079087262,0.31439992795552574,2.515563618310276,NA,NA,NA
120,12189.5,6711.0,"[21,24,37]",3,NA,0.4887612814230504,NA,2.0669272731449078,NA,NA,NA,NA,NA,NA,0.9288056478270228,0.3845552406707622,2.571644413132196,NA,NA,NA
120,12288.1875,6276.0,"[28,29]",2,NA,0.4347367132841007,NA,1.4815523555981214,NA,NA,NA,NA,NA,NA,0.5217490612122426,0.22593060797971531,NA,NA,60702.56349848181,32222.580750822715
120,8639.96875,4126.0,"[23,34]",2,1.624391072482901,0.42571909911059835,NA,1.6677090211480778,NA,NA,NA,NA,NA,NA,0.611350184943519,0.32349712539469433,NA,NA,NA,26475.35316606321
120,8477.34375,4610.0,"[35,32]",2,NA,0.23750330477190484,NA,NA,0.6633637029177035,NA,NA,NA,NA,NA,0.6837928071366708,NA,NA,NA,NA,29314.114341535384
144,319634.859375,149133.0,"[0,4,6,8,9,10,11,13,15,22,23,28,29,33,38,41,42]",17,NA,NA,NA,NA,NA,NA,NA,NA,NA,NA,0.1413980932095824,0.16112100707423171,NA,NA,65722.21711698282,19360.304242472746
144,190455.578125,86038.0,"[1,2,12,14,16,17,26,34,35]",9,0.4372262579911772,0.17714465572426485,NA,NA,0.29150448423004116,NA,0.13266657593909326,NA,NA,0.4516376118433756,0.246016138460186,NA,0.6791049948606821,NA,70102.99304143849,15563.210855680973
144,39032.8125,23082.0,"[3,5,31,36]",4,NA,0.20966952647373116,NA,NA,NA,NA,NA,NA,NA,NA,0.49885462075096676,NA,NA,NA,NA,19892.638072134745
144,27339.53125,18417.0,[7],1,NA,0.014753509991834779,NA,NA,0.5494642968772148,NA,NA,4.489879594196782,NA,0.5026445530853317,0.2126704028130133,2.3503237579500804,0.8780091729609684,NA,73043.33127511118,13282.26616906583
144,5314.421875,2620.0,[32],1,1.936184119168648,0.3049995689559286,NA,NA,0.6751146843436149,NA,NA,NA,NA,NA,0.9526273257527351,0.38176867539095993,1.223328722944347,NA,NA,35147.38825660137
144,66964.09375,37474.0,"[18,19,21,24,25,30,39,40]",8,2.020394156317213,0.4405667989736557,NA,NA,NA,NA,NA,NA,NA,NA,0.8272472077685298,0.40724176632976117,2.513790985881889,NA,NA,NA
144,15757.28125,8112.0,"[19,21,37]",3,1.3824862018600508,0.6169659421785196,2.52262456970487,2.560700669624955,NA,NA,NA,NA,NA,NA,1.393912088191379,0.5791369511842706,2.4461534480319638,NA,NA,NA
144,4474.53125,2298.0,[29],1,0.6223101317246935,0.3985657877815485,NA,NA,NA,NA,NA,NA,NA,NA,0.40660404063623945,0.3252208175681829,0.6867868971924461,NA,NA,18587.645130425764
144,22788.796875,8347.0,"[23,28,33,34]",4,NA,NA,NA,NA,NA,NA,NA,NA,NA,NA,0.5395827273735723,0.2719584368703638,1.8602242876948143,NA,NA,26779.709712077565
168,355659.671875,193336.0,"[0,4,6,8,9,10,11,13,15,22,23,28,29,33,34,38,41,42]",18,NA,NA,NA,NA,NA,NA,NA,NA,NA,NA,0.18105672445770704,0.1649094029429844,NA,NA,NA,21237.207387557377
168,167922.546875,75201.0,"[1,2,12,14,16,17,26,35]",8,0.33548494916136096,0.1625235251191901,NA,NA,0.29836118663449884,NA,NA,NA,NA,0.41094260106700786,0.23715797780853842,NA,0.660954879134707,NA,70308.98290739153,15932.77537346779
168,46867.40625,27351.0,"[3,5,31,36]",4,NA,0.20561660381848945,NA,NA,NA,NA,NA,NA,NA,NA,0.5321421078057997,NA,NA,NA,NA,22116.217835289277
168,26755.765625,13086.0,[7],1,NA,0.03103175608470865,NA,NA,0.5768468068129553,NA,NA,NA,NA,0.5518542483629324,0.22272904514681935,2.2819694963988475,0.919991796832632,NA,73883.10387772734,14208.175644384835
168,8961.421875,3723.0,[6],1,0.7012978831780634,NA,2.917950459356175,NA,NA,NA,1.1448596143748233,NA,NA,NA,NA,0.1747551716663982,2.4523579319182334,NA,NA,28321.19082665103
168,9747.6484375,3424.0,[13],1,NA,NA,2.988226214172674,NA,NA,NA,1.4432317640913408,NA,NA,0.5224350690807588,NA,0.20281962868368353,2.432120852610272,NA,NA,28626.02819430009
168,5263.2109375,2606.0,[32],1,NA,0.32572349615476304,NA,NA,0.7435141262195919,NA,NA,NA,NA,1.3389497158266876,NA,0.37832537275991374,NA,NA,NA,38184.17519010953
168,75383.859375,41143.0,"[18,19,21,24,25,30,37,39,40]",9,NA,0.41585356005834617,NA,NA,NA,NA,NA,NA,NA,NA,NA,0.4166710946623803,NA,NA,NA,NA
168,16514.828125,9395.0,"[19,21]",2,NA,0.5932567149900367,2.515653208090932,2.719704935885266,NA,NA,NA,NA,NA,NA,1.4109596296212117,0.566912954360143,2.2822947391889254,NA,NA,NA
168,7545.28125,4655.0,[28],1,1.4196107429529576,0.4232729489291729,NA,NA,NA,NA,NA,NA,NA,NA,0.7128851240541563,0.266822390223195,1.7621150713225195,NA,NA,42699.942430906776
168,11729.4921875,7740.0,"[23,34]",2,1.3320287518634626,0.40360958905736144,NA,NA,NA,NA,NA,NA,NA,NA,0.7142542527742934,0.40423724895645774,NA,NA,NA,29970.434728165794
168,8805.890625,5305.0,[36],1,1.7267973427828067,0.33277387404383685,NA,NA,NA,NA,NA,NA,NA,NA,0.5962907746261941,0.2515892292978589,NA,NA,NA,30657.965616056088
168,10895.8359375,6174.0,"[35,32]",2,NA,0.23096697669766275,NA,NA,0.6568550862256037,NA,NA,NA,NA,NA,0.6453545001781826,NA,NA,NA,NA,27970.61719249117
