time_in_hour,cumulative_size,size,pcore_ids,pcore_power,AF700 CD48_[R 730_B-A],APCCy7 Ly6G_[R 780_A-A],BV421 CD117_[V 440_F-A],BV510 SCA-1_[V 525_E-A],BV605 CD11b_[V 610_D-A],BV650 CD150_[V 660_C-A],BV711 CD11c_[V 715_B-A],BV785 B220_[V 780_A-A],FITC Ly6C_[B 525_B-A],PE CD115_[YG 582_D-A],PECF594 CD135_[YG 610_C-A],PECy5 CD3-CD19-NK11_[YG 670_B-A],PECy7 CD16-32_[YG 780_A-A],PerCPCy5-5 CD45_[B 695_A-A],_FSC-A,_SSC-A
-1,0,0,[],0,0.0,0.0,0.0,0.0,0.0,0.0,0.0,0.0,0.0,0.0,0.0,0.0,0.0,0.0,0.0,0.0
0,107038,107038,"[0,1,2,5,12,14,17,19,24,29,44]",11,0.1694268188883996,0.2334544983795895,0.3140845166088169,0.2871340477721521,0.26090343138623867,0.22449412976422814,0.25107987298336565,0.5247871899235924,0.16640667401771622,0.10496573280583792,0.24791087114902696,0.235245886170119,0.15112387513559275,0.2968139240460191,0.1991347468105727,0.05104453144523661
0,25452,25452,"[1,2,53,55]",4,0.16954037337196468,0.24252753867875163,0.39010781191894023,0.2831854603215424,0.26792662808611006,0.22598461295989933,0.2568884644193934,0.3413795697681093,0.19128696848506532,0.1077264066138042,0.25283176485697983,0.12380839157033892,0.12760865090212611,0.15870397284668203,0.19918711939315417,0.04920175918443133
0,69948,69948,"[16,18,25,27,33,34,37,38,51,57,59]",11,0.1590930307344434,0.40269972272052307,0.5003791419418978,0.30326821086005834,0.5077081734436316,0.16031258111059019,0.2941517539904208,0.31379653929821105,0.5612040594088548,0.12794765608018466,0.24003443866784915,0.09852270596067361,0.32613042798490044,0.36710493534708855,0.189983857310042,0.07386136389922528
24,144317.25,129376.0,"[0,5,12,14,17,19,24,29,44,55]",10,0.16511955062677422,0.23237508774945367,0.3221798568269424,0.29322320066644186,0.2544759757141876,0.22862809771258863,0.2503182646299431,0.49724849092334417,0.16387625407323692,0.09977492543258748,0.24597491656952256,0.21573271588097967,0.13613125159705636,0.2740890049408852,0.21197086580273317,0.05365750234133238
24,9805.5,9066.0,[53],1,0.1784975623290418,0.25354307962837397,0.44691966964207613,0.30454993632843785,0.28309008455377294,0.24157952749498615,0.2583069935336776,0.3652022924090527,0.27317115367431016,0.11755150727916303,0.25900908788002747,0.13164832016145103,0.14523235330214568,0.1672626551540296,0.197917205194116,0.07525311665933494
24,80107.25,69439.0,"[16,18,25,27,33,34,38,39,45,51,59]",11,0.16627850714313572,0.38014998518727205,0.4981271574186188,0.3097098400424461,0.48326436847306575,0.1967639046713157,0.2827318730122917,0.32127448921326524,0.5542361948373209,0.1315344100139591,0.24156811726542304,0.09945752632820555,0.29888578173774066,0.341416528529139,0.18728025667883136,0.08458694098652117
24,31086.5,28168.0,"[14,24,53]",3,0.17486872664900863,0.24242359787771375,0.3624741383009112,0.2942030989820746,0.2655619014785824,0.23623942360550118,0.2555668124823547,0.44225497186950624,0.24799861419808117,0.10836573909705395,0.25201083300520893,0.17256914166095538,0.14070636526753147,0.2078119884138974,0.20287309602509512,0.06587757079944653
48,117563.3125,102414.0,"[0,5,12,14,17,19,24,29,44]",9,0.1622010616711083,0.2319362810595952,0.3048009782989467,0.2886498449317885,0.24999427120270934,0.22833750474464778,0.24944277246540073,0.5362442496172323,0.16104605330679705,0.09429766798555458,0.24400390451604925,0.2217668651485736,0.14189333525561296,0.267390811848014,0.1998662146870078,0.05548651952262944
48,38874.65625,34506.0,"[15,53,55]",3,0.16734676104903262,0.24640109943158206,0.38558705277147975,0.2914380564591444,0.2720496262447166,0.23239331516557374,0.25622480377791984,0.3150146548152801,0.2565276394493684,0.11383885448443902,0.2531392766256986,0.10287405536440712,0.13067520486231357,0.1479977224313876,0.17870642762218528,0.062339622542531274
48,53083.96875,46388.0,"[16,18,25,27,38,59]",6,0.14529327592510727,0.44137755372267135,0.49675658305979925,0.29297400952013,0.5290243748861354,0.16983964269114557,0.29502466003384736,0.29862788540947804,0.5552263593292253,0.10642915578105931,0.23263120472501334,0.08791441493823221,0.3497137373501485,0.3608844975036754,0.17605415146640654,0.07026418052592222
48,12534.859375,11060.0,"[14,17,15]",3,0.18123353052213376,0.2449005845362579,0.35551002901500545,0.3020104085121827,0.2756135267414166,0.2421741817127482,0.251543454672338,0.48430164504513384,0.40358624910944446,0.13410368425875108,0.25268839456594233,0.18018866024073948,0.17784672228887616,0.2763466306446248,0.1924216517234138,0.0719842816887219
48,51121.6875,47279.0,"[39,45,51,58]",4,0.15682935630223563,0.3372242012801816,0.4442808538091847,0.2912311648745074,0.4038432539957366,0.2313462199318895,0.2597656072858126,0.3015995541491878,0.49998423768600625,0.1065145961111682,0.24730061258678251,0.09136538011351929,0.21929659478902674,0.21267189557737193,0.16164201112442556,0.07034737199699265
48,14942.6875,13717.0,[53],1,0.1738228948480962,0.2574648990436923,0.44434972674268397,0.3066106928895868,0.282663564064393,0.2508289180615563,0.2540511392965063,0.3338924412038344,0.28613556482825353,0.11784260172758922,0.2635081379485744,0.10749528057273236,0.13683838874704296,0.15276774426801545,0.15166236753586307,0.08027952381217984
72,148153.20703125,130903.0,"[0,5,12,14,17,19,24,29,44,55]",10,0.16392945653537358,0.24253463265269048,0.3141337160192482,0.30442346297145617,0.26473593311072435,0.22619975793073202,0.24917466730831253,0.49479400545297586,0.17168079775973705,0.10064052354005462,0.2472068138136271,0.18857378645896136,0.1492351491801817,0.2641116732240864,0.2028855398807297,0.06351583299637434
72,12501.8359375,10634.0,[53],1,0.17292922267980457,0.28224838543394254,0.41690215127061636,0.3186924426066317,0.32242974851163303,0.24224841123962165,0.2585085916693577,0.35655453722083963,0.31506052289181696,0.1176675371724781,0.2622787905562224,0.1178848796006018,0.1664053775548287,0.19529204124271551,0.17875887318667488,0.0843531834776412
72,113234.947265625,100649.0,"[16,18,25,27,33,34,38,39,45,51,57,59]",12,0.16574586859544138,0.3750495010462661,0.4527107816825471,0.3278518122618283,0.4627018701190767,0.19936870425756967,0.2758462114695472,0.32447347635443974,0.5016786770062591,0.12293297616030996,0.2552329916934554,0.10042681991788803,0.2814095829344218,0.32497296809453413,0.19750560874228065,0.09097504401430397
72,13891.216796875,11919.0,"[12,14,17]",3,0.1686710438418305,0.24884539319818574,0.34434506846508356,0.3161907645757261,0.2788689225639869,0.21300088524080207,0.2542804081671348,0.5238129344453684,0.2522019943289718,0.11019680546175507,0.2512263795813872,0.20618366096595694,0.16698624387582603,0.32056566113865026,0.20920893550477426,0.07551267437998586
72,35346.236328125,30389.0,"[18,25,27,33,56,58]",6,0.1739702674178678,0.3600906857852,0.4425492780777857,0.3238241072403533,0.43782910218129456,0.26811068232242996,0.255074307440352,0.32620515576581516,0.47719129123352144,0.12528704244131827,0.25960509074914484,0.10022892470610617,0.26369865162970535,0.291022784557105,0.19110465601149626,0.09148109970234045
72,22344.28125,19377.0,"[29,53]",2,0.17115487050218325,0.26482485826888624,0.39073569093079424,0.31017998885497156,0.29826201179323203,0.234456869876527,0.2524899639507365,0.4269787161631111,0.25637435884133747,0.11182270248683672,0.2554847367127818,0.15518526936703173,0.16206899339396275,0.24161095154325948,0.19162810051512294,0.07724873563504246
72,28170.86328125,26133.0,"[45,51,56,57]",4,0.17842986558898172,0.3663653121989272,0.4401102856311241,0.3290342890013446,0.4312680256127389,0.281958072572885,0.24527703904779544,0.33201488986817546,0.4739655374064477,0.12834145105351497,0.26277529497824237,0.10209208172361854,0.2639688490064837,0.31142794104085747,0.19634445405892756,0.089835117956275
96,108287.4267578125,92055.0,"[0,5,12,14,17,19,24,29,44]",9,0.18353443716839035,0.2375650996088276,0.3137798701078362,0.3237771549890445,0.26265269852596607,0.2238446680102647,0.26407194942701795,0.5507408567317804,0.16439417266662817,0.11159455045189492,0.25300002250205406,0.25880709259793483,0.15823396946052162,0.3186587015742348,0.20700405666199795,0.054442678834550985
96,13172.72412109375,10886.0,[55],1,0.16800261462852356,0.24704434523406807,0.3782314802321238,0.30033111216499364,0.2671191557459836,0.22791479475360168,0.25933328416656837,0.34600381976970135,0.1963263158654157,0.1083808135413092,0.25586763099865817,0.12211385283152074,0.1249007313902583,0.15059520534240917,0.2107590109537896,0.05398275166341116
96,118116.14892578125,105704.0,"[6,7,8,9,10,13,16,18,25,27,33,34,37,38,49,51,59]",17,0.17497116155052736,0.4545193328194343,0.5097109871647829,0.34591154382684874,0.5597795881253808,0.2322318923877491,0.30496203672342487,0.34879769735651495,0.5483645373295786,0.13510301896400034,0.24769251810453802,0.09941230922112304,0.3751924077001447,0.44664327554569383,0.20015328800711712,0.08117711396190021
96,7930.39794921875,7271.0,[13],1,0.16878206465148957,0.3457259514675636,0.5704763325800054,0.3628972655748879,0.5992276072480603,0.06624999461171464,0.379550963853122,0.3477488523233091,0.6072043616235199,0.12155999519074513,0.23423346657295271,0.10160237854186464,0.36756604207299004,0.4136405137628257,0.20947635466849465,0.09833724191176173
96,13174.60205078125,9453.0,"[8,9,10,18,25,27,33,37]",8,0.19530703412238237,0.39045195091703794,0.5097080373242224,0.3450807211579096,0.5223238255556321,0.3214942652458406,0.27427161762255126,0.34118952971047317,0.5559839633542989,0.14619367486534351,0.26413420781529956,0.10075483891733641,0.3419529338048586,0.38959006736455914,0.20937392816478206,0.09676992392280324
120,74993.2209777832,65549.0,"[5,12,17,24,29,55]",6,0.17508062074416977,0.24379862587481407,0.35945467432647077,0.30785588804769526,0.2661393207054572,0.2211673534483119,0.2659160599288947,0.4730870815663122,0.17756393820660712,0.10938186811978948,0.25652221803224556,0.2023094206039665,0.14155905546982986,0.24784176315186032,0.20038419992343326,0.053487444967372705
120,173207.37368774414,158444.0,"[6,8,9,10,13,16,18,25,27,33,34,37,38,49,51,59]",16,0.16981023376145493,0.4756517397329614,0.5326730615314531,0.35504287796281,0.5859866459142993,0.237542415791935,0.31134578071020247,0.3563927502793996,0.5581633706573004,0.12204380057072536,0.2468823989588285,0.09625514667145611,0.3967212427610499,0.47932408991643655,0.18973761246996718,0.0750209822689817
120,13008.299743652344,12017.0,[13],1,0.17366239338269332,0.34243906878686586,0.5926305280011063,0.3774101799724029,0.6050697835843015,0.07142345316587538,0.3814875422679554,0.35046983186292474,0.6136533349342945,0.11437445879145844,0.23739177409631326,0.1002950146626739,0.3780541238758905,0.43485065349339064,0.19939540904937011,0.0962007215830084
120,13946.508087158203,12300.0,"[9,10,18,25,27,33,37]",7,0.19509692269653411,0.3918483394944962,0.5402540924535197,0.36358547745704084,0.5512282834677257,0.3314550349525467,0.30588215777845285,0.3403249672952577,0.5626246169913665,0.13997155880804782,0.26466918298612013,0.09970114161429829,0.358320516201057,0.4186367838896304,0.19780522782159246,0.09082624601755032
120,9556.597229003906,8431.0,[24],1,0.17777331685889775,0.24736452051579041,0.3288794982953563,0.31201910129931526,0.26556873732629727,0.2319657261760555,0.26701573850030275,0.49198557467497395,0.24525411253627008,0.1108966326536693,0.2576544462240004,0.2019723934034424,0.1442712617658413,0.23848052504423248,0.19578221150186803,0.05743527577717179
144,81271.98053741455,71217.0,"[0,5,12,17,19,24,29]",7,0.18195786152034826,0.23183949371608986,0.3234107930050481,0.37375925887290085,0.2648308407522048,0.21053560838015076,0.2784710340170486,0.5730886447770482,0.16841881894070745,0.1134266151134035,0.25303729393591523,0.2875138369794415,0.16348635498293376,0.3528001036831441,0.2042335460669413,0.05208800983334677
144,15145.94881439209,12644.0,[55],1,0.1708593292152672,0.24789715960068087,0.3902453461513148,0.322775612783753,0.26621677505019054,0.22918508583043076,0.26615060630559945,0.34411936052690567,0.185515255807439,0.10877217258459862,0.25920058282382913,0.12763973963249975,0.1288978904798305,0.16130399147450178,0.20033675454159927,0.0501483454534895
144,163437.97470092773,139311.0,"[6,8,9,10,13,16,18,27,30,33,34,37,38,39,45,49,51,59]",18,0.17387475633051488,0.46753508253541165,0.5240827113619965,0.3764181659727738,0.5778418609010726,0.24067290841081296,0.32089309138660216,0.3533085399548683,0.5392146569838994,0.13331753432774696,0.24025245415652838,0.10348944755343094,0.3886927426583574,0.4688265738542391,0.18746931995425076,0.07234300405613857
144,9694.077114105225,8068.0,"[8,13]",2,0.1852014456109398,0.34384771495146554,0.5736351615768004,0.3983877756921338,0.5775262750627153,0.10190791034738013,0.3741044028789454,0.3440090584104153,0.5779896004890248,0.13165655590642927,0.23672656087799013,0.1098550039794157,0.36560080536032785,0.4283560079517826,0.19018723441298147,0.0897725806561112
144,17100.284393310547,14371.0,"[9,10,18,27,30,33,34,37]",8,0.1947895619210502,0.391551818208484,0.5501457908779077,0.3928498911112885,0.559527742211222,0.3075346912330254,0.33353340239369417,0.3166680577089569,0.5538039012408432,0.14789775675195377,0.2559050161443744,0.10684248024243218,0.3719400383463838,0.43382124016997403,0.1935143481832441,0.0868568972026623
144,1258.972557067871,681.0,[45],1,0.20202917584294638,0.36988910461932556,0.486561796532412,0.3650523989645459,0.45183642019042725,0.3285477598681615,0.26386430229152924,0.34643375243210406,0.49134068675303627,0.1495372465775274,0.2718432964087282,0.1085496805768886,0.29381657220873536,0.34332159365292086,0.17605275558087055,0.07907886833220583
168,50860.67231321335,42672.0,"[16,18,33,34,57]",5,0.15955564162905383,0.44482976234974253,0.523067266355803,0.38879814145847064,0.5637137094343209,0.1314063985799321,0.35666945199871014,0.32975056257550744,0.5065127959326686,0.13904968076984345,0.23593737696571807,0.10442514963280226,0.3629689205113983,0.42521739616463916,0.19420915197147948,0.07967411663690974
168,67981.50485467911,66152.0,"[39,45,51,53,58,59]",6,0.1644002870209171,0.31222892655400214,0.42977828366184956,0.38023393524751053,0.40421192366042763,0.2334702675558636,0.283181658968903,0.3279807523527697,0.4776655572430159,0.13927145947291844,0.2589830239635922,0.10417719911352985,0.22604620733866743,0.26176691303018307,0.16652525634709248,0.08632615619234701
168,19136.593039512634,15397.0,[49],1,0.2117495918459566,0.47226261764514754,0.5165594551660395,0.37704955880222507,0.5725357001810827,0.4267009712405186,0.2096105742153629,0.36711681659014617,0.5126485638478575,0.15473673955553904,0.2548266006736761,0.09366740076430406,0.3799810815960417,0.44500765931656355,0.2001697982407397,0.08477989374867187
