time_in_hour,cumulative_size,size,pcore_ids,pcore_power,AF700 CD48_[R 730_B-A],APCCy7 Ly6G_[R 780_A-A],BV421 CD117_[V 440_F-A],BV510 SCA-1_[V 525_E-A],BV605 CD11b_[V 610_D-A],BV650 CD150_[V 660_C-A],BV711 CD11c_[V 715_B-A],BV785 B220_[V 780_A-A],FITC Ly6C_[B 525_B-A],PE CD115_[YG 582_D-A],PECF594 CD135_[YG 610_C-A],PECy5 CD3-CD19-NK11_[YG 670_B-A],PECy7 CD16-32_[YG 780_A-A],PerCPCy5-5 CD45_[B 695_A-A],_FSC-A,_SSC-A
-1,0,0,[],0,0.0,0.0,0.0,0.0,0.0,0.0,0.0,0.0,0.0,0.0,0.0,0.0,0.0,0.0,0.0,0.0
0,126482,126482,"[2,6,11,13,15,16,17,24,28,35,39,41,49]",13,0.2688289359592686,0.18447813230340993,0.3616263991635207,0.5809876494837223,0.33214816355686727,0.20034526193450275,-0.002730859418732745,2.418295858185366,0.8918304782894003,0.3237692291709494,0.18718044426084335,0.970318896340985,0.6229370043168182,1.1273504172214224,69281.8716971584,13798.217232491541
0,114651,114651,"[8,9,10,12,14,22,27,30,48,51]",10,0.23870667257154476,2.0860732235043713,1.995271361950611,0.6488601716862554,2.9037785197948485,0.25222896804214634,0.1412814254476582,0.6280779846577893,3.96781842123487,0.5272368150822923,0.09302358837688951,0.10723209916180176,2.1827963928967025,1.68011851684678,66930.84173709774,18638.312094966415
24,154335.125,146192.0,"[2,6,11,13,16,17,24,28,32,35,39,41,49]",13,0.27608750512480573,0.17305200817822364,0.5662239028967795,0.6740399674284334,0.30450317552793127,0.2577750969100523,0.0030204819629497948,2.282360488179952,0.9226850327841728,0.33190784230258696,0.17866114984518155,0.8945012988666694,0.5519449258314498,1.088999736120504,71420.90862336097,15760.306074200538
24,101641.625,94596.0,"[8,9,10,12,14,22,30,48,51]",9,0.28560150878085455,1.9735462840759093,2.122317125314679,0.7080476933422917,2.909544282400909,0.3185368649366096,0.13998926441185677,0.7109271173209049,4.06015545584487,0.5555039911939416,0.0516201481774754,0.11096047681006682,2.098401920591714,1.636195552464359,66723.10085557963,21408.320734738296
48,142255.8125,132832.0,"[2,4,6,7,11,13,16,17,22,28,32,35,39,41,49]",15,0.2742589567153264,0.16328620706141717,0.47259671245375046,0.6908585058204353,0.2453939112612873,0.24770235455065093,0.04471536909020113,2.274234031984876,0.9899085288704689,0.30742828285001356,0.18325149727215928,0.7962753669033404,0.5370212656561085,1.013421876544451,67928.3868699565,16354.163466958504
72,147562.5107421875,138688.0,"[2,6,11,13,16,17,22,23,28,32,35,39,41,49]",14,0.29732807486621216,0.25967703468602155,0.38128021600483786,0.8073419206158259,0.38663505920952135,0.2303406786696256,-0.004927191793009822,2.373628568042033,1.019823824065738,0.40328976678882467,0.19178785933803244,0.7493989223752453,0.6886083710964145,1.081139527397939,69503.38038198074,18100.618119951756
72,152326.8681640625,143541.0,"[3,4,5,8,9,10,12,14,24,27,30,33,43,48,51]",15,0.3104263771070819,1.5708470355685669,1.5963652757303106,0.926114658282867,2.30316140411445,0.2634784972910491,0.14523776510080388,0.7133821382402759,3.472478530727605,0.4818400339828367,0.2521719273517684,0.14580669078753583,1.6891390981836811,1.3373934487670827,67932.03517007687,23230.3194918272
72,67543.85180664062,62843.0,"[4,5,8,9,10,12,14,16,17,22]",10,0.2969526666804867,1.5939029660324788,1.6353365104644584,0.9679594759272221,2.385589958461257,0.1254733114693889,0.22605550168411437,0.7693787560267373,3.2150062044572243,0.4917211222782786,0.2647377704128644,0.17251696593167087,1.7325287402895544,1.4944530949193782,67963.74106429852,23007.822083061725
72,19225.052001953125,17695.0,"[27,30,32,33,43,48]",6,0.838221618105851,0.6851213946536916,2.6576695012709703,1.3437844499027465,1.6314911726295724,0.7576375143524778,0.001819341604856639,1.0353693365195227,3.4220551600638687,0.7555390876023843,0.4604674200773857,0.20784826252090471,1.4419509905001417,1.1837212455784911,69778.58505294754,34678.5894890437
96,106774.22267150879,98371.0,"[2,6,11,16,17,28,32,39,41,49]",10,0.4220913990097652,0.20694058309272778,0.4953020049617973,0.8149351983313342,0.3214840718173875,0.18033010036461605,0.1300799465557354,2.7043815294669518,0.7734871049164208,0.40426847329679694,0.24255495330251486,1.1052554827342729,0.6623332344180531,1.15590226628813,71052.95871894874,15542.364503503732
96,94760.43200683594,90344.0,"[8,9,10,12,14,30,51]",7,0.26974392910283806,2.66396893035267,2.0567606920188015,1.0226221827722655,3.351159950204447,0.2891906262173063,0.5367840901353365,0.9693327213711616,3.7766530777861926,0.5282909225169229,0.10598916254610691,0.12469044723553324,2.5289873666913603,2.0838409728472813,68163.84360968534,19092.85124002538
96,33153.51428222656,32105.0,"[9,10,20,48]",4,0.36214561032893644,2.5665465528140743,2.1989839502158275,1.0786855973836578,3.4466684127614315,0.7444485670086141,0.5372757906572128,0.9478566572010458,3.900358048621262,0.5880389418482782,0.17749612793102543,0.11972231664831545,2.593297737105983,2.1076641076418294,69891.98356289626,20507.666548461824
120,134150.52132320404,128728.0,"[8,9,10,12,14,30]",6,0.18925455135060298,2.8920908193597663,2.2838386690672503,1.1285543516055156,3.6342466556430666,0.2679528678774199,0.6482945369385202,1.0698418106288403,3.8891743532109113,0.3938571115154279,0.09048168240707888,0.10420150263365902,2.7236406798898773,2.2937731849213496,66235.09620264645,17983.0482129258
120,58071.100319862366,55499.0,"[9,10,20,48,51]",5,0.336746466213778,2.5362132295424455,2.2798719698039114,1.1373793277702933,3.4037371368118925,0.8879537475032266,0.48964265224454273,0.9766981880396308,3.8532654380537594,0.46868382567565925,0.2141533896739669,0.10865745873002686,2.554430198350227,2.0921253546710155,66681.97265298417,19252.971307064265
144,120310.9704375267,111360.0,"[8,9,10,12,14,30,51]",7,0.23767320550003768,2.7996399708224047,2.181645424843857,1.2896145208702934,3.5253042075367067,0.3547813837239966,0.6953241467806479,1.042652197515582,3.694067121278725,0.4985793116768654,0.020753107200893517,0.14558089118261575,2.628733327030421,2.1817949214677754,65865.54355722098,17402.946537811502
144,41294.88091516495,38232.0,"[9,10,20,48]",4,0.2820135845043026,2.7155884187697463,2.2572474796503585,1.3523904780566363,3.5277213926564204,0.8670743683390063,0.8644709059108906,0.9211894597128691,3.733494427556305,0.5633319905040329,0.10767281412544971,0.15485631054992133,2.6471053785908443,2.160792337724771,66531.94924906662,18238.81244921242
168,198286.08749487996,188194.0,"[3,4,5,8,9,10,12,14,16,17,22,24,30,32,43,48,51]",17,0.34485647312590806,1.555352302500117,1.8605533692043674,1.47313887096207,2.433452608105306,0.32984559465746566,0.4805080135357134,0.8201672415715215,3.367847899770788,0.6743682609102241,0.20775823499392665,0.18006208394293255,1.800656043416423,1.4500830497308899,64622.22571229085,22715.1735386093
168,3927.0972331240773,3717.0,[5],1,0.7894364814700319,0.8468716501280076,2.898247703873667,1.9944463970906932,3.482070323279585,0.983023296333595,1.1794946977027276,1.199256065590276,4.098429064126822,0.9048698679643677,0.28911797698338937,0.20527697951328872,2.349588561092506,1.6818372101339472,68335.1552793314,32201.177267479445
