time_in_hour,cumulative_size,size,pcore_ids,pcore_power,AF700 CD48_[R 730_B-A],APCCy7 Ly6G_[R 780_A-A],BV421 CD117_[V 440_F-A],BV510 SCA-1_[V 525_E-A],BV605 CD11b_[V 610_D-A],BV650 CD150_[V 660_C-A],BV711 CD11c_[V 715_B-A],BV785 B220_[V 780_A-A],FITC Ly6C_[B 525_B-A],PE CD115_[YG 582_D-A],PECF594 CD135_[YG 610_C-A],PECy5 CD3-CD19-NK11_[YG 670_B-A],PECy7 CD16-32_[YG 780_A-A],PerCPCy5-5 CD45_[B 695_A-A],_FSC-A,_SSC-A
-1,0,0,[],0,0.0,0.0,0.0,0.0,0.0,0.0,0.0,0.0,0.0,0.0,0.0,0.0,0.0,0.0,0.0,0.0
0,96713,96713,"[13,16,18,22,27,33,36,41,51,52,58,60]",12,0.16355615894878434,0.39323893719937675,0.4933782611397805,0.30533113412843776,0.5001198747645272,0.17041429896932078,0.289960798925978,0.31803395552759334,0.5622608259979827,0.1341770701082873,0.24235698804895686,0.100847228661687,0.32259815068867465,0.36853820240390966,0.19162370300006273,0.07546324346259031
0,26416,26416,"[35,46]",2,0.19319855164022692,0.4099012330092046,0.4971354040168299,0.309031607118058,0.5028316977126044,0.3733788173815924,0.21450304992183591,0.333038818092538,0.5593267281336087,0.15396919887485552,0.25896271425769724,0.09892058213233453,0.3339572698562885,0.3859813853312543,0.19864016599394463,0.08404214627513647
0,35471,35471,"[42,56,61]",3,0.17126180386961004,0.24015533834502475,0.346804324546524,0.2789203995356873,0.26353080829284,0.22651762605763387,0.2564255878083878,0.45240709682461105,0.17472238101545173,0.10446515493243368,0.24904878235007233,0.1845518386916349,0.14251263331523797,0.20535167748018296,0.19514200040350682,0.05272061908656136
24,205656.0,141388.0,"[0,1,4,11,12,14,17,19,23,42,56,61]",12,0.16841853030112958,0.23527025956745623,0.3363851011662658,0.2928028340413251,0.2603597713358174,0.22856831763734167,0.25158289410698786,0.48305550320165813,0.17672238953132696,0.10390182768874268,0.24777308481466806,0.2078465084017359,0.14105060206694106,0.2676014031195575,0.2075160321392417,0.05518743406664813
24,5424.5,3858.0,[54],1,0.18813664328800056,0.2814385952222375,0.4667032975863841,0.32549025004990007,0.3318868556504159,0.24773808513914286,0.26795530247221866,0.35545574065521646,0.3555333547027537,0.13720103191028746,0.268843298883521,0.1276289733940978,0.18428018191578005,0.2360729459460102,0.1856491189397989,0.08238671492352373
24,133066.5,86316.0,"[13,16,18,22,26,27,33,36,41,51,52,60]",12,0.1664760765543902,0.3823325211234904,0.5034981241460658,0.31081381650450884,0.4973234710631424,0.1781074941542822,0.289775989540805,0.32249036502460277,0.5728045376955011,0.1349138115860446,0.2398336496833529,0.10110617338908913,0.31209383051008255,0.3605606520508862,0.19250337706174794,0.0852528873157034
24,47543.5,30044.0,"[24,35,46,55,58]",5,0.1904677327003251,0.3766885941500344,0.4893230704668069,0.31450908747996614,0.46726085046984694,0.3325994621814072,0.23201688711535456,0.33638789158352606,0.5329320131363444,0.14943163807490947,0.25686598861777754,0.10299092749102998,0.2967114671619549,0.3480470378782886,0.19239727723236733,0.08875388603217786
24,42052.0,26617.0,"[4,12,17]",3,0.17337972608979785,0.23576282206787239,0.34701376971733416,0.2894961507152434,0.2628757652428392,0.22648536008798137,0.2501840722101898,0.5087768939765588,0.20211361051622623,0.1068143810576551,0.24743729296025427,0.2213822179255644,0.147915837952449,0.2900717512653363,0.2077594677227879,0.05879348664869275
24,39985.5,28825.0,"[18,22,24,26,27,33]",6,0.18733393973721066,0.3666993073449292,0.5120526308996407,0.315989588407148,0.4790687903926668,0.27338166760924165,0.25686343305644393,0.32903266455217406,0.5811011012178622,0.1469803571035744,0.251219377411017,0.10120445227591555,0.30701243928259436,0.3469565086812786,0.19789341296325294,0.09657410425700941
24,14219.0,9872.0,"[11,14,23]",3,0.17913058269214732,0.2468992358092833,0.3777690036158763,0.3018409103418069,0.2789908978960596,0.23432841966359733,0.2605837974622592,0.3783987573111861,0.2612265903197068,0.11868457437186253,0.25640540700256503,0.14173256558729422,0.14213433002117865,0.2105921430889286,0.20096356778503768,0.062209303124107475
48,202848.0,113251.0,"[0,1,4,12,14,17,19,42,56]",9,0.1634218632286886,0.23255566490990906,0.31731910694704324,0.2880701423869584,0.25306675330292583,0.2262248169961474,0.2503298539895376,0.506976038568549,0.15721184394105892,0.09674130024462756,0.2447206563784459,0.21230378725251625,0.13934463501275018,0.26193927842180625,0.20348871349772463,0.05383967721528246
48,37181.0,23950.0,"[11,23,61]",3,0.17311827698378285,0.2534028602702064,0.3957452508898538,0.3032597859391384,0.2826082275731897,0.2398191774657787,0.259395146628005,0.33732024971832364,0.2821822636119608,0.11526835366356755,0.2585133490946797,0.11485492893874236,0.13751375757908654,0.16955184688795794,0.17082580208953446,0.06921023563531731
48,105453.5,40570.0,"[13,16,18,22,27,33,36,41,51,52,60]",11,0.15632049798394018,0.41017936458490745,0.4996987907433759,0.3028720352362071,0.5218589582452853,0.17028613180291954,0.2942376157687888,0.31456241697186343,0.5678873959201718,0.12044683797164048,0.23472433062205314,0.0945606663416482,0.3352074513416538,0.36841019964828736,0.1853525986392516,0.07785314396654387
48,35584.0,19327.0,"[12,17]",2,0.16749024808323842,0.23408638670758208,0.33687082412975516,0.292134195776216,0.2584633967845814,0.2208541365843913,0.25028640361367893,0.5441559262586477,0.20062188019035893,0.1007619499559949,0.24558689980623322,0.23267321525830373,0.14971721211224254,0.30875149561899506,0.20571046476687438,0.05861411447488181
48,32695.5,20817.0,"[4,14,11,23]",4,0.1693872933988041,0.24675192251950404,0.356817375565796,0.2944263901950952,0.27328805034611736,0.23365319759666914,0.25775178125703246,0.4019124372299549,0.27199846944009054,0.10834289938649823,0.2514040824843425,0.1449011500510899,0.13773152410451253,0.20000575850019012,0.18138528977659785,0.06305010037574753
48,20882.25,18874.0,[58],1,0.14305992989221236,0.33845417773919756,0.4419658067677417,0.2918797941683092,0.4156623265445931,0.13734632975818686,0.2939263777057743,0.2957647026406191,0.4982262138564732,0.10038446060854905,0.24094451682891604,0.09464384793961633,0.21582445005997347,0.22494499319790606,0.1625843633647788,0.06685065609164485
72,219042.875,131707.0,"[0,4,12,14,17,19,42,56]",8,0.1658361731961953,0.24005557615504214,0.31444912780393564,0.30398988062683213,0.26194064827381913,0.22843706279582376,0.2490635094758987,0.5200910401283381,0.17681828540597622,0.10071553956801396,0.24757538520027605,0.20855800074487046,0.15098024303132032,0.28315797351658817,0.2051072937595736,0.06325561965521014
72,67361.0,27538.0,"[1,11,20,23,54,61]",6,0.17044582874847716,0.2552857331451694,0.4105984271039398,0.30451230054158634,0.28468430006120543,0.23307766841681113,0.2579333411844151,0.33014494838925446,0.23473460078486272,0.11202105521315334,0.25567641781336736,0.111268994170012,0.13676531292730518,0.17502291190536975,0.18333617424015947,0.069076159554871
72,263851.0,159766.0,"[9,13,16,18,22,24,26,27,30,33,35,36,38,41,46,51,52,55,58,60]",20,0.18075799657441027,0.3734632183810258,0.47269401739622874,0.3272653222725765,0.4736810241776024,0.2429874504669718,0.261596199129625,0.32183211979591625,0.5383971193223036,0.1393790804023832,0.2559323603941561,0.09663373035770098,0.2964453251294362,0.33492821367627923,0.19749012803059593,0.09477604751780498
72,53176.0,12978.0,"[16,18,22,24,26,27,30,33,35,36]",10,0.1984890087325775,0.3850573890875784,0.5092861029727778,0.32193616310082884,0.512878527207656,0.32613343839861547,0.22757514181906124,0.3371341723322653,0.5752088335768925,0.14701247423334332,0.25833259161157063,0.09545253182450003,0.33446446919526013,0.37212206915851875,0.20618939978321324,0.09933906732108058
72,63855.75,29716.0,"[4,12,14,17,11,23]",6,0.17389216580283512,0.2496855870826291,0.35679055766862094,0.3189811607943308,0.2797822447177707,0.2307156465029699,0.2552587106040447,0.48304672442693686,0.2523026345930774,0.1124873237310069,0.25326407837384673,0.19414709225681492,0.15922837685786823,0.2956539672241556,0.2015337439437545,0.07111844589253047
72,5175.25,0.0,"[38,46,51,52,54]",5,0.19221047481284723,0.34119964415227716,0.4966965813884561,0.3282741457011253,0.4257825767658175,0.27595636544752106,0.2619938153488577,0.34433275644652916,0.48978385766945587,0.147551161969992,0.2651413111887339,0.11317971193385494,0.2668151186145163,0.3265953530202318,0.18985642099419506,0.09122629768526025
96,201109.4375,91588.0,"[0,4,12,14,17,19,42,56]",8,0.17679361740241226,0.24010685552453623,0.3206760616457409,0.3162306323146109,0.26505132596077347,0.22679026856891746,0.25741563454689664,0.528814009990922,0.17304211038004716,0.10809159288359793,0.25108036282603075,0.231552916930984,0.1565940215474765,0.30364703013102057,0.20600516846860545,0.059221801661245986
96,57691.9375,24814.0,"[1,11,20,23,61]",5,0.1745615818558039,0.2594886511845557,0.4181158873572793,0.31270696184802277,0.28847394673346904,0.23552749445502452,0.2631619387811346,0.3585349167818164,0.2444060349248123,0.1178494467409152,0.26016719949445194,0.13002434051412276,0.14473880852762144,0.1824944012342673,0.1923825982383899,0.07038054560366028
96,176673.0625,78297.0,"[9,16,18,22,24,26,27,30,33,35,36,38,41,46,48,51,52,54,55,58,60]",21,0.19233808243206915,0.39007665237504907,0.4804865465245096,0.3386051865567359,0.48313531323304815,0.3029958158534887,0.25731365097177405,0.34182876759066316,0.5303613216417509,0.14384681585851014,0.2604488060739778,0.10020342069526245,0.31174208582199914,0.3627676876819666,0.19623131223003984,0.09027326596358992
96,13262.6875,4105.0,"[4,28]",2,0.1965604207747824,0.25777026873037745,0.40988059469288574,0.33881603619927786,0.29014486470502243,0.2467372962663307,0.26200795353799283,0.4294733339333046,0.2707948383328708,0.12924366138686968,0.2619517026405354,0.18567374111290616,0.16215556192418198,0.31652480101162656,0.20850758661933347,0.08069199245209284
96,74909.5,40433.0,[13],1,0.15604297371698514,0.4298910894039962,0.4968447912893605,0.34072360573993754,0.5460930411756901,0.10351897101533333,0.3376566160240427,0.3356063680946785,0.5544778395852565,0.12772997051274998,0.23866648632031703,0.10147800290578736,0.3537771017260201,0.4248324630001897,0.19821562830163902,0.0822152435746847
96,12581.0,4791.0,[17],1,0.18014643901148533,0.24437631595090428,0.3099646635881585,0.3343041542102397,0.2704881052696567,0.237118314174141,0.25783392791350024,0.5470844702097688,0.2674134679479062,0.11392586774727502,0.25427271065058704,0.23988574275645208,0.1677944906763334,0.34707261843460224,0.21189642048276813,0.0660922057316955
96,952.25,0.0,[18],1,0.17272146289365173,0.39347842348883905,0.4920056388660799,0.31089788200431745,0.48193619484812356,0.2399401516424877,0.2651113156107708,0.3252330957268749,0.5559959284862878,0.14366050970015562,0.2480700862909657,0.10134741194835845,0.3117914744488042,0.36315815312542654,0.19328698034210914,0.08436831540300728
96,26960.0625,10818.0,"[16,22,26,27,30,33,35,36]",8,0.19537373141805428,0.38002800280682614,0.5233546693850877,0.33218206424081487,0.5203306098787548,0.29506563907415734,0.26123619792497915,0.3444375016259375,0.5770952961988751,0.1434447989236605,0.25421334168069054,0.10003158316805055,0.33831454921169524,0.385530687601364,0.20314601929821252,0.09570041830905719
96,10331.1875,4361.0,"[11,23]",2,0.1726076191393047,0.27400614245191757,0.364712070060348,0.3162863468149748,0.3120926943974341,0.236354708231573,0.2656861703497975,0.3628681245621374,0.3150400099864968,0.11690321481300438,0.25871410179436954,0.12851977551175728,0.16120820223223503,0.20039107115577498,0.18077671795603076,0.06361742263726225
96,4771.625,2184.0,"[38,46,51,52,54]",5,0.1941477940076066,0.34045112419252305,0.485782192043275,0.3409834118992365,0.40951691394527306,0.2633782807111411,0.27318356249978853,0.3572081741275845,0.44118106048242545,0.14791907627270826,0.2705471275314941,0.121491721244849,0.25643460820187275,0.3212060257137172,0.19007641374943324,0.08659238497544074
120,173618.625,73321.0,"[0,4,12,17,19,42,56]",7,0.17664430639736997,0.2391044198362068,0.3240928626048369,0.3236734028834027,0.2662778668105559,0.2256756587377109,0.2615784194869859,0.5325556613319831,0.17028027287058214,0.1099530161193218,0.25336084953174914,0.2402190865840987,0.15504921549466102,0.31762461794517904,0.2042015719591262,0.05616331302747552
120,65015.96875,36170.0,"[1,11,20,23,61]",5,0.17598566969117985,0.2638849873013777,0.42953546999963704,0.3186083590788723,0.2915524449473304,0.2363118968260979,0.2668503709629083,0.364538859810971,0.24907382952600027,0.1206651153959529,0.26557353366426373,0.13292352803865165,0.1473289128930733,0.18593250179082335,0.19011380230377542,0.06922275696257621
120,174099.125,104946.0,"[13,16,18,26,27,33,36,41,51,52,58,60]",12,0.15939300329744116,0.4483808364585521,0.5095411577292959,0.3485480978647508,0.5521007687167979,0.1587539174896386,0.33144379773760785,0.34620449287840105,0.5442129721889731,0.12135904614444146,0.2429571962229311,0.10114059407734613,0.3640256444040311,0.4412081557241774,0.18867678556417472,0.07470758351136322
120,29952.0,14280.0,"[12,17]",2,0.1833516061903443,0.2412924947834375,0.35381135187645096,0.33669378341151784,0.27485559161277473,0.21912199670977062,0.26476118743118093,0.5506739141990155,0.22226365432689046,0.11707529740505294,0.25636765502018977,0.25764502610517,0.16511362817894756,0.3675490934893325,0.207510873614861,0.06069801008311653
120,82659.21875,60002.0,"[24,30,35]",3,0.20656347064711178,0.4597904864783868,0.5298605075092908,0.35820264701442833,0.5775732535562588,0.40862412447865165,0.23554829352402745,0.3725758740792108,0.5703687577935636,0.14404752665072837,0.2626300315688846,0.09620172413536877,0.39557392591248003,0.47908657231728535,0.2010196423992032,0.08804714162671727
120,30112.84375,16797.0,"[16,18,26,27,33,36,30,35]",8,0.2057751797235168,0.3721758018748844,0.5425155173473095,0.3565332196415201,0.5389993379186796,0.3176873274858207,0.27008348420855155,0.35608944373306456,0.5818956470794704,0.14417506959172266,0.2618002681275635,0.10025115332580695,0.3508818241888389,0.4113174781165603,0.20184733138570904,0.09804052142133171
120,18326.84375,7752.0,"[4,11,23]",3,0.18183001937515805,0.27250065157968506,0.3950004654826134,0.33048673547869295,0.30684220957664715,0.238862061717616,0.2675226873604361,0.4024407979280604,0.3096726217083575,0.12291878134666522,0.2661695280027377,0.14866992421873282,0.1642924871518211,0.23636235728062013,0.18662728825322245,0.07152146374966344
120,28539.53125,6627.0,[55],1,0.1849922622067857,0.3452570430094743,0.4479156243084467,0.3391133035632138,0.4141337454804756,0.2628078228432354,0.2685180535122071,0.33347294152219703,0.49985345755948357,0.13541535328645388,0.2612852131284165,0.10112415025542038,0.24577101879898683,0.2815986819534433,0.1783366849927527,0.08331748168370032
144,170283.3125,83474.0,"[0,4,12,17,19,42,56]",7,0.17956975842319536,0.23496769309316717,0.3205637591737725,0.3628223697602282,0.2658700135762095,0.22629907916144484,0.26958905624055457,0.5574385502013857,0.17646757636611357,0.11341858960482276,0.253739930537399,0.2706970953260215,0.16174631650660856,0.3490420321697041,0.20419872942566328,0.05420504234669197
144,56581.984375,24074.0,"[1,11,20,23,61]",5,0.1807750643510165,0.263156677087575,0.43473523566852407,0.3388477017934941,0.29103876240898335,0.23923438845380865,0.27202250601481986,0.3676582685697657,0.2502648946143841,0.12449144889569208,0.26752876491257743,0.1375689049406643,0.15259105238300932,0.19435280526327997,0.18954406963687875,0.06818081965492813
144,6301.671875,2065.0,"[4,14]",2,0.2042096418767434,0.263487270517271,0.4348993193723872,0.3677979340582494,0.29948059581940567,0.2482211591918666,0.27934117259499147,0.4541908300498784,0.29198352016856,0.13847245185536025,0.27331779095526904,0.1863578374342448,0.18191613166387274,0.3126801443805682,0.19649064459113028,0.07992599948081475
144,174660.59375,88924.0,"[13,16,18,33,36,41,51,52,58,60]",10,0.160545056961575,0.45686638308884236,0.5119111420894736,0.36792152711801795,0.560952811132413,0.1598910468541357,0.34254707694171044,0.35055804275641517,0.5374996154072982,0.12717274802631717,0.23789364341035057,0.10685953749416766,0.3726976611312554,0.45721616770801593,0.1868691430772993,0.07126242546519314
144,10630.25,5188.0,[17],1,0.1875100228915961,0.23992841069802584,0.3100474089743336,0.3665252127639889,0.26854018555469983,0.24091406870490004,0.27084063840627964,0.5658472098212517,0.2696914807941772,0.11731049097203923,0.256285505346808,0.2656857951209866,0.17240424635535898,0.36818309092340074,0.20673045410585836,0.0586674508894167
144,90689.578125,48047.0,"[24,26,27,30,35]",5,0.20520909333857823,0.46013682251528476,0.522441296646921,0.373414828674407,0.5741308587225435,0.40411049989470266,0.2462637895932128,0.3729015301718789,0.5553790795171959,0.14754762369583016,0.25738254381219317,0.10250531131993791,0.3920694986025132,0.47902286569362823,0.19704364680354258,0.08311345261205616
144,24466.5,9314.0,"[16,18,33,36,26,27,30,35,46]",9,0.2119098634531266,0.36505630980013837,0.5466895385470547,0.3788756836129749,0.5405493756499551,0.32744362771212,0.27853102527596524,0.3603310638103769,0.5762707092730843,0.1529656503216792,0.26208783636825694,0.107609448795108,0.35400078129191825,0.42262025683917864,0.20139226474869995,0.09926526587901585
144,9277.296875,3958.0,"[11,23]",2,0.1795352525458224,0.2778712802791966,0.38537990012600304,0.3527719501988415,0.31564017497559227,0.24107086443714257,0.2745245845938416,0.3728149596379772,0.3328451132665126,0.12559412334590941,0.26863202019850335,0.13609500090710513,0.16596167722459004,0.21816284789179405,0.17272542737045143,0.06452327380243714
144,24647.53125,12580.0,"[49,57]",2,0.3527761826080324,0.25879058623352674,0.46934497092926225,0.46854775771163915,0.4547469224271782,0.1811206976356262,0.3215024950917219,0.3747798978405852,0.7615332855928837,0.40399797192168024,0.2940853097070879,0.1268436317029448,0.37207497848274634,0.5220540479337772,0.21809693006446879,0.12672329551456377
168,148397.65625,63256.0,"[0,4,12,17,19,42,56]",7,0.1709560935969853,0.23361200699544193,0.31677000022189744,0.38973978341171056,0.26718366157799833,0.22976432415022013,0.27592993770856156,0.5689182384049479,0.1882771461770075,0.11534856264480407,0.25388697536956356,0.27031417011584175,0.1640679185873695,0.35784122647996847,0.2063021974425974,0.055694297913078915
168,70456.9921875,42166.0,"[1,11,20,23,61]",5,0.17525805394374863,0.26920857032930856,0.43174147576372857,0.36019009466145946,0.31678140846083436,0.24050925445574692,0.27575172941193826,0.3537652903123046,0.28380803306136754,0.12564254520699142,0.2645009452819953,0.12807493181460958,0.16804602353934295,0.2098892951761778,0.18051302853755585,0.07266720650261042
168,132869.8125,51083.0,"[13,16,18,26,27,33,36,41,52,60]",10,0.16124351695757552,0.45435641743651173,0.5177769635464539,0.3801429006686107,0.5667627882468337,0.15436174173376044,0.3488424294686692,0.3479252248806943,0.5295091216302716,0.13439993984780074,0.23716409866157634,0.10688474483496957,0.3722384439096779,0.4500081812165219,0.19148292802284245,0.07607280812305486
168,26117.0,10995.0,"[12,17]",2,0.17889350836036785,0.23700770855043857,0.3438433554760421,0.37968847058880667,0.2727236133599408,0.21900563956242622,0.2772660262350715,0.5680921943113466,0.23173532669021035,0.11770983610981735,0.2545462873396724,0.2672022255249681,0.17143991347926457,0.3702150435053325,0.20859549535580235,0.059279103763165586
168,93083.921875,75316.0,"[22,35,46,51,54,55,58]",7,0.17660443937585826,0.3227713462382642,0.44919425245963385,0.3918069096892041,0.42084473915754084,0.2430781714623839,0.2868210482327076,0.33977729834591164,0.5041298441481266,0.15192719785895653,0.26236690727271006,0.11003864023285549,0.2509800569847506,0.30296739001101863,0.17637202855472617,0.09165945287353021
168,72414.421875,28891.0,"[24,30]",2,0.20650220379355555,0.45639456682860535,0.5236211267940386,0.38049582732991394,0.5750397119426236,0.40814450985961537,0.2468752763432248,0.3681900942187235,0.5406438458752155,0.15445562067202212,0.2575958233181246,0.10084042384430464,0.38611575451786695,0.46181691383786283,0.20120546057614486,0.08786093275305104
168,29686.7109375,17594.0,"[16,18,26,27,33,36,30,35]",8,0.20794166158952213,0.35940806357818555,0.5354197476087739,0.4034622797936345,0.5320287419953625,0.3053574904458655,0.292579154431377,0.3533387979023598,0.551125251770794,0.16378053489084896,0.26320726564238894,0.1101556050256671,0.34223525848947306,0.40375302202386726,0.203839854689415,0.10398191970076924
168,4573.5625,1876.0,[4],1,0.19112232573751914,0.267181850212615,0.4263702173833035,0.3767210220274431,0.30696671097112865,0.25144860773741956,0.27840378929717857,0.45496002462508994,0.3008188406055127,0.13123484720109438,0.26810025210473143,0.18375712913073677,0.17873091966371385,0.30568345839218436,0.1985399412991365,0.07880094154925234
168,53086.21875,38086.0,"[23,46,51,52,54,55]",6,0.1818134064992877,0.3034153696935072,0.43258636089234703,0.38621809390664014,0.38380355914755476,0.27395832081277377,0.2732166199015677,0.34871157637373973,0.4548513574526954,0.14991218951431656,0.26722500488307127,0.1149459502906012,0.22416979618607277,0.27640737376066427,0.17384912267287228,0.08776250649542224
