time_in_hour,cumulative_size,size,pcore_ids,pcore_power,AF700 CD48_[R 730_B-A],APCCy7 Ly6G_[R 780_A-A],BV421 CD117_[V 440_F-A],BV510 SCA-1_[V 525_E-A],BV605 CD11b_[V 610_D-A],BV650 CD150_[V 660_C-A],BV711 CD11c_[V 715_B-A],BV785 B220_[V 780_A-A],FITC Ly6C_[B 525_B-A],PE CD115_[YG 582_D-A],PECF594 CD135_[YG 610_C-A],PECy5 CD3-CD19-NK11_[YG 670_B-A],PECy7 CD16-32_[YG 780_A-A],PerCPCy5-5 CD45_[B 695_A-A],_FSC-A,_SSC-A
-1,0,0,[],0,0.0,0.0,0.0,0.0,0.0,0.0,0.0,0.0,0.0,0.0,0.0,0.0,0.0,0.0,0.0,0.0
0,116439,116439,"[1,2,3,18,23,33,41,51,57]",9,0.26714047195527635,0.13841972572763428,0.34432243828099285,0.49390278052885694,0.2772314808268699,0.17785848753423994,0.024006121110624612,2.5845556831989436,0.7280426367454208,0.3296443218251627,0.15991688103642376,0.9813733562809777,0.5914828052027231,1.0202102270115703,70259.09545770747,13534.351892407169
24,181815.5,123596.0,"[1,2,3,18,23,33,41,51,57]",9,0.2511553670616642,0.12626860525092276,0.3801842659976762,0.5483044265202808,0.24191315440102734,0.19993177332515177,0.01681462757025587,2.528812620084665,0.7208953336596707,0.30811576781132877,0.15023693637505842,0.943949452120421,0.5395422354227205,1.0088177901746511,72500.25728279492,14335.658202958488
24,9789.5,7458.0,[42],1,0.3439573949639949,0.5429737904898229,1.1982412234026207,0.7483109984677494,0.8774366527912636,0.2929975981408628,0.19590394540069145,0.6688617804790833,2.258706610705348,0.48961907548904227,0.298316308851327,0.18612771530721461,0.7484763186577422,0.6188403434291831,54194.57500383063,17696.36447213851
24,65332.0,41161.0,"[35,37,46,48,52,54,55]",7,0.1258462686585482,1.7668747399589777,1.8994011744244825,0.6741532876844452,2.577630911957382,-0.23620568683034482,0.5120571761464565,0.47188955787362996,3.821694644125396,0.4794357007515505,0.04829591699320135,0.13277033982581177,1.885485757790979,1.4463128174171884,66016.17388109957,19684.004163350226
24,51686.0,35159.0,"[3,23,33]",3,0.3211739263630409,0.11895430082612712,0.48651456426304707,0.6217287566555734,0.2278031706554957,0.3727792454726593,-0.09673082047362414,3.2528622453856,0.8676337568006863,0.36907825932554505,0.1678585151491765,1.236760879880433,0.6461763183647385,1.4573047759257802,72957.88755175479,15479.010950741
48,207719.75,116812.0,"[1,2,3,18,23,33,41,51,57]",9,0.23033023811649644,0.13291650554653245,0.3456414278817981,0.5225580491262787,0.2234929271000916,0.20982390578892463,0.0033663826935041996,2.511010130801238,0.7359717540267586,0.28260957302928835,0.1403681145040303,0.8753128188581034,0.5390390760640226,0.928767370631582,71004.86635478833,14803.43056449854
48,26076.5,19430.0,"[32,42]",2,0.5351152686230836,0.5211451952045012,0.9904142216746763,0.675372110118313,0.9030495552221556,0.38909816616493975,0.05202227144171356,0.7371605815197633,3.5336383502099573,0.899755788641113,0.2757916226008117,0.14450480163173762,1.0036672436772558,0.6899423331064387,55623.10892949582,19693.83437194406
48,54317.0,28474.0,"[3,23,33]",3,0.3066547279673022,0.11926193630446624,0.4381716469475574,0.5891675177798819,0.18054002559511417,0.4080809822293139,-0.16392869006939792,3.369906462166525,0.87393970740284,0.3265386023850726,0.15480023523022357,1.2451934947760335,0.6615679796472543,1.4123618316963364,72077.37570189816,15717.827420512836
72,229398.875,125539.0,"[1,2,3,18,23,33,41,51,57]",9,0.23375460286150207,0.1818147529995513,0.304337375519498,0.6210607781075601,0.2766933339973905,0.21071853429642462,-0.006284206490761335,2.541477669329259,0.7470135851614351,0.297505559112376,0.15116968113890739,0.8206340215901264,0.5906675517442058,0.9826733176606692,70866.68853105766,16109.47582894644
72,23948.875,15423.0,[42],1,0.24739513363363264,0.8401097596859946,0.9450267123038074,0.741718466519838,1.1373166890981494,0.40018373279537967,0.046922953682571045,0.7320260983866698,2.515030195880794,0.3947143073056656,0.2525424891931176,0.1618092746632167,0.8586261293014849,0.6260827479787674,58438.07794729403,18932.57867018801
72,224816.0,131065.0,"[4,5,6,9,10,11,12,26,28,34,35,37,39,46,48,52,54,55]",18,0.21967303753068812,1.7205841145080867,1.686769594986012,0.8021960463273268,2.446496904921141,0.10826986950105977,0.24194504684831442,0.6582906420895305,3.606838673640324,0.4576175944789316,0.17140290635286037,0.13346293437578027,1.8032081798398432,1.3739501698294383,67153.85186107754,22038.501601309454
72,63757.5,36599.0,"[3,23,33]",3,0.29144960648550766,0.17568389900992942,0.3915718964141446,0.7196915677783067,0.25539456674311944,0.36133442669293214,-0.1270519383013733,3.2305917576246124,0.917549346719993,0.3422385150903805,0.16724654342626089,1.0981185708642058,0.7056083058189163,1.415341175565622,72217.65219778058,17287.24306944282
72,134095.625,77847.0,"[5,6,10,11,12,26,35,37,39,42,46,56]",12,0.27722937017799887,1.6308376599236518,1.5324912603776206,0.7975882921133701,2.1492601949215504,0.5236528757938621,0.012951219964298044,0.6340950155411478,3.3812362540938534,0.4897311928334719,0.23847711163395102,0.136503722594419,1.6518352602750825,1.2687450503362803,65288.5299128886,21619.77326255045
96,202109.5625,91001.0,"[1,2,3,18,23,33,41,57]",8,0.31287595391825174,0.1675171794113588,0.29209173363240604,0.6864390879560047,0.27370420975472864,0.17339227703785798,0.0722273592612086,2.792276816986022,0.6956936278364511,0.3300516642956328,0.1734716632510196,1.0298102981359425,0.6239764748460991,1.0907330722674247,71102.09438012139,14998.423045915983
96,21565.3125,6000.0,"[42,51]",2,0.3271939824457719,0.7499970212667915,1.1413080901244763,0.8776658005535509,0.950689875227885,0.5139922904664618,0.02214953327246061,0.8852941650364432,2.3073302516715097,0.486232426045876,0.34227362273615825,0.22675171244909997,0.807528676077038,0.6096031117651317,66965.36523641851,20862.85315828366
96,104281.625,53837.0,"[8,10,11,14,15,26,27,28,37,39,46,60]",12,0.5323603309319813,2.1531863108121847,1.9863558192670632,0.9686417882986329,3.0294380519273036,1.1710070225381288,-0.24579043191633243,1.0445131022531542,3.8378376426545677,0.5942094739077995,0.24487425339135926,0.10790171759226475,2.2849671123615996,1.8270819369040356,68881.31956133207,22407.75342731752
96,78650.5,44361.0,"[9,34,35,48,54,55]",6,0.1152901399736821,2.2489884849254214,2.0636977921977633,0.9962953443469873,3.2263802076337824,-0.6440113662802519,0.9527088852979326,0.8417709030330425,3.837486423567697,0.45560977969545513,0.03554896704327071,0.1493975020700753,2.3527526586107244,1.9257007712776761,68728.63821590456,20890.396017825624
96,29321.4375,14115.0,"[3,18]",2,0.26240423192075824,0.16686918765493663,0.21464181526528048,1.101751170257249,0.36868086855180504,0.11471044986923151,0.11169827653615627,3.6556123533400378,0.9935495978774057,0.4005814949642189,0.20557331913297183,1.526079335000198,0.7634386137083998,1.7765420686784166,73415.18736930957,16085.319691437364
96,59335.4375,28628.0,"[10,28,34,52]",4,0.28984148468610904,1.8648955614909735,1.8217627669067995,0.9190697083572497,2.7019722250962963,0.20736381500726098,0.44931600493171064,0.9141669715810656,3.6608495749820613,0.4921054638543404,0.15869396238546507,0.1385407130825086,1.9756414463616325,1.5180497008796392,65692.20992092627,20909.22363216743
96,6501.6875,1624.0,"[46,56]",2,0.515895171186324,1.3263947939092646,1.7345308548838179,1.097325419141177,1.7184031046459163,0.5860988228921349,0.027283510780856446,1.0450224138925388,3.242335543272419,0.6472164952656524,0.4364827063358532,0.22224882192123196,1.488228039114842,1.3370916325377045,63006.84122391289,24163.984504023014
120,164579.59375,71729.0,"[1,2,3,23,33,41,57]",7,0.33076041257051436,0.1832257111187019,0.40538718464318046,0.6471281721623381,0.2686210369122284,0.21037020148249064,0.07861534130845982,2.6535196486743686,0.683382399425282,0.34061196916081504,0.19829523627966505,0.9783571427766553,0.5915429252662109,1.0185303120270246,70793.21416784119,14497.654245181915
120,120981.53125,73958.0,"[8,10,11,14,15,26,28,37,39,60]",10,0.5255167193683197,2.525173494636718,2.09639457144466,1.0678089080089448,3.3030481117456243,1.3112829196801454,-0.21049953068430582,1.210860659370279,3.8389119123931352,0.5427338342086866,0.24118518338258843,0.09516200215296511,2.493457123179709,2.0662479694519504,67085.15848777519,19933.853052467322
120,106337.25,67012.0,"[9,34,35,48,54,55]",6,0.030150427004645763,2.4987895512514697,2.2524919830315606,1.1017355651127065,3.486605623986446,-0.7148915028441352,1.1617563668475652,0.9385822470253742,3.882801966972107,0.36097132953850664,0.0037154518122028968,0.14100126173359695,2.5368601520542615,2.1104344013945,67036.7425149701,19239.66833823513
120,24292.59375,11378.0,"[10,11,14,15,26,46]",6,0.5286452001626019,1.52340159494985,2.2176301337200193,1.040547285991225,3.0302142765889255,1.0246310979979787,0.06895521534984583,0.9020438015663199,3.9284184656215966,0.5122571602173,0.2515542257851231,0.11257556700666249,2.1409533612405016,1.605350426578055,65805.38572584491,22699.1820500847
120,33496.0625,14277.0,"[3,23]",2,0.4789126410902771,0.18083960904266894,0.20527062565935106,0.7747287704039798,0.1481469729641698,0.7407070940623619,-0.23087862155067285,3.3553516138911803,0.9104015723004789,0.4078877746031715,0.241676736998937,1.2720329871477396,0.7210121750037753,1.4396310336756,71910.7213870289,15713.475934671393
120,10894.6875,6390.0,[34],1,0.5189153802484008,0.8806396030519217,3.026472611935269,1.3191247331669507,3.6041336788630036,-0.7252857986719442,1.2603878172618548,1.1568441604595145,4.551237270180419,0.3848986457791952,0.05664942479705859,0.15529644468634551,2.4203020810744866,1.6963702581762876,64602.857860769276,26595.789553394785
120,48553.03125,23512.0,"[2,42,51,58]",4,0.33348230737782414,0.44631267361847193,1.2858148795942732,0.8135407178935123,0.5254216412640247,0.4126054319497299,0.06989396571403317,0.806347354027845,1.3531692408706428,0.4553696010090811,0.34124015782163397,0.2382205518167292,0.546174166137927,0.5145149679126626,67640.02624449936,18364.303093846494
144,148430.796875,66141.0,"[1,2,3,23,33,41,57]",7,0.3863812356610625,0.15785263697645302,0.4298026821127974,0.8224733768904935,0.25963156463623527,0.21554160090840258,0.13147086561129928,2.808177414780423,0.6986784348735356,0.35972700086898357,0.20571029853358258,1.1033369389993437,0.6387817151978789,1.1027594988564209,70875.59042655733,14244.606560864711
144,112662.765625,52172.0,"[8,10,11,14,15,26,28,37,39,60]",10,0.5343576514951882,2.5852381682693313,2.1248490933606203,1.1916760640914292,3.381498845721239,1.357619633513582,-0.09857682134098411,1.2754249034040632,3.7757387562674958,0.5703854712103363,0.1934058871920996,0.11767335602933848,2.5423726974681364,2.1001528266029448,66521.04429910213,19148.29884596126
144,108484.625,55316.0,"[9,34,35,48,54,55]",6,0.03064079686867771,2.5699026161486804,2.2491514757442874,1.2343099078661095,3.513010665323581,-0.7210723991847339,1.2575637597242921,0.9469764222326353,3.792632613342269,0.40145792532337754,-0.04571007880510036,0.1687341333727247,2.5652905745308687,2.1356399613940114,66280.85998361516,18375.35306961699
144,11790.765625,6007.0,[3],1,0.5814112466018884,0.21154818212610405,1.0070271480978863,0.9582081095534285,0.17102186615187343,0.7881717923984473,-0.17775908823510278,3.2126930383642387,1.2845364704608522,0.4844012525016288,0.2720956784294781,1.2784929518558612,0.7630343385673805,1.2666228307706386,72806.4822338457,17829.876675205236
144,20050.296875,7904.0,"[10,11,14,15,26,46]",6,0.574468665802176,1.49078535871352,2.314088374918844,1.1836524139807745,3.1014201761694564,1.0812072795126946,0.2051563380514212,0.9501633844051547,3.859707077113884,0.5435201329079454,0.21924801971526442,0.13857796116718968,2.2094798829334694,1.631657027004741,65029.77742068966,22116.844990605663
144,9551.34375,4104.0,[34],1,0.5773117150531792,0.872498214472428,3.0063095271984115,1.4876920758597336,3.5626528647049427,-0.72283979522351,1.3279387867217682,1.184304696101342,4.43110343667448,0.46170563230631856,0.02863056133954256,0.19125970336471032,2.41091278768531,1.7468164479539838,64398.507068704355,26023.32137820927
144,39326.515625,15050.0,"[2,42,51,58]",4,0.35770063833919363,0.4108209380610339,1.3485317136922892,0.9005506921391646,0.48173367354762453,0.4121265196041062,0.11408682349415988,0.8317256021136399,1.2739312040250397,0.474897271299939,0.34542484245918104,0.2647801488865046,0.5564043989523607,0.5199881939916491,67968.66204695695,17952.17419544782
168,130774.3984375,56559.0,"[1,2,3,23,33,41,57]",7,0.3165801743844048,0.15263545758275265,0.41283692928864646,1.0258035509089067,0.2844730357693752,0.23522648089240072,0.1674419325257337,2.789065823425932,0.7906170968642748,0.36594371113922675,0.20319921927277118,1.037627990493104,0.6491375802242453,1.115070231418875,70852.24366318368,14820.868355409079
168,98903.25,43128.0,"[8,10,14,15,26,28,37,39,60]",9,0.5430337333094446,2.3244227358685237,2.069317913687286,1.276645331114223,3.24511523885738,1.3662362648026691,-0.11115664894226773,1.1893613246746209,3.6424039496735934,0.6233435394710255,0.20552019723726156,0.11256772172750029,2.3713549816970043,1.9029307605577375,66269.9717097264,20341.672053243907
168,93361.3125,39119.0,"[9,34,35,48,54,55]",6,0.05029574488897581,2.4707960135382887,2.2413925411251925,1.311804380302818,3.4696758074209284,-0.6922446034882292,1.256611503503005,0.897710098697194,3.658736066072376,0.4562571088103776,-0.04309357742743947,0.1654049060934082,2.481835463067297,2.019231734166365,67082.72769837058,19479.33038644889
168,32118.65625,9263.0,"[10,28,34]",3,0.33727970786035444,2.388875505499886,2.2512405969111877,1.352528779710393,3.4758430597758667,0.5330775610451284,0.8801237509235889,1.3451703514928104,3.7907383203186105,0.5459481854938285,0.10511566381858861,0.15789326740421383,2.506081037594977,2.026398856732888,65324.06073183698,20012.683858777396
168,26308.5234375,20121.0,[52],1,0.1814805187152675,1.0320320642249996,1.3889679044808512,1.1653732700405142,1.7914463368760591,-0.05675780451736645,0.5401383882748263,0.5382869266097412,3.221656297919773,0.5704057457445374,0.22287440420569293,0.15639523450901405,1.2768881459092367,0.8805092067230487,61055.62732610131,20806.381829082715
