time_in_hour,cumulative_size,size,pcore_ids,pcore_power,AF700 CD48_[R 730_B-A],APCCy7 Ly6G_[R 780_A-A],BV421 CD117_[V 440_F-A],BV510 SCA-1_[V 525_E-A],BV605 CD11b_[V 610_D-A],BV650 CD150_[V 660_C-A],BV711 CD11c_[V 715_B-A],BV785 B220_[V 780_A-A],FITC Ly6C_[B 525_B-A],PE CD115_[YG 582_D-A],PECF594 CD135_[YG 610_C-A],PECy5 CD3-CD19-NK11_[YG 670_B-A],PECy7 CD16-32_[YG 780_A-A],PerCPCy5-5 CD45_[B 695_A-A],_FSC-A,_SSC-A
-1,0,0,[],0,0.0,0.0,0.0,0.0,0.0,0.0,0.0,0.0,0.0,0.0,0.0,0.0,0.0,0.0,0.0,0.0
0,117815,117815,"[0,1,6,15,17,22,26,41]",8,0.28401431168357316,0.14188137346687935,0.33913634552477,0.5158118527182447,0.30144560846241797,0.19714498613079523,0.010274901667872705,2.5556954016381654,0.7628461758434811,0.34744670786402587,0.1623392127997243,0.9828475572550219,0.610975084063997,1.0731028572083379,69553.82835801903,13471.351118278648
0,10918,10918,"[23,50]",2,0.43713836673383066,0.43672176827257614,1.7756775248213992,0.790694671093612,0.643314383953109,0.3114550344385396,0.12713089512730757,0.9889143359589667,1.6584290923246052,0.5797542432679966,0.37685934401904975,0.35404693322952663,0.7183879212309946,0.6328572993222221,66313.49624473334,20619.8585821579
0,155900,155900,"[3,4,5,7,9,10,11,12,16,18,19,20,25,30,45,47,52,55,57]",19,0.28660780876844316,1.8508626753111024,1.8765264187107182,0.7068458363630485,2.5939580633867796,0.25796316066067737,0.18514438872995642,0.7141792721167413,3.8053503914817175,0.5977864712700439,0.15535005033354654,0.16407371629249468,2.00380110363695,1.5912678308402828,67496.88939063501,19995.891930724785
0,6076,6076,[4],1,0.3318774465108625,2.06746740289662,1.9360861912442417,0.7171873171494374,2.660810634957208,0.6439823821593165,-0.019314647465439982,0.7491508795259989,3.852125736668857,0.6629129521066445,0.20603142725477142,0.16492377715602458,2.1028699025674724,1.6979554282422622,68312.75312705722,20365.924950625402
0,7809,7809,"[27,39]",2,0.750191325649896,1.2726766107055867,2.80908492111666,0.9074773626584669,3.359623171724935,1.4811696365731881,-0.4653307233960806,0.9570635250352248,4.6252961509796435,0.6333508946087861,0.23530374465360593,0.11246060250992496,2.322060160968117,1.7121065539761797,75365.53617620692,28661.878345498884
0,15463,15463,"[9,10,11]",3,0.35417877087240246,1.9142674490073173,1.8624628638039291,0.7055212786005276,2.4586072894651783,0.6788427213994719,-0.04111797749466595,0.7298382591347115,3.7223360009700417,0.6581628523572384,0.221234077604604,0.16219274487486346,1.979971783483149,1.5956228960098267,68142.42203970779,20670.737631766126
0,24983,24983,"[15,22,51]",3,0.32767718688708714,0.12112546319497097,0.5037337090821739,0.6551334410999439,0.3320675338830439,0.32069790781731733,-0.08568098959291337,3.263080337109245,0.9507820582796286,0.44694680130488473,0.19060774834888194,1.3369957768482588,0.7451239096185368,1.6371920186126558,71184.60008805996,14807.55265580594
0,17022,17022,"[48,49]",2,1.827792350840087,0.3018771428739293,1.5702146052167838,0.8305593729291476,1.7211797117847425,-0.007892926036890513,0.28331657889789863,0.7383686267771097,5.621400051051583,3.046269973916116,0.39696841863470134,0.1961996253084235,2.3317631445776095,1.7826703238749848,72166.94066502183,26168.059217483176
24,137633.5,130108.0,"[0,1,6,15,17,22,41,51]",8,0.260162438388001,0.12320655578447592,0.3803470854761022,0.6139001458552098,0.23379414837911572,0.262088716433043,-0.018552794807866757,2.5644663124116853,0.7561817566889556,0.31607208397710607,0.1522709124395547,0.9784865686052064,0.5374433715270089,1.101964855023486,72713.42349064718,14735.438944733596
24,14802.375,14120.0,"[23,50]",2,0.42424671324703134,0.4329167026659575,1.5060940178180862,0.798139892225906,0.6930325157787252,0.3233921176247023,0.11960342279955194,1.0441508538325728,1.9131653163005895,0.5060771245661547,0.31463036863171423,0.3443008611160373,0.7190306967462999,0.6592555661253712,66486.00430674123,21124.290933042837
24,112187.0625,105044.0,"[5,9,10,11,12,16,19,20,25,45,47,52,55,57]",14,0.28440345826975166,1.5700977559383267,1.9924275167541023,0.7783758040220783,2.4807259883219586,0.057860651123986306,0.3324847576391772,0.7527035228031513,3.8965505319352265,0.5791968108939732,0.09831585628021866,0.17306153614805142,1.825609510509512,1.4698234504162417,67090.76676287876,23209.47565589389
24,30616.25,28601.0,"[7,21,27,30,39]",5,0.595788476564731,1.8069844647634072,2.223917017360065,0.8327568194484112,2.954143791914006,1.359100466202588,-0.44809392162658535,0.9461040490140085,4.226537326027852,0.7385700879884026,0.200624101904618,0.13015236773159755,2.1630731833401367,1.730415759945694,71158.51836851356,26709.91293839043
24,9142.4375,8176.0,"[9,10,11]",3,0.3955375632455791,1.7187886185440133,1.909209752206404,0.7726423829189439,2.36002998481668,0.7752532065504949,-0.11303436303228631,0.7822916043519634,3.748956908148125,0.6789583117877497,0.203049008524808,0.16547860457071684,1.838522806253804,1.5276413291928432,67813.55103603392,23838.993922572645
24,14948.0,14258.0,"[33,44]",2,1.2755175366980491,0.5788981544813598,2.8822316834150263,2.2102043561931395,2.125736152946884,1.5893990943980782,-0.5928983339660907,1.09032319434455,4.568614043605339,3.2890298422364177,1.3526319971693592,0.5060557856443968,2.3261472519525985,2.412485063683273,118226.14182499307,99348.50789403207
24,18482.0,17196.0,"[15,22]",2,0.32085557009522625,0.13833797183407404,0.5646924982280059,0.6649124309125156,0.30690983555959894,0.21777438467495935,0.005121069746921059,3.006840578434433,1.150469887437779,0.37916015408911585,0.1665076713931084,1.144742124364246,0.6382879892834902,1.3885537836205513,72959.22454279836,16331.227789200262
24,9989.6875,9588.0,"[19,20]",2,0.4127007241592888,1.4067216195389016,2.257352278480927,0.8563176468045208,2.7177708801076066,0.3394495600963492,0.24312162812901494,0.7886823601401418,4.323096450602173,0.63564382107173,0.14906929189476825,0.16310975536647,1.988878029780715,1.5560938347045417,70462.02956799195,26736.569287077244
24,14100.875,13215.0,"[12,25]",2,0.47082314866985353,1.4882518490519212,1.9955427084134878,0.7963176958300546,2.2777824718590165,0.9146125073887188,-0.15710763609084255,0.8042340490350757,3.937513426804187,0.6736125400772978,0.23167160278617116,0.165347220057266,1.7992860363718552,1.3892414474013246,67154.06355988546,25154.310778586365
48,100453.953125,93986.0,"[0,6,15,17,22,41]",6,0.22463214328782088,0.12399594941381453,0.24878129548601624,0.5195202492806033,0.20385810089779222,0.18959789479263045,0.011903187613972133,2.895463306696687,0.7191744026775791,0.2589012225475491,0.12497990105773527,0.9588328998332281,0.5750047475694379,0.9804085199936559,69344.65377964685,15207.474700861807
48,41331.28515625,38784.0,"[1,23,26,50]",4,0.23606432368479657,0.3268862814688296,0.936792961247765,0.6081826545563778,0.48757046002588833,0.23408167384914091,0.07230372551815023,0.6377308986017107,1.391018219932994,0.3592967246356138,0.2153850263878665,0.20907688677803438,0.4682805024325657,0.4803308096022721,64001.17114674313,16876.782686843744
48,85166.82421875,79455.0,"[5,9,10,11,16,19,25,45,47,52,57]",11,0.11741770638824689,1.788345321441967,1.9353543422473662,0.6291596291029804,2.650107837781239,-0.22705856229733357,0.5186452646860813,0.5015638082359137,3.87983579962374,0.36015116361307886,0.04571816281083674,0.10610094179424578,1.9640534809422103,1.3458539659312028,64477.84028139264,20403.11314810582
48,29369.24609375,27935.0,"[9,12,20,30,39]",5,0.5122106448603574,1.9865032235355358,2.005423632648258,0.6389683517464291,2.943620690704963,1.2978412593506687,-0.5204326273743511,0.8221432001801827,4.00595383313194,0.46804048808004783,0.16204618047870412,0.05903603412304126,2.2471965644182657,1.5400170961966313,66311.61198463458,21522.62772535097
48,21843.53515625,20651.0,"[11,27,55]",3,0.4036406278014173,1.198511508491051,1.6675194834657465,0.624547511734463,1.8825019007905115,1.0249157056230096,-0.4104530672240183,0.7090810050546019,3.6018935704340698,0.43317807165699995,0.22008045089856187,0.09681143110009172,1.417569075782572,0.9190914404088395,62028.95395859573,20795.382604084945
48,25253.3359375,23639.0,"[15,17,51]",3,0.2605487697915554,0.13838627304606899,0.5675531445154016,0.7140690510950352,0.22883392427872762,0.37379946634819805,-0.13622784575197944,3.303744495724425,1.1187133496493522,0.33049028141656345,0.1618542009077104,1.239326991490138,0.6519544936125427,1.44812969534548,70676.11130336428,16557.0086476817
48,3863.39453125,3184.0,"[25,27]",2,0.8431038778539379,1.0144631530531534,2.4952766716284382,0.7469779238566296,3.3178681844799214,1.5895841238497608,-0.8475429372323782,1.1102467670705325,4.461216165488559,0.415535843193678,0.15098061428127973,0.04770544849443248,2.2550952586739146,1.3995111652742254,63518.08940688288,27002.14918672753
48,3651.3515625,3347.0,[19],1,0.35446722062464175,0.9232094355172471,2.280009910714797,0.6742816064888317,2.6390949357001756,0.2362865170431312,0.3014961096757922,0.6757288972159254,4.510708114928536,0.4799177505300899,0.15967929876245313,0.1257048137964747,1.7896018132872449,0.9822432800065493,66444.40739195449,26667.997338314344
48,9873.48828125,9346.0,"[23,26]",2,0.4619911111898862,0.33614126805805133,1.5345179554449113,0.8364605965027061,0.4037244952653052,0.6573552563220748,-0.13269350840970695,0.9668561609751989,1.5844858552836185,0.5334386214016923,0.3583420692669326,0.3280526550239313,0.5595858587703116,0.695527217729534,68081.60708779373,24046.832561788575
72,136093.505859375,128154.0,"[0,1,6,15,17,22,41,51]",8,0.2480330632686123,0.22188579568443245,0.2800724915058419,0.7208087545648554,0.32513893075981803,0.2431357974010484,-0.035194866991139495,2.58340983748921,0.7999795282889125,0.32169151757043346,0.16177402942915853,0.7973516506664218,0.6444889001147925,1.0610374708122812,70477.39317018006,17267.157252391782
72,28789.70361328125,26939.0,"[23,26,46,50]",4,0.34203249656023305,0.7202564750577913,1.363534832719047,0.9114363383068387,1.003208704064186,0.3056817945125718,0.11106911892449967,1.0350303804373344,2.0375468522910314,0.4731529454847734,0.30786446729541206,0.29723226461411256,0.8504179977398595,0.7823160783693703,64817.313796794275,23079.109789023852
72,147612.82836914062,139535.0,"[5,8,9,10,11,12,16,19,20,25,30,36,38,45,47,52,53,55,57]",19,0.3208057263875186,1.5714329058521836,1.533777153848685,0.962511250013661,2.2480664254156113,0.26399994334012233,0.13774860003368206,0.8056416976581433,3.4180491568370104,0.5401112650624295,0.2747457894063401,0.17827869120023687,1.6961250552541052,1.3973668029509716,69718.43887844372,24636.820956665397
72,24470.85302734375,22958.0,"[8,9,10,11,27,39,43]",7,0.5001020138746495,1.5301347152971148,1.614680351931535,1.0598006948249132,2.34018421193962,0.6991490197834629,-0.05642584807647033,0.8780412579161272,3.5423327248713856,0.6594159792143025,0.3506883639353773,0.1784111431037806,1.8310002024918743,1.5430228167496027,70998.77615611223,26476.061036819796
72,13830.011474609375,12764.0,"[15,17]",2,0.30730541044144677,0.29747036538174143,0.7362324155262825,0.7527516402961694,0.4549189755467391,0.21177778340255582,-0.02383757412778431,2.6208594254921307,1.3264300885135594,0.39701959979460655,0.19976320002567327,0.8091714825357446,0.7356841756034816,1.2069771805718124,70999.70795664929,20265.390960099787
72,9603.921875,9000.0,"[19,20,25,27]",4,0.5901034114582913,1.1831376401491465,2.0861864277587725,1.1446241627184324,2.504434667999458,0.7937395749604497,-0.10604083998632952,0.908629004797179,4.121813358568284,0.693111857200238,0.36255762962823734,0.15655881419923634,1.8247643582805773,1.368239621300085,73527.30069421501,31264.82715394591
72,4409.311279296875,4058.0,"[26,36,38,43]",4,0.7135778647653883,0.7697035606471112,1.0954509811008406,1.310009918843451,1.1755387686112848,0.3412011390425842,0.32949004750079736,1.1406721341135508,3.2267330163837302,0.882336158267535,0.4167561921623695,0.31829752444785875,1.2401477982582358,1.309774273576054,66277.5547205983,24586.062119187034
72,12145.268798828125,11203.0,"[23,46]",2,0.4301477873073867,0.5197520758134413,1.786039303912189,0.979308632702101,0.6933127411097058,0.44192688351013176,0.028551150506940015,1.1719136968463282,1.7003494879762768,0.5307253602431009,0.3672645028291033,0.34883807828941304,0.7123904161967834,0.7070119037702569,66407.47071709082,26621.213868786253
72,969.0390625,922.0,"[52,53]",2,0.7885750283602364,1.2148289011864906,1.5248279732406016,1.3243298329835547,1.4190691389660954,1.1032133346710549,-0.15477377092394518,1.269810686239036,2.592108956551272,0.8103026190567143,0.6671942667643997,0.3590848364411916,1.493832117705808,1.5034215513211282,71695.8655723695,26613.342792876316
96,97933.7308807373,90556.0,"[0,6,15,17,22,41,51]",7,0.4445367125589048,0.17333368863606147,0.28636948629243486,0.9153832266878856,0.3118496886978841,0.22473567180605625,0.13702950333120034,3.1972651148482063,0.7791038596197616,0.4223940285606985,0.22294971660146912,1.3319800854952548,0.7214054442992007,1.372299968739832,71396.4884554588,14710.298748038169
96,28331.711318969727,25496.0,"[1,23,46,50]",4,0.37789949747893714,0.49509637443313137,1.3885452302049672,0.8986922566295594,0.6529945049010837,0.3114676594123329,0.16383233665140962,1.1108074680229891,1.4700917687078134,0.5173374771934974,0.35270950951771507,0.37226617376969584,0.6725681646220812,0.6159236153794718,69690.739248019,19333.071363726278
96,122325.02793884277,114438.0,"[4,5,7,9,10,11,12,16,19,20,25,30,39,45,47,57]",16,0.35197705548949854,2.311986500083048,2.020726115657561,1.0915128808562855,3.0941582884642123,0.258057299677241,0.5754638869933286,1.0178743345753611,3.7559322922351126,0.6096408846234628,0.16786646409818706,0.1746432843611574,2.3615109606935607,1.9652568726405877,68961.920411019,21268.88639018309
96,6133.653060913086,5807.0,"[21,27]",2,0.9922052493596174,1.3262867456931784,2.646541347957666,1.3177707771820146,3.5193095856750767,1.7189006004810257,-0.4919831790647362,1.3662876647795752,4.334012421776984,0.7698459455576115,0.3498707993467174,0.13040156329440444,2.4537968644299504,1.9501720454373193,75734.05702129993,29501.270047414637
96,639.7583923339844,548.0,[26],1,0.9719117645054853,0.5220457385026291,1.609579174078998,1.5744254331360876,0.9026110363375044,0.36417690714844864,0.5890285268967115,1.3112627076801386,1.834644587329068,0.9537432392678175,0.5895843698258827,0.5588920213658188,1.181254056463933,1.6802860441545049,69681.27605011403,22692.669914804268
96,9416.535919189453,7860.0,"[5,9,10]",3,0.30961982157395607,1.7941037123209203,1.7841219312175185,0.9858545710863109,2.523147838849465,-0.10802836236738544,0.6372065493640791,0.769529991939113,3.5447932040732764,0.5755064593365976,0.2028696701094339,0.19197227694857288,1.9156464428994004,1.5443096520001116,66334.55503846168,20666.284879579816
96,1457.7516632080078,1204.0,[17],1,0.5026828332151656,0.3920214423608708,1.098705145189903,1.0477800828811135,0.5447783390542078,0.34466446454449917,0.21890076277228987,2.340126861201777,1.7271172699030086,0.5648887012240619,0.36465336964065775,0.8235380458183514,0.7470456988476722,1.0843117864166605,70026.31170644893,20021.14321185422
96,18074.696975708008,15998.0,"[11,12,19,20,25,21,27]",7,0.7079248070050155,1.4314622179683987,2.2843264245398083,1.2013252089550783,2.9385944552259535,1.0551417569094836,0.06967216890236738,1.1087995028787625,4.006913648298832,0.7321072948921533,0.340524942931125,0.17301097203062488,2.1723394635998954,1.7102282812317309,71647.31665599393,26571.152494466634
96,13254.040496826172,12372.0,"[48,49]",2,2.0067784905071058,0.41148291558581507,1.4700518014486144,1.8552336151590323,1.9130131876641179,-0.047512818572143845,0.6094192227167659,1.1763325811575993,5.568641014588695,2.58640054304669,0.5477008716751595,0.2952840064129143,2.400795466907327,2.2060317189295087,72532.25401832486,29839.45441125123
120,72681.66942214966,67050.0,"[0,6,15,17,22,41]",6,0.3578633436389309,0.18920713140845136,0.43457005872233934,0.8892774333271292,0.35672635289707255,0.1629224237242206,0.1685562546160817,3.0573407635701075,0.7713717227184479,0.40645129774826383,0.24201016244298668,1.238686721011088,0.6662487581180075,1.368006472013202,70254.99182139456,14376.791582603053
120,33009.887033462524,31602.0,"[1,23,46]",3,0.37095437079223137,0.42141931522375664,1.4299237626211974,0.8616205817209885,0.511806241373427,0.33591424675339443,0.14951847817596464,1.0869541188081624,1.2410004941306942,0.49755287963948513,0.38093749227227036,0.37159913723780713,0.5853793471693388,0.600102649831918,68005.83898879917,18221.057557286636
120,177235.31424617767,169590.0,"[4,5,7,9,10,11,12,16,19,20,25,30,39,45,47,57]",16,0.30383927987886117,2.513615842609437,2.2212604385987897,1.178655573091608,3.340095594224897,0.28520925422537746,0.625242115295749,1.0861107446655542,3.831258705245,0.4970209041800119,0.166680016728451,0.15301295051310626,2.5215174690612363,2.142116781853394,66906.16801170526,20022.796242457774
120,9115.353316307068,8732.0,"[21,27]",2,0.9404186754301491,1.28531379166356,2.8108813008538287,1.457255574482414,3.5965581302406027,1.699238801954832,-0.25136633740380576,1.3550469996841246,4.351445316973609,0.6737176728288404,0.36034359077803524,0.11913252246600547,2.530048862205426,2.052370913754888,72072.51843340095,28447.03794904572
120,12942.496561050415,12354.0,"[5,10]",2,0.27748151478192495,1.8846847742558532,1.939246353087554,1.0576099085144102,2.635568261904623,-0.09459378240584204,0.6971159279591137,0.656235222264149,3.5294549349953566,0.5142550617079985,0.2202164638875126,0.18255538943515837,1.9593262389631323,1.6503387985397429,64560.461304944205,19256.572377110577
120,14190.531176567078,13330.0,"[11,12,19,21,27]",5,0.8030217932052419,1.427595330609793,2.549093422073365,1.3444713748980734,3.253565847645009,1.3969966842087078,-0.08899657330090838,1.2144728702435934,4.132611231176223,0.6683232675702785,0.3653650848892731,0.14444114453677737,2.345366504961588,1.911683652894722,70638.91945165712,26772.386077330786
120,4303.672852516174,4132.0,[20],1,0.6639076681489153,1.2097551776566537,2.9283929517988594,1.518090792275125,3.5702153469639115,0.6694833361810313,0.9092667870115645,1.184945339698117,4.421620795208117,0.6384505374411441,0.2788563072017376,0.1716865122007457,2.5275241465698994,2.0221874497180212,72430.65748005346,28821.397384326614
144,75270.60433888435,70728.0,"[0,6,15,17,22,41]",6,0.4284077980344223,0.11289278503499434,0.38652141865788003,1.4077723926067063,0.3293684005092765,0.153347613365028,0.2745564430906162,3.415804013708727,0.8214603962010633,0.4345481187109237,0.22231661185591278,1.5089635693506485,0.7649106161309237,1.5437117733006303,70806.40445878406,14375.624340023787
144,21110.799346148968,19231.0,"[1,46]",2,0.4006104423400363,0.36943264903771666,1.3730703448715276,1.0867996574338354,0.4562755037927637,0.3263249242742652,0.2073012221025965,1.1178639544270976,1.1549011302720005,0.5007494494272885,0.35674381625455087,0.42115234291040404,0.623956270925727,0.6133052282716438,68424.33315082872,17247.750466588186
144,149988.92049658298,138639.0,"[4,5,7,9,10,11,12,16,19,20,21,25,30,39,45,47,57]",17,0.3398036509702822,2.494847528965015,2.1673293356190464,1.3952828419130796,3.336488439160681,0.34341379625491175,0.7282793405608432,1.0773904480738787,3.6919725358836257,0.6030941420042369,0.09168933845050375,0.2030955638181451,2.516295056003172,2.1295618535711616,66830.10494252521,19519.635991509396
144,2914.9962260723114,2618.0,[27],1,1.0183201185517226,1.3203133458024476,2.620134505983374,1.565706674723026,3.335844024734072,1.7506755222854482,-0.6829006854053872,1.3909169442515115,3.9952415803585457,0.7842476731816489,0.27875308569375923,0.18465080642691611,2.4038715298571076,1.989500507998159,70297.3498110919,27116.176705293397
144,12352.906035065651,11544.0,"[5,10]",2,0.27952863440589715,2.117863591840477,2.0774350142909666,1.3200695627776566,2.933491370291114,0.2781358884119429,0.8860710663706137,0.21796822667224358,3.4820048473056646,0.5922032157625615,0.1707194621794219,0.21029881437400955,2.2889118175996463,1.8693134560801392,66145.97087169124,18780.61121423315
144,13203.268639802933,12655.0,"[17,51]",2,0.29781891825006723,0.0006368981880826574,-0.21894751389628375,2.699995833144531,0.20870369899011232,0.9299719909416584,0.09714211258786998,4.225046660513182,1.1769667045743972,0.5734190451608508,0.30011610506381636,2.1634619634370478,0.8510840675267616,2.3187992141112317,71521.98134859276,14403.351388772036
144,10130.85428506136,8874.0,"[11,12,19,20,21,25,27]",7,0.8422883072058343,1.2527219886351024,2.585891021746663,1.6178925949190202,3.1708429243007754,1.2087155446386249,0.26564447314353234,1.2088291494810481,3.987485112380486,0.8056899209864744,0.2986936197513743,0.22957461367350085,2.333852134375537,1.8938605140947777,69275.337678476,26414.215592827226
168,57842.41277118027,53138.0,"[0,6,15,17,22,41]",6,0.22477162603466172,0.12276353786940808,0.3648634601699028,1.6409070957355416,0.35892821092904414,0.20422236426191986,0.33843833271144286,3.343940753839223,0.9526442393731199,0.43297061022381944,0.22114031015030022,1.2576268948300764,0.7430644175817055,1.4462933302121612,71374.6020545369,15741.43032969332
168,50154.3341855444,48427.0,"[1,8,23,46,50]",5,0.27825609092779,0.6022774110086702,1.2440698133522594,1.3232963421974007,1.1224264203698446,0.2948946842364646,0.27180494601951555,0.8522274737486741,2.176678437343117,0.5321918756269276,0.2892140971327306,0.2812631723800093,0.9146568133720779,0.8388054099917974,63098.926332280615,20436.68659398358
168,114150.71569769457,105000.0,"[4,7,10,16,19,20,21,25,27,30,39,45,57]",13,0.3975085344975171,2.1220022496559254,2.1628873115064624,1.5456989193951438,3.1718200017234275,0.3726075013485981,0.6635452081948765,0.9826489060001906,3.538766994094027,0.7382374279950509,0.15805080305560093,0.18725207082033313,2.2938342211483342,1.8558000653896098,69204.22229610634,23438.532816612606
168,52855.89533605799,52278.0,"[5,9,11,12,43,47,55]",7,0.34174186861104205,0.9455888807298969,1.4335365627700534,1.5930352802473187,1.7800705443648739,0.26528783196003114,0.38821749015643725,0.8516853304362337,3.619770720544707,0.807205878496892,0.31168026906943913,0.21255705849895945,1.4152712440259645,1.183649627374393,63145.05651377928,25163.151914488266
168,6484.195412196219,5967.0,[10],1,0.3645619319999289,1.9660419437586363,2.143921471419787,1.423759145210389,2.9171071966586637,0.5960106528844953,0.6961009899927699,0.331883373674418,3.384415645677202,0.7543106307454063,0.2265008694668431,0.1789603859066592,2.201770198692678,1.695515839599177,69766.00137953203,23363.224499532374
168,13901.105736978352,13462.0,"[19,21,25,27]",4,0.6398375127429228,1.3060704997635444,2.0931636034453027,1.6708842782618176,2.7132601876820455,0.996375075317079,0.2004771501698679,1.0382047798230838,3.6195150680077286,0.8660790594172602,0.3409630189720101,0.20828813970780669,1.9908600822730582,1.5521633010281717,69009.03866817843,27338.204852975858
168,33542.986044578254,32852.0,"[8,23,46,9,11,12,47]",7,0.4106349998469776,0.7999628302489565,1.4983253622183788,1.5656427093472858,1.4672877811241496,0.5311348430714455,0.24448135658414483,0.901239147035533,3.0563812754100894,0.769524111707368,0.37083436488371113,0.26005357187968225,1.2447123931362882,1.0844731520206174,63310.08944412222,24249.371265474143
