time_in_hour,cumulative_size,size,pcore_ids,pcore_power,AF700 CD48_[R 730_B-A],APCCy7 Ly6G_[R 780_A-A],BV421 CD117_[V 440_F-A],BV510 SCA-1_[V 525_E-A],BV605 CD11b_[V 610_D-A],BV650 CD150_[V 660_C-A],BV711 CD11c_[V 715_B-A],BV785 B220_[V 780_A-A],FITC Ly6C_[B 525_B-A],PE CD115_[YG 582_D-A],PECF594 CD135_[YG 610_C-A],PECy5 CD3-CD19-NK11_[YG 670_B-A],PECy7 CD16-32_[YG 780_A-A],PerCPCy5-5 CD45_[B 695_A-A],_FSC-A,_SSC-A
-1,0,0,[],0,0.0,0.0,0.0,0.0,0.0,0.0,0.0,0.0,0.0,0.0,0.0,0.0,0.0,0.0,0.0,0.0
0,105609,105609,"[7,14,17,20,23,24,39,42,54,56,59]",11,0.17221626192803882,0.2374215936906201,0.3367168270768362,0.28991854408462936,0.2689074218321686,0.225694904579384,0.25199068453268275,0.48695507155694717,0.1801823962792557,0.11026504142075169,0.24992511129560374,0.21534526248404529,0.15297264822650553,0.2867149395220288,0.1995541730538684,0.052552877456020414
0,52367,52367,"[52,53,60]",3,0.15728021901390918,0.39858087680308146,0.4867426084889064,0.3043809460763077,0.5007995355497901,0.14440970376474818,0.29646261027147297,0.3186235738207262,0.5562104642860072,0.13201180113028646,0.23949313240001036,0.10340882602131118,0.3205709083062781,0.3758090770514535,0.19224085387974374,0.07446747393035648
24,146028.25,120076.0,"[7,14,17,20,24,39,54,56,59,61]",10,0.17112248028667015,0.23526251226000136,0.34139930490456055,0.29849514052166026,0.26276288427524863,0.23093293895017356,0.2511194885460327,0.4846156839421431,0.1776994851117882,0.10690309519210878,0.2483306273230454,0.21294182426701525,0.14337314082873617,0.28699184413127177,0.21105880514417896,0.0578580097917872
24,12343.5,8793.0,"[14,17]",2,0.17925311408062755,0.23550683533721645,0.351124550220359,0.30062609131020074,0.2686819763428598,0.23005410126171283,0.25094814182819314,0.5019862203436749,0.213256864012724,0.1143832946471717,0.2488448478686586,0.2262131467601915,0.15259461487171044,0.32602468039695426,0.2130393906817312,0.061401688549756354
24,141760.75,112614.0,"[32,33,34,35,36,37,38,41,43,45,48,49,50,52,60]",15,0.17916351249829549,0.37227904458756383,0.5039203121306981,0.3166524598699136,0.4855800882859042,0.22446721832464772,0.2719960250131538,0.32985046734536416,0.5717831830219767,0.14726103414773567,0.24668319963178065,0.10454461237059264,0.30674788838465217,0.36270580009665515,0.1995558712677584,0.09552922312046672
24,72935.0,58044.0,"[33,35,36,37,38,41,43,45,48,49,50,53]",12,0.18755080850675407,0.371802089471765,0.5005547825098812,0.3187206166229269,0.4724432538776688,0.2959229808130938,0.24605644555928832,0.33468010699001505,0.5518378315442055,0.15225789510474905,0.2551237909845907,0.10518275272473111,0.3000540351498499,0.3565215553444918,0.2017301285829188,0.10021266389197817
48,137971.9375,105349.0,"[2,3,7,17,24,39,54,56,59]",9,0.16540630913279808,0.236323003508425,0.34401715333900174,0.28294313449456415,0.2558934448766694,0.22471819517362338,0.2527494223844643,0.4517568439235756,0.1682837340194565,0.09797696931824056,0.24635411561578302,0.1725617987423143,0.13390092333034942,0.20794112580030566,0.19402563614992357,0.0586021959421919
48,28819.75,19958.0,"[3,20]",2,0.156304149682513,0.22703291540893675,0.2667487202017354,0.3292030994356078,0.2531960529835355,0.2408959486880362,0.24526277162733903,0.6229264613361495,0.16411724076680703,0.09962495981334955,0.24655256010982662,0.3067520797616112,0.15522241544210547,0.425234785976208,0.20949307870389056,0.05142066820335615
48,153601.5,118037.0,"[16,18,21,23,26,28,30,33,35,36,37,38,40,41,42,43,45,46,48,49,50,52,53,60]",24,0.1781509841637927,0.36040201179232645,0.49437251997091686,0.3054395611996185,0.4626044583833756,0.25691977001831945,0.256441903504815,0.31957294436951894,0.5526866413292921,0.122472471314355,0.2485510182594488,0.09402266116625528,0.2879090934592058,0.2981320714111058,0.1794396449527053,0.08624212443491476
48,13460.8125,10633.0,[17],1,0.1635114446764053,0.23502548004649879,0.3759060441859498,0.29764393971783126,0.2671207831677699,0.1888879132271536,0.2611251943020728,0.552626361410456,0.21409416978183368,0.10204812983082798,0.24527561985706486,0.23742102880968952,0.15288254940093196,0.3333730334101398,0.2051905524447234,0.061713966156618484
48,27899.4375,22933.0,"[18,21,23,26,30]",5,0.17444068631077075,0.33183124572533407,0.4402752713634502,0.3028650730869783,0.3889437702293912,0.30244566220145164,0.24161410328574107,0.3245727147985258,0.5033140214588148,0.11930748587073808,0.2557047668107025,0.09548765217450264,0.22273179062076062,0.2253863910412189,0.16504307807091784,0.07590732400385324
48,19907.6875,8399.0,"[35,36,37,38,41,45,46,48,49]",9,0.19543505460808472,0.344034705877642,0.5504311276876626,0.3193356560302415,0.512258384233657,0.23208624866893302,0.2779023732322464,0.3282561701785329,0.6105476154363836,0.13601203422972036,0.24765919501549297,0.09954648647116159,0.333498325139401,0.3516867216166656,0.20328504993036173,0.110882093272678
48,2179.75,1305.0,[39],1,0.17912884176711713,0.24542277575982774,0.3532296520717097,0.32475835888048843,0.274381646493799,0.23074096578329154,0.26710900211054756,0.48650693297128356,0.32769997987367055,0.11595654749974503,0.2562026703529231,0.17584077842213838,0.1503029863009084,0.3097797937855106,0.19136121627375538,0.07137915411941176
72,260146.15625,207883.0,"[1,2,3,4,5,7,12,14,17,18,23,24,26,30,33,36,39,42,46,53,54,56,57,59]",24,0.16979627465609173,0.2823697644489077,0.3795222964055617,0.30710485778409646,0.32191461762648177,0.23088702319083554,0.25558704104829905,0.4018896577433189,0.2992429532293272,0.11063315762335399,0.2518653939155031,0.13712083477970177,0.17904595542557267,0.24096845643801587,0.19133020254600397,0.07382757460961771
72,50120.5,35402.0,"[2,3,20]",3,0.16203913800779218,0.23712417855551962,0.2891969016809628,0.3425246619474437,0.26031325895263346,0.23262935506977037,0.24528948832078934,0.5636950359500638,0.1833825675680899,0.1033142104855623,0.24930472168544038,0.25624922299841874,0.15709312915995766,0.37382794434916233,0.2159764123058657,0.06223053954741233
72,121467.328125,87965.0,"[16,21,28,32,34,35,37,38,40,41,43,45,48,49,50,52,60]",17,0.19667561966959662,0.37603139446681516,0.48918287006016054,0.34154032807485385,0.4967309720487697,0.24186360993847553,0.26476026935542146,0.3261520503511935,0.5686962390631959,0.16193947719725604,0.2641073887863791,0.09740997122745432,0.32864294148785655,0.37038391920329444,0.2128134064146808,0.11136705623788279
72,3365.203125,0.0,[17],1,0.1635114446764053,0.23502548004649879,0.3759060441859498,0.29764393971783126,0.2671207831677699,0.1888879132271536,0.2611251943020728,0.552626361410456,0.21409416978183368,0.10204812983082798,0.24527561985706486,0.23742102880968952,0.15288254940093196,0.3333730334101398,0.2051905524447234,0.061713966156618484
72,24380.015625,11308.0,"[4,5,12,18,23,26,30,21,32]",9,0.19548755542196833,0.3644943344964334,0.4909622617502064,0.33434979370676643,0.47689224723478985,0.2735145807635484,0.25404041850917825,0.33086734161350145,0.554423882690308,0.15153608640426486,0.26411656320414223,0.0979352772969589,0.30712047231687833,0.3429417953178703,0.20532380670888753,0.10779407043657425
72,19147.25,10296.0,"[35,36,37,38,40,41,42,45,46,48,49,50]",12,0.21069375169248847,0.3924581797849408,0.5069951340332939,0.33326491371570727,0.5307520137144836,0.3505632872629097,0.21557821886175194,0.34162848135521856,0.5742793599063982,0.15696075860758915,0.26807976919437687,0.09368057713374654,0.3534264412626166,0.3932157624249021,0.21759086503995492,0.10903738260251696
96,144362.9375,102689.0,"[7,17,20,24,39,54,56,59,61]",9,0.18230498437059262,0.24327705970593164,0.3343266820112911,0.3259174542095849,0.27005389841779986,0.22765406407205496,0.2623846370539871,0.5176540691257875,0.18168605954775754,0.11404578437568029,0.25428722893014477,0.23434821139899184,0.15975124300397114,0.307959778097665,0.20705850606577314,0.05933942766943704
96,4364.30078125,3523.0,[17],1,0.1987854114248697,0.24989529491371795,0.39813271031909353,0.342243453183802,0.2862770822731653,0.22133493143199454,0.2736704844857896,0.5221354897109987,0.24626915784411604,0.13154428424488418,0.262219619504562,0.24200813292565818,0.1779969034447515,0.35661437247629924,0.20982578968634655,0.06755047568833689
96,139524.67578125,102169.0,"[32,33,35,37,38,41,45,48,49,50,52,53,60]",13,0.18181875409479675,0.4130193329062885,0.49025833197545937,0.34770399218278203,0.517070824662231,0.21726055842869274,0.3016040749066559,0.3478656044344705,0.5441914639026907,0.14053987695363065,0.25257990196279123,0.10328614465269764,0.3384346253506376,0.4101648870477796,0.19778934094194067,0.08575369939682381
96,2065.33203125,1604.0,"[36,40,42,43,46,55]",6,0.27552130545796066,0.29925431013241943,0.6089508933859217,0.4056243678694249,0.4221684438234034,0.30202390378548577,0.2901414217703275,0.3670492980471691,0.6088626889998121,0.21455189742107827,0.2974853200925614,0.1212738956128755,0.32523178461976615,0.39316240679924314,0.20633955733281084,0.1444555911364803
96,5654.08203125,4049.0,"[35,37,38,41,45,48,49,40,43]",9,0.23474332553218727,0.3249810908214889,0.5794444409393933,0.37861814651677234,0.4937708302193073,0.2336447837460214,0.3020587927214226,0.357430713751392,0.6411327320898977,0.17821050948369696,0.270319316561848,0.11013844694897548,0.3435449048424013,0.40525466900596074,0.20826560727437998,0.1231411184842026
96,17.2890625,0.0,"[36,46]",2,0.20516699016316656,0.3054595475708994,0.4855365041846927,0.34422729029124377,0.36885742798137733,0.2510689386528536,0.2766793915529141,0.36446817939547044,0.3957756592520333,0.16158674337230977,0.27669190367029656,0.13558214921522013,0.22947766888596027,0.3253424094807548,0.19623251019036986,0.09492463955761937
120,122592.59765625,86850.0,"[7,17,20,24,54,56]",6,0.17989509113829386,0.2463013028005166,0.35362768348167467,0.3332708121098408,0.2763560796392713,0.228609018719699,0.26642654470028054,0.5031174768102893,0.1914060415102101,0.11680966568475212,0.258954259092998,0.22849609031157567,0.1581553842201066,0.3119585472444958,0.20091406867317135,0.0581467735256415
120,7984.89453125,6657.0,"[17,61]",2,0.2065460693329691,0.2460005392849949,0.41121899038556803,0.36910911661522705,0.29014894206972563,0.23195129649674395,0.27150057520222043,0.47853523634406137,0.2306553886293426,0.13434041151862477,0.2663752510762661,0.24690191440988266,0.16706855872618157,0.41317869093475174,0.2079524331861883,0.06707749396857625
120,214471.5244140625,176685.0,"[31,32,33,35,37,38,40,41,43,45,48,49,50,52,53,55,59,60]",18,0.17722955515711417,0.447509102582407,0.518598136407442,0.3588054617338318,0.5533818543661059,0.23339275662390152,0.30881427807245776,0.3598169458307472,0.547924498501305,0.13091286783114728,0.25170288361058313,0.1028048546697412,0.3719718889770623,0.45822040380504764,0.19077942990432728,0.07918282903131409
120,28778.515625,17531.0,"[33,35,37,38,40,41,43,45,48,49]",10,0.20621951780967032,0.35175756824727095,0.5196127132993632,0.37067680650064405,0.4802767508718712,0.239937829316373,0.29760225774045745,0.35333554278432255,0.5622958919826456,0.15029363024545772,0.2670500339667692,0.10670439359641967,0.31293697814504157,0.38512649730629006,0.19270692679165352,0.09888116740861273
144,121303.1494140625,90655.0,"[7,17,20,24,54,56]",6,0.1850282848879441,0.2406648177971733,0.3476507576010894,0.3831249957389374,0.27457926389835174,0.22991837782883193,0.27585468639694266,0.5344254176296933,0.19661534138950854,0.12068355056928223,0.2581938495622558,0.2627940407432495,0.16816777292434854,0.34853399864136403,0.2014177599700252,0.05683715706468969
144,15610.664794921875,13614.0,"[17,36,61]",3,0.20356807637212243,0.23720305810219233,0.3516966973013466,0.47124693049884986,0.27936787767472937,0.244626780966303,0.2856457228838998,0.5431323468726185,0.3061700604633476,0.13327018856368467,0.2621241280034677,0.30121215247386995,0.1790501028982234,0.46981134655978607,0.20786898280743174,0.060823061497408536
144,200060.88110351562,146443.0,"[31,32,33,35,37,38,40,41,43,45,48,49,50,52,53,55,59,60]",18,0.18018107503549627,0.4482976741397079,0.5143508823439701,0.38360206852729894,0.5573718181375664,0.23955820628556115,0.319940493529457,0.365263825798785,0.5378621262361959,0.14145088491697036,0.24573121974445988,0.11155896417831024,0.3754332950711438,0.46850258227981517,0.18973025998315138,0.07621949911090643
144,14685.62890625,7491.0,"[33,35,37,38,40,41,43,45,48,49]",10,0.21755701402645342,0.3378274630238102,0.5330076007105137,0.40633601646677636,0.4881321242187606,0.23249910341556598,0.31723281604110787,0.3671208959511884,0.5707145623558173,0.16357810564961978,0.2682520261233113,0.11849484346331325,0.3216856344742621,0.41250898363138594,0.19182455273666058,0.10101434085798683
168,102190.78735351562,71865.0,"[7,17,20,24,54,56]",6,0.1719835214667254,0.24374352555037512,0.35160034536560186,0.4047630894184216,0.28573542961174453,0.23540797221758417,0.28071178128349195,0.5203909124594733,0.22058655899455504,0.1227670893067516,0.25804169048397135,0.23795050011472715,0.172266271376748,0.3388788318417456,0.20084566468329454,0.06255642061268915
168,215954.71057128906,179279.0,"[8,9,10,11,12,14,16,18,21,23,26,30,31,32,33,34,35,37,38,40,42,45,46,48,49,52,53,57,59,60]",30,0.1781560320566782,0.3629166668705277,0.47829787314748484,0.4043003061086078,0.46954297132539646,0.21972498872733143,0.3123875770557859,0.35358965596301445,0.5078973520438883,0.15739609830878049,0.25698061086906837,0.11467217667589424,0.2962398986282218,0.36660711987756567,0.18716305735262198,0.09211513079666331
168,19432.66619873047,15530.0,"[17,36,61]",3,0.18095990277751242,0.23612759842158448,0.34089548497483296,0.48106145949091245,0.2778946824625374,0.25535027758739276,0.29093544327994686,0.5535339533132483,0.31884765270652077,0.1328343797363767,0.2629692496688055,0.2796586768077205,0.17736068407270236,0.44464288302634136,0.21372651208331217,0.06573588102301589
168,60267.80352783203,40554.0,"[9,10,11,12,14,16,18,21,23,26,30,41,43,50,55]",15,0.20680175555554922,0.41145023357831817,0.5140602943106871,0.4036981804213239,0.5291989433869978,0.3573774576427483,0.28068088328328195,0.3662994162249099,0.5167949878596231,0.1691901668320456,0.2648238898442104,0.11277246001524027,0.3511059323590127,0.4290796611957441,0.20209207529656506,0.09516706426378674
168,42402.44757080078,38372.0,"[33,34,35,37,38,40,42,45,46,41,43]",11,0.20502022241092066,0.29763141302126933,0.46652305712856784,0.4429420858904633,0.414808770941047,0.2829319576682353,0.28917788985389825,0.36392672921760466,0.5825613259984298,0.19842806201010663,0.27938296388384315,0.11763693376111635,0.27246549055966346,0.35056701157700115,0.19323134536494527,0.12061919965609039
168,22177.840454101562,18760.0,"[24,53]",2,0.17374496510481147,0.29241035239808616,0.4102894514489981,0.3911626897269304,0.36990854783047006,0.25626822332410915,0.277661937615624,0.40458038625775544,0.3915584576950223,0.13592479216178474,0.2600063983187246,0.1545202372344592,0.21495232171839831,0.3092929816469819,0.18183889721800497,0.08022797893153828
