time_in_hour,cumulative_size,size,pcore_ids,pcore_power,AF700 CD48_[R 730_B-A],APCCy7 Ly6G_[R 780_A-A],BV421 CD117_[V 440_F-A],BV510 SCA-1_[V 525_E-A],BV605 CD11b_[V 610_D-A],BV650 CD150_[V 660_C-A],BV711 CD11c_[V 715_B-A],BV785 B220_[V 780_A-A],FITC Ly6C_[B 525_B-A],PE CD115_[YG 582_D-A],PECF594 CD135_[YG 610_C-A],PECy5 CD3-CD19-NK11_[YG 670_B-A],PECy7 CD16-32_[YG 780_A-A],PerCPCy5-5 CD45_[B 695_A-A],_FSC-A,_SSC-A
-1,0,0,[],0,0.0,0.0,0.0,0.0,0.0,0.0,0.0,0.0,0.0,0.0,0.0,0.0,0.0,0.0,0.0,0.0
0,117189,117189,"[2,4,5,7,17,18,36,38,43,49]",10,0.29460799769602986,0.18567381629675284,NA,0.4768234242207039,0.3060611014856329,NA,0.017122120361125148,NA,NA,0.32500878486035556,0.1751452133903344,NA,0.5937668214422837,NA,69079.19726254173,13809.12078778722
0,21269,21269,"[4,21,24,39]",4,NA,0.16265140932813305,NA,NA,0.3868668147068526,NA,NA,NA,NA,0.40235326254172765,0.24393557811839006,NA,0.7646150227091065,NA,71431.09238798253,14433.86412149137
0,130272,130272,"[9,10,11,12,13,14,15,16,19,20,32,34,45]",13,0.220091775231823,NA,NA,0.6425674418754612,NA,NA,NA,NA,NA,NA,0.10656237331890273,0.12209991468619574,2.0470367364207194,NA,NA,18484.51436993368
0,7496,7496,[10],1,0.27620552454643166,2.0708337740128178,NA,0.6072506756937006,NA,NA,NA,NA,NA,0.5652021355389526,0.21335719783884954,0.10141174706509848,2.0688907721451404,NA,NA,16946.561366061993
0,5646,5646,[12],1,0.31500629206517794,NA,1.618962842897632,0.6225144596174372,NA,NA,NA,NA,3.7276080593340315,NA,0.15994238806234584,0.11988211760538348,1.9917830851930551,NA,NA,17396.06376195541
0,14699,14699,"[22,33]",2,0.7110885371113653,NA,NA,0.7712824980610851,NA,NA,NA,NA,NA,NA,0.2122470586434435,0.06755707884890183,2.3982870101367455,NA,NA,23069.820804136292
0,10482,10482,[7],1,0.2209043928639598,0.12888875777523,NA,0.5174796535012502,0.44829131787826615,NA,0.10542210627743476,NA,NA,0.3643825036252628,0.1391613885709062,NA,0.7248753155886304,NA,71632.69299751935,14725.43407746613
0,9410,9410,"[16,19]",2,0.7538657771519635,NA,NA,0.8189113624867153,NA,NA,NA,NA,NA,NA,0.30330226981934416,0.11932731264612206,2.1248933459086095,NA,NA,24627.696493092462
0,11081,11081,"[36,21]",2,NA,0.07791086111361833,NA,NA,0.3676507202418602,NA,NA,NA,NA,0.3541794725205305,0.19143829509972088,NA,0.7496610388954065,NA,73048.62738020023,14571.444454471612
24,134552.3125,127228.0,"[2,4,5,7,17,18,36,38,43,49]",10,0.28060443887298425,0.1783059168873482,NA,0.5511515058450778,0.29522991974868207,NA,0.019072412041878817,NA,NA,0.3137711527370626,0.16285042938782723,NA,0.5375962959415904,NA,71306.69445759224,15142.070159515086
24,36374.0625,34735.0,"[4,15,21,24,39]",5,0.2840680720345039,0.24204461708291447,NA,NA,0.442276346258065,NA,NA,NA,NA,0.4224998864266256,0.22057539910478763,NA,0.6808928881569113,NA,70621.65706676288,16119.144569018044
24,114819.5625,107205.0,"[9,10,11,12,13,14,19,20,32,34,45]",11,0.22410535064854575,NA,NA,0.6854064552022674,NA,NA,NA,NA,NA,0.5116704682771279,0.04933015117034012,0.12562710544370326,1.9478240325097036,NA,NA,20930.44554145556
24,15314.9375,14338.0,"[10,22]",2,0.4945726917429467,NA,NA,0.6855479910055173,NA,NA,NA,NA,NA,NA,0.12465355239778075,0.07943097902782825,2.216279152028852,NA,66405.37344667586,20038.196042262705
24,6376.875,6024.0,[12],1,0.3206077009997048,NA,NA,0.6672679211898527,NA,NA,-0.035799403312740896,0.722116076889153,NA,NA,0.13698058424972537,0.1311414812506122,1.8410481930706721,NA,NA,20545.45839458977
24,10335.9375,9708.0,"[16,33]",2,1.1148772171791383,0.7588938476492761,NA,1.0806557355404371,NA,NA,NA,1.058684852825405,NA,NA,0.295346828777026,0.1407614956371881,2.0668866892275095,NA,NA,37629.12459561601
24,5199.75,4890.0,[15],1,0.4041848565916599,0.5098576096927783,NA,0.8318848837323931,NA,0.3412113465430997,0.2559103902831916,NA,NA,NA,0.2599121276623899,0.1731466193326605,0.7688955106014695,NA,57192.79657675845,19378.39780758691
24,9599.125,8944.0,[7],1,0.18490470999961195,0.11672767824540164,0.8374166314833289,0.6739607036057884,0.40114368461968564,NA,0.1715706545518474,NA,NA,0.3362118295873351,0.13353012630708783,1.3684910664904288,0.6405564219785701,NA,74310.67810868166,15399.25274439074
24,14168.0625,13100.0,"[19,20]",2,0.30400100292471754,NA,NA,0.6765495462814823,NA,NA,NA,NA,NA,NA,0.08505910772909742,0.11203476766406739,2.1460552948753473,NA,66400.41572374497,20216.804379568504
24,8583.75,8140.0,[21],1,-0.0843666805519121,0.025935132961993013,NA,1.133216780471816,0.41063946062327217,NA,0.24271448982817034,NA,NA,0.2878193537352557,0.1330363495631297,NA,0.6742938144895873,NA,75468.58424348367,12956.08003494968
24,4080.8125,3832.0,[36],1,0.4491188015866958,0.1541563909607424,NA,0.6949305245891666,0.13148076217971028,NA,-0.3248495210972169,NA,NA,0.46679700067388763,0.22906015473327557,1.2607462542079502,0.6515708595102058,NA,NA,18389.23498690518
48,141896.546875,133349.0,"[2,5,7,17,18,36,37,38,43,46,47,49]",12,NA,0.1856637557745917,NA,NA,0.28837255972127096,NA,NA,NA,NA,NA,0.16789759675166493,NA,NA,NA,NA,16304.951925913418
48,80960.30078125,76763.0,"[4,9,10,12,14,15,34]",7,0.21092134352658531,NA,NA,NA,NA,NA,NA,NA,NA,0.36303136335169695,0.14941770959744005,0.1004154220101221,NA,NA,NA,18802.035881301195
48,17366.27734375,15868.0,"[21,24,39]",3,NA,0.06264474913956741,NA,NA,0.1621154893025225,NA,NA,NA,NA,0.3156458925440747,0.16491325028977233,NA,NA,NA,NA,14660.399114933343
48,41487.796875,38219.0,"[11,13,19,20,45]",5,NA,NA,NA,NA,NA,NA,NA,NA,NA,NA,NA,0.0801912694154423,2.433049535777182,NA,NA,20245.022067106336
48,31525.89453125,28492.0,"[10,11,22,32,33]",5,NA,NA,NA,NA,NA,NA,NA,NA,NA,NA,NA,0.05289003757674804,2.4878791010302925,NA,NA,20801.083006541376
48,5874.91796875,5629.0,[16],1,1.4395141912859184,0.3757814654147391,NA,NA,NA,NA,NA,NA,NA,NA,0.3974744458034376,0.17208521870385018,NA,NA,NA,44291.71243481454
48,6102.9453125,5503.0,[7],1,NA,0.11659522541433986,NA,NA,0.399769339769354,NA,NA,NA,NA,0.2672619597011958,0.10321564426693319,NA,0.6850132979555191,NA,NA,15128.798436205918
48,13846.81640625,12938.0,"[36,37,21]",3,NA,0.1634826141873167,NA,NA,0.24806789469883794,NA,NA,NA,NA,0.3941816909217337,0.2379648414163391,NA,0.6902619478803366,NA,NA,19157.792373867527
48,18102.84765625,17307.0,"[46,47,15]",3,NA,0.34435243109088454,NA,NA,NA,NA,NA,NA,NA,NA,0.3491296693469512,0.19337681746721103,NA,NA,NA,22259.46369884399
72,139928.40014648438,131942.0,"[2,5,7,17,18,36,38,43,49]",9,0.23445771867344778,0.2728292636223326,NA,0.6448680375895552,0.38061369784192856,NA,0.007614745153394775,NA,NA,0.30219168669076013,0.15961583577810723,0.676959693923215,0.6319469737968036,NA,69334.80969430016,17167.377024948022
72,136160.244140625,128672.0,"[4,8,9,10,12,13,14,15,19,20,22,32,34,37]",14,0.2853171897372726,NA,NA,0.8921021586688691,NA,NA,NA,NA,NA,0.4868156862582994,0.26711638117245995,0.14680878454831525,1.624505221357686,NA,NA,22154.188081096087
72,15361.392333984375,14276.0,"[21,24,39]",3,0.2082991089611823,0.1272413460957087,NA,NA,0.2745258868871834,NA,NA,NA,NA,0.3496199598482581,0.18826965803345264,NA,0.7317312501055689,NA,75333.42932759196,16108.195886975236
72,16839.3134765625,15746.0,"[8,11,45]",3,NA,NA,NA,1.126938588472242,NA,NA,NA,NA,NA,NA,0.22642827406712573,0.1740177137792911,2.1431416452432805,NA,NA,25515.748124056583
72,23059.507568359375,21296.0,"[10,11,16,33]",4,NA,NA,NA,1.1036207821522175,NA,NA,NA,NA,NA,NA,0.3006580187225314,0.13524231653667873,2.0929953838303863,NA,NA,29040.405530769276
72,6030.0029296875,5599.0,[46],1,1.4470377532917331,0.44052367920839064,NA,1.5836723547949867,1.0633620806149087,NA,0.22474795055093333,NA,NA,NA,0.38560883952449476,0.19229245222004465,1.8741687629530084,NA,67592.26938082888,28576.3859787718
72,12962.68310546875,12188.0,"[7,15]",2,0.24204956007452916,0.3363112267706292,NA,NA,0.5772267000441476,NA,0.15419726191616734,NA,NA,0.4174274713668581,0.17702022514358218,NA,0.7785953772062025,NA,69399.11544131619,18659.865566176977
72,26969.886962890625,24692.0,"[19,20,22,32,16,33]",6,0.6688031549700271,NA,NA,1.0862874231755297,NA,NA,NA,0.9726501272812174,NA,NA,0.3824958731550736,0.11371588727673221,2.142334127595823,NA,NA,NA
72,24296.753173828125,22988.0,"[36,37,21,24]",4,0.271347428029147,0.195936465316342,NA,NA,0.27189170842517196,NA,NA,NA,NA,0.40018666528882485,0.23454936710856433,NA,0.7758033954797502,NA,75547.40454126673,18825.0445366682
96,102627.52500915527,93882.0,"[2,5,7,17,18,36,38,43,49]",9,0.4215318237908263,0.20717716340076464,NA,NA,0.31048508510227446,NA,0.1281761746861183,NA,NA,0.3794772682868327,0.21677467189888988,NA,0.6636053940570442,NA,71032.14791096453,14656.352795988154
96,14653.087020874023,13693.0,"[21,24,39]",3,NA,0.09797284373319926,NA,NA,0.31792945426843033,NA,NA,NA,NA,0.538116691756226,0.27789467170306814,NA,0.7536689784386176,NA,76061.00353786565,13964.757426833034
96,87278.98039245605,79789.0,"[9,10,11,12,13,14,15,19,20,34,45]",11,0.20009857220988403,NA,NA,1.006221176695088,NA,NA,NA,NA,NA,0.49474007042244084,0.09970520730215915,0.15311272046903623,NA,NA,67080.17941015022,19299.139418308554
96,18181.019317626953,17766.0,"[10,32]",2,0.20828054966056953,NA,2.007477220135978,1.0280863433497704,NA,NA,NA,NA,NA,0.5997033195862317,0.19932524387294892,0.12220417646517323,2.590319640340951,NA,NA,18402.45685203002
96,3466.963104248047,2539.0,[12],1,0.3386718800857007,NA,1.6017642433448542,NA,NA,NA,0.10862831750748825,0.8896513481715576,NA,NA,0.23936785686376805,0.16013594596162317,1.8452715209930508,NA,NA,19279.396268244083
96,2552.0596923828125,2423.0,[37],1,0.829276838041334,0.6235409303133519,NA,1.684031111675258,0.5215445714141138,NA,-0.17749070174280268,NA,NA,1.059331263415059,0.9071678155640575,0.48696865878765583,0.8658011237076709,NA,NA,36837.97098515852
96,29648.548736572266,27828.0,"[14,19,22,33]",4,0.6925830037353733,NA,NA,1.0247994232926185,NA,NA,NA,NA,NA,0.6278451491093232,0.23997241598847419,0.09416085608878799,2.455812746865284,NA,NA,20794.556268085395
96,12648.139526367188,11797.0,"[21,24]",2,NA,0.0945601910437337,NA,NA,0.330369073949349,NA,NA,NA,NA,0.5301349852591813,0.2763693961281759,NA,0.8088031611774184,NA,75211.60402136178,13485.789232584899
96,5533.934875488281,5028.0,"[37,46]",2,NA,0.48979231704969894,NA,1.5969340375979257,NA,NA,NA,NA,NA,NA,0.6718139199285087,0.34825556499088317,NA,NA,NA,29940.21493323293
120,94842.2203130722,88428.0,"[2,5,7,17,18,36,38,43,49]",9,0.3347939392809509,0.24136811939159708,NA,NA,0.3606260373372421,NA,0.15195624591822776,NA,NA,0.3812096603732861,0.2500176764691915,NA,0.6075583355093898,NA,69741.163800021,14320.94203758715
120,129386.9362745285,123932.0,"[9,10,11,12,13,14,15,19,20,34,45]",11,NA,NA,NA,1.1099481548526664,NA,NA,NA,NA,NA,0.37874180307998684,0.09621348481934877,0.13804053723849308,NA,NA,65177.85893061976,18210.665369498824
120,24275.313707351685,23139.0,"[10,32]",2,NA,NA,2.2063766720434317,1.130359910528338,NA,NA,NA,NA,3.811154878947083,0.47123308486538174,NA,0.10832221109532436,2.731760916550316,NA,65886.08574642873,17636.38407030152
120,3992.685194015503,3776.0,[12],1,0.3450788154070057,NA,NA,0.9841747975543749,NA,0.33170425329810693,NA,0.9563253433323164,NA,0.5052597121060557,0.29064816310712294,0.15980477185526687,1.8551397394514706,1.5657353850846787,64049.01918034323,18115.774273739396
120,13000.65054988861,12165.0,"[5,37]",2,0.5277445862001462,0.3107260744498488,NA,NA,0.20754763007908084,NA,NA,NA,NA,0.5099276043003925,0.3950203771994216,NA,0.6454893285980315,NA,NA,18538.52264053941
120,19484.826822280884,17988.0,"[7,21,24]",3,NA,0.09762370464545089,NA,NA,0.4539339701754086,NA,NA,NA,NA,0.49890152606892835,0.2545344093674835,NA,0.7904236828162629,NA,73262.99407150615,13957.858711310218
120,46794.03429603577,44941.0,"[14,19,22,33]",4,0.6698034321103337,NA,NA,1.116147281862887,NA,NA,NA,NA,NA,0.5223443821549224,0.25045644925130617,0.0754985549723356,2.5689553120613726,NA,NA,19493.242496787254
144,81246.11099892855,75653.0,"[2,5,7,17,18,36,38,49]",8,0.44413991764967276,0.1652403100375932,NA,NA,0.29895146042627685,NA,0.20521748903648973,NA,NA,0.4104649475592016,0.2376910935905716,NA,0.6940888180073613,NA,70351.20811315463,14343.479102826606
144,136906.6562411785,126664.0,"[10,11,12,13,14,19,20,22,32,33,34,45]",12,NA,NA,2.19245017079005,1.2943437359186012,NA,NA,NA,NA,NA,NA,0.03362987201677292,0.15615532400270804,2.5881466768605024,NA,65923.32364415296,17750.79735929581
144,2722.542824625969,2473.0,[12],1,0.3873011049734789,NA,NA,NA,NA,NA,NA,NA,NA,NA,0.1671499928221012,0.1959821433592227,2.0947510125730027,NA,NA,18058.090781109997
144,9570.634176194668,8928.0,[5],1,0.5469949834908405,0.13616604939729982,NA,NA,0.0433903253293324,NA,-0.0014184937228463035,NA,NA,0.4054541837601151,0.25445263335417323,NA,0.7016106427061416,NA,70058.94681618744,14062.224072038678
144,36856.32944703102,35304.0,"[7,21,24,43]",4,NA,0.01839223956304581,NA,NA,0.4317479248407312,NA,NA,NA,NA,0.5154984673583626,0.2322441448904633,NA,0.8851577355601213,NA,72146.13826167805,14127.749222164806
144,6481.212462365627,5889.0,"[14,19]",2,0.5381419054690919,NA,2.1516487692932045,1.1777153783154568,NA,NA,NA,NA,NA,NA,0.16166659172321252,0.15889490842999854,2.2110413023088937,NA,NA,19011.90285381683
144,8947.247779607773,8638.0,[21],1,NA,-0.024306356061953416,NA,NA,0.7309861751873905,NA,NA,NA,NA,0.5321855527369895,0.1777380563873905,2.5000115800929525,0.9325874506214077,2.681393071968042,72831.72984625753,13450.525140999867
144,2096.9064831733704,1927.0,[37],1,1.0295205900539075,0.5298905484500525,NA,NA,0.36531854941012476,NA,-0.1599069853662094,NA,NA,NA,0.9800287820376661,NA,NA,NA,NA,33646.38989818934
168,83852.93859263137,78644.0,"[2,5,7,17,18,36,37,38,49]",9,0.2523186590908073,0.2355015094165367,NA,NA,0.48191059692672766,NA,0.23229965319176715,NA,NA,0.41805299632166526,0.23767019131939682,NA,0.7090419840715211,NA,68840.88660932431,16680.882748439093
168,98692.85101847723,96800.0,"[4,9,12,14,15,16,19,23,34,46]",10,0.41575263558807385,0.982591638408207,NA,NA,NA,NA,NA,NA,NA,NA,0.317636317415686,0.18970815118044404,NA,NA,NA,24433.135794333946
168,62112.70282887295,56767.0,"[10,11,13,20,45]",5,NA,NA,2.226128025854226,NA,NA,NA,NA,NA,NA,0.5592400770179374,0.008154395000522285,0.152798025534986,2.4065703778132383,NA,NA,20434.10472791298
168,13849.387944169343,12479.0,"[10,32]",2,0.19672737987374966,NA,2.1807801131175153,NA,NA,NA,NA,NA,NA,0.6592684738045508,0.14553050934731226,0.13320489193944518,2.479777096407539,NA,NA,19819.39440641975
168,9419.158926539123,9249.0,[12],1,0.28850411225284867,NA,NA,NA,NA,NA,0.4170000343038942,NA,NA,0.6444507152005235,0.21110338660357497,0.16407456899155248,1.7204855909168186,NA,NA,21875.22123255724
168,9054.164636012167,8456.0,[5],1,0.35854510070297607,0.12463983302075476,NA,NA,0.08112718540985586,NA,NA,NA,NA,0.3938403451451995,0.2469755208468971,0.9834148643584346,0.6867335787098278,NA,69852.55623761879,15581.497665996634
168,31611.97669646889,29326.0,"[14,19,22,33]",4,0.6456595423508456,NA,NA,NA,NA,NA,NA,NA,NA,0.7294104515704686,0.23563643986525173,0.10598645192471556,2.208936833743017,NA,NA,23276.322426707055
168,17778.182173918933,16712.0,"[16,23,32,33]",4,NA,NA,NA,NA,NA,NA,NA,NA,NA,NA,0.42960534320866417,0.20870774143364734,NA,NA,NA,32244.99626203107
168,9717.410699233413,9144.0,"[37,38]",2,0.4103196809172167,0.2502157829782874,NA,NA,0.4886848177499985,NA,NA,NA,NA,0.5591691114837029,0.39031879098951183,NA,0.743698499668109,NA,NA,20677.35615737592
