time_in_hour,cumulative_size,size,pcore_ids,pcore_power,AF700 CD48_[R 730_B-A],APCCy7 Ly6G_[R 780_A-A],BV421 CD117_[V 440_F-A],BV510 SCA-1_[V 525_E-A],BV605 CD11b_[V 610_D-A],BV650 CD150_[V 660_C-A],BV711 CD11c_[V 715_B-A],BV785 B220_[V 780_A-A],FITC Ly6C_[B 525_B-A],PE CD115_[YG 582_D-A],PECF594 CD135_[YG 610_C-A],PECy5 CD3-CD19-NK11_[YG 670_B-A],PECy7 CD16-32_[YG 780_A-A],PerCPCy5-5 CD45_[B 695_A-A],_FSC-A,_SSC-A
-1,0,0,[],0,0.0,0.0,0.0,0.0,0.0,0.0,0.0,0.0,0.0,0.0,0.0,0.0,0.0,0.0,0.0,0.0
0,95344,95344,"[0,2,5,15,22,32,54]",7,0.2743188637355267,0.1271856409422698,0.30163578773703215,0.4833121930273516,0.26471950545393286,0.15926170013844732,0.018317694810368046,2.9491227106372797,0.7024964552357772,0.3164094082165638,0.15243660065656606,1.1198611233008897,0.6244584849597231,1.1152120494734845,70028.20003356278,13895.243497231062
0,112137,112137,"[3,4,6,7,8,14,16,28,46,49,53]",11,0.13976430562615438,1.979860355565056,1.8327529316282738,0.6198758500316544,2.6480537397469166,-0.024298092636683588,0.36795058311707907,0.5000777377493604,3.7672536388703057,0.48496714483176806,0.09219104740629502,0.12811019296931503,2.008316290475046,1.5047284785396424,65489.85929710987,17654.306143378144
0,15195,15195,"[4,17]",2,0.28938540974004745,1.8415697447186394,2.3045470281671654,0.7339516553471555,3.0002963270154672,0.07631587574860843,0.2557774327739346,0.8887164748930596,4.149577788154011,0.47472560289569055,0.062189009410986706,0.1344610489634741,2.223417633037181,1.7044580348140885,70264.37222770645,21441.246725896606
0,31536,31536,"[2,5,47]",3,0.3059989940385546,0.1440339095636758,0.38884916270293646,0.46926172504439423,0.19906005095763035,0.46623058469685197,-0.1544053717973073,1.9284196163115066,0.6954473291476421,0.3431592144533253,0.16774502714357942,0.7301310402714394,0.5190547786973597,0.9134970656709807,71340.30035514949,12491.618467782879
0,27498,27498,"[26,30,34]",3,0.5982532692195832,1.978609994545045,2.2787448471525162,0.7254838621354258,3.188408540184755,1.4631668557349682,-0.699888955560396,0.9766573176594622,4.231034057276883,0.6100835276383746,0.19879712382718973,0.07704777380172889,2.331252827151078,1.8097857588915585,68959.5112371808,21541.106407738716
0,23623,23623,"[14,16,46,17]",4,0.25384147297125903,1.7581243072006045,2.406521780341189,0.7158904052829893,3.0938135782076794,0.09136551441392138,0.41644242111501706,0.5832191962917501,4.248142720230281,0.48030193150742917,0.07053086335351555,0.11922754993015328,2.2523565822291784,1.6556473538077292,69174.17364432976,21596.043178258456
24,120215.0,96379.0,"[0,2,5,15,22,32,54]",7,0.2526209727654585,0.11205374410431501,0.32002819562034723,0.555134539067506,0.2267646824855496,0.17561716850226738,0.020306887156340547,2.9213558078006114,0.6967068045834505,0.2966027907769416,0.13996153407020406,1.0808548339558233,0.5629933330740758,1.1170756342906452,72357.11896185987,14825.95829139456
24,128989.25,100955.0,"[3,4,6,7,8,14,16,28,46,49,53]",11,0.17878957881373836,1.7812935120717444,1.90782478308464,0.671256954364416,2.5641136245966227,0.011133723015679164,0.3562041302879986,0.5752907778400105,3.823675542733213,0.5040394441397259,0.0630973034090041,0.13304198854749527,1.8702186601926116,1.4251746233387679,64903.256542696414,19981.837432189124
24,18141.5,15025.0,"[2,19,39]",3,0.2717543433977343,0.05727010254113818,0.016526774991040494,1.0174030231789022,0.07575160287186922,0.8872955338312758,-0.4372167384587802,3.985333177700297,0.8805551059724953,0.40006102408841604,0.21251656628448679,1.8036382694099138,0.6777290133671455,2.068435883237339,75816.66168729155,14660.034065540314
24,15025.75,11227.0,"[4,17]",2,0.309151783920939,1.6871820283014123,2.359035662595874,0.7848610457215148,3.027408690231773,-0.0008777367519043899,0.3453353793155185,0.8960510346571846,4.260829536944915,0.4807937071360834,0.021047036287703325,0.13879351644676574,2.1515124580470193,1.6809188429030242,70805.27228258153,24117.494301449242
24,22038.5,18381.0,[47],1,0.1717610335549078,0.13507188970437856,0.5347681926174657,0.41821083957618077,0.21037168619689472,0.19352366872744775,0.006566037491209098,0.5114975128525368,0.5420057891530629,0.24437805586814065,0.1259113489688497,0.20067487580824261,0.2811188125779883,0.35687552412822704,75849.13455997437,10702.430020192076
24,30486.5,23612.0,"[26,30,34]",3,0.6246593873763777,1.912306237629756,2.331377353869738,0.7596770306939149,3.201146517294538,1.442899880365082,-0.6538185817985003,1.0071882240745955,4.3236558510734255,0.6354364522903598,0.14617005581978404,0.08031836019221428,2.270299288480156,1.7808487470683667,68406.93474160685,23954.13943876793
24,14448.75,11978.0,[31],1,1.382274532935374,0.5930381635089539,2.967477092014899,2.3570994762003594,2.14215279332123,1.8459591472964905,-0.9492616018859905,1.1340953945323835,4.523892990795046,3.4464660230296866,1.5307016738991153,0.5265163055454614,2.43338801654123,2.4757592850592722,128468.15288519752,116124.53118781863
24,29948.75,24043.0,"[14,16,46,17]",4,0.26238642971743653,1.6712795487374312,2.3483433714345385,0.7544175668433537,3.0605150800784604,0.03285193698401523,0.4438777006218917,0.6723492897867103,4.300846609357661,0.4915225179014132,0.022841686556192453,0.12478017656830498,2.1506154865395057,1.6247876919654443,68631.99405651313,23563.36768646437
48,118390.75,88337.0,"[0,2,5,15,22,32,54]",7,0.22607765815530145,0.11684810022636949,0.25784251982629325,0.4905500006334891,0.19321577009394986,0.18750906499768583,-0.003032727051101247,2.9924055725695418,0.6880657059377512,0.2517344544342587,0.12112273133300056,1.010910373614491,0.5828748532539508,1.0007658263003059,69815.41605235195,15044.392876977243
48,78843.5625,64448.0,"[1,38,40,41,47,52,53]",7,0.23849447056394224,0.4623653181418548,1.1301869352840188,0.6286467386232348,0.6708432711477026,0.24424806027996548,0.08587230628451614,0.6252390738226055,1.9026370187665882,0.3919476105373234,0.22036326483693802,0.17451290486620308,0.5803939888465858,0.5092527286073596,62591.80188617179,17972.01033375428
48,77541.3125,54970.0,"[3,4,6,7,14,16,49]",7,0.04514235795757138,1.9669791065093536,1.9558359622370678,0.595244289491649,2.7538178700781173,-0.34153257661359526,0.513054938066082,0.5326289386617278,3.853261275696593,0.3272428026519745,0.007844115087839665,0.10249264339493269,2.0123483259182025,1.399161138790531,63799.63047440036,18939.0343889265
48,16336.375,11801.0,"[2,19,39]",3,0.3190860044647301,0.0788364735329905,0.17246232735995637,1.0012293270232715,0.06353555289194013,0.9053493250950735,-0.46242499435692475,3.9878113943156084,0.9324028323756041,0.3787247863816168,0.20006604689305618,1.7408275280241168,0.702454323495881,1.9056522194757102,74758.96751880366,15888.578463704443
48,14502.0625,11628.0,[28],1,0.3554072451547827,1.3287522718363145,1.546770069378041,0.5218352225416232,1.9074671120530202,1.1403009955265093,-0.5431347748682303,0.6079239831661969,3.517294063891755,0.39066124892580256,0.19708987173375903,0.07796416653665517,1.3934636528898832,0.8490494635332078,60908.1528920454,18879.474281675455
48,5657.3125,4293.0,[40],1,0.459010010086506,0.5243867826706636,1.8033560762729368,0.9766611937868044,0.4961750270667431,0.8967963036888047,-0.30125998868720316,1.0012034669509573,2.0667747434073163,0.581025445540616,0.4420052732304427,0.26050481743760767,0.6477410998707444,0.5006936059856149,71683.6632234829,26985.225935459635
48,19584.8125,15029.0,"[52,7,16]",3,0.2602764207692829,1.316245529999327,1.6983139161467666,0.6329167034245322,1.8982854683444148,0.4910510785334308,0.1039582958638201,0.5387105207542784,3.8955391092459997,0.4649524998771375,0.1807845905692247,0.11922388823610086,1.4849979251460779,0.9852899654675005,63622.335521465975,20367.25488181209
72,134981.6875,105384.0,"[0,2,5,15,22,32,54]",7,0.228684853482908,0.18323313358687088,0.2123123228699444,0.6362214154781127,0.2717190859931349,0.1837986017415798,-0.011044102997535443,2.858620319435352,0.7095928775880257,0.2866865291510603,0.14120624149213112,0.8810366749841518,0.6362352013877343,1.059921964544382,70744.56113167192,16715.089467228623
72,80490.390625,61513.0,"[1,35,38,40,41,47,53]",7,0.25034808207559656,0.7255066253063944,1.1256775388966265,0.7623282373637341,1.0159303316665222,0.23005401657224,0.13269883391515425,0.7482156001094671,2.02380583379402,0.3892997177071822,0.24009376768694501,0.19886466563128358,0.8031660457515813,0.6455246676154065,64059.384517367595,19653.86914781165
72,122011.421875,95042.0,"[3,4,6,7,8,14,16,28,46,49]",10,0.19852622148707533,1.788793127293026,1.6279088974450517,0.8420107977171973,2.446101127913226,0.07567686974580168,0.24294826302226102,0.6520776108728752,3.50594835002793,0.45728614096170117,0.19558666073962216,0.13684570132791118,1.8045457457376894,1.421599823390253,67485.8727278478,22174.941291741176
72,17193.09375,13109.0,"[2,19,39]",3,0.31428276115500653,0.16073901224601528,0.1030802024959172,1.1599650103584453,0.16655519216654868,0.7995486304021078,-0.39352390370679347,3.793175130200333,0.931632841191684,0.40058074289458334,0.21868208481694262,1.4727947363185387,0.7613220129303367,1.9133543456211533,74683.00718129917,17768.374234567254
72,35866.453125,26541.0,"[4,7,8,16,52]",5,0.3083810500088633,1.713615093249563,1.6043737774221438,0.8724938808548939,2.2680529206370132,0.4743724968030292,0.031030277088220704,0.6857813131338353,3.637897439265808,0.5412530710382669,0.2554219765797865,0.13926095303889918,1.7770513448312792,1.4041916467899802,67833.07715209163,23355.785588291306
72,7432.328125,6018.0,[40],1,0.4305677206523848,0.7258638588577395,1.508056240461324,0.9417173507754266,0.847883224841222,0.8179809501754349,-0.21315471872247382,1.013848919938019,2.1125223329184935,0.5302751966388416,0.3958576484845455,0.24871705849235548,0.8118741722353183,0.6292452980139569,68830.15340499373,25680.176761571565
72,5008.328125,3230.0,"[41,52]",2,0.6717926631891256,0.5441616282972461,0.5686121368158674,1.2620995332805047,0.6148918887384474,0.8554960160295473,-0.09577985561237368,1.237251084927291,3.4006056920722805,0.7645696906964322,0.42403658892220264,0.2407058097356588,0.864461343764917,0.9593575581484586,59748.91391525995,22886.572752259526
96,114661.421875,80916.0,"[0,2,5,15,22,32,54]",7,0.37860173527699703,0.1665696456318888,0.2777596307084669,0.7348722133419643,0.2782962857125093,0.15174282612483925,0.11908606829421275,3.1443316837273825,0.6970464470415704,0.35669428625844957,0.18898455426584482,1.2132035455511594,0.6813454014613806,1.2054088399479737,71462.78899003053,15002.801165551064
96,75630.94921875,42612.0,"[3,4,6,7,14,16,28,53]",8,0.2182308875663308,1.7354371908275574,1.7037811045588183,0.8957807437237708,2.4376784563179767,-0.039553605094547084,0.4933186376021146,0.5747987342009648,3.433228541299515,0.4800036469179607,0.17745577714847682,0.1532080948672786,1.8027177177287155,1.3623320433117783,65876.31666950988,20212.530935298768
96,14483.78125,11024.0,"[2,19]",2,0.47052657004413123,0.14644753877613637,0.11639703609344076,1.2560098949981207,0.14136414029754807,0.8445527831380939,-0.2368336946668217,3.820754832821353,0.8623401003592918,0.47019301273784797,0.270179038576821,1.7021961130877017,0.7697918308193848,1.8714654433477331,74264.25839246911,15580.489297295895
96,40409.48828125,33120.0,"[4,8,49]",3,0.11812271066859159,2.701338574081218,1.9761139030089443,1.005729460113936,3.2955272392818675,-0.31127939074807276,0.8336870309115936,1.0003982637039122,3.6894086195564726,0.49024914130131914,0.04884781514783576,0.1502715128392177,2.4835284742557877,2.090685037539905,68038.99711904378,19037.95140006648
96,12039.5390625,7902.0,[47],1,0.19596123310109315,0.17996733130908282,0.5264009472136637,0.5413479540550199,0.24618457794760928,0.1880709756631913,0.04194347834025436,0.5926070756459318,0.5553187917470491,0.2895291084885645,0.17524326045530048,0.20976577874399638,0.3109314252699973,0.3646227058818547,74541.37034160219,11717.377033096047
96,44147.8125,39228.0,"[26,30,46]",3,0.5375953716422224,2.7680933171663256,2.0779451820876074,1.0376911787337275,3.47333876614976,1.3316413344257196,-0.1961466771283198,1.262192851622654,3.861565986753686,0.6120781920932349,0.20786317818559708,0.09459352488630135,2.627482535569328,2.1962139049984786,68614.7758736629,20172.92952510374
96,18978.00390625,8578.0,"[7,16,28]",3,0.4029377060443502,1.5670902904061146,1.5803586732012538,0.8544327736242203,2.1023908545147587,0.8181888015420424,-0.0733893588043597,0.746069299848775,3.3971340727538464,0.5500665915429638,0.29420668160754326,0.14537877103632935,1.6189025699406532,1.1646874544996513,65618.25832167128,21310.954671413318
96,10372.328125,7698.0,[32],1,0.11838823883936578,0.11447513988429003,-0.20336946298029357,1.566222798161124,0.5311098770304454,-0.44619218203445754,0.4695942238129138,4.217285965686146,0.8665678438246164,0.4136096665926031,0.19770905877152467,2.000799506341996,0.8313006241095243,2.292257992187744,74350.4101929865,14039.556090499134
120,95679.35546875,67014.0,"[0,2,5,15,22,32,54]",7,0.3361070281175138,0.1728210562281891,0.3620795103750716,0.7766648851520022,0.30735985442739455,0.13923224143218893,0.1546305000545436,3.1517444727372776,0.6929747281097774,0.3716716776785268,0.21590542926348721,1.2484468545274188,0.6527090598899982,1.2751772794407232,71101.5352461212,14366.783949401251
120,71658.7919921875,60014.0,"[6,14,49]",3,-0.0737498066875999,2.7900302569677056,2.2911340336736603,1.1177493282566986,3.622122278336699,-0.7759569724639906,1.2998302749994433,0.8720060248016446,3.849601659681493,0.32484280616183536,-0.01986691728790646,0.13873639222960055,2.6562209527613656,2.2276346251885077,66202.08580727535,17983.434265162974
120,32469.0390625,23953.0,"[2,5,47]",3,0.3806876942592172,0.1888541771763581,0.42809102349411354,0.6721267441611127,0.18401373623571748,0.5179226715146856,-0.1106386353678106,2.241858153020898,0.7368161258403166,0.37452785781187103,0.23832951580436168,0.8999157133187823,0.546733490783683,1.0328010121065772,72762.39544739365,13511.278412583919
120,69433.953125,58397.0,"[26,30,46]",3,0.5155564493582485,2.9059339825712014,2.2331551556178213,1.1345131687676933,3.616669873716669,1.4061196144140682,-0.17144676041502915,1.399043696578678,3.9133894425069093,0.5187984307060519,0.2201720415014563,0.08213264240957319,2.739932983800355,2.321209236175719,66586.33226134616,18847.940793555324
144,81049.818359375,59409.0,"[0,2,5,15,22,54]",6,0.4540909689525725,0.13134092653755536,0.4102373124593899,0.9744936667281463,0.25676532879979685,0.21145945610095507,0.1782204295791563,3.2974364227454753,0.7056786294683018,0.3894246142325706,0.21193680889191047,1.35565248198766,0.7188335085885692,1.2933242842587174,70996.97283231973,14338.662991200852
144,167326.458984375,123155.0,"[4,6,7,8,9,14,16,26,34,46,49]",11,0.242812145635118,2.7231464480284613,2.193044221719275,1.2569093154213173,3.4867433559438603,0.3624398189515712,0.6848174661770545,1.0172080812104642,3.712844895174396,0.4888244022816933,0.04969592177682092,0.14974133370384535,2.604265602028044,2.1518703101378076,65801.15592737414,17811.72473154813
144,9292.58447265625,7367.0,[2],1,0.6520488425550259,0.16422967708408676,1.1368806444629076,1.067367046016694,0.14325487476086662,0.7906146764843915,-0.24263969341452718,3.4063691040696984,0.9503767093097794,0.5115099696070887,0.27922726048150315,1.5307358097351695,0.7978012689155457,1.4876681239944167,73151.33556394966,17289.86073226123
144,10851.72119140625,7519.0,[47],1,0.20720271179853444,0.1738786376071384,0.601505395160399,0.5914640614832485,0.21473764954627006,0.17642470713700464,0.08078135651537721,0.5621853982323421,0.5032367588757197,0.27405934457350345,0.19385873569040823,0.21954397186636887,0.3200322188077278,0.37963627886709567,74977.98915017638,10402.509488139693
144,9784.51123046875,6404.0,"[9,30]",2,0.8464397244623008,1.5396723037302746,2.4436165274572503,1.289243831614924,3.170629679494708,1.5225699193357107,-0.5444357427514332,1.2595049158825038,3.8539563924527083,0.6031362443052993,0.24813302250619218,0.12650016015247267,2.3109023257324455,1.765509878893565,66401.85016906542,23001.84424572094
144,20790.30126953125,17374.0,"[32,39]",2,0.07873615381439514,0.02684314601116977,0.21584830810926103,2.825266170412483,0.5338450135969919,-0.024587634589326113,0.5012796896557816,4.425157179530577,1.374185128231908,0.5418679192155204,0.22816050667166765,2.31223377969928,0.9034478811676406,2.5028990835447216,72762.62431731739,14092.832355982495
144,8464.27294921875,5832.0,"[16,34]",2,0.5580789740263112,1.3094934284232695,2.653826519671069,1.4357389940997107,3.321792764853862,0.8311165708292443,0.9844711865702673,0.9140290416506454,3.965312457224672,0.6002322330871016,0.19971628168217848,0.17309143037564056,2.351453539885793,1.7122367474744051,64754.257581859354,23101.21357675766
144,6664.82470703125,4861.0,[14],1,0.4242860771728463,0.9986595000795657,2.8363579031539072,1.451708775764827,3.437205835384478,-0.6883891451372678,1.342503057958314,0.9603712886142128,4.069316768324472,0.43732741785168394,0.00029873026422055915,0.1935671374510498,2.3320651282861435,1.6574981811596012,63973.93068158025,23222.131206124595
168,104950.63000488281,88965.0,"[3,4,6,7,14,16,53]",7,0.15840538190486342,1.6747091834449512,1.8459409681157335,1.3192796431872598,2.6389777732733157,-0.20002797763147995,0.7844560134246632,0.6018121928197582,3.4205349951325217,0.5708072197915856,0.11219246990918741,0.15332002802258982,1.87509915049942,1.4140764704155615,64378.34721127201,21092.24713695565
168,77723.837890625,48620.0,"[8,9,26,34,46,49]",6,0.35267507387195485,2.6397324184820645,2.149888601249675,1.3642050698583676,3.4658349360661114,0.792277623766638,0.43644639070008395,1.1575634201396205,3.5797896572673698,0.5926785696917877,0.0950617354215102,0.1311231620552733,2.4930028330855487,2.0345746413108814,66730.15925892463,19549.000752388336
168,27465.939697265625,21404.0,"[8,9,30]",3,0.4923076253503884,2.0408794861383193,2.146910196889096,1.3763854318745774,3.1429715907096862,1.3268635818192667,0.12276528067933912,0.6338182738772007,3.5436285350320778,0.6855492578258217,0.23396114503762355,0.11691850521946412,2.2665206532314595,1.73097906464571,67075.80430901055,22265.332778917906
168,29844.47869873047,27598.0,"[28,40,52]",3,0.45899010871835144,0.8548902498056661,1.3057804564923359,1.4575350313396576,1.3974214723146985,0.9727506292460764,-0.14833770339700525,0.821318985548996,3.318886384074898,0.7540574294832355,0.3763138417626011,0.194525392528608,1.23111504643121,0.9820020904920594,62071.81039499294,24046.03809760952
168,5864.2061767578125,4198.0,[14],1,0.39657403583710527,0.9698123062335404,2.719862982469214,1.6194827561952407,3.4987956148310944,-0.7341236965206612,1.4007534695903074,1.031700981293742,3.89520741308509,0.5473194639047539,-0.018120543614195128,0.18682696668826626,2.264211521412247,1.582641111630252,65225.47722982644,26292.498900229693
168,27076.552856445312,24534.0,"[7,16,40,52]",4,0.410010887075283,0.9070728374133572,1.5044493992824086,1.5824933859337955,1.6217678294466267,0.6274892684292344,0.2769755771539897,0.748004905545252,3.472199289096875,0.7822879180564569,0.3430077668699969,0.21669469388599827,1.3951406561643025,1.1273292659663003,63290.35007141952,24271.760956476133
