time_in_hour,cumulative_size,size,pcore_ids,pcore_power,AF700 CD48_[R 730_B-A],APCCy7 Ly6G_[R 780_A-A],BV421 CD117_[V 440_F-A],BV510 SCA-1_[V 525_E-A],BV605 CD11b_[V 610_D-A],BV650 CD150_[V 660_C-A],BV711 CD11c_[V 715_B-A],BV785 B220_[V 780_A-A],FITC Ly6C_[B 525_B-A],PE CD115_[YG 582_D-A],PECF594 CD135_[YG 610_C-A],PECy5 CD3-CD19-NK11_[YG 670_B-A],PECy7 CD16-32_[YG 780_A-A],PerCPCy5-5 CD45_[B 695_A-A],_FSC-A,_SSC-A
-1,0,0,[],0,0.0,0.0,0.0,0.0,0.0,0.0,0.0,0.0,0.0,0.0,0.0,0.0,0.0,0.0,0.0,0.0
0,145776,145776,"[1,2,4,5,12,13,17,18,25,26,27,32,33,34,35,38,44,45,46]",19,0.3462688619114218,0.29166788306717484,0.7106751354406815,0.5747298053451932,0.48047365141724274,0.27003276245060714,0.021043717079626045,2.1466961633327832,1.1023727263198322,0.4102644341043795,0.20949286074525508,0.8224180841908162,0.7124743483495241,1.0474119554179007,68647.83448578636,15085.179233893105
0,107150,107150,"[14,15,16,22,39,40,41,42,43,47,49]",11,0.4902473691180562,1.6202815021838504,1.9504433683900948,0.7556885116378909,2.582777848679409,0.21603080782081374,0.18898685566961726,0.7499365257676218,4.154669683471768,0.8717436110685924,0.17326172831543651,0.18471621271115335,2.0752754355016325,1.6779236762202616,69282.0839570694,21733.48016798873
0,82496,82496,"[2,4,5,12,17,18,26,27,32,33,34,35,44]",13,0.3478548982980978,0.28626120908892805,0.5677776769297922,0.6134455927560163,0.49850646907729246,0.25738887956991974,0.026688683451311146,2.417905225720035,1.225865535201709,0.4207855353108024,0.20822014798293464,0.9517266875848551,0.7545960253103178,1.2164385871921066,68883.94026377032,15172.333591931714
24,172259.8125,162442.0,"[1,2,4,9,12,13,17,18,25,26,27,32,33,34,35,38,44,45,46]",19,0.3400392536397596,0.33729871183499327,0.8661120643638958,0.657697015226637,0.541768221470698,0.2842620754539724,0.037625302313324394,1.9143031989364259,1.2859097244638056,0.403668474050646,0.19056437782100044,0.7034273298132163,0.6868496018035263,1.005958501494652,70700.25940031711,17360.851893415354
24,113034.875,106146.0,"[14,15,16,22,24,28,39,40,41,42,43,47,49]",13,0.5428776164126325,1.4749254578078248,2.0579126432516843,0.851161886501298,2.522411110079411,0.2990688575699554,0.18044773455426855,0.8531562166549325,4.270300609438578,0.8981891895510131,0.1534682342717253,0.19958924558073465,1.9750090006624066,1.6453100861177723,69925.1309828053,26305.521689655467
24,34751.625,32344.0,"[2,12,17,18,26]",5,0.35659071455291724,0.2776228351192209,0.8244656033602671,0.6482288758133663,0.45386172760986065,0.3012722820965241,0.05332171963721111,1.9504779433299975,1.4728454140975424,0.4148531240589457,0.21058660674141416,0.6836775702934776,0.6305391423368675,0.8686681431443837,69945.511555215,17895.760097549377
24,35735.6875,33143.0,"[15,16,22,24,25,28,34,35,38,51]",10,0.594799484436944,1.39470423315279,1.96275911394248,0.8844581340938937,2.187505364887342,0.8305186779882165,-0.10374395024756122,0.9119377160926354,3.83925333455352,0.8665410694631238,0.2667328647168148,0.21696300306591476,1.8033701746888169,1.5187871430118052,68958.84748264603,26653.001037128524
24,16014.0,14861.0,"[32,33,44]",3,0.4340960163606864,0.15044146095603628,0.668699260927943,0.7552753047684879,0.3500988856742535,0.283761603553919,0.007397651757838464,2.367196929374284,1.1984116029528806,0.43732320373579325,0.17241198185962592,1.0804451275914853,0.6114894565614445,1.5027350218090445,74299.04008992139,16963.734232546558
48,176780.77734375,166882.0,"[1,2,4,12,18,26,27,32,33,34,35,38,41,44,45,46]",16,0.29000438548715346,0.30556754606982306,0.7325229699777966,0.5807907300179918,0.47108256001837745,0.23955077923940005,0.04136705096688287,1.871628111629966,1.4126824121814483,0.36031400386464796,0.17275864459338752,0.6151550774550207,0.651952103145582,0.8268077476845159,66625.06870216793,17152.031940689958
48,11524.359375,10442.0,[7],1,0.1687595114292577,0.04906346925737681,-0.4006221727702486,1.105797211002439,0.18099415922217954,0.47773923758303427,-0.1813942515158251,4.2030422098814935,0.8890270913187944,0.3096937139323772,0.1655296311430572,1.8074313620073057,0.7174753164001105,2.1330876520064974,72103.30109997973,13796.17836674752
48,104904.0625,96565.0,"[5,6,8,9,10,11,13,14,15,16,17,22,25,28,47,49,51]",17,0.3343802664464628,1.566391520553673,1.964547690422728,0.7573769928025786,2.379981714542191,0.14080654254776692,0.29357491191877694,0.730134751367435,3.9414750824234894,0.4652878042887407,0.13815465144830696,0.14379983261067364,1.8640287275688343,1.383693303245042,64726.78980616215,22518.6444423923
48,26713.35546875,24354.0,"[6,8,39,40]",4,0.6547552408196713,1.6480655872888978,2.3809048890027404,0.7599216593636791,3.1948921440233673,1.1763239972466624,-0.45004228859540074,1.0082335666464184,4.312676713972945,0.503990692957892,0.16493989306276768,0.07020911005277597,2.356836621562776,1.664552917029739,68933.9526217209,25941.456617483687
48,7824.9921875,6362.0,"[5,10,11,24]",4,1.4636613051001464,0.6142323014250186,1.4997426764209068,0.8445133520430819,1.466713420849076,0.678417959227194,0.07330264435767386,0.7705942918283655,5.144015668646827,2.2323680982279357,0.39608132392953577,0.19600434616747875,2.157927613154059,1.411942918429931,67736.2843692934,28190.111819201094
48,37120.40234375,34848.0,"[12,18,26,7]",4,0.25446253137704433,0.28079829155484193,0.6446674903260701,0.7799828525485553,0.4403162895237549,0.329871027697036,-0.01625023350177468,2.3607669488564547,1.5021554352929631,0.3606078162382904,0.209355707566369,0.8730078544391473,0.6429907480128808,1.1523595796111368,65822.67761064251,17213.226356841493
48,22465.640625,21203.0,"[32,33,34,35,41,44]",6,0.5567700275085048,0.2318395080877007,0.8775862115894313,0.7895884472959023,0.6149856733981278,0.1991140993835374,0.040476697741024914,2.246369666302936,2.343929427228976,0.674617406990779,0.20749697766780617,0.9241048100489917,0.9397175520209348,1.5816272039978045,71993.91883577775,19568.35615498944
48,39221.640625,33166.0,"[14,15,16,22,25,38,39,40]",8,0.5500379310755983,1.768474057160335,2.2641055893386377,0.7161121430767028,3.1371847083151123,0.9731723038630598,-0.32006370038174214,0.8908118818332138,4.212928928505563,0.4774929827024713,0.1333770713605773,0.0761351759447021,2.3529293160371703,1.6343735545364173,67846.53664650224,24152.543740003206
72,266838.95361328125,252180.0,"[1,2,4,5,7,8,9,12,13,16,17,18,25,26,27,32,33,34,35,36,38,44,45,46]",24,0.3090832077723167,0.7351358923812845,0.8602817126093725,0.8412733300225481,1.0232590942740676,0.30607698438294473,0.022885538243088366,1.7411984636396873,1.8596994138310121,0.43615524823013907,0.23356102475784324,0.5152978995848962,1.0070306104658182,1.1289728302607822,69366.86294743017,20871.1646294248
72,587.348388671875,361.0,[47],1,0.7444737390628966,0.43505058881467873,0.7016674623704002,1.9358368786896079,0.6929678793771168,0.38455784361863565,0.9592035012659101,2.4292145041614406,4.28982890571994,0.6963972419806651,0.4571747269661901,0.2682805309793629,0.8201591140300079,1.5917407085933513,62433.58704519407,27209.992073253645
72,72957.005859375,68103.0,"[6,10,11,14,15,22,23,28,39,40,41,49,51]",13,0.49740853749206715,1.4962606595974903,1.7545496065127062,1.1307723633574414,2.4800346444373482,0.2775318153078694,0.13585803296773102,0.870203600040572,3.840642636800562,0.7172974633070602,0.31960916530520667,0.20203654605306898,1.9228598633586347,1.6213564765171489,73404.03031012448,28740.07474040183
72,30432.542724609375,29004.0,"[5,8,6,24,42,43]",6,0.8974435210949852,1.094220830496114,1.4239016904558608,1.2926255273249434,1.9950905785739965,0.314955594344146,0.11431054602371615,0.8900881933652229,3.9348664519138636,1.364612797542362,0.3935979473009854,0.2328347885418317,1.8920042659374015,1.6377840943797668,73769.98617852727,30221.950183733967
72,7234.546630859375,6349.0,"[12,10,11,37]",4,0.392454081096385,0.37836740912166755,0.888536452107727,0.8214232910917332,0.6386574629321458,0.32800645035597764,-0.01579256982277899,2.2289597827827095,1.5368531340378864,0.5422281554450198,0.2789601680014173,0.6778424018019222,0.84559213902974,1.1526143313673112,72435.14541295814,24169.385197428623
72,27759.644775390625,26080.0,"[7,17,18,26]",4,0.2901140796287265,0.5166492760496157,0.4992363532819817,1.086093443867064,0.7729015606471341,0.30065488168314736,0.012881176718245957,2.4516187529009272,1.5541109671014541,0.44192355280760065,0.25728815159210017,0.8680076294137304,0.9111934476848494,1.4910810402007175,69694.24664205378,19525.593620073505
72,18798.20263671875,17719.0,"[32,33,34,35,44]",5,0.34203880712292145,0.6918941351530563,0.8812840673349593,0.919959653856278,0.9752536288828044,0.21531570525809918,0.08204370070643074,1.7674465113359172,1.950415599772219,0.47155841953268807,0.24400132139642317,0.588640375443791,0.9741310683914041,1.2804727136123377,69454.30259910732,20728.12957251898
72,66261.70825195312,61527.0,"[14,15,16,22,23,25,28,38,39,40,41,46,47,49,42,43]",16,0.779511351451917,1.0999188474826154,1.7246559023428332,1.2526445836131659,2.048664438466193,0.5977595364039174,-0.029511043562164385,0.9719420436654556,3.89688478475098,1.0532222270557874,0.40100079347723927,0.2350930314611932,1.775825690129635,1.5180715574296155,73954.5838248507,31518.79918261937
96,155914.9854736328,143417.0,"[0,4,5,6,8,9,10,11,13,14,15,16,17,18,21,22,23,24,25,26,28,34,35,38,39,40,41,43,49,51]",30,0.48077319949114816,2.0071919298636827,1.9641607070595994,1.185942431067343,2.8089766305719093,0.365588503342422,0.513288584882285,1.0909386033852329,3.714969781950375,0.7048326399519017,0.2448045725991297,0.22625141671362536,2.2128410221014114,1.908971272096857,69536.478081902,22878.647397838955
96,89722.08950805664,83278.0,"[7,12,27,32,33,44,45]",7,0.4734188920565774,0.17720084567133565,0.34323226482584746,0.9602038584375978,0.34099008599131686,0.23151647699293676,0.13491517085817817,3.116513497346669,0.7430597213876647,0.4455092649728666,0.23176799030253958,1.31526775358513,0.7376833251741294,1.4378077056736454,71522.62668514502,14862.740854921321
96,28940.271606445312,23418.0,"[4,5,6,8,9,10,11,13]",8,0.4979364297059534,1.4919906488167047,1.8123956919133044,1.1237061707309257,2.3336515497206594,0.4716520908511488,0.3953723787166217,1.0190126880100365,3.4762263028105385,0.6639726865699046,0.31089641696720394,0.22626330817128026,1.8290275150621302,1.528312159063818,67695.71658660783,23029.30927772698
96,18352.802337646484,17210.0,"[12,18,36,46]",4,0.6603777070849508,0.49807222291793884,1.9863460460308393,1.1938777722395204,0.735017301140299,0.3960739274396925,0.25474282458535313,1.6627637280121768,1.7380493886285922,0.7181055768060117,0.494642217397649,0.638620299561643,0.9023073301583536,1.0582244820675775,70401.10195050927,24687.442470803293
96,19784.754608154297,17124.0,"[15,16,17,21,22,23,24,25,26,28,34,35,38]",13,0.8899693440508016,1.0868060259848695,1.9959832692478838,1.4005276934346265,1.9649695146595723,0.6690903249064772,0.3628125159685047,1.1662746646509863,3.659791830872304,1.0372461914161222,0.4987220736646223,0.3155549964622085,1.8228340305052533,1.6113770846801898,70048.50840084383,28199.92726887151
96,11786.838653564453,11064.0,"[32,33,44,36]",4,0.8037836631430391,0.32332140301193624,1.8712154467375623,1.3432757711947096,0.5592805626763875,0.39737722442934587,0.24304653783705676,2.135336471765087,1.5379055318868007,0.7492001899928752,0.4842200294297099,0.9566839170143968,0.8723766996941219,1.508869625248179,72301.83830175953,24379.639275486796
120,218275.74501228333,208683.0,"[0,4,5,6,8,9,10,11,13,14,15,16,17,18,22,23,24,25,26,28,34,35,38,39,40,41,51]",27,0.438495770397203,2.2113389132818,2.1774247910411897,1.2550061622198028,3.087136300749426,0.38643747743337453,0.5592920564210249,1.1499965493005644,3.814616478221416,0.5971485176776826,0.23490666666495708,0.19360238077016612,2.3894649645072668,2.072828367894409,67163.85428723911,21342.404388728322
120,106048.68137645721,99222.0,"[1,2,12,27,32,33,36,44,45,46]",10,0.4269961175860033,0.3073934860428529,0.9390805657513357,0.9043467430064029,0.4627330441651516,0.2583482141390889,0.16463974560054417,2.1904909252989953,1.0377594419593885,0.46630625189153496,0.3119063728223801,0.8608815133977845,0.670366524794395,1.0888948462989572,68928.94095911847,16477.19499291128
120,25336.59933948517,23528.0,"[4,5,6,8,9,11,13]",7,0.5508862726467003,1.5528479930581058,2.1212711307732977,1.2643390853857954,2.6178793222751717,0.5874764286438567,0.4744540429110069,1.0781792113525102,3.6607434477086023,0.649890665949077,0.3487356900539811,0.21436639765135335,1.9928090947812636,1.7276597677268073,67160.70652791794,23259.683913588713
120,30664.995186805725,29497.0,"[10,15,16,17,22,23,24,25,26,28,34,38]",12,0.9618256208474076,1.126916348479523,2.175907820915159,1.471390159789566,2.3086952210663916,0.8019610124507948,0.21446933806691915,1.2443539639422845,3.955602191361869,0.9475705402819411,0.4788914434303866,0.26442291856653277,1.9712225229035987,1.7688991155654878,67828.40614132838,26730.42570384522
120,39004.81948852539,36035.0,"[2,12,18,27,32,33,36,44]",8,0.5457707128784668,0.27588090589002556,1.1213835526766593,1.102566520895738,0.49245639757810844,0.26775787001489393,0.21066477729243438,2.5158606192280324,1.2914428333294352,0.5359812622444046,0.35638871653545134,1.0601044613400794,0.7570867425666498,1.431108854233932,69280.87859037469,18223.58703164126
144,175693.5218732953,161332.0,"[0,4,5,6,8,9,10,11,13,14,15,16,17,18,22,23,24,25,26,28,34,35,38,39,40,41,46,51]",28,0.4379802625951479,2.2217275507300647,2.123635028494139,1.488848730744591,3.0591926518518435,0.385014743065077,0.7005016963351203,1.1603656869099765,3.596032883207648,0.6843474656146408,0.16580279792601393,0.2640767484319868,2.3641929859740776,2.068094413542343,66971.4646779647,20554.185958433056
144,82887.8634815216,77411.0,"[1,2,12,27,36,45]",6,0.49813125948573944,0.19536771566364086,0.7788928757560578,1.2559226767833565,0.35485563667137,0.2585995192282231,0.2367573133706018,2.66233106628942,0.8934533333331794,0.47361358338082304,0.2730642254252693,1.1331200650027098,0.7365397826879282,1.229943303367193,69744.35066906581,15680.412860445358
144,8494.525490224361,6911.0,"[4,5,6,8,9,13]",6,0.6457717077635259,1.4299236356844598,2.2126432998061687,1.589360405876564,2.6445179415901063,0.5967594016906732,0.6291950760954759,1.1023512578404886,3.6244598243812978,0.8110860255843447,0.32073017947652493,0.29800810981966763,2.0781853961848205,1.8264488176560396,67376.35187115727,24164.56032655211
144,14919.122385680676,12947.0,"[10,11,15,16,17,22,23,24,25,26,28,34,35,38]",14,1.076713830940857,1.0588821067530731,2.3228434099646242,1.931576349565041,2.24800521943101,0.9400466482811887,0.4943075760270199,1.353651786856633,3.6528304110492225,1.1004278606719784,0.5571131142718588,0.4242289092796908,1.9820272730155093,1.9143811812459937,68597.4589083253,27953.285495364195
144,35538.09573972225,33561.0,"[2,12,27,36]",4,0.5825041340863668,0.21762440301217856,1.0156075994572062,1.4455540764245849,0.4204303415238102,0.28785643535056127,0.2962739992995074,2.908505656742893,1.2390723209704428,0.5595168401928453,0.31340311640302865,1.265653192956982,0.8403891128705633,1.4249582906301754,69947.64584917709,17811.676911379676
168,231548.62919276953,219985.0,"[0,4,5,6,8,9,10,11,13,14,15,16,17,18,22,23,24,25,26,28,29,34,35,36,38,39,40,41,46,51]",30,0.4517173291689547,1.4270457451833831,1.842599172644697,1.6573539627010954,2.3471811225080823,0.396682669362983,0.5292309127308186,1.0160129948726562,3.4396164282919086,0.844092913012671,0.2843664468406941,0.25260918373427577,1.81631795241637,1.5589000089189262,67079.45827307808,25375.302830957153
168,74168.79484594241,68569.0,"[1,2,12,27,32,33,45]",7,0.2860092719841987,0.19951207273079152,0.6628281407046117,1.5719368370418252,0.45733005638891644,0.23507596623305904,0.2805913724024842,2.523420414906991,1.1161564528768744,0.45689123467602377,0.24825774226312136,0.9872159763951289,0.7209339209121605,1.2611166065735735,70055.7309949834,16816.804930823826
168,28547.471091169864,28000.0,"[4,5,6,8,9,11,13]",7,0.4565890531056058,1.1021266032287307,1.6592182369266237,1.6287594752686902,1.9926474497809212,0.686404382963121,0.31168223284282215,1.0247704083851579,3.344360994794258,0.8065094971462891,0.3552071142708364,0.2581620934849741,1.5643412537636152,1.3507196583407406,66066.9428260561,25425.146836270942
168,70743.4020494856,67870.0,"[10,15,16,17,18,22,24,25,26,28,2,12,27,49]",14,0.5131747143112544,0.6194279494340664,1.3092218056824882,1.8317914539739726,1.3320302431731212,0.5390237725174356,0.27431118165972723,1.6103625716263652,3.0731679111911467,0.8384853231518966,0.3734451652469484,0.5551866716460929,1.2611550385841968,1.42408632362299,68417.35294198882,25723.091424592563
168,8372.873718235642,7881.0,"[23,35,36,38]",4,0.9804813231715876,0.6259749330331577,2.790384366716531,2.176251301170446,1.127912893935609,0.7751253169622447,0.8235449576741223,1.2729392521117857,2.162128737743723,1.1165834762858373,0.7883339387609327,0.513601707436327,1.3855359491604018,1.3748830769445324,68120.89156128955,32375.382787319424
168,12175.066724848002,11424.0,"[32,33]",2,0.23958732001763705,0.11253198601761527,0.596583365230245,2.389464709846141,0.5299146253560179,-0.04922709577392337,0.4972031552495415,3.211622602327436,1.3622457536276213,0.5593248995076735,0.2527784214733688,1.6555742825861484,0.7846021187728108,2.1807223510035962,75943.62780847808,16971.230088482567
