time_in_hour,cumulative_size,size,pcore_ids,pcore_power,AF700 CD48_[R 730_B-A],APCCy7 Ly6G_[R 780_A-A],BV421 CD117_[V 440_F-A],BV510 SCA-1_[V 525_E-A],BV605 CD11b_[V 610_D-A],BV650 CD150_[V 660_C-A],BV711 CD11c_[V 715_B-A],BV785 B220_[V 780_A-A],FITC Ly6C_[B 525_B-A],PE CD115_[YG 582_D-A],PECF594 CD135_[YG 610_C-A],PECy5 CD3-CD19-NK11_[YG 670_B-A],PECy7 CD16-32_[YG 780_A-A],PerCPCy5-5 CD45_[B 695_A-A],_FSC-A,_SSC-A
-1,0,0,[],0,0.0,0.0,0.0,0.0,0.0,0.0,0.0,0.0,0.0,0.0,0.0,0.0,0.0,0.0,0.0,0.0
0,95616,95616,"[0,2,5,14,42,53,54]",7,0.16783520833673765,0.23312419525663555,0.3185308312461253,0.2806541152673597,0.2589466738032999,0.21317538260662092,0.2539223003833133,0.5261525624493821,0.15900822385526392,0.1012306171646252,0.2464170825745917,0.23289165278777277,0.1478476376663045,0.27913419753918156,0.20018263551850884,0.05074984569390883
0,18423,18423,"[2,24]",2,0.17117249697356648,0.2377141805029019,0.3332710922439332,0.28309691030229445,0.25681607420695385,0.25408100354400526,0.24259173715171756,0.4249674741432014,0.1929445605269702,0.10827232077079949,0.25023669089453593,0.17329023032766822,0.13412768651831142,0.2333976971869407,0.20386814128221573,0.048942218625664266
0,88484,88484,"[6,7,15,17,18,19,32,36,38,47,49]",11,0.15334470062517405,0.41982989677896576,0.5076805713711386,0.3006293844377522,0.5288869358832798,0.15737073660355003,0.29563244649442844,0.30828483506446974,0.5716106305616867,0.12385367606351246,0.23632746233797514,0.0946411230623723,0.34068921046741285,0.38334320216874307,0.19180220597084707,0.07167672251109823
24,126933.0,119880.0,"[0,2,5,14,20,24,42,54]",8,0.16369051055488854,0.2310872626628014,0.3124287233776807,0.2942098372328827,0.25210697641451774,0.22847300816822033,0.24975365462751997,0.5157726913650246,0.1612864556194901,0.09868148400829202,0.24562493443562286,0.22639275379672108,0.1363008950717048,0.2833168325588465,0.21348924004102132,0.053511867419628795
24,9901.875,9271.0,"[2,53]",2,0.18707973853376997,0.23519929061321118,0.37985113285201955,0.3106569050413529,0.2620260938273348,0.263024539322549,0.25285054601505763,0.5036642036945761,0.2361001371037074,0.11779911979225884,0.2534639785381123,0.2262781003981172,0.15250783891041025,0.34004667050736304,0.21840977154169455,0.06582239388243513
24,79344.3125,74025.0,"[6,15,17,18,19,32,36,38,47,49]",10,0.15722924977525485,0.40440903258026545,0.5166773132668971,0.3065822135482901,0.5270167496904028,0.1561770107828246,0.2990046147933427,0.31667164943048176,0.586451186239373,0.12655547557390975,0.23108271924378418,0.09555509528408868,0.3274468098844317,0.3733386603746278,0.1907669073588993,0.08214585765710415
48,106744.09375,99546.0,"[0,2,5,14,20,42,54]",7,0.16118745028937514,0.23162896793844184,0.3051053355609306,0.28674451915412075,0.24857249688149768,0.22788418467176885,0.24864431149879096,0.5412706949452999,0.15782752465196173,0.09289644580597682,0.24342915248244573,0.2239254567058226,0.14204183113820534,0.26472227732349024,0.19934097737591897,0.05531977046650549
48,20436.08984375,19206.0,"[2,24]",2,0.16022577059052404,0.23522802735570722,0.3188717302413174,0.28471327346089875,0.2495650538475986,0.2503995867006562,0.24068352856816247,0.3898881211292037,0.18717236784827615,0.09883065836647364,0.24568413552072513,0.150690312690519,0.1202459398726169,0.20293327315224996,0.21260759442696703,0.050099589909143115
48,19469.92578125,18463.0,[57],1,0.15526788941172587,0.33318828797016353,0.45296799489168627,0.28367054978559436,0.4021825837055191,0.2232949959691297,0.2693718589099432,0.2924834597118276,0.5311538136845011,0.10730536767830798,0.24550971036018837,0.09014687819412479,0.2175646673762412,0.18527628979995642,0.1599494224486148,0.07091743531653659
72,142797.26904296875,134460.0,"[0,1,2,5,14,20,24,42,54]",9,0.16272336770548976,0.2417843950748873,0.3115213370758874,0.30443283650427316,0.2625674749147918,0.22553221215829455,0.2489446210979332,0.49575453628071053,0.16826632252501444,0.09954644421549763,0.24697836349588026,0.1880322957975503,0.14741188162928234,0.2607898852799143,0.20230632983279964,0.0631941780072857
72,18267.116455078125,17042.0,"[1,2]",2,0.17170976061908466,0.25182578027692326,0.3908121384292643,0.3098724851364123,0.27377774588723586,0.24538497386325672,0.24850040214003996,0.4338494001485607,0.23252568335041407,0.10943385131551223,0.25477301857725837,0.1590223848293678,0.1481781687725593,0.2306599622105213,0.19632751837407217,0.07582886339415167
72,59264.69482421875,56058.0,"[38,43,47,49,56,57]",6,0.1588306606265694,0.361563551694119,0.42986045486277463,0.3202616488855855,0.43220847366037557,0.18918711353473253,0.27960446321800697,0.3196853092776009,0.4593121313389705,0.11502977521110153,0.25352097090310594,0.09970926466076638,0.24923893141257314,0.2808087235969878,0.18365312048704735,0.08063400037076962
72,19477.799560546875,18558.0,"[43,47,56]",3,0.1618059107515016,0.32801517519878637,0.40880585694071697,0.31808487769180666,0.38581064658979236,0.2003598685378068,0.2759332902364341,0.3253333690192799,0.39477560379207427,0.11133359203935482,0.2566038073331389,0.10318755411209034,0.20808965913937222,0.23221464407086675,0.17062124257049657,0.07592360229717901
96,90314.05958557129,83500.0,"[0,2,5,14,42,54]",6,0.18412518189721613,0.23678405049640358,0.31815113120547,0.3135802330135731,0.26116494081399194,0.21210080506958745,0.26688728063903217,0.554233312416554,0.1586909460389808,0.10969483287953591,0.25213915737042186,0.26126602298894963,0.15701025639550015,0.3055267203223984,0.20769336192545015,0.05338665899448706
96,15742.453475952148,14454.0,"[2,24]",2,0.179591376281344,0.2422259228726102,0.35925935481415544,0.3078214754636826,0.25806093729953605,0.24973821179137004,0.2524642895927069,0.4262365903455369,0.1957427556376406,0.11142195331811672,0.2560302317072535,0.18149572320475646,0.13768122487135778,0.23404118363936943,0.21756500054284778,0.05274429510199572
96,82703.68441772461,78535.0,"[6,15,18,19,32,36,38,49]",8,0.15862575589664632,0.46511748576153306,0.5134136960347658,0.34265956006749493,0.5703738102220522,0.16016216911867348,0.3416286800635033,0.33643911156278267,0.5469727938200948,0.1276289923950046,0.23963670840532603,0.09760748119594038,0.37964416630514636,0.44854284021752217,0.19474400710874507,0.07429136648698773
96,27720.015167236328,26368.0,"[8,9,25,28,29,35,47]",7,0.2149292700649906,0.4646300988841531,0.5112371359087916,0.34209053276287044,0.5710602623411017,0.4276613599148592,0.19338356128823103,0.37087115510901264,0.5569893776813355,0.14322077483598203,0.2574657700338246,0.09051445682161313,0.38765619687448033,0.45719786702219306,0.1992493799996173,0.08106633989934806
120,62802.71183204651,58744.0,"[5,14,24,54]",4,0.17132359748460138,0.24045553720357057,0.3521998293002542,0.29843050496918183,0.2631338350919735,0.207759217542718,0.2672129143713281,0.4780159324655208,0.14667899161022013,0.10534485424112329,0.254076532497793,0.20504546853131625,0.13714137114353306,0.24307622381332927,0.2018746740752219,0.04984685873685789
120,91597.5947599411,87823.0,"[6,18,19,32,38]",5,0.14668342005521923,0.4800058649536905,0.539595070445161,0.35243231115853424,0.5951325844002836,0.11571109039331376,0.3574368756461463,0.3361394695172942,0.559719543000127,0.10822975833300595,0.23581910941997378,0.09505513955864237,0.3997185273331293,0.48018253028869673,0.18620690801178613,0.07011221735004848
120,68137.83608055115,65515.0,"[8,9,25,28,29,47,49]",7,0.19632240751551172,0.4919719675592723,0.5305260464535673,0.353077899989033,0.59541858347441,0.409465428424244,0.2390197965693037,0.3776113299891498,0.5644130790390589,0.12858921350580643,0.25659753401936053,0.08921419200340781,0.4081308783919364,0.49174499713846215,0.18921650369353235,0.0739491861961814
120,13969.016425132751,13503.0,"[19,25,28,47]",4,0.18113448842016638,0.45715766435892513,0.5319563766489682,0.35078274880338395,0.56809238236172,0.2734822550278939,0.2881648543465718,0.3651427169304031,0.549795711827245,0.12090755997910488,0.25171707858424114,0.09491873096499374,0.3809728573758137,0.4511197144299443,0.1878094640183183,0.07410971390817807
144,55731.16948950291,51806.0,"[5,14,24,54]",4,0.1811980262909589,0.2348569344162272,0.3511260636814148,0.32958514611362993,0.26116169461110916,0.20291888447773523,0.2757085580497771,0.5119400333619395,0.1483589163221888,0.10766416618116643,0.25207724196209597,0.23870286594908494,0.15088723790618574,0.2731841916010087,0.20444184188277753,0.050141012372305435
144,87640.21335417032,81439.0,"[6,15,18,19,32,38]",6,0.15115025540830623,0.476571783868829,0.5270848260121911,0.37183037971167837,0.5853336025329978,0.13330595729121528,0.3615127136108427,0.3333693394606218,0.5363725429065951,0.12100241344589689,0.22884703246506474,0.10278718170838949,0.392032458197113,0.46637471551615056,0.18435444332389364,0.06693415230420377
144,53938.61475503445,49680.0,"[8,9,25,28,29,47,49]",7,0.1983438188877465,0.48552547839132476,0.5223487610040669,0.37196001722510563,0.5912719139152025,0.4127444584012467,0.2503018377031243,0.37959452945162364,0.5420517893646134,0.1377036911271531,0.24761721623297395,0.09625250293973747,0.40096723164633136,0.4774232898725611,0.1882449293546887,0.0714863376147795
144,32360.87937861681,30462.0,"[9,18,19,25,28,47]",6,0.16995579039295103,0.4730896948241979,0.5218597369754768,0.3677541311473312,0.569327310775432,0.2867316178161256,0.32132157454337296,0.32000100112655677,0.5270049598523852,0.12933508962925144,0.2428031125355662,0.10044965554947498,0.3888772721076521,0.4498720638758827,0.18595714794445725,0.06813487749312924
168,69615.81265639886,64194.0,"[6,17,18,19,32,38]",6,0.15656377692181328,0.43746550589011773,0.5260394725598584,0.3852834255061181,0.5688408184920173,0.13617691342374483,0.3561274812354905,0.3225502502733736,0.5115367904232172,0.13567392471509138,0.2350131637675458,0.10005204047548515,0.361418009417656,0.4106097575230438,0.19393738374080838,0.08111717425895482
168,27982.071697395295,27626.0,"[56,57]",2,0.15983139448027972,0.3010286905891527,0.4213327901422081,0.374896403022969,0.394398304818398,0.20340034642011273,0.29311148042315766,0.31589266032430613,0.4778284558334671,0.13690239956760822,0.25706862245319545,0.10071724834876655,0.2171573595572019,0.2315697048165535,0.1597050310755157,0.08473323614584327
