time_in_hour,cumulative_size,size,pcore_ids,pcore_power,AF700 CD48_[R 730_B-A],APCCy7 Ly6G_[R 780_A-A],BV421 CD117_[V 440_F-A],BV510 SCA-1_[V 525_E-A],BV605 CD11b_[V 610_D-A],BV650 CD150_[V 660_C-A],BV711 CD11c_[V 715_B-A],BV785 B220_[V 780_A-A],FITC Ly6C_[B 525_B-A],PE CD115_[YG 582_D-A],PECF594 CD135_[YG 610_C-A],PECy5 CD3-CD19-NK11_[YG 670_B-A],PECy7 CD16-32_[YG 780_A-A],PerCPCy5-5 CD45_[B 695_A-A],_FSC-A,_SSC-A
-1,0,0,[],0,0.0,0.0,0.0,0.0,0.0,0.0,0.0,0.0,0.0,0.0,0.0,0.0,0.0,0.0,0.0,0.0
0,116159,116159,"[2,3,6,24,25,33,40,47,50,52]",10,0.16702913605933453,0.2354092263500106,0.327837188316687,0.2851919169671117,0.26240917109764555,0.2164197063272516,0.25547851214992257,0.48087387101145546,0.1669161393169662,0.10534904796454957,0.24912375843194687,0.2061150338306474,0.14369153835920365,0.26088564831975564,0.19789892114957197,0.0507590451871557
24,251470.0,130676.0,"[1,2,3,6,24,25,33,40,50,52]",10,0.1699787784841895,0.23572735235061895,0.3485653885901107,0.285180904475872,0.2574364884564033,0.23035841284340858,0.2530826959333812,0.4639779890150076,0.17004477753779132,0.10381063070246846,0.24883858324976277,0.19089979238386728,0.1365242755851582,0.23351753758612653,0.20317519952460536,0.055237727948346436
24,20241.0,11207.0,[47],1,0.13187427181928177,0.22407173981880338,0.25767151949564526,0.33175840469244056,0.27629503535747263,0.1280549868424247,0.2769333964821272,0.6392934189207123,0.1626233512784637,0.09734940124147447,0.24333975574609384,0.34132382337022804,0.15886989110646182,0.47519525054672174,0.21650438799655616,0.04631728977785645
24,31277.0,17067.0,"[3,21,43]",3,0.16281438482102875,0.23657814268155858,0.29096306054300464,0.3269435776572886,0.26311315376861755,0.2646079569031481,0.24098633958455085,0.4634228410478872,0.2365324230385056,0.1093376414934522,0.2538538938463659,0.22281842546585118,0.14355860881410976,0.3182197623432922,0.18297088681611445,0.050617474313910185
24,231196.0,108957.0,"[10,11,13,18,19,20,29,31,35,42,44,45,49]",13,0.16021503785834126,0.41018049894349073,0.5004401397551508,0.2996105546220401,0.5139320889876664,0.2128444304661742,0.275518941529733,0.310107754219752,0.5604637175465754,0.12468187253082778,0.23831547181661672,0.09141164334017315,0.32345127858644585,0.35417788746192563,0.1829808365312228,0.07246378833115844
24,12634.0,6754.0,[21],1,0.1509872005268141,0.2181635510044873,0.2001649487529993,0.36033526140321753,0.2366869797773727,0.327104871883731,0.20477126500470988,0.6722342679498665,0.16181950054703584,0.10568769967948907,0.2531865847066224,0.38409265272556287,0.16101914266553027,0.5229972280814149,0.2237052344747314,0.04617954714246426
24,77968.0,33223.0,"[11,13,18,19,20,41,46]",7,0.17942017149676698,0.4157003954836196,0.5211086323409899,0.3048109197965261,0.5318340387400678,0.3204448041671867,0.2370808878651167,0.3176316070694487,0.5858723189561054,0.13309235220156737,0.24605017950347183,0.08950753844482628,0.3451571413482524,0.38280479290973,0.19754663874101655,0.08044316885753411
24,70343.0,40137.0,"[31,35,42,44,45]",5,0.17108904410572456,0.327106753386763,0.5038211923180405,0.3035007621521798,0.46877962619826674,0.1996063806224898,0.2867232506737362,0.3109622037899208,0.551888191439634,0.11667540481048351,0.24405034202199474,0.09404681783903668,0.27614874306747805,0.2664440882635794,0.17642979082877275,0.0812577103148147
24,21761.0,12251.0,"[24,33]",2,0.19304601476184907,0.25298265346663523,0.5461300522640646,0.3277852684806506,0.2806952636562249,0.2516288412523608,0.26519110329831935,0.32846905275806143,0.2520042403195575,0.13524437083130483,0.27357656902228716,0.12363499470373056,0.14586877209389645,0.2036038570379375,0.18462470669117384,0.09514601620734454
48,393451.0,135193.0,"[1,2,3,6,7,14,24,25,33,40,50,52]",12,0.16974415190417028,0.23674038726295724,0.3493542225205035,0.289135479972057,0.2564954889371791,0.23313027937736303,0.25481444840168505,0.46194852967438377,0.1848805943625272,0.10267820399634592,0.24946367310829917,0.18210519993482846,0.13569256375843927,0.22842329279142254,0.19779932543009915,0.058127688316063075
48,28295.0,8054.0,[47],1,0.12951218354203373,0.22490382109155047,0.2572295157678663,0.33523935914375996,0.27585910862092067,0.1277864679287253,0.281464311173213,0.6417412018383399,0.16344601777462514,0.096323214229378,0.2428834715491729,0.33854174050621405,0.1572074760727168,0.46649623347504665,0.2138260151019888,0.04714266133251806
48,97183.0,42309.0,"[30,44,45]",3,0.18454178173948002,0.32014063101290685,0.4430410267732808,0.29157553242307094,0.3987382658711451,0.24876573492568954,0.25984823138700286,0.3046840632827607,0.5423687046324568,0.15347569067284234,0.25208222860358925,0.09196859268313723,0.24148082372038882,0.21968418469629722,0.16113541702358816,0.07263544442539709
48,22615.0,5913.0,"[21,26]",2,0.17586129976444048,0.22511554156967897,0.2458083738338935,0.35410947231314344,0.2446029423411892,0.2847054970440267,0.2185911367713875,0.5816900901390093,0.2932426121249707,0.10691707526965408,0.2524489690367008,0.3447239537411549,0.15260288057803995,0.5269065210359539,0.22717303378885806,0.0530434386933039
48,300278.0,82691.0,"[8,9,10,11,13,18,19,20,28,29,31,35,42,49]",14,0.1602200947636764,0.4253076007136934,0.5089376529043287,0.2989104737247716,0.5316844216450078,0.213131091135225,0.2754673818096485,0.31131194539327534,0.5692870561054133,0.1196721250003562,0.23689578758720134,0.08968463699216238,0.3429645712377255,0.37114630693970074,0.18410870227818632,0.07318114891384091
48,17024.0,4050.0,[9],1,0.19804857439181042,0.4205558477733275,0.5125488441810121,0.29453948579526024,0.5044098397418881,0.41053857727458837,0.1831018646341422,0.3363333604530799,0.5671913488318424,0.1292321363398848,0.25428089312036656,0.08779864792825705,0.3313103565989781,0.33594823856210576,0.18221510466282234,0.07658556679003475
48,14938.0,5005.0,"[7,39]",2,0.29869911355460815,0.24899382085029026,0.725536561749671,0.369992302758289,0.28010991467492996,0.30672531343918974,0.2579673489758504,0.3444339907642795,0.2713926114953589,0.18600731032687612,0.30563083146936226,0.10913397706013,0.18563754959417758,0.28844108957239023,0.1977100394967717,0.13907149048649958
48,24843.0,7321.0,"[14,21]",2,0.17378404337920886,0.22717131354747216,0.245355649138727,0.39618234198088853,0.241376455390146,0.31498496469997983,0.2684939544607787,0.6363724446753103,0.31446836861581084,0.10919073523212386,0.2627613185788778,0.2941118756918946,0.15282223470778672,0.472116042411265,0.1950752862715869,0.056038874557861634
48,109522.0,31554.0,"[11,13,18,19,20,41,46]",7,0.1790013734952147,0.4190748212876114,0.5210467683680016,0.3028517899993482,0.5372428527148257,0.3238407007291788,0.23519501752815059,0.31649161400730674,0.5859993193049206,0.1253214154384765,0.24540934643033194,0.08738616087222106,0.3531946873353425,0.3792575173513547,0.19652829213086725,0.0807242254334917
48,20611.0,7172.0,"[28,31]",2,0.18737010412847452,0.3018503499076901,0.5481350922016354,0.31947468605612833,0.49825459408483597,0.1420059951884123,0.33002193554524933,0.3138227703690879,0.5658300037413587,0.12386307689836465,0.24846922988913558,0.09973769132045668,0.3081719902755478,0.29218025080424265,0.1720903928644992,0.09255551611343109
48,12871.0,4243.0,[40],1,0.1748824861981635,0.23090376236087323,0.39564056572893824,0.3220550052289128,0.24455854757315731,0.3156819217033627,0.20589510497163238,0.6209198467811791,0.19609873371441391,0.11675844643123631,0.252257259925331,0.32621083127233885,0.16047215157985656,0.44099959363610997,0.22645510308655184,0.06066114944306741
48,20072.0,7417.0,"[35,42]",2,0.18706628304437325,0.3091138956178831,0.6364577659998558,0.3297206579562942,0.5962043296373996,0.08325871834104101,0.34343787563119377,0.32551040967139094,0.6954608776703222,0.10215437144039347,0.22539329447359563,0.09343770769981385,0.37810447195078317,0.37849209321656996,0.22829623723323464,0.12177799880370578
48,5538.0,2188.0,[33],1,0.1873001122972086,0.2349486404759576,0.38246928166180133,0.32477514161752546,0.2920290178722409,0.1516955091661201,0.3102170082866535,0.2946656279048649,0.1988117985608821,0.11642026406874814,0.24880581049270103,0.18394949872264638,0.12983834636090585,0.40823476462375385,0.22903456152381357,0.0632936584363722
72,538710.0,139829.0,"[1,2,3,6,24,25,30,33,40,50,52]",11,0.17253457698786634,0.239678945289713,0.34631018051378126,0.2905854768048638,0.2620946366354163,0.23191844350245877,0.2522195357523441,0.45704953996031356,0.19815352580638834,0.11170103801164115,0.24925301719554824,0.17717479324078014,0.1447816683639207,0.22982111916424844,0.19712636328649147,0.06108920067372459
72,37871.0,9576.0,[47],1,0.13293429922441694,0.22745351970581532,0.25379670609442917,0.34294553519252663,0.27673239085726475,0.13320257557864995,0.2780373734354763,0.6354644565745644,0.16474570827060853,0.09786733337884548,0.24337973187836012,0.32551314892396116,0.15968395373112096,0.4652312345936734,0.2146138829730864,0.05000617691343839
72,140895.0,56188.0,"[28,44,45]",3,0.16606768226214214,0.33913896531596344,0.44327552301075945,0.30348537015561444,0.4146016252474895,0.2417354101827434,0.26529289340633727,0.30951661578321465,0.47745665525559555,0.11462605025131523,0.25347380282432697,0.09449052037460466,0.23476795861989402,0.2306443497514739,0.1689001338850733,0.07458160696454699
72,21067.0,3951.0,[21],1,0.1565470626301695,0.22157859066200192,0.20003464115629468,0.37021587534168676,0.23689316497218627,0.3313773330087109,0.2049101122571918,0.6678710989090901,0.16643789066271597,0.10611704381737112,0.25306767869825636,0.3674756313109335,0.16235027234588287,0.5118949396037851,0.22135022525529469,0.04970221744540636
72,434761.0,100434.0,"[8,9,10,11,13,15,18,19,20,29,31,35,38,41,42,46,49]",17,0.17216029910956218,0.40583433539533204,0.5111605843717497,0.3113906200386613,0.5201505310028822,0.23153798318794946,0.2653906663473629,0.3176715691869688,0.5717741159770191,0.12546777354702907,0.24409001681782289,0.0927818678275507,0.3340483488155242,0.37052810514175727,0.19391037854348503,0.08468244549771142
72,21028.0,4004.0,[9],1,0.19990364467134072,0.4116150077269559,0.5072798055000848,0.30445902611610764,0.5010216083249409,0.407321052015574,0.18736357565393547,0.33730203603021186,0.5615262585028697,0.13430559661851485,0.2594019738993856,0.0898670102609624,0.3274320940401928,0.3406567133122643,0.1881706011059277,0.08518596327056706
72,13327.0,1649.0,[39],1,0.3117161173811194,0.2437257300869406,0.7558437507334136,0.3649216714269765,0.28023724721723436,0.290055800748344,0.2708367031469614,0.33565766358641447,0.25394434152464934,0.18347120115233143,0.3016131544876668,0.10341822964131822,0.18474818994056863,0.2900050620353,0.16382211131657054,0.13464028112401924
72,21067.0,3951.0,[21],1,0.1565470626301695,0.22157859066200192,0.20003464115629468,0.37021587534168676,0.23689316497218627,0.3313773330087109,0.2049101122571918,0.6678710989090901,0.16643789066271597,0.10611704381737112,0.25306767869825636,0.3674756313109335,0.16235027234588287,0.5118949396037851,0.22135022525529469,0.04970221744540636
72,87412.0,15179.0,"[13,18,19,20]",4,0.16138824920176767,0.4409200152914454,0.4966726135017767,0.30382457419768155,0.5212721156677682,0.27410817590793923,0.2599307924342802,0.3082023646103033,0.5587193162727015,0.12815520754835144,0.24515632088326736,0.0905508659215956,0.3436202226271403,0.3828116320557157,0.18950938036192178,0.0754733121280784
72,61078.0,13846.0,"[34,37,53]",3,0.26938051342398944,0.28162684270348326,0.5811197111777705,0.4692238118328416,0.4571403956220311,0.40932115368006944,0.19936226526421108,0.350491809108849,0.6199080708088757,0.43685324024640704,0.3752075139287504,0.14379486880654263,0.3681859606706727,0.5234645760399542,0.4104368837665366,0.3809712243469172
72,43057.0,7509.0,"[28,15,31,38]",4,0.22447079706802525,0.28279533306787213,0.571509820584642,0.3396837521227623,0.4214975928191078,0.20436889313314302,0.2928454672790487,0.31738210213749457,0.5907261969513954,0.1497629419629822,0.25976715352706087,0.1145245392703631,0.27640515578917213,0.3172099130932665,0.1815714153910482,0.1127105747922114
72,7021.0,1483.0,[33],1,0.18890283009130282,0.24121382444121975,0.38552990516952934,0.3281962458890587,0.302849872956608,0.15231810769359933,0.3122074236098382,0.29713736796140316,0.20495182618942365,0.12325331117284238,0.2496119871768309,0.1768089170096249,0.14182220595346476,0.4046885305962765,0.22504086615356858,0.06463640768088451
72,15944.0,3073.0,[40],1,0.17555098363200966,0.2331119029842806,0.39003596017330355,0.32738558107158594,0.24777355576778362,0.31149378546540823,0.20870311716644266,0.614190815935696,0.19909021707187838,0.11739036319061573,0.2529328768971898,0.313951076192347,0.16322130983569647,0.43933221719967813,0.22669548228892628,0.06310549303634308
72,24855.0,4783.0,"[35,42]",2,0.19215982129188322,0.30941960265546714,0.6292762695088069,0.3394563086640108,0.5863479581896291,0.09101979500903158,0.33737694617176783,0.3281179274349617,0.6858437946375349,0.11053529078127453,0.231852558358513,0.09514378112025478,0.3719883141730885,0.3794911217278504,0.2287799316434534,0.12410668910225156
72,8693.0,2099.0,[50],1,0.2055267354208016,0.26815501951463905,0.3763742179158967,0.3695525331458965,0.2827825612775073,0.2978545710881996,0.27728308707170524,0.44963525929715387,0.4172170751683014,0.12845031786185396,0.2850218433112317,0.11821529426591723,0.15305199318647772,0.2777411621232976,0.14650877444706864,0.08056905904122466
96,637135.0,98425.0,"[1,2,3,6,24,25,30,33,40,50,52]",11,0.1751338767450132,0.2398492544767761,0.34703722523177627,0.29424435211934546,0.26210562296188916,0.23152235296391932,0.25425000376375545,0.46375790387397653,0.1955098283562773,0.11279508767164509,0.2504842677981761,0.18475605326047329,0.14620996693017513,0.23510468849954716,0.1982704893008865,0.06052548652763982
96,47593.0,9722.0,[47],1,0.13914995385882742,0.22839376357984256,0.25457549637024335,0.3496893458720969,0.27821741814415574,0.13020500570834254,0.2818269786657078,0.6372704507430784,0.16368486698322857,0.10104020455923092,0.2449016483731869,0.33148361591952746,0.1628395975554464,0.46871281571986717,0.21507076763559727,0.049673511170249464
96,151324.0,15015.0,"[44,45]",2,0.16328287185837223,0.3431885497993003,0.4415797567520247,0.3026910278631149,0.41780170858432514,0.24094936545404527,0.2643387980459106,0.3109372742987005,0.4811268846029166,0.11301547065183032,0.25219642388475333,0.09403176619217937,0.2343013465289499,0.22665577000345338,0.16991418769261857,0.07334947565542152
96,26721.0,5654.0,[21],1,0.16029085137625426,0.22276956002137266,0.20081342791885148,0.3878558445099283,0.23838905529843388,0.33407728003485065,0.20987573993376846,0.6718540527822402,0.1665246464503229,0.11077649033813032,0.25492215338552965,0.3765683754988456,0.16348981123764963,0.5202147761337405,0.22224555629811657,0.04914869216365187
96,511728.0,103963.0,"[8,9,10,11,13,18,19,20,28,29,31,35,38,41,42,49]",16,0.1672637112511777,0.4244139844240128,0.5037622311616025,0.31642299379567085,0.5309655145325525,0.2202689079233307,0.27946041074921996,0.32070537230505064,0.5590500061158941,0.12499999569628326,0.2432789506868304,0.09347576404714343,0.3440600745099132,0.3893943743038691,0.1929080097184986,0.07909054423253871
96,49144.0,9595.0,"[15,27,46]",3,0.2827519985795176,0.2906429479787175,0.6036097439415353,0.351089489775862,0.47967747934155097,0.3827354589661724,0.20633495448227002,0.35879299953387445,0.6984135043948246,0.193641916710501,0.26884763563199865,0.09392573422663171,0.3470628688653176,0.36712074772512654,0.2041247515942587,0.12894951351820144
96,19422.0,2152.0,[18],1,0.17524061019202836,0.3852340962277877,0.5032530897294903,0.305311560131996,0.4795654672489104,0.33398058500046085,0.24857732515104686,0.3008688887558392,0.5545241988319823,0.1265495030940816,0.25572595823887345,0.09191137529202364,0.3026425555728176,0.30279318219842566,0.18329607840131243,0.0818191683571072
96,16040.0,2713.0,[39],1,0.3156082221795338,0.2446124557722163,0.7588441223400972,0.3711058435239824,0.28218949082361583,0.2909542073867308,0.2767502531735414,0.3404590882094128,0.2538958632205445,0.18613523280681007,0.30370522529276567,0.10676002621933914,0.18989591644680773,0.29957482120625545,0.16310206947283798,0.13416419829245116
96,66943.0,11452.0,"[32,36,51]",3,0.37887389439691826,0.2556434789853004,0.5045038402543067,0.3584141561413535,0.4221335217267971,0.27915211006952567,0.2473013347119687,0.3451885129183762,0.8050047335235849,0.4728273550470776,0.2770319114618856,0.10359707148018674,0.40482952578953607,0.443896126193181,0.22420324478076972,0.12800831514813235
96,16350.0,2928.0,[15],1,0.30044715875125655,0.2617843672841693,0.708259250666824,0.3674702035402693,0.3499989041103071,0.30946492951419347,0.24851333159203173,0.336943292789335,0.6733563039141213,0.2107884296824721,0.28288613297566334,0.10304854285680576,0.29162376874475504,0.30580179146228714,0.1711511849623021,0.16114068656501546
96,71592.0,10514.0,"[34,37,53]",3,0.27376653565971537,0.28266916126160374,0.5820983362433823,0.4731553614674988,0.4604843670359332,0.40969085668126776,0.20509333677207345,0.3530972816455803,0.622663880317691,0.43820592530288377,0.37925218753400186,0.146595096326038,0.37427611677594586,0.5325721140319977,0.41335259691558923,0.38173133680854343
96,17811.0,2988.0,[32],1,0.38741494279224475,0.25121298791093594,0.628601009342448,0.3669461055473103,0.2782021870587899,0.3170310462393139,0.24108812428443832,0.3249489336888625,0.7673783222500881,0.5018740787096799,0.2893110894580984,0.10456805434687695,0.39874017821273877,0.3167251903175782,0.2187920334133419,0.17189576403232631
96,12088.0,2232.0,"[28,38]",2,0.2414773798160197,0.25702322208598083,0.4234543695727332,0.3773425884972799,0.3073912456537356,0.23001357924899582,0.3161901916526402,0.30621619510968645,0.4125346325635483,0.15555256777870022,0.28382671279545435,0.17517915388541536,0.19714847542498826,0.43953127419357696,0.19699422147207338,0.07783339055572104
96,8060.0,1039.0,[33],1,0.19224729676724683,0.24118677793267126,0.3880760958459369,0.33174771886405807,0.302905886860122,0.15114021178454584,0.3143196924052008,0.2981170853002786,0.20525536118549462,0.1250172646133435,0.251800604726161,0.17693348846233037,0.14386696269608112,0.40833234229668636,0.22568816080670231,0.064653338568647
96,31680.0,6644.0,"[27,41,42]",3,0.27395915667258014,0.289597966711374,0.591119332114026,0.36313736940905617,0.505055266324523,0.3012780001015093,0.25717834480697394,0.35441699171091134,0.737639561005694,0.20515600675177564,0.2708165070002767,0.10037949892425455,0.3749618995672463,0.3958093323180924,0.2539544670435988,0.13561474629874104
96,20612.0,4668.0,[40],1,0.18335376125147526,0.23438789453612482,0.39198967128634743,0.3304047064621129,0.2487893441122758,0.3105550400922632,0.21074634091680303,0.6144083506024521,0.19808262627957002,0.12033822649517838,0.255010884391663,0.31900593579284375,0.1666046097379618,0.4411995172452489,0.22752570887267695,0.06286432122470477
96,9449.0,756.0,[50],1,0.2064439788807682,0.2681148933119535,0.3761803071212975,0.37274317839842336,0.2820315212891239,0.2985071215093519,0.2768381058568467,0.4507012889423797,0.41754343665515276,0.12964100494714942,0.28602702447293554,0.11958843486670445,0.1529392210254464,0.2786710415681318,0.1470029099647876,0.08030378195083904
120,729500.0,92365.0,"[1,2,3,6,24,25,30,33,40,50,52]",11,0.17549294302599955,0.24075717038399427,0.350313698595851,0.2966489446811564,0.26274931543189833,0.23153112760693148,0.25572141313324775,0.4640145899885849,0.19462404134893174,0.1132102939431509,0.25182825586183777,0.18618093392802204,0.146038226688415,0.236803959892103,0.1978598118463199,0.060192832428903185
120,57182.0,9589.0,[47],1,0.14000268765733428,0.22858231199981094,0.2580633752111202,0.35581958258142987,0.28022140169351384,0.12735454318843248,0.28500687376262146,0.6386757222693604,0.16280315236456874,0.10276985870290235,0.24597593944136212,0.33665500481889093,0.16381937331653282,0.4728791351333749,0.21473579896357148,0.04907411395152256
120,167369.0,16045.0,"[44,45]",2,0.16405389088727715,0.3446362645978206,0.4428265650851049,0.30483925550792457,0.41834481224802106,0.2403420867753695,0.26663374447323696,0.31147501347319134,0.47928249921184585,0.11416823662326463,0.25350845711140585,0.09428367255995121,0.23446131107783072,0.2274734302961362,0.1693337500060868,0.07256249256269982
120,742980.0,174219.0,"[5,8,9,10,11,13,15,18,19,20,27,29,31,35,41,42,46,49]",18,0.17642281785580954,0.4256369314170009,0.5234100874481769,0.32712918015479414,0.5465039767281245,0.2396012532744593,0.2805471540342049,0.3309695078171017,0.5769537554252883,0.127793514396783,0.24501976796685865,0.09127377336176902,0.36050883586526583,0.40535210660549487,0.19151472401398045,0.081619940274082
120,33252.0,6531.0,[21],1,0.16037427986420666,0.22274149507716653,0.20483613201459894,0.40300161443498067,0.24085526098395912,0.3360690373125295,0.2146597059065774,0.6742753604589462,0.16694912667490158,0.11440731817948661,0.25616215151748584,0.38408786829993957,0.16487915675889123,0.5271217339777594,0.22126751680532525,0.04853643089438616
120,15257.0,3169.0,"[28,38]",2,0.24475802239086253,0.2575183497749726,0.42901699753256956,0.38383234461399074,0.30843790495793116,0.22912576257739353,0.3210122295152216,0.3084650146579153,0.41098346308591527,0.15856828216347169,0.28702521062919684,0.17548406985337123,0.2002326278188436,0.44578620033288363,0.1917781870871164,0.07681337500778253
120,24766.0,2083.0,[9],1,0.20103164807537455,0.4120891381026822,0.5074133378874376,0.30739933524800056,0.5045665818417919,0.4092797636896798,0.18897834644536252,0.34016528702876414,0.5583288708421985,0.13352030319815963,0.2601380880203103,0.08989705351292507,0.328121019429114,0.34191538345945593,0.18684938151679262,0.0837241184396319
120,20080.0,658.0,[18],1,0.17516211728769368,0.38503198004248906,0.5035035493614732,0.3058435819534018,0.48022345350525225,0.3341639706496994,0.24907373929668558,0.3006165233003776,0.5538088376631748,0.12631380651956745,0.2557222308775292,0.09176352795838685,0.3025259463032339,0.30263083538245067,0.18275916296002565,0.08137059922553103
120,19134.0,3094.0,[39],1,0.32068114906662987,0.2451761491132865,0.7611781571245336,0.3753089983320574,0.2846876932237055,0.29104186499135104,0.28139222987060614,0.34277199222492033,0.2524607112904177,0.1845779759885349,0.30615872347741035,0.10832324572559926,0.1940960701844175,0.3095083633200385,0.15961055482254058,0.13256025200129015
120,19988.0,3638.0,[15],1,0.30574285278152674,0.2615191630558098,0.7116317433157805,0.3754467780369906,0.3480333253611553,0.3099910739441967,0.25050414070723037,0.3397777935357721,0.6734885955955839,0.21266247242943248,0.2860188445704089,0.10401339820937035,0.2973913250665188,0.31374316738424624,0.1686087477271508,0.15764770579924334
120,84145.0,12553.0,"[34,37,53]",3,0.2805681836742292,0.28557690434144245,0.5847160645912329,0.47700626678803365,0.46597489762635325,0.4091162654286759,0.20895416268955902,0.35419781458569244,0.6240755324504089,0.4382206872643617,0.38252974254324734,0.1487313245227912,0.379544549171039,0.5428555621395204,0.4125906138859564,0.3787636175280226
120,60858.0,11726.0,"[36,51]",2,0.3795129599720343,0.2586121489333617,0.45987515911589083,0.37758156123217373,0.47659827377344444,0.265004295216717,0.2532837246448208,0.36267837169712935,0.8178756707774097,0.46231664912223286,0.2761747408351834,0.10557939198774967,0.40764270545130954,0.5051544430102383,0.2223361735335527,0.11095376345269761
120,15257.0,3169.0,"[28,38]",2,0.24475802239086253,0.2575183497749726,0.42901699753256956,0.38383234461399074,0.30843790495793116,0.22912576257739353,0.3210122295152216,0.3084650146579153,0.41098346308591527,0.15856828216347169,0.28702521062919684,0.17548406985337123,0.2002326278188436,0.44578620033288363,0.1917781870871164,0.07681337500778253
120,9368.0,1308.0,[33],1,0.1939895972308756,0.24090610159475154,0.39025179030121737,0.33415534214757525,0.30389858724572133,0.1488275786303029,0.3152700508853636,0.29732016623957475,0.20355789011270375,0.12591323684003985,0.25417997522840974,0.17523712724459314,0.14357044047841366,0.4111508838120625,0.22387173199848365,0.06434921917462019
120,42312.0,10632.0,"[27,41,42]",3,0.28029906024697065,0.2882693383544169,0.5875200327631929,0.3779058727246811,0.5067253614056051,0.3035412415922953,0.2616939099705055,0.362691908861022,0.737148542851676,0.20759318190645104,0.27288809518898155,0.10101236406372154,0.3796979868917618,0.4092649211072109,0.24588598129841738,0.13080531413493843
120,11130.0,1681.0,[50],1,0.2067510095167709,0.269024298215118,0.3757545150581467,0.37749866961054274,0.2810827882123322,0.30097743224349327,0.2761924278000603,0.45205860290328004,0.41912221373837816,0.1306811519398531,0.2879596054290871,0.12068010970660016,0.15214624443676844,0.27915146868629753,0.14594976175655183,0.07937328274532181
144,809182.0,79682.0,"[1,2,3,6,24,25,30,33,40,50,52]",11,0.176829962386825,0.2406135083782839,0.35194382222954845,0.3029401643366395,0.2628130148539276,0.2319412214596696,0.2576189573885889,0.4680002087956045,0.19400998860682386,0.11375923819601953,0.2524943782435457,0.19111414199555662,0.1473739314706874,0.24121000666994452,0.1978680199123504,0.05985955961359808
144,71756.0,14574.0,[47],1,0.14190707171637384,0.22731111681887775,0.26074009364587436,0.3765157094357299,0.28215449777730395,0.12415074427248006,0.2907060631539536,0.6414486128775332,0.16646235498704715,0.10504423342417783,0.2461382427256978,0.34387405751025635,0.1662296254779362,0.4782406839972062,0.21436337878730394,0.048582036050899224
144,175345.0,7976.0,"[44,45]",2,0.1654329798339033,0.34418905984913434,0.4438609588142577,0.3085352904414208,0.41800592092828787,0.2401238670725763,0.26867875907625666,0.3128565761045315,0.47820167555727544,0.11635710480974872,0.254217935139659,0.09540242771385443,0.23511356347363435,0.229004002067879,0.1690224973171243,0.07252217543287133
144,876384.0,133404.0,"[5,8,9,10,11,13,15,18,19,20,27,29,31,35,41,42,46,49]",18,0.17599545887104195,0.4331503684204154,0.5247594421702093,0.3350840090962327,0.5531525305750749,0.24052659290987238,0.2867695998930163,0.3340503247881929,0.5720717127362263,0.12824567370785833,0.24360423123270672,0.09258461179349668,0.3662092176518,0.41545327234271123,0.19023071314971854,0.07961172346938268
144,46063.0,12811.0,[21],1,0.1612913332431784,0.22102435762733194,0.20654730278822456,0.44156176315235707,0.24365136025048453,0.33546527858964653,0.22253456222249623,0.6781388765788183,0.17950114798187805,0.11832473260422172,0.2565233496906833,0.39432816997507714,0.16917551417016166,0.5349948374770938,0.21883292262526732,0.04785577515264429
144,19446.0,4189.0,"[28,38]",2,0.24668732277437067,0.2578757973134614,0.4353790124941389,0.40004641937268026,0.3088334189342192,0.22863151317514735,0.32805058851836694,0.31323873505117106,0.4099992536791427,0.16313592190211326,0.2883359182709225,0.17902956744118168,0.2036691388110175,0.44973413304239745,0.1878152777600756,0.07605184131231289
144,128637.0,22871.0,"[12,23,36,51]",4,0.3701288124717421,0.256717838188526,0.4509239435853095,0.39431265599413656,0.4555048243948342,0.23674273489272477,0.27337297604108807,0.35292153185538394,0.803611108709031,0.43943030255860627,0.2771017489982597,0.10770281499395486,0.3928180334504372,0.48805386228291,0.21096390457353312,0.10880023907998324
144,49263.0,15314.0,"[14,17,43]",3,0.23388866296100602,0.2437708655689596,0.3231115527701873,0.5500147906337015,0.2742743758538879,0.24136868376406825,0.38470622749279365,0.5449109801188335,0.6142971635605909,0.1265101412356355,0.28412822221963824,0.15612288591674234,0.14679772464210325,0.4714013002472243,0.16187991082821934,0.07032066785601539
144,20924.0,844.0,[18],1,0.17651614789326708,0.3841113220818034,0.5043041120100723,0.3092773599695744,0.4805846921427547,0.3345167707498933,0.25108649710069497,0.301545743156355,0.5525141132967145,0.12806147456110656,0.2563063516725286,0.09274577689018998,0.3033785872553599,0.30415263666519904,0.18281605516832894,0.08197698478514891
144,24237.0,3521.0,[32],1,0.39283359523371253,0.24987700401765287,0.622419813551945,0.3878067345399284,0.27272768153798727,0.3167320300625136,0.2430335033017296,0.3284897140789957,0.7586811264749662,0.5122052386758464,0.2943840401881029,0.10723127179318567,0.3977644799225194,0.32666592428143815,0.2114631025736655,0.16668983753717814
144,21411.0,2277.0,[39],1,0.32093168872723166,0.245718887842558,0.7622542119723252,0.38315568246836945,0.2852723502921565,0.29187284708466454,0.2857142222291274,0.3461100992680229,0.25257666075846974,0.18735975800993926,0.306447507124649,0.11047802969661057,0.19545421291601875,0.3125182220679963,0.15913346143726917,0.13143138415062683
144,16371.0,978.0,[27],1,0.34296957664609046,0.2630287603635579,0.44405464959971747,0.3859440298569084,0.4226160570526095,0.3307023977051794,0.23030056049818787,0.38244553777703055,0.8016620635986634,0.30502760136071916,0.28179912618006875,0.1055586888222259,0.37626686989980174,0.4337949736962131,0.20664726994898847,0.10322214737413679
144,21461.0,1473.0,[15],1,0.30638586343530994,0.26146265733993534,0.7105385038307196,0.3799624982791161,0.3481442156943431,0.31065075172953394,0.25190643395871337,0.34186691464868135,0.6705781133169412,0.21339612428227092,0.2872769575724302,0.10539852662850809,0.2966143739667873,0.3158360317029765,0.16858769106924976,0.15642347776825793
144,96797.0,12652.0,"[34,37,53]",3,0.2825795139854982,0.2848854527342579,0.5825797203900355,0.4840841932239393,0.47172585496225244,0.4071556279438999,0.21760376984746327,0.3565595618240968,0.6305209043785784,0.4377692097512957,0.3834739043519705,0.15137050450478381,0.3815773556175296,0.5523721149502338,0.41066153727856675,0.37250839429490684
144,10945.0,1577.0,[33],1,0.19626832948399622,0.24047217971384147,0.39384318466282314,0.3419625095147321,0.3025638983158619,0.14799126256644227,0.3169836501944028,0.2992148972490355,0.20276430573039747,0.12663014727201174,0.25527625066573323,0.1779453822571322,0.14429117688510634,0.4156747128140833,0.22360944019945955,0.06424943491070319
144,19446.0,4189.0,"[28,38]",2,0.24668732277437067,0.2578757973134614,0.4353790124941389,0.40004641937268026,0.3088334189342192,0.22863151317514735,0.32805058851836694,0.31323873505117106,0.4099992536791427,0.16313592190211326,0.2883359182709225,0.17902956744118168,0.2036691388110175,0.44973413304239745,0.1878152777600756,0.07605184131231289
144,29298.0,2379.0,"[41,42]",2,0.24728088123689984,0.30217346284541724,0.6687512725881353,0.38237727328203486,0.5554569166266334,0.2878204327157958,0.2852027182435894,0.35423881502373095,0.6957140554743162,0.1554266072205134,0.26853866125209824,0.10077100347296196,0.3805263621218877,0.4015561304637638,0.26406444201580737,0.1448819587494421
168,1211546.0,154219.0,"[0,5,8,9,10,11,13,15,18,19,20,29,31,35,41,42,44,45,46,49]",20,0.17110577656519546,0.41841775676801346,0.5108456786143095,0.33502426791311596,0.5309245322811188,0.24001351739394036,0.28565385876543764,0.3293967697031646,0.5472017316184699,0.12489317221190578,0.24492930409820104,0.09254264903968883,0.34090134311002424,0.37821524990552213,0.1853445896872902,0.07858228728727633
168,891817.0,82635.0,"[1,2,3,6,24,25,30,33,40,50,52]",11,0.17631533525807813,0.2411253393405389,0.3538696144428371,0.30977716262711175,0.2647136627144988,0.23343472236476942,0.258894927381327,0.46627066144527995,0.19948989608832812,0.11483104904109916,0.25307648217036305,0.1895160742022371,0.1489375142665595,0.24216878626605362,0.19679353600996372,0.060638598557298105
168,83951.0,12195.0,[47],1,0.13885636756768688,0.22705639799813185,0.2630768196936112,0.39152191258632374,0.2837994360324501,0.12316781622150182,0.2969306625705288,0.6442435987172805,0.1706616724568136,0.10705907514566466,0.24639183839833217,0.3443744539028154,0.16726888816296182,0.4781228119306132,0.21515347429769022,0.04940779145275694
168,15800.0,5717.0,[38],1,0.20490161321043748,0.2452864589724673,0.3523540429991562,0.4078879178034823,0.267626635484903,0.21945581146269064,0.25507710649852766,0.29096851453685896,0.5095060821527639,0.12430116820959723,0.2594850894711033,0.2030594327031946,0.1242884274845296,0.459192387156672,0.2351367418486553,0.06960670436033779
168,22314.0,5943.0,[27],1,0.3296826545723437,0.26010623375078196,0.4486549409843656,0.41454736217013516,0.4255110676973065,0.33601449791257915,0.23354205436521644,0.3765264067257879,0.7827037181109765,0.30471534473823536,0.2843133137790909,0.10623895021360646,0.368960836236226,0.43038069309346644,0.20144281660407504,0.10826260004867944
168,12700.0,3337.0,[28],1,0.27385957645494885,0.2707701547330257,0.5335121131443032,0.4565011115108804,0.35896342555329364,0.23654239475403008,0.41901295266442146,0.3456692729477154,0.3192320355749957,0.21155074997228004,0.32276941967572004,0.15543869787483672,0.28873581341726606,0.4209696965348171,0.14087895583609228,0.09214159822410754
168,150467.0,21830.0,"[12,23,36,51]",4,0.3669425023048025,0.255935666773285,0.4576185849755444,0.411364707174763,0.4622096906543891,0.23463630183796513,0.2809166736639222,0.3508486555143409,0.7961238739421372,0.4386203999149073,0.2779538139770356,0.10914704068799999,0.39305351621106027,0.4936269837201159,0.2098455497212959,0.11133467166263446
168,55644.0,15794.0,"[14,17]",2,0.2136537168430096,0.24255835983272378,0.308235811325416,0.5541209990734735,0.2804459271300689,0.23627388134446456,0.4136195139324291,0.5985755521106828,0.5979046678036444,0.12546621402116112,0.2893986738463019,0.14109334834028253,0.15433350449764816,0.44061382411861544,0.15072706552250073,0.07158632600615361
168,30564.0,6327.0,[32],1,0.39126157139508866,0.24926838271028384,0.615888185554106,0.4083457653779209,0.2752804357055827,0.31951508890267033,0.24399086435761827,0.3251051467266149,0.7466481633541274,0.5143001164844085,0.29818609123390055,0.10821701607030021,0.3944027637365826,0.33153611984268805,0.2092573943110447,0.1717444066243319
168,23160.0,2236.0,[18],1,0.17560865272944662,0.3834437983378127,0.5040167855366126,0.3142784603622125,0.48279027904944255,0.33577866102796927,0.2534659690651172,0.29952400632928183,0.5510291743208774,0.1288398267275799,0.25604221085140255,0.09222831136843573,0.30290234114303966,0.30362493845056615,0.18221253961664446,0.08193860306867859
168,56938.0,10875.0,[21],1,0.15878354630873953,0.22088935435448337,0.2079998160442011,0.45917006815439015,0.2451588380445145,0.3377665280350117,0.2299978125000364,0.6811908700803886,0.19031771951748883,0.12188114773225953,0.2571427886722615,0.3928932271801301,0.1715113215526118,0.5333998265821484,0.21898964260397202,0.04879512267804498
168,24287.0,2876.0,[39],1,0.3195858770348373,0.2465121468740361,0.7627741949111461,0.3979688118419633,0.2880984242108099,0.2927059586324276,0.29011760341419596,0.3475953786697061,0.2573936667385932,0.19166140691929762,0.30986860808083483,0.11088600672808117,0.19722490273542004,0.31431274895825173,0.15893807040789937,0.1337477868303255
168,22314.0,5943.0,[27],1,0.3296826545723437,0.26010623375078196,0.4486549409843656,0.41454736217013516,0.4255110676973065,0.33601449791257915,0.23354205436521644,0.3765264067257879,0.7827037181109765,0.30471534473823536,0.2843133137790909,0.10623895021360646,0.368960836236226,0.43038069309346644,0.20144281660407504,0.10826260004867944
168,117225.0,20428.0,"[34,37,53]",3,0.2841778565348813,0.2838779910905222,0.5807905140375899,0.4971450469625168,0.47507730532943276,0.4045956045425218,0.23079156940644888,0.3589529818447022,0.6375750665104281,0.437364237890693,0.38323352715168646,0.1526372017574009,0.3782963565000503,0.5533609452277778,0.4093778530561582,0.3655032666295268
168,13280.0,2335.0,[33],1,0.19214983598970764,0.24065749513507123,0.39409054060051213,0.35527985792372135,0.30192405809769646,0.14587555574097147,0.31680929755551374,0.29873628706653144,0.2042002384426855,0.12596393239690923,0.2557456134462566,0.17928647157760222,0.14193412999505636,0.41374940733240023,0.22499350743701202,0.06569590832031208
168,15800.0,5717.0,[38],1,0.20490161321043748,0.2452864589724673,0.3523540429991562,0.4078879178034823,0.267626635484903,0.21945581146269064,0.25507710649852766,0.29096851453685896,0.5095060821527639,0.12430116820959723,0.2594850894711033,0.2030594327031946,0.1242884274845296,0.459192387156672,0.2351367418486553,0.06960670436033779
168,12700.0,3337.0,[28],1,0.27385957645494885,0.2707701547330257,0.5335121131443032,0.4565011115108804,0.35896342555329364,0.23654239475403008,0.41901295266442146,0.3456692729477154,0.3192320355749957,0.21155074997228004,0.32276941967572004,0.15543869787483672,0.28873581341726606,0.4209696965348171,0.14087895583609228,0.09214159822410754
168,33691.0,4393.0,"[41,42]",2,0.24788576675574187,0.30205330029977073,0.6663809122459561,0.3928592840251987,0.5578803796831002,0.2878284814239765,0.29186507983530013,0.35685310933324627,0.6880217540197145,0.15942555006361142,0.2693282147686781,0.10174655103886611,0.380142504823256,0.40286359474931116,0.2639777790353317,0.14586485260525595
