time_in_hour,cumulative_size,size,pcore_ids,pcore_power,AF700 CD48_[R 730_B-A],APCCy7 Ly6G_[R 780_A-A],BV421 CD117_[V 440_F-A],BV510 SCA-1_[V 525_E-A],BV605 CD11b_[V 610_D-A],BV650 CD150_[V 660_C-A],BV711 CD11c_[V 715_B-A],BV785 B220_[V 780_A-A],FITC Ly6C_[B 525_B-A],PE CD115_[YG 582_D-A],PECF594 CD135_[YG 610_C-A],PECy5 CD3-CD19-NK11_[YG 670_B-A],PECy7 CD16-32_[YG 780_A-A],PerCPCy5-5 CD45_[B 695_A-A],_FSC-A,_SSC-A
-1,0,0,[],0,0.0,0.0,0.0,0.0,0.0,0.0,0.0,0.0,0.0,0.0,0.0,0.0,0.0,0.0,0.0,0.0
0,106492,106492,"[3,4,9,14,15,19,21,24,25,28,46]",11,0.3377762554182455,0.18868159856139055,NA,0.5188527157063403,0.3460803419599521,0.23740845733951654,0.01334295477594516,NA,NA,0.3877844129418171,0.18797844740449943,0.8487516738064873,0.6190498595950867,NA,69324.36645006199,14448.439319385507
0,164808,164808,"[6,7,8,10,11,12,13,16,17,18,22,23,27,29,31,38,42,43,49]",19,0.3502205378015595,1.7230171426751113,NA,0.7414940668292749,NA,NA,0.14881915481044805,0.759188325979328,NA,0.6442425045689498,0.17550681779403599,0.1846336690937328,1.979749894647104,NA,68073.71447987958,20758.507645259913
0,17443,17443,"[4,40]",2,0.19715646425500521,0.05015087748666858,NA,0.8955318647595085,0.32975360224731887,NA,-0.06755438456688667,NA,NA,0.3813234129450217,0.19510802235853886,1.6385845843031617,0.7774555124691794,NA,71077.38072579261,13129.785472682384
0,18695,18695,"[7,8,10]",3,0.3709759619149495,1.7587603179459776,NA,0.7194212094142864,NA,NA,0.08582414239101022,0.7597418871356005,NA,0.6608539772131575,0.2066971730409244,0.18531166199518534,1.8976410606579304,NA,67679.23487563524,20960.32350895961
0,988,988,[14],1,0.8101520819838031,0.28386596862348323,NA,0.8838427287449382,0.740340104251012,0.37856301619433275,0.17694837348178227,NA,NA,NA,0.43415406376518195,0.7198345900809715,0.9884237419028362,NA,69112.68016194334,20428.890688259107
0,5409,5409,"[12,13]",2,0.408127433721577,NA,2.1319286681456897,0.7821489654279854,NA,NA,0.12275558864854474,0.7701564087631732,NA,0.6997507659456456,0.1922304414864069,0.1755528881493813,2.060625701238675,NA,70118.32427435755,24171.944536883002
0,35340,35340,"[17,18,23,27,29]",5,0.46440761250707085,NA,NA,0.7689932724108646,NA,NA,-0.13343885580079418,0.7865140928409735,NA,0.7124559381720416,0.25033079479343856,0.18465387076966688,1.993082884691567,NA,68229.11420486707,21097.321109224664
0,25663,25663,"[19,21,25,28]",4,0.3562803451272243,0.17331886895530602,NA,0.5645288514982609,0.38847071620621376,NA,-0.010043686123992313,NA,NA,0.4477626886178536,0.19004595904609412,1.1329265617425888,0.7148731170167185,NA,70506.07146475471,15585.924015119059
24,212610.5,146463.0,"[2,3,4,9,14,15,19,21,24,25,28,40,46]",13,0.3086830851792386,0.1599625315918054,NA,0.6285859848619855,0.30689956789292827,0.2671690988027431,0.0003299663727793778,NA,NA,0.36508052072452235,0.1771634400017903,0.9272205139468679,0.5866920737122588,NA,71621.47178996341,15390.90225553295
24,232426.0,150022.0,"[6,7,8,10,11,12,13,16,17,18,22,23,27,29,31,38,42,43,49]",19,0.3764469925911864,1.5989496884341765,NA,0.7993054854276234,NA,NA,0.15291812777399993,0.8108615279185685,NA,0.6575931774005476,0.15848186478922122,0.19104253924690073,1.888413855698158,NA,68343.15913021777,23430.0498567286
24,523.0,257.0,[4],1,0.8429715583173996,0.34971421128106916,NA,1.2318795831739968,0.7424507715105144,NA,NA,NA,NA,NA,0.45773628011472667,0.835342335564053,0.9421133145315489,NA,73794.38623326962,22664.321223709383
24,23865.5,14518.0,"[7,8,10]",3,0.3875326477132246,1.5924699658921866,1.8953036557164107,0.7746716961304019,NA,NA,0.07557263748926601,0.7967596786574709,NA,0.6733325986046822,0.2018511946533721,0.19433335494752024,1.8070101299574715,NA,67666.40179338379,23476.83610232344
24,1982.0,1488.0,[14],1,0.8771102676589282,0.2911442192230087,NA,1.0598271720484367,0.7601325910696235,NA,0.29066290842583564,NA,NA,0.8576631208375406,0.43234065413723766,0.631329194500504,0.9959976021695266,NA,70082.14732593342,21997.610494450077
24,15075.5,10937.0,"[12,13,32]",3,0.7618986276740389,1.2572454226062217,2.0091165985871027,0.8570486841564202,NA,NA,0.0954509344963701,0.9011404121256414,NA,NA,0.23480351722993875,0.19919833919273122,2.0121376054857194,NA,70212.80780073631,26842.77085337133
24,18314.5,12487.0,"[19,21,24]",3,0.4531267716017411,0.1717528450954129,NA,0.7471509291271956,0.4035039287449851,0.277781035736711,0.03386724420540599,NA,NA,0.48190022241939423,0.19937433978541685,1.0394608149280644,0.6459668408910971,NA,73216.75306451172,17255.721968931713
24,28334.0,19104.0,"[35,44,47]",3,1.858398628644035,0.3941029922884156,NA,1.0347549625008958,NA,NA,0.07726018483093977,1.0061953073162933,NA,NA,0.43383406979247674,0.2370424445189513,2.3911936180207434,NA,75883.4192136655,36038.795510693875
24,14015.0,10500.0,"[36,37,50]",3,1.2714487496610738,0.6152736514805408,2.852509447984312,2.2363219663218135,2.156843421798063,NA,-0.597232257652518,1.0802165065287235,NA,3.2391211491259226,1.4023947963253551,0.5214509252943285,2.3352912053157344,2.43163348990368,NA,NA
24,26261.5,17348.0,"[23,27,29]",3,0.513171050130417,NA,NA,0.8496227565447536,NA,NA,-0.0689385226853041,0.8490042877406037,NA,0.7807950808026926,0.2059403312643977,0.17856050056165873,2.1072939008244,NA,70882.6801210898,26037.621918016837
24,8236.0,4851.0,[28],1,0.39489224587179006,0.1931849738343887,NA,0.564310736522589,0.36794844645458813,0.24827935223409336,0.018155659239923683,NA,NA,0.43787251402379823,0.19472527313016297,0.9111048929698864,0.6390452956532323,NA,71032.59446333168,17249.981544439037
24,19093.5,11960.0,"[31,42,43]",3,0.47156777856338294,1.2075237908188559,NA,0.8645693674810748,NA,NA,0.09123231348364769,0.9099611243355024,NA,0.6823959164899053,0.31122000172833575,0.266341893707284,1.4376315698536128,NA,65744.85013224397,22054.128158797543
24,3842.5,3328.0,[44],1,2.1432990226415116,0.35369085465191485,NA,1.2426628002602453,0.9665492834092482,NA,-0.22305980715680196,0.9516768986336932,NA,NA,0.5444247115159313,0.2544202714378657,2.4478625159401437,1.5924390394274615,78525.57657774878,48014.324007807576
24,4581.5,3144.0,"[22,32]",2,1.541361363527231,0.427231469606018,NA,0.9343238432827707,1.5672581191749355,NA,0.00219312877879263,1.0918186558987193,NA,NA,0.401870108807159,0.2355643985594239,2.0369885718651166,1.6222921737422324,71582.27829313555,29476.3618902106
48,239586.0,151814.0,"[1,2,3,6,7,10,14,15,18,21,28,31,42,43,46]",15,0.28836577387973494,0.6384733196065246,NA,0.5919021882747737,NA,NA,0.05049424557778259,NA,NA,0.3957950762450636,0.1928515881771058,0.37948883909744435,NA,NA,NA,18176.148856777894
48,103743.5,52074.0,"[9,19,25,40]",4,0.23717162778632406,0.09984841193182836,NA,0.6848192625465712,0.22528803159233224,NA,-0.05433721534842606,NA,NA,0.305158123986085,0.14460181390882632,NA,0.6410736215835232,NA,71160.24857460974,14495.635562709851
48,164231.5,79651.0,"[8,11,12,13,16,17,22,23,27,29,38,49]",12,NA,NA,NA,0.7431728831694842,NA,NA,NA,NA,NA,NA,0.09924764246809792,0.12789261887183745,NA,NA,NA,23577.770257228345
48,11334.0,1198.0,"[7,8]",2,0.3415974094317977,NA,NA,NA,NA,NA,NA,NA,NA,NA,0.18832172097230115,0.1831108958002492,NA,NA,NA,NA
48,1149.0,158.0,[14],1,NA,0.2921387051784192,NA,NA,NA,NA,NA,NA,NA,NA,0.4575995311140151,NA,NA,NA,NA,22334.12010443867
48,23267.0,3967.0,"[12,13,16,17]",4,0.4787148042828866,NA,NA,NA,NA,NA,NA,NA,NA,NA,0.2243880150535098,0.15927282727683056,NA,NA,NA,NA
48,13012.25,5777.0,"[19,21]",2,0.3237528986147691,0.17810962731272717,NA,NA,0.3485142554131775,NA,NA,NA,NA,0.3997900502219074,0.1731968490076632,NA,0.6805881177544298,NA,72183.06196084463,17394.706680243566
48,12846.5,8367.0,"[22,27]",2,NA,NA,NA,0.9171451703187699,NA,NA,NA,NA,NA,NA,0.27542953349162014,0.167526298096758,NA,NA,NA,32935.36200521549
48,51501.0,30451.0,"[32,34,35,44,47]",5,1.9144343828809152,0.3499554006815373,NA,NA,NA,NA,NA,NA,NA,NA,0.3870919555736818,0.19953091130754774,NA,NA,NA,32426.313741480786
48,8361.5,3655.0,"[34,45]",2,NA,0.32141072185015096,NA,NA,NA,NA,NA,NA,NA,NA,0.41605339631046645,0.21617635286730985,NA,NA,NA,NA
48,8124.0,4006.0,[28],1,0.3500922612629298,0.20322550126169814,NA,0.5565905742245314,0.3954443572747417,NA,NA,NA,NA,0.41186028825085996,0.1832225381277781,0.8289262576624761,0.6366732292589851,NA,70525.80600689308,18394.883308714918
48,6677.5,620.0,"[31,42]",2,NA,NA,NA,NA,NA,NA,NA,NA,NA,NA,0.39285725919131576,0.2689025181954332,NA,NA,NA,NA
48,7457.75,5424.0,"[44,45]",2,2.067124261607055,0.278797096510337,NA,NA,NA,NA,NA,NA,NA,NA,0.45954867097984664,0.19424773497368664,NA,NA,NA,NA
72,390339.625,236954.0,"[1,2,3,4,6,7,8,10,11,12,14,15,17,18,21,27,28,31,42,43,46]",21,0.33007034474465713,0.9919370869364679,NA,0.8055147215671417,NA,NA,0.09676611545009717,NA,NA,0.5009254162868418,0.23219675982901977,0.3052261793675207,1.2084593624145312,NA,67844.47823353823,21437.449769543615
72,120895.75,69024.0,"[9,19,25,40]",4,0.2556016124605258,0.16454437743778438,0.1274513186123154,0.7959653305099725,0.2924631648568945,0.2506899177948798,-0.06366320817107995,3.1954797551371845,NA,0.32813841704009084,0.16292718905854375,1.1526571180676377,0.6954687368362812,NA,72207.6434944987,16401.124969240038
72,3011.0,0.0,[24],1,0.7408489361092625,0.12430780965625754,0.8317682707156946,1.06354652544836,0.2715153016439702,NA,-0.08546585710727017,0.4626452411574298,0.9795428879109928,0.4475981680089657,0.18210157181999964,1.2071902811358335,0.36350044129857506,2.255334037030877,80653.02955828623,17547.451345068046
72,94283.25,25583.0,"[6,7,8,10,13,16,23,29,38,49]",10,0.4844943701174367,1.6560739951913543,2.1272607218739803,0.8870035118923494,2.822640272212983,NA,0.025007719459711364,0.8036920645302899,4.1104490197065715,0.6482966895776819,0.2098973863027025,0.1400908462598076,2.1378685180108925,1.6204246464085603,71072.83722188203,26899.692575298293
72,574.5,0.0,[14],1,0.9120275868146186,0.2921387051784192,1.7846701531766702,1.0783950274151461,0.7358573339860714,0.3653343402959115,0.3320234127502171,1.5226776895126228,1.4642921747171438,0.8376902678416024,0.4575995311140151,0.5856038196257607,1.0109239771540475,1.5394321137946072,69873.69886858141,22334.12010443867
72,12296.375,1411.0,"[12,13,16,22]",4,0.8522062766872323,1.225270025037879,NA,0.9908109405312637,NA,NA,-0.0647683086580404,0.8233730229844238,4.369754931738006,NA,0.31497256250317873,0.1796991061999993,2.0071045172865962,1.4959729576501233,68890.2256152728,34125.780321436265
72,3858.25,1401.0,[4],1,0.6786824316075906,0.4257608689496557,0.6227912491414553,1.9197141115790841,0.5860382677055695,NA,0.8775974780016762,NA,NA,0.567854524978939,0.4437564574936772,0.3305264804963398,0.7299744693513907,1.6134325499254798,60216.88174690589,23555.193157519632
72,9517.125,0.0,"[19,21,24]",3,0.4557125155049455,0.16108796657341484,0.881122580742606,0.7678480175341811,0.3241535530162789,0.25946823497116944,-0.038851675952562115,NA,1.182630765317779,0.4149154418351133,0.17601409900573994,1.165404753405046,0.5802688518197511,NA,74862.76538345352,17443.03158779564
72,23028.25,11177.0,"[27,22,32]",3,1.0758575100800118,0.9845458127517359,NA,1.1593603504391323,NA,NA,-0.027487515057585288,0.909548737398624,NA,NA,0.4101576553580948,0.1969480025349304,2.0019329231541665,NA,71351.54117225582,34411.94949681375
72,30980.875,13224.0,"[35,44,47,48]",4,1.8931935371862483,0.4466471674621899,NA,1.3731722605801187,NA,NA,0.06239153328060709,0.8884355878868755,5.443645400218712,NA,0.508077321690398,0.23822102420444746,2.4708878175608304,NA,79081.12653370833,NA
72,13641.75,6710.0,"[36,37,50]",3,1.2742208457217743,0.6884711467278861,2.5325422303131977,2.261338838638743,2.129300084162572,1.4497832781443016,-0.41394098680520797,1.0833535868748365,4.35442050514963,2.9692710386680625,1.36636027816263,0.478130934300953,2.328680075549322,2.3902352179705764,115953.74904246147,97172.71288507732
72,8053.0,3991.0,[28],1,0.43558171914194044,0.3052768774525072,NA,0.9022647122190586,0.5660346744380917,0.20012185250837744,0.13594850650378953,NA,NA,0.5301416649540517,0.26117186785981383,0.728699194911832,0.7164359460139048,NA,72190.40059605107,22073.1354774618
72,3338.75,0.0,"[31,42]",2,0.5813748187195755,1.2957761232122746,1.8193373486708997,0.9439164983152333,NA,0.7812321024709867,0.007165771770879292,0.9370594142268724,NA,0.7624988837888423,0.39285725919131576,0.2689025181954332,1.5681286988019458,1.4070519298764521,66460.8155746911,23863.709472107897
72,3023.125,0.0,[44],1,2.24437248728551,0.29656130055819085,2.71010013301635,1.1055405902832356,0.560573662807526,0.9374863679966927,-0.24137666396526658,0.7406508909654632,5.6011994202191335,3.6185783152367086,0.5059591884225676,0.20015258044242512,2.5872704383295417,1.3537562759561736,74596.5052718629,46088.864998966346
96,262036.0,93580.0,"[1,2,3,6,7,8,10,12,13,14,15,17,18,21,27,28,31,42,43,46]",20,0.3937728138285359,0.8887475155164744,NA,0.8533025998302621,NA,NA,0.11504736544906802,NA,NA,0.5154805955448368,0.260893033930218,0.40474075641157037,1.138978850714457,NA,68211.27764124009,20508.927445083867
96,126608.375,64655.0,"[9,19,24,25,40]",5,0.3938788786138625,0.17204501968176178,NA,0.9331943589597658,0.3354927594955601,0.24423414488279427,0.046371676751251645,NA,NA,0.40845476840591766,0.20489116715768585,1.2894480026938413,0.7381591172310867,NA,72100.3883668833,15631.844449468725
96,174933.0625,100536.0,"[6,7,8,11,16,22,23,29,32,38,49]",11,0.46221210621956144,NA,2.021199799800566,1.0890513262765849,NA,NA,0.4417255241404674,0.9875602795597702,NA,0.7095764407800275,0.20211086869905737,0.18600122980897393,2.2719074731499185,NA,70070.16995429315,24104.948805775413
96,827.25,540.0,[14],1,1.0899493675581715,0.4000144962979735,NA,NA,0.8177475541704422,NA,NA,1.609651759821702,NA,0.928747803490482,0.6032641877455442,0.6619349461317621,1.2147261195980636,NA,69773.17618615896,23430.445451798136
96,5186.1875,1204.0,"[12,13,16,39]",4,0.7745151486159088,NA,2.185230563383499,NA,NA,NA,NA,1.0918415020185916,NA,NA,0.48236168953590575,0.3197996286409821,2.082176060123643,NA,72867.8907193386,28983.457308475623
96,12487.5625,7729.0,"[19,21,24]",3,0.58170628800156,0.23042408564021244,NA,1.0224776744010264,0.4772285582254323,NA,0.1283765733104416,NA,NA,0.5524475119293683,0.2615405637409176,1.2469887429892788,0.7597099950600849,NA,74134.1625317191,17761.312505943395
96,12745.125,6130.0,"[22,27]",2,0.7586882930630314,NA,NA,1.1649427242671204,NA,NA,0.20231580727925635,0.9506426370818208,NA,NA,0.3815809703710302,0.20596641242239855,2.096475509675263,NA,69945.33925716707,30360.55903727899
96,34942.4375,19452.0,"[35,44,47,48]",4,1.982060969421121,0.4550397715993584,NA,1.683277827920556,NA,NA,0.24792371936880997,1.0889751595302224,NA,NA,0.584777510407291,0.2814599406702827,2.460601525249561,NA,77262.61867106453,36885.19817771731
96,13495.875,6675.0,"[36,37,50]",3,1.3937889053553454,0.6790570499458259,2.5837943534737495,2.3353710756064365,2.1450327258930977,NA,NA,1.1976320884622016,NA,2.9456361374030875,1.4167610066270244,0.5401994712087959,2.41137115928477,2.5159276277658944,NA,NA
96,5399.5,1373.0,[28],1,0.5198479018659166,0.33042260321558325,NA,0.9947866948328636,0.6153112274516106,NA,0.18709021936058967,NA,NA,0.5785698801625131,0.3124746661612319,0.7589837907792334,0.7859467913001176,NA,71707.65737568296,21645.74497638671
96,1669.375,0.0,"[31,42]",2,0.5813748187195755,1.2957761232122746,1.8193373486708997,0.9439164983152333,NA,0.7812321024709867,0.007165771770879292,0.9370594142268724,NA,0.7624988837888423,0.39285725919131576,0.2689025181954332,1.5681286988019458,1.4070519298764521,66460.8155746911,23863.709472107897
96,3876.5625,2365.0,[44],1,2.2303682576541703,0.3430564067714559,NA,1.520435762998794,NA,NA,-0.07813946160419638,0.906766572285358,NA,NA,0.6704233662555406,0.25724911358323077,2.492575597049579,1.620327176170899,NA,43652.84965739634
120,177485.5,75417.0,"[1,2,6,7,8,10,12,13,14,15,17,18,21,27,28,31,42,43,46]",19,0.431832498376451,1.0188340899105155,NA,0.9839071729005671,NA,NA,0.2007648691894932,NA,NA,0.565823400692237,0.3179105859552642,0.3516257545391036,1.235196368309667,NA,66993.24105912878,20660.278141031198
120,158116.9375,67200.0,"[3,9,19,25,40]",5,0.3524452225239849,0.1785511747328261,NA,0.8877013904042985,0.33600937104935724,0.23402792325023758,0.09334421435442053,NA,NA,0.3913352419566003,0.21530687448056263,1.1693721398423118,0.6738787444679973,NA,70758.51091537879,14924.008530079194
120,3066.75,1730.0,[24],1,0.9601941308082662,0.15215637065907872,1.1565039195504094,NA,0.5028624026453055,NA,NA,NA,NA,0.6732000306411506,0.3085585454267563,1.1892704650281225,0.6295018631083388,NA,77129.15105567782,17583.36610418193
120,186328.90625,125529.0,"[11,23,38]",3,0.23078063996041265,NA,2.1206099757819294,1.157389317188779,NA,NA,0.7970907676972425,1.0619149280688962,NA,0.49441966280610294,0.12200917242275189,0.17940011472154171,2.478722224191793,NA,67307.43169378738,19775.951494375415
120,80558.15625,46863.0,"[6,7,8,10,12,13,14,17,22,29,49]",11,0.7620866334255396,NA,NA,1.250277561729288,NA,NA,NA,1.1831532704443788,NA,0.7648418568828955,0.37047587958040085,0.18146619324626212,2.2929294662466355,NA,70261.01653114732,26696.285641467657
120,14968.78125,8725.0,"[19,21,24]",3,0.5810211882835277,0.22743799322130887,NA,NA,0.5066456636750227,NA,0.15189980081877863,NA,NA,0.5440630863380228,0.30081892619013484,1.2752868503197325,0.7593857889127561,NA,72740.25398694353,17469.452030371485
120,11560.5625,5188.0,"[22,27]",2,0.9309356848823296,NA,NA,1.3687083923738528,NA,NA,0.29177122805443423,1.0269716683741663,NA,NA,0.45023295557634846,0.22879497351988765,2.1183263772956504,NA,68459.63126794226,31354.338683779413
120,39341.21875,21870.0,"[35,44,47,48]",4,2.0398309138959654,0.44171517552598694,NA,1.9434335254960735,NA,NA,NA,1.2514623163388618,NA,NA,0.6316344969970271,0.29847537155448656,2.4770219238370363,NA,74397.4019361056,34531.597372031225
120,13684.9375,6937.0,"[36,37,50]",3,1.5386103787124468,0.7090581756013798,2.6902764850108922,2.403752018268269,2.2360335798231774,NA,NA,1.2346830600386403,NA,2.930525392018607,1.4478093539817913,0.5667466711667453,2.473492198130695,2.618289783763171,NA,NA
120,4918.75,2219.0,[28],1,0.6081863195044463,0.3548583701207182,1.4639494869758578,1.0842091920457468,0.6602777387166388,NA,0.24450818047648593,NA,NA,0.5934179761054627,0.3704963980622673,0.7791037337039379,0.848618141359592,NA,69952.11628970777,20790.61306226174
120,2047.6875,1213.0,"[31,42]",2,0.8403013311357312,1.0908475672404818,1.8938392138540396,NA,NA,NA,0.29110092439642754,1.2412232549217097,NA,0.8407661955559628,0.5886799511796847,0.42567742326710034,1.4904863199493334,NA,66460.68601776395,24232.2385617923
120,6321.28125,4383.0,[44],1,2.336404572317721,0.34156486423341814,NA,1.9352227296088196,NA,NA,-0.009888636787436678,1.0758744500076673,NA,3.4655323567215928,0.7512606187827822,0.28400368713819124,2.461800560917732,NA,72865.47359366456,39258.01276442187
144,139322.734375,47249.0,"[1,2,6,7,8,10,12,13,14,15,17,18,21,27,28,31,41,42,43,46]",20,0.5036507580509721,0.8839970092490939,NA,1.1864544852076175,NA,NA,0.28611604544204505,NA,NA,0.6178944086661392,0.3558683905290727,0.4341063272437926,1.1858582905486408,NA,66805.29191271841,20725.173224264003
144,156703.46875,77645.0,"[3,9,19,25,40]",5,0.3797469716636348,0.13710539424093593,NA,NA,0.332296213454514,NA,0.17803644581754652,NA,NA,0.4213493558929232,0.22104151803455885,NA,0.7291589231703738,NA,70771.93405139592,14508.311067619532
144,197055.453125,103891.0,"[11,23,38]",3,0.2525936745540094,NA,2.108817672711337,1.334244151436006,NA,NA,0.9049624180934419,NA,NA,0.5527831780756641,0.07911373990805526,0.2200908577296905,2.483392436154481,2.1617262882637127,66817.73545565218,19068.952695343032
144,83996.328125,39963.0,"[6,7,8,10,12,13,14,17,22,29,32,49]",12,0.808057813497989,NA,NA,1.4567534048610766,NA,NA,NA,1.2601221611119513,NA,NA,0.34561639023338575,0.23738573421959297,2.3237876881651367,NA,69258.21170828716,25164.48533148294
144,4658.375,3125.0,[24],1,0.970836158172778,0.12974381449740546,1.1295057234852468,NA,0.3783154601457084,NA,NA,NA,NA,0.6391248349444542,0.3194157154788404,1.3019701720691255,0.5642776992714721,NA,77521.84656666774,17917.94735288594
144,6872.390625,4441.0,"[21,24]",2,0.824031603597273,0.1734568519324342,NA,NA,0.39393961706602676,NA,0.05568090392262759,NA,NA,0.6044531693711018,0.3128860556415729,1.284324572776488,0.6429263034106117,NA,75524.06423347055,17619.041263388604
144,8267.28125,2487.0,"[22,27]",2,0.9961375783944943,NA,NA,1.5761445106462553,NA,NA,NA,NA,NA,NA,0.48246164593106355,0.2849206131134422,2.0659702494169414,NA,67745.47158414382,31302.564431323706
144,56895.921875,32157.0,"[34,35,44,47,48,50]",6,2.040536232223366,0.3886465362079692,NA,2.2977975008377514,NA,NA,NA,1.2865978267722507,NA,NA,0.7008662721913543,0.38531226140274166,2.3951759714151812,NA,NA,36511.141388373886
144,11868.53125,5776.0,"[36,37]",2,1.5222658998783525,0.6286246913595006,2.541711311070793,2.590412295930951,NA,NA,NA,1.4011310340106284,NA,2.8985518973730526,1.436353708114678,0.6486984298130816,2.39671018464005,2.7082776093687877,NA,NA
144,2073.84375,1050.0,"[31,42]",2,0.8463608480629257,1.10934097514428,NA,NA,NA,NA,NA,NA,NA,0.919183414628633,0.5747059761689495,0.4910911448020754,1.5602532501017143,NA,66287.13759173034,23369.279387610564
144,11178.359375,5388.0,"[28,41]",2,0.9825899496040786,0.3951508284296521,NA,NA,0.6913541284597033,NA,0.43128168937050404,NA,NA,0.8767178336126619,0.6086188865567492,0.6136604968962065,1.0055950639978146,NA,66422.34679451794,28176.204524646575
168,214376.9921875,145555.0,"[1,2,6,7,8,10,12,13,14,15,16,17,18,27,28,31,41,42,43,46]",20,0.42053875315808376,0.857455589005609,NA,1.4586690906092503,NA,NA,0.336578928950487,NA,NA,0.7033033086112338,0.34066389758342286,0.3357002086709838,1.2545090211022831,NA,65314.581280968436,23130.31724114806
168,104624.6875,41119.0,"[3,9,19,21,25]",5,0.3520670893312057,0.15688381104924476,NA,NA,0.3405606470715301,NA,0.22226108802080047,NA,NA,0.4140092484624336,0.21788127943227842,1.1917734845812693,0.7244237708328719,NA,70654.73360673116,15266.979306389772
168,11299.890625,7750.0,[4],1,0.6569028579853555,0.18849642969788682,NA,3.360680176190882,0.4721065859120559,NA,NA,3.7774176856330186,NA,0.5366567364175249,0.5762803250702078,NA,0.7732199799852909,NA,61363.30195673909,19022.204827756963
168,34710.0546875,18757.0,[40],1,0.15498889348029898,0.0309769604914516,NA,2.31480905907379,0.34765008419413057,NA,0.2974447985042157,NA,NA,0.5201532753198553,0.2427096100245043,1.9459310137212515,0.8159716899275168,NA,73219.02268322425,14142.01851363757
168,155187.7265625,56660.0,"[11,23,38]",3,0.2615837159746306,NA,2.1337080497774408,1.4293825656693553,NA,NA,0.9686699163332895,NA,NA,0.6113969710650814,0.0741160384636741,0.2213876552567503,2.432875298374554,NA,67713.7479958367,20301.364719916593
168,19183.671875,10875.0,"[6,7,8,10,32]",5,0.8289637421089677,1.0262110909660316,NA,NA,NA,NA,NA,NA,NA,NA,0.46638004870597305,0.28375727631367875,1.92861384208698,NA,68944.98608598628,29679.35769595727
168,9121.5,2762.0,[2],1,0.3987420510204278,0.24857244823783864,NA,NA,0.3949420661829297,NA,0.21076670085357296,NA,NA,0.44188348451460924,0.2520692044028956,0.9895466683959269,0.7504149451664693,NA,69441.3468179578,17152.325330263593
168,62977.015625,32320.0,"[13,22,29,49]",4,0.7614078608918313,NA,NA,1.6276391925107365,NA,NA,NA,NA,NA,NA,0.3442553865101883,0.21491147667229127,2.2926917327461305,NA,70002.69477281981,26940.542500500553
168,4887.1875,2558.0,[24],1,0.8521635366279796,0.131677422224886,NA,NA,0.32771427366519523,NA,NA,NA,NA,0.6489499505579014,0.3294087349414885,1.3953956726964674,0.5187269282530843,2.5151400820448893,81109.12298740342,19296.075503548862
168,10984.4453125,6378.0,[20],1,1.104395555490753,0.2789254629806739,NA,2.6824642805166605,NA,NA,-0.10000243650219032,NA,NA,0.8008728996549707,0.44167886878747176,1.1838017564297256,0.6844349168774883,NA,81160.65624046465,22979.01813146276
168,12127.2734375,3944.0,"[17,18]",2,0.5943648587462034,NA,NA,1.3153394241060519,NA,NA,NA,NA,NA,0.796783328741839,0.37940311232173096,0.23876060054461645,1.900620739434813,NA,68381.84999075584,24390.169564856013
168,6878.0078125,5771.0,[21],1,0.313429672404687,0.19967574333160432,NA,NA,0.3904226768777326,NA,0.27550554652908144,NA,NA,0.5174969493721476,0.2901494383763974,1.1929647326998956,0.7885383681207639,NA,71088.84619342681,17677.614116551253
168,52296.7734375,29413.0,"[35,44,47,48,50]",5,1.9106196275414071,0.3621714932816551,1.9800886509294018,2.5598307193024215,NA,NA,NA,NA,NA,NA,0.7144828724402914,0.3958127643662861,2.384640964309905,NA,NA,39521.653644083846
168,14759.265625,8825.0,"[36,37]",2,1.4484867219643813,0.5731991595591972,2.5275353550635136,2.7158494168181346,NA,NA,NA,NA,NA,NA,1.4129174921876286,0.61750993623921,2.238319347531694,2.576235201623329,NA,NA
168,9047.703125,1815.0,"[27,29]",2,0.8148387867941349,NA,NA,1.6613613179406825,NA,NA,NA,NA,NA,NA,0.3560081613151147,0.24174101866582243,2.382117198551764,NA,72463.94802548297,30277.61158995795
168,26726.3203125,15020.0,"[14,28,31,41,32,22]",6,1.0673648565967702,0.4637405769622607,NA,2.048703947013547,NA,NA,NA,NA,NA,NA,0.6311250815786416,0.4742299673235869,NA,NA,68149.13069601043,32231.089949075853
168,319.03125,88.0,[37],1,1.310490788960723,0.6942474984572486,2.571058311122543,2.437413923621318,NA,NA,0.5111123135713549,NA,NA,NA,1.2471877417474757,0.6154273601968865,2.073712352630033,2.5254057329562185,NA,63567.82760309528
