time_in_hour,cumulative_size,size,pcore_ids,pcore_power,AF700 CD48_[R 730_B-A],APCCy7 Ly6G_[R 780_A-A],BV421 CD117_[V 440_F-A],BV510 SCA-1_[V 525_E-A],BV605 CD11b_[V 610_D-A],BV650 CD150_[V 660_C-A],BV711 CD11c_[V 715_B-A],BV785 B220_[V 780_A-A],FITC Ly6C_[B 525_B-A],PE CD115_[YG 582_D-A],PECF594 CD135_[YG 610_C-A],PECy5 CD3-CD19-NK11_[YG 670_B-A],PECy7 CD16-32_[YG 780_A-A],PerCPCy5-5 CD45_[B 695_A-A],_FSC-A,_SSC-A
-1,0,0,[],0,0.0,0.0,0.0,0.0,0.0,0.0,0.0,0.0,0.0,0.0,0.0,0.0,0.0,0.0,0.0,0.0
0,78907,78907,"[0,1,7,10,18,39]",6,0.3184921715944091,0.1424081983347425,0.3195429555045832,0.43606309994043935,0.22693327474114522,0.2533756058651373,-0.0059224621263038735,2.781828390332916,0.7081499416781795,0.3157645177614158,0.1607655154802461,0.9994002006666067,0.5979324006742114,0.9307748987922486,69612.56324533944,14100.418974235494
0,67076,67076,"[2,8,21,23,33]",5,0.06605654733436972,2.175839846636652,2.0198501168972514,0.6291594322261376,2.9714775659997597,-0.39744003135249506,0.567053167556212,0.5143761453724278,3.9767783749478176,0.4679894503697287,0.0077186969258642435,0.11787350979485722,2.21297834389349,1.7087354136949122,67066.72073468892,17770.860039358333
0,31302,31302,"[4,5,17]",3,0.47873513935212086,2.3373352488658767,1.7605692945818174,0.6275634728771315,2.8788138532362297,1.3971473676122932,-0.7284032698230174,0.8749730448214108,3.906081470608884,0.6379552169190478,0.19937966452622957,0.07949575761932104,2.234513876525472,1.7725856885502511,66173.4094946009,17700.947926650006
0,30120,30120,"[11,22]",2,0.267901917729088,1.5476394293160647,1.8020750955179259,0.5713506726095634,2.2255593735059773,0.3630389305112889,0.20156469133466715,0.44577357699203857,3.617189655544506,0.46787572785524834,0.18674897672642832,0.12227571460823183,1.7210223666002755,1.0586526838645385,63352.47596281534,17823.262682602926
0,26126,26126,[15],1,2.0125581569700524,0.2668493720814551,1.5854919847661244,0.8058136035367038,1.6608376946720012,0.3953871688739239,-0.0014449547194348433,0.7551808779759384,5.7533821314399605,3.3101862035519845,0.40187586010105303,0.16544181221771648,2.447786742823242,1.7789123204087935,71579.09576666924,25429.4394855698
0,34611,34611,"[1,7,10]",3,0.36569037378290403,0.136173707202909,0.5861206864002759,0.46405106919765915,0.22925013995550136,0.36713418517234864,-0.1137568711681296,2.982626796191952,0.7460338708792006,0.3607960607321393,0.17736535838316803,1.1079695647915389,0.6501309647799823,1.2070357239894831,70425.24237959026,14898.077952096179
24,101184.75,81458.0,"[0,1,7,10,18,39]",6,0.3078440562041198,0.1283239189848282,0.37706185222081334,0.5008631654547804,0.19914882057325922,0.2767254121495617,-0.014711899755150082,2.7177977365166273,0.7167343342252624,0.3076259356054143,0.15087466219465595,0.9420322816580553,0.5486009029226263,0.9324017216502485,71898.0470871352,15310.080540792938
24,70750.0,53981.0,"[2,8,21,23,33]",5,0.1056176344204971,2.0585145412473445,2.111293951777379,0.6776928520282759,2.9978027917632315,-0.3917839605901069,0.5914658114311075,0.5816798194735027,4.098547648134281,0.49676369500000106,-0.04065953764312269,0.11924214242756126,2.1464638867667802,1.683001782929323,66770.6461625441,20008.49413427556
24,32045.5,24220.0,"[4,5,17]",3,0.5172706386544137,2.2662933918334973,1.9415393502909715,0.6761857912031313,2.8990556794089613,1.4078284354511632,-0.6905662915854041,0.920223788745691,4.02055099356384,0.68025736234417,0.15492910860339215,0.0806969803014449,2.171639609079287,1.7419223039974268,65999.34168604025,19960.44424334143
24,37627.5,31616.0,"[6,14]",2,0.25369218766195,0.24183515829513347,0.9090163322237705,0.525472318590118,0.3960249349611309,0.21676181268353933,0.06617804119328241,0.609622058899757,1.0494308094279359,0.329445075317256,0.18941704644873925,0.21394623809713897,0.43419255955086045,0.40873117843332624,68606.56105242149,13928.44956481306
24,46060.0,38530.0,"[11,22]",2,0.3109918172058166,1.2931232926997556,1.9005378215642694,0.6441783637158061,2.1246041212874442,0.3645628633250062,0.15077478208316242,0.5462511034249018,3.726453937434853,0.48897918279960495,0.1534419514274843,0.1274281035822843,1.5949598773230536,1.0440734855731653,63000.3491098567,20853.965436387287
24,28014.5,21483.0,[15],1,2.0411709132145868,0.35376846885540836,1.8961985002587967,0.9268091599885739,1.6853910825376541,0.4874744935836839,0.030822873556535235,0.9913578008352255,5.892907887290527,3.263965194042371,0.3748207706455595,0.19664918872370163,2.478055724348137,1.773311227212688,71967.54080922384,32207.167002801893
24,19905.0,16614.0,[35],1,1.3534925044837915,0.5789408868374903,2.919912022833451,2.277520538043183,2.135860323009299,1.7663370919367238,-0.845550325433309,1.1229057530896758,4.50307388437577,3.3943390048606186,1.4410034487816916,0.507714543041951,2.3980415137779354,2.4437251875282633,122968.6868625967,107317.34619442375
24,45742.75,37090.0,"[1,7,10]",3,0.33739228688152734,0.12003411406179909,0.574818795967666,0.5560200223860603,0.20972214533450417,0.3551377931092956,-0.07114019489426893,2.9682578159544546,0.7221880394434063,0.34271052145968606,0.16236962416449296,1.0805522704854884,0.5942372615004571,1.214883449459206,72468.73334025615,15705.048253548355
48,103108.1875,77812.0,"[0,1,7,10,18,39]",6,0.27058324842049597,0.1290000290750477,0.3092681128050576,0.4319631983947718,0.1689432779004596,0.2732236421355996,-0.049044746923586846,2.8189498394877646,0.7084394934810588,0.25577245084380307,0.12647544770268793,0.8871443862484265,0.5705292164504393,0.8476878524141225,69120.4228568172,15372.031285100367
48,55201.125,39124.0,"[2,8,23,33]",4,0.002795251945723498,2.1671107695382155,2.0658000999990986,0.6247146589132142,3.093523959177697,-0.4849920936292077,0.7127940643397319,0.4786677675715376,3.9983123140425234,0.32523459393490595,-0.042698337195353986,0.09388041963026283,2.282228483333678,1.6233532288721473,65094.38842052586,19383.387276980255
48,59274.0625,48302.0,"[6,14,36]",3,0.25932553510862477,0.34634268289775827,0.8492102605745502,0.5655238812844958,0.5113551646325134,0.27649539294695136,0.057031630875647554,0.603068637505872,1.8292083803392036,0.430106723202078,0.20526785729529795,0.15903791941247447,0.521814373073172,0.45748161563605355,62958.63220105763,16416.454060323646
48,52892.0,41377.0,"[11,22]",2,0.18132631528633292,1.3129973015094456,1.7534464848807345,0.5406071437114797,2.030503553762871,0.23315228634174257,0.1414814340294961,0.45134805819286905,3.664153649409402,0.3629028323931266,0.12338914415577751,0.10123552962168025,1.4411819615135584,0.8592677555088692,61790.31074642661,19439.102851092703
48,33726.625,26723.0,[15],1,2.0931788950439847,0.3169839666342864,1.723905950043196,0.876010965257429,1.8011885084391857,0.48862786125575086,0.05366121112955646,0.8355670813155638,5.8620660182904505,3.1771988486581297,0.35869246311519865,0.17863066347062706,2.589793490170978,1.8126900760656712,71307.46880246676,31078.55375389604
48,49382.375,36101.0,"[1,7,10,18]",4,0.31011336430760816,0.14001982682334324,0.6455589646040196,0.4750650750951122,0.16792096516216626,0.3901968519157901,-0.14307327771421408,3.014712524622916,0.841940665208237,0.2961535491015286,0.14839473613055576,1.0235633445346182,0.6061747034734076,1.0466753316517319,70514.19061962896,16408.859395685136
72,139849.265625,107345.0,"[0,1,6,7,10,18,39]",7,0.2563100103431706,0.20270884878105289,0.34042246023614986,0.5731851173033045,0.26389175648189367,0.26543405011657106,-0.036198821658661284,2.3784222277707965,0.737551098636888,0.29593831823113503,0.15169349601462523,0.6869064287312434,0.5818859838568388,0.8279857608869727,70032.41386524076,16695.065101454624
72,58790.125,43319.0,"[2,8,21,23,33]",5,0.15102831662975924,1.9998656631803087,1.8125686160731154,0.8883632105785266,2.8917713780006076,-0.3311993793470336,0.48584792138427124,0.6602643153077903,3.743718945917243,0.4580706165376941,0.13980181050786689,0.12900005235652945,2.1002701485418935,1.711794282622139,69486.592093485,22326.786683988128
72,7237.546875,4408.0,[36],1,0.726074231231236,0.5633139947301782,0.5796756280334869,1.1458260097818895,0.8074449014902618,0.5556834272252076,0.1444887934059138,0.9718871188658129,4.415256798226691,1.0213092066459017,0.3278143064444796,0.17689632285196832,1.1041438457803627,0.8569674112365404,61632.31198416247,23246.173310621918
72,17700.953125,13940.0,[1],1,0.34366302435515084,0.18976777478437024,-0.2586504173804096,0.7736827719702526,0.15883729178955042,0.6728485166026661,-0.24348810567845547,3.187192836287097,1.1717617117351509,0.34109684423332054,0.18172526632922992,0.9630393245437852,0.7254020997995306,1.2729080462422167,71571.81333985337,17609.704053718753
72,70284.0,57061.0,"[11,22]",2,0.2495536759579886,1.4034199353175687,1.5720152084055923,0.8052436191920815,2.0090954164163626,0.11580620810278908,0.2336681563538372,0.6008756342195007,3.474420033580046,0.4730133256322129,0.20096096857281642,0.13561201070211282,1.4864239387071616,1.0343441579889174,65849.25387001332,22293.0545927949
72,28011.75,22750.0,[14],1,0.23273207703909926,0.7995517852882101,1.0820454023573967,0.7674860326107589,1.1134656125978366,0.2805686805157621,0.11564434907113696,0.7040169574787667,2.281747234835022,0.3919376762262624,0.25299440662177064,0.1787042754625292,0.8274205620247456,0.6101873856623785,59813.73341544157,19789.67444019021
72,25630.65625,17199.0,[15],1,1.9894066828962196,0.39649410952644404,1.3086990973590127,1.497020336195333,1.7225524692372818,0.44500661329267177,-0.004700407458221534,0.854145479847741,5.6201981852895715,3.079422232693713,0.4267956129470316,0.19824070505778457,2.4529325626849463,1.909289064932617,74362.49023081503,33531.43460772678
72,18149.09375,16715.0,[17],1,0.4216813274870943,1.9393151069931207,0.9823443934399205,0.903417196444884,2.4273271319745624,1.1547218337313663,-0.48850733832441184,0.7974727054708168,3.3622300504949414,0.5664845396214683,0.30329954533196535,0.1063214837448796,1.8347174832817172,1.5454575850791508,66940.03385155254,20309.22320845896
72,10399.59375,6411.0,"[21,23]",2,0.20653825285693483,2.3029068186121986,1.8175974183396586,0.8258152088768482,2.9551275536484405,0.3629906588733893,0.1559903697800693,0.5085206852596529,3.7460288244147084,0.5133371229209674,0.19810153792215202,0.10855392802152775,2.253359704343924,1.829706920943426,70109.71452610815,21533.58884812213
72,25282.546875,19906.0,"[10,18]",2,0.3013396586219623,0.23253958119206475,0.8093371015547408,0.6522768651694646,0.2951160559371937,0.3641920945458321,-0.13291411216421034,2.770044647328974,0.8052312752201213,0.3495351285453212,0.18228046303681156,0.8589632013011688,0.6574153106676269,1.1094367041486781,70936.35023666888,18690.550534181384
96,92247.51171875,62314.0,"[0,1,7,10,18,39]",6,0.40535685152448964,0.18353309966186027,0.38310815002173637,0.6401782462829324,0.24388132415165886,0.2727447395316396,0.06271966513887461,2.9186999847982076,0.7077802994101786,0.3539551500341106,0.1951972633786756,1.0552531444543942,0.6483592489719522,0.9925446217933209,70759.22076793818,15385.169294073476
96,59159.0625,51101.0,"[2,21,23]",3,0.0884655289358931,2.7956834168834988,2.0249129842152116,1.0075472421471678,3.3859713668579094,-0.34256731591518297,0.9267505137273573,0.8052476670621265,3.774299881396876,0.49600950898127893,0.0304927314951291,0.13212215541918448,2.562894332737359,2.1539743658439976,68358.40961813758,18502.592054260396
96,21559.75390625,19469.0,[4],1,0.6776388258586166,2.9780086679759936,1.9317886516788403,1.0023061247593565,3.44514160044204,1.6397676630195794,-0.7647747250445076,1.3319315855167795,3.8403776774062384,0.6592849140950438,0.22056299848712468,0.06716812016965634,2.664936851865361,2.2813703007308734,67957.54702818119,18856.470325115468
96,14958.8046875,9930.0,[6],1,0.2277824523822518,0.21125162468593617,0.6961821734722555,0.5885163524324892,0.2859099242756433,0.1951096661777285,0.06897037191777056,0.6277217557121797,0.7021964393957981,0.32071319254912123,0.2067323939342276,0.21649501368184987,0.3661064969342933,0.3750315888826438,71355.83113415146,12945.669911167595
96,52825.97265625,38555.0,"[1,7,12,34]",4,0.4233817451814217,0.16464260757067395,0.2371330006391852,0.8162471872693087,0.2898667893231228,0.20012289955683893,0.04780308117581411,3.372754500038507,0.8171826153442802,0.3889806874013426,0.20396166112979186,1.3449889879323669,0.7401388414714279,1.4614929863821002,72262.59007269514,15225.492363079826
96,42767.984375,20680.0,"[11,22,33]",3,0.28779544789372413,1.565589358071604,1.64240621102928,0.8540237594543387,2.1820722901664813,0.08465284192907241,0.35722702662650185,0.6752191285383864,3.4478108013400575,0.5144836930889088,0.21661577798858866,0.1504003535247027,1.6378045505308236,1.1698205792971421,65181.80178441038,20536.480420700154
96,26746.6640625,20339.0,[15],1,2.225063112604449,0.3708186347437361,1.4082623736088054,1.7505678044805908,1.7166513898560147,0.4311175667225402,0.1217483694580257,1.0899311296633791,5.726136367740116,3.0251321589348636,0.5411627805729529,0.23710904783131348,2.5109403333708666,2.1132923166123496,72174.43894083792,30023.684397557543
96,5633.29296875,3111.0,[18],1,0.46170339054921095,0.32674155478693523,1.1980423079126918,0.7518129236743389,0.2948548834197946,0.6716535097290595,-0.054066140223125725,2.3326740506815096,1.4560010201598685,0.46772125190361946,0.3110812520728161,0.7339852255861663,0.6307926776516307,0.6329740723523578,69673.64881913675,19959.452867751243
120,80054.34375,67431.0,"[2,21]",2,0.006228136880688462,3.024356449250214,2.2171438959112897,1.1079437527960327,3.640673650840361,-0.4784843093201062,1.0507521191201263,1.0935851841009927,3.854901561590576,0.3542939237791555,-0.0035469972399089222,0.12098378247916652,2.720540000422548,2.325551535270528,66368.03350068079,17273.83047765593
120,36816.9384765625,31427.0,[4],1,0.6873962590295049,3.0669308059099967,2.1186093956162204,1.1006376494865577,3.563728119706513,1.6912241113467361,-0.8084112941483919,1.4318106646343036,3.909741536972677,0.5704593762153384,0.2397315613211748,0.057503677951076804,2.763719432001483,2.37751550563934,66402.49392426523,18046.154906672928
120,35733.99609375,25042.0,"[11,22,33]",3,0.28962736640274267,1.6234006525529558,1.7620781011583664,0.9152547414582544,2.291462239597141,0.01658679742046254,0.4749943647148105,0.6920530949820836,3.420110414135668,0.49185010598013756,0.23544770461790598,0.15180510612787668,1.668089208249146,1.231596352245942,63428.91391480643,18860.747806355073
120,28419.666015625,21733.0,[15],1,2.2899119942821917,0.38555131998655057,1.5154099145998305,2.055688538674151,1.7698663374359,0.3542974790276161,0.21014083516072812,1.3353424163474439,5.73790777151805,3.0780480179404712,0.5906491887536407,0.2602777824364325,2.5450554980711977,2.2392618248780622,69212.08542637598,28677.321038076814
120,15479.421875,13313.0,[23],1,-0.0050444781817731155,2.7050626574257377,2.2416791912045952,1.061259337017304,3.3393234468485313,0.5629193395261742,1.0754495130517916,-0.2914395367883138,3.7477083169388625,0.45088086940273064,0.1857937261887117,0.10283423351408827,2.5940341756707763,2.105516164776288,66402.96990258206,18134.97786072827
120,20535.4248046875,14203.0,[39],1,0.33569472735463024,0.1588212682732708,0.02182409786709405,0.5766399804765134,0.15322891578891307,0.33424046408476893,0.0777066038117713,2.7030681409568302,0.18037729821110182,0.3112192763770216,0.19851929900776355,0.9185133512659533,0.5231350684708017,0.719478877368362,70084.25744175418,13125.714177506246
144,78212.5859375,58199.0,"[2,21]",2,0.030614721070662432,2.960381628945563,2.174660104814073,1.2548477176157737,3.589828099097119,-0.46606053257786395,1.1261324608600018,1.0771360124482205,3.724947974822198,0.41732180784523587,-0.07383536447311245,0.15574686863600484,2.667415290533625,2.256580382794891,65900.34777890537,16854.55335523341
144,39880.078125,29068.0,"[4,5]",2,0.6838604209338537,2.8165342643558775,2.1107203009154722,1.1892153642493999,3.4435844161711455,1.6355984567035764,-0.6965512587520208,1.3554710858128396,3.7289666743092957,0.5832486586428235,0.17309325820638488,0.0887708806557801,2.6294459433908255,2.1907757777101446,65980.9702647587,17921.0046208848
144,25428.91650390625,18324.0,[15],1,2.3063192166940816,0.3058477430322566,1.7036398814620317,2.188958033967572,1.5992825312202825,0.3202164057514929,0.3127227778523869,1.0665090505569554,5.587089899600173,3.423026155601643,0.6066954403985192,0.283505360518417,2.42733866777697,2.2097899867071193,68220.01998194287,30688.523099730653
144,23718.0419921875,18009.0,"[23,33]",2,0.14463255351632198,2.5268784090015677,2.157080019892398,1.1992650061902386,3.216988708365514,0.528077515918173,0.9715789608191816,0.08320557222998515,3.5856338886057926,0.5156307611743322,0.14561480704335095,0.14388771739543804,2.4837604542866476,1.9604316594061044,65907.23440682402,17797.361249625683
144,18564.825439453125,14655.0,[34],1,0.3107960948732318,0.06831272603421734,-0.182306877056293,1.3179286517315432,0.42962385431499417,-0.32702097085958637,0.4201474983732605,3.811880198486434,0.6049428616531668,0.3638680913508665,0.17133120648648736,1.6672589054947742,0.7862628749757327,1.862066031312658,71473.05188190282,12903.084261079635
168,52420.146484375,32867.0,"[2,21]",2,0.05004394919909361,2.8384924862004404,2.1879980527590557,1.329146370449259,3.546326281953147,-0.49013839340832566,1.1322466519756125,1.0091690029855958,3.5568117646323176,0.4820098101681862,-0.06840653009885189,0.14765993994750737,2.5472707301431656,2.1042114892493493,67312.5307374702,18605.887089123433
168,33523.01953125,23553.0,"[4,5]",2,0.674717076791798,2.4593413408421627,2.086613287294329,1.2749070393133457,3.2826559276425473,1.5765414684482815,-0.6240660423435975,1.2239799603478358,3.533426284760068,0.660993867201853,0.19321648868793817,0.08132601436463194,2.396332764120091,1.9013273990710415,66729.2350602601,20330.067387113722
168,45848.128662109375,41776.0,"[11,33]",2,0.16302644665631294,1.3728332553821407,1.7064354844106506,1.3396585972684694,2.429458419628673,-0.3137648578496792,0.7514596917632343,0.6523940961733432,3.457990248867874,0.5960680021007624,0.1441492625397749,0.1554837190219256,1.6759472461506268,1.2434769478666303,63576.15317908969,21520.11674225771
168,39155.9951171875,36121.0,"[14,22]",2,0.2929733539961248,0.7874483046508307,1.2838420729717086,1.2733442953068796,1.400665568058737,0.5271343288573744,0.1735978244050358,0.6316805482939927,3.064762990519099,0.6325834599177028,0.31170378037970803,0.16783360895138666,1.1062442239175505,0.7834211684233039,59489.34669671497,22356.971215819216
168,22558.229125976562,16201.0,[15],1,2.106962430239501,0.2937689112080091,1.9668208469659683,2.420475735712945,1.5973688072724164,0.3996336807696399,0.3526911413253444,0.7986275719920171,5.271365709742555,3.359897811441779,0.6702806018087282,0.2775009829583478,2.3968232600820487,2.073942700134757,70058.4749440296,37940.47698084789
