time_in_hour,cumulative_size,size,pcore_ids,pcore_power,AF700 CD48_[R 730_B-A],APCCy7 Ly6G_[R 780_A-A],BV421 CD117_[V 440_F-A],BV510 SCA-1_[V 525_E-A],BV605 CD11b_[V 610_D-A],BV650 CD150_[V 660_C-A],BV711 CD11c_[V 715_B-A],BV785 B220_[V 780_A-A],FITC Ly6C_[B 525_B-A],PE CD115_[YG 582_D-A],PECF594 CD135_[YG 610_C-A],PECy5 CD3-CD19-NK11_[YG 670_B-A],PECy7 CD16-32_[YG 780_A-A],PerCPCy5-5 CD45_[B 695_A-A],_FSC-A,_SSC-A
-1,0,0,[],0,0.0,0.0,0.0,0.0,0.0,0.0,0.0,0.0,0.0,0.0,0.0,0.0,0.0,0.0,0.0,0.0
0,126502,126502,"[0,7,10,11,13,15,17,23,27,37]",10,0.1808709802389154,0.41433359955408644,0.5029539354923528,0.30083076861855806,0.5209482350535115,0.2744862628283895,0.2453699974720811,0.3242687340361979,0.5803841219168953,0.14098283163298828,0.24466252987168619,0.09103743421281434,0.3446433901306541,0.38351374300205354,0.18935652345305784,0.07117407823486797
0,136302,136302,"[2,3,4,9,14,16,19,25,28]",9,0.16721882263150803,0.23314476153461325,0.32858304170089325,0.2884169740878207,0.25466571511675806,0.22525669308860782,0.2500049376112557,0.493215115357904,0.16706465662719658,0.09990810322477364,0.24875295073680465,0.21998105605544732,0.13871599512246038,0.27409556177473104,0.20030607720652127,0.050378137968937704
0,3361,3361,"[24,45]",2,0.24809518162481553,0.2559914587255298,0.6148595861277706,0.3553229573114552,0.29588060642844227,0.2742906704903107,0.2787034482714989,0.3324679857649251,0.2753843377881126,0.1996994557025071,0.3059401163925013,0.10822269439594359,0.17819113402804532,0.25509206711142773,0.19068702324078612,0.11206403476085913
0,38387,38387,"[6,8,12,18,42]",5,0.15192503273713978,0.3610229718187712,0.4638455885429034,0.3013731014161068,0.45332123198098756,0.14182538690959134,0.3263561134773908,0.27324520415673736,0.5255227162110776,0.12954844548326036,0.24743210562433343,0.09631467723458101,0.2763153288232236,0.31284140393042487,0.17115207475580888,0.061808038861637236
0,7921,7921,[38],1,0.21667566598130533,0.28817688685908793,0.6454479225230484,0.34029489870610025,0.5536238521559378,0.1355937379622211,0.329237717471207,0.3337625830682385,0.702686629290931,0.14836246955575896,0.24603559483091653,0.10103195379365232,0.35399648720830135,0.36291202696299696,0.23571747300685184,0.12330239457153243
0,108,108,"[4,21,50]",3,0.1958274315692148,0.24469207777481533,0.4198421453696793,0.3740226986962005,0.2656750640506202,0.2607394295988427,0.26711989461060537,0.48097759757146274,0.27967071841361113,0.12146323810495206,0.27178474771867006,0.2602094847609868,0.15011699077348364,0.4137122656413194,0.22245068744930124,0.06796073740239987
0,2642,2642,"[7,29]",2,0.22563357141414092,0.3161256438005886,0.5208039066926663,0.31974965338428396,0.3930374853032504,0.31628897710504494,0.2428175350757675,0.33240011512122897,0.5524978496057247,0.16343095758597334,0.27483713874031745,0.10660924892990421,0.24986361148329364,0.29573760443855246,0.1838233210846012,0.08847573024942411
0,1172,1172,"[14,16,19,21]",4,0.17849547483249936,0.23581662099584041,0.38822105091847464,0.33684266219058323,0.27388635024577457,0.1951334858402813,0.25186931987844785,0.54451339439448,0.23727476708308495,0.12117969047291212,0.2555844872707362,0.2995485325950765,0.1511145635757855,0.4451730098483952,0.2285421502179588,0.07108145152882908
0,2607,2607,[24],1,0.24578061849205987,0.2567227132483075,0.6102023352230437,0.3516462244627576,0.29602439520049634,0.27254371763009533,0.27908146420921026,0.3326046761621767,0.27164333157339327,0.19795361315701773,0.3032066369509619,0.1076281657065849,0.17587023008221783,0.24917434420863988,0.18725225180675747,0.10885440166386927
0,25398,25398,"[43,46]",2,0.3496491813053245,0.2507590751894428,0.4784914990133315,0.33053285644087793,0.40066374137655625,0.2686323978819445,0.25186861632223917,0.328814784233342,0.7720936968113953,0.4465601047846835,0.28319057932808367,0.1070877804152795,0.3680437393634101,0.41181345962347765,0.2276006508680117,0.12130295805942166
24,122028.0,92321.0,"[0,10,11,13,15,17,23]",7,0.1732701683927214,0.4199031075214309,0.5137703741050117,0.2963832313150278,0.5310297401186485,0.2829753287848926,0.23842395987314918,0.32945569498257854,0.5851642048080663,0.12278728666124934,0.23527172704080984,0.0875718909899105,0.3357515087269504,0.3668634341117559,0.18299710950003667,0.07233296021982247
24,163138.25,132716.0,"[2,3,19,25,28]",5,0.1623951710350973,0.23170642827627755,0.32278547724661866,0.2872901711259014,0.2488925389524062,0.22616522145461956,0.24775063295661895,0.4866930981218633,0.16039783537252758,0.09408508429382727,0.2448299097910997,0.21255791969544197,0.128286012457668,0.25953828142984525,0.21204292655370513,0.05161152716381336
24,13126.75,12475.0,[24],1,0.21580212844663996,0.254274341762345,0.5817544887152771,0.34147904860992,0.289795736972575,0.26235923723580473,0.26892938498176566,0.3289449141751391,0.26014603191876334,0.1533874600792487,0.2804406407102685,0.1042432051108091,0.16226801144025346,0.20856205283533738,0.1787777049479324,0.10572982810151356
24,49606.5,38100.0,"[6,7,8,12,18,27,42]",7,0.1496370461905794,0.34435545652228944,0.4501752177001644,0.3143246990452962,0.4332844580132744,0.15961993371512379,0.3234793813623359,0.28991051573939786,0.5442957200903175,0.11681924609712334,0.24247940624657924,0.09984733301290234,0.24858231163717423,0.3105995789587433,0.1663783580325819,0.06643528308397993
24,12919.25,10939.0,[38],1,0.19770254394669853,0.28715157588818047,0.6189129264200081,0.34455605353324903,0.5586590854117239,0.11489140622755646,0.3358032487151279,0.3362612530213992,0.6975157569856948,0.12189586243128787,0.23468567401473175,0.1021631424123803,0.3434556586392388,0.36725339812749275,0.2381166718980094,0.12480677495915675
24,21.75,13.0,[37],1,0.2929188636217716,0.2958902281069938,0.5730933119231684,0.3800479210254044,0.511030914289925,0.45086225149722126,0.14432421848819604,0.3658127764922839,0.6773391721536973,0.2865238089454446,0.30089673508862086,0.1259111860202144,0.33060286220407004,0.4956180501022206,0.3116577281084992,0.19191143036393674
24,2674.5,2117.0,[7],1,0.22029053059162684,0.26432787474398806,0.40860868370583237,0.3755239928173377,0.2955408755708202,0.2931075589523412,0.2840942890075562,0.4005778084572786,0.5772457898812146,0.1369950337421606,0.2744371655986998,0.11859538053309839,0.161505856017805,0.3183605977636337,0.1595972352423513,0.07706776560428602
24,801.0,698.0,[29],1,0.3136440908763365,0.27260099949872746,0.6739994904081462,0.4002879948472441,0.36008293395004126,0.3616082054092129,0.23494714885391876,0.36275795136820194,0.6698309201921809,0.231886073977966,0.30923339594545,0.1339947406091317,0.28184204507125665,0.3918955609722078,0.26224046944369184,0.19823961910406185
24,7970.75,7625.0,"[31,40,45]",3,0.29846394833250284,0.25621857181064545,0.6798703431753745,0.40732958831026517,0.2999193589188849,0.3079920913974193,0.2881232916348037,0.35326583938759054,0.31457106592646794,0.2135166995481471,0.3232012506774513,0.11761469342892651,0.2010151899512038,0.3165347867427722,0.2118207076798087,0.15372501244731673
24,1180.25,960.0,"[19,50]",2,0.1764657889753085,0.23374975364318473,0.4022921156751439,0.33276202463345844,0.2721014774737827,0.15725227971004496,0.26041564301436404,0.5203838678403799,0.24947160415110048,0.1098260348972466,0.24751096641748235,0.30068055487466716,0.13797840484149457,0.42982382002992087,0.2427014900244275,0.07004697896240682
24,55.0,30.0,[23],1,0.2396199133602072,0.3304640855783168,0.5880532161249451,0.39639881155292783,0.5839539741961488,0.39544969249346634,0.34339250758844225,0.4001295886238761,0.6832233147775196,0.24101884289017086,0.30658145987845564,0.11717124935699476,0.36668250557086945,0.4512359736051001,0.23811024018953036,0.14473642281604227
24,27698.5,21349.0,"[43,46]",2,0.34657202535816506,0.258165219730784,0.478885200625935,0.32958879926161255,0.43831538397360725,0.2526045234560051,0.26660669503186113,0.3538003999624311,0.8057440686215668,0.42345439241260635,0.2695477424194007,0.1088819996906858,0.3738657093800472,0.4323112740775214,0.22072844220109952,0.11872600902725981
48,119848.375,89341.0,"[0,10,11,13,15,17,23,41]",8,0.1777663787452002,0.4089818036767546,0.506254493641884,0.30092405967224284,0.5228015750312694,0.28809181844075316,0.2451263535360338,0.32614016923148137,0.5745917446739849,0.12195848707834239,0.24260810242353265,0.08876378320149007,0.34079049696146246,0.35724526799858247,0.18474608584774252,0.07989022372738172
48,177762.9375,133597.0,"[2,3,19,21,24,25,28,42,50]",9,0.16479308290582745,0.23643519225151555,0.335015121051098,0.2890101517564655,0.25689009221381204,0.22736008786800982,0.252530827552232,0.4709327446644005,0.17768307964361202,0.09857547566396203,0.24686627247081136,0.18771486770863882,0.13615933679092776,0.23566027917590654,0.19603219290736898,0.057620360648732306
48,6746.0625,6745.0,[31],1,0.19687106093234802,0.24821551882860074,0.6213580196067638,0.320592491940342,0.2693787473954499,0.2534067091749909,0.26273946535055237,0.3297629134819558,0.2237155339783427,0.12315682103072603,0.2686517018050769,0.1108425608870836,0.13896616077957724,0.15529620711442083,0.14055253493359376,0.10698721076046001
48,65536.9375,53436.0,"[6,7,8,18,27]",5,0.15408369511968448,0.3425603660134006,0.45451531235479165,0.29949203502977595,0.42334149206756644,0.16606795097692462,0.29721348974125134,0.29898645866853774,0.5371781191321756,0.11173100371099785,0.24278996390456448,0.09498764349339334,0.2441052957122114,0.25258415561983866,0.16560818259175533,0.0716615450894005
48,9596.8125,6367.0,[38],1,0.2030757382348665,0.2938787262488463,0.6152324741707217,0.328318226338666,0.5746209622631302,0.10197646842817883,0.3344498453645004,0.3274032800222117,0.6949149204002778,0.11532530573779055,0.23329579112493076,0.09572401597480172,0.37203577915084884,0.3583733434037656,0.21357562792361603,0.12324568461820769
48,3533.625,2865.0,[7],1,0.2243679321994595,0.26302909905125643,0.40021087056496496,0.3346112201433398,0.304237439292717,0.30417738675160205,0.25139188694124964,0.3631744480619891,0.6964232911522593,0.18690399461646293,0.26729149050768786,0.10568508554895337,0.22364891731009862,0.24387913900619362,0.1722534497016033,0.08709746940266072
48,6150.625,5856.0,[19],1,0.15733018154731526,0.23679619354894188,0.3729119941928071,0.31698480686716046,0.27906689289267783,0.15735234662497485,0.2717381165119049,0.5725564941869593,0.25242777762914226,0.10605723492727143,0.24552174225976356,0.2605772105154926,0.16098047567753895,0.38439926639653194,0.2073584295820597,0.06362955672203575
48,9146.6875,5865.0,[24],1,0.2017646271992208,0.2618062093541955,0.5374360383560105,0.3303135289539407,0.2922643541780743,0.2660167066607718,0.259352561606436,0.33917255619723835,0.289028728550826,0.14117421377763922,0.27768551459873014,0.1135305672256129,0.16129056462986754,0.2037181934380415,0.17495920979223561,0.1023183921406107
72,181926.046875,139279.0,"[2,3,9,19,21,25,28,50]",8,0.16071242352624981,0.23803642652298115,0.3087530240783528,0.30083553148407527,0.2564000047634204,0.22498295037774205,0.24831984134160467,0.49714451234041923,0.1661758980528626,0.09612036579762392,0.24548327921239504,0.19476415905758138,0.14090742072289045,0.26139326964195814,0.20302967017067952,0.06012671207692955
72,18120.1875,14147.0,"[24,31]",2,0.23003194450449405,0.26083997397397135,0.582569072660865,0.3776211803658668,0.2920521915343423,0.2765205940574936,0.26981557058720745,0.3407497660963917,0.2692852789538163,0.15953524043779577,0.2941025476968719,0.11110247774502524,0.16567779274425815,0.23458009629115284,0.1813712150797822,0.12627656686997926
72,173833.484375,144441.0,"[6,7,8,13,18,27,41,42]",8,0.16284930883860513,0.3771145637778978,0.4486313361221176,0.32095464404330554,0.4663548100463598,0.215414722150316,0.2732865850610997,0.313722606305396,0.5133270948301993,0.11712744252532599,0.251757764848025,0.09259436512707837,0.27869304717509147,0.31068705480736897,0.18686815064433854,0.0820248389826996
72,9797.703125,0.0,"[11,17,23,38]",4,0.16089126451436336,0.4074637087025152,0.5376358985029006,0.30724452886968745,0.5700954607494666,0.10999011936263728,0.3203539048708757,0.33107117270728537,0.6069657920029854,0.11099777080275137,0.22597982603241556,0.0911725271026264,0.3712023555367785,0.3929930521731707,0.19039622352405838,0.08583667124361065
72,24472.53125,19144.0,"[10,15,29]",3,0.241645760357173,0.35452371852448333,0.5181958160104395,0.3574205864419999,0.5097828177182592,0.4115825899028435,0.1835103463507177,0.350989425721448,0.5930004755806493,0.17595669305258363,0.28422891602077766,0.09691100709708758,0.339618391069234,0.387722393309087,0.23504801876914952,0.13570463261283303
72,7516.953125,0.0,"[7,11]",2,0.15055376408186633,0.43449756864901645,0.4922706622094751,0.30271059880502516,0.5332016733964455,0.11028244259796642,0.3100824523798456,0.33682534279306076,0.5836186113345279,0.11840313995666633,0.22640894710636258,0.09203797038954564,0.35156338572281004,0.3889429248478433,0.18023440390101625,0.07159622739554275
72,5372.75,0.0,"[25,24]",2,0.17567436949653423,0.24141899170377198,0.3973172950322884,0.3319821299148777,0.26730460745962054,0.254446746879635,0.2477229714603543,0.49790573777309083,0.21835598865697559,0.11744620553534357,0.2601013220287244,0.23385245840057783,0.15360166851762536,0.34264008271843915,0.2013577062716386,0.07270984678357632
72,1017.15625,0.0,"[40,45]",2,0.3229516846787292,0.24901871243971718,0.7267100342425784,0.3917118879573527,0.28871774080441637,0.3146465561910401,0.27814661786373246,0.34512392674256337,0.29984363812471615,0.19988974886097724,0.31406427403305825,0.11089658616354846,0.21116938351506875,0.3231905853247349,0.19494375940058611,0.15503881955841084
72,7533.0625,4415.0,"[27,17,23,15]",4,0.2542268364543718,0.30728498377114577,0.6115631186077028,0.3692619003565492,0.5464577587170757,0.3893506436300901,0.213572906726505,0.35112712687154646,0.6669165333520167,0.16711596841264262,0.27840058879562024,0.09486454412140422,0.3665773242018473,0.3831214312191594,0.2579949906072393,0.1680267676028893
96,72941.0234375,43913.0,"[3,21,24,31]",4,0.1737847536889838,0.2427759825730678,0.36592060114594743,0.2952515928193293,0.2598390419313888,0.22480325095914486,0.2615285548778181,0.4220655689512626,0.16453597144084556,0.10707327904708831,0.25598359301871987,0.1519891265674072,0.13353509935031266,0.18248396882090165,0.19529650406168247,0.06264662620291013
96,69802.1015625,43857.0,"[6,7,13,18,27,42]",6,0.2011558153080848,0.34392060819200543,0.45388079879081844,0.34958650161059385,0.4178028381530645,0.280068716157514,0.26597510285484943,0.3388578290473499,0.5096620856089361,0.1439901832004861,0.26562236328697475,0.10125025364275814,0.25755243707824804,0.31119955943271727,0.17615765088414756,0.08135793863806068
96,122056.6953125,102094.0,"[8,11,17,23,38,41]",6,0.17630703848851323,0.4544856271480817,0.5182145216170497,0.3458609187139317,0.5791974044439492,0.21108969601470848,0.31693121800832846,0.342054771101858,0.5695231881972479,0.14385658038143764,0.24555187516663643,0.09351903512875674,0.3920298744748282,0.45684667972004817,0.20204944056840446,0.08323378528580258
96,91159.8125,73356.0,"[9,19,25,28,50]",5,0.1887548895403054,0.23541916250883832,0.31681059712517146,0.35441244360205576,0.25999767894102993,0.23254488031845105,0.26251672688441874,0.584827752534336,0.18520329814890127,0.11648670023228962,0.25666194031849765,0.29550407163665204,0.1611884871429882,0.38709418007437196,0.21642984255622685,0.057849387854331885
96,5342.15234375,1812.0,"[7,11,15]",3,0.24076690572418996,0.34262400727141673,0.584785403792127,0.3635350175671821,0.5172558550432238,0.28181859035077256,0.26250062988258066,0.35507510911048673,0.6414947978224103,0.1797771223399467,0.27432364546600135,0.10221341109527958,0.36096680117522656,0.40565489244882286,0.2323328765575359,0.13724840560987508
96,771.51953125,0.0,[25],1,0.15634243553901803,0.22631280342128088,0.2934943921306649,0.33321850266158914,0.248810341107173,0.24587382663756993,0.2391058672822732,0.6155212637697861,0.16599005360973562,0.09986461268521908,0.2470720735891969,0.32300661242790113,0.1479044755829322,0.4455761602162662,0.22091803397453408,0.05077098937775731
96,3654.15234375,1812.0,"[17,23,15]",3,0.28520949079503305,0.29478095734381166,0.6321834067054382,0.39239614901626424,0.5139833099973864,0.3739441759429304,0.2398588699119476,0.36278737505207576,0.6724293771923394,0.207809612136424,0.2975101855457151,0.10655351435452867,0.36738352775637456,0.41233999486596395,0.25725579651934233,0.1695803569721214
120,229266.7783203125,187430.0,"[0,8,10,11,13,15,16,17,23,27,29,38,39,41]",14,0.1817027709480825,0.4449710915433393,0.5235661654607143,0.3592262250204516,0.5598507824307134,0.24643600995160775,0.30457177360208276,0.3593036216219007,0.5569911105576693,0.1339764289174829,0.2520990439772671,0.10071800648072848,0.37773447095266355,0.4608382174156058,0.19168063369170127,0.07938755385657184
120,154310.4658203125,108936.0,"[3,4,6,19,21,24,28,31,42,50]",10,0.1823236437514601,0.26575256214595777,0.38676793249118624,0.3300295338687909,0.30026228827052376,0.2273643885194541,0.2723668235345303,0.45262729190173945,0.23999636454936993,0.11908862278845532,0.2609458325407697,0.18942378899473264,0.16948796772403069,0.28540437644223576,0.1938498499476045,0.06198474137989694
120,2476.9873046875,2298.0,"[4,7,18,44]",4,0.2637686722154218,0.2956703336115596,0.4821749459759597,0.43172478733329445,0.36535764185015995,0.2840301716579134,0.32732303963924336,0.3983677335797137,0.5219109900893126,0.1919075659388857,0.303496203223107,0.14918362473065,0.2612420162481144,0.4304644098932832,0.18156607132464336,0.091116242833381
120,15489.2744140625,10911.0,"[9,25]",2,0.17379323741731906,0.2333363208457726,0.2849731188257252,0.40798805560334744,0.27248490981564416,0.2584890539172132,0.26431730449275914,0.6157952014518832,0.2084248498053281,0.12464146089697116,0.26123533820850503,0.3324506577367258,0.1705301681574059,0.4825732422793765,0.2137991614398705,0.05363032237670467
120,5937.388671875,4247.0,"[10,7,49]",3,0.24067644882560618,0.3781823404288925,0.5184652287836311,0.38594733523535873,0.5037547812713381,0.3931956458995331,0.23909089951609114,0.3738639697692922,0.5907164067944278,0.1843296111315286,0.28477850091671236,0.10752400560780564,0.3489066269118644,0.43863508819107533,0.20719903877649942,0.10814967056981055
120,7043.1337890625,6175.0,"[15,16]",2,0.25266410922184473,0.3505959251151905,0.5883726102296176,0.3992565149226916,0.5539376400745373,0.40477908347625996,0.2543958766898655,0.3783987797923659,0.6308019842168866,0.1822744606758414,0.2882310913381845,0.10597719300788472,0.381266390569635,0.46134915223687434,0.22678778453762682,0.13242990420422232
120,7789.046875,7190.0,"[24,25]",2,0.19619996560473835,0.29016140132148793,0.4439935799100688,0.3627553880629382,0.33887078261289094,0.24214429086824424,0.2804509086067817,0.44161349527178234,0.3210220483010844,0.13657041677895693,0.2754518122230894,0.18775045938501492,0.2067429622461628,0.35756919160133627,0.19072334167130917,0.07268276934960156
120,19267.6611328125,19051.0,"[23,27,29,38,39]",5,0.20659529964738704,0.35720171746833723,0.573018222408687,0.3909626401386163,0.5717502929634579,0.20568992786223045,0.32953559684564865,0.3632185167066603,0.6269324091490638,0.14676755561548338,0.2580578113242829,0.10485288797181175,0.37802102214551475,0.4619417252604653,0.20761920962082114,0.10356971307338711
144,219328.91918945312,155703.0,"[0,5,6,8,10,11,13,15,16,17,23,29,38,39,41,44]",16,0.18320635944346383,0.44057138819358416,0.514734694523834,0.38252451708731994,0.5529090060549082,0.24644727392480908,0.316083455531414,0.364364665546117,0.5378225766800693,0.14298608198263002,0.24678121164653888,0.11172382788670851,0.37185899528825234,0.4617776415718345,0.18911198287286704,0.07636264245108479
144,149939.35009765625,111032.0,"[2,3,4,9,14,19,21,24,25,28,31,42,50]",13,0.18687605056530784,0.24247492842144072,0.3542060665415348,0.3856585158339485,0.2760173944985389,0.2329561025388813,0.27593423459741917,0.5166118588830971,0.2060338875774485,0.12247026589691258,0.2593285712886509,0.25232544242239713,0.16648786650800193,0.34254840577007123,0.2009670891709308,0.05753120998020189
144,3276.24853515625,2872.0,[45],1,0.2646804383897019,0.27182239487272364,0.6288861108329747,0.44647914468137206,0.32705479199887244,0.2814878334242017,0.3197594344617238,0.38369792575205675,0.30377107825822736,0.19336571132449643,0.30712650293049903,0.16000442722644037,0.23632434134448432,0.35626752275484763,0.18570346913111924,0.11107309265319343
144,8977.391845703125,3405.0,[6],1,0.18943100580035488,0.34523846938989117,0.4567439317136475,0.3708103256818083,0.4198539131745466,0.22560842767553244,0.29938665811419346,0.35836018928535646,0.4696351012361927,0.1389127787953521,0.26309276410018473,0.12041730183690555,0.25671801462203797,0.3301852652358658,0.17002106500243852,0.07199729019435952
144,16973.336669921875,8801.0,"[5,10,13,15,16]",5,0.23208987521315227,0.3717738370590368,0.536427121308136,0.3996845945172831,0.5043134533744211,0.36537507296957694,0.2665592043822328,0.37301359784161936,0.5632095427947993,0.1792454458688993,0.27745572298150345,0.11739169213781564,0.3458168833220392,0.4291916627472728,0.200642563154352,0.10542685622347037
144,2825.82421875,2518.0,[14],1,0.24342399074964025,0.23537820872042278,0.4163993615298519,0.48852540837997915,0.28715696904754184,0.24231610125631292,0.2695594985650786,0.3535253480825259,0.21071879098658292,0.15625133059505725,0.2632288598770265,0.2622070185801439,0.15157354888014152,0.552097116037949,0.22783737647621288,0.068192011541526
144,43139.37548828125,33189.0,"[32,33,34,35,36,37,43,46,47,48]",10,0.3520650126974501,0.26196541207555674,0.48932915063192,0.4886421733654558,0.4360133900912284,0.2802438124306327,0.29942978416248617,0.37585290778566605,0.7400677656465459,0.4162763255091055,0.3087074877960247,0.13547044748523643,0.3675495344774008,0.5256571746737921,0.23230838446376087,0.14738235101128339
144,15937.345703125,11127.0,"[23,29,38,39]",4,0.21250290399193142,0.3548202612738669,0.561485555561323,0.4184399056929995,0.5631558771075582,0.21851255980886267,0.3416006386501194,0.36928672565382603,0.6060266788391109,0.16531075785461768,0.2565831572914762,0.11769285199391813,0.36965519291666143,0.4663913513814914,0.20344986451144917,0.10320743860138452
144,16993.931884765625,10695.0,"[33,34,35,36,37,43,46,47]",8,0.34071349541588747,0.26710179970149966,0.49231142995429283,0.4886704689119206,0.4502530939266912,0.34196874865117216,0.28699944928769006,0.38477174170492007,0.7304326108272357,0.3839432007902891,0.31457045346921725,0.13797945018509936,0.3676402847250598,0.5332465802875985,0.2421662513891281,0.15606686317060695
144,16294.186279296875,11803.0,"[25,28]",2,0.19356827240899363,0.23803490717331935,0.36401500073789717,0.39974426009211217,0.27385611966056256,0.23290816956697835,0.27521382900521796,0.5590463215937135,0.2456888354063599,0.12561950596453814,0.25911940890373997,0.2848595627923496,0.1744175899310546,0.3849141630237012,0.2072520965167287,0.0600700923201201
168,251025.97845458984,195589.0,"[0,5,6,7,8,10,11,13,15,16,17,23,29,38,39,40,41,44,49]",19,0.18193470408895027,0.38212037101840524,0.48848446427217995,0.3987788327966002,0.4955931208393948,0.2469347997220824,0.3066560198249885,0.3550115526420936,0.5093093396127895,0.1553884651115217,0.2549981678912346,0.11289628094148821,0.3150537329519034,0.3843142497913002,0.19001515929753474,0.0897266891209808
168,71047.12994384766,52660.0,"[3,4,21,24,28,31,42,45]",8,0.18079060432463806,0.2577279402616424,0.40649497757927067,0.3777269783236723,0.30092919981733446,0.24258298905547362,0.27785232453167524,0.42236519625315305,0.24775304685307667,0.12624790613704648,0.2634599511510928,0.16735351299954798,0.17155890961960638,0.2558000003900882,0.18929188578116238,0.07036417594265412
168,21331.278747558594,19678.0,"[5,4,27,35,46]",5,0.2410919221431097,0.2682155282718425,0.4722831555822352,0.4892036246556746,0.3939484341856893,0.28292877172049574,0.2966288570271745,0.37541479240269715,0.6545490331443219,0.24897719436431778,0.29460839734110067,0.12726021787496614,0.28665157647686285,0.3947732490299845,0.20295107490709516,0.13556559812946353
168,3516.682861328125,2880.0,[18],1,0.23757221111767682,0.2576763050249762,0.42059318475275814,0.5304048288842056,0.31835694641819723,0.1735855886821347,0.30253176117118435,0.3776520917950161,0.590125157753178,0.16166633210444117,0.27682660416027727,0.23068396293925628,0.1749487799354551,0.5219459899675232,0.24467849490189375,0.09005028057127894
168,54096.06799316406,37307.0,"[9,19,25,50]",4,0.1648383760762684,0.2297617032179033,0.3036216250181067,0.4413880381859057,0.2703579047899389,0.2362812750095278,0.2845052049458076,0.6038782077652658,0.20176510134957718,0.12241038710235398,0.25547003329573253,0.30223994308814933,0.17203516328961774,0.42158911022613577,0.2117290524910257,0.05596241013462101
168,6561.076110839844,3297.0,[8],1,0.16968086859927764,0.39421684052832934,0.5024315523142072,0.39507888702267924,0.5317566235382973,0.13433484358137548,0.34654768334380426,0.34791315966451647,0.5401751049394165,0.14655332665674317,0.24415809406645944,0.11392599531658008,0.34025573543459325,0.419982737920223,0.19325740380914935,0.08423950708079876
168,9248.156799316406,6504.0,"[10,13]",2,0.2191775175648237,0.3780515884533438,0.5081429904783646,0.4081009639875714,0.5010921130006025,0.388461588549372,0.2531581737941583,0.36643947309281394,0.5339245330859356,0.18612456810023756,0.2778490748804341,0.11375659149850534,0.33505480282068156,0.40646155393048006,0.2095742814264228,0.1090830309805984
168,3273.9830322265625,2306.0,[15],1,0.2441377496547731,0.36182761220465437,0.5614458304649075,0.4364209312806713,0.5743556465823281,0.4344019048889283,0.26208878022408405,0.38547033391046026,0.5840330020133955,0.19293120700023395,0.27729718071278964,0.11397469594490431,0.3729199278975514,0.44798029414830903,0.22528116519315264,0.12701082996690663
168,39791.560485839844,30173.0,"[32,33,34,36,37,43,47,48]",8,0.33869468510636386,0.2583150884970424,0.511112833004626,0.5147517042747967,0.4529518045724326,0.2832823286270506,0.3130843579761452,0.3583225634724231,0.7132795707751142,0.4193773959600935,0.30923102021266213,0.13542680753753983,0.3702152129258548,0.5136806178540713,0.24330160748969307,0.16462481747045205
168,9330.421508789062,6514.0,"[23,27,18,29,33,34]",6,0.23429731243162077,0.30621926500320346,0.49613010448108225,0.4836772501533313,0.4451585721872584,0.28101384896726767,0.312937970414899,0.3770934862468345,0.58580188009081,0.1860178685832352,0.2774198088058971,0.16850948568469154,0.28038777598195314,0.4814908999504028,0.23271511967226172,0.11220646456713192
168,20677.062072753906,17097.0,"[36,37,43,46,47]",5,0.2971332860900877,0.2635454413114909,0.491776568451634,0.5102519099466406,0.4501000778470511,0.3163217235325244,0.3046240799179222,0.37114649950817646,0.6974321690818458,0.34464401268206946,0.3052977801081858,0.13294549730085528,0.3419273211439992,0.48331904399081155,0.23255959951975447,0.1538569459627076
168,18857.74053955078,11659.0,"[19,25,28]",3,0.17170038137843233,0.23604294685950328,0.34798693349705767,0.42395455496736295,0.2787020497126381,0.21837707348545715,0.2891407037206568,0.5776954676438655,0.256705497766932,0.1229504915271415,0.2569143938443971,0.2768848601319856,0.1738869647210461,0.3955323916324706,0.20923003752411523,0.061415441415960816
