time_in_hour,cumulative_size,size,pcore_ids,pcore_power,AF700 CD48_[R 730_B-A],APCCy7 Ly6G_[R 780_A-A],BV421 CD117_[V 440_F-A],BV510 SCA-1_[V 525_E-A],BV605 CD11b_[V 610_D-A],BV650 CD150_[V 660_C-A],BV711 CD11c_[V 715_B-A],BV785 B220_[V 780_A-A],FITC Ly6C_[B 525_B-A],PE CD115_[YG 582_D-A],PECF594 CD135_[YG 610_C-A],PECy5 CD3-CD19-NK11_[YG 670_B-A],PECy7 CD16-32_[YG 780_A-A],PerCPCy5-5 CD45_[B 695_A-A],_FSC-A,_SSC-A
-1,0,0,[],0,0.0,0.0,0.0,0.0,0.0,0.0,0.0,0.0,0.0,0.0,0.0,0.0,0.0,0.0,0.0,0.0
0,119927,119927,"[2,3,6,7,17,20,24,35,42,43,46,47]",12,0.16768834097037363,0.2341064543852691,0.3180531998730347,0.28897248915471635,0.2612962890369133,0.22319949396824446,0.2523476781292805,0.4952924688563297,0.1667009543690999,0.10520423662324672,0.24885488771617836,0.2192165829180037,0.14626835438444613,0.2824582014629292,0.2002489343571633,0.04990661799648694
0,134252,134252,"[10,12,13,15,18,19,22,28,31,33,36,37,38,51,53]",15,0.16301863071320843,0.4131619604968683,0.49461874707764436,0.3002504359663683,0.5092395144595325,0.21921940373991972,0.2723339487048262,0.31353124260587006,0.5521129002307185,0.12779126554451076,0.24322147793577656,0.09355365053178576,0.32760319983826264,0.3638150727662423,0.18760330317734308,0.07057252408720634
0,26016,26016,"[3,6,7,17]",4,0.16516590559178493,0.23802475377505034,0.36476364346343504,0.28486036876421184,0.26420730224772426,0.22871187554205627,0.2513421293400088,0.38497705676972216,0.18204710621667292,0.10741356994421677,0.24978181213955705,0.15576069780953325,0.1310977263358339,0.21634152075340554,0.20243038469683286,0.04554179054559718
24,144425.875,129435.0,"[2,3,6,7,17,20,24,35,42,43,46,47]",12,0.165935394611316,0.23295051476207196,0.3238919685944408,0.29690763864645575,0.25664000885599353,0.22868302386218317,0.25195693221900767,0.4898564237976815,0.1654364261034069,0.10190339103861004,0.24722093478364116,0.21455093604131734,0.13746509312157434,0.2807021303747735,0.21246813048065905,0.05416769489087056
24,20358.5,18593.0,"[50,51]",2,0.18226683951868874,0.2782950022659049,0.5146509088258715,0.3198738035496996,0.32824146176227775,0.2368669914152528,0.2699782673444966,0.3261213881283446,0.35507089074252524,0.12770838068140503,0.26259587645388766,0.10721266468177368,0.17031337016428338,0.19801934224133017,0.16643956599713366,0.08828035474878956
24,132066.25,115823.0,"[10,12,13,15,18,19,22,26,28,29,31,33,36,37,38,53]",16,0.17080274862721997,0.3992247509351813,0.5119003646342624,0.3075609001831975,0.5131755461862182,0.22421983823337271,0.27270742038692236,0.32142984219475396,0.580878821129616,0.1345145868384237,0.23908811200642438,0.09490642710892068,0.322780239215379,0.36499753573231963,0.1902373694453694,0.08365628525701474
48,129585.96875,112572.0,"[2,3,7,17,20,24,42,43,47]",9,0.16205353293044195,0.23479377438913884,0.31305438108080547,0.2892586289781103,0.25382668995442736,0.22976330119156116,0.2501669333054859,0.4819360819018822,0.16426473263734567,0.09674171589211517,0.24617014632507978,0.19338793743205682,0.13650150944865785,0.24267940723555265,0.19756083533560848,0.05580582796854739
48,31594.96875,28161.0,"[35,46,49,50,51]",5,0.19562701719198744,0.2726288759862288,0.4597539721278731,0.30899368757305323,0.3186121034102556,0.23121229340333105,0.2675125019283472,0.31224071279999127,0.4255989302999355,0.15392746870258314,0.2596443662940654,0.10971954286655869,0.1843453271557679,0.2131544898819626,0.15504424122604035,0.08324831652590864
72,149962.626953125,131720.0,"[2,3,4,6,7,17,20,24,35,42,43,47,50]",13,0.16521173487392377,0.24411901802751532,0.32226821162237107,0.3092633563601847,0.2663134747391754,0.2304996338779559,0.24848158854620303,0.48415521881162166,0.17350423929641112,0.10210666184799659,0.24895938989417646,0.18669385189914967,0.14854481452090754,0.2672639217546785,0.20182663006937804,0.06513075913232322
72,93101.41796875,83090.0,"[19,22,28,31,33,36,37,38,46,51,53]",11,0.16604160777664842,0.36465354945368206,0.448867301112422,0.3242432510170027,0.4525395351926928,0.20786225290717225,0.2739788240775486,0.3209538712124148,0.48770375633486623,0.1183618730472937,0.25482422500130264,0.09828384316455213,0.2675071120449224,0.3012379940542352,0.1898970315052456,0.08603969116355421
72,50591.982421875,43822.0,"[22,28,31,33,38,42,46,50]",8,0.1725617643228221,0.34416133178770886,0.4710606128527509,0.32932851227180493,0.4130560986487066,0.22828774262177765,0.26887529578459146,0.3275520585765001,0.4419067925513451,0.12478712057116043,0.26020098630186805,0.10402232981844561,0.24336887371955265,0.2803532833222949,0.18863524580913138,0.09259134317879038
96,115753.42724609375,97887.0,"[2,3,17,20,24,42,43,47,50]",9,0.18125727570836891,0.2405099781223242,0.3322085093029071,0.3177038047632217,0.264070658890099,0.22095052050605815,0.2638924962544797,0.5148982098176287,0.16675818276960588,0.11107866285801125,0.2547715947520973,0.2334601872247842,0.15322753205465806,0.28717671426451463,0.2051932932247804,0.05708253292981026
96,94121.251953125,82363.0,"[10,12,15,19,22,26,28,31,33,37,38,53]",12,0.16117533061489836,0.4470475479942018,0.511314830747433,0.34278741760397596,0.5569450531561184,0.16448695408682357,0.3384219288257226,0.3344833991010976,0.5450524711096324,0.12776866130654335,0.24256781446832248,0.09850286687442211,0.36639894660184097,0.4303355798433818,0.19593052597495378,0.07723227727252853
96,25551.566650390625,21574.0,"[3,17,35,46]",4,0.1786555561369296,0.2433839162384587,0.3697229291499446,0.312576796405574,0.27336990454400295,0.1956573524604228,0.27199953992521936,0.4322836784908416,0.20326546394230405,0.11308488428896407,0.25530497114355266,0.1898957497489196,0.1446367821840666,0.2621876324538524,0.2120152847734723,0.05569588817552358
96,25939.39208984375,24648.0,"[36,40]",2,0.2166937430463514,0.4747599319584058,0.5177819524504818,0.34431283055543954,0.5854952246030708,0.43752583761927294,0.19197167318301167,0.37565340968468797,0.5650270845093557,0.1431474137061684,0.256682318542593,0.0890542197333426,0.39909732000342535,0.4745856770786569,0.20182083529984185,0.08099933296769947
120,96886.1081237793,83534.0,"[2,3,17,20,24,42,43,50]",8,0.17724861345058615,0.24512837352345557,0.3614312688736984,0.3133279039732806,0.2669222760562718,0.22941853852333643,0.263789971543656,0.47897905435156196,0.172878666668673,0.11201618495459419,0.25925114066627436,0.2074168374950272,0.14609614532864965,0.2656592258080016,0.19789860191046268,0.056811832488376006
120,127401.28591918945,115994.0,"[10,12,15,19,22,28,31,33,37,38,53]",11,0.1508437768673595,0.4738922193766926,0.5312965688005935,0.35090649639732274,0.583551765883768,0.15675942489725259,0.3522167577207626,0.3397177886872205,0.5523460454133131,0.11294179066289818,0.24079098827981776,0.09567558533732377,0.3890723247886431,0.46559940041764447,0.18545237235398507,0.07053272950298557
120,52215.29034423828,47773.0,"[12,15,22,28,36,40]",6,0.20491630597807312,0.47457449640307614,0.529997732848516,0.35095369249545655,0.5848528406399265,0.39634707934608415,0.2101478299578857,0.36846384099939256,0.5625416502644014,0.1288448291927763,0.2564594255421657,0.08843219473542506,0.3978106741999015,0.4804610011798409,0.18979371542343765,0.07527409360659033
144,107566.16073989868,91641.0,"[10,12,15,19,22,28,31,33,37,38,53]",11,0.1528080292309409,0.47809476966610637,0.5263845392555208,0.3723406860229641,0.5865998769924293,0.16669605251401412,0.36203961127442247,0.3381987880906175,0.5375164991775544,0.12285374873934243,0.232116542325557,0.10211679173984053,0.3923382218563709,0.46797287312352487,0.1843461966778729,0.06741841064781644
144,48122.25741195679,40967.0,"[12,15,19,22,28,36,40]",7,0.19751014822053142,0.4694765797167583,0.5219003566515821,0.3658730042107689,0.5777727673778945,0.3580366093360509,0.23818239429024332,0.3510451931927138,0.5391598266516163,0.13404846260243677,0.24687141334342222,0.09550021313912889,0.3903244805251438,0.4655622025041397,0.1873430548970318,0.07184829412468191
168,105535.65363502502,92121.0,"[10,12,15,19,22,31,33,37,38,53]",10,0.15728735377375178,0.4183380776249835,0.5064512433556644,0.3863126740314627,0.540217683018078,0.16255859995367358,0.34601673376508446,0.32650606070348626,0.5158660098394751,0.1373698814024178,0.2401682757918652,0.10123615580728577,0.3382454872495633,0.3898911231066446,0.18738177079833754,0.08114484501809016
