time_in_hour,cumulative_size,size,pcore_ids,pcore_power,AF700 CD48_[R 730_B-A],APCCy7 Ly6G_[R 780_A-A],BV421 CD117_[V 440_F-A],BV510 SCA-1_[V 525_E-A],BV605 CD11b_[V 610_D-A],BV650 CD150_[V 660_C-A],BV711 CD11c_[V 715_B-A],BV785 B220_[V 780_A-A],FITC Ly6C_[B 525_B-A],PE CD115_[YG 582_D-A],PECF594 CD135_[YG 610_C-A],PECy5 CD3-CD19-NK11_[YG 670_B-A],PECy7 CD16-32_[YG 780_A-A],PerCPCy5-5 CD45_[B 695_A-A],_FSC-A,_SSC-A
-1,0,0,[],0,0.0,0.0,0.0,0.0,0.0,0.0,0.0,0.0,0.0,0.0,0.0,0.0,0.0,0.0,0.0,0.0
0,79180,79180,"[0,2,7,9,11,12]",6,0.31860322916140316,0.14241466879262266,0.385778074842134,0.4443419687547352,0.2818033465395273,0.18382809537761813,0.03518856726445296,2.7087437724172805,0.6931791831901991,0.3511746459838353,0.1569374272291002,0.9923734169613521,0.6157900578302588,0.98780845174286,69133.39489770144,14056.15236170748
0,76937,76937,"[3,10,14,26,37]",5,0.13356487780911985,1.9132785116003932,2.0218451987470325,0.6784758248827019,2.8076307390722195,-0.40647635232722834,0.5727166561732355,0.5708689712102268,3.9265395104306076,0.49317624958082373,0.04952209341409164,0.143065580591911,2.084171131185239,1.6283818675929693,67485.19375593009,19374.376437864717
0,33859,33859,"[2,41,43,44]",4,0.3084762009214672,0.222054670309225,0.7901049167429597,0.5208268293806619,0.3455931337310547,0.2603649529814791,0.05271904858383403,1.2529146711952515,1.071524233527275,0.3918471857408661,0.21752713420361403,0.4509438271951327,0.5078655638973376,0.5682663323488564,69208.80120499722,14103.306063380509
0,29812,29812,"[9,13,21,42]",4,0.2823341958607266,0.1007107778075973,0.3271436178384559,0.6906164855091905,0.31798132755266195,0.28698401418891684,-0.04585683432846421,3.478963926506121,0.8191242875352215,0.4152856611767062,0.18521022695558598,1.4369489831946882,0.7465683380517881,1.72811151392057,71221.9594794042,14329.310613175883
0,8538,8538,[41],1,0.4009316172405697,0.3192914338252466,1.6088413177559038,0.6613020137034389,0.49860008959944313,0.2849475411103295,0.10557378074490131,0.7573338726868051,1.3476951489810247,0.5004488945888971,0.32785222733662645,0.2801947287420936,0.6147128267744165,0.49291923225579964,65655.76200515332,17781.910517685672
24,149086.0,74381.0,"[0,2,7,9,11]",5,0.3051186087962643,0.13007550278361757,0.37207066081992535,0.4695732873576315,0.2358815840186157,0.21894490883114437,0.005374863508300631,2.6459426735038925,0.6451167108380386,0.3210213512938863,0.14662039392028348,0.9442495683699323,0.5677801330909668,0.9424847482660978,70556.45670284261,14608.082207584788
24,246547.0,113905.0,"[1,3,4,5,6,10,14,19,25,26,31,45]",12,0.2787439248905921,1.957090772055623,1.9555732771479586,0.7032926313522379,2.692645562480996,0.3406256826081868,0.1323737387313617,0.6891475624242092,3.8924410352670997,0.586734038292901,0.11924670070209364,0.13939982591148714,2.029057605288241,1.6022702613619284,67245.72466913002,20728.59792250564
24,13560.0,6516.0,"[12,44]",2,0.4488695648230092,0.24411609498524944,1.3416083429940948,0.6674651551622341,0.4764940789822969,0.17943690272861268,0.1371997959439608,2.38875585582596,1.4451614477138612,0.5363101058997056,0.2641435929941003,0.8769939609882016,0.6913858247787606,1.0989862873156357,72063.42418879058,19669.262536873197
24,18638.0,9329.0,[37],1,0.3556733389848701,1.0181249399613712,2.832311468183262,0.8862892434273917,3.347542107522235,-0.6359241595664762,0.8550848107092697,0.7556166905247372,4.757802204206455,0.41466025421182795,-0.032404327073731753,0.15106947226097345,2.240643674535879,1.6429757631183568,72561.80791930459,27986.0105161497
24,21714.0,11053.0,"[4,23]",2,0.6682945136317635,1.2587143194713115,2.6144834329925124,0.8687108409321125,3.094925326471411,1.1738828780510315,-0.31403076789168827,0.9171703225568746,4.536408081652388,0.5933235085198466,0.2008570398821039,0.11697607036934732,2.183539866998257,1.6017419208344879,73690.71529888542,28226.416873906164
24,53152.0,29231.0,"[41,43]",2,0.2775939229944233,0.21296348594596992,0.9138603599300006,0.5391587970349123,0.33686572800646797,0.24542441132976833,0.04325386506621287,0.7148847715043494,0.9671733215118875,0.3553555122290831,0.20448225570063228,0.2571076755719489,0.43170728369581557,0.43604065886514337,70410.99939795276,14123.34256472001
24,32237.0,17958.0,"[13,21]",2,0.23976792440363415,0.06522607575146644,-0.12107934330117365,0.8432737399261638,0.23216400930607994,0.39480329723609975,-0.04734888432546169,3.7432815398144967,0.8282982154046566,0.3639674313987018,0.1768594861184387,1.5361736449111225,0.6940449533455358,1.8387411395911404,72795.06554580138,14044.10981170707
24,12067.0,6818.0,[42],1,0.05420864224745392,0.09306994696278359,0.6022737835418943,0.9509193294936709,0.5139464597662937,-0.3805101105494295,0.20210514402918367,3.909991074252072,1.037988459351948,0.3901136502859055,0.14896689160519516,1.7982913941327578,0.7626746635452047,2.168731699593935,74622.60512140556,14574.784121985544
24,21824.0,12483.0,"[13,40]",2,0.2671487216367334,0.03737800059566565,-0.017826843429250783,1.0340161860795467,0.11607061029142018,0.9019344057459715,-0.4105201142778614,4.040051424166057,0.8951811198222134,0.42425787348790056,0.22085848987354106,1.8467549703079196,0.7367128926411269,2.1670506573955275,74897.62463343111,14330.407624633372
24,50773.0,25274.0,"[6,14,19,29]",4,0.3169246794753142,1.3897574546510958,1.6462054723770456,0.7029705551966514,1.994357132865893,0.45784505467473435,0.10596851645560568,0.6547889696295113,3.4109990381895834,0.5485133048864553,0.21542025149192234,0.15941866314773145,1.5426836362042748,1.1657302184822622,64224.18970712776,19813.325034959555
24,42524.0,18935.0,"[28,39]",2,1.923138089714053,0.3556766058461087,1.6714801476813332,0.934952408334115,2.0232726500799614,0.3829244576709703,0.08982776907158563,0.9519093887216514,5.813317384206589,3.1213260612830447,0.40190476768412564,0.20525231840842628,2.46275019229141,1.972271400409172,74426.2161602859,30367.160191891562
24,4037.0,2304.0,[32],1,0.6360205115184581,0.4800980812484492,0.44871110998265706,1.1322667460985896,0.6549233071587852,0.7746010089175066,0.08454538617786111,1.4398313284617261,2.6640979393113655,0.6505242697547667,0.47505318702006116,0.3412112415159768,0.7165050237800318,1.141774675253901,60063.45305920231,18560.047560069386
24,22415.0,12372.0,[30],1,1.3249422640196429,0.5848938738790985,2.8914817354896125,2.2933101776042615,2.164906750078083,1.7560051060896675,-0.8699682631719876,1.0932927132277506,4.4239082857907865,3.350986494579543,1.4670383331251293,0.5120659790318942,2.3941299893374848,2.4669226423823147,122849.77452598665,107479.0331474463
24,22644.0,12037.0,"[31,23]",2,0.7489588444621171,1.1564189909026745,2.71564643185831,0.883081126611899,3.2752749597244324,1.4423035665960116,-0.4933528220720782,0.9591729069069044,4.645121568406645,0.582212571100512,0.20043736588059025,0.10237158682211722,2.2456559553524196,1.6319304062886437,73878.74651121692,28988.291821232913
48,238719.0,76073.0,"[0,2,7,9,11,12,44]",7,0.2998589994302907,0.13745060706940126,0.4208734660123383,0.46222344525152215,0.23867583561006445,0.21688697401547818,0.00995233017062036,2.6747386436814926,0.7007359212923948,0.3160317765154884,0.14416123370992295,0.9077917832137341,0.5792087149828881,0.9089295765314058,69966.53437723854,15192.564714161808
48,335432.0,88885.0,"[1,3,4,5,6,10,14,19,25,26,31,45]",12,0.2457292693809774,2.0093832360359096,1.9332049946367404,0.6644703901744542,2.730005398417562,0.34151489430048554,0.11519272357140453,0.6649603250793121,3.87468585275704,0.5143716803316315,0.10405636478033964,0.12008962926017575,2.0549855842495712,1.5605875149985704,66165.43051348714,20017.83910896992
48,27301.0,8663.0,[37],1,0.3750157989084546,0.9648533376066721,2.906689001062223,0.8823321819347139,3.442007022416734,-0.6516119047653914,0.921168204314831,0.7250216001977967,4.784101545071582,0.3399857493132127,-0.04081458580272157,0.13750858085784967,2.3404846475586902,1.5977432288927091,73445.39057177411,29433.290795209083
48,11499.0,3454.0,[4],1,0.3349134712583668,1.5236672035829129,2.1171075410905043,0.6922984877815423,2.6044848155491747,0.5588855512653272,0.18119549326028217,0.6800094040351481,4.095410314114254,0.49715610531350285,0.16850285042177449,0.13557469832159208,1.9171818553787316,1.2527363522045398,67854.03113314213,23224.23584659537
48,89977.0,36825.0,"[41,43]",2,0.2479896435200195,0.23045531425809296,0.9105223284506008,0.5555766116118344,0.36543647134267276,0.2459308300121097,0.05708754767328861,0.6419690600709025,1.0179299082098758,0.36602748821365894,0.20159663428429564,0.2219509856407783,0.4172544437245088,0.4342730751525356,68169.27525923339,15174.330506684917
48,46455.0,14218.0,"[13,21]",2,0.23232847725756844,0.07323177655795865,-0.1462484687331802,0.8447515757399557,0.2110875877515892,0.41139717248951424,-0.06555963631470352,3.808465207921648,0.8341463087073476,0.3455171265740994,0.1715723652136414,1.5448180944354695,0.7040786956839941,1.8099714327628826,72636.71010655482,14274.044473146025
48,49450.0,22094.0,[29],1,0.19734850806875381,0.9873291173508565,1.4639955396561732,0.59927505094032,1.5405013582204306,0.18200879330636788,0.21157389472198584,0.5242951460464846,3.154092154499505,0.392997384509605,0.1882710651365045,0.13940823089989973,1.0944325352072632,0.6910884418604619,60027.10649140576,18514.85055611728
48,16193.0,4126.0,[42],1,0.010819010004325946,0.09308646754770411,0.5895515004631746,1.0025607312418932,0.5086615216451582,-0.41470439529426106,0.25326203705305605,3.9752091270301673,1.0341729398505501,0.36230542703637625,0.1395743397764364,1.8227793987525556,0.7442881793367534,2.1587824499475077,73974.37213610817,14533.086642376278
48,16593.0,4434.0,[40],1,0.18913188681974558,-0.006250428735016023,-0.5973293734707315,1.2497412846983909,0.06316620580967669,0.9709722871692852,-0.4895225061773001,4.3956309721569164,0.796100710420058,0.38441202766226656,0.22032579527511675,2.095502790333282,0.7399726106792012,2.3785135047309156,74617.408304707,13367.38721147464
48,10944.0,3433.0,[6],1,0.44247600475146,2.0196584958881605,2.0742196609100803,0.6375717590460472,2.5412121270102337,1.1923345510782248,-0.3875758822185662,0.6649869917763076,3.895151245522667,0.5555324792580413,0.22299330071272427,0.1105328580043844,2.041900579769743,1.4642664650950323,66933.18713450304,21172.684210526382
48,23274.0,7619.0,"[15,22]",2,0.9350335724413472,0.33075224916218104,3.5266564426828313,1.1549732607631018,0.4421576896536963,0.6823025001288925,0.00787586409725316,0.9292055427515611,1.5801157618372423,0.8234481691587191,0.576932283492301,0.25973756612529086,0.7284018187677291,0.8413115159405351,64385.79840164985,33430.94474520918
48,17503.0,6405.0,[20],1,2.189992250871268,0.29244642815517086,2.6531481121522016,1.0089155564760341,0.556340057761525,0.8010037277038176,-0.09047534291262815,0.7256663129749072,5.5637626445752195,3.5536017668970907,0.5033322378449543,0.1990473922756114,2.4460175243672553,1.24524435999544,71793.59332685822,41374.275952693824
48,20122.0,6453.0,[23],1,0.8971261640493104,1.036959549050788,3.012719284116852,0.9490685338435525,3.531077185071099,1.5309843159725782,-0.5834655834907045,1.065946875360285,4.859437103071281,0.5179866752807806,0.1991455339926489,0.08181597008249786,2.4625399483649772,1.7217321956067988,79510.68402743262,32550.847828247646
48,10489.0,6183.0,[19],1,0.25728631194584795,1.9500734906091983,0.9609920979120883,0.6127515730765536,2.550965878825443,1.0211811341405184,-0.33258676375250484,0.5483107933072779,3.5667574549528314,0.41827467098865767,0.15083057469731376,0.08763385670702362,1.9310024206311471,1.4747071231766613,61878.02383449312,15297.574220612105
48,32723.0,9794.0,[28],1,1.9105978087277913,0.3316697256975165,1.639219978088835,0.876026794975997,2.1189876883537546,-0.3065366777801467,0.5209993519237344,0.8037759224398502,5.811260894355664,3.0926884540231447,0.3145208328087197,0.20465780444946446,2.490086309170931,1.9676126404058307,72379.4370931761,28703.314488280295
48,11114.0,7077.0,[32],1,0.4940234813748394,0.4680814349469027,0.45674956073420203,1.1029563331833656,0.5220474585207877,0.7084415334712901,-0.004249155929442416,1.3563830892567883,2.886870708835699,0.5062896794133532,0.39681992972826885,0.2652521609681455,0.5918923638653889,0.9529646428828598,56589.56703257142,18776.02447363677
48,27374.0,4959.0,[30],1,1.329755203696941,0.5905117257251455,2.8445563312632207,2.2653215607875823,2.1487006547453773,1.7550342147292979,-0.8852619598524225,1.102453164681826,4.425398162453441,3.3132988972748008,1.4365115999123277,0.49873116471834855,2.3975535712719918,2.4546744445093567,121656.04383721751,105097.98787170323
48,30313.0,10718.0,[39],1,2.064630791145717,0.35908259073664794,1.5927100854418748,0.9431597782139716,2.1029182936363937,1.1545418471612903,-0.3594141944380289,1.028047464784092,5.872192703361617,3.1408471439646557,0.4432796530531342,0.18487994289578535,2.574417645729527,2.0308248334377996,74842.92547751823,30566.989476461884
48,13872.0,4897.0,[31],1,0.604156224625142,1.1575485317906526,2.414627640210498,0.7331539979094588,3.1063857378892874,1.3265869991349504,-0.3733592730680506,0.813998096092857,4.39037833066609,0.4599642530997703,0.17757631466263524,0.0901690086505198,2.129219502883506,1.3566111051038139,67311.41407151087,25917.98846597462
72,312145.0,91463.0,"[0,2,7,9,11]",5,0.28260873404987397,0.1607312431402148,0.3452329886815457,0.5078772169696668,0.2584919825593728,0.22234143121306182,-0.007589473068620567,2.6381772884716757,0.6590711585961596,0.30553596087395196,0.14324917274343374,0.859593923509907,0.5953916637844653,0.9263119565041866,69881.75203190817,15584.771846417392
72,456661.0,121229.0,"[1,3,4,5,6,10,14,19,25,26,31,45]",12,0.2800189653221996,1.9062888355848067,1.8342389321400137,0.7632024149642569,2.6251981028728086,0.3351943855091637,0.109388320222231,0.7061346485730202,3.7831035517856697,0.5419715493746985,0.1575741677283662,0.1365040252769515,1.9827477432712715,1.5503711100728965,67600.99613498841,21771.577463369944
72,23200.0,5163.0,"[12,44]",2,0.4182430444396572,0.3089258636206873,1.3043869948706832,0.7224162182758556,0.4933581221120593,0.2409703417241389,0.08127896301725501,2.345450936250006,1.5512585921982778,0.5009072165948282,0.2645068276724136,0.7992132230603464,0.7061072062931039,1.0407262580172387,72124.76137931032,21068.904827586233
72,30807.0,3506.0,[37],1,0.40812730291816135,0.9495977194468899,2.8466327087674697,0.9457039898724107,3.366098775927543,-0.6312691055928833,0.8900379090141537,0.744543986334274,4.748774638880753,0.3982574858311445,-0.00569363281073354,0.14849849797124604,2.303173334339593,1.6090021359106672,73382.17521991784,29934.8111792774
72,13077.0,1578.0,[4],1,0.3735770045882085,1.4786316696489883,2.0658469844765377,0.7571400269174866,2.561406350539095,0.5496472366750789,0.1749577562896647,0.7032381302286592,4.04952388843005,0.5292503562743743,0.18057470176645962,0.1443804761795514,1.907823684331266,1.2750094376385996,68565.00053529112,23060.046187963577
72,117850.0,27873.0,"[41,43]",2,0.25693679721680773,0.28029358476877153,0.9199832645650932,0.5992778324140899,0.4238046664743442,0.25687192658464264,0.056214643462029645,0.7854782658718702,1.1230701003903358,0.37150233886296713,0.2108573771319402,0.2509857682647467,0.4663141196181517,0.4689128449893905,67871.64646584692,16372.132982604955
72,60419.0,13964.0,"[13,21]",2,0.2409164946953819,0.10542484254953699,-0.1135155402605168,0.8952452675317364,0.24951064357238684,0.38264516844039265,-0.06041572412651419,3.6930289264635485,0.8746792144689562,0.3557094720203906,0.1760841154603492,1.4576079653585754,0.723919306294372,1.7798502615236858,72710.932918453,15045.139575299194
72,82397.0,32947.0,[29],1,0.2181399802541102,1.0886986312487386,1.3748459319756652,0.692643327730381,1.6202276362610295,0.19684664973240462,0.19978608508808415,0.6208015519497092,3.079596953918229,0.4024513282765111,0.20395519745864066,0.15338893894195027,1.1681360008495396,0.7925522831535017,62167.10142359591,19437.8704079031
72,20747.0,4554.0,[42],1,0.04366610449703545,0.12521885631658813,0.5428069359425516,1.0575545930977963,0.5224886032197564,-0.36279467600134374,0.2252044976623253,3.893969390851672,1.0652609488600673,0.371392817033788,0.14699857304669095,1.7279958589675566,0.7725675002168991,2.1282167660866653,74067.34776112204,15259.982069696678
72,20694.0,4101.0,[40],1,0.2039096156373903,0.02273027462065169,-0.5721248459456725,1.3074326668599783,0.09827998395670123,0.9301200700686192,-0.44122830230984933,4.305200532763087,0.8123262588189791,0.394739379868561,0.22151447999420215,1.996965459118592,0.7535677859766042,2.34855888523245,74736.67575142541,13985.119551560703
72,21344.0,2303.0,[15],1,0.8317184772769839,0.31125955898615887,3.598466920914549,1.1174394047976284,0.42471109698276743,0.5813282505622108,0.05905644602695581,0.8990760678878962,1.4595521652454986,0.741587975824591,0.5194292963830538,0.24718036052286518,0.6346438045820865,0.7519562485007507,62390.87556221885,32139.04647676146
72,19145.0,1642.0,[20],1,2.1627509132932783,0.31494592713502323,2.635080399947767,1.0799181578480042,0.5815933153303781,0.8072655110994933,-0.09645136364584328,0.7395505202402504,5.5208373315226025,3.512465846644029,0.5180204254374687,0.2020441785322542,2.43549824805433,1.2646229802559474,72422.72426220932,42073.14202141551
72,23879.0,3757.0,[23],1,0.9131757089911698,1.0324922108966033,2.932627434314648,1.0279341038988168,3.444367970057392,1.5189608932116239,-0.5757936421123122,1.074503010050654,4.78996208651956,0.5887484721303188,0.2507768759160727,0.09871173147954238,2.4204662735876767,1.7261946565182773,79876.83772352288,33637.1901670925
72,16744.0,3782.0,[24],1,1.0078478220257934,0.39030307190636115,0.9643764567606432,0.9697847140468259,0.9156013149784923,0.4044261904562769,0.22514848160533596,0.9442347601528955,5.075427994744405,1.5533946236263692,0.3515465100931645,0.18474451128762637,1.4326677706641253,1.0028018203535587,62170.50740563774,24301.8939321548
72,40711.0,7988.0,[28],1,1.8913664394389473,0.3594599804475278,1.5512932422932528,1.0554176829603823,2.065802652501745,-0.27886793881259786,0.48066426747073177,0.8114422512342969,5.72321897344701,3.0545594670236422,0.3400358897595108,0.2110693992778333,2.4610961313895454,1.979108303210442,73571.97651740315,30336.22637616369
72,15714.0,4600.0,[32],1,0.4637311176021317,0.6619202420771035,0.6046195504645482,1.0569460423189625,0.7806031660302803,0.7096569868906719,-0.04418386585208678,1.2679633641338972,2.837669497136302,0.5052519788723443,0.38410338984345094,0.2534888538882476,0.7627460339187923,0.9873382210767576,58785.06707394672,19716.911798396155
72,35617.0,8243.0,[30],1,1.334496615296089,0.6300320997557303,2.7437453188364667,2.3025998323833945,2.1319412184911806,1.7256653858550706,-0.8360761215430814,1.1229544857511997,4.41465821048936,3.1946472176488667,1.4522812151220075,0.49337639722604654,2.3918010948704156,2.4460001615239624,121992.40587359961,104977.74074178077
72,15616.0,2567.0,[33],1,1.1004306176997904,0.26867725800462905,0.8942142489113727,1.205259404200819,0.2692362669697892,0.4910036909579938,-0.2959746194928221,0.7225333953637412,4.74891822605021,0.5796971631659861,0.2919118621285741,1.0524465101178286,0.5764404312243828,2.5474724017674264,81933.32786885242,21836.139344262185
72,16210.0,2689.0,[35],1,1.3853330040098617,0.45224399228870693,3.699415417026518,1.2546317460209604,1.5674645184454077,0.7741275555213061,-0.05790041135101909,0.8765211813695215,4.9192286334978395,1.1669095246144372,0.45405420302282495,0.20390100475015194,1.9043650299197834,1.3560333583590447,67053.90943861798,43431.28834053049
72,38300.0,7987.0,[39],1,2.034201857885124,0.3847024522976388,1.514455192245451,1.1272993673890506,2.0423648522453974,1.121815630417742,-0.34515932911227454,1.0120081737337028,5.75720942605745,3.096158390522187,0.4727315493211184,0.19471664480417572,2.5366336575195474,2.0290985533942636,75862.04073107091,32603.889295038945
96,373082.0,60937.0,"[0,2,7,9,11]",5,0.312016366817478,0.1622137621836508,0.35816799271207733,0.5439261953377597,0.2605814753432032,0.21865082420219428,0.01909728331303784,2.6893951198127866,0.6500629882519032,0.3197643183428831,0.15432197955141858,0.9122376892130966,0.605874308028801,0.947549375769936,70014.11009912041,15381.179000862983
96,562386.0,105725.0,"[1,3,4,5,6,10,14,19,25,26,31,45]",12,0.2960195966560333,2.012169692712825,1.866359671912155,0.823898446751858,2.7234565197622094,0.3389293022372559,0.18570849855259697,0.760478720334437,3.778233510997777,0.5567763408281806,0.1590545346914869,0.1384586526673809,2.0654821125490286,1.6392389095496653,67727.75174346435,21479.126777693516
96,27044.0,3844.0,"[12,44]",2,0.43875398794556975,0.31959257595030044,1.328811611189165,0.7660103550510184,0.5089672778804815,0.23404470377902786,0.10904152159445024,2.36935389653898,1.5584645758023985,0.5176079290415619,0.28272152514421034,0.8295541377015283,0.721887876571511,1.0612720818665855,72322.5676675047,20977.52403490608
96,38346.0,7539.0,[37],1,0.4173809998956808,1.0021062849058384,2.8475626204037057,1.01897268935481,3.426208918400849,-0.6415172492828456,0.9795542950763818,0.818143056772541,4.706680307933024,0.4277645529651054,0.00811450305115402,0.1528682420330746,2.3438962192145225,1.6715575976894501,72994.97585145824,29391.441714911634
96,29180.0,5301.0,[23],1,0.9317685518505863,1.0740041579849167,2.9285996220356263,1.0897730378684103,3.495592285743687,1.5408179662097632,-0.5179192105894437,1.1396660279643354,4.756124722481187,0.6132252107265238,0.2596355135366597,0.1004350926319364,2.4518879765592816,1.780096343488682,79403.45771076102,32946.89952021922
96,79040.0,7729.0,[43],1,0.2061846482414027,0.19536726524544568,0.5286591812879284,0.5122723712297836,0.30651570332743505,0.2087291280870558,0.046276958755051556,0.7153526205718501,0.7940276096533575,0.31186648615891144,0.15869456222165823,0.23759592711286337,0.3687780352226592,0.42414436904099023,70907.1611336039,13068.125506072802
96,78541.0,18122.0,"[13,21]",2,0.3002606677531541,0.11402070027120326,-0.10902994247591025,0.9836249606065737,0.2702923839650717,0.3685575191938013,-0.0032392838390045142,3.7114107982455,0.8757968444506653,0.3889663360028498,0.19434759873186147,1.5063435690149087,0.7478992932608443,1.8121441497689073,72812.2510281257,14943.011166142594
96,93574.0,11177.0,[29],1,0.2309358067625451,1.1085124375895283,1.3844171239980518,0.7305577622844064,1.6403851671618406,0.19309839658452144,0.24127310775432953,0.6586533947570827,3.073605218084085,0.41457032427810114,0.21182997409537263,0.16147435822985345,1.1846464056468573,0.8069792794900124,62276.64881270464,19320.74259943977
96,26745.0,5998.0,[42],1,0.104400153710978,0.13795913707237517,0.5562968739203553,1.1183400684987856,0.5508016846139552,-0.38473854967282717,0.28042632836046444,3.916424724322316,1.0696314224714816,0.4042185303795147,0.16657619633576148,1.7692451329594254,0.8029432037016248,2.163940664797151,74345.68315573022,15240.719985043645
96,26078.0,5384.0,[40],1,0.24362115399955053,0.0341139193189548,-0.5758881906204341,1.437759500306771,0.10816706913872842,0.9561199164429783,-0.4104303784416108,4.338738059513737,0.8074210509624876,0.4312038428560543,0.23940570200935563,2.044569623667469,0.7647553573126721,2.3854813179691723,74836.64207377852,13832.557711480746
96,26345.0,5001.0,[15],1,0.8280900901878885,0.32686852400836175,3.5902636090339883,1.1700825299297932,0.4366139711140704,0.5818797723666698,0.10244190783827989,0.956919690757231,1.451937370203063,0.7569758096792588,0.5418013457582211,0.2800683164926985,0.6474551582083873,0.7656309773391554,62868.89443917237,32095.029493262344
96,25050.0,3248.0,"[17,38]",2,1.059842881157684,0.5936869537325284,2.452181645349302,2.0998851180439027,2.1847422853892264,1.0196506148502962,0.04903712023951945,0.9473647140918118,4.099103480638705,2.8735352619960004,1.1593323714171606,0.4705336312574856,2.2147626054690557,2.384444859201601,103218.26235528963,72030.80175648721
96,12124.0,1679.0,[18],1,0.8073191250412279,0.1193820879247749,0.7882203877433263,1.0997080141867217,0.2775327335037905,0.4381516808808985,-0.1582022298746164,0.4512014939788944,0.864796429478723,0.4931380725833062,0.19441278901352632,1.2681995523754543,0.37861192436489666,2.406417509980188,81218.98251402179,16939.782250082542
96,22828.0,3683.0,[20],1,2.191113582223589,0.3195575913352031,2.6040217483353767,1.1852441728579004,0.5831625587436542,0.8101105048186341,-0.06042287756263942,0.7701026784212321,5.497390466795178,3.495883493998591,0.5540733008148,0.21239880760469465,2.4471929292097405,1.308505774794111,72270.95707026456,41530.356404415594
96,19504.0,2760.0,[24],1,1.074665295324041,0.3825941021841679,0.967905043990986,1.0571929242719298,0.909954646021311,0.41554067914273296,0.28185121539170677,0.98312565345572,5.093681164837988,1.5610355570139398,0.3788198388535675,0.19085033972518683,1.4680503607977915,1.053368418580805,62172.78424938473,24198.388843314253
96,50105.0,9394.0,[28],1,1.9431542568006945,0.3670235980440917,1.5422801116056353,1.1989423094501768,2.0650858729068955,-0.284286407264736,0.5181807458337735,0.8754514470012853,5.720164802893955,3.0243654682167227,0.37404921375111755,0.22342109807404342,2.470166946053266,2.0446830641054,73444.09060971977,30075.75675082362
96,17319.0,1605.0,[32],1,0.47465637559904783,0.6748986011894247,0.5950873385299373,1.0886801533575934,0.7886901261042816,0.7204528778220534,-0.03783255632539939,1.2702706320226382,2.840998296437428,0.5145767173624326,0.3917291870200392,0.2596628324383572,0.7748290465962161,0.9963617807032832,59191.59674346088,19598.626248628483
96,42224.0,6607.0,[30],1,1.3760833810866104,0.6360964824981177,2.7383283829338505,2.3399737373057863,2.1510796587486056,1.7315609076828349,-0.7936419135799575,1.1552803640346871,4.434297032540711,3.1967799824744247,1.486259823986377,0.5167693280598731,2.4302128846390616,2.5002492370689278,122361.89010988944,104382.07502841958
96,52947.0,6408.0,[41],1,0.3469560727897809,0.42829209549170066,1.5527935324380935,0.7721514728502128,0.6071083011880019,0.3301532442442414,0.08809431182126515,0.9019093308591613,1.6307391835609226,0.4805090070636666,0.31659743077039915,0.2802055322114545,0.6249916964889376,0.529365383402268,64239.26719172028,21345.681983870734
96,19478.0,3862.0,[33],1,1.138123546154629,0.2827640079577183,0.8919482061813349,1.3107399410617209,0.2705744150323679,0.4880317038196935,-0.28284644645240986,0.7463182630146923,4.710684502977724,0.6053176580757796,0.311885674196517,1.0729271047848923,0.594857090512371,2.589682727384751,81272.37375500554,21534.577266659722
96,12761.0,3956.0,[34],1,0.7746243577305865,0.2738538917012847,0.25083721573543905,2.5687433071075785,0.3913773076561382,0.3718216104537253,1.5426979071389595,3.2904308842567094,4.331476346681279,0.4986593072643203,0.49484717725883653,0.25832326910116754,0.5970036429746916,1.8629607710210825,55825.2926886607,19429.13815531695
96,19249.0,3039.0,[35],1,1.4122945943165781,0.44977070715361744,3.7122862759623865,1.3191274458413305,1.540120580445742,0.7723598703309407,-0.0018051956984801443,0.9155367757286088,4.8963165591978814,1.1860573665644965,0.4885806802431336,0.21219297444022667,1.9180784923892067,1.379685839004626,66758.41363187696,42769.492025559586
96,46045.0,7745.0,[39],1,2.077662921620167,0.3879638797697811,1.4992367832555402,1.2558151029645228,2.038856035074343,1.12325775864914,-0.31542317928115615,1.0692803907047415,5.759104206537091,3.0669905103920128,0.4991854260614472,0.2052629333695286,2.544776817721764,2.0890815638831697,75573.54483657316,32149.120208491688
120,422531.0,49449.0,"[0,2,7,9,11]",5,0.316753980441671,0.16574461541757302,0.3750822228286381,0.5712513429215917,0.2669254008912829,0.21337177189603618,0.03954962665459716,2.708832568611534,0.6449652286861695,0.3270062229256542,0.1637317130340663,0.9319314627329092,0.6053110847133084,0.964328035012813,69989.1069767661,15232.970002200891
120,557936.0,140923.0,"[1,3,4,5,6,14,19,26,31,45]",10,0.30127545533537226,2.3303383719996535,1.9817053656118095,0.924714358360077,3.0433330907899516,0.3998138380513152,0.25471204302286354,0.8659934388352659,3.8337118894658224,0.5546830797188257,0.15268120023445864,0.12853867098017646,2.3111502115565132,1.9022143756918373,67866.20653264911,20789.118981388525
120,32790.0,5746.0,"[12,44]",2,0.45196705632814727,0.34403492281183157,1.3602333587984128,0.8072823992375606,0.5268200731930328,0.2441154080512371,0.13443004175053996,2.3669915848124345,1.572468210430018,0.5258769360780734,0.3072075512351353,0.8316751285757868,0.731892210917963,1.0727995990240893,72144.16102470264,20883.512290332455
120,97838.0,11327.0,[10],1,0.14608474069382038,1.598577371215666,1.7903378513460546,0.7785564237310574,2.4136039019910647,-0.4439015635233725,0.6409120101596448,0.5833728294118985,3.681753250792077,0.4289396688403072,0.0993303560375498,0.15952658214599147,1.7355898546679,1.2931702840818573,65229.27189844392,20182.172162145605
120,65252.0,6390.0,[25],1,0.4604196381873218,1.5522887604211562,1.7892136118433313,0.8145091620486853,2.1030263557285926,1.022310691074633,-0.19529403264268597,0.7852355331944021,3.5864483233923967,0.5852039355268733,0.2957328582419212,0.14629591065408354,1.6751716410225255,1.2079908255992293,66247.52970023878,22712.146631520664
120,92106.0,13066.0,[43],1,0.2068534116235654,0.20311749993485329,0.5407240135387439,0.5255459114173116,0.3035510584435288,0.2088773391744314,0.05005090729158823,0.7105125338957512,0.7851804803161676,0.31365775246999106,0.17094680804724094,0.2390168366338905,0.3649415961066521,0.42229596840596845,70870.47914359588,12878.015156450192
120,90971.0,12430.0,"[13,21]",2,0.3098017256598318,0.11921041886975825,-0.09955787707071684,1.0034354367436,0.2812543975332953,0.37166075627397843,0.017779875916513976,3.723870230370161,0.8746129718811401,0.3980010665596745,0.20383509245802633,1.5242051473436646,0.7533296746875372,1.8324992422530297,72692.24275868139,14845.58692330533
120,104696.0,11122.0,[29],1,0.2383166432241759,1.1259467541262467,1.3998825251298301,0.7591910908153188,1.6465034872965605,0.18906176753648674,0.27104991319633376,0.6710028248739079,3.0663637899346714,0.42715267953884994,0.22355930765262988,0.16506592951975474,1.1905913393348286,0.815093126509119,62136.05501642877,19139.992358829237
120,32612.0,5867.0,[42],1,0.10953064261622347,0.13512391677911983,0.5805006554642356,1.1717828247884068,0.5724951988531761,-0.4049318852262912,0.3071366675763789,3.9478496756408834,1.0630610440635269,0.4171336041947845,0.17787293796761583,1.8098132194897447,0.8129908170612042,2.2061824777382464,74296.72120691786,15077.630320127324
120,32121.0,6043.0,[40],1,0.24932554272906748,0.031927724946279934,-0.5589256196880417,1.562107920768371,0.12072689738797715,0.977320509884511,-0.391468902555971,4.36552115195666,0.8042068830360226,0.4566562676753567,0.25149714713115756,2.08872008698359,0.7723657560163085,2.422573941533585,74623.3464711561,13636.078577877215
120,32605.0,6260.0,[15],1,0.8118962856923819,0.3552298214691074,3.5682363758932847,1.207345091059672,0.4643662119306846,0.589648669099823,0.1515514501456634,0.9976347049532142,1.4397623742677421,0.7528171575218529,0.5588052368961742,0.30500167830088,0.6630032039257764,0.7795495177426808,62131.77512651419,31621.009293053008
120,29563.0,4513.0,"[17,38]",2,1.1186475637452242,0.6084657429557176,2.477959283969842,2.1480630082535455,2.2244673197578053,1.020284253391064,0.09418798011027407,0.9678050721171694,4.1162122979061495,2.8748025804891277,1.192320324594935,0.485534854886174,2.254711850184341,2.4407672201738726,102904.88191320219,71440.03084937252
120,14870.0,2746.0,[18],1,0.8430139441156685,0.11914171405514828,0.825991299058519,1.1729279899798168,0.2953629266307871,0.4412259822461302,-0.17026386308001262,0.44958986624076225,0.8617196827841299,0.5138131687289816,0.20916365158036365,1.2702826790181578,0.39947978036314835,2.45805964774712,80659.05366509742,16909.109885675913
120,27668.0,4840.0,[20],1,2.2304217656859846,0.32492670735145524,2.5741999396053328,1.3417527755891325,0.5787211871114812,0.8104204785672924,-0.01407889486049152,0.8308022239410082,5.487555350187955,3.518793429304592,0.5867971398366514,0.2255829843862932,2.4671922857814184,1.3727398682232197,71359.85889836635,40577.93378632332
120,37457.0,8277.0,[23],1,0.9517003323010373,1.0509880488293164,2.9607170976052486,1.1893661094321781,3.552784031823187,1.5630772262861725,-0.4317251088181049,1.1920611406946455,4.732948452812588,0.6131111748404899,0.2666102593106685,0.09933627685078616,2.4883718327682494,1.8414553612675817,77930.81987345498,31979.004405051124
120,21869.0,2365.0,[24],1,1.1039068317252838,0.3881048748914053,0.9700848162238964,1.1261474315240623,0.9216424868992514,0.41479685815537315,0.28865820302710343,1.0222344606977893,5.107528294755138,1.57074758301705,0.3946054998856767,0.19641980259728664,1.494669372673655,1.0815907641410203,61941.757190543714,23986.189766335898
120,59481.0,9376.0,[28],1,1.983724276609313,0.3662483473882432,1.5489269431919577,1.3406772295523108,2.081521077924022,-0.3025129039188842,0.5466455974344866,0.9492915405927875,5.716250367461883,3.013930102856345,0.4009721735344143,0.23133602432709888,2.480835401287783,2.105019483448522,72786.54225719147,29659.182327129798
120,20263.0,2944.0,[32],1,0.49279834797413735,0.683792236638185,0.599044964615314,1.1562412678774132,0.7824681669545495,0.7401505844149598,-0.016784438187811723,1.2806633402260315,2.8480414884765284,0.5301256496570063,0.4207783367714546,0.2627439444800814,0.7729521678428569,1.0090230632186818,59148.69071707039,19462.313773873433
120,50106.0,7882.0,[30],1,1.4430721789207126,0.672039733165704,2.751049041332355,2.3820716324591777,2.2032957864727156,1.7385249096116377,-0.7559496569073625,1.1790758969185466,4.445996914102073,3.1896754292699407,1.512944191174726,0.5380659191513992,2.4676822150041815,2.5602050498742304,122038.39476310168,103268.48968187542
120,23337.0,3859.0,[33],1,1.1557545533701845,0.28503528564083647,0.9031762687577682,1.3969336649526705,0.2715448544800294,0.4822940585336577,-0.3033516313150799,0.7537874836097287,4.673467071517348,0.6147187925611725,0.3234395723100496,1.0905913363328592,0.6056850705746201,2.628470172858557,80316.34708831509,21135.212238076827
120,18068.0,5307.0,[34],1,0.8198698525016652,0.27393548887536,0.27263025880008973,2.8157749652977624,0.43074070085233984,0.3761168642351209,1.672881858368402,3.424760781436789,4.3319365131171,0.5268774166482145,0.5487098356209872,0.2703751499335848,0.6157806669249529,1.9869435626522074,55484.93956165585,19230.016382554833
120,23818.0,4569.0,[35],1,1.4491917920480353,0.452672974892931,3.7424876337643718,1.411104525526894,1.5233576863716252,0.7761698650600455,0.0686461515660417,0.9703461079855513,4.877479998614476,1.1960061937190414,0.5179519172054787,0.2188710205306933,1.94639209106557,1.4247086054664568,65842.15097825183,41587.94323620779
120,48658.0,10312.0,[37],1,0.43362728749640134,0.9735022553947741,2.8921152121131004,1.1215548608245167,3.492543550515775,-0.6487778166180277,1.0632429573142868,0.8872428474043113,4.684460990977861,0.42468633509391773,0.02187842772001325,0.15319547605738737,2.3838543174195226,1.7258003297094004,72044.06264129256,28827.873895351375
120,55359.0,9314.0,[39],1,2.1158627620621733,0.38896581377914163,1.497770414765443,1.404926891309449,2.049683015697528,1.1220757591719461,-0.30937515487997214,1.1508746611752518,5.760465983381187,3.04619378968192,0.5212831128632973,0.2136045062952755,2.558934677577251,2.149729356473226,74687.07281562194,31495.686844054333
120,62396.0,9449.0,[41],1,0.34875109878839416,0.44934241959419374,1.578880804057936,0.7956483750400811,0.6203594484262065,0.32411785856465225,0.11005702785436888,0.9032709161965431,1.6352024917623087,0.49040414549009526,0.33559830110904887,0.2837451251522478,0.6360931369318484,0.5310044753029015,64036.116161292244,21261.253157253843
144,466630.0,44099.0,"[0,2,7,9,11]",5,0.3315514692583017,0.16281260082506677,0.3898982118230867,0.6373566871011369,0.27040298320725187,0.213552249902502,0.0661644482566377,2.754615147362985,0.6474951350856076,0.33545973830015463,0.16914739135288936,0.972321465615152,0.6173316675181612,0.9895230998607047,69931.9695347493,15160.991449328021
144,676852.0,118916.0,"[1,3,4,5,6,14,19,26,31,45]",10,0.3078577770044215,2.391661520324999,2.008197422500006,1.0190564384872793,3.110340611584179,0.4026023348132117,0.32973123086730816,0.9006742674542987,3.810134579079334,0.563357713327287,0.13693863976913168,0.14102612358683808,2.357025153989332,1.962075597510234,67602.0461784852,20300.525467901207
144,36776.0,3986.0,"[12,44]",2,0.4602192179138558,0.35937832390688795,1.377430454889054,0.8725733822057715,0.5467493451979508,0.2480173405209949,0.17301256683706834,2.4009194641613982,1.5947054693550236,0.5369342412171,0.31417282850229444,0.8515998804111404,0.7556705742331918,1.0927484834946686,71721.9055906025,20747.468348923263
144,173952.0,10862.0,"[10,25]",2,0.2846834877897404,1.5793648036067385,1.8038580681796978,0.8364766993883346,2.301588488801539,0.12876603053717206,0.3452977588185049,0.6702093849797737,3.6325865628161753,0.5103638502172866,0.18140443021640218,0.16253236435913154,1.7279112154387382,1.2747111714093637,65516.16777041883,21144.047829286177
144,41527.0,4070.0,[23],1,0.9622014798323864,1.0480287086955453,2.950873770944192,1.2539488259927647,3.5463077595781134,1.5637956525393466,-0.39213721561875614,1.2154074946901816,4.699429864425581,0.6340028923832753,0.2640111652659618,0.11351099133093745,2.487204314999882,1.863858965010712,77231.27064319623,31696.377970958805
144,101847.0,9741.0,[43],1,0.212854800170847,0.20573117566545118,0.555556627902654,0.5635127496440906,0.3026009827977143,0.21386748180113258,0.05981525736643878,0.717797060355243,0.7848016506328118,0.3163741321786754,0.17764541916795862,0.24720221591211122,0.37018838937817367,0.42841612279203417,70927.06573585911,12802.443822596597
144,107185.0,16214.0,"[13,21]",2,0.3310464886971156,0.11474935837105571,-0.07933291531464715,1.0768305776461427,0.2832786740682116,0.3699897041003879,0.04658853788312145,3.7330470003638982,0.8881716645985908,0.4074828216261631,0.20785786235015413,1.5488359449923008,0.7690178320660518,1.8397830699071662,72634.77299995339,14801.241815552703
144,109422.0,4726.0,[29],1,0.24724798004056292,1.1234099072398607,1.4084844777466294,0.7896307035514036,1.6461026771033525,0.19134924379009988,0.28839932501693166,0.6836377989892153,3.0627964919851784,0.4405655255067499,0.22810420208916016,0.17181040437023654,1.1970853881394907,0.8240099447734321,62063.65286688246,19164.446199118862
144,43567.0,10955.0,[42],1,0.12599626182662282,0.1194916238437509,0.5687216678219853,1.4551844541740322,0.5912196750981216,-0.42375790667248114,0.37760131507794403,4.003537589666507,1.1111193714738143,0.4412546964904648,0.17900723859801815,1.88248416815479,0.8384862313448288,2.2516990392498943,74183.19223265331,14895.679390364054
144,36617.0,4012.0,[15],1,0.8165738890952337,0.36217674552803514,3.564449729142203,1.2591006869760135,0.47129127383455005,0.5941693904743643,0.18798925124939192,1.0308793135155572,1.4457422793238117,0.7726968053636282,0.5660341779774507,0.31832656320835195,0.6812971288199491,0.7928369359860192,62234.55116475934,31482.094109293044
144,34851.0,5288.0,"[17,38]",2,1.1550786850305685,0.5924466845714527,2.4628348948380387,2.256760390261381,2.27936145728961,1.0135484370606302,0.21333607824739031,1.005093680181341,4.19811217856014,2.8917819267452853,1.207136587701934,0.5120294173481357,2.2808377377406526,2.503358350176475,102686.44549654252,70329.86095090516
144,18179.0,3309.0,[18],1,0.8774590910391049,0.11570996352934504,0.8582954380879162,1.3611043228450228,0.29729570680454653,0.4490226492656415,-0.18328856389238757,0.4697448757907585,0.8631869656746815,0.5322686128499928,0.2215503425931078,1.2776519706804563,0.41331058551075495,2.5001915061884383,80335.85301721774,16926.340062709725
144,33180.0,5512.0,[20],1,2.2544209545509206,0.3203554990054318,2.531268225587709,1.4692514446956078,0.5711875216395588,0.8119413618746096,0.015147815039173285,0.8416327539180224,5.43897611711878,3.587616738878815,0.6138214092827048,0.23916910120554247,2.449597664526825,1.416362888577469,70845.56383363473,39809.13031946942
144,44451.0,12330.0,[40],1,0.2597177953476997,0.01460593709927549,-0.5626653209151578,1.9088297551235978,0.1378180885244138,0.9702099106431896,-0.33151775291893415,4.398357591730214,0.8716362388247724,0.48221712125711047,0.2534640087511981,2.155870463611609,0.7964461310656642,2.4569642361251844,74024.45083350196,13419.311691525336
144,22976.0,1107.0,[24],1,1.1059488313892827,0.39111292252786,0.9780267487813439,1.1621573731284633,0.9246572881702524,0.41863064445507603,0.30824890920960035,1.03628850913997,5.088096031728765,1.5756688766103686,0.39843710127958465,0.2063487216660893,1.4962302055188088,1.0939240577559155,61688.59888579387,23803.158774373296
144,70322.0,10841.0,[28],1,1.9997630396888615,0.3620021183697908,1.5792613838059286,1.4876689483803238,2.1200972108301506,-0.3144457705696463,0.6102190240465464,0.9724285164102087,5.690012602201318,3.0489353206961973,0.42273034400329523,0.25018663313046063,2.472305058416978,2.1747841554279397,72705.68550382534,29912.56357896549
144,22288.0,2025.0,[32],1,0.5054787549802526,0.6661674394292771,0.6073635349515554,1.220412574075739,0.7650932348348958,0.7358311669957065,0.014535574748769431,1.3022604084709246,2.85888501171033,0.5469395822864308,0.4290276065147167,0.2822206697774571,0.7690864899497388,1.027270615533036,59231.73582196687,19393.119885139873
144,57523.0,7417.0,[30],1,1.4551070837230455,0.6652890137858054,2.7076106316082247,2.4477969934808432,2.2282062359404624,1.7385980067103788,-0.7108914569302793,1.2280152605392853,4.489111370634344,3.1613137852163447,1.515205662986998,0.5688250382455664,2.4629458858195776,2.6113831656902255,121526.09342349967,101479.0777949703
144,69565.0,7169.0,[41],1,0.36124976105801054,0.4652240895852726,1.5925196331632239,0.864358475008999,0.6372412273701182,0.32581829852656297,0.14230937837994073,0.9222482822540092,1.6518550165456936,0.5032617976856181,0.34797198828434484,0.29460714589232506,0.6630121608998768,0.5474538931359179,63986.6801983755,21115.89218716326
144,29482.0,6145.0,[33],1,1.1751215326639899,0.2777758950546083,0.9086000014246052,1.6041795544739355,0.26623837812904894,0.48780929421341845,-0.31736888596431934,0.7708591272980305,4.621691902923845,0.6213202368903082,0.33082638087645266,1.1129020928023805,0.5994223760260481,2.6657099364357975,79519.23804355232,20804.554372159364
144,27316.0,9248.0,[34],1,0.8609969527383223,0.22510640492752243,0.2200506895958365,3.166404195013904,0.4734463885268734,0.36793873114658515,1.7663361626153269,3.660373720932774,4.343508918179826,0.5398849753258138,0.5571642020427539,0.4126099796090237,0.6698167687435971,2.127062839947295,56089.02504026948,18577.679894567373
144,25517.0,1699.0,[35],1,1.4541847581612342,0.4490640493788436,3.731247194654524,1.4626404118038843,1.514680277501244,0.7769817689775544,0.09148780765763664,1.002892879962375,4.854168620880178,1.2038493108124055,0.5307717638437155,0.2333656157071783,1.9351419391777869,1.4378756100246959,65805.22287102728,41282.568326997665
144,55136.0,6478.0,[37],1,0.4590937564567379,0.971382158027406,2.884648439767109,1.2058499989842817,3.486504395258937,-0.64418682057095,1.109573967770563,0.9154034471850965,4.643558323200807,0.4474610200594835,0.02340112577990494,0.16574997116222334,2.3834418607987327,1.7522175603779748,71297.2640742894,28361.09228090543
144,64979.0,9620.0,[39],1,2.1314011365364314,0.38379422864307333,1.518450820280424,1.5349628209421269,2.0635151633296798,1.129052534818938,-0.2753888392865518,1.1705866121516277,5.733451920943699,3.0796040212838087,0.5365383240893,0.23279511891534088,2.544400154834615,2.2074795163052925,74335.23519906493,31557.685036704304
168,499967.0,33337.0,"[0,2,7,9,11]",5,0.3252612608092187,0.16101432853367204,0.38829281418574935,0.6833977712529227,0.27276131992311026,0.2148335880288217,0.08344098280084822,2.778521096658361,0.6542138892146853,0.3380765695635922,0.17109733788229287,0.9742689410701124,0.6214886978780559,0.9912222207885728,69936.31307666315,15174.614580562142
168,722625.0,71175.0,"[1,3,4,5,6,14,19,26,45]",9,0.29084785036083116,2.457096957410859,2.003647381632224,1.058293858373279,3.143004413866065,0.3773368199868474,0.36876890027193454,0.9047906533734356,3.7641039728891372,0.5658843321058634,0.12673055641724762,0.13856981899878895,2.368587609309112,1.9776112107206363,67661.82382286785,20074.79048192329
168,40509.0,3733.0,"[12,44]",2,0.4424737284554039,0.37427763884568055,1.391773626132459,0.9080512019797968,0.5823620373250296,0.25947711118517325,0.19595189066627494,2.4288736324026656,1.61687710296478,0.5305982067935556,0.30590009370758153,0.8414546375620253,0.7721310033819601,1.0978471269347523,71621.94672788758,20561.217704707622
168,242886.0,43532.0,"[10,25,31]",3,0.3320949767874555,1.5011524663710492,1.889733984824137,0.9682413710547051,2.4298074321039826,0.2502107989180209,0.33244352743669614,0.6925608789720177,3.682773636833733,0.5543980810462398,0.19319833948027032,0.1575089674250476,1.7882985179261053,1.2998790805974894,65611.67191192503,22184.661709608685
168,110905.0,9058.0,[43],1,0.20752128189892272,0.2057669390559509,0.5451369189847171,0.6113701184617462,0.31046477553760843,0.21388873404264275,0.0659592390063577,0.6847650447500526,0.7907724465713838,0.31743632368244523,0.17917054543978495,0.24751486372121,0.37045637335556647,0.4401491949686674,70742.44573283498,12970.716487083393
168,118695.0,11510.0,"[13,21]",2,0.32172081670669006,0.11201768276676072,-0.06559279436370513,1.1391504177345415,0.27862658903914905,0.38653312265891926,0.045531552062020975,3.7516789798054395,0.9089338049033241,0.410717500139013,0.20864893956781216,1.5368071992164776,0.7701796391002104,1.8350138822696775,72672.06713003916,14885.322684190698
168,141995.0,32573.0,[29],1,0.248175130631356,1.0619762744180767,1.4035341865909907,0.9264189142857435,1.6450905797598776,0.1815385106729095,0.33062759142930753,0.6576483496953305,3.082436828437651,0.4899172015845542,0.24121968281277129,0.17301388391845318,1.1974353961688742,0.8284522454382077,61736.36829465802,19833.853530053377
168,40500.0,3883.0,[15],1,0.8006562009382623,0.36652252348148284,3.58793316118517,1.2967256005432324,0.4877878834320959,0.5980512441975234,0.21086153750614045,1.0254394532839335,1.4567823560000006,0.7819702257530908,0.5640660390864309,0.30780459723457765,0.6912953394074036,0.7874762212345714,61945.39614814799,31770.25422222194
168,31758.0,8690.0,[17],1,1.2242078993324654,0.561097355343537,2.496934289186943,2.609305830971732,2.5101841896215213,0.7490315595440402,0.8960090735562458,0.9860141939353575,4.634842597014954,3.019929865860569,1.1746308010579813,0.5379860768310278,2.4250605226399533,2.592384564424733,103786.83191636865,69552.55519869002
168,22306.0,4127.0,[18],1,0.845003973773869,0.12041285470276408,0.8533349515825535,1.5843209091723942,0.28425882152783544,0.4651068702142924,-0.1965117070294844,0.4720798562718551,0.8939447837353202,0.5428544787949415,0.23211605585941264,1.3107532729310458,0.3981911246301434,2.510509702725693,81312.49349950688,17444.768582444125
168,41131.0,7951.0,[20],1,2.249154161240914,0.3139103512192869,2.526696183924535,1.6397943041501608,0.5778694318154369,0.8297387488755315,0.018592361552120185,0.7868527240037726,5.353697682939888,3.612427021711072,0.6450333597529911,0.24386901772385894,2.4364264483479636,1.447570322919479,70462.59959641143,41121.69215433592
168,53733.0,10166.0,[42],1,0.08233031706772853,0.1142590473452274,0.5544291426497621,1.65923635151584,0.6103648522881651,-0.43480373286434926,0.4692679111533007,4.062158204176235,1.1751479450616857,0.46084521428172476,0.18104662507211078,1.899795061377544,0.8536520721716666,2.267364407105488,74389.87169895598,15070.021029907
168,44546.0,3019.0,[23],1,0.9803106409329689,1.0192421838997778,2.9480206228168613,1.3265762479908787,3.561985654738922,1.5769283085799308,-0.357752457190311,1.2395259540474801,4.6878484520271355,0.6589989955551568,0.2706459086337598,0.11762634274681971,2.4894382152830827,1.875122222197281,77077.69011808037,31945.228033942516
168,33709.0,10733.0,[24],1,0.9813539339345636,0.39578456023615205,1.0502064891868503,1.4241171656234237,1.0451700054288162,0.43889460764186805,0.2945199563914698,0.9938990633361904,4.976783251327522,1.5278756866118934,0.4111664327034288,0.20674691566050685,1.5425199999109989,1.1334032391942765,61683.54896318494,25601.02144827784
168,80570.0,10248.0,[28],1,1.9832838459600166,0.35448803724711997,1.6322190996648946,1.6229691371602568,2.178357835770124,-0.3386119390467729,0.6726508862355991,0.953137574221135,5.644563859339723,3.0537629628645737,0.4272845825245071,0.257762600086889,2.4792395679533303,2.2038054025195675,72576.374134293,30471.43502544375
168,115842.0,23989.0,"[32,41]",2,0.3960809122943345,0.5286971301168877,1.3250347012137267,1.0636857890143494,0.7336462512732949,0.45856943127709693,0.11763385105576374,0.9770748579099333,2.0263110321386124,0.527260929429742,0.3712540024430049,0.2810751966816847,0.7341557042868708,0.697143747026129,62372.23252360952,20790.83109752955
168,67044.0,9521.0,[30],1,1.453054833318428,0.6599242934342153,2.7023518166129663,2.5145876026638967,2.2466808346161122,1.7524573461160002,-0.6578564792822572,1.2481232475687594,4.529475684774177,3.1749027264781278,1.537215989335357,0.5717645939233873,2.4318827249119854,2.6108622149782197,122330.87285961433,101827.15494302355
168,38484.0,9002.0,[33],1,1.1201995530869888,0.26438488018396633,0.9145246594169198,1.8860396702266065,0.2553280145774912,0.4980152183244928,-0.3005888320340899,0.7729975769930597,4.558330927658304,0.6440981283650394,0.3543718848612385,1.1576956958736004,0.5859627674618008,2.656227934076488,81329.1824134707,21401.853445587803
168,39415.0,12099.0,[34],1,0.7713162167702541,0.20804015694531675,0.2180641060763664,3.2775099145249427,0.4854241291639929,0.38094489021945477,1.742446082202211,3.7541662864391476,4.327752960243553,0.5550927203095243,0.583124070531507,0.4713473053659767,0.7104982059114563,2.1331141612330438,57912.800304452765,19218.497729290943
168,29800.0,4283.0,[35],1,1.4455405998322168,0.44565779845638387,3.697344349093949,1.5867547647315225,1.499503737114063,0.7857699942281953,0.11640433983220033,1.0141740681879035,4.815805594697948,1.2298038647650977,0.5627597287583934,0.24156784459731773,1.9179563421476291,1.4395667492617379,65366.66201342301,42004.6174496643
168,59809.0,4673.0,[37],1,0.4677146460565915,0.9418152217559088,2.882308794211571,1.2748804775033276,3.5019162656790175,-0.651300671955725,1.147126278185513,0.9329665778895944,4.624064482519326,0.4711322730023906,0.02684701163705716,0.1693355639619516,2.385157286846443,1.759932166145558,71041.7752512167,28690.84077647172
168,73736.0,8757.0,[39],1,2.122744954472722,0.37432062277581357,1.559411581181529,1.6475787124064074,2.1130467909704476,1.1557562975751432,-0.2602827089617237,1.1607948473880043,5.690826540143237,3.0797080324129587,0.5445692379163156,0.23631151166322806,2.545518380695965,2.232062488797892,73913.28458283638,31847.024411413837
168,56540.0,12089.0,[40],1,0.2314663217545283,0.012248001361833794,-0.5551283404138658,2.098655144729389,0.14977594499469138,0.9795951710293813,-0.2512465507428301,4.435462200866695,0.9620038472585705,0.5122224029713373,0.2600754226742099,2.1460196849486946,0.8134743068093367,2.4515111838698354,74032.88178280856,13656.58238415267
