time_in_hour,cumulative_size,size,pcore_ids,pcore_power,AF700 CD48_[R 730_B-A],APCCy7 Ly6G_[R 780_A-A],BV421 CD117_[V 440_F-A],BV510 SCA-1_[V 525_E-A],BV605 CD11b_[V 610_D-A],BV650 CD150_[V 660_C-A],BV711 CD11c_[V 715_B-A],BV785 B220_[V 780_A-A],FITC Ly6C_[B 525_B-A],PE CD115_[YG 582_D-A],PECF594 CD135_[YG 610_C-A],PECy5 CD3-CD19-NK11_[YG 670_B-A],PECy7 CD16-32_[YG 780_A-A],PerCPCy5-5 CD45_[B 695_A-A],_FSC-A,_SSC-A
-1,0,0,[],0,0.0,0.0,0.0,0.0,0.0,0.0,0.0,0.0,0.0,0.0,0.0,0.0,0.0,0.0,0.0,0.0
0,119589,119589,"[1,2,3,7,32,40,44,56]",8,0.2604473280736548,0.14218934701352115,0.2792719531896819,0.49661418362056775,0.26661907512396166,0.2007542340432611,0.009231374524410363,2.6066541563605483,0.7429137076570594,0.30590433974696685,0.15950027016698698,0.9922698628552802,0.5893117806905278,1.032508055582038,69513.38360551557,13217.477861676225
0,38978,38978,"[2,3,32,41,55]",5,0.34905584588742244,0.22596863779567888,0.7486099195187066,0.5290363018625874,0.2990906249935801,0.4452665062855894,-0.09322340099542892,1.6740689972035607,0.9911136329467932,0.3970879938170252,0.22974477243573244,0.5977692903432725,0.5563062119400656,0.8125239849658776,69459.33069936873,14166.31576786908
24,155776.25,125879.0,"[1,2,3,7,32,40,44,56]",8,0.2436624298521104,0.12762014515049724,0.3212722525513403,0.5573109444748541,0.23198809239373697,0.23190949086751056,0.010095911263746427,2.5150251213984953,0.7400262200319349,0.2917765175853213,0.14764882766306853,0.929408183803689,0.5247006740838206,1.0010336449924158,71839.21009781657,14181.72231004402
24,8885.75,7608.0,"[37,41]",2,0.434044049714428,0.3957462383029009,1.636750795037004,0.8241370530624881,0.7509054900824421,0.07561568474805158,0.34052702031342363,0.7011842973862703,1.7591198282362246,0.5268111065188618,0.3243891980699454,0.2945364681653202,0.724934349717245,0.7817058208085981,63018.5706327546,20263.920096784117
24,24158.0,19791.0,"[3,32,37]",3,0.4017432715042648,0.14546558013909205,0.612751638898092,0.6118708202044898,0.19532442465227806,0.540997257419898,-0.1103348635959076,2.890235831877643,1.0724396411126724,0.38394009194676515,0.19366725215249625,1.0393958817575952,0.6163889609963541,1.2771117479820269,72730.22137594162,16405.85346469075
48,162067.0625,122383.0,"[1,2,3,7,32,35,40,41,44]",9,0.23410094560160588,0.14678723523865145,0.36397256994692784,0.5174642746239679,0.23249898010583925,0.2167630489126211,0.02233830192439834,2.411008125345494,0.8687629552388233,0.2895499759034955,0.1435487145996306,0.8050838416168744,0.5431849310231535,0.8751864117454466,69085.6934116394,15143.161023233768
48,18962.625,15916.0,"[37,55,56]",3,0.3634559546278535,0.5001083142299758,0.9222566594584003,0.8038668514017844,0.6426549470141976,0.5640446187006063,-0.054682999057357407,0.7978857111917503,2.225678522541046,0.4415142621406575,0.3145594535962122,0.20238282090757598,0.6225309495784465,0.6205863383201151,55717.909519383466,19366.823316919454
48,31831.375,25099.0,"[3,32,35,37]",4,0.42205343346776925,0.17960985597935997,0.5557166623614345,0.6180231772779328,0.21598465326073546,0.5178101646743998,-0.10505040396660625,2.6475038682392924,1.6889964050798971,0.42752511816957617,0.2008588606681294,0.849543394624412,0.6805615605946956,1.1322595475003046,68571.89260595874,17630.26485660759
48,26972.875,20339.0,"[51,54]",2,0.10488339326777774,1.0839667296751978,1.803119147479181,0.5568391385164757,2.1732125868279684,-0.32848546690888747,0.5479118216240444,0.43485395690578343,3.7524360965507024,0.2913417794474119,0.056938376211300934,0.11464605829004082,1.428100077239641,0.7750631073138305,61237.59117261319,20232.977908361572
72,167853.765625,128298.0,"[1,2,3,7,32,37,40,41,44]",9,0.23434724608073831,0.21264803009250555,0.3184974778030756,0.6405966875127822,0.30672163647924133,0.21612131861169526,-0.001594283012713582,2.4781046982780275,0.7716134246534919,0.296698847850263,0.15470338963435193,0.7606810461688116,0.6068775628606605,0.9589203057982691,69921.975704857,16617.97102742239
72,164133.6875,129389.0,"[4,5,6,9,10,11,26,33,34,36,38,45,47,51,52,53,54]",17,0.22758722654503183,1.6917807166479006,1.61166719700319,0.8493143025019814,2.3976176708629073,0.13289139011539097,0.22163860809223657,0.6643058946201061,3.5029791175388065,0.45554451444649446,0.2018693591526417,0.13651837653595178,1.754836368958189,1.3609970550725812,67445.17492181493,22247.335879783917
72,67183.28125,49492.0,"[2,3,32,37,55,56]",6,0.29562030972316977,0.3952572106474137,0.591750707340466,0.7062924537982567,0.508481809641308,0.42877011834115253,-0.06603043046470392,1.6471512483583926,1.4070988705511724,0.36618956500524713,0.21546082105341435,0.47624188057296635,0.6447214140853029,0.8207510698518288,67635.55004244439,17802.522245815388
72,86046.84375,67403.0,"[5,6,9,10,11,34,36,38,45,47]",10,0.2531994364751877,1.7738942407974334,1.5598602208105032,0.8513048352194774,2.3650278544112378,0.35424516268427686,0.09286741331810555,0.6719430662756665,3.4668430624841338,0.4875555546666258,0.23095314404127532,0.1343229363936569,1.7801907440255058,1.4190520792143024,67520.90465840013,22158.658294773264
96,126657.2265625,87976.0,"[1,2,3,7,32,40,44]",7,0.37223206026665334,0.16649816734268574,0.28838664035861816,0.6920381614471256,0.24946364854067404,0.21763348130097993,0.07808342813626235,2.8762469756626166,0.664667951663651,0.3470387248435961,0.19001130789165455,1.092052061652123,0.6354333435511678,1.0949864666559153,71404.0772520568,14635.918409955457
96,64715.57421875,50605.0,"[8,10,15,26,27,36,52,53,59]",9,0.5195574189457186,2.484636444271139,1.9608180927494163,1.0199083550177206,3.2016985663451343,1.2162763751868055,-0.18322827202355052,1.0909676438797402,3.7711538997199816,0.6103991979133797,0.23090595308171658,0.10765810096258321,2.431821225764034,2.0094578108942724,68410.02828832674,20493.10465464046
96,50924.51171875,43414.0,"[9,33,34,45,54]",5,0.07020781989142422,2.455160339657474,2.1893560162546026,1.0521977081034746,3.4268742663325544,-0.6717157690866739,1.1792424314080874,0.7888401886050675,3.8616396647378965,0.45150597699367023,0.010519023003341399,0.1510162955833434,2.5020694152932377,2.044698147652144,68662.88546489041,20112.642290154414
96,51963.55078125,32509.0,"[2,3,32,41,55,56]",6,0.3783429586496512,0.3581428491815428,0.7382559678182634,0.7489530053237399,0.4494368112114251,0.3984857934304811,0.01588963702253965,1.7992670818935617,1.3243812261094319,0.4111366828881482,0.2619257238579009,0.6220515492721062,0.6477385618271817,0.8464965435081495,68848.29621845056,16602.340617209975
96,10698.234375,7692.0,[7],1,0.42054488937828793,0.0997406038909161,-0.71573617517859,1.2881668686096757,0.1186063452340278,0.7352647215077779,-0.15209045843064084,4.046932175061023,0.6322350810943514,0.4177339916381493,0.24278979277539436,1.734912449138084,0.7763133151794096,2.0047753433342552,73035.47474393413,13819.242836507708
120,108170.306640625,76506.0,"[1,2,3,7,32,40,44]",7,0.3334367571553982,0.1780088699277922,0.3827303799638777,0.7024001754243119,0.2690489095105466,0.21002800992013215,0.10715751888886826,2.785116810812527,0.6576148453568188,0.3565408642572401,0.21697162393412261,1.078880768799172,0.5958942890032789,1.1153382646898873,71049.79845377998,13889.436677770664
120,94209.2080078125,78678.0,"[8,15,26,27,36,52,53,59]",8,0.4944324993204665,2.7503525093479544,2.1841374156795816,1.1131905884210433,3.4670405047173793,1.2779223434270628,-0.12253765324969024,1.2228699350289474,3.858269712724207,0.5109908951102199,0.22219285009741707,0.08977035878365147,2.6297575449093964,2.216408973798622,66439.45183859774,18777.399846661454
120,71960.1474609375,60244.0,"[9,33,34,54]",4,-0.04585132004441572,2.6769766208682935,2.360496175225468,1.1579746375827145,3.6700973920657822,-0.7993672958397224,1.3585887691448755,0.9230794160757503,3.915912016126448,0.3208063152051742,-0.02353359259878829,0.13993552024324274,2.667692700860054,2.2334730790736317,66583.4437193296,18548.84723050434
120,16692.9990234375,13234.0,"[15,42,45,60]",4,0.6290877903106742,1.3378372186899936,2.7791107102806287,1.3200363401637083,3.385108492191906,0.9583762394118047,0.6064399582823539,0.8783997547957498,4.243586554579776,0.5534336927173648,0.2905625965676335,0.12800902890310495,2.3977852035346348,1.817061806712046,70117.86350787611,25871.62882736853
120,5597.2607421875,4596.0,[33],1,0.5525177515515356,0.9194698631401841,3.1917450175418964,1.541209745014771,3.895926266094531,-0.8472457922653303,1.4842941529455609,1.3894022009731994,4.659434012016557,0.3690845559612973,0.04021756317795733,0.1643770308210888,2.5905890389758843,2.043361127833358,71930.97652712718,28312.02773538607
144,100359.57666015625,73317.0,"[1,2,3,7,32,40,44]",7,0.40745399548823547,0.12690240799179264,0.3717108398899236,1.0274256176885093,0.25027917678275813,0.231307608517058,0.17016513363835317,3.065740146680378,0.6872929704854255,0.38103406949041807,0.21321181179127358,1.2795127700593492,0.6768249981537385,1.2596962228525739,71346.57139519116,13774.263723790835
144,93532.16625976562,67646.0,"[8,11,15,26,27,36,45,52,53,59]",10,0.4756230133701109,2.6759496587302696,2.175830368048231,1.2464343057814928,3.449687753635675,1.2225286224264915,0.10024245087162287,1.1183725999631364,3.7365959411110157,0.5571835157400068,0.14753664754747087,0.12259400171259527,2.601764870996898,2.144346418950137,66047.36920681436,18206.944330004128
144,65886.03686523438,47896.0,"[9,33,34,54]",4,-0.027131962278672983,2.6948456986867155,2.282955610871156,1.3003908395699733,3.6110272661399443,-0.7977650382209305,1.4012086962438537,0.8888260245721669,3.7726518440554293,0.3964217299116788,-0.09157114260437726,0.17382808316969556,2.633206081714326,2.201826087927763,65748.11364030867,17639.45097899209
144,22158.271728515625,15090.0,"[26,33]",2,0.21324935995713745,2.7764112344710803,2.28977258591538,1.3951783336037469,3.6986375872644044,0.9759665247486164,1.201903507835668,1.049357283698353,3.8552204968431734,0.5639691499075375,0.1352156874465078,0.1541728103323432,2.7132920352429566,2.270700544052983,66501.7267143984,18670.433283475602
144,47017.76513671875,34707.0,"[3,7,32,40]",4,0.4580811451233222,0.1321087560623373,0.42848201198298996,1.2195510267082108,0.19943508405121957,0.5004507741356574,0.0799789262756625,3.399244062410495,0.8986633441482684,0.42646762634154145,0.2393451051480624,1.4259832046642018,0.7236935377308152,1.376732877549071,71197.56810504937,14712.115394132434
168,46169.23010253906,41643.0,"[51,52,54,56]",4,0.27256914837018775,0.9427380122683755,1.394962949828955,1.3344238349105884,1.9038279326402194,0.19188200459364246,0.37113362259718086,0.7072097995834703,3.301557787933879,0.6012113755138181,0.2194665857578526,0.16394083201265552,1.3586106540648206,0.9931897493625044,61168.194544942904,22216.141681614256
