time_in_hour,cumulative_size,size,pcore_ids,pcore_power,AF700 CD48_[R 730_B-A],APCCy7 Ly6G_[R 780_A-A],BV421 CD117_[V 440_F-A],BV510 SCA-1_[V 525_E-A],BV605 CD11b_[V 610_D-A],BV650 CD150_[V 660_C-A],BV711 CD11c_[V 715_B-A],BV785 B220_[V 780_A-A],FITC Ly6C_[B 525_B-A],PE CD115_[YG 582_D-A],PECF594 CD135_[YG 610_C-A],PECy5 CD3-CD19-NK11_[YG 670_B-A],PECy7 CD16-32_[YG 780_A-A],PerCPCy5-5 CD45_[B 695_A-A],_FSC-A,_SSC-A
-1,0,0,[],0,0.0,0.0,0.0,0.0,0.0,0.0,0.0,0.0,0.0,0.0,0.0,0.0,0.0,0.0,0.0,0.0
0,98143,98143,"[7,22,35,38,42,50,55,60]",8,0.16650292488718427,0.23348093325072763,0.31382047397165674,0.2874257764650538,0.2614608974188579,0.22164596801656078,0.2519359577758705,0.49615429158133084,0.16465891730952506,0.10450095351375954,0.2477575058668815,0.2194131045629295,0.1462523363489184,0.2822207016335068,0.20034605982131717,0.04836669736169413
24,37533.3125,36222.0,"[55,57,60]",3,0.1755440875432982,0.23941473790102447,0.39860364401248943,0.29079893598169,0.2595048866498507,0.2354054836904719,0.2536934793470918,0.42630210534906116,0.15043791577995308,0.10621370358087333,0.2516348975451049,0.16542937473645775,0.13455117450702098,0.19349350558739822,0.20259354848102962,0.06696953476900568
48,100322.49609375,93492.0,"[7,22,35,38,42,50,55,60]",8,0.1586104849109467,0.23270412454552084,0.2996888497683065,0.28760647602496825,0.25289777943947667,0.21736650099369664,0.2550832115756163,0.4800792066174868,0.15643296092599476,0.09323245219036173,0.24374880726555062,0.19393379145222064,0.13367179102667456,0.23724705396765997,0.19733874414780717,0.05286100911821977
48,49145.4921875,45667.0,"[22,35,42,50,57]",5,0.16019109226831182,0.2396418020776189,0.39495054950542535,0.2964059801925954,0.2656292320889616,0.20645443467897995,0.261197735498335,0.403275908644527,0.20326572193667597,0.10230935219410846,0.24993604875741218,0.15783365918926553,0.1307021100433952,0.2178636631395528,0.18420680551157245,0.06460833989549351
72,48870.802001953125,46506.0,"[55,57,60]",3,0.1664750506473887,0.24496320846631062,0.34641748656767574,0.2952098417265052,0.26424628086827184,0.228284830732104,0.25279147917151185,0.45468232975217554,0.14211962127496638,0.10090576760364307,0.24865530931078872,0.16094853134073106,0.1425957035664097,0.20547595746887357,0.1965617601657923,0.06713672369687866
96,90449.38624572754,84779.0,"[9,11,26,27,29,31,32,39,43,44,45,51,53]",13,0.16494948385806252,0.4502393564293321,0.5099148844445563,0.3448264012409918,0.5589991104338439,0.17807380599676617,0.33259111582082446,0.34455776086832257,0.5447624141703702,0.1302769619946115,0.24265994728318133,0.09998296893267491,0.37062380059860495,0.43942802803428516,0.19554022334959614,0.07677022388394426
96,36655.23376464844,33692.0,"[55,57]",2,0.18342563015751945,0.24415670908171833,0.3637536991827964,0.3055013234826059,0.26274600220217187,0.2312770833626029,0.2649923842138254,0.4801042002808417,0.15232489918483896,0.11194538536166972,0.2566535605349312,0.20371158146413595,0.14731230328605313,0.2109235315578754,0.20022299886665357,0.06106273964320731
120,127421.78854370117,121615.0,"[9,11,26,27,29,31,36,39,43,44,45,51,53]",13,0.15670037075147897,0.4680818867351983,0.5312324531440694,0.35317360349398275,0.580236957066118,0.16703389036369448,0.3428474861147474,0.3490635651157783,0.553067627123671,0.11542606700535968,0.24165635387983928,0.09715102727985495,0.387850108213585,0.466330080644232,0.18533882399772417,0.07141666399673817
120,78554.51987934113,75249.0,"[11,26,27,29,31,36,39,43,46,49,59,61]",12,0.20001854110117304,0.4366740757268138,0.5468291601134844,0.3612402502426625,0.579917452108236,0.3359192915376444,0.2611622944541162,0.3630490976104698,0.5739395537510719,0.13202150606697804,0.25748034315218293,0.09469303719197043,0.38982357602088985,0.46393372150850964,0.1939812911338636,0.08499113605047534
144,108595.22123497725,100409.0,"[9,11,26,27,29,31,36,39,44,45,51,53,61]",13,0.1612470860302238,0.4671078137873487,0.5261695590202176,0.3776569817802873,0.5796757494387514,0.17575195970141697,0.3531295645138813,0.34667001648775786,0.5366773255247886,0.12841889169020457,0.23380800911980823,0.1049042787979397,0.3887299934001054,0.46545251109301444,0.18492724866594829,0.06963349577904294
144,60013.58033531904,54934.0,"[11,26,27,29,31,36,39,46,49,54,59]",11,0.19951572542104812,0.4479796299965786,0.5278557946756258,0.37751724249343993,0.5708528281365791,0.3528519533893146,0.2639875481194179,0.35516130776629995,0.5428318497203501,0.1427284286782803,0.25055629435597854,0.10136783496183258,0.38521868685299004,0.4595889201383397,0.1903428817245503,0.0782576181515007
144,1136.0771678686142,865.0,[45],1,0.19157599218360824,0.3694016608062055,0.5061849585350876,0.37408028123373976,0.4866781528156083,0.20890003275925498,0.3103314844400466,0.34909715347620923,0.5196418987381448,0.14193293314914388,0.2565503611950985,0.11052967943995486,0.31212340052564913,0.36059496113058437,0.1773298705209061,0.07502727425027993
168,97617.20379504189,91001.0,"[9,11,26,31,43,44,51,61]",8,0.16402757035289423,0.41361639025335345,0.5091603107253645,0.39098807484772474,0.5388398186762825,0.16304080869813056,0.34259763837304624,0.33392933949809267,0.5114954082468443,0.14304847766414955,0.24179706368052842,0.10312604232888997,0.33928438768235136,0.39044334038553863,0.18971107356199696,0.0835895603294686
