time_in_hour,cumulative_size,size,pcore_ids,pcore_power,AF700 CD48_[R 730_B-A],APCCy7 Ly6G_[R 780_A-A],BV421 CD117_[V 440_F-A],BV510 SCA-1_[V 525_E-A],BV605 CD11b_[V 610_D-A],BV650 CD150_[V 660_C-A],BV711 CD11c_[V 715_B-A],BV785 B220_[V 780_A-A],FITC Ly6C_[B 525_B-A],PE CD115_[YG 582_D-A],PECF594 CD135_[YG 610_C-A],PECy5 CD3-CD19-NK11_[YG 670_B-A],PECy7 CD16-32_[YG 780_A-A],PerCPCy5-5 CD45_[B 695_A-A],_FSC-A,_SSC-A
-1,0,0,[],0,0.0,0.0,0.0,0.0,0.0,0.0,0.0,0.0,0.0,0.0,0.0,0.0,0.0,0.0,0.0,0.0
0,123490,123490,"[2,4,10,17,22,25,26,27,28,30,34,41,43,46,52,57]",16,0.36101931876265625,0.20871697552838286,0.625870749712528,0.6096004724269135,0.41685766997325713,0.25822264107215087,0.011787853866706666,2.457101316187538,0.9739604860150631,0.43714962365373433,0.20987378415256108,0.9708496466677494,0.7093061014414127,1.1902304023321726,69355.21619564338,15398.753971981476
0,82657,82657,"[21,24,29,31,32,36,37,40,42,48,51,54]",12,0.38445246538102285,1.6189973194889742,1.9642326080428592,0.7708854617273841,2.542985488186121,0.10303630116021867,0.2659403274374883,0.7732340538006541,3.978376067302221,0.7258188379447642,0.17177236815998098,0.20654316644687964,2.007555359679155,1.6454995758012068,69250.79671413181,22070.28583181096
0,41415,41415,"[4,10,17,22,25,26,27,34,43,46,52]",11,0.3952613679826158,0.25135011015332287,0.7914181262103086,0.7381074958831331,0.5215673551853182,0.27865838587468317,0.03190784203790198,2.4233638800676154,1.2943433298563307,0.5265735129059527,0.24594160226971074,1.0238040522516036,0.7817019174453689,1.402192717348787,70253.70942895094,16657.98150428586
24,344079.0,155221.0,"[0,3,4,5,6,7,8,9,11,12,13,14,15,16,18,19,20,21,24,25,28,29,30,31,32,36,37,40,42,46,47,48,50,51,54,56]",36,0.4000632710365988,1.6012645304566648,1.9428561635467374,0.7749185639954783,2.4865609944867297,0.349199697938555,0.15061337302770506,0.7841161353468276,3.936638369034442,0.679428120969315,0.16099767706253232,0.18501790539381768,1.9166948134381858,1.5737547187302932,67999.57470232126,22353.047991885564
24,267794.0,147168.0,"[1,2,10,17,22,27,41,43,52,57]",10,0.34948092110727536,0.16938083425321082,0.7026234496740198,0.6039182445835074,0.2939348674765001,0.27548626091697415,0.007495704033688266,2.20741871624082,0.9027380838032192,0.3781778628908705,0.20096378586152275,0.8269717049187075,0.5752470868428804,0.9826907374213052,70707.17796515222,16087.805044175731
24,29611.0,15018.0,"[26,34]",2,0.23238895636757184,0.08190808888588563,0.17727947809933786,1.0374586356759128,0.3226296083887874,0.2838217711323552,-0.04631956560061745,3.500476471750388,0.9978335732329212,0.4265547006517916,0.19088853503767078,1.7035258632602877,0.7107264275775825,2.1151593590557516,74533.70922967832,14374.325216980094
24,22764.0,11958.0,"[3,4,5,6,7]",5,0.3069895982691979,1.1984199500527333,1.5049969792655085,0.7621625103672547,1.8254852611140389,0.25903574907749904,0.2631977469688831,0.7609522570286522,3.4740343786680663,0.501875115357581,0.19628468560006906,0.2171744586188693,1.3986167832103296,1.228923169126703,63487.95501669313,18810.15217009311
24,54025.0,25110.0,"[9,11,12,13,14,15,16,23,35,49]",10,0.3543149624433133,1.3677835943914847,2.065864835002308,0.8483019009532611,2.5817387341971343,-0.12296110247107972,0.5228802088107294,0.7718052187876117,4.00609463666821,0.6609596934012042,0.11965711485423247,0.20262265521517786,1.92841895120777,1.5706724112355381,69983.25900971779,23792.439796390467
24,4590.0,0.0,[20],1,0.2738673640522866,1.2975785673202682,1.541896605228748,0.723489653159044,1.8539775272331016,-0.07298410849673331,0.3474810492374605,0.8497999697167726,2.8326712305010866,0.5808905601307212,0.24146595860566045,0.2782077058823518,1.4769952808278877,1.3217335740740759,64183.3272331155,17789.713289760348
24,10026.0,0.0,"[10,17,22]",3,0.42293810173548985,0.21700156981847085,0.6577365989427597,0.5995691415320197,0.41778928715340014,0.2851873512866563,0.036208833632544124,2.490592636046287,1.2247653427089564,0.4932174845401972,0.2132345018950743,0.9625077797725956,0.7258170336126079,1.175864478555752,70557.59984041486,16556.524236983838
24,30958.0,15581.0,"[27,43,52,34]",4,0.5281107736933921,0.264204908715032,1.1627215332062821,0.8616969946701909,0.5103715604044194,0.31248575108211174,0.1261207223011791,1.6869814440209137,1.5687104719297098,0.5357792256928705,0.2699568998966271,0.762597181762388,0.6659059537760849,1.2526164775502318,70523.92531817302,18532.93468570317
48,483976.0,151099.0,"[0,3,5,6,7,8,9,12,13,14,15,18,20,21,24,25,28,29,30,31,36,37,40,42,46,48,54]",27,0.3538979652338172,1.621120899579703,1.9498710486738964,0.7401573122861431,2.487096420157203,0.35148390617303527,0.13910583238217544,0.7364818052114197,3.8943402344951017,0.5776768228176633,0.1482721540200389,0.15721424731391453,1.9062376696220458,1.475191820693588,66844.96328743573,22208.22149858668
48,400498.0,130831.0,"[1,2,4,10,17,22,27,41,43,52,57]",11,0.3223017236265868,0.17075637734521232,0.6555855882276655,0.5869102903360179,0.2851082230098587,0.2729630102147784,0.011299610554856176,2.205206435265553,0.8868541705751326,0.35921966488222,0.18913841716563828,0.7857433810830461,0.5660200979455708,0.9259593911704864,69568.87091570973,16173.859864468648
48,42295.0,12684.0,"[26,34]",2,0.24595073673011858,0.0775719822201153,0.1187838817826945,1.0660211842061589,0.2807782927532805,0.3159840422744986,-0.08440215302046505,3.4274319589313027,0.9805553414115119,0.3904339090436233,0.18260349646532115,1.7350653348622815,0.6793930324388165,2.160580775292579,74768.96427473711,14510.855656696898
48,8742.0,5989.0,"[5,6,4,51]",4,1.1884825075497611,0.4540628435140661,1.4282204832990102,0.8729882602379222,1.1734749933653634,0.11805659677419555,0.4197653077099015,0.9001887148249819,4.729475304964539,1.8683928216655246,0.3830116916037487,0.25510504404026624,1.698550653282998,1.2647788478608994,65794.92107069318,26527.860901395612
48,4879.0,3633.0,"[16,47]",2,1.5753831885632346,0.42453117688051023,1.4129599108423818,0.9164001330190588,1.6455529075630322,1.0646722029104378,-0.17334444312359132,1.0842700293092875,5.41865138614468,2.1349898468948525,0.45560057019880906,0.21485591596638665,2.152797932158228,1.7166814552162342,69541.54211928675,27299.823734371763
48,30888.0,4224.0,"[9,32]",2,0.7381705718401939,1.1526213552188613,1.6041775357096602,0.7482960675666943,2.1294842858067793,-0.007735065203312574,0.3444706304390017,0.8277981072908633,4.204811268032892,1.1671804065656546,0.1892246087153615,0.21234988529526178,1.8820692536907568,1.5683192262043522,66956.85677285686,21703.554519554473
48,10234.0,475.0,"[13,15]",2,0.40530777183896594,1.2658237137971504,1.7481554702950972,0.8470585494430285,2.0188732474105904,0.4041001166699252,0.19693455491498968,0.8514425019542635,3.527028729235869,0.6321807162399834,0.24520794215360064,0.22129152491694493,1.5997894414696119,1.362375539085402,66245.26558530389,21619.899159663873
48,10499.0,5909.0,[20],1,0.15046924468996825,1.313858517001631,1.6237391848747609,0.6814340065720592,1.915545351462042,-0.36550654071816824,0.4510321003905018,0.6521036025335856,2.9555451105819666,0.44104556081531987,0.1654305675778649,0.20184913572721275,1.4027192565006295,1.1874182094485166,62299.26050100013,17906.747690256117
48,7945.0,5625.0,"[17,22]",2,0.3390003015733203,0.1974042191315304,1.201075203272497,0.7815891285084988,0.5173515879169277,0.01082008017621261,0.13476050497167247,3.0461380568911256,1.264736218124599,0.5081832279421022,0.20032256576464214,1.1898356660792977,0.7841934179987414,1.6478051828823135,71741.30950283207,18283.056010069227
48,69380.0,10954.0,"[33,35,38,45,55]",5,1.859386883107536,0.3835859631738261,2.057363236350516,1.1965332140098024,1.7298136872297372,0.6710207394349987,-0.021603435601038612,0.904691430585181,5.465671912611695,3.185497264788122,0.5849707769385892,0.2710638188815223,2.418086550792736,1.9072238244883335,81108.87979244726,43233.04329778031
48,36553.0,24489.0,"[25,27,28,24,30,40,50]",7,0.47844653377287605,0.7438955994856848,1.5298994379941333,0.8322016343665344,1.1502301480863526,0.2520736065712821,0.2723281398517261,0.8284314102536161,2.684556592618924,0.5474308512023617,0.3195726514376451,0.2483174580198646,0.9848865708423377,0.9271409974557523,61776.13788197948,21054.397942713316
48,25561.0,8160.0,"[14,43,34]",3,0.6058964590587226,0.18933945870661661,0.9372580194045605,0.8920013517467922,0.38726615222409855,0.3530755753296042,0.04381168424552895,1.6510124763897958,1.9076513724032704,0.5598291557841996,0.21898511826610223,0.9498870045772829,0.6372901746801781,1.5479846252102814,73834.65748601379,18629.463323031145
72,654591.0,164455.0,"[0,3,5,6,7,8,9,12,13,14,15,18,20,21,24,25,28,29,30,31,36,37,40,42,46,48,51,54]",28,0.38585417350987017,1.5959732381548055,1.8702565180715882,0.810577971137699,2.440290610784443,0.3466616488127747,0.13137009981193914,0.7324719784048401,3.8414462968769887,0.6198175584082303,0.18866384343201315,0.1556198451842432,1.8835443495113724,1.468245558377676,67842.24198621727,23358.041256295925
72,533443.0,139721.0,"[1,2,4,10,22,27,41,43,52,57]",10,0.3112370097929793,0.19468355652056335,0.610768589429425,0.6111141427031455,0.29829033696196294,0.2802878762510681,0.0015895715437230784,2.1724512133385847,0.910961459100594,0.34904504599553565,0.19114082204848204,0.7315048124129433,0.5686700836865498,0.895855923898139,69175.35793702408,16702.185133181898
72,73261.0,24190.0,"[17,26,34]",3,0.2418652909460739,0.12070676243839928,0.1933925107901886,1.1804302626090308,0.31208775196898797,0.24518513652556972,-0.029062816723775864,3.493988204747417,1.0536859288571034,0.38825408169421805,0.18608086489401732,1.6029114549623973,0.7122276401495963,2.0840052073954713,74735.34590027438,15705.68176792548
72,4879.0,0.0,"[16,47]",2,1.5753831885632346,0.42453117688051023,1.4129599108423818,0.9164001330190588,1.6455529075630322,1.0646722029104378,-0.17334444312359132,1.0842700293092875,5.41865138614468,2.1349898468948525,0.45560057019880906,0.21485591596638665,2.152797932158228,1.7166814552162342,69541.54211928675,27299.823734371763
72,2582.0,0.0,"[5,6,4]",3,0.7334829965143304,0.6325010104570072,1.4643513872966691,1.230929592951202,1.0728554767621992,0.4924804674670835,0.3789195441518136,1.262436233927191,2.7040948001549228,0.8101372680092952,0.5286539380325279,0.41090373392718826,1.097195149883813,1.367524884198297,64263.93183578623,22087.23780015491
72,43512.0,12624.0,"[9,32]",2,1.0104297715342885,0.9557540315085569,1.5255007294309535,1.0836146172550105,2.0550831056030403,-0.028071430731752667,0.3559362580437484,0.8435889410277699,4.5017324206195894,1.5604494897959116,0.28528545580529663,0.24684682338205832,1.968784123942818,1.719328926227243,70930.83287369028,26945.968008825148
72,10234.0,0.0,"[13,15]",2,0.40530777183896594,1.2658237137971504,1.7481554702950972,0.8470585494430285,2.0188732474105904,0.4041001166699252,0.19693455491498968,0.8514425019542635,3.527028729235869,0.6321807162399834,0.24520794215360064,0.22129152491694493,1.5997894414696119,1.362375539085402,66245.26558530389,21619.899159663873
72,1169.0,0.0,[22],1,0.7798085928143743,0.2766998066723718,1.5790390795551725,0.8783934422583384,0.7989162241231811,0.3368733438836631,0.22743351154833347,1.7814897305389206,1.349332169375534,0.8393536458511551,0.3573455851154801,0.7745571873396055,0.9801443413173662,1.5743102720273723,70275.12061591103,19997.01625320782
72,69380.0,0.0,"[33,35,38,45,55]",5,1.859386883107536,0.3835859631738261,2.057363236350516,1.1965332140098024,1.7298136872297372,0.6710207394349987,-0.021603435601038612,0.904691430585181,5.465671912611695,3.185497264788122,0.5849707769385892,0.2710638188815223,2.418086550792736,1.9072238244883335,81108.87979244726,43233.04329778031
72,31266.0,0.0,"[25,27,28,50]",4,0.4174933058274146,0.7066638986119185,1.4760728573850037,0.7546154348493546,1.0914385801509772,0.18273023316062398,0.24627374425894333,0.7784967316893887,2.69238406834899,0.46338129121089755,0.2641118947738832,0.22347145295209203,0.8966116992579788,0.8168850184865382,60727.85108424473,20248.64939550949
72,37692.0,11414.0,"[44,49]",2,1.2687801799586171,0.6730762427040391,2.6509675172184664,2.2864087460468867,2.174863178711646,1.5187780005040892,-0.49621492414835533,1.106852332961875,4.243595260665404,3.0805546836994306,1.4212439213891672,0.5069294486893836,2.355162259153126,2.4380839054706382,118511.9762283777,98537.39148891029
72,34006.0,0.0,"[43,46,48,24,30,40,50]",7,0.65616019243663,0.5221288556137056,1.6319687581603204,0.9471684856495881,0.8270659802975975,0.36694182958889465,0.2020909346291817,1.5592244778862439,2.174258128477325,0.6188936222431319,0.35364887881550144,0.5934942009645359,0.9319260761042155,1.2962113531435653,67853.74063400569,21796.97229900601
72,6627.0,0.0,[34],1,0.7606840769578938,0.10908644892107633,0.7295990341029084,1.088323290176548,0.2796898697751682,0.3820512162366114,-0.09612810004526251,0.4708010165987728,0.9180626906594253,0.46860740923494837,0.17632252633167456,1.2656341424475535,0.3476812412856518,2.3782041155877414,80060.20461747397,16669.6966953372
96,779190.0,124599.0,"[0,3,5,6,7,8,9,12,13,14,15,18,20,21,24,25,28,29,30,31,36,37,40,42,46,48,51,54]",28,0.4006044803013371,1.6748204082701235,1.900747359950722,0.8625878335348203,2.522561377293068,0.3466826892516648,0.19819046982379218,0.7757485950628271,3.8421007312735047,0.6302207151349489,0.18976536810792455,0.15564768662585526,1.9508989180623484,1.5381287101644092,67820.23703589605,23010.295635210903
96,655447.0,115377.0,"[1,2,4,10,22,27,34,41,43,52,57]",11,0.34879026202575436,0.23679334466707136,0.6382312707541637,0.6758067934554668,0.35057939351923384,0.281552351402939,0.03350649630251423,2.2039370142208083,0.9682741390852291,0.37761200992756794,0.2066448793128992,0.7756018252047803,0.6144973825725072,0.9733655944538533,69547.8253344663,16698.014857036324
96,86735.0,20101.0,"[17,26]",2,0.2537259447858422,0.1358980644491865,0.1790757977632964,1.308541218723704,0.3468908476970145,0.23800489778059108,0.05423039830517906,3.776479947287732,1.1041951664149372,0.42396308084394707,0.21236023057588937,1.6806033959993174,0.7647443052631574,2.0742280641840116,74429.0396264484,15658.553525105053
96,6402.0,678.0,"[16,23,47]",3,1.5311929976569847,0.5575291657294614,1.5808064761012148,1.1630612011871264,1.833237978288039,1.1891136205873212,-0.2550786693220868,1.168378054826619,5.222329090440469,2.207613441268351,0.5639701991565111,0.25182174632927234,2.2022408174008112,1.8770815921587027,73036.28616057482,32606.48047485158
96,8383.0,1039.0,"[5,6,4,19]",4,0.9605305487295712,0.498142303709892,1.117849125849932,1.2862599595610145,0.6699234047477027,0.44563299665990685,0.0754942002862884,0.9652318314445982,4.0172427791959855,0.6942351411189266,0.3802156492902351,0.8015568492186615,0.8402511776213785,2.1177138514851492,73486.78038888228,21628.82404866994
96,180240.0,34344.0,"[11,32,33,35,38,44,45,49,55]",9,1.7417448822958377,0.5000977501997435,2.053556998257856,1.6364867167776347,1.9300623995894255,0.7983975233854863,-0.030354716994017483,1.0165657670550265,5.14122296279961,2.972391617804036,0.79165777612628,0.3415013789780317,2.405588150887706,2.1374886487960496,89211.52347980486,54251.75605858845
96,20210.0,0.0,[9],1,0.23746518377041004,1.5674001081642852,1.5552451564571963,0.6707198782286059,2.18679311034141,0.12501794868877059,0.27660217110341145,0.7182270902028738,3.4058572104898595,0.5255663106877785,0.12985180331519297,0.19010972909450952,1.6891655498268223,1.3835023977733791,64523.29579416132,18384.916773874273
96,10234.0,0.0,"[13,15]",2,0.40530777183896594,1.2658237137971504,1.7481554702950972,0.8470585494430285,2.0188732474105904,0.4041001166699252,0.19693455491498968,0.8514425019542635,3.527028729235869,0.6321807162399834,0.24520794215360064,0.22129152491694493,1.5997894414696119,1.362375539085402,66245.26558530389,21619.899159663873
96,1169.0,0.0,[22],1,0.7798085928143743,0.2766998066723718,1.5790390795551725,0.8783934422583384,0.7989162241231811,0.3368733438836631,0.22743351154833347,1.7814897305389206,1.349332169375534,0.8393536458511551,0.3573455851154801,0.7745571873396055,0.9801443413173662,1.5743102720273723,70275.12061591103,19997.01625320782
96,14758.0,0.0,"[14,24,25,27,53]",5,0.5985326178343935,0.5032370534625281,0.9737130839544665,1.1753859112345824,0.7632424455210769,0.4504648949044594,0.4210655100284568,1.7742736970456736,3.529595249491807,0.7026718973438123,0.3427883200298174,0.3357068148123049,0.965311628404934,1.2350627537606713,62527.57067353299,20851.06816641823
96,1523.0,678.0,[23],1,1.3896277045305279,0.9835942921864751,2.1185106073539024,1.9532511891004547,2.4344956671043945,1.587767380827316,-0.5169179927774112,1.437821952724886,4.59340165725541,2.440266439921208,0.9111372508207469,0.370243470781353,2.360633356533159,2.390930750492454,84231.85817465527,49606.5975049245
96,13238.0,0.0,[31],1,0.4358167999697833,1.6994340738026974,1.974080585435845,0.8395894671400637,2.4420429724278647,0.41721509208340346,0.12809206481340674,0.7932702243541274,4.1242723572291915,0.817799289394168,0.23140196351412,0.23107644802840221,2.012238843783054,1.7103806938359305,70936.72397643134,24370.34718235379
96,7042.0,0.0,"[30,40,50]",3,1.4855129904856554,0.43125000227208243,3.198921066174376,1.4189550109343934,0.8604230840670275,0.6443733743254738,0.46542545356432763,1.0216129189150815,1.9151689197671118,1.0934835904572568,0.7786360511218424,0.3256028264697529,1.268445568020447,1.4949309707469467,65110.748082930935,33326.37773359839
96,10993.0,0.0,"[35,38]",2,1.168067135267904,0.5697706585099644,2.68835477303737,2.023904499408711,2.0804635152369753,1.2380222853634126,-0.23105482989175385,0.9702303272082196,4.330850435186024,3.051931042390631,1.1955757450195659,0.46233754825798645,2.2790015303374784,2.2859670955153266,105389.97543891585,78228.23687801335
96,26489.0,1758.0,"[36,42]",2,1.3334217553323968,0.5801387949337449,3.3580690541734373,1.3824681433425217,1.957179278002203,0.6763090711993622,0.09467930571180183,0.9229652117860252,4.710150930348465,1.296700340292202,0.5213882923100042,0.23253169587375788,2.086380731473443,1.557542069085275,76356.41904186638,45687.65721620305
96,35346.0,0.0,"[34,43,46,48,50]",5,0.6484220684943136,0.37858222619248716,1.4304380181915861,0.9221996778136101,0.624095132037576,0.3256174445764721,0.11262512861426988,1.4202968201776631,1.8693291042550757,0.5270581498896606,0.2764402345102681,0.7491662893962523,0.7363793440559036,1.456749393340124,70124.11882532669,20233.994907485936
120,1006283.0,226531.0,"[0,3,5,6,7,8,9,12,13,14,15,18,20,21,24,25,28,29,30,31,36,37,40,42,46,48,51,54,56]",29,0.43622198040113314,1.756822748229864,1.958866889259784,0.9667918464318581,2.6153482377859674,0.3572839668453125,0.27539176468050774,0.8623132628733594,3.8515523256340303,0.6593147862549659,0.2089608968878771,0.16436949221043895,2.040499535232148,1.6534612632410564,67633.18358751957,22835.51377892692
120,761396.0,105949.0,"[1,2,4,10,22,27,34,41,43,52,57]",11,0.3539720962390067,0.24755932667756841,0.6578234201072921,0.7220147688062379,0.3681451331041883,0.28137661464073593,0.052401091787953824,2.2328154902442323,0.976606450683997,0.38834204259149463,0.21896965668720192,0.8051572090239487,0.6242757764934407,1.016309513615772,69585.38734640056,16570.55963519623
120,91422.0,4687.0,"[17,26]",2,0.2605892255583959,0.14021374140798049,0.19929797648267122,1.3249280632670453,0.3577257282382895,0.24011416436962474,0.06743181535078646,3.755915012513422,1.11962468608212,0.430190876156722,0.21754361520202758,1.6777645445735252,0.7674706859508577,2.0725537008378723,74288.3503751831,15666.003894029716
120,20414.0,3643.0,"[16,19,23,35,39,47,49]",7,1.2885591360830813,0.6008129750661335,1.6305066540119522,1.557157698001367,1.4407171349074193,0.9482609357793679,-0.062330100519253584,1.1287869265210166,4.51853308092485,1.692039051239342,0.6469874806015516,0.5635636339276986,1.6746901676300547,2.2371714919663006,79811.95650044082,35789.73802292543
120,40376.0,6270.0,"[5,6,4,32]",4,1.6768241036754474,0.5032453923865607,1.602089564320369,1.6125909599762323,1.908999740811351,-0.02098692785317935,0.5171674685704297,1.102196693283135,5.192421784500704,2.2768753701951585,0.5101091005052596,0.32523306541014585,2.1726600717505287,2.065800878170194,74803.4872201308,33236.01664355055
120,158158.0,12920.0,"[11,33,38,44,45,55]",6,1.7704002355113395,0.5304008983990838,2.1628972674034634,1.705495567925753,1.9597311603522978,0.9842577917019717,-0.11641001816538621,1.0429010109068053,5.103786743851086,3.0738731758178446,0.8716366507606375,0.35398118926011035,2.4693708910646324,2.1858250776375576,91857.71312232087,58177.22449702205
120,20210.0,0.0,[9],1,0.23746518377041004,1.5674001081642852,1.5552451564571963,0.6707198782286059,2.18679311034141,0.12501794868877059,0.27660217110341145,0.7182270902028738,3.4058572104898595,0.5255663106877785,0.12985180331519297,0.19010972909450952,1.6891655498268223,1.3835023977733791,64523.29579416132,18384.916773874273
120,10234.0,0.0,"[13,15]",2,0.40530777183896594,1.2658237137971504,1.7481554702950972,0.8470585494430285,2.0188732474105904,0.4041001166699252,0.19693455491498968,0.8514425019542635,3.527028729235869,0.6321807162399834,0.24520794215360064,0.22129152491694493,1.5997894414696119,1.362375539085402,66245.26558530389,21619.899159663873
120,1169.0,0.0,[22],1,0.7798085928143743,0.2766998066723718,1.5790390795551725,0.8783934422583384,0.7989162241231811,0.3368733438836631,0.22743351154833347,1.7814897305389206,1.349332169375534,0.8393536458511551,0.3573455851154801,0.7745571873396055,0.9801443413173662,1.5743102720273723,70275.12061591103,19997.01625320782
120,14758.0,0.0,"[14,24,25,27,53]",5,0.5985326178343935,0.5032370534625281,0.9737130839544665,1.1753859112345824,0.7632424455210769,0.4504648949044594,0.4210655100284568,1.7742736970456736,3.529595249491807,0.7026718973438123,0.3427883200298174,0.3357068148123049,0.965311628404934,1.2350627537606713,62527.57067353299,20851.06816641823
120,23061.0,2499.0,"[19,31,23]",3,0.7603478568145348,1.207053573782583,1.6579332150383643,1.1776526811066335,1.8023263388838342,0.5200698800138803,0.0438316161484682,0.9351012249685602,4.331064877195265,0.9355514374918673,0.33768632344651106,0.4727897070378573,1.6391240473960376,2.025082108017869,73544.42010320441,25517.79992194611
120,7042.0,0.0,"[30,40,50]",3,1.4855129904856554,0.43125000227208243,3.198921066174376,1.4189550109343934,0.8604230840670275,0.6443733743254738,0.46542545356432763,1.0216129189150815,1.9151689197671118,1.0934835904572568,0.7786360511218424,0.3256028264697529,1.268445568020447,1.4949309707469467,65110.748082930935,33326.37773359839
120,13348.0,1265.0,"[35,38,39]",3,1.1848722882079719,0.707156592448313,2.6662212661821774,2.0336976034611793,2.1106611790530496,1.2251992199580475,-0.05093218467187022,1.0669432798172007,4.190679150359606,2.793780106158244,1.1668073153281457,0.47394842515732993,2.296923510038951,2.2949171456398068,101548.93617021284,71852.50464489065
120,35346.0,0.0,"[34,43,46,48,50]",5,0.6484220684943136,0.37858222619248716,1.4304380181915861,0.9221996778136101,0.624095132037576,0.3256174445764721,0.11262512861426988,1.4202968201776631,1.8693291042550757,0.5270581498896606,0.2764402345102681,0.7491662893962523,0.7363793440559036,1.456749393340124,70124.11882532669,20233.994907485936
144,1199597.0,187405.0,"[0,3,5,6,7,8,9,12,13,14,15,18,20,21,24,25,28,29,30,31,36,37,39,40,42,46,47,48,51,54,56]",31,0.4677818847904698,1.7742540269390634,1.9567553189196087,1.078604344597386,2.635545692410847,0.36301781234697494,0.33918577086386126,0.9351845933500966,3.8292744247709813,0.7014299529200297,0.21051368302940787,0.19561699976158808,2.073796958376867,1.7288007464698494,67645.7581271044,22583.53315655151
144,843474.0,82078.0,"[1,2,4,10,22,27,34,41,43,52,57]",11,0.3635118606738281,0.24380636844881387,0.6563836378536929,0.8042025983906997,0.370711359219142,0.2840600817760828,0.07137965440544125,2.286526302903205,0.9869253702817088,0.39668517220684374,0.2240792404259242,0.8490673050858724,0.6369936572152771,1.0576407301683193,69576.05605389118,16452.457830353866
144,114745.0,23323.0,"[17,26]",2,0.2990849542638008,0.14764416137521952,0.24814843948753795,1.4734939948320074,0.378012976818177,0.2645851831975259,0.12377225327465702,3.6821680984879546,1.1757672416314326,0.4551074152163451,0.2272978718114027,1.676263766090024,0.7861889683297688,2.046456405490428,73792.43282060232,15621.23289032187
144,57203.0,4904.0,"[16,19,23,32,35,49]",6,1.5874003618341617,0.5171207283009669,1.6134297237907114,1.7405442580808757,1.7946060671468196,0.23162286582871472,0.38484266190584115,1.1194108907924378,5.041375120465716,2.150153152754226,0.5552895234166133,0.4338469425030179,2.015767378721385,2.227380333828649,76930.88656189367,34635.6200898554
144,8088.0,1348.0,"[5,6,4,53]",4,0.7696840372156262,0.3742522524727989,0.7617259515331343,1.952864776335327,0.5711546751978269,0.3923659564787305,0.9749356335311474,2.3935778637487664,3.7296402847428323,0.6330747354104839,0.4816957989614279,0.34619388637487547,0.7313086769287819,1.6237637105588558,59008.86251236394,20870.02967359052
144,180376.0,22218.0,"[11,33,38,44,45,55]",6,1.7745617457367044,0.5353924057801573,2.15745042235107,1.8177490416241633,1.9826859325131942,0.9825987841786044,-0.043993908712915974,1.0819034762606923,5.081258259851646,3.0587425565429833,0.8817495800993531,0.37435506786379624,2.4565308930179133,2.2345416787931973,91290.86228766604,57275.805739122756
144,20210.0,0.0,[9],1,0.23746518377041004,1.5674001081642852,1.5552451564571963,0.6707198782286059,2.18679311034141,0.12501794868877059,0.27660217110341145,0.7182270902028738,3.4058572104898595,0.5255663106877785,0.12985180331519297,0.19010972909450952,1.6891655498268223,1.3835023977733791,64523.29579416132,18384.916773874273
144,10688.0,0.0,"[13,15,16]",3,0.44723871491391964,1.2364378690119793,1.749347368169913,0.8809561018899656,2.0233722445733515,0.44079231175149847,0.24706809141092867,0.8575035041167602,3.47033503714445,0.6933503739708072,0.27068477441990524,0.2274652696482048,1.612189788547905,1.4017495290044915,66248.86826347306,21891.34730538923
144,1169.0,0.0,[22],1,0.7798085928143743,0.2766998066723718,1.5790390795551725,0.8783934422583384,0.7989162241231811,0.3368733438836631,0.22743351154833347,1.7814897305389206,1.349332169375534,0.8393536458511551,0.3573455851154801,0.7745571873396055,0.9801443413173662,1.5743102720273723,70275.12061591103,19997.01625320782
144,10600.0,0.0,"[14,24,25,27]",4,0.5768541823584887,0.6014229682075478,1.211000406320756,0.8128103934905617,0.9361065090566072,0.5054760515094361,0.0685455133962285,1.2566294847169854,3.27098248330189,0.8096435334905655,0.31047023849056954,0.37674640103773527,1.1384570841509447,1.0893715568867914,65698.5237735849,21192.790943396245
144,2381.0,483.0,[23],1,1.4727277778244405,0.9032703074338468,2.136625233095345,2.1346104888702215,2.526735207055847,1.5892242641747159,-0.4078755388492228,1.4264361419571605,4.673346717345645,2.4050636203275975,0.9063753712725746,0.3934520067198668,2.396567057118854,2.533187871482571,84444.16967660647,46495.44897102062
144,22161.0,998.0,"[19,31]",2,0.7268096457741084,1.1917309148955444,1.588813440323079,1.155880043770591,1.6896189471594298,0.4292977907585418,0.09340193854067369,0.9131015939713905,4.304408893777353,0.8123020379495492,0.2942208868733345,0.508033147376022,1.543821844095484,2.012334094715948,72606.77406254217,23449.81255358509
144,8111.0,1069.0,"[30,40,50]",3,1.4340330792750582,0.47710350055480166,3.159865734311427,1.4657199368758485,0.8969854027863411,0.6439174867463895,0.4828429222044157,1.0699361489335497,1.9434831597830087,1.107428747133521,0.7618804872395533,0.3457957663666623,1.2790275772407829,1.4897716642830732,65293.61903587716,32983.52952780172
144,17256.0,3908.0,"[35,38,39]",3,1.2847946721140524,0.6777978207000537,2.603405475254974,2.2045376520630424,2.100528231108022,1.2158948463722765,0.10260493474732124,1.151942524223457,4.270633097067702,2.808865359932788,1.1478181685210944,0.5150904947264707,2.303933183588316,2.362376375115912,99190.1974965228,68233.47983310158
144,39159.0,4906.0,"[36,37,42]",3,1.213478752266399,0.7357886576521349,3.149241190913981,1.3944940351387953,2.28626144674277,0.7831754329528258,0.11410668896038834,0.9875379837074543,4.69898691751578,1.1413223899231353,0.45100654419161845,0.23629096146479733,2.1823033471998783,1.6648642672948706,75362.32814933977,40944.57325263666
144,38041.0,2695.0,"[34,43,46,48,50]",5,0.6638533461002611,0.38888425772192337,1.454760540863798,0.9924242262033021,0.6394764877369186,0.33799377763465643,0.13145639891170147,1.4384422505191683,1.8608134032228354,0.5503796351568028,0.2888738863857392,0.7555579469256821,0.7597815558213495,1.4752051107489292,70107.80831208423,20338.62495728288
168,1609973.0,261890.0,"[0,3,4,5,6,7,8,9,12,13,14,15,16,18,19,20,21,24,25,28,29,30,31,32,35,36,37,39,40,42,46,47,48,49,51,52,53,54,56]",39,0.5129885939310763,1.5637409725212965,1.8646281591623075,1.2266350884437127,2.4085764460329178,0.3638741209877374,0.36931471695735096,0.9920286142997394,3.711137235374752,0.776818525884602,0.25027369664151644,0.2333963625508021,1.930657289721636,1.6768737835864325,67723.53947302212,23419.499651236176
168,817637.0,62321.0,"[1,2,10,22,27,34,41,43,57]",9,0.34723543414987,0.21195756472493388,0.5686249266679559,0.8381492327426523,0.3376899474901509,0.2739384267064746,0.07590494564821926,2.4603908845905593,0.8820583995024595,0.3844882222330839,0.2088734050036991,0.9279621626357464,0.6386766276281516,1.1058669820030087,70425.00708749701,15926.833369820433
168,122683.0,7938.0,"[17,26]",2,0.2903340014182856,0.14212571560036524,0.2462027830098541,1.5297162446712216,0.38213484890328564,0.2687173615496856,0.14319799013719248,3.6840824074566196,1.184940748017235,0.4629506794910415,0.22888323304776925,1.6812094009601917,0.788652316384492,2.054742272662047,73894.74910134252,15658.511382995093
168,5095.0,2513.0,"[4,5,6]",3,0.6136231248282602,0.7157694412168696,1.4445696243375892,1.5358767083415077,1.268721301668306,0.4600589715407284,0.38547590343474747,1.4010437350343539,2.5899878926398454,0.7604151205103052,0.4386448096172715,0.4571994310107954,1.1786223621197256,1.427182942885178,65013.78763493612,21675.06025515207
168,208751.0,25994.0,"[11,23,33,38,44,45,55]",7,1.7782231395394679,0.5250516338508602,2.1636366379130956,1.9306900467925945,1.9993119798659689,1.0009519833725309,-0.006873972527080774,1.0889400999180752,5.053318867665309,3.0565972883387293,0.8860106848925287,0.3828930679709309,2.4398232490766434,2.2545962830405677,90785.038251314,56663.595115712145
168,31144.0,16203.0,"[13,14,15,16]",4,0.6575389032237324,0.7303112475276121,1.5487661397379946,1.634300356890579,1.5097664705240157,0.5487847354225592,0.3118341512651015,1.07909572270743,4.196235758990486,1.1677057330143894,0.4373218579180502,0.27162997871178873,1.545516998779863,1.3700329926470578,66501.17441561785,29630.144361674716
168,1169.0,0.0,[22],1,0.7798085928143743,0.2766998066723718,1.5790390795551725,0.8783934422583384,0.7989162241231811,0.3368733438836631,0.22743351154833347,1.7814897305389206,1.349332169375534,0.8393536458511551,0.3573455851154801,0.7745571873396055,0.9801443413173662,1.5743102720273723,70275.12061591103,19997.01625320782
168,24850.0,13662.0,"[24,25,27,50]",4,0.6795601532394384,0.6384787900603617,1.9879421715090433,1.3954359265995948,1.1361179883702208,0.4761434830583491,0.28340684374244596,1.2370579970221338,2.167839293360156,0.747787439959758,0.4179066714285731,0.39134171364185055,1.1140588683702237,1.2540451777867232,64719.07154929565,25020.90945674037
168,6972.0,4591.0,[23],1,1.73012708103843,0.5593654020367085,2.0670741554790566,2.5983457071141802,2.5413748154044646,1.5577032472748054,-0.143401865892141,1.3581629291451418,4.88523910671256,2.6608775381526004,0.8223642553069381,0.41268213123924424,2.4025255030120443,2.5328244390418786,82591.20137693622,43342.43029259892
168,24964.0,2803.0,"[19,31]",2,0.7715212826470184,1.0910121439272547,1.5634549483656408,1.2920475025236353,1.5563969624659642,0.44595103997757013,0.07915735543181679,0.9456768699727638,4.302042570141006,0.8198614636676781,0.3137302894968741,0.586097724483257,1.4656543364444792,2.05592082683064,73700.1839448805,23729.025476686387
168,4140.0,870.0,"[30,40]",2,1.0339144727053131,0.7631696698067651,1.9927397154589408,1.7573975048309194,1.3505472620772982,0.686252330193236,0.711026277536233,1.2825257128019336,2.5373056828502407,1.2327432942029009,0.8064147690821302,0.5116403961352656,1.5122277113526552,1.7608079782608688,69770.14106280186,29018.512077294698
168,21795.0,4539.0,"[35,38,39]",3,1.3452928870841914,0.6311325291580743,2.5427130956641304,2.339871751594394,2.0483054861206766,1.215936904886443,0.19681959142004946,1.1774606877265374,4.315292392016519,2.7967678687313717,1.1130768174810632,0.527491149346178,2.2758283605872878,2.352756771736644,97095.96953429669,64918.83092452386
168,44003.0,4844.0,"[36,37,42]",3,1.1912511236961103,0.7569027929913861,3.061183790627926,1.507848738722362,2.3305361013567274,0.787745149694332,0.1983534784446479,1.0293905456673484,4.64660555037158,1.1484862985932804,0.45659713710427763,0.2564373312955941,2.178169567984002,1.7078356144353746,75172.29570711078,40136.32670499735
168,21012.0,5215.0,"[46,43]",2,0.5111312117837452,0.26951302041689296,1.110193076575297,1.108533493432303,0.5138795572530133,0.31497047891680996,0.1894239711593424,2.2798971908908756,1.5696261600989856,0.5241363718351354,0.2721887633732938,0.9544872962592779,0.729166776746624,1.4154181987911725,72911.18065867096,19079.61165048535
168,15662.0,2568.0,"[34,50]",2,1.0857365950708748,0.23944116613458988,2.1131062108925938,1.473551806091172,0.5234249222321568,0.5025749429191679,0.19831188615758055,0.878317475865154,1.3307393461882246,0.7479729316179288,0.4357143680245148,0.8468158694930323,0.7665780632103184,1.9062509974460398,72266.48550632095,25007.139828885152
