time_in_hour,cumulative_size,size,pcore_ids,pcore_power,AF700 CD48_[R 730_B-A],APCCy7 Ly6G_[R 780_A-A],BV421 CD117_[V 440_F-A],BV510 SCA-1_[V 525_E-A],BV605 CD11b_[V 610_D-A],BV650 CD150_[V 660_C-A],BV711 CD11c_[V 715_B-A],BV785 B220_[V 780_A-A],FITC Ly6C_[B 525_B-A],PE CD115_[YG 582_D-A],PECF594 CD135_[YG 610_C-A],PECy5 CD3-CD19-NK11_[YG 670_B-A],PECy7 CD16-32_[YG 780_A-A],PerCPCy5-5 CD45_[B 695_A-A],_FSC-A,_SSC-A
-1,0,0,[],0,0.0,0.0,0.0,0.0,0.0,0.0,0.0,0.0,0.0,0.0,0.0,0.0,0.0,0.0,0.0,0.0
0,113690,113690,"[0,2,5,13,18,28,47,56,60]",9,0.2830480253232479,0.14003012337056964,0.3652920326150104,0.4958320167560908,0.28714825544902567,0.1753537444102362,0.02831122060867175,2.559711471079254,0.7471501038613756,0.3376473520098522,0.15997043984518733,0.9691742616413057,0.5958316492215666,1.0359983465300382,69719.20584044335,13520.045316210733
0,1136,1136,[2],1,0.5841814242957757,0.2890296417253597,1.3131272491197237,0.7482744181338052,0.35847764524647774,0.7304480721830957,-0.10179902464789103,2.5234917720070396,1.6051636038732395,0.6492348512323937,0.37348921742957764,0.9119300933098593,0.7290676910211275,1.2310065140845066,71243.26760563382,20817.070422535213
24,175770.0,118925.0,"[0,2,5,13,18,28,47,56,60]",9,0.267309213315698,0.12823224834158298,0.4005370043238363,0.5502494532314941,0.24782940579734447,0.1958875337315802,0.015691325678436563,2.506236206300846,0.7413971880411857,0.31328898160664964,0.15128522376969,0.9313272594811384,0.5413574282357633,1.018789941978152,71829.00071684584,14354.219263810654
24,1532.0,964.0,[2],1,0.6327831240208872,0.2667342672976494,1.3547901223890366,0.8760899148172325,0.39374305254569153,0.7099430234986952,-0.07084338185378458,2.3631849337467337,1.671968610966056,0.6576926713446479,0.3702965871409929,0.861360396866844,0.7429980851827697,1.3495180874673618,72677.3054830287,21625.169712793766
24,13454.5,9446.0,[56],1,0.3733072514400442,0.20052822133858816,0.8993547776951889,0.5716645963803986,0.31682168099892083,0.28114367746850477,0.061294182764151994,2.4024211371288526,1.4280987038537258,0.399933469768477,0.21170639904863853,0.8409620514697775,0.5927328006243294,0.85657983804675,71467.39128172715,17729.652978557373
48,164248.25,89961.0,"[0,2,5,13,18,28,47,56]",8,0.2516862029930278,0.12225471666212107,0.30544948367943237,0.527262432261828,0.21535984679288012,0.19830691526545996,0.002243751819276163,2.9388007771833156,0.7220580704482388,0.27950465933731605,0.13492087205798864,1.017239675468384,0.5872382881050503,1.0493423345301998,70183.40230717836,15079.868917933634
48,36280.75,21917.0,"[2,60]",2,0.2081687716075291,0.16971068198009975,0.5690946033915765,0.503524869338424,0.27055617995080894,0.23245914226552,0.022776344921186187,0.6168246622520068,0.7709395958049271,0.309413735376198,0.15804502152657252,0.22962313006897173,0.3377628325902905,0.4648769172426194,72136.31250732101,13078.513316290348
48,59984.25,37904.0,"[39,54,58]",3,0.1811196752522568,1.135242829905351,1.640111160354596,0.6105453773073708,1.7608576703676504,0.1013850513759933,0.2477863292280933,0.4993528869453132,3.3921818779929853,0.3794997687309576,0.15400738210029452,0.13219536060299075,1.2511071603879351,0.7867247359598573,61365.31452839707,19660.101309927162
48,12074.0,5893.0,[61],1,0.26643995887857574,1.0013749147755662,2.8107557458381343,0.8416382701465954,3.5026412283005137,-0.8683834144028487,1.0863794536400504,0.6574338279360705,4.698586332781195,0.24608597467699322,-0.10166075712272526,0.12685933081414713,2.347626272217162,1.5325024466415402,72362.06857710771,28765.488818949914
48,15851.25,9124.0,[56],1,0.30243668614462904,0.1932926468890579,0.8362334748521549,0.46310044488605184,0.273529008217003,0.27015990153773606,0.01533252387037054,2.5260789350208857,1.4662155118681532,0.3330256515732155,0.16426651544830184,0.7690206934311112,0.589617325005913,0.7610368822332703,70094.20910022833,17833.297941802557
72,219536.0,120315.0,"[0,2,5,13,18,28,47,56,60]",9,0.24639278951117527,0.18764980821937405,0.3291702680107207,0.6158718248493407,0.2921021735649245,0.20618088748314567,-0.006514568751246674,2.516612848985491,0.7613017333102533,0.30363308045719184,0.1505075739969728,0.8097119932710337,0.5997923897344858,0.9868248958365604,70451.22020989723,16128.905874207449
72,97650.0,58919.0,"[1,15,21,39,54,55]",6,0.3232726934383052,0.8512821648694322,1.4227085224039824,0.8256930963824947,1.186415669985923,0.3693337111789554,0.08714761390297321,0.8424483606413178,2.5111322476651323,0.46229542733998796,0.2795110255184321,0.21772926133512793,0.9555897495660525,0.7683529598195085,63118.09736815148,21925.09968253973
72,2049.5,1006.0,[2],1,0.6629656772383525,0.41987424463283585,1.3244870289704824,1.1118400997194469,0.4595797873261773,0.8580190378141002,-0.1930884995120743,2.2694942386557617,1.7548608494754787,0.619692907111489,0.42692315558673233,0.7224855191510116,0.8048779788362973,1.3793831305196347,74626.47474993908,25632.667479873144
72,105435.0,58754.0,"[19,25,26,35,36,37,52,58,61]",9,0.16387455277777518,1.7671380873642586,1.767777679768343,0.8450631129001334,2.630956240370852,-0.25808780586973246,0.46941385396452784,0.6869887960828875,3.7282452541482862,0.4513810776995313,0.11939847107222024,0.15165709513681436,1.898297498202683,1.5121336576824578,68388.20717977904,22561.816702233533
72,14979.375,8370.0,"[15,59]",2,0.3303156613677174,1.0778041767263407,0.9345184939792213,0.9007188440689311,1.4855263661868312,0.4715342545583503,0.008073418667336352,0.9578311344348456,3.1809416376184148,0.4655883649768393,0.2591392095631404,0.17654133710518716,1.1476295325656096,1.0282585825009394,62871.60312095782,20087.679225601838
72,51008.625,31685.0,"[25,26,35,37,54,55]",6,0.2566764764880458,1.6203072042816289,1.5362954631667622,0.8912320104908789,2.108412420737672,0.1616627280901004,0.19658834491961086,0.8141589409756644,3.1852324658918025,0.5135378857497149,0.21642159635502622,0.18667659143184112,1.6299188381156142,1.4184072925828697,67035.75891332095,21961.806498410733
72,17586.625,9661.0,[56],1,0.3119872563738113,0.2995447029489777,0.7827079968512924,0.6002471371567908,0.4213784316063953,0.2766869477585998,0.017787463228443823,2.3163238341850434,1.5403383742617005,0.37126931265947605,0.1909284539529268,0.6589646287661726,0.6679944948220636,0.8284070918524755,69372.58467727598,19535.02005074878
96,178239.3125,84123.0,"[0,5,13,18,28,47,56]",7,0.3438336243663309,0.174958695528022,0.3161281755392835,0.7263228905954731,0.2940155840925236,0.17625165591801162,0.07877576916323203,2.9884112235575957,0.7355415880875077,0.35121027745597466,0.18170416378716414,1.104593525857615,0.6666121819548089,1.1755488858630725,70943.67388788055,15503.020951115943
96,23697.9375,9071.0,[60],1,0.22545025599273782,0.2161896619747803,0.5948871763233514,0.5704534907784797,0.3050376982332179,0.2232187819483129,0.03630389154645641,0.737479994627722,0.8084108142586147,0.3211582404745167,0.1864120602056749,0.2523424299187431,0.374463608734407,0.4259488483254144,71663.92096358568,13286.056982807066
96,86655.125,51915.0,"[10,14,25,29,30,36,37,50,52,59]",10,0.544145391792322,2.344491803943365,2.0027779403259527,1.0157513201202768,3.136877364469943,1.1686787897614275,-0.18977698186056502,1.0678160606794833,3.852200025012966,0.6492868017659114,0.24695028637226724,0.12665790305752145,2.4049359352079622,1.9781604449715162,70330.50035990361,22698.4931820246
96,26904.0,14709.0,"[13,18]",2,0.41079361406529324,0.20929165031686336,0.6221667360522551,0.8280332398249284,0.38305162375483937,0.14262322037615638,0.11631063465004132,3.2088193909897287,1.2988810203896248,0.4187754044705241,0.21678149045448825,1.2428755326833398,0.7591980505988921,1.480550218208723,72474.93056794515,16942.142134998423
96,48887.4375,36693.0,"[35,61]",2,0.11008230178509737,2.372825362628956,2.2067332967543485,1.06433137033288,3.452782197867808,-0.7816476603767037,1.1376272589277194,0.8927408439080091,3.958552425408367,0.4696092556753455,-0.015989474312815055,0.15699265542400453,2.502295125407992,2.0823207803985806,69267.23267097014,20988.845242706808
96,56939.5,15573.0,"[39,54,55,58]",4,0.29723598975667764,1.2082879049605308,1.5170940680667688,0.85542530581034,1.7747037591687267,0.1552305202813955,0.3064451691235903,0.7322169832673273,3.1539603733205785,0.4789270547126756,0.24236330832836428,0.1890898081241964,1.324746683289936,0.974173612900533,64328.37724251183,21090.92928459147
96,12864.1875,3453.0,"[54,55]",2,0.4854824062343639,0.933487712666452,1.4554630095371324,1.028086251346998,1.232250308151977,0.514798144480564,0.07338985431941447,0.9366448702696886,2.361138011179293,0.5872653843421877,0.4066836539326766,0.2738152034378375,1.1020205851856164,1.0337434415698608,65299.64181569953,21990.030540210933
96,14638.3125,5845.0,[56],1,0.38041662830415146,0.29830145686190956,0.86539505599178,0.7177278076451867,0.3976969531067738,0.29394147107547774,0.09771710835863257,2.439342872013933,1.5191316656633123,0.4159049999017965,0.24224016776182644,0.7962976686136061,0.6650381414695147,0.8371946426116408,70472.35260211844,18735.82518476768
120,158292.65625,69173.0,"[0,5,13,18,28,47,56]",7,0.33779764380395205,0.18016082071657236,0.3764808494203331,0.7789355232098765,0.3165538597339017,0.15898419885102255,0.12935291307714714,3.0332648454062134,0.735013563233058,0.3690080407400007,0.20588003674936983,1.1641100950847576,0.6588579845306292,1.2400299539176312,70778.19001473744,14977.043067972392
120,24221.96875,12373.0,[60],1,0.22005385994635507,0.23065127696575738,0.6413111962268259,0.5829289466638565,0.2937676400865348,0.2122491878666377,0.06322147168309655,0.7225603785858161,0.7676720169293533,0.32447593266701447,0.21453014652245406,0.25217313614965,0.35541218464770963,0.4171528230093326,71320.41931975484,12494.213873511102
120,127906.5625,84579.0,"[10,14,25,29,30,36,37,50,52,59]",10,0.5124335624137262,2.5990556765693267,2.159709706670387,1.130683044116438,3.354138086870306,1.2052382051922697,-0.04437536338000436,1.1692885415132404,3.877132102015882,0.5799064948988665,0.24561425985619234,0.12125916131038172,2.567696816590005,2.164193368096585,68332.83712084725,20867.080920886947
120,26586.0,13134.0,"[13,18]",2,0.40059695657136096,0.21775530437306267,0.7124454968921574,0.8465126625714618,0.4169333159087496,0.09252707945911576,0.1760678274397134,3.258524119483715,1.2588634866576918,0.4306666875023488,0.2337506830510021,1.3128825435438338,0.7512463799614962,1.5475365885181565,71946.80019559163,16428.77905664633
120,82631.71875,58188.0,"[35,61]",2,0.06760270870183471,2.5769854102904324,2.331846916014016,1.168109935329395,3.608190345849317,-0.7849209969730155,1.2316251263691114,1.0170971032612708,3.957844204781417,0.38623974895989266,-0.009338277634013625,0.14775054755834327,2.6311572875757263,2.2272869014762255,67275.75016101221,19471.939908063356
120,22424.875,10576.0,"[14,25,29]",3,0.4069700074373337,2.284938095716809,1.9227100082079605,1.0286494138665856,2.95247595672777,0.6235225598818888,0.09757984586313251,1.0762681009983415,3.685992031705861,0.5395771989308756,0.2276494794717272,0.14809868270308202,2.273420970296654,1.8982471598071895,67519.96494963745,20627.228290012605
120,14174.15625,6855.0,[56],1,0.39306740806221296,0.3101165113355524,0.9493237704911954,0.771299199423233,0.3875821765360672,0.31174331411481715,0.1330745477266193,2.460058182199992,1.4980456098268702,0.43509143462683697,0.27909690898709094,0.8463252979939304,0.6409166876952578,0.8533329812797503,70358.46581696872,18216.50921902312
144,127385.484375,57854.0,"[0,5,13,18,28,56]",6,0.4171147151201078,0.1628300154241451,0.45239708110188515,0.8957574159948303,0.279333630425294,0.23855219088418944,0.1626371769974546,3.08269830576654,0.7723465976158018,0.3871097954375907,0.21350976287231171,1.2156483467451338,0.691456590689482,1.2056066103998284,70461.38165614681,14852.65516148021
144,20915.984375,8805.0,[60],1,0.23440062884770207,0.22019664701561092,0.675950246114863,0.6938320507222584,0.27203737222950997,0.21658238357999227,0.08517757757783029,0.7203152252329605,0.7394169550844379,0.3215170132576497,0.22195337366234202,0.2733131845104998,0.36450829347844305,0.43396308467806083,71584.88135942678,12209.03020491966
144,135239.28125,71286.0,"[10,14,25,29,30,36,37,50,52,59]",10,0.49932549081766386,2.638965126399233,2.146032385735166,1.267691821372967,3.383381291187956,1.193049339604565,0.10176420525887009,1.1928242238332611,3.779630580916191,0.606479794774632,0.1898901186491866,0.15179795134723106,2.5793490898866436,2.1718711712856433,67497.28080945424,19743.699539958943
144,23946.84375,14332.0,[47],1,0.12322495054671401,0.052954581169364356,0.0016961180948906751,1.9723359606915944,0.5601939295561924,-0.42667215146242543,0.5257255905854059,4.13117808498188,0.866243733823865,0.4333662784285197,0.18306341981590535,2.0022517099944004,0.8279938846292393,2.2728352445657616,72780.31481706211,13332.790589573911
144,20692.609375,13475.0,[20],1,0.27145263577424483,-0.012543851002043027,-0.4833145194804689,2.575151880239568,0.16681957733400754,0.9695058594961872,-0.13647319397625735,4.447514004622741,1.0257788183220602,0.5354514132838802,0.2719643942681911,2.2616122797707856,0.8338776113965923,2.4812402123418056,72681.00700808808,13337.78273190827
144,10738.734375,6424.0,[18],1,0.5028368625216211,0.16082051594476798,0.15512085685581578,1.3810290467422912,0.2242014130826,0.6517568380017456,0.07135880437347852,3.6487729061312644,1.7143622765645365,0.46398405725331215,0.2595313000280868,1.4913797487992446,0.8365911209217703,1.6769614444876126,71670.69136115044,15689.476070125746
144,86422.859375,45107.0,"[35,61]",2,0.08082413118021692,2.6127160380706815,2.2762661672702156,1.3211341379505117,3.577631403767159,-0.7783849735580628,1.2849766254425465,1.070735746077729,3.853870064744147,0.4386169595891489,-0.054185969654306554,0.18615655457187363,2.6055623321591366,2.239261304146945,66586.78912751524,18673.80707686758
144,22734.4375,11522.0,"[14,25,29]",3,0.4063081460346538,2.3869871246470904,2.0098962089850043,1.1927653452341116,3.0676789319754767,0.5244006595947508,0.30188673715811465,1.1862896821479718,3.630625283955229,0.5586210927117695,0.16744700032644877,0.1805996507123021,2.3651707998335363,1.9596678808477457,66957.79910983058,19450.903414698434
144,10972.078125,3885.0,[56],1,0.42284387273519597,0.29986187148913857,0.9906747419728874,0.903583012362335,0.37133644370295205,0.34964760443483534,0.19572108352879036,2.5504618905816274,1.4921080226683374,0.46032663595518686,0.2885480927468005,0.911152982156415,0.6724632789936963,0.8550276294144337,69791.93834349405,17761.775096729845
168,110270.7421875,46578.0,"[0,5,13,18,28,56]",6,0.34563689050854873,0.150634834655889,0.42678539351787803,1.0987223044848045,0.2892021757480401,0.2690752319758405,0.20068167518065394,3.15764482354687,0.88407232407643,0.3903907553724797,0.21019232440395408,1.1685578579564988,0.7106304291975251,1.2253044599445737,70598.45842664951,15210.205415576916
168,18476.9921875,8019.0,[60],1,0.21103171834820067,0.21706617497605452,0.6465534571741425,0.7806226734591655,0.32509564454694573,0.2163471829648751,0.10135665008973138,0.6643649335592627,0.7612366826183771,0.31607865769125554,0.20889908225219544,0.2676286290631754,0.39068547197633374,0.46565092088132937,70238.50142005135,13166.493985129357
168,119920.640625,52301.0,"[10,14,25,29,30,36,37,50,52,59]",10,0.5116502655607127,2.4904801097498623,2.133625872597976,1.3451213504430126,3.3167471843421823,1.1802694741479482,0.10326745362225509,1.1463175544756212,3.6567297281715354,0.6597106518416286,0.19463712047107018,0.14645967440778906,2.4698987434595874,2.031427197807573,68148.70371695035,20911.464902374886
168,115804.6953125,56830.0,"[19,26,27,35,58,61]",6,0.16083328570712996,1.9855064383489678,2.0724439103715864,1.3895347573943204,3.064285297552216,-0.5985633355612643,1.078894997415428,0.9419872292439888,3.6817084643132048,0.5382641292618854,0.03657851815316082,0.19206381891136426,2.179109784575823,1.8007393197807795,65997.43347086068,20976.77708528791
168,28905.21875,17538.0,"[14,25,29]",3,0.43859397531398314,2.281985990792652,2.0306235741713023,1.2780554526229073,3.0440893376574567,0.6706351390009047,0.22469199984863764,1.1356375097781815,3.4408079266308844,0.6327778258110844,0.1753084859370566,0.1645681193407439,2.2828906713539574,1.8114144614437533,67986.47560831878,20636.482261529236
168,38213.9453125,28236.0,"[39,54,55]",3,0.37999287770560075,0.874640960778188,1.4435905215657985,1.3196454526229373,1.4653023298419718,0.5611576499453594,0.19917284199444563,0.7397663071845693,2.988137922473898,0.6825423763874666,0.34950648400565276,0.22303458844294866,1.1909004263790361,0.9362309171308354,61779.70032127904,22739.13730691816
168,23070.421875,11097.0,[47],1,0.0007206712348792887,0.0504715186338518,0.008463446596585378,2.2655187288634866,0.5830211757837787,-0.41302372212357186,0.6691276100716044,4.211629410060032,0.9728821545725713,0.4664669672419376,0.18475950064679436,1.967636282624468,0.8314778174201044,2.2631401555397277,73270.31983458264,14014.146782913918
168,22412.4375,15560.0,"[26,37,54,55]",4,0.46187668656842074,1.1204657346754265,1.59886533007553,1.3965641243648914,1.7138773308416946,0.6622122708708051,0.17691361270667194,0.9447224097839855,2.7995339870346165,0.686468116390455,0.36032123027915786,0.26343340791908165,1.3917793129609928,1.243178501979926,64660.5704087295,21813.2801708872
