time_in_hour,cumulative_size,size,pcore_ids,pcore_power,AF700 CD48_[R 730_B-A],APCCy7 Ly6G_[R 780_A-A],BV421 CD117_[V 440_F-A],BV510 SCA-1_[V 525_E-A],BV605 CD11b_[V 610_D-A],BV650 CD150_[V 660_C-A],BV711 CD11c_[V 715_B-A],BV785 B220_[V 780_A-A],FITC Ly6C_[B 525_B-A],PE CD115_[YG 582_D-A],PECF594 CD135_[YG 610_C-A],PECy5 CD3-CD19-NK11_[YG 670_B-A],PECy7 CD16-32_[YG 780_A-A],PerCPCy5-5 CD45_[B 695_A-A],_FSC-A,_SSC-A
-1,0,0,[],0,0.0,0.0,0.0,0.0,0.0,0.0,0.0,0.0,0.0,0.0,0.0,0.0,0.0,0.0,0.0,0.0
0,126787,126787,"[0,1,6,11,12,14,16,17,26,27,29,31]",12,0.3209586467540042,0.17112059755337672,NA,0.5506154166121187,0.35394592976409056,0.23721903094165642,0.0027774070054475963,NA,NA,0.39199132814089854,0.18080846569442954,0.9556046151813691,0.6491036153548878,NA,69497.46759525815,14279.679777895188
0,115095,115095,"[2,3,4,7,9,19,21,28]",8,0.29524829547765075,1.6736567505278255,1.8847831184586474,0.7594659016812328,NA,NA,0.3281414096094539,0.7459386305834381,NA,0.6526255117077223,0.15953228085493842,0.20924694425474322,1.948088558304021,NA,68721.11643424991,21791.76117120635
0,20467,20467,"[3,4,20]",3,0.40283250535008097,1.6138994598622136,1.8235864070454837,0.7800442856305252,NA,NA,0.06347979122489766,0.816301655738513,NA,0.7370872797185711,0.2647056616016057,0.23107607436361077,1.8630402697513095,NA,68628.15654468175,22427.151609908662
0,12129,12129,"[1,6,11]",3,0.3851587255338482,0.20753446871135095,NA,0.5229705233737354,0.3932030515293943,0.2434986120867353,0.02250999224996919,NA,NA,0.4440338365075438,0.19984278431857216,0.9169551986973361,0.663472731387584,NA,69265.72413224497,16008.97023662295
0,39631,39631,"[9,19,20,23]",4,0.5246392370618946,1.6701612007014766,NA,0.8159854693295698,NA,NA,-0.18808412843480848,0.877338573086726,NA,0.8021019984607985,0.29887432328228813,0.20834859067396938,2.0032112852565023,NA,70977.46955666014,25126.53629734293
0,34591,34591,"[12,14,16,27,29]",5,0.3391067133647445,0.22963958812986585,NA,0.5423682675262316,0.40410081911479745,0.2532513087219217,0.044959152178307704,NA,NA,0.4212554175652635,0.20682043543118134,0.6358763168165147,0.5889061904830756,NA,69444.41640889252,14754.200803677282
24,115048.75,100696.0,"[2,3,4,7,9,21,28]",7,0.33695261054335535,1.5112725171036114,1.9824404887449982,0.8321228612794518,NA,NA,0.3294984786101658,0.8062060306250607,NA,0.6644061788013763,0.12625762562392318,0.21720373795347359,1.8391407828703095,NA,69164.71474918252,25102.45898369165
24,42569.75,37745.0,"[3,4,15,20,24]",5,0.4721901783073661,1.406316374359137,1.8678778417743778,0.8803992224877999,NA,NA,-0.04787139170712784,0.905282699942445,NA,0.7488424485638238,0.25367910786121284,0.24066593439884,1.6757731175746895,NA,69160.27498399696,26332.72443460434
24,80752.625,74112.0,"[14,16,27,29,31]",5,0.3089006256886384,0.15688459300859403,NA,0.5313496625171679,0.27100194788095155,0.25602790374616036,-0.008998977266983399,NA,NA,0.33060586841140427,0.15656733020133817,0.7499199681418978,0.520104484317072,NA,71845.54320060794,15434.43413758999
24,36880.25,33186.0,[17],1,0.2335727041336506,0.09635457438941675,0.12687173882020408,0.8410621818554564,0.27340797819295837,0.30105048759498443,-0.0383208211373276,NA,NA,0.36689970378116077,0.1675987021576577,1.42965784340194,0.6609219242412979,NA,73504.38372841818,14961.91376143055
24,32392.0,28844.0,"[23,30]",2,0.6549269329695675,1.5372538129476365,2.2180762210345173,0.9378436321313979,NA,NA,-0.32283384043515184,0.9528183195927911,NA,NA,0.289472905952862,0.20384962403139728,2.0468324256954094,1.7040176546408003,73252.28377377099,30918.850580390197
24,15916.75,14239.0,"[16,27,29]",3,0.3617814742017065,0.1818293654404921,NA,0.6319160958267296,0.33619386662634865,0.28421361848367366,0.02150471420830158,NA,NA,0.40831634057675203,0.18384914174534472,0.8624269915026654,0.5999381867608012,NA,71949.5474892802,17031.877487552403
48,118697.453125,103913.0,"[0,1,6,17,27,29,31]",7,0.2570045261916529,0.12792071735532762,NA,0.5921081030595494,0.2248336481636488,NA,-0.005745001974679642,NA,NA,0.30472073540620415,0.14221637583117097,NA,0.5974416818207867,NA,69458.5125539103,15400.364269610278
48,55524.890625,48720.0,"[2,4,19]",3,0.23158763168348329,NA,NA,0.7131003271489025,NA,NA,NA,NA,NA,NA,0.02974158258050652,0.11019316372021426,2.3479326813602555,NA,67074.35125181753,22949.3402446481
48,35847.8125,25243.0,"[5,9,15,21,23,28]",6,0.5011200212961924,NA,NA,0.7277060796152193,NA,NA,NA,NA,NA,NA,0.22252646954660849,0.11237106050578471,2.075784618092105,NA,NA,22924.21332542953
48,64331.90625,59299.0,"[7,20,24]",3,0.21587478580928798,1.2609021248267553,NA,0.6510117080431499,NA,NA,0.2190938829444402,0.5994645514181487,NA,0.43945545579491874,0.16359147398670393,0.14355589325596918,1.3548553239561967,NA,62294.785381087815,20125.82586887029
48,43014.390625,38434.0,"[12,14]",2,0.25375812044515333,0.2998066753146902,NA,0.5821300443608748,0.4600260744413034,NA,0.06630820312605712,NA,NA,0.3713068223279954,0.20749268013539846,0.24056687218957395,0.49338415440544947,NA,NA,17071.03300385305
48,12584.390625,11421.0,"[1,6]",2,0.3732408318266247,0.2027178514578396,NA,0.5985273102280897,0.35679528035971986,NA,0.04955900784454226,NA,NA,0.42046057007503057,0.20171906531280825,0.7976585553879345,0.6299992986276369,NA,69206.3866223161,18913.792498395145
72,112375.59765625,100378.0,"[2,4,5,7,9,16,19,21,28]",9,0.3815597704342546,1.5981467586157474,1.6565480127996817,1.0343238133152197,2.4640451205425093,NA,0.29373469215216064,0.7089206619100699,NA,0.708450689710514,0.2641562666748305,0.16598113390188662,1.894263003941286,1.549460543388669,71459.90740413532,26832.809939518742
72,91357.337890625,80669.0,"[4,5,12,15,20,24]",6,0.5381893012905123,1.2138333833937498,1.5183238772236902,1.0592961525454414,1.8280714813335428,NA,-0.06685498470419127,0.7761610400061936,NA,0.7385522367356762,0.36644832184712106,0.17502753480106703,1.4926632468294252,NA,69048.69406661365,27389.437133891835
72,45648.42578125,39925.0,"[14,27]",2,0.26697407699890974,0.360928192463732,0.6576562126344938,0.6962634979150262,0.4671999792995831,0.34785038983203154,-0.007003513283632579,1.2915124660620738,NA,0.353297787041277,0.20557571965540955,0.32381368843107805,0.5501234946185222,0.6129168382013577,66585.61924600843,18569.727983329067
72,28059.126953125,24541.0,"[17,29]",2,0.23769138576024829,0.1705427483546944,-0.09775298112557484,1.3254080523799057,0.30847343090054435,0.3030305775155471,-0.09976916629920751,3.8017036663793764,NA,0.38110003305924045,0.20429152111560223,1.527391528902792,0.7926539689502484,2.0419360855298923,75428.1478816394,18225.44850038682
72,20733.857421875,16789.0,"[9,15,16,23]",4,0.7139076759349203,1.7171481043044077,1.8235510123536423,1.1133827847692013,2.7245631137805293,NA,-0.3721896411679304,0.9524150165037999,3.8192442966119695,NA,0.4748266052221459,0.16351959602071775,2.1696455923066145,1.7607773669373825,75687.49731751959,31813.94918844517
72,81551.318359375,77204.0,[31],1,0.23370529222649727,0.22963684422250008,0.24328051399830075,0.5575468384442264,0.3163121286500883,0.2031071002009115,-0.04830580747550384,2.700364124563336,NA,0.27391272187283555,0.13909758101480474,0.7786323688131862,0.6538988798418329,0.9750745858664354,70552.67436965414,16951.317422706918
96,97837.931640625,83128.0,"[2,4,5,7,15,19]",6,0.34986450102956845,NA,1.9137680136707638,1.1404774689670414,NA,NA,0.7026705473022381,1.0259408280426832,NA,0.6455292637875557,0.1802843821986646,0.2171044425729859,2.2063656697863085,NA,69224.39657069204,22373.77728813752
96,71780.11279296875,59368.0,"[4,5,9,12,16,20,21,23,24,25,28]",11,0.606711725777209,NA,1.863960683407894,1.2028186500374045,NA,NA,0.16594047294931435,1.1293247671959046,NA,0.8074806928207591,0.35522674744895033,0.22747625161536145,2.0799389685190377,NA,70640.83741955788,25354.394601987777
96,12.602294921875,0.0,[9],1,0.4368368617175815,1.4779632373738285,1.9903309356050936,0.8453308627637197,2.3442900142389296,0.4483329832619749,0.09954289788643989,0.841510831263701,4.103418429493018,0.7686806116739938,0.1974874085317455,0.21617029500765084,1.878794889343074,1.5751656057653158,69998.39283984565,27394.42639338234
96,92176.96801757812,76277.0,"[14,27,31]",3,0.4255984372042112,0.2519805081580171,NA,0.7704120571402662,0.38053387437170594,0.25091811508906137,0.11894259354314052,NA,NA,0.4196089567183907,0.23160107834758836,0.9429471710773472,0.6831562511897854,NA,70347.6123571652,15800.144580521886
96,27139.390869140625,23632.0,"[17,29]",2,0.4656317237192702,0.18546651119206414,NA,1.3710554477150185,0.4334667438792539,NA,0.17229091288918585,NA,NA,0.5300847677292367,0.2658212342933268,1.60625195356335,0.846690169498708,NA,73373.63903109971,15576.78688127585
96,25256.474609375,20151.0,"[15,16,20,30]",4,0.7600544964323417,NA,NA,1.3200865711697949,NA,NA,0.14622347178935557,1.144662551408424,NA,0.9307383864790167,0.4226677325520054,0.22425893927301654,2.160946129618123,NA,73109.6581500025,29573.120445677734
96,9712.085205078125,7230.0,"[27,29]",2,0.46663414764244426,0.3953358074472111,NA,0.9777447783041091,0.5777485795937305,0.3544052174957384,0.18489048802702435,NA,NA,0.521408731908671,0.30400606049260226,0.8239023040798843,0.7814753272764664,NA,69973.45072627044,18739.76279623629
120,116968.98956298828,105849.0,"[2,4,7,19,21]",5,0.24163705280569814,NA,2.155803154588957,1.2186725816726534,NA,NA,0.9064920209454441,1.0887952792360207,NA,0.49810107998870967,0.13092870852506877,0.20158470620445967,2.390970198330376,NA,66812.39472856373,20155.731571292203
120,84243.12100219727,72721.0,"[14,27,31]",3,0.37859499259270746,0.3026166280392979,NA,0.8012837393116237,0.43297191894153864,0.24987533896269798,0.14365284162258352,NA,NA,0.42884178209603974,0.27820039844380196,0.8097735867247124,0.6330049603245967,NA,68855.74457341916,15545.364157090382
120,25224.423858642578,21832.0,"[17,29]",2,0.3775369972473517,0.14244273683642694,NA,1.4469266337215019,0.44674728731230173,NA,0.20237034174177015,NA,NA,0.5153912625319804,0.2770960053050082,1.6468726417720085,0.8101386864336267,NA,71645.26308993695,14546.125037908914
120,79078.208984375,73778.0,"[23,30]",2,0.6079955802201709,NA,2.21856342256198,1.295245901487315,NA,NA,NA,1.266919922625037,NA,0.7143869303552149,0.3321064062874357,0.18159725510968294,2.5281190129132063,2.1952296476031354,69468.72555339398,23608.533876186637
144,103606.54023742676,88981.0,"[2,4,5,7,19,21]",6,0.2813135910340867,NA,2.0887925089663164,1.4639023994052525,NA,NA,1.0077897615880298,1.124987897500624,NA,0.6186315738102229,0.06439204895852368,0.2752673470105743,2.3870602727572936,2.1103285858027467,66553.28081157696,19462.535137433882
144,28320.719581604004,23531.0,"[14,27]",2,0.4402035793481678,0.40579901037836486,NA,1.2041085699174663,0.5358799340586304,0.32126045225257993,0.25124205643653275,NA,NA,0.5254517264157174,0.34442782353206836,0.5826861394486551,0.6959142879566506,NA,67452.51069572484,16850.862541754155
144,83036.72352600098,74143.0,"[17,29,31]",3,0.4266977658861375,0.1068690790966067,NA,NA,0.34930723436343447,0.25696276656638006,0.25269752735895024,NA,NA,0.4698565475452169,0.2364671595458412,1.5547674166981498,0.7900090552250733,NA,70734.28306515471,14317.991376674356
144,83063.24404525757,69509.0,"[4,5,7,19,23,30]",6,0.6024436010183478,NA,2.1417979657814414,1.5313447268715041,NA,NA,NA,1.251914676799518,NA,NA,0.24601453575247412,0.2595337861673691,2.451007449818232,2.159603963173641,68899.20342387873,22716.91595223734
144,17023.072452545166,15021.0,[32],1,2.067769189472677,0.3976420567808039,1.8675042634797356,2.4254392476557283,1.7853532504276743,NA,0.1965038077334751,1.2776457372801397,5.305577667633867,NA,0.7864636115964152,0.41584825727971086,2.3690220760852907,2.3827258326200242,77776.9887366505,40625.84074686757
168,74589.07711267471,62041.0,"[2,7,19,21]",4,0.3395110665714409,NA,2.094065065341416,1.6161291772201163,NA,NA,1.0043273734574938,NA,NA,0.7681028484277906,0.11611103485309782,0.27368039956530754,2.241440987243389,NA,69051.03582931377,22651.399085323592
168,83324.79067230225,82523.0,"[3,4,5,9,11,20]",6,0.46907758186577775,0.8633951442180194,NA,1.8301294026919535,NA,NA,0.36009152887867346,1.0908223730369841,NA,0.964582268862788,0.3919848216745567,0.2903009335387412,1.4610846272566524,NA,66421.9616877588,28938.452926014124
168,47072.75246620178,44739.0,"[4,10,12,27]",4,0.3743609457165331,0.9295801082846231,NA,1.549142737833436,NA,NA,0.3483623331548209,NA,NA,0.6964537937468737,0.32624308442573247,0.3131093810933724,1.3075255248678497,NA,64201.198351340776,22903.600202282323
168,3732.4320101737976,3470.0,[7],1,0.5259947568517835,NA,2.107286786518466,1.5799544605800682,NA,NA,0.613879981857842,NA,NA,NA,0.3036456718032339,0.2845258637971716,2.113476424636315,NA,69699.82641096142,24700.02464126481
168,27055.894834518433,24184.0,[14],1,0.332231936765369,0.4032840980353929,1.1803338581003224,1.337028496743811,0.7284622152331952,0.33153827812309733,0.22222333632714975,1.2562580655227147,NA,0.5038083162599799,0.29814503906704104,0.4411309231740862,0.7523365148765168,NA,65698.14754923462,18998.430218262714
168,63845.59044075012,53466.0,"[17,29,31]",3,0.2631451748491922,0.11216098647327888,NA,NA,0.36471765110063536,NA,0.31900561231831803,NA,NA,0.4823867844092633,0.24085554743273763,1.395643302204894,0.7912234414309295,NA,71932.96690706332,15655.971971183913
168,41776.97201538086,32935.0,"[23,30]",2,0.6526229507848684,NA,2.1387762928242027,1.6119101581044522,NA,NA,NA,1.184183657806321,NA,NA,0.3061857535070427,0.2365970686859694,2.344477943622235,NA,71351.36813789741,25768.41791211195
168,32712.27789258957,31184.0,"[10,12,20]",3,0.4571306052809323,0.9331650003015528,NA,1.6961340161696938,NA,NA,0.30392303163017065,NA,NA,0.8454481647710462,0.3814564424227167,0.3132477338718247,1.4014090629444986,NA,65854.31759414336,25914.816375793933
