time_in_hour,cumulative_size,size,pcore_ids,pcore_power,AF700 CD48_[R 730_B-A],APCCy7 Ly6G_[R 780_A-A],BV421 CD117_[V 440_F-A],BV510 SCA-1_[V 525_E-A],BV605 CD11b_[V 610_D-A],BV650 CD150_[V 660_C-A],BV711 CD11c_[V 715_B-A],BV785 B220_[V 780_A-A],FITC Ly6C_[B 525_B-A],PE CD115_[YG 582_D-A],PECF594 CD135_[YG 610_C-A],PECy5 CD3-CD19-NK11_[YG 670_B-A],PECy7 CD16-32_[YG 780_A-A],PerCPCy5-5 CD45_[B 695_A-A],_FSC-A,_SSC-A
-1,0,0,[],0,0.0,0.0,0.0,0.0,0.0,0.0,0.0,0.0,0.0,0.0,0.0,0.0,0.0,0.0,0.0,0.0
0,119458,119458,"[2,3,6,17,23,28,34,45,49]",9,0.3254459512715768,0.18572095539854816,0.4485783083929169,0.4637232829781164,0.335235708968844,0.194241589964669,0.04122264438546708,2.2266124044182796,0.9832976073682792,0.39951253366036665,0.17302995309648628,0.8266934357347373,0.6290227534196123,0.9036258205226944,68601.26504712958,13747.245860469759
0,101565,101565,"[10,12,13,18,21,22,31,33,36,37]",10,0.20942382987250063,2.125311241500526,1.976279074888009,0.6493269998030842,2.891862946920704,0.22348263898980925,0.17581266453994893,0.6063434599714603,3.9315798451336526,0.52347012213853,0.09232204567517854,0.11203692773100937,2.178668542942939,1.6846719728449748,66990.50420912713,18518.89418598923
0,38646,38646,"[3,6,24,41,44]",5,0.22261345344925765,0.2246284265900731,0.5740073025151387,0.7584792979351014,0.4590976154323916,0.259081602235675,-0.06491351503389664,3.0050977633131604,1.204870335636289,0.40309692459763113,0.22345816723593837,1.3275029905811746,0.7699015474822754,1.6058989163173396,69204.25192775449,14855.228691196959
0,24795,24795,"[23,24]",2,0.20984885222827288,0.11379505666466017,0.245891973220409,0.5928235580560632,0.20705035333736665,0.4223536558983605,-0.1569668569469651,1.691876846380313,0.6976736564629967,0.3056972090744111,0.1730427503528933,0.7528091550715852,0.48314962548900897,0.9704989454325439,70692.33764871952,10909.221375277291
24,184297.0,124699.0,"[2,3,6,17,23,28,34,45]",8,0.30819789814538456,0.174249246064774,0.5115762887784343,0.5106421904860055,0.3139450253693705,0.21038605230415852,0.036569734436799006,2.128585285587932,0.9706056500621266,0.3676018239499327,0.16011142191951144,0.7686578081330637,0.5700602060478485,0.8721911511364797,70411.32641334378,14771.679018106579
24,184469.5,118021.0,"[8,9,10,12,13,14,18,21,22,31,33,36,37,49]",14,0.25324441835370726,1.8655454178522834,1.9663869159210612,0.6928490222909454,2.680669804750925,0.22511025252412953,0.21177588172029393,0.6758729277197593,3.9176470567465027,0.5313694480117314,0.08422071505316175,0.12275707081929554,1.9736077882305683,1.528098871702358,65906.63445176573,20263.113934823865
24,11875.0,7766.0,[9],1,0.4968600525473701,1.9374038846736772,1.9821278999578769,0.6850059748210482,2.6153698146526376,1.3282488914526394,-0.5777523928842063,0.8464082782737052,3.8932746015157984,0.6087448548631579,0.21257154408419687,0.10472461338947414,2.0051756083789414,1.50445521507368,65847.39301052646,20828.499536841977
24,66618.0,47295.0,"[3,6,24,41,44]",5,0.22147924979735412,0.206036609655047,0.5373056276606958,0.8472417466000088,0.4298885512474029,0.29047792381938753,-0.030470323471122107,2.9850264135593934,1.2875580934657336,0.38851127962412557,0.20612999990242997,1.291567332477709,0.701729548995767,1.5785450792128244,70246.17971118912,15635.995556756388
24,16950.0,9529.0,"[13,39,42]",3,0.679657371474925,1.2940442069321492,2.363025463569335,0.8595192492330352,3.0072954429793506,1.2769724643362863,-0.4692852490855399,0.9242918658702122,4.401071861268445,0.5858073607669615,0.21877160445427846,0.1065923851622419,2.1552253901179976,1.6056831108259602,75501.07941002944,27370.249439528045
24,14568.0,10572.0,[24],1,0.2308380318849539,0.016181604956070128,-0.4991982683278404,1.039196418691657,0.004828042833600499,0.9680126647789675,-0.4908533238605082,4.17605462191105,0.7090970252608487,0.34094614665705536,0.20198173774712158,1.8817422933484371,0.6649065468149383,2.1553164678747945,74224.32948929153,13077.311367380502
48,232162.5,138901.0,"[2,3,6,17,23,28,34,45,47,49]",10,0.303444880259518,0.2205981704571136,0.5408830437355245,0.5134949584148911,0.35687787099767254,0.22417956190706856,0.03513574439562461,1.997311639917072,1.180606083843211,0.37737111619555364,0.16905349904268752,0.6679381139417451,0.608023887777961,0.8075800801593724,67945.43098045557,15749.503869057166
48,82997.25,49992.0,"[8,13,14,15,21,37]",6,0.23021007146320582,1.3331968667998129,1.6140354044501568,0.6748930637521084,1.935247388422526,0.32529372912054266,0.14860896536331403,0.6979969040751324,3.5656977942341395,0.39071562118624437,0.166277375403999,0.127205213121519,1.4313056172011742,1.0100859699899662,63707.96160113748,19805.642620689152
48,97608.25,48083.0,"[9,10,12,22,31,33,36]",7,0.15338411945967279,2.096949261947639,2.185399423834547,0.6699673459492366,3.060039159399936,-0.12256192711169223,0.47450465556958754,0.5742054562678041,4.083300526149168,0.41737643175909855,0.008294778438298511,0.10056997379063837,2.2796849969725894,1.6632404405723846,66085.15931798793,20835.49945829367
48,12693.5,6756.0,[9],1,0.49919175964075624,2.056791324240753,1.9656888465749938,0.605339914247446,2.580977733682585,1.3907353101981326,-0.7554157916059321,0.8498459868633725,3.8498167721668577,0.4848627550124056,0.21321395296806456,0.07644535147910125,2.0423198702288623,1.416756189506442,64138.46204750478,19468.9099145231
48,54560.0,27687.0,"[6,24,40,41,44]",5,0.23091943766954048,0.09867632849614649,0.31730381876375224,1.037902849605934,0.24025544576612612,0.312032381332475,0.03909381881874596,3.7946010240331756,1.2240911914543688,0.3450525733229505,0.19322555059566726,1.5316266190844932,0.67047035429802,1.8411012818640013,72024.68533724337,15613.05337243395
48,38006.75,24297.0,"[13,14,15,12,26,39]",6,0.7511748802712654,0.8963765525860499,2.151398725035684,1.0151813924697595,1.96713869573168,0.9041853094581913,-0.16800537844593277,1.2037581065008265,4.077008381129666,0.5704926839443,0.2911277249962203,0.15403404242667396,1.6382746476283856,1.3115887224506175,66568.78538680622,28365.533596005956
48,14360.0,7076.0,[24],1,0.2584320062151815,0.027958478377438034,-0.5666972432103021,1.0569432559714604,-0.004734069011141262,0.9835198732764632,-0.4890429769498619,4.213243856128156,0.7220697018105883,0.32415518615947436,0.19580168347840488,1.8350893216399737,0.6658668415041816,2.070273011977716,72945.92311977746,13335.14651810578
72,265906.875,148504.0,"[2,3,6,17,23,28,34,41,45,49]",10,0.29176282508491,0.2984132285466474,0.5003559465724585,0.6232338338751049,0.4427661195709951,0.23250677093296335,0.019123406762241224,2.071699423828365,1.2049312828551328,0.38229090089011386,0.17184557378640175,0.6464799527743477,0.6742441676578569,0.8785763353171103,68667.28541712221,17002.04019170244
72,156065.375,94847.0,"[8,9,13,14,15,21,22,33,37,47]",10,0.2868029073345064,1.5106383136506114,1.5795977519452982,0.8401809208889204,2.1431165771731835,0.38120412180872876,0.11679815177213815,0.6904256479536248,3.4688993462595463,0.47049818118048214,0.23340827212234894,0.14328883474954213,1.6090497672666029,1.2222266918871256,66732.87104202335,22256.486142425838
72,55873.375,25429.0,"[10,12,31,36]",4,0.17551479854671403,2.079922482096805,2.0966190508515585,0.8677950387102831,3.0842623702232967,-0.4898089089011526,0.6053359128811455,0.7392863590306029,3.975361565347512,0.48342917062912283,0.0766318751663837,0.12792619335238187,2.259541671466977,1.808689845064842,69214.65273934128,23450.008810099585
72,31880.75,15448.0,"[9,18]",2,0.5456401382613287,2.220944434780379,1.7719426874681452,0.7950492496882853,2.856541945249098,1.454246923735323,-0.7468817889361192,0.9635745264971618,3.7313247556989864,0.6184932393450592,0.2980735797267968,0.08840129081812353,2.169123017930124,1.7332297045944516,67696.12634583563,22247.626169396823
72,7544.125,3283.0,[39],1,1.0065695083094421,1.0048196444750164,2.882234297996812,1.0950407559524828,3.51831446411945,1.746770446705215,-0.9473380427484805,1.1837796065481445,4.666772673454501,0.5601519385946016,0.32839674712111533,0.06542533274236684,2.410851359435326,1.7070023019568208,79248.67416698407,34714.12363925582
72,49830.25,27356.0,"[6,24,44]",3,0.1993734342568081,0.14825714312341276,0.180168990593069,0.9917994669051455,0.3111416901129376,0.2291032703127136,-0.06203313587378467,3.631255941604241,0.9827431595993427,0.343988105302502,0.1727467884141598,1.4194995227748262,0.7272733747347241,1.7869947889835995,73225.03692034446,16670.933338684772
72,33580.375,13633.0,"[14,15,12,18,26]",5,0.7383451824391409,1.469448141671275,2.0930052801152503,1.1025246058635423,2.175315168096701,1.031631994676945,-0.3028165615928997,1.2357275454822854,3.9160193055839954,0.7129345903373622,0.35712526866138683,0.15345708076889775,1.812802801867179,1.5674642206608707,67067.54787580538,28023.986986446645
72,15207.0,8027.0,[24],1,0.2814498343279468,0.08173625170974574,-0.5756294937364284,1.2004532599378588,0.06763908374432592,0.9168498783537251,-0.44479462178602214,4.088908149010345,0.7446610915367976,0.3525573874942449,0.20365067260964098,1.6630992129529187,0.7244717751693325,2.073124754652465,73450.77503781152,14864.277766817777
96,218916.875,89549.0,"[2,3,6,17,23,28,34,45]",8,0.35819499859621384,0.26608760089759986,0.47106216364943476,0.6538760892393474,0.40149241211903197,0.2072041408122931,0.08097456207950415,2.2806074577085287,1.0863287272357947,0.399551929949721,0.19099929520707848,0.798937078476418,0.6779176030411141,0.9245415622259554,69445.89677703026,15953.123796418125
96,99950.4375,30400.0,"[8,9,13,14,15,21,37,47,49]",9,0.3639276296083027,1.475784000617804,1.5621753508526406,0.9264424418652428,2.014327072624114,0.4333140345327402,0.14041310517588013,0.82102935246344,3.3159515078298165,0.5319990873670498,0.28641224644340246,0.16933606284364955,1.5478100196341118,1.2113959345794447,66463.596580055,21710.343268882534
96,36007.9375,19269.0,"[24,41,44]",3,0.2652146245740954,0.112157422885927,-0.17018932225359862,1.4626916823183,0.27614556529029555,0.38804466809227467,-0.06319855630963378,4.1773356887995465,0.8687206873380432,0.437914244213513,0.23031793071666362,1.9304308072386829,0.7944641141172014,2.22948563593096,74773.27286518418,14723.25317160966
96,103022.1875,65561.0,"[10,12,22,31,33,36]",6,0.1578634044322924,2.3889268972600144,2.158251185710587,0.9853721571718492,3.294531042155343,-0.2933767556527509,0.8852340008450903,0.769160655418291,3.8964778079139415,0.49602026345174133,0.06134196953812987,0.133914191390206,2.4484561783669356,1.9754796936339567,68317.92295227671,20915.38147547104
96,39070.3125,25146.0,"[18,39,42]",3,0.7297263906050744,2.353629305314933,2.223418935740861,1.0355347087270506,3.4309941262259707,1.591782644360732,-0.6553327124863146,1.2640751915840696,4.042513513934021,0.6429025210350007,0.25579513796281006,0.08091261588482102,2.5633394354793064,2.078859170402712,73006.74843591289,23585.555708058306
96,42478.0,14553.0,"[9,13,14,15,12,26]",6,0.6491789426997536,1.3412982980101509,1.8418560286854384,1.1336351564795373,1.920045463623818,0.8910718486731348,-0.15230078293764437,1.0781022167474967,3.5885563032908157,0.6822332351496655,0.3907559027511307,0.18569232843030525,1.6452488849786961,1.39782036441216,67402.57253166343,25990.132680446306
96,11645.6875,7031.0,[22],1,0.12926998406599743,2.4827792451390254,1.9598633094976337,0.8876493657684503,2.98878380132667,0.7706665157542274,0.7020433249539755,-0.20465164706355754,3.689168706511532,0.57492468482432,0.20708186259400518,0.1145902750696367,2.383681334313659,1.8641203875361583,67854.38231963557,19956.37750025486
96,14611.5,7008.0,[24],1,0.38634137606080543,0.08701174094891151,-0.6109541827755511,1.3512827626142072,0.060099630376767355,0.9665500315547633,-0.3968760013516732,4.153755976183188,0.7172601165862603,0.41424298277469085,0.24098139802125296,1.8178853841623015,0.7565076514047163,2.1304627331211567,73606.55428942948,14108.465797488172
120,182136.34375,78220.0,"[2,3,6,17,23,34]",6,0.3084157503660969,0.26410767314064376,0.4965050314000674,0.6474395341997381,0.3750356973331992,0.18734412818830726,0.11141439049026625,2.350451934022958,0.88099791141458,0.3443836930865436,0.20834017647870917,0.8430705037074679,0.6093466822239791,0.9159252976496162,69432.3942033124,14849.338151381451
120,230491.46875,131979.0,"[8,9,10,12,13,14,21,22,31,33,36,37,49]",13,0.1826954393892295,2.252100034287764,2.044277177120169,1.0474437299570614,3.0259017967162936,-0.042878780961253415,0.7683357960618742,0.8544392408981727,3.7155212094011802,0.4413305269450697,0.12978081014495402,0.1373677828711648,2.251774502632504,1.8394186617382788,65818.49541882449,19427.427150706622
120,62342.0625,27996.0,"[3,6,24,41]",4,0.34613211560713686,0.4048515762176028,0.7315024173852374,1.0537309417908927,0.5818441965516903,0.43864146629432343,0.007095742289770168,2.6964844276231155,1.5289401926187494,0.45970258367795214,0.276457490716036,1.148395236437474,0.800820829593886,1.4480941599587145,68970.6857869837,16822.645801941457
120,61042.15625,41507.0,"[18,39,42]",3,0.7026410993831678,2.6208966868680594,2.300702777843053,1.1355280256057716,3.5768115266514298,1.6521745147661753,-0.6257820880001517,1.3971743300654662,4.0178537477604275,0.5674319440171772,0.2504608364337382,0.06975246682748448,2.693537886038789,2.2522310447472544,69645.96906748318,20951.704372336815
120,39230.25,20260.0,"[9,13,22]",3,0.300157269452469,2.252280762180498,1.8172219261698515,0.9655982734696229,2.806779388502022,1.0142305010538692,0.1937111949117729,0.36620364688122997,3.5600130639350245,0.5322818717204835,0.26426363475729486,0.11625465125286039,2.1796736398506247,1.7619977202310368,66039.41285105236,19418.958941123125
120,30841.8125,15134.0,"[24,44,45]",3,0.2304677050767101,0.08711501110607145,-0.26340488970026277,1.5665869659654295,0.3576128594288628,0.21001255734402768,0.11895560842119579,3.8985341463800243,0.7979170286461789,0.44277095066052685,0.23018328630571672,1.9261664945599413,0.7606041067473385,2.3074909784474804,73973.49491052123,13796.327307287716
144,156793.171875,65725.0,"[2,3,6,17,23,34]",6,0.3595591922793764,0.22492706209932,0.5025906031301357,0.7825786879226713,0.34770510730189175,0.17876684264012943,0.16445450791741933,2.5299282437743678,0.8441648810238992,0.3595839836884007,0.21226612508715625,0.9675558870912964,0.6478001883794434,0.993112340422291,69669.22035169145,14446.071113388529
144,89889.453125,49305.0,"[3,14,15,24,28,41,44,45,47,49]",10,0.4379423093558499,0.26755517026451825,0.5126227571200745,2.0061304111202465,0.5642715179495625,0.37580624002554774,0.2918299541448941,2.9845827577397746,1.7998233049584327,0.6665800360228943,0.3630517300416809,1.4120172304074892,0.9027195810974459,1.8521168792942733,68992.60660064229,17297.132354758603
144,209711.4375,97883.0,"[8,9,10,12,13,21,22,31,33,36,37]",11,0.1555542316628986,2.4415291033636395,2.1341683274338057,1.170302182918392,3.23890761124431,-0.05946584144388334,0.9235717345183905,0.8389297654812427,3.689355424317433,0.46642746559848547,0.06489941681791356,0.15469556150854924,2.406728660086728,1.9531824665201294,65782.92764313349,18579.496509340403
144,61247.078125,30726.0,"[18,39,42]",3,0.7063334172255156,2.682508850922451,2.239634027993913,1.231840612276382,3.564065303700215,1.6625779763483977,-0.5922794141794574,1.440763716827088,3.896872002842508,0.5972553847272769,0.1992557443171208,0.09445466739893227,2.6792220295723372,2.2493054291197256,68306.62136178414,19817.997317729354
144,25471.71875,6907.0,"[9,13,21]",3,0.5046918033327441,1.7215770816696239,1.6686851594942946,0.948438462831946,2.324187569218927,1.0953453762702459,-0.2888235003435158,0.8786450209809908,3.371377514535118,0.5680314135855303,0.2926243016918262,0.14252998141075568,1.7911106776253045,1.3279650659370963,64290.98778424604,19689.152621473437
144,17815.375,11007.0,[24],1,0.36154552767360904,0.006268242387187151,-0.6946730807185384,2.076604703604857,0.08104876606934264,1.0429357513392488,-0.24597935656350067,4.317774947313784,0.8105246386267465,0.48506864566158314,0.2646839467200155,2.069988686747928,0.8006887806810207,2.2688073165874996,72228.48387979495,12995.49394834515
144,12553.828125,8270.0,[41],1,0.44274072421011956,0.10671690898319408,1.0096041769953046,2.4504672010703614,0.2659255602835202,0.878302155912351,-0.1000118343022911,4.199477271943931,1.3416022888050803,0.6364642463802762,0.31292267576499766,2.200981971314772,0.8864929156955418,2.31295397004026,74721.10448381673,16778.41291936594
168,148426.5859375,70030.0,"[2,3,6,17,23,34]",6,0.28973490009570835,0.2462686670764711,0.5440993261859353,0.9625217865466724,0.4371025916732951,0.20664487285807653,0.19130226438486275,2.3252610479169347,1.06427607362152,0.37382229436537995,0.2111658825273537,0.8399515482501458,0.6769327408765281,0.9568574796048417,68446.90382340211,15460.927629678861
168,98930.6328125,71851.0,"[8,13,14,15,21,37,47,49]",8,0.33853939915373066,1.0738381878624454,1.4809644832915136,1.5163402703464657,1.7802135194339388,0.2779496773383854,0.4777171659040418,1.0119152259440591,3.2674686189971904,0.6476478164304044,0.33196882022860175,0.23662837657099,1.3739021143411771,1.182553081229263,63218.18988415255,22179.89050629768
168,160415.59375,72274.0,"[9,10,12,22,28,31,33,36]",8,0.22920081418455673,2.340102362969464,2.162673584972024,1.3760960859369882,3.261784409550478,0.01744695962148124,0.9266083508076393,0.8465428225465335,3.7619420365512455,0.6119866392904932,0.07220051528144111,0.15299598967793193,2.4311132037932226,1.951472039633413,66369.12269322343,20553.857626450404
168,50975.6640625,25482.0,"[6,24,41]",3,0.3100046995712644,0.10162673071296746,0.4244903759198846,1.9721386173889557,0.27738096180882676,0.6254258871138723,0.08665924402376612,3.9457625062078536,1.2313820603166126,0.5255056397164092,0.2587982173460537,1.7525379057532748,0.8209624695961716,1.9555288057766498,73507.28945690228,15905.446587334442
168,44382.5390625,13759.0,"[18,39,42]",3,0.7262715063273548,2.6175385702951584,2.256993409906412,1.317405676621671,3.586211210652633,1.6772972165996716,-0.5624662754396463,1.4535117286156742,3.8368710780788207,0.6424597171047527,0.20584768383028829,0.09173492730988919,2.6387758412783815,2.1983271915503946,69194.97893474059,20840.518693567254
168,49109.859375,36374.0,"[9,13,21]",3,0.46793434260288946,1.5119183505372544,1.632599767232986,1.1923027174921303,2.2958978758976483,1.1352910608743485,-0.280843065223507,0.8589176886593046,3.3621886653825626,0.6519644462941973,0.27602583594355146,0.12417481449912482,1.703386280126097,1.2388531485117371,63749.79972135191,21629.96393226786
168,64404.9609375,32581.0,"[23,24,44,45]",4,0.14062077041389243,0.09523490057079442,0.018754323622318214,1.8941819426307052,0.3862168877004404,0.19427423183833792,0.2874749344983103,2.8764422098947877,1.0021280898579348,0.4437735083655845,0.2193211021375343,1.4221446705533265,0.6802000953569577,1.734366917779049,72601.57708251072,14000.110960008267
