time_in_hour,cumulative_size,size,pcore_ids,pcore_power,AF700 CD48_[R 730_B-A],APCCy7 Ly6G_[R 780_A-A],BV421 CD117_[V 440_F-A],BV510 SCA-1_[V 525_E-A],BV605 CD11b_[V 610_D-A],BV650 CD150_[V 660_C-A],BV711 CD11c_[V 715_B-A],BV785 B220_[V 780_A-A],FITC Ly6C_[B 525_B-A],PE CD115_[YG 582_D-A],PECF594 CD135_[YG 610_C-A],PECy5 CD3-CD19-NK11_[YG 670_B-A],PECy7 CD16-32_[YG 780_A-A],PerCPCy5-5 CD45_[B 695_A-A],_FSC-A,_SSC-A
-1,0,0,[],0,0.0,0.0,0.0,0.0,0.0,0.0,0.0,0.0,0.0,0.0,0.0,0.0,0.0,0.0,0.0,0.0
0,97052,97052,"[1,3,7,18,35,36,41]",7,0.27401682047768094,0.1288256976363238,NA,0.4885919102439926,0.25258997234471803,NA,0.005788086633972789,NA,NA,0.305765335304784,0.15705612950789272,NA,0.6237335584222893,NA,69899.6800065945,13920.440506120416
0,19630,19630,"[2,42]",2,0.23582712455425403,0.22278720738665392,NA,0.4833466870096794,0.3382247868059012,NA,0.04203698706061987,NA,NA,0.3223641734589895,0.1960916564951658,0.19351877259296846,0.399183472542025,NA,NA,10994.922873153384
0,75265,75265,"[6,10,17,20,37,49,50,54]",8,0.09214772348369049,NA,NA,0.6543982409619358,NA,NA,NA,NA,NA,NA,0.03262636957417575,0.12268421244934613,2.187017978781641,NA,NA,18142.861834850235
0,44215,44215,"[8,12,13,14,19,22,27]",7,0.5396169236458239,NA,NA,0.6793964128915579,NA,NA,NA,NA,NA,NA,0.21208389422141982,0.09083026138188277,2.1675552831392118,NA,NA,20409.393735157744
0,8128,8128,[18],1,0.29904155290353773,0.1870295305118157,NA,0.5144036274606232,0.4725749765009848,-0.19528665907971532,NA,NA,NA,0.40182801181102723,0.18514723117618592,1.116465618848424,0.6953721168799233,NA,71215.0708661417,16611.598425196877
0,21741,21741,"[10,17,20,49]",4,0.26202848981187987,NA,NA,0.7157923266179091,NA,NA,NA,NA,NA,NA,0.07921410643484839,0.12469265705349297,2.159736631433699,NA,NA,20637.861367922404
24,105596.75,99531.0,"[1,3,7,18,35,36,41]",7,0.25144683978258797,0.11029570689853863,NA,0.5778466991508919,0.21858820048675875,NA,0.010388691588521848,NA,NA,0.29646623823768326,0.1419316556481407,NA,0.5566180276097542,NA,72576.26394751733,14982.347998399546
24,27121.875,25895.0,"[2,42]",2,0.25387780359719514,0.2107170632584383,NA,0.5355387989814338,0.3152922365917683,NA,0.016077958308563733,NA,NA,0.315404545825557,0.18297035924184302,0.2145275828874328,0.38731180646157526,NA,NA,12979.890365249552
24,64932.25,60031.0,"[6,10,17,20,21,37,49,50,54]",9,0.1355279608880786,NA,NA,0.7090653553222785,NA,NA,NA,NA,NA,NA,-0.028863208230501147,0.12975405627885062,2.1065831048621826,NA,NA,21034.51329655141
24,40399.4375,37636.0,"[8,12,13,14,19,22,27]",7,0.5680732062776217,NA,NA,0.743722906754587,NA,NA,NA,NA,NA,NA,0.16050701419883584,0.09564959448847643,2.0924187454033287,NA,NA,23346.554466259597
24,31187.5625,29974.0,"[26,39,46]",3,0.2945723011316601,1.0617491181220027,NA,0.6716935725219009,NA,NA,0.19106460229538857,NA,NA,0.4823827368021304,0.17850698942887577,0.14423729696934562,1.327950120071903,NA,NA,20460.37153432559
24,9431.0,8923.0,[18],1,0.2972964467050121,0.16484422611600058,NA,0.6318409119658597,0.4298501780365198,NA,0.21430800466545996,NA,NA,0.3909295540239648,0.1664693009688798,NA,0.6494990332281857,NA,73290.65168062759,17395.924504294384
24,25650.8125,23565.0,"[10,17,20,21,37,49]",6,0.3020573281060799,NA,NA,0.7534935650113419,NA,NA,NA,NA,NA,NA,0.04887195000401823,0.12281764035495923,2.147648183193512,NA,NA,23520.81829766604
24,9141.1875,8701.0,[39],1,0.23391723152763166,0.7629207023567828,NA,0.6845568479067978,NA,NA,0.3191109273002093,NA,NA,0.4486257978654318,0.18563085745150953,0.1562337051805346,0.9370582414142096,NA,58071.28493973032,18562.499456443726
48,89489.25390625,84689.0,"[0,2,9,35,39,42,45]",7,0.23458308291956476,0.33070254757421225,NA,NA,NA,NA,0.07922387948159892,NA,NA,0.33045336511830004,0.19169931069984258,0.33169657240117256,0.5155342272443343,NA,NA,17620.4095790307
48,69640.4609375,64539.0,"[1,3,7,18,36,41]",6,0.22532812708589356,0.11085556523596596,NA,NA,0.18103328891715842,NA,NA,NA,NA,0.25729594709057657,0.1267877391108425,NA,0.6263899064785764,NA,NA,15109.347422963336
48,36209.14453125,34120.0,"[26,46,54]",3,0.14229528600801133,NA,NA,NA,NA,NA,NA,NA,NA,0.33236921549912724,0.10178553512174515,0.10379363744752812,NA,NA,NA,19070.907596395493
48,22764.76953125,21089.0,"[9,7,18]",3,NA,0.18374583286691548,NA,NA,0.25364873929305176,NA,NA,NA,NA,0.33513993271967424,0.1862025650340997,NA,0.6504513387006167,NA,NA,18467.640828644744
48,7932.1640625,7549.0,[42],1,0.35785627982196333,0.4009324682404656,NA,NA,NA,NA,NA,NA,NA,0.43592170151538767,0.32889368289460386,0.19906487416836482,0.5008222028420702,NA,NA,18829.289784372744
72,125229.921875,117896.0,"[1,2,3,7,18,35,36,41]",8,0.22086076229060758,0.1961356296897745,NA,0.657269451871179,0.2801872715892002,NA,-0.014804917752977875,NA,NA,0.288347209519235,0.14457445791712464,0.8006656691909384,0.615682660915159,NA,70726.60124071772,16640.951394528613
72,9306.76025390625,8811.0,[42],1,0.3204167495229959,0.75442198570734,NA,0.877840797397186,NA,NA,-0.10950489904825167,NA,NA,0.4235777632470886,0.30377836697289906,0.19272166217118458,0.7782468502294181,NA,NA,19631.028682369943
72,7595.344482421875,7173.0,[23],1,0.26579698796121565,0.11478362699373035,-0.7045402866542225,NA,0.1111357049699011,NA,NA,NA,NA,0.35786779819000547,0.2169160700477999,1.6542746694245412,0.7775673553727237,NA,74255.71043580072,15886.498258226467
72,84399.8193359375,80294.0,"[26,39,46,49,50,54]",6,0.18684436008770566,1.5093889627904558,NA,0.8382750119430353,NA,NA,0.2679623027954814,NA,NA,0.41898033826262215,0.19851832605168473,0.1466705827274939,1.4879062808133825,NA,65833.71827650457,21110.88864070821
72,9306.76025390625,8811.0,[42],1,0.3204167495229959,0.75442198570734,NA,0.877840797397186,NA,NA,-0.10950489904825167,NA,NA,0.4235777632470886,0.30377836697289906,0.19272166217118458,0.7782468502294181,NA,NA,19631.028682369943
72,10761.4775390625,9850.0,"[49,50]",2,0.10132254836403742,NA,NA,0.9116017675103518,NA,NA,NA,NA,NA,0.46765432515129957,0.18144126783323156,0.13062284551307513,2.0634548870396663,NA,NA,21692.048606897064
96,83156.9800415039,76729.0,"[1,3,7,18,35,41]",6,0.4576133995984297,0.16648121891392975,NA,NA,0.25136641298913487,NA,0.10166626052471983,NA,NA,0.37700758080040997,0.20537108622875522,NA,0.6854853865083165,NA,71430.53372831678,14617.245777059834
96,9149.179504394531,8347.0,[2],1,0.20481732391773244,0.18132584469841806,NA,0.5648301151185655,0.22561611121815517,NA,0.045428430532987285,NA,NA,0.2904340912799174,0.1939724025302687,0.2188402226587478,0.3079570741252662,NA,NA,11210.336634083678
96,98433.29791259766,93674.0,"[5,6,8,10,12,14,17,19,37,49,50,54]",12,NA,NA,1.9680897337581444,1.008610675755425,NA,NA,NA,NA,NA,0.5385061067691342,0.10886892012171012,0.1333313150679314,2.4758302864195927,NA,67622.09903653542,18465.426875255434
96,5569.7950439453125,5278.0,[20],1,NA,NA,2.900120895200979,1.2600858627627938,NA,NA,NA,NA,NA,0.38820390351189726,NA,0.15712017811045853,2.4322130114901417,NA,NA,26126.863411772432
96,3470.8345642089844,3239.0,[22],1,1.1167479952930235,1.0169968874246949,NA,1.3088651597587,NA,NA,NA,NA,NA,0.6733298826649526,0.3264035174693487,0.08292714809064461,2.4770294343512185,NA,NA,29440.09957557625
96,7762.7105712890625,7166.0,[36],1,NA,0.1200034356474684,NA,NA,0.571365276706501,-0.4546398952628957,NA,NA,NA,0.460843267087765,0.22219254012694334,2.131018524183899,0.844279102610383,NA,74885.30247014074,13757.491367995613
96,8823.289535522461,8120.0,"[10,14]",2,0.3746576282740315,NA,NA,0.9606087755946278,NA,NA,NA,NA,NA,0.6006158404109231,0.24171487200002595,0.13585625673341095,2.191845372341618,NA,NA,19256.548620727768
96,5569.7950439453125,5278.0,[20],1,NA,NA,2.900120895200979,1.2600858627627938,NA,NA,NA,NA,NA,0.38820390351189726,NA,0.15712017811045853,2.4322130114901417,NA,NA,26126.863411772432
120,69603.311252594,64406.0,"[1,3,7,18,35,41]",6,0.3674313270278151,0.18179385446888885,NA,NA,0.28513019044065535,NA,0.10994064944789228,NA,NA,0.3767928007308696,0.23201046551952142,NA,0.6351848288559804,NA,70810.4508826983,14307.994347351236
120,11774.823719024658,11203.0,[2],1,0.17566892195093464,0.204130246891709,NA,0.5359201237848219,0.23204276590350403,NA,0.08248581611694572,NA,NA,0.2875978947129213,0.21350468062983552,0.21040932060748962,0.2910848693971051,NA,NA,10483.47927164093
120,132179.0508594513,126984.0,"[5,6,8,10,19,37,49,50]",8,NA,NA,2.2080699866046865,1.1113860701006457,NA,NA,NA,NA,3.8386695224936696,0.40704148269448226,NA,0.10979085174521641,2.700928970660295,NA,66012.89964393583,17502.481549774966
120,16620.199652671814,15769.0,"[20,54]",2,NA,NA,NA,1.171366333714427,NA,NA,NA,NA,NA,0.3284959919353396,0.034876216007437844,0.15330740208201232,2.1818369060920575,NA,65320.8066113454,21034.412193895383
120,10718.167179107666,10253.0,"[14,22]",2,0.8859473189961122,NA,NA,1.2316124611404287,NA,NA,NA,NA,NA,0.5841009477610409,0.31577613734522325,0.08815918997614236,2.2913790866753696,NA,NA,23892.51233077266
120,17597.70939731598,16131.0,"[7,18]",2,0.4086516902652626,0.18871349065395826,NA,NA,0.35892216250250364,NA,NA,NA,NA,0.4180948143363433,0.23945726495722353,NA,0.726239057856695,NA,71481.52115313734,15298.711065542799
120,9573.21557712555,9270.0,[10],1,NA,NA,2.2244684759083806,1.0600160253348214,3.333827580844899,NA,NA,NA,NA,0.43986388722649006,0.19581510429769322,0.1048621108697152,2.591639848448153,2.0937303319860976,66174.6751777032,18139.94574817598
120,7701.112190246582,7353.0,[20],1,NA,NA,3.0141370428555,1.4095338176390761,3.872682407524709,NA,1.5189580713470199,NA,4.424953382926747,0.27260286556695146,NA,0.14906254499029747,2.515007647999976,NA,NA,24732.931418370426
144,63932.10797256231,59935.0,"[1,3,7,18,35]",5,0.45855626440338315,0.11405722790607564,NA,NA,0.2618431960837029,NA,NA,NA,NA,0.39464908261467946,0.21060475065651918,NA,0.7318161765764016,NA,70973.44073944195,14170.687012311491
144,126694.27364629507,117564.0,"[5,6,8,10,14,19,37,49,50,54]",10,NA,NA,2.1447534376040776,1.2762876111129855,NA,NA,NA,NA,NA,NA,0.020819267275374198,0.15225000053556792,2.610150703248785,NA,65757.3853411185,17118.843699034514
144,4323.319511890411,3842.0,[20],1,0.4899277768279169,NA,2.947317471029646,1.661974194444221,NA,NA,NA,NA,NA,0.478750146386843,NA,0.21039447139962586,2.438805257288429,NA,NA,24525.4643304273
144,6620.098980724812,6267.0,[41],1,NA,0.12492238524544064,NA,NA,0.21142553173577872,NA,NA,NA,NA,0.6008288072844122,0.3213570333352398,NA,0.888192732205565,NA,73619.31365015601,16902.99989573611
144,3058.2454475164413,2700.0,[22],1,1.144525825314891,NA,NA,1.5933974985066661,NA,NA,NA,1.429123716653801,NA,NA,0.2472361855996721,0.1429881662912722,2.4485903326607743,NA,NA,27510.131795748228
144,2892.8807775378227,2602.0,"[12,13]",2,0.5110292243074053,NA,NA,NA,NA,NA,NA,NA,NA,NA,0.2767253729906214,0.16523613056501085,1.9727855213150112,NA,NA,18913.92780395207
144,21140.868826568127,20409.0,"[23,36]",2,NA,-0.041760293357421485,NA,NA,0.4369076226490427,NA,NA,NA,NA,0.5439121308961744,0.23562271985661987,2.4331617075153726,0.9269304043997951,NA,71805.75894651671,13186.280138489768
144,4323.319511890411,3842.0,[20],1,0.4899277768279169,NA,2.947317471029646,1.661974194444221,NA,NA,NA,NA,NA,0.478750146386843,NA,0.21039447139962586,2.438805257288429,NA,NA,24525.4643304273
168,71761.22381146997,69993.0,"[0,2,9,12,39,45,46]",7,0.28482026569325414,0.7217669476312509,NA,NA,NA,NA,0.2087665736031843,NA,NA,0.5632560865129951,0.3025776508955107,0.1994625944045556,NA,NA,NA,21424.398288528177
168,51818.756748285145,47823.0,"[1,3,7,18,35]",5,0.23127930676095843,0.11574204790807174,NA,NA,0.29566807992263966,NA,NA,NA,NA,0.3879284785952992,0.1999392891262204,NA,0.7073855694014198,NA,71457.21103982633,15370.501575834101
168,97255.85210281983,89580.0,"[5,6,8,10,19,37,49,50,54]",9,NA,NA,2.123783049556239,NA,NA,NA,NA,NA,NA,0.5897816740149239,0.06247901545884771,0.13668800448938034,2.3305038525404185,NA,NA,20204.90397576276
168,3497.2074694931507,3227.0,[20],1,NA,NA,2.6792595979436977,NA,NA,NA,NA,NA,4.0350311425606336,0.6373204641181022,NA,0.23195473754086604,2.3590233836925214,NA,NA,28591.17410879852
168,11243.68034054339,10810.0,"[14,22]",2,0.74443716216074,NA,NA,NA,NA,NA,NA,NA,NA,NA,0.3163547676157452,0.12355333065069263,1.940651588467853,NA,NA,25972.860402604838
168,25528.651155862957,23508.0,"[3,7,18]",3,0.292510906527665,0.1258047166118903,NA,NA,0.24673737444354016,NA,NA,NA,NA,0.4334099259435529,0.2361828628092426,NA,0.7324092627905622,NA,72082.32366293712,16223.098530080051
168,8942.989189658314,8858.0,[12],1,0.2874012852238381,NA,NA,NA,NA,NA,NA,NA,NA,0.6484880168826858,0.27296287555331,0.14148200429033275,1.5454472239569674,NA,NA,21823.161390866764
168,12322.352842841297,11309.0,"[10,20]",2,0.24474085722328875,NA,2.3150744375288483,NA,NA,NA,NA,NA,NA,0.6592556742231083,0.11315848204807999,0.1473451600085932,2.4094510767275037,NA,NA,22534.295620333043
168,9958.476828362793,9468.0,"[19,49]",2,0.5123372751772295,NA,NA,NA,NA,NA,NA,NA,NA,0.6775989547719509,0.19118841840009448,0.15312922189868639,2.1331577931713483,NA,NA,23581.274101763895
