time_in_hour,cumulative_size,size,pcore_ids,pcore_power,AF700 CD48_[R 730_B-A],APCCy7 Ly6G_[R 780_A-A],BV421 CD117_[V 440_F-A],BV510 SCA-1_[V 525_E-A],BV605 CD11b_[V 610_D-A],BV650 CD150_[V 660_C-A],BV711 CD11c_[V 715_B-A],BV785 B220_[V 780_A-A],FITC Ly6C_[B 525_B-A],PE CD115_[YG 582_D-A],PECF594 CD135_[YG 610_C-A],PECy5 CD3-CD19-NK11_[YG 670_B-A],PECy7 CD16-32_[YG 780_A-A],PerCPCy5-5 CD45_[B 695_A-A],_FSC-A,_SSC-A
-1,0,0,[],0,0.0,0.0,0.0,0.0,0.0,0.0,0.0,0.0,0.0,0.0,0.0,0.0,0.0,0.0,0.0,0.0
0,138237,138237,"[2,4,5,7,12,18,26,31,32,33,40,41,42]",13,0.33388796029282997,0.2193974770719862,NA,0.5982651977618199,0.4035933707401038,0.25324059248970743,0.01217925028031841,NA,NA,0.4028086206659577,0.20820053459638332,0.9102093514037495,0.6778335579403517,NA,69148.13579577109,14953.374046022393
0,149142,149142,"[9,10,11,13,14,15,16,17,22,25,27,28,34,35,37,38,43,45,46,47]",20,0.3909691298762237,NA,NA,0.7511608221292527,NA,NA,0.13480608833863705,0.762831304387773,NA,NA,0.183301101078162,0.1840678464215314,2.0102470031714716,NA,68498.68565528157,21242.975419398874
0,15223,15223,"[4,5,7]",3,0.21570662208500102,0.43691359088222015,NA,0.8918474637062332,0.7880768690796884,NA,0.015507871575907828,NA,NA,0.4550312659791095,0.2412086511857141,NA,0.9811539808185002,NA,68366.71037246278,14749.8747947185
0,33828,33828,"[10,11,13,24,39]",5,0.9105557183693944,NA,NA,0.7744591108844703,NA,NA,0.13968696890150278,0.7735191218812836,NA,NA,0.2759674033345121,0.19195364742225318,2.1198399452524557,NA,69777.47570060304,23126.70687004842
0,16254,16254,"[19,20,21,23,29,36]",6,1.6735408809523846,0.4378190815183993,NA,1.3059309920635007,1.9112401312292362,NA,-0.30169115454657236,0.9099905857019794,NA,NA,0.746892363418235,0.295819093453917,2.3917130690291617,NA,NA,NA
0,7378,7378,"[16,17,19,20,21]",5,1.195776468013013,0.6012260218216268,NA,1.4731320441854177,NA,NA,-0.31164209094605644,0.9386411664407688,NA,NA,0.7748744369747866,0.3147295250745459,2.212926180672267,NA,NA,NA
0,7921,7921,[18],1,0.3805424754450202,0.21334250385052655,0.8854848141648568,0.5327325477843772,0.41405506968816397,0.2314906900643905,-0.00788538290619556,NA,NA,0.44424752215629715,0.20446053036233103,1.0018810573159933,0.6824847826032089,1.1839814174977945,70498.88044438808,16515.393510920345
0,18062,18062,"[31,32,33,40]",4,0.45671392963127366,0.30806160497176105,NA,0.7024123650758489,0.5524115145609603,NA,0.05301577998006701,NA,NA,0.531002457369064,0.27675523303068283,0.8721393941423956,0.7873218014062687,NA,69555.15889713213,17464.707784298505
24,176125.0,158619.0,"[2,4,5,7,12,18,25,26,31,32,33,40,41,42]",14,0.32948320735130876,0.22291026782540913,NA,0.6898426904847428,0.3946070106039752,0.2895115937203654,0.015693666117100324,NA,NA,0.39142343614975306,0.19609910778495054,0.8541902214052495,0.6241099916884328,NA,71530.34578850248,16786.4497601135
24,149155.125,130751.0,"[9,10,11,13,14,15,16,17,22,23,27,28,34,37,38,43,45,46,47]",19,0.43057111184496444,1.5525117225506069,2.0160755302549753,0.830313108822943,NA,NA,0.15023284156930927,0.8365131372874366,NA,NA,0.1568433762743564,0.19678043125068723,1.8958911399968685,NA,69017.51748724701,25012.61169537413
24,10852.75,10095.0,"[4,5]",2,0.37444393833360157,0.9007173806178184,NA,0.8457934960609079,1.4306017643684754,NA,0.21289040712032525,0.9247591433277291,NA,0.5526875574623925,0.2487091476584231,0.27260601306121024,1.127478530153652,NA,63225.750524060786,21142.07366796426
24,32215.5,27998.0,"[10,11,13,24]",4,0.8831161150145042,1.1824429598291184,1.9607848281960503,0.8901855067785767,NA,NA,0.16957380912914877,0.891852999499462,NA,NA,0.2585043930988187,0.21486203781176694,2.020313333356615,NA,70585.0291940214,28568.95693066998
24,14081.0,12026.0,"[19,20,21,29,35,36,39]",7,1.685259056192743,0.4869714757652188,NA,1.3642784877672045,NA,NA,-0.2013227186634503,1.1221174934663742,NA,NA,0.6767716880903345,0.30555526965414326,2.310763381435976,NA,NA,NA
24,9406.25,8484.0,"[16,17,19,20,21]",5,1.41858910082392,0.6468039360664446,NA,1.2540446684651148,NA,NA,-0.26003527966777673,1.1389627516544865,NA,NA,0.54487702649834,0.26200488382724196,2.3004692604518246,NA,NA,NA
24,7016.5,5800.0,"[18,25]",2,0.433928307044108,0.40116932938430816,NA,0.7467962886945094,0.6792674012149984,0.25474532452077137,0.09023992496258737,NA,NA,0.52358408364213,0.2590114674873454,0.7636974637105407,0.8104421873975639,NA,70467.92104325519,19417.072329508967
24,22392.75,20135.0,"[31,32,33,40]",4,0.495834409021898,0.293250164210515,NA,0.8279382544908489,0.5589612536646911,0.32385362943363116,0.08665659256901792,NA,NA,0.5361679385571191,0.25600937412220404,0.8067497252068156,0.7202669290786062,NA,71725.25536166831,19182.815866742625
48,160835.453125,140285.0,"[2,7,12,17,18,26,31,32,33,40,41,42,47]",13,0.2954004060644586,0.17071385454815813,NA,0.636893382214776,0.2761584566635449,NA,0.007573139247614602,NA,NA,0.3548102477358229,0.1747065133744541,NA,0.5857999531116295,NA,68174.00377190618,16505.373544331847
48,138416.859375,121106.0,"[4,5,6,8,9,10,11,13,14,22,25,28,43]",13,0.23933948849416353,NA,NA,0.6629775967717109,NA,NA,NA,NA,NA,0.4341085463666736,0.12316110824774418,0.12226483232906493,NA,NA,63893.44613028651,21090.780264642126
48,39596.21875,32882.0,"[6,8,15,16,34]",5,0.6190668756948059,NA,NA,0.753872308217169,NA,NA,NA,NA,NA,0.5184815683299938,0.16769165982311218,0.09095412512598022,NA,NA,NA,26067.660690454104
48,3873.234375,3580.0,[38],1,1.6190024151649725,0.4067377392118199,NA,NA,NA,NA,-0.24163345958843818,1.068293131616426,NA,NA,0.4018039971600036,0.17752233652833738,2.1921619280599662,NA,NA,27393.058030473585
48,13231.890625,11014.0,[7],1,0.17485560935996358,0.0537324937148731,NA,NA,0.1748903620396427,NA,NA,NA,NA,0.32054765067822766,0.1721740278694508,1.8043757528650564,0.7156378977411341,NA,72317.02075832424,13894.406189591584
48,2241.625,867.0,"[5,11]",2,NA,NA,NA,NA,NA,NA,NA,NA,NA,NA,NA,0.2952625083644659,NA,NA,NA,NA
48,4967.234375,4089.0,"[17,18,25]",3,0.4503450947332943,0.34248677069420586,NA,NA,NA,NA,NA,NA,NA,0.44386051739681365,0.3189398873555791,0.38466240060647516,0.5806059900724426,NA,NA,19590.736746743503
48,23993.09375,21194.0,"[31,32,33,40]",4,0.4036468788160412,0.27626159560303654,NA,NA,0.4160457676961804,NA,NA,NA,NA,0.4166244200069288,0.23275025185306486,NA,0.6294529472888694,NA,NA,19187.95770136978
72,206143.724609375,183358.0,"[2,4,5,7,12,17,18,25,26,31,32,33,40,41,42]",15,0.2813705201167933,0.5002441606685886,NA,0.78928035955993,0.7020100101275357,0.266451380462408,0.015052785395890389,NA,NA,0.38313327669271346,0.2067287889994449,0.6266284866715182,0.8161114652661347,NA,69163.66043105142,19067.56274389758
72,151727.791015625,132424.0,"[6,8,9,10,11,13,14,15,16,22,23,27,28,34,35,43,45,47]",18,0.43978087565933777,1.5048384920591524,NA,1.0465345025949935,NA,NA,0.1056787616335848,0.8485093608596732,NA,0.6491873562950649,0.30931829619430484,0.1914497999101461,1.7983794161684643,NA,71577.77131452868,27581.441168342237
72,17766.666015625,15889.0,"[5,6,20,38,39,46]",6,1.087264598090832,0.8520469285006667,NA,1.44375693750696,1.7223054916587461,NA,-0.04426995728713079,0.9778429688105335,NA,NA,0.5158010984184882,0.2740334359565353,1.8678072085116435,NA,NA,NA
72,11323.986328125,9670.0,[7],1,0.21390256117330497,0.18042147083011129,NA,1.2277061177877004,0.3326900623658955,NA,-0.10009150573012437,3.7127122405996023,NA,0.37449838995315554,0.19141816365237396,1.3926735581506362,0.7955903645323187,NA,73365.31390554589,16735.50924415305
72,9497.73046875,7251.0,"[10,11]",2,0.45114940837284645,1.6996401721414545,1.8139789764135847,1.0601166668838187,2.594043192957271,0.5508720588800249,0.06658536624250999,0.7987710642279189,3.840066834127312,0.7071088717641839,0.32159295195624704,0.16991364233951267,2.0275090528434165,1.658247406359215,73420.30286018149,29903.545740162317
72,8784.25390625,7770.0,[24],1,1.816030234589675,0.4399918743672657,NA,1.7199825085480094,1.9084516251073294,NA,0.3405750346391647,0.8303384763873076,NA,NA,0.4468375758145866,0.2557916128681976,2.352001055544403,2.0156645048644357,77942.96686231458,36025.99917732755
72,9203.552734375,7699.0,"[19,21,36,37]",4,1.7902149815233563,0.5244941525258024,NA,1.8073923940714662,1.8775065210827324,NA,-0.3100037686544299,0.9957389845544076,NA,NA,0.7093623395905411,0.28069338267045685,2.3964844902910882,NA,NA,NA
72,19280.826171875,17760.0,"[17,18,25,22]",4,0.3929066430889925,1.3731173257485483,1.3511406339288459,0.9595976793496299,NA,NA,-0.05440825531112514,0.9720091192068399,NA,0.559830902382174,0.3106786397022656,0.22153528502794195,1.497939676862424,NA,69402.90339202146,23989.77407667897
72,21870.13671875,18871.0,"[31,32,33,40]",4,0.38293351062986747,0.6609791916371681,NA,0.9395778051057766,0.9385433018797822,NA,0.05515268534754547,NA,NA,0.49830389151740173,0.28796940049448194,0.521122074916389,0.9281167177403705,NA,68616.16777015603,21908.578014933617
96,144436.38012695312,119783.0,"[2,4,5,7,12,18,26,31,32,33,40,41,42]",13,0.4375921832506613,0.3299069195168163,NA,0.9315908410341325,0.5129195544789771,0.2546432443309641,0.15079301417988988,NA,NA,0.4627230216124979,0.25525476293372007,NA,0.7778111680234244,NA,70713.15853533757,16413.428961513222
96,142124.11157226562,126494.0,"[10,11,13,14,15,16,17,20,21,22,23,25,28,29,34,38,39,43,45,47]",20,0.5311298003099678,NA,NA,1.210203222841772,NA,NA,NA,1.097946727714088,NA,NA,0.25145677831375757,0.21874147605407568,2.2936578573702686,NA,70496.37866117309,23896.249558796724
96,11183.14990234375,6902.0,"[4,5]",2,0.3708972600904834,1.2683155808991042,NA,1.0022002745485215,NA,NA,0.3303698441706211,NA,NA,0.5440752593139969,0.2890584628281401,0.26648876098204477,1.3731830663370563,NA,65197.92576539104,20381.29908107166
96,8769.059326171875,5690.0,"[11,13]",2,0.4976429941721132,1.6187392142276504,NA,1.0417659471917209,NA,NA,0.06483289191456976,0.9837634288793451,NA,0.6574008092375058,0.3350065186418516,0.20968608653759557,1.7241744599673208,1.4287523826504307,67067.6920585953,22626.6593546919
96,630.481201171875,479.0,[36],1,1.407825257978178,0.6583139419892174,NA,2.229097836656728,NA,NA,NA,1.146859198071907,NA,NA,1.2181785940360528,0.5078302529593006,2.434636116127277,NA,NA,NA
96,4835.0009765625,4468.0,"[18,35]",2,1.2761323914173348,0.4016458848287203,NA,NA,0.7464573276462958,NA,0.4743884692232929,NA,NA,1.0510093665295361,0.771484068519734,0.5129086801402967,1.1432257878396155,NA,68478.30320613379,32553.004884427333
96,11862.76708984375,9129.0,"[31,32,33,40]",4,0.5892060962692587,0.5301241899584572,NA,1.1497763478491656,0.8222483022888549,NA,0.23332009902557127,NA,NA,0.6111462518368337,0.34133103763121486,NA,0.9494157897726029,NA,70976.59078227256,19640.036072356965
120,132576.54751586914,114522.0,"[2,4,5,7,12,18,26,31,32,33,40,41,42]",13,0.38775122088556957,0.3522371893237035,NA,0.9767294301301619,0.547350224989632,0.2550284379544656,0.17717976282162784,NA,NA,0.46082448188716096,0.2919998900439458,NA,0.7318355366950476,NA,69160.59490594236,15900.139569041481
120,205340.33697509766,187941.0,"[10,11,13,14,15,16,17,22,23,25,28,29,34,38,43,47]",16,0.444069170126957,NA,2.1974254452629416,1.2680952222353348,NA,NA,NA,1.1630661673763765,NA,0.6152406365388526,0.22378485205455556,0.1892358279803611,2.460469447069392,NA,67567.15344771695,21550.47196473424
120,23363.456024169922,20078.0,"[4,5,7]",3,0.3231247219657094,0.5471148603641107,NA,1.419619709828805,NA,NA,0.273490598385707,NA,NA,0.5039588697600356,0.2909600079158179,NA,1.0027591479598454,NA,68566.16752435653,15544.681812896073
120,5671.132415771484,4575.0,"[11,13]",2,0.546263260363703,1.6986710866783508,1.795006498496813,1.1674385715190692,NA,NA,0.1393534593263941,1.0501894154828992,NA,0.6844748144769907,0.37998595176249905,0.21977236365068553,1.8253661567179646,NA,65669.71179877548,21434.774903375317
120,3695.605194091797,3390.0,"[19,20,21]",3,1.9662516804511128,0.584381988176891,NA,2.124900353600616,NA,NA,NA,1.4380778089133708,NA,NA,0.85892880098225,0.33638219238760103,2.5008510383333733,NA,NA,NA
120,4912.3751220703125,4308.0,"[18,35]",2,1.3658876348215345,0.3957536978269447,NA,NA,0.7619268847569431,NA,0.5065706036608235,NA,NA,0.9525351036753228,0.819935808849503,0.47465978497749794,1.1613503222602302,NA,63629.33430206823,30673.87619153909
120,36274.15954589844,32439.0,"[16,17,22,25,28,29,31,33,45,46]",10,1.0016146519653903,1.0577393151995316,NA,1.534591038418768,NA,NA,0.2886480512832543,1.2426992866476194,NA,NA,0.47231813239609766,0.28568405607862857,NA,NA,69043.80190644434,27271.96552930448
144,123901.11929321289,108358.0,"[2,5,7,12,18,26,31,32,33,40,41,42]",12,0.43920577255213056,0.18739113742386238,NA,NA,0.40264291845726774,NA,0.2520425469486862,NA,NA,0.4872207361250679,0.27080974793599477,NA,0.7721808602533883,NA,70203.88928678836,15219.11314140289
144,174941.4797515869,148909.0,"[10,11,13,14,15,16,17,21,22,23,25,28,29,34,38,39,43,46,47]",19,0.4383756666943266,NA,2.1433612248706493,1.4833325028506654,NA,NA,NA,NA,NA,NA,0.15168372208582737,0.25167336530111895,2.4532141471389792,NA,67413.10015043066,20785.00082148142
144,359.66257095336914,239.0,[5],1,0.8601079338095994,0.9301195132423143,NA,1.7403314008771176,NA,NA,NA,NA,NA,NA,0.61765161563372,0.5159045948080987,1.3770018617198554,NA,64574.717156962455,22105.188781501645
144,1667.8915519714355,959.0,"[11,13]",2,0.6132364902353811,NA,NA,1.3950951295635097,NA,NA,0.17389547702405883,1.1426373755254078,NA,0.7962741701941886,0.39417560469994006,0.27862200656840197,1.9166632050946886,NA,66778.02029928287,22835.66386699008
144,590.2576713562012,472.0,[20],1,1.4837411309013981,0.6123858214651019,2.346393689699673,2.449243772762101,NA,1.6761344951116783,NA,1.478150381416686,NA,NA,1.2213390308723207,0.5989871054719023,2.2653503539447857,NA,NA,NA
144,4856.046890258789,4242.0,"[18,35]",2,1.2712454949701157,0.4248534345081496,NA,2.04976659695838,0.7445923735709359,NA,0.6872350299106316,NA,NA,1.1325965878350615,0.7550688604327744,0.6009197276801501,1.2072249509461654,NA,66489.84290187007,30703.083733948908
144,12621.480735778809,11189.0,"[31,32,33,40]",4,0.6961973561541197,0.29031237112669395,NA,NA,0.5593157025290285,NA,NA,NA,NA,0.6500563588228151,0.35753899398522915,NA,0.8934847938685601,NA,71563.5492472022,18122.790988263514
168,161122.2690062523,144415.0,"[2,4,5,7,12,17,18,26,31,32,33,35,40,41,42]",15,0.30545693440504684,0.4508925744671224,NA,NA,0.8870475623316763,NA,0.3099590860417698,NA,NA,0.551293799027076,0.279804884777604,NA,0.9381470081249096,NA,67550.51268211388,19256.87468591579
168,176727.05096387863,154463.0,"[6,8,9,10,11,13,14,15,16,22,25,28,34,38,43,45,46,47]",18,0.47207251484191626,NA,1.9637516440876017,1.6955619838916527,NA,NA,NA,NA,NA,NA,0.25084169213084806,0.2571315848078235,2.0489630171730684,NA,68727.26110719488,25409.5080304312
168,22336.613494873047,21143.0,"[5,6,8,9,21,23,29]",7,0.6447649376907076,1.0856301280609753,NA,NA,NA,NA,NA,NA,NA,NA,0.4505382952207784,0.3305451776783994,1.7527230822622522,NA,68314.28623202999,27685.72394509652
168,14378.48644399643,14170.0,"[11,13]",2,0.36095584200692654,0.9787162458077181,NA,1.6036769201272194,NA,NA,0.3346186974110008,NA,NA,0.8061532892448365,0.3293215593016048,0.23530346427952864,1.4159317765653667,NA,63847.30823824859,26222.516244980427
168,3485.107614994049,3133.0,[19],1,1.7873142376258422,0.34713214708024154,NA,2.7067283580979207,NA,1.4295528647231504,NA,NA,5.080427276680134,NA,0.7463953768761451,0.38780934341547035,2.3298786970954626,2.3159614874998087,NA,NA
168,5239.902305603027,4432.0,[16],1,0.8077025879010027,NA,2.5040824985387045,1.9434388376621388,NA,NA,NA,NA,3.945945944191942,NA,0.33704111526747393,0.24981162486008401,2.34381281673325,NA,NA,31488.033653316055
168,20005.212100982666,17585.0,"[12,18,22]",3,0.434084420821641,0.5277456177834297,NA,1.6686721309000556,NA,NA,0.14786003978225448,NA,NA,0.6976931481969574,0.34331535579130357,0.7929721775467669,1.1038647120066045,NA,69646.1442734265,22156.672109832405
