time_in_hour,cumulative_size,size,pcore_ids,pcore_power,AF700 CD48_[R 730_B-A],APCCy7 Ly6G_[R 780_A-A],BV421 CD117_[V 440_F-A],BV510 SCA-1_[V 525_E-A],BV605 CD11b_[V 610_D-A],BV650 CD150_[V 660_C-A],BV711 CD11c_[V 715_B-A],BV785 B220_[V 780_A-A],FITC Ly6C_[B 525_B-A],PE CD115_[YG 582_D-A],PECF594 CD135_[YG 610_C-A],PECy5 CD3-CD19-NK11_[YG 670_B-A],PECy7 CD16-32_[YG 780_A-A],PerCPCy5-5 CD45_[B 695_A-A],_FSC-A,_SSC-A
-1,0,0,[],0,0.0,0.0,0.0,0.0,0.0,0.0,0.0,0.0,0.0,0.0,0.0,0.0,0.0,0.0,0.0,0.0
0,111093,111093,"[1,2,3,7,9,16,18,42]",8,0.29220502764350664,0.14640525703689855,0.38924180672949804,0.4778582521490984,0.2658830011611908,0.20576804193783382,0.015491856444604934,2.5253653348365743,0.7604025174943528,0.324061188130666,0.16260431479030935,0.9378417302800353,0.5849890834165964,0.9795178888408835,69585.80879083292,13551.952904323374
0,6678,6678,"[27,50]",2,0.4179372938005379,0.3822247681940705,1.3959743884396514,0.7485121115603501,0.6284276235399884,0.1979599035639421,0.19112009973045962,0.8569245226115627,1.6047677370470184,0.5176689294698974,0.3412673670260502,0.3298105880503155,0.6901298794549274,0.705425337376461,65747.70410302485,17615.698113207545
0,8777,8777,[3],1,0.4139034928791123,0.18109103794006964,1.0233937876267567,0.5055570314458135,0.28056106824656224,0.4263005691010622,-0.08247448478978647,2.817590199954428,1.0733650860202846,0.4314287348752448,0.21945641677110972,1.083808577532187,0.6597089868975688,1.1789846128517676,71171.76256123942,16699.938475561103
0,75643,75643,"[8,10,11,12,13,22,26,30,31,40,48,49,52]",13,0.4343022527001841,1.9143120688893829,2.031793189891991,0.7062844540803481,2.771180103710859,1.0079767022064174,-0.2464810446306993,0.7348295905635691,3.963199764922066,0.610041152347211,0.20965309215657824,0.11806859418584692,2.1296472900334456,1.6157379415940674,68321.1460148328,20557.46112660789
0,11494,11494,[23],1,0.06930590821297544,-0.010739178440921204,-0.5653736452932043,1.0879611985383733,0.25658356751348776,0.3413005814337928,-0.19928432782321925,4.244531575343668,0.7470359395336686,0.32515600017400337,0.19402430807378535,1.9961630936140597,0.7787592015834285,2.335529046546024,72153.29598051173,12305.255611623454
0,50870,50870,"[17,20,21,56]",4,0.07312385529781329,1.95746939490859,2.0453783151169556,0.677812612502454,2.935033554098672,-0.6691855051896973,0.6998076323569773,0.5798531789070216,3.976950760231959,0.46065752500491497,-0.004487365932773102,0.142848795223116,2.134041892962458,1.6841994543345795,67445.65708669154,18884.01462551594
0,11955,11955,[47],1,0.2518553770807186,1.2158703150146404,1.4675785303220272,0.6133544687578496,1.753201106482639,0.09683642409034499,0.340740059974904,0.5036754004182504,3.247269618151419,0.48540914303638527,0.22545214855707707,0.14820494897532577,1.3730442987034701,0.8769135728147188,61174.86708490167,16606.18251777495
0,11251,11251,[45],1,1.887761303972985,0.29204126006577225,1.5722666091014115,0.8498778919207135,2.0610967931739173,-0.3292956858057051,0.42674580943917606,0.7406768815216385,5.739195823126845,3.2031473684116953,0.3641189194738206,0.19537777273131007,2.458596169051642,2.013489337036708,73774.89503155283,26333.90383077054
0,7248,7248,"[21,55]",2,0.3026898325055174,1.368060183498899,1.2730951131346595,0.7285060785044171,1.9183225826435053,-0.1263061592163368,0.42522993046357493,0.7229528496136823,3.8037658955573863,0.6819860124172169,0.2059914717163367,0.1532349285320096,1.637803697019868,1.3935195742273745,62568.609271523186,16652.6092715232
24,145602.25,117829.0,"[1,2,3,7,9,16,18,42]",8,0.2755513367616229,0.13155724629942078,0.43511305622509244,0.544690411188701,0.2269230690116375,0.23450266615900328,0.0009104094133172147,2.449896771538567,0.7590018926081127,0.30593192056613117,0.1519789723561904,0.8863093970148133,0.5241028715284278,0.9633052994802627,72081.3529186533,14577.053088121935
24,10913.5,9244.0,"[27,50]",2,0.4163278889448838,0.35639130091171056,1.3992455987080232,0.7776198504833487,0.6387731480734868,0.24356208365785426,0.17669815572455505,0.8590246538232527,1.7388236684839873,0.49326866218444987,0.2874996618179262,0.32779212092820575,0.6608284815824453,0.6990146243414117,65700.67237824711,19288.31044119667
24,86377.25,67479.0,"[8,10,11,12,13,22,26,31,40,48,49,52]",12,0.46825170473127975,1.766099693756165,2.0932830626351246,0.7615463300695486,2.7304178788598814,1.015031174820341,-0.2377670987354903,0.8010327914786601,4.053423691570983,0.6374601552115883,0.17852294457452667,0.12776166743268658,2.035805127620409,1.5846244265590763,68246.87935770123,23445.59698300188
24,16350.5,13477.0,[23],1,0.07521619560564408,0.008880448900660642,-0.47975970555945313,1.1364953720069995,0.2150432115990264,0.38894947021498627,-0.11559527971621053,4.229296996712617,0.7316249560105085,0.3368766935873472,0.18049524425858898,1.9674243380630543,0.6902917595639227,2.27183570650744,75096.4787621175,13190.195284547846
24,58439.5,45722.0,"[17,20,21,56]",4,0.11325323985917213,1.8285540075248736,2.10994797754087,0.7370639200626257,2.9006356269175684,-0.6323356080091389,0.710131333815311,0.6570918426364041,4.069055815095108,0.49466368881065403,-0.03346637037021827,0.15357511034916438,2.0419151412443624,1.6422012744376673,67704.61841733739,21513.531361493424
24,19148.75,16160.0,[47],1,0.2719502172857218,1.0414746964162327,1.6125511742280758,0.7082477119133217,1.706743672511255,0.14340671268360294,0.2931113072785507,0.617262300463481,3.3342512493635423,0.4857729174097496,0.18502364227430146,0.1631365859520869,1.2592714903453235,0.8784017855343065,62132.33636660368,20163.103283504097
24,44292.5,32584.0,"[10,11,12,13,22,26,31,21,43]",9,0.36996993497770236,1.6363187178867746,1.9425481822035366,0.7535625882147126,2.48971117792516,0.6193052076536645,0.02564418748659225,0.6863644978043637,3.8829398116780482,0.5953850682451897,0.17354445509397465,0.1468483575605356,1.8938046016707095,1.5047944036857261,67239.6375910143,22346.23848281311
24,3491.0,2613.0,"[43,55]",2,0.6091004767974781,0.5373922618160969,0.6162557410484086,1.0181879740045843,0.8866859969206535,0.46958978637926174,0.3152470467630999,1.1303261010455428,4.0615248524777945,0.7843966283299936,0.3112816289028917,0.2191850409624747,0.9607778047837304,1.0974965428244041,60044.38842738466,19454.592953308533
48,120082.75,90473.0,"[1,3,7,9,16,42]",6,0.25207175133136905,0.12364156562296902,0.3115910681415559,0.4929910112802358,0.18369908662932133,0.24742489412145252,-0.034221585211543726,2.935017090805081,0.7146086792555552,0.26325111297157455,0.12999601911806202,0.9797663719018714,0.5804683128275089,0.9769160355994091,69754.89325485955,15272.398242045561
48,48888.625,39549.0,"[2,27,50,55]",4,0.2606499706910357,0.2693405478881834,0.8137151352321244,0.5879106610049867,0.4447015848126785,0.1958759941256727,0.1205441565944465,0.5949982431125393,1.5092420868146657,0.40756840114776427,0.2054526507009662,0.18818636576631964,0.4727445910948098,0.49792004067663637,65087.44846065927,15947.176260326489
48,121220.0,86309.0,"[5,6,8,10,11,12,13,17,20,21,22,26,31,40,49,52]",16,0.2220718919753326,2.0561650862244294,1.9566036905636452,0.6312746698678056,2.8472122408637213,0.34226048599447245,0.11018977334701274,0.6487868677734703,3.89787475710537,0.4183107264106596,0.0755695350297989,0.0914795801713838,2.135051563552836,1.5323513795619546,64893.219204751695,19826.151790133586
48,7660.8125,4888.0,[3],1,0.34841164280062165,0.15856744346635576,1.166782690005125,0.48741096643631865,0.2400994185668961,0.33480727676569444,-0.15299025802583666,2.954430245461908,1.2397395044911885,0.3585480024312002,0.168431576366745,1.0569334638541936,0.6428143505502827,1.1950094832548785,72217.87923931054,18252.290602334946
48,19687.5625,9671.0,"[6,8,10,11,12]",5,0.20121059537270902,2.2519818489179384,2.005707063136302,0.6700341708407231,2.834794310176792,0.637147553703006,0.15673903702527792,0.3339942178278843,3.9366400875584557,0.5227011410852694,0.14186430023714847,0.09913845298268964,2.227069118444067,1.666738474027068,66621.07104421883,20064.97371119457
48,11709.625,7622.0,[23],1,0.05888960138027577,0.028056268662531192,-0.5586662171023815,1.272507976557745,0.2179626531859551,0.374711817431169,-0.06251044608602507,4.36244172133502,0.7586271004248625,0.3145270473328551,0.17076678320717775,2.0008676527963063,0.7152664492404724,2.250218747211167,73398.13836907696,13444.329771448622
48,7788.875,5667.0,[56],1,0.3593687879989087,0.9215865035467132,2.993493755123503,0.8812141104379672,3.6773923688032846,-0.8648718818025709,1.1139731022772872,0.7276485637688435,4.834986397024634,0.19091724323153547,-0.1045606688144951,0.11845248448107026,2.519367221220975,1.59517280378263,75684.89980902261,31269.1555584086
48,23480.1875,18693.0,[47],1,0.11220033386924677,1.1408410806025455,1.612930072571833,0.5409388449464112,1.740237212149613,-0.01537748229757585,0.3101594489529731,0.4261694122757782,3.449853732718786,0.32657610549585625,0.12742940206503572,0.11786510819228246,1.177054259029556,0.6721783937495207,60319.34012451981,18838.64530468507
48,9483.75,7022.0,[22],1,0.3339681191182242,1.6193232291353423,1.7234374915645359,0.5871955323909428,1.9541273533610126,0.9987217748187673,-0.43363532626202916,0.669029019144582,3.513964334038484,0.44360672765256315,0.21294878245682902,0.0933845367272994,1.5574264919072074,1.1123817140108065,62004.943192302686,19001.492447607663
48,1633.0,1168.0,[27],1,0.6597921873851837,0.20690565810624362,1.3073585695805292,0.9184702230557193,0.5051267720835821,0.16561948568585372,0.27245105855787166,0.7270718512706722,1.3694948219534595,0.5014520566059392,0.3348578331674843,0.4713745127066733,0.5824681463946716,1.526488537278015,74581.70483772189,20543.55909369262
72,157872.140625,120283.0,"[1,2,3,7,9,16,18,42]",8,0.2515391514850298,0.21056884912978413,0.3255741123034026,0.6364879276045863,0.2988645318009988,0.2363007491603455,-0.02373563490827113,2.4885643158041315,0.8004846433026253,0.30446815337421207,0.1548439535101389,0.7519541387028279,0.6114276672802011,0.9547303684780692,70060.0678258524,16750.9018787652
72,27125.875,20343.0,"[24,27,50]",3,0.35621004313455806,0.558760567607834,1.6048399853829651,0.8921862635231874,0.8046274450461328,0.2741093641086507,0.12865908033266304,0.9161933396693369,1.8105954634683439,0.4788383843240105,0.3147835538911177,0.2707896240242258,0.701423858156074,0.6645940213789203,62669.88629859867,23434.5859442322
72,8681.203125,6766.0,[3],1,0.3349716715767064,0.27353210817193707,0.9545250262870435,0.7034500330365399,0.39971087645181136,0.29225555803757475,-0.07337092648269383,2.7533625760776603,1.3310520526712648,0.3949680447914551,0.19944902952680055,0.875651525881167,0.7327528315343647,1.2445998099755777,72233.90709453067,20519.93317458503
72,125267.875,100293.0,"[13,21,22,26,31,40,43,47,48,49,52]",11,0.35450064494512934,1.5338323785966756,1.5365887504749858,0.8797873842352053,2.2298084810719314,0.5629779600375171,-0.06133522926917534,0.7795834269767412,3.4285471120386446,0.500626105575502,0.2660840705438239,0.14944617976950492,1.6645277556167097,1.3019201515965013,68176.77271207809,23432.17413083759
72,12716.40625,9789.0,[23],1,0.12190335104626304,0.10716788040916381,-0.572514783853294,1.4220720975904588,0.2835439137691278,0.3260823785255247,-0.08998105455796646,4.150366860707771,0.7469162637205927,0.34103831506297033,0.18367263136573442,1.705147254100876,0.7687305412188975,2.2185666324126143,73877.21393377174,15327.50206057612
72,38891.234375,29335.0,"[17,20,56]",3,0.1302921344832304,1.7282818633115018,1.9118744897082798,0.9393387496069732,2.8617612137584145,-0.7012949226818084,0.7439767175094358,0.6802034637802064,3.8371496214149166,0.4313786516261936,0.10371307310049938,0.16068889786620488,1.9970990597897296,1.5865316514819583,70745.15870261565,24209.930569991044
72,1305.6875,925.0,[53],1,0.9219237461227323,0.8665006649155154,1.8307547995428615,1.5944206733162565,1.2744901937078152,0.3263840134268323,0.9016054102603932,1.1975177672442716,2.2489862774400473,0.8946641310372866,0.8045575390838131,0.42805102167201203,1.4760821392705004,1.6162515062108096,58002.711215355914,25033.925039490696
72,5754.875,4019.0,[40],1,0.5314980055170617,1.1184504806929993,1.9759366063581925,0.9284419468819869,2.218431353151679,1.0632234399014961,-0.2871119095006365,0.8014270488390252,3.9640783321097346,0.6043376597124194,0.3002079318919808,0.13104192121353397,1.6172110174770284,1.0405325645023813,68741.49898998681,28020.526944547113
72,11296.4375,7611.0,"[24,27,18]",3,0.5059596817802059,0.41145178664595683,2.100154110603176,1.146069879652333,0.5642422653878647,0.37239637096595457,0.16966063890856198,1.2560102962825592,1.6896588573056786,0.558199082119364,0.38868162134218043,0.330703194429385,0.6329206265429353,0.8659225474555052,62929.92866113772,27281.363881312223
96,116389.421875,82778.0,"[1,3,7,9,16,42]",6,0.4047443092566205,0.17877879517901007,0.3408876090966997,0.7479397518077704,0.285202069833141,0.20682248319902174,0.09317457349174108,3.057050139714913,0.7428801850140646,0.3762719804053214,0.1996305391953883,1.1777563656617187,0.6871402065035109,1.1931916803982938,71162.37466919726,15236.673515352388
96,32109.04296875,20475.0,"[2,24,50]",3,0.3327882697046203,0.39971382867828176,1.357337824872888,0.8198983073321311,0.528619537809464,0.28492925314410167,0.11274160819595158,0.9105137136168673,1.2861234355450146,0.4629229009926521,0.3166877031269806,0.29467648890262454,0.5520841099538148,0.5178428630182921,67761.55016882776,19175.126430869448
96,8252.30078125,6082.0,[3],1,0.47540342184732065,0.2473245933667121,1.0710445310422467,0.7871812989450278,0.38124558287863586,0.272635713550998,0.10461360023316457,3.010839929438733,1.2782213730943353,0.4607451381096852,0.25489218635617705,1.1776481881033107,0.7597402502569105,1.3492164034097478,73186.53948875066,17777.542395610235
96,1168.0625,736.0,[27],1,0.8577840628176989,0.3687016786177697,1.5171563717761827,1.4072570848226236,0.7928458604961448,0.13209166076970624,0.48111022947322324,1.0983463884169855,1.5572757440339262,0.8627530123836212,0.5347883459555081,0.5432333498448301,0.9337136490482386,1.616462206077105,71272.44239927229,22584.27695435814
96,11418.1015625,8239.0,[23],1,0.19755264782311355,0.08208464515124092,-0.5982738156172656,1.8832376878708712,0.307570934369223,0.39614811221594226,0.07870510872059411,4.37148988801736,0.7709327696787006,0.4655722040297847,0.24739632669240752,2.077667946808014,0.7881090408483075,2.416646586437573,74642.23659115852,13709.302977659356
96,81378.4453125,64954.0,"[17,20,21,49,52,56]",6,0.18038745037455728,2.359543842292825,2.028783877780467,1.0588423783485736,3.20322497994796,-0.323801327540324,0.9264236106952035,0.9296879620708403,3.750462867817902,0.5160026566296497,0.07980473561122237,0.16551196383332822,2.365151271029714,1.9791455811539544,68614.0098715098,20284.209767232358
96,24864.46484375,12331.0,"[22,40,47]",3,0.3697572574678687,1.4219826918501801,1.6012986803061966,0.8888007400167677,2.029326426112451,0.48870677514299565,0.1573542361647169,0.7871683687794588,3.3245613222377575,0.5371934831952229,0.27621469013070366,0.1767409058758086,1.5365174330174094,1.1197550356675874,65469.362058648265,21358.166175592916
96,7109.41796875,3004.0,[43],1,0.38290019705210154,1.3095539781166035,1.0387959146670007,0.9115019429986928,1.682949611055653,0.7764532435325966,-0.05222281078850788,0.8243339283224143,3.2006782544528654,0.5189188854441006,0.2902375298264639,0.1747326885930901,1.3102416828585075,1.0077318575937175,63926.40533271483,19702.683133233884
96,26537.671875,22930.0,"[31,48]",2,0.747786707028653,2.445328115766751,2.1261357308504842,1.0941646133519738,3.3891054025272482,1.6186632069738958,-0.6516541186135161,1.2865130942114513,3.9224949848524653,0.6796878648335128,0.2689043093022021,0.10434668592731833,2.561549725270262,2.1347873267438002,70793.96018042754,22726.63677284222
96,10091.90234375,7655.0,[45],1,2.0913946792299862,0.39496735430014596,1.4368631545584654,1.8672510408050598,2.204052152472166,-0.42775139886868163,0.7356166955057821,1.1047070366495153,5.67048225364241,2.9116424684650304,0.48411077540857095,0.28463163720642104,2.502103774829522,2.350235119219196,73801.75239817501,30050.935806747842
96,18724.12109375,9434.0,"[22,40,43]",3,0.4555588592480264,1.4643556262775101,1.480921363894958,0.9426158976512387,2.0225105351707255,0.8883247665861769,-0.07833484040138661,0.8570640921332071,3.3699541018184545,0.5855840404562535,0.3157445391103302,0.17476367120118907,1.5846445528897681,1.2124120478310187,66017.48372117759,21638.570628836682
96,8863.1328125,6611.0,"[24,27]",2,0.5806806305984902,0.3948958006101422,2.650645673634021,1.1998742164910658,0.4990456372455738,0.43571971334689463,0.17409566181452174,1.1235041329740088,1.3897150208293505,0.7024959522301394,0.5189384487064959,0.4093767340352127,0.6476840146996757,0.7421481283326925,65602.70984882073,28572.51353526415
120,97034.35546875,67937.0,"[1,3,7,9,16,42]",6,0.36594742743284714,0.1863335307196552,0.4304151908468108,0.7906025841050277,0.3100396043548437,0.19994893284801485,0.127831003149534,3.0614224693103136,0.7437438895370124,0.3889155120625035,0.22790630583936666,1.205315783304277,0.657474126914246,1.2605480094346209,70644.93212362958,14629.662438420277
120,37483.2607421875,29456.0,"[2,24,50]",3,0.32957906410091153,0.42217949942780075,1.4310037908232922,0.8261184842753333,0.5243924921475274,0.2758507352170403,0.16224650377435523,0.8815669829212252,1.251429520323541,0.471350238372216,0.35809338011348313,0.29717906210534883,0.550935243607963,0.5219827479658836,66435.46965211733,18132.1402185283
120,191439.92578125,159371.0,"[6,8,10,11,12,13,17,20,21,26,31,49,52,56]",14,0.2740212166358189,2.585719702485667,2.2240892020175163,1.1510381557610447,3.421424055999488,0.26974110361294557,0.6361694277333525,1.0406403229162775,3.843149998837592,0.4691486233021931,0.1401068812454973,0.13580637074198998,2.558231993587977,2.1607310924171457,66951.96188899086,19427.187971030606
120,7915.0751953125,5852.0,[3],1,0.4526497206876401,0.25801982879140306,1.1883306697627685,0.8316932592081856,0.41176700940118893,0.24932071070557726,0.13597960526903785,3.0997010561581586,1.2486341099832088,0.47266328057256124,0.2826619380034803,1.2963686225946853,0.7421235915312886,1.4649386442784889,72109.98962941172,17732.87597231204
120,7137.9873046875,4727.0,"[8,22]",2,0.585258579775026,1.8453575873953225,1.8863089048082426,1.0522850676311055,2.486495668264084,1.1488067455389384,-0.3043035400408458,0.9668483092418318,3.4785755336905795,0.6352680220943211,0.35716995887949565,0.1632279619142687,1.9459329519193287,1.6572067679263147,66360.54473842154,21183.997355697156
120,10612.525390625,7758.0,[23],1,0.12516863916007193,0.037041135007505055,-0.5292424719367173,2.163804077010258,0.3682921985777261,0.42705581913350654,0.16907159777443326,4.460782200250402,0.7824782496019661,0.5143754971266851,0.2649815234906363,2.236708065963286,0.8021192739102833,2.5278000746035056,73657.74184653914,12847.826923264416
120,12283.5625,8292.0,"[11,12,47]",3,0.3049975344853897,1.3899129700876887,1.592812054430277,0.9289471824226174,1.9241743040877615,0.09847669823636562,0.44269019644957064,0.7210117861100227,3.2123217570609235,0.5139553976538126,0.2811052318922491,0.1842375224027485,1.4100322958528526,1.066181279505024,62691.79707128927,18785.206052804366
120,11197.5712890625,8469.0,"[13,48]",2,0.8926779486859397,1.3093099871192235,2.6177376108680996,1.320563927447553,3.3275268635876167,1.5730571904161408,-0.41239601305729723,1.2364944436160963,4.217776899911679,0.6306740903914815,0.3358831106375697,0.11420889632770204,2.36795457863919,1.8894109297973103,70638.1230486208,26629.266834072936
120,10612.525390625,7758.0,[23],1,0.12516863916007193,0.037041135007505055,-0.5292424719367173,2.163804077010258,0.3682921985777261,0.42705581913350654,0.16907159777443326,4.460782200250402,0.7824782496019661,0.5143754971266851,0.2649815234906363,2.236708065963286,0.8021192739102833,2.5278000746035056,73657.74184653914,12847.826923264416
120,11036.9755859375,8514.0,[45],1,2.1450179403695575,0.4170992701122782,1.5735307681944808,2.1390414632109755,2.378809139097165,-0.500951678305869,0.8442865755037054,1.3829551018059716,5.7049491866827715,2.9160958432239044,0.5300062602927533,0.3031977955012378,2.5780342865513277,2.4879720033983004,71148.10732212891,28955.484669385824
120,9474.8388671875,5093.0,"[21,22]",2,0.36779770072317985,1.6811140284811756,1.645086380257219,1.0198936507466643,2.1926534613173145,0.2022333648276926,0.24748058377786863,0.8494791157072634,3.194726838656767,0.5626969209067786,0.2918850727717781,0.2032112133701156,1.6916931288088732,1.5453277709988509,65333.45320454507,19445.0047734362
120,7398.2265625,6188.0,[26],1,0.6386192202636694,1.0719775860130039,2.9704194125182366,1.4671230522710146,3.728055155928027,0.9813893954510868,1.04792211607103,1.2107127630233303,4.455662651896095,0.5573957795297503,0.2573470945881007,0.1408156800688889,2.5369760714205927,1.9272408456685117,70600.90055365892,27502.606828283428
144,90897.5888671875,66639.0,"[1,3,7,9,16,42]",6,0.42971067266887375,0.13548089968473542,0.43210614069570097,1.1189281938352358,0.2867133234817576,0.2051517250214363,0.20310436687005629,3.3097992071533673,0.7585762916496034,0.41175989394925383,0.22091668321298696,1.3963242341967916,0.7275287624103056,1.3836735159388607,70858.14878267402,14444.37546388344
144,20777.373291015625,13786.0,"[2,50]",2,0.2960785198610649,0.3644744477192914,0.9780101053689028,0.8772095340361776,0.48143711093635133,0.20864404097142986,0.19765966740072072,0.8156240617461314,1.1454097660209106,0.4067263399619855,0.29313198898639037,0.30228674826075685,0.535486019935875,0.5249552726450812,68052.90260385857,14149.8403737229
144,177533.9814453125,129674.0,"[6,8,10,11,12,13,17,20,21,26,31,49,52,56]",14,0.2927587336220603,2.6081388725987447,2.187230071037954,1.32206670950413,3.4254729598063602,0.3096687727745695,0.7231230685880825,1.0401325000639354,3.7272408855132473,0.5368927978483845,0.0741053753521781,0.17475630475523007,2.5615900992003175,2.157421438207193,66461.43899706885,18625.360783939293
144,9315.768798828125,7337.0,[3],1,0.5326130225257486,0.21403067902911221,1.2537147891096607,1.3071707733932434,0.3740118495671729,0.2828611739030491,0.26745794888091945,3.318594526681399,1.2924421205581864,0.5414088067088144,0.28086012974759766,1.5015585598184642,0.8312673673020433,1.5121538367577254,73051.44172836372,18069.392802950875
144,7185.44189453125,4806.0,[24],1,0.5792988530431815,0.454749642948336,2.8320422921343833,1.3618166316045661,0.5052940109770132,0.5368823651949544,0.2567735265679678,1.175355878394778,1.3868780927005666,0.7123261975949343,0.5297812650047851,0.4158585896765238,0.7478565283252009,0.6565526437544456,62061.83690343382,27123.08224236758
144,6122.041748046875,3352.0,"[8,22,40]",3,0.6227546956675074,1.6615172926804607,2.0604777195525616,1.1830410861793772,2.6532585354918505,1.182809223636194,-0.12791828242877523,0.9574892230863026,3.5192575053430057,0.6322123256433269,0.31332189349547646,0.17950707749330286,2.035693315188299,1.5711875079240876,65673.16137884354,21300.377391615686
144,20906.13134765625,18253.0,[23],1,0.11556709077931937,-0.041829780556541074,-0.46170553022420346,2.956632540234772,0.3851924839287264,0.4063432943988663,0.3016918031924991,4.544056105397141,1.2584837924032164,0.5365613263092185,0.24077736372241088,2.3922196831012092,0.8966629061321966,2.5759351908776758,72121.90102592377,13082.961348084931
144,7296.054443359375,4353.0,"[12,13,48]",3,0.9013757884845097,1.3107204719670582,2.580349620927931,1.4391075625848337,3.2340617668919207,1.535894229588923,-0.34021747236043565,1.255038817417736,4.045799435660954,0.6892814202984004,0.2837586655985711,0.16345545892132018,2.3423449211726166,1.8576796911146867,68864.18358809681,25526.335444239405
144,10259.243896484375,7500.0,[45],1,2.1037416882359334,0.35081738241147553,1.719525958937011,2.50899595442043,2.6861354798669494,-0.5881842136404313,1.1882931882065768,1.28579413316124,5.638447284202943,3.150329556942727,0.5005205367591365,0.37479438304239665,2.5044394180840994,2.716660091641983,71368.30708605205,30753.257016520063
144,4777.556640625,2928.0,[26],1,0.7051512446807355,1.052535338263135,2.9214093426297416,1.7105100292171191,3.6426939627002093,1.0310436097207851,1.1883019354207547,1.264418233657818,4.286874210144354,0.6846739596283841,0.21388292167002954,0.21006842904624268,2.4966915568461485,1.9400713668938148,68611.42234626506,26580.19708524852
168,75288.39721679688,52564.0,"[1,3,7,9,16,42]",6,0.28061272938495874,0.12931681714101506,0.3970352336484213,1.3991985360432544,0.3073257239561129,0.2580371913769999,0.24094196679451008,3.3377724306120227,0.8540008708585708,0.4110340437841711,0.21179543480295937,1.256183671356307,0.7259450742359917,1.3597637027623772,71163.83343314203,15280.638293800428
168,32990.031799316406,27437.0,"[2,27,50]",3,0.2470687238533873,0.40289849516893517,0.9972815146270335,1.1889646871748187,0.75606235138966,0.2126553918668037,0.2500557870725042,0.7264975042233122,1.606555463534427,0.44325062750222477,0.2755471808360954,0.3039715407508803,0.6639762004684783,0.715342874037779,64671.85327036784,17648.341702559967
168,161369.3721923828,116164.0,"[6,8,10,11,13,17,20,21,22,26,31,40,49,52,56]",15,0.3105444541147535,2.1969231909423845,2.0929803788514305,1.4414208403264208,3.1648866970812732,0.2761047252815929,0.6828019991446039,0.9259698477621767,3.551288649590601,0.6350675520013539,0.11690362768828244,0.17189420747389184,2.279775235577871,1.853861148981265,67433.07270365061,21271.347878067496
168,7273.942199707031,4945.0,[3],1,0.38444158153832286,0.18818809564887662,1.2183059299139303,1.6138366756408988,0.3906443548261831,0.33325048082717745,0.35043561590282035,3.407543477442446,1.4283453226594562,0.5298784098658923,0.2739822872753459,1.3815962577620342,0.833327288219759,1.546126348560615,73983.20341510283,18364.328964183285
168,7497.718200683594,6844.0,[8],1,0.6524163332732056,1.7328616004274537,1.9790950099730469,1.418651851850738,2.8325146646569546,1.4105331440554776,-0.36353162201450484,1.0445059594660075,3.391107889965702,0.753466172121036,0.28326399101428423,0.1506113874393603,2.0509062361544723,1.5512345663490854,67719.90131795873,23275.67237802613
168,17614.532836914062,12388.0,[23],1,0.03450035163868215,-0.00962792775771204,-0.49930132119487425,2.868319354024806,0.3889760426360769,0.44035959727413476,0.4314208842988734,4.553931723839667,1.3655275558209743,0.5828413828528097,0.25481820848944636,2.2180503946697576,0.9064765222771641,2.490293967714985,73555.27574693508,14201.453391123065
168,23164.307250976562,21584.0,"[11,47]",2,0.19778619029243738,0.9454829218913989,1.3414370502202329,1.3337866532224987,1.7086865954086266,0.03220451935608026,0.4778861096766831,0.6601666173043146,3.284231093857222,0.600145470738355,0.23948978726072268,0.1857782688154711,1.2403711107346953,0.9478760618080784,60980.421869045706,21958.58913897936
168,6471.098205566406,4702.0,"[13,48]",2,0.8883839690983881,1.174647082928992,2.3838936519832266,1.6856773167693109,3.163408293795793,1.5881589086185939,-0.37225372447581817,1.255486855626613,3.975378280691847,0.8239714822471939,0.3239273969303502,0.16227792760915805,2.189248018062399,1.7449892595638363,69651.77367768052,28887.426317927882
168,25334.174560546875,24217.0,"[43,55]",2,0.4829364848626376,0.7485671123935633,1.2657223366952786,1.6837638136203865,1.4523112381815988,0.7352106699425967,0.10532041673480341,0.8823824255872474,3.7955481438900143,0.9347855192204014,0.4070271422087939,0.20599987269529718,1.3269999855983716,1.101539322090188,62824.6024519571,26585.169224820485
168,19131.31365966797,17680.0,"[21,22,40]",3,0.37626975830457043,1.3624589897235069,1.7549323293493475,1.4305915288405706,2.28770680120359,0.4395888024540431,0.3331176675975218,0.8664607121201455,3.3045554913032857,0.7100282195039963,0.275669127821939,0.19418862655659275,1.696818692316886,1.3251170491159912,65769.56085178217,22920.703127688324
168,4079.38916015625,2885.0,[26],1,0.7416414686461226,1.01263479249541,2.79757193471069,2.0191507877419483,3.709918424462367,1.1472802332297214,1.3163839827072388,1.3106686565740748,4.136837396239835,0.8672838823952497,0.2660636111372261,0.2283646690643738,2.455795688628781,1.896410854621961,70878.29862797557,30164.632606104242
168,13766.743225097656,10917.0,"[9,27]",2,0.36730761323766337,0.25553220396294263,1.0417576930202745,1.3117213124719185,0.44925911759215253,0.3252098836476762,0.29822979454141096,2.0923012320157586,1.389839563621674,0.4647830450800401,0.28383066357194453,0.7576334973519561,0.6865819082123666,0.9320259169856011,69115.26258318932,17715.628413325783
