time_in_hour,cumulative_size,size,pcore_ids,pcore_power,AF700 CD48_[R 730_B-A],APCCy7 Ly6G_[R 780_A-A],BV421 CD117_[V 440_F-A],BV510 SCA-1_[V 525_E-A],BV605 CD11b_[V 610_D-A],BV650 CD150_[V 660_C-A],BV711 CD11c_[V 715_B-A],BV785 B220_[V 780_A-A],FITC Ly6C_[B 525_B-A],PE CD115_[YG 582_D-A],PECF594 CD135_[YG 610_C-A],PECy5 CD3-CD19-NK11_[YG 670_B-A],PECy7 CD16-32_[YG 780_A-A],PerCPCy5-5 CD45_[B 695_A-A],_FSC-A,_SSC-A
-1,0,0,[],0,0.0,0.0,0.0,0.0,0.0,0.0,0.0,0.0,0.0,0.0,0.0,0.0,0.0,0.0,0.0,0.0
0,93517,93517,"[0,3,7,10,18]",5,0.32652102542852957,0.15595591832501388,0.4159008306938943,0.4948319062095625,0.322103773784431,0.21214007079995945,0.004016661377081121,2.6605236713538725,0.7643807040645026,0.3799134378241391,0.1673546602328977,1.008741610520014,0.6488966665419046,1.0990737065560272,69342.37633799209,14272.656992846167
0,20031,20031,[22],1,0.2804056071589063,0.22995756722081806,0.836610381259058,0.49170375667716115,0.37342272507613616,0.24128572477659094,0.046598200589075045,1.0142606356647015,1.0574458582197557,0.3685615145025172,0.2015107374569527,0.36466343063252304,0.4771770500224638,0.5042320598072998,69990.0050921072,13242.344765613321
0,79470,79470,"[12,17,21]",3,0.487225882471372,1.8019450220083053,1.9466409253806352,0.7791662515288778,2.5298167751604006,0.9617435597835493,-0.224900889278981,0.8138221643513384,3.8858289974330007,0.7426846254309768,0.27113780294449663,0.17683199730715982,2.031799590235312,1.6460394536554686,69789.0283125707,23360.776343274152
0,66104,66104,[13],1,0.18726054598814734,1.8265973735779664,1.9590233872685068,0.7248305426903077,2.7127017676539773,-0.42468651238956556,0.5571908336257891,0.6612247412108085,3.961599791994464,0.5870774075245132,0.07092531048045725,0.18388288837285938,2.0489296090856666,1.6715841422758155,68202.54144983648,20783.34164347115
24,125098.5,118196.0,"[0,3,7,18,22]",5,0.30664083058299574,0.15741632707326714,0.5935274566506488,0.5622884933777206,0.2728680464499016,0.25826878578829593,-0.00516520772131468,2.2077400804431138,0.8185149476607335,0.33918356089951407,0.16380373527159442,0.7996889970148475,0.5373468443621422,0.9182059224021453,72069.88186109326,15643.387794417979
24,21712.5625,20903.0,[20],1,0.16391225444370816,0.061008060667649744,-0.1241465946183049,1.007769812548041,0.24576073055344771,0.3550112649042574,-0.0510706860601946,3.866748427419566,0.8907870416319977,0.36231109212696655,0.17719023003676382,1.705751007397788,0.6707438849657904,2.0160546756485997,74529.64945984611,14180.872478778107
24,61316.875,56350.0,"[12,17,21]",3,0.5458571403386141,1.6143350918028183,2.049021730384164,0.85196493511065,2.4744308589947805,1.0111108956955233,-0.2512374705240221,0.8747534386669762,4.024375284138748,0.7684547658688977,0.24342639288124124,0.18594786620526582,1.9253865836892343,1.6133848716095702,70383.01811695412,27145.111618946605
24,70076.9375,64961.0,"[13,14]",2,0.24927616090172977,1.5660458384962852,1.984099417313622,0.7998575378846917,2.5104214065602997,-0.26843364332238084,0.5132549772500057,0.7379235905205941,4.00728959884268,0.5889497019614965,0.0607639807024678,0.1920729323261634,1.8381009735371001,1.5413005323916258,67546.09600341036,23312.159952766164
24,7207.75,6799.0,[18],1,0.4710122875550611,0.24162065929035492,1.1383075924265635,0.7664780515157239,0.4635027475287017,0.30097892385799785,0.06359019781658404,2.416212033089395,1.5794308319777315,0.5454252872862523,0.25520382552634,0.8911920627102761,0.7084032603794505,1.2769254766830942,72825.75283548949,20320.890707918614
48,98605.41015625,92623.0,"[0,3,7,18]",4,0.25320439842870757,0.1336102507360759,0.3386708751692322,0.49925060414712075,0.2135476305845363,0.21857331259349766,0.010155010713110979,2.698078578359416,0.6983831885250079,0.28249872525939235,0.13224119831912828,0.8612274090965875,0.5639923073518499,0.8939366706790037,69409.04144006746,15430.534933012039
48,30989.24609375,29153.0,[22],1,0.241786992831186,0.2597811895861515,1.0150968976877972,0.5826168626286239,0.4014326813722202,0.26564322771154925,0.07212537059139645,0.6292664219844495,1.2368095041924096,0.38546555406241134,0.21357529988692736,0.20820416919061746,0.438647332515549,0.4374481185812061,63178.410296817674,17175.09087313177
48,61511.01953125,59650.0,"[9,21]",2,0.2697378648877111,1.1921552246628853,1.5477405505515613,0.6378256281896584,1.7025966157763546,0.4627356970346037,0.004941211425575354,0.6107507348588128,3.51212283051817,0.43773348324782113,0.20138741476023503,0.12512430536271513,1.275615213942419,0.8232477791815269,61761.70705591964,20258.199148640848
48,53354.640625,48898.0,"[13,17]",2,0.10852929177178594,2.00674537561978,2.039697543084699,0.6598195021444777,2.9044954878220053,-0.36196033418155327,0.5723803058337977,0.526048013942396,3.9436547567368216,0.3754664985607762,0.01996470573839515,0.11049719945312919,2.1955620995272875,1.5604345585886537,65719.01723871866,21080.337733040327
72,138930.666015625,130831.0,"[0,3,7,18,22]",5,0.28129011861986397,0.29826653900647626,0.5123478670636752,0.6992088108216175,0.4321211431187848,0.2576396303956463,-0.00928576273357784,2.2259432103716916,0.9733133897432328,0.3526268802581045,0.18586775655107202,0.6565623006876409,0.667002627328667,0.9344217299658126,69495.96243157517,18345.70066552281
72,150633.12719726562,143362.0,"[9,13,16,17,21]",5,0.3129349142903848,1.475604673693947,1.4663993510931523,0.9752048972861838,2.0908697013295163,0.1950228487137562,0.17379283000570833,0.8266972568773561,3.313342013076381,0.5407338528869899,0.27492300747338705,0.20162031781543577,1.6012745009519644,1.3554900199468571,69633.76138691216,24920.877056268968
72,25681.8076171875,24408.0,"[16,17]",2,0.388189254454294,1.4958704699278695,1.496897146093283,1.038577170663904,2.0539319514867604,0.38241607339145944,0.0767956335357991,0.8995220057160802,3.2733271001956337,0.6106631248932332,0.327420827088726,0.2247067639223107,1.652758107313018,1.4737759575963025,70378.68264222621,25976.873042919833
72,3405.2802734375,2922.0,[18],1,0.5006075318112355,0.6901798155208829,1.2237622411624862,1.073027199314263,0.9768989707821039,0.41799478500437504,0.09072352338875511,1.7748659438899894,2.072159647270213,0.5905104231180908,0.3985374552209864,0.5019065793696422,0.9825358522354569,1.198095032339836,69488.792106239,25267.35109163817
96,121208.43955993652,113951.0,"[2,12,13,17,21]",5,0.4117277254998679,2.2870259411747833,1.9989872590726292,1.163600146270968,3.054475552435124,0.34041917623134643,0.5474359055150173,1.0845633420703469,3.779229568744505,0.6758730411046453,0.20314781988100616,0.1888977516987106,2.35975596322879,2.018175968169715,69739.55578465956,22402.381328747844
96,68320.91970825195,63233.0,"[3,7]",2,0.45904179342771534,0.18332361802063568,0.4807360158709879,0.7671986227398762,0.3095114904242089,0.213929011509713,0.11905614989738345,2.871823720732033,0.6202500240804932,0.4099543096416737,0.21270798005060643,1.1538908485490171,0.6845122427144327,1.1503660575993666,70834.40593804372,14632.16073423102
96,19184.4923248291,18157.0,[20],1,0.4111737037199439,0.11983194722020762,-0.18025186803804782,1.4814523583083514,0.37282080448063004,0.28438232717171497,0.20474964939218943,3.9078411258887433,0.8515772697611342,0.5063328515945639,0.25941091591506815,1.777014783560876,0.8304771458537411,2.1158336254946315,73213.54583283355,14194.555935574697
96,18109.48924255371,16217.0,[22],1,0.38678836559410534,0.4943499127426163,1.2175785980900837,0.8964445804469481,0.6716895489666999,0.31432524439929743,0.16352816541735793,1.2424724427851577,1.6422467403232117,0.5121886513145316,0.3435959528283776,0.41981739379680083,0.7001874090537238,0.6559719976387821,70022.95733876718,18795.843555812542
120,168766.0297651291,161825.0,"[2,12,13,17]",4,0.3326918364153624,2.5524123629112845,2.2042350366612227,1.2290171422467728,3.3345240839083137,0.3271254772381853,0.6051589540860958,1.1437013427435452,3.8401600430557754,0.5277833078958419,0.17807104629229098,0.1663681271061198,2.535429237893632,2.196587200938547,67268.65165547899,20418.594961672665
120,56541.05748176575,52271.0,"[3,7]",2,0.3780916897488744,0.18561448825215088,0.5508045394688299,0.7813614260801343,0.32906893363956424,0.1966850075407589,0.13753842455330378,2.775971895337187,0.5966502247463236,0.3972568493843752,0.23433275123868036,1.088780305158623,0.6291608838379937,1.1818278956061543,69868.2195379204,14137.061226266915
120,30401.843077659607,29270.0,[22],1,0.35294234957097004,0.4771055842775067,1.2741907658296179,0.8648458796304181,0.6156763117131288,0.29327645913543887,0.17416306615047672,1.1784304734760038,1.5256102444633282,0.48568175806737157,0.36751836223152035,0.40428679342411056,0.6317022847247752,0.640850214702376,67240.56414340602,17698.40571977721
144,151647.532967031,140625.0,"[2,12,13,17,21]",5,0.373741082365588,2.457672664791267,2.1299844240368535,1.4460390972882022,3.2684673296258526,0.3559176227039471,0.707605836466576,1.118737088854679,3.69218862156356,0.6452987705264058,0.10773819112645588,0.22602869939438175,2.484030021045653,2.1480448777216212,66984.42498406037,19751.7291534279
144,60944.81609261036,57411.0,"[3,7]",2,0.4646072322326673,0.11926169621320515,0.48168582617181643,1.2673403019751257,0.3067856841976666,0.17294109700497629,0.2418613211604339,3.220797067204172,0.67207619385752,0.4324242648662231,0.22022102841296487,1.3971031431336358,0.7413758105117337,1.4210582441923143,70546.19523392829,14243.485010185308
144,20953.814423143864,19944.0,[20],1,0.19687346307755726,-0.03931796333659454,-0.3583603585246329,2.656793126146582,0.3557314541906833,0.4540369574956753,0.3083700683294053,4.32731746440393,1.1451228442525654,0.5226051204147252,0.2448306647681222,2.2181170651272795,0.8686329205001971,2.436165496261909,71979.55133291359,13403.679070641205
144,21768.115192353725,19868.0,[22],1,0.4284053632130924,0.4046918682760854,1.2905780017636688,1.1601581517632233,0.5459881249449166,0.3144190390432511,0.23375743287718898,1.2337937732991344,1.3899229574889018,0.511678194355817,0.3580497816495969,0.47716461955795264,0.6858424617531519,0.6925180670338587,67334.6007460574,17015.993085092476
168,102236.50193535909,93148.0,"[2,12,13]",3,0.3889376781514877,2.2089408919658835,2.150991927912178,1.5476028654223732,3.1725330388227166,0.30308153097178425,0.7005997541813134,1.0139168069896685,3.481143376851701,0.7583983566475797,0.1471716162563661,0.2123795879921231,2.3146438426413227,1.9071727943335037,69558.81762376642,23182.36778619595
168,44492.05100578815,40683.0,"[3,7]",2,0.25837368283463746,0.12208512658151838,0.4636483189540912,1.5097112896228713,0.3457219909002043,0.17788594520984025,0.29673198335833284,3.14568608343241,0.7683045232896183,0.42390109254712327,0.2125758070928554,1.1650060613478903,0.7253297440142351,1.3129133998952984,71017.6226198083,15543.406457346857
168,82619.46440500394,81843.0,"[9,16,17,21]",4,0.3420060819986368,0.9132542808931587,1.42387738994938,1.584672036168779,1.7137883396986244,0.3599104607316974,0.3370566721152679,0.9406086199000763,3.408250894322407,0.7581987062607775,0.3162621250034694,0.25288729084981376,1.3399916047910239,1.1882391583346876,63930.513015155826,25014.648298541375
168,8388.780545160174,7996.0,"[16,17]",2,0.5435349503804199,0.7196885468669847,1.6129525675468481,2.0450686126400375,1.6622890038197697,0.04545018669647338,0.6160877367727005,1.0709510313160857,3.9469449389758418,0.9661842357522731,0.4031307716701247,0.3823677723419493,1.4377881113297795,1.5334719909235635,67061.3525649164,26645.629116086177
168,30910.507199522108,29550.0,[22],1,0.2950577574510529,0.4975136431477045,1.2042721960744913,1.3011664631527098,0.9231115622807522,0.3279337774322324,0.23524673537171603,0.9914234020971375,1.7660285720348505,0.49206510783151336,0.2946016511454159,0.33860691782591146,0.8017525686649373,0.7802248622232688,63904.24318635905,19379.753079837723
