time_in_hour,cumulative_size,size,pcore_ids,pcore_power,AF700 CD48_[R 730_B-A],APCCy7 Ly6G_[R 780_A-A],BV421 CD117_[V 440_F-A],BV510 SCA-1_[V 525_E-A],BV605 CD11b_[V 610_D-A],BV650 CD150_[V 660_C-A],BV711 CD11c_[V 715_B-A],BV785 B220_[V 780_A-A],FITC Ly6C_[B 525_B-A],PE CD115_[YG 582_D-A],PECF594 CD135_[YG 610_C-A],PECy5 CD3-CD19-NK11_[YG 670_B-A],PECy7 CD16-32_[YG 780_A-A],PerCPCy5-5 CD45_[B 695_A-A],_FSC-A,_SSC-A
-1,0,0,[],0,0.0,0.0,0.0,0.0,0.0,0.0,0.0,0.0,0.0,0.0,0.0,0.0,0.0,0.0,0.0,0.0
0,130775,130775,"[2,4,6,10,17,21,24,25,26,27,35,43,44,49]",14,0.34901090314662175,0.2152849273714339,0.6235153298948575,0.5944570823934257,0.4184792521200489,0.26100091234563183,0.010698063467783125,2.3919611474287894,0.9733207074134974,0.42730613975912723,0.2050663694895749,0.9412115850659539,0.6967883554731406,1.1462326490384218,69336.93393997324,15253.716688969569
0,159977,159977,"[8,9,11,13,14,15,16,18,19,20,22,23,28,30,31,32,33,37,38,39,40,41,45,47,48,50,51]",27,0.39096367551585587,1.6500729611194043,1.898607501697121,0.7825838319883527,2.4822771893647153,0.35407009633884434,0.1256810681473035,0.8008363524319155,3.842034446189134,0.722517209642635,0.21041072615437972,0.21398180279040158,1.9738160949323964,1.6338754484582132,69606.55954293438,22739.972471042678
0,81531,81531,"[9,11,14,15,18,19,20,22,23,27,28,30,31,32,33]",15,0.4058577103678367,1.5683942847628507,1.8125265694521047,0.7713193645484582,2.3205574571880603,0.44543503826765307,0.07870850731624346,0.8273810233898802,3.660819040561258,0.7165446663600362,0.23840173637021733,0.22432102058112924,1.8745790791600725,1.5577315587199958,68817.13213378956,22038.20622830579
0,45053,45053,"[4,10,17,21,24,25,26,35]",8,0.38119473828601813,0.22950871067408896,0.8502561616540443,0.6076034688034144,0.43043253334960996,0.2666453067054366,0.05387587117395132,2.0171398009677484,1.1403249129247732,0.4610785222959617,0.2184493353383825,0.8187559135240705,0.6534096475040524,1.0100461968570353,69809.2632233148,15936.840965085583
24,175136.25,142707.0,"[2,4,10,17,21,24,25,26,27,35,43,44,49]",13,0.3363526793382272,0.19605426968717188,0.6571155483073836,0.6776991057576542,0.37368373123924625,0.28877108539065977,0.008843733792981201,2.3599254288375695,0.9932509629716867,0.4027215598526894,0.192729425698563,0.9163957814044763,0.6324056406026716,1.149152735751454,71691.45521843701,16662.699127108164
24,1058.5,794.0,[6],1,0.6407109390647163,0.9420311504487455,1.8300558908833229,1.1154812090221995,1.443824818847427,0.6000441532829466,0.2221416173830919,1.1815594175720352,2.7080845519603227,0.8535018545111007,0.42979460746339226,0.37342858124704725,1.2983902085498338,1.3601032345299957,67978.65658951338,25080.865375531423
24,187539.5,147218.0,"[8,9,11,13,14,15,16,18,19,20,23,28,30,31,32,33,37,38,39,40,41,45,46,47,48,50,51]",27,0.4405969407898038,1.4880227955404148,1.9996432513990352,0.8638221492045668,2.376788387262415,0.3908421399505164,0.13176453370356178,0.8574209715073358,3.906651195878727,0.7373847790878733,0.19641397685020978,0.22455638829686642,1.8431171498484287,1.5824594174480573,70065.68766579844,26139.41728542523
24,90975.25,70597.0,"[9,11,14,15,18,19,20,23,27,28,30,31,32,33]",14,0.47129806596574353,1.409797941758891,1.891385073341381,0.8672277642325832,2.207734281790932,0.5552431443112296,0.036179937268649986,0.8936936314107369,3.779139535631939,0.7480617691322672,0.22980833763853425,0.2402237607728478,1.742942833520658,1.5322123025465741,69603.90356717887,25631.780247924515
24,60942.0,52681.0,"[10,17,21,24,25,26,35,43]",8,0.4100017544550565,0.23033911256604966,0.9341680183535077,0.8510727056094347,0.4669937458485056,0.3342333007572753,0.05222651514555121,2.264899543028622,1.4201711444406149,0.5089311825547235,0.24946187963555788,0.9548301003043891,0.7044552086984347,1.332139767980213,72339.25817990873,18974.301073151506
48,212133.625,167140.0,"[1,2,4,6,10,11,19,21,24,25,26,27,35,43,44,49,51]",17,0.320427019675388,0.3152208232735383,0.7755515145568572,0.5983684347536764,0.4838345213638915,0.3259545206844878,0.009580369382738763,1.8595769545964247,1.4104246147967485,0.38562766454870034,0.18743945023272346,0.6109472058201517,0.6634895006629099,0.8497951982043725,67303.85970635255,17358.90566146689
48,19498.125,14956.0,[17],1,0.17884841230888116,0.07004660742380686,-0.19538413801648602,1.04961865261403,0.2333920182966427,0.3880179106164108,-0.08352311198511808,4.054532266775648,1.0163999020098053,0.3332026332019117,0.1673772503798343,1.7234047422188135,0.720814000384652,2.0302915633073733,72088.0414911692,14318.453492322935
48,140401.125,112483.0,"[20,23,28,32,33,37,38,39,40,48,50]",11,0.3055036674728415,1.7238614619238306,2.022167831139624,0.7185438043213668,2.7287325768503528,0.20111817187584813,0.23194411330927256,0.6879784276421406,3.9512902547589097,0.4651884186767543,0.1038285270644197,0.12233029551935615,2.0493070682660157,1.4882566119929577,66444.35232267552,22660.148513767184
48,33744.25,26288.0,"[6,10,11,19,21,24,23,41]",8,0.4825480050823501,0.38441414664535944,1.0284663242552425,0.7948623722300812,0.6338327919645441,0.41714876726034733,0.09625863110381294,1.6042860996558677,2.440641099276171,0.6260964282803728,0.29912624965549695,0.42783602609889226,0.8472362536024675,0.8482051240822537,64958.955081236,21084.79981033806
48,7279.25,1977.0,[28],1,0.5548966445289769,1.8848310495758671,2.144374277320805,0.8283549899543274,2.8414489344970257,1.2605990595442564,-0.41311244940241654,0.9290083192808338,4.168659649637654,0.7567218515386257,0.2437174069186363,0.14335837066833812,2.2063575246247913,1.7525593463354794,71215.9401037191,26492.150152831437
48,36038.5625,27919.0,"[25,26,35,17]",4,0.2898547662954827,0.11812810101853355,0.320457181111542,0.9289792485948207,0.29363916658718603,0.2945973238111299,-0.02779557472637606,3.2036628342678046,1.1273323732130662,0.3721615341656602,0.17250721820723136,1.409118773251575,0.6594060557735894,1.8214204720499072,72672.13024936842,16075.777606279366
48,29380.3125,14202.0,"[33,37,38]",3,0.474074748743309,1.2666015192146167,2.492212291081407,0.8349650236808253,2.9165667005584077,0.11228047490772908,0.3879662833253512,0.7651630567344312,4.433990128778821,0.5429153809247259,0.10724723235584266,0.1563502980631183,2.1651027060722976,1.537567258757458,69755.39841518014,28206.864579810055
72,204799.4375,163899.0,"[2,4,10,17,21,24,25,26,35,44,49]",11,0.2652181841280874,0.2511383745506568,0.39894621513082607,0.7578917173915038,0.3651272322413974,0.2620788682567037,-0.005627496638396234,2.39460021709753,1.0112013138762932,0.3306457237960846,0.1838769032793124,0.7668463716114409,0.6285572824781188,1.0438601678063961,69378.09233484839,17494.583450699214
72,10156.90625,7920.0,"[6,43]",2,0.9849132564126577,0.44729659386317566,3.0679948125843644,1.4739359954033735,0.6217801308961399,0.662589379438564,0.13669028940591854,0.9803677898489656,1.7857075004507417,0.9286474126810343,0.6839466828389553,0.2751705820777739,0.8659791737656969,0.9768814928296969,69320.96040563536,39932.80473569409
72,210622.875,166756.0,"[20,23,27,28,32,33,37,38,39,40,41,45,48,50,51]",15,0.4504391650852715,1.5452085202033294,1.6716223465332685,1.0073534838982865,2.4013336296166226,0.33923405279347874,0.10521289913379084,0.7344649990415371,3.7823772875426616,0.7160149091267504,0.2870673165038764,0.15617169490233573,1.86143196477776,1.4931175332663593,70956.31622158809,26969.75213637154
72,3387.234375,0.0,"[10,21,6,30]",4,0.36579177849739475,0.23537742867292044,0.4691532246624597,0.723570960056815,0.3282893471443731,0.39888724609863435,0.08791911231508598,2.4687313228020544,1.7606629078018141,0.39951473231295587,0.22917584444352057,0.6895501823851469,0.6412423118002765,0.9214681840642571,67441.31043485872,18564.261588777706
72,74.953125,0.0,[23],1,0.543632236397749,1.4906871323743989,2.100954867834066,0.9368730983948339,2.259466799666457,0.7231814471544717,-0.015659687721493842,0.8622080625390898,4.176341857619354,0.9179161717740255,0.29749474254742614,0.21926941254950993,1.9383368709610216,1.5988925180321019,71068.59120283517,29138.064623723134
72,1908.921875,0.0,"[28,30]",2,0.5776476367386771,1.8248894143372985,2.1341436121419943,0.8741550936474334,2.7733905048006453,1.1851208282489336,-0.32860587722946244,0.9639482723068502,4.096551050936788,0.7702950828756469,0.27068448991986394,0.16666166027125906,2.172947963043604,1.768386065997664,70956.17729248312,26639.345834936048
72,11294.640625,2285.0,"[17,25,26,35]",4,0.3307754218842771,0.15126491259128994,0.38771807876937725,1.0329409329853605,0.30746085410531254,0.3061668657230987,0.013421009023915076,3.101165950060661,1.3490394586660956,0.38940350652203815,0.19138976219224446,1.3227486764712846,0.6656231071954745,1.791931754197581,73486.23303364293,17573.003125099418
72,14219.625,4174.0,"[33,37,38,39,40]",5,0.720880265893524,1.3020514428002294,2.5299411745518987,1.0326366629141477,2.923271669224745,0.6702531865918144,-0.04493653575384737,0.8970284340425252,4.424879243264135,0.7473653734737199,0.27886093296236636,0.14776200127245132,2.2420538554462524,1.6565940864869846,74568.46822613102,33695.92404863
96,168909.75,117743.0,"[2,4,10,17,24,25,26,35,44,49]",10,0.4181410235961531,0.31643851947582124,0.5825629977358733,0.9230442906207794,0.49943481662347544,0.2595088872398701,0.1351568206052658,2.5816028334776187,1.085749732961729,0.4479358754625523,0.24196524540419073,1.0097864764988673,0.767834513737064,1.248802846081707,70485.44037274345,16646.54569378028
96,5728.27734375,3063.0,"[6,11,43,50]",4,0.8526857526811524,0.5605549710018685,2.7458136769432415,1.4390449022707417,0.7774720466920142,0.5852270411056997,0.21616466257512057,1.212937763247579,1.937191081410818,0.9103331393907298,0.6688979198186895,0.4053332680718381,0.9663613863126971,1.0424750485836751,72033.39481287646,34891.89821056319
96,194341.58203125,137214.0,"[20,21,22,23,27,28,29,30,31,32,33,36,37,38,39,40,41,45,47,48,51]",21,0.5837023666174705,1.803657297821065,1.8842607120106405,1.1955876898203082,2.658587956700878,0.39327847726203613,0.40149511402107363,1.038453850301944,3.891018355675969,0.8583866417370586,0.2878321722096149,0.21510070926140812,2.162828480465245,1.8588665291163615,70863.5431018337,25398.08211094164
96,4538.17578125,3453.0,"[10,6,11,21,23,46]",6,0.8880285642685817,0.4990434476158394,1.772000102575976,1.3348577332310159,0.8048643343992312,0.4785890537858948,0.39785091648368764,1.9809538536512692,1.9788540922038997,0.8378526710312583,0.5116786769084856,0.7056694839293032,1.1115740149857158,1.436007335820339,69930.0429946298,25438.780484655807
96,8478.3515625,5270.0,"[22,25]",2,1.6413884787694626,0.4818032572636781,1.5462208869888276,1.660038220838182,1.5031846711989036,0.6561443790771342,0.1591690707887432,1.4689270353450725,4.5411232819953025,2.2568769939602693,0.6005226656346294,0.4827357373015282,2.060042594521983,2.022240741378548,78852.0261364191,35601.371684686
96,1410.23046875,933.0,"[28,30]",2,0.5747903739249209,1.7070345422013817,1.9305009930862336,1.2116664828665518,2.4065183385528175,0.4628431769519057,0.33905158041266326,1.1064273595129333,3.2167843858301044,0.799874906600485,0.29134541559862237,0.30278987989274797,2.020088630972334,1.8454012970757787,69169.91506818196,23418.642719635158
96,9687.46875,6747.0,"[33,36,37,38,39]",5,0.8610397998779848,1.2613384684482827,2.545625094348296,1.427406591674893,2.7891900569868704,0.6742025844071269,0.351768229461225,1.1199594950782128,4.408065940742537,1.0543525492590278,0.4689905036762214,0.23998544946637024,2.298212777616615,1.915017803121543,76794.55758244375,35235.47115958446
96,11984.08203125,10083.0,"[17,26,35]",3,0.5333269130950022,0.22012968239120267,0.3748969624853884,1.2887375799936454,0.48486329594334254,0.2817174245524263,0.1956203500489706,3.2124395742177523,1.142530068785908,0.5602464399504549,0.2725145382569587,1.4564057571563898,0.8482083283949217,1.9097521086486815,72365.73132915571,15886.7836521427
96,10247.91015625,10137.0,"[41,47]",2,0.5199853073282836,2.24705953224077,1.799577165351542,1.2424019806096158,2.6893751070142,0.7802795519486676,0.3567727406952197,1.1484453841637108,3.335766154821196,0.7594048770366674,0.30202027680949106,0.25234763220473533,2.248188146292783,1.9863016836008953,69418.54769932144,21178.19086437209
120,146010.755859375,102990.0,"[1,2,3,4,6,10,24,25,26,43,44,49]",12,0.4141555376741073,0.3788050139267378,0.8839891996221914,0.927253476644184,0.563346881127277,0.26702125011350186,0.17764358345634568,2.2053619919554377,1.1834353203655685,0.47143593394995076,0.2974437693745213,0.8455939021476353,0.7443291536091886,1.1281749053859742,68938.50354469442,16755.948125022383
120,18010.306640625,15618.0,"[17,35]",2,0.40464339339903965,0.1255916564843922,0.2180060220934652,1.499969174903259,0.44499816924250357,0.3068357623830169,0.17782493850503212,3.4745982363630956,0.916807226485168,0.5193333591858781,0.2799636126090652,1.6545529578304614,0.7847432909656656,2.1480890265270247,71875.7490998265,14296.833180046364
120,171992.42578125,152151.0,"[40,41,45,47,48,50]",6,0.37019796032385566,2.4389123662970977,2.1174264578273116,1.229229833918236,3.208166575765184,0.380112672652966,0.5670092235932249,1.175935410218707,3.7909717982914466,0.5803530672625955,0.19656293710287498,0.19352997219728896,2.4699155287996986,2.163428633068713,67494.34692593318,20587.065760186026
120,5987.7041015625,5079.0,"[41,45,51]",3,1.4461163689978924,0.7783466560873644,1.8232585776492871,1.8804066795884906,2.0852278983186436,0.6808030559501099,0.34418770525078024,1.4344624318299433,4.784449581264114,1.4118534264993627,0.55607942666555,0.3209968882380876,2.1264853887590904,2.1347697337209097,68824.21124149443,27245.083567578047
144,124735.98583984375,88823.0,"[1,2,3,4,10,24,26,43,44]",9,0.47688298151999886,0.29877872738156075,0.8337749295828436,1.277673512162949,0.492589082179717,0.2768463764929827,0.2503274834308482,2.498085451181561,1.1309328590467689,0.49822690567832273,0.2886096728415204,1.048569929572254,0.7878841115299381,1.2591748202026087,69110.93970074656,16165.802237232294
144,32701.92529296875,27927.0,"[17,25,35]",3,0.4001928574204954,0.0700419740643401,0.1160614912630753,2.3077275203702388,0.4113029152988137,0.3320593375795602,0.3251534441657813,3.6727120566352527,1.3349420816147686,0.5335821422255672,0.26686674243934627,1.8253086692574718,0.8317788100350617,2.270632562428498,71692.5474206435,14482.749579367339
144,15023.626708984375,9720.0,"[4,10]",2,0.46668258511818395,0.3261203837760718,0.9402670739876613,1.2061999262451204,0.4583684465847364,0.30777999250583576,0.2594876639969792,2.1855261378276554,1.397355576568633,0.5036211331406127,0.31720918427181877,0.8372534742207409,0.6956545188735349,0.9210448480168314,67830.44550982724,16816.911609683746
144,179722.41162109375,136408.0,"[40,41,45,47,48,49,50]",7,0.39305742679131583,2.3865537374853165,2.053831897438291,1.4473694752726298,3.173892766774831,0.39034267859113325,0.6841764549132368,1.204079100402339,3.6767185123800474,0.6637641538861799,0.13937342123290275,0.2550332081256028,2.438916760926457,2.163385398803882,67219.68858042963,19926.533839883235
144,2756.926025390625,1260.0,"[41,45,51]",3,1.4214475141534064,0.7138937679671966,1.7738386176709287,2.1620287799161484,1.9282862172954167,0.6408839745226198,0.5163369776697877,1.542516426442318,4.657452889960734,1.3518370528769506,0.5688738241490321,0.42649266764653226,1.9127584960496766,2.2117141716775293,68789.88526995531,27273.62358066763
168,173583.5298461914,142052.0,"[1,2,3,4,6,10,18,24,26,39,43,44,49]",13,0.3396605831833206,0.5594021840932255,1.0754376826829262,1.4942554756108817,1.0303275782383823,0.30696735318349355,0.3181639636936793,1.7955788804992876,1.9994153120953642,0.5707541265908181,0.28183417305534153,0.6433096452153455,1.0041445347567315,1.2018730447326669,66791.31402690425,19898.273430653244
168,32016.481323242188,23841.0,"[17,25,35]",3,0.2845136318251069,0.08261296565048282,0.09276155243871331,2.463107566841558,0.395475205204046,0.3961465420118728,0.41836797968929273,3.723550855419079,1.4817653882662016,0.5561656781207308,0.2863901916963809,1.711573329605267,0.8302811836543983,2.1917750789852684,73341.57388333973,15716.06534819414
168,197269.83428955078,143483.0,"[5,7,8,9,11,15,16,20,21,23,27,28,30,31,32,37,38,40,41,46,47,48,50,51]",24,0.4902437893418159,1.7602006105743015,1.978963683402537,1.7052674959443732,2.689619209799613,0.4043232954829423,0.6329689738666122,1.137647366443454,3.6472151909140167,0.8763911000626327,0.26428499300653874,0.2754770087892524,2.096087828653406,1.8518629170677816,68870.35163024993,25278.5519973334
168,14166.906677246094,10411.0,"[4,10]",2,0.37599687108514557,0.3406780906351625,0.9765820585100684,1.461550533634394,0.6193650941641002,0.3445484376497796,0.28840623679913513,2.1177832619982455,1.6131556577009758,0.5147681044922802,0.30530414591050903,0.7098355130357947,0.7650760551632617,1.0226871649390923,67398.99605215373,18750.140214596617
168,50633.35870361328,46828.0,"[6,5,7,8,9,11,15,16,19,33,45]",11,0.5199315856796696,0.9277973766709922,1.6331200213098627,1.789006594692466,1.8948308767245083,0.5491132390346438,0.39303590827681845,1.1243641020767003,3.5977516751194956,0.9270394513425334,0.387543914660776,0.29791437580960034,1.5467646659636847,1.4415015382166045,67145.54759280811,28049.239797746515
168,45693.72692871094,33817.0,"[20,21,23,24,27,28,30,31,32,37,38,39,19,33,53]",15,0.7967936803501898,0.9720818908126789,1.9461736432323815,2.0720894265800784,2.231342199900148,0.6173238996862067,0.5535595500344876,1.2710398064399193,3.9907791938880544,1.1993082769489987,0.4675275880757561,0.3492771910900676,1.9007867945626291,1.788797711561888,71016.47523885728,31330.207345270584
168,11651.133728027344,8095.0,"[41,43,46,45]",4,1.0082694339572715,0.6252034501845674,2.2934101358296615,2.1868029294388234,1.3510367083613644,0.7250759691766204,0.6011274605851642,1.3846519794689662,2.8550548383738734,1.2457279805848662,0.6882441312995886,0.5057052621659506,1.538335493508412,1.6038453752790136,69723.58008024159,31306.712163345594
