time_in_hour,cumulative_size,size,pcore_ids,pcore_power,AF700 CD48_[R 730_B-A],APCCy7 Ly6G_[R 780_A-A],BV421 CD117_[V 440_F-A],BV510 SCA-1_[V 525_E-A],BV605 CD11b_[V 610_D-A],BV650 CD150_[V 660_C-A],BV711 CD11c_[V 715_B-A],BV785 B220_[V 780_A-A],FITC Ly6C_[B 525_B-A],PE CD115_[YG 582_D-A],PECF594 CD135_[YG 610_C-A],PECy5 CD3-CD19-NK11_[YG 670_B-A],PECy7 CD16-32_[YG 780_A-A],PerCPCy5-5 CD45_[B 695_A-A],_FSC-A,_SSC-A
-1,0,0,[],0,0.0,0.0,0.0,0.0,0.0,0.0,0.0,0.0,0.0,0.0,0.0,0.0,0.0,0.0,0.0,0.0
0,109936,109936,"[9,14,19,24,41,43,53,55]",8,0.3031041504602643,0.1616152291514994,NA,0.5740968961668651,0.3346430317275493,0.2385652925702193,-0.00282945813018598,NA,NA,0.38173585105880026,0.18606503534783414,0.9708946882367924,0.6402018358226583,NA,69666.68548973941,14312.775432979191
0,107761,107761,"[34,35,37,38,39,40,42,45,47,49,51,57]",12,0.2975872091944187,1.72616895461252,NA,0.7436569707036909,NA,NA,0.27208406140440333,0.7379223490595037,NA,0.6199426380508734,0.14923953263238587,0.1894850398288791,1.9819988439509642,NA,68359.59903861322,21049.303105947343
0,21941,21941,"[14,19,24]",3,0.34221079121280606,0.14711399685520732,NA,0.6170910551934754,0.37513066291418484,NA,-0.036688383482977205,NA,NA,0.44175348083496735,0.19400685543046992,1.2236797366573997,0.7404096268629455,NA,70656.7379791256,15070.204639715621
24,181148.0,126180.0,"[9,14,19,24,41,43,53,55]",8,0.29332832451090174,0.15662560253494284,NA,0.6370777131930736,0.30208490420539524,0.26820418752622244,-0.006511973858393194,NA,NA,0.3614350108861314,0.1789773621127475,0.9409566004537702,0.589781334226709,NA,71714.60472100141,15480.617395720552
24,12452.0,8097.0,"[14,19]",2,0.4235742461452019,0.20590004240282855,NA,0.6819632202055823,0.4330025046578725,0.2590242038628361,0.048622155677813694,NA,NA,0.49805766407002594,0.22139861291359075,0.9743583452858975,0.6983125119257895,NA,72100.92900738827,18165.29649855448
24,165051.0,110498.0,"[34,35,37,38,39,40,42,45,47,48,49,51,57]",13,0.3355077316405224,1.5916757529400063,1.9493598100920289,0.7980792808949997,NA,NA,0.25177779849562176,0.7946636795808608,NA,0.6433410945616759,0.13841831372423963,0.19665567979897036,1.8702883725121313,NA,68372.73928664473,23551.21614531265
24,19023.5,13511.0,"[35,37]",2,0.38987195863011315,1.387999240518301,1.6898551675296285,0.7915108901621761,1.965555527531738,NA,0.04253751904222902,0.8079840606355235,NA,0.639522465634608,0.23295186295896286,0.21750085899019778,1.5739792996294066,NA,66553.63313796103,22864.013877572517
24,29284.0,19004.0,"[40,45,47,49]",4,0.4614526136798265,1.5381713289168162,NA,0.8374703059862143,NA,NA,0.11697430137617593,0.8124652146735403,NA,NA,0.19882972770113305,0.19291697616445747,1.9779987852069416,NA,70536.50266357046,26746.202977735225
48,205322.0,118729.0,"[3,9,14,19,23,24,41,53,55]",9,0.28419107001807253,0.16938608907472075,NA,0.5478643180260652,0.2600125070803325,NA,-0.0002020402416667011,NA,NA,0.3207463740040074,0.17020222682663944,NA,0.5431049893886212,NA,68845.52731806619,16045.50635587023
48,200547.5,117717.0,"[12,13,18,34,35,37,38,40,45,46,47,49,51,57]",14,0.23176937422804866,NA,NA,0.6870032988942767,NA,NA,NA,NA,NA,NA,0.10916966619254387,0.14213214336753233,NA,NA,NA,21313.485373789208
48,32314.0,15570.0,"[28,39,42]",3,0.664755711549168,NA,NA,0.7834113671086835,NA,NA,NA,NA,NA,NA,0.20608199502538493,0.09120809960852883,2.3390944714133175,NA,NA,NA
48,33170.75,14949.0,"[14,19,43]",3,0.1954235329243441,0.09665197355350275,NA,NA,0.29283646302842214,NA,NA,NA,NA,0.366844076942786,0.17736723111476493,NA,0.7158033424628668,NA,72746.9501292555,15030.664546324646
48,5445.25,886.0,"[18,23]",2,0.4018193202332252,NA,NA,NA,NA,NA,NA,NA,NA,NA,0.2677957102061397,0.21324941554565657,NA,NA,NA,NA
48,13972.75,4461.0,"[35,37]",2,0.3306001730153303,NA,NA,0.7019885813816256,NA,NA,NA,NA,NA,NA,0.19777728976041775,0.16948772800629985,1.5948528594049134,NA,NA,21006.14753717059
48,13127.75,5724.0,[28],1,0.7643141202605142,NA,NA,0.897469950315176,NA,NA,NA,NA,NA,NA,0.20153644718249675,0.1022506263449573,2.3803418445468654,NA,NA,NA
48,25847.0,11205.0,"[40,45,47,49]",4,0.547642719716023,NA,NA,0.8440409637578914,NA,NA,NA,NA,NA,NA,0.15474296386428632,0.16386474248462157,NA,NA,NA,NA
48,7431.75,3712.0,"[42,46,56]",3,NA,0.32057937467622155,NA,NA,0.6161279946176865,NA,NA,NA,NA,NA,0.6863893362599609,0.2691281765062047,NA,NA,NA,NA
72,284120.0,158248.0,"[2,3,4,9,14,15,19,21,23,24,26,41,42,43,46,53,55]",17,0.28370949582878513,0.23368451874956575,NA,0.720570876120119,0.3555049288390446,0.26407986805311734,-0.0061132306952162985,NA,NA,0.3463243900979299,0.18569542913953763,0.7902105631154979,0.6321682470347033,NA,69992.31434605096,17383.137660143475
72,16719.875,3371.0,[3],1,0.3023271662467566,0.29490131371344885,0.7418317944512194,0.5331085723726927,0.39666650356986954,0.30015277045282995,0.03448534265358516,1.9897672846911112,NA,0.32410543561180993,0.17279635191651632,0.5833747317414155,0.6108774336231563,0.59520966069573,67978.3986423341,16492.965886407525
72,292021.0,176230.0,"[12,13,18,28,34,35,37,38,39,40,45,47,49,51,57]",15,0.40631079050050434,1.5248346452934949,1.7314877674554912,0.9316198205625605,2.3484412750487125,NA,0.1187614813361022,0.7384433134239696,NA,0.6498923558806567,0.2537306967992041,0.15757150992950808,1.804355683530047,NA,69434.34051660665,25937.263142034248
72,12716.5,5452.0,"[17,22,27,52]",4,1.5039680228443382,0.5187501629084226,NA,1.3780793722034357,1.4704088141587688,NA,-0.16815162801281947,1.0173274297861146,NA,NA,0.5327670493355119,0.23173444537608556,2.0338326727381717,NA,72898.41512994925,41080.857154091136
72,7801.625,0.0,"[4,14,15,19,21]",5,0.543379504398126,0.17601707732363625,0.9414923207825225,0.8561084438658573,0.35686619548812093,0.3002196388893352,0.00950237413680366,NA,1.2708981495201295,0.45798657214041727,0.20909203683528377,1.0971329863650205,0.5670942693509372,NA,75491.35878743211,18220.310768589876
72,10882.5,1596.0,"[18,23,28]",3,0.701189782575234,1.2226305464507203,NA,0.9516204928669874,NA,NA,-0.30548617880771767,0.9404041920514716,NA,0.6574343326096955,0.2603346832759015,0.15142741226740253,2.1125385390420406,NA,74238.02545371003,28596.645991270307
72,10288.0,0.0,"[35,37,48]",3,0.44646711219381907,1.0651880135473366,NA,1.028932569255447,NA,0.4773704656274309,0.2735986663710066,NA,NA,0.5540431015017478,0.2607114399907582,0.18923132666699272,1.2930598003377711,1.2859588459370175,62360.53032659414,21001.657076205298
72,2053.875,383.0,[27],1,1.3404451951798382,0.5789099446777382,NA,1.2300393035725192,2.137168594242586,1.182866797273449,-0.4180896680056039,0.9860395054470246,4.867722023979058,1.080437840849617,0.4599367835798227,0.1966504644269973,2.1872366669101004,1.5176070567829096,75671.9586148134,46191.27064694778
72,16125.5,3202.0,"[40,45,47,49]",4,0.6193833256798225,1.1614068205947157,NA,0.9634848805385965,2.6989234147933305,NA,0.31758828661900695,0.7739585879895263,NA,0.700125569703267,0.20753719683111482,0.17516246686924508,2.124124482186599,1.5211320931133936,71866.5690986326,31533.679203745705
72,432.25,79.0,"[42,52]",2,1.1951220968768064,0.9710448921341808,2.1058057061885482,1.8147684774436095,1.650392592828224,0.9508116107576645,NA,1.3366575263157898,2.740043137941008,1.3994527683632145,1.0177730928282243,0.5390290818392125,1.8862163903990758,NA,67531.4748409485,33585.76749566224
96,223633.0625,99774.0,"[3,4,9,14,19,24,41,53,55]",9,0.35951214865561476,0.2453298637218042,NA,0.7614030087503751,0.37158029704295004,0.2545967910156448,0.057943947029311715,NA,NA,0.3873559343111994,0.21244803465778883,0.887710508157189,0.6649268055793923,NA,70245.65044356968,16543.597742842598
96,17455.75,11288.0,"[4,43]",2,0.3167769608868254,0.1068520827019861,NA,1.4187015528192681,0.3557307750060943,NA,0.1281047452880979,NA,NA,0.4676746010232965,0.23882490101399068,1.813784145936872,0.7931611311960375,NA,73225.90527476632,14078.175042607658
96,278653.8125,132059.0,"[12,13,18,23,28,34,35,37,38,39,40,42,45,46,47,49,51,52,57]",19,0.41536193563742585,NA,1.8409612552912153,1.046309044988615,NA,NA,0.3286047567593413,0.9281860115743985,NA,0.6451968536216878,0.23561543971452048,0.18505466587281927,2.014030623884352,NA,69125.70685175897,24000.014254246053
96,13590.25,7176.0,"[17,22,26,27]",4,1.5315900095472867,0.598300820776847,NA,1.5657170430179734,NA,NA,0.04031975325141657,1.1940282698441842,NA,NA,0.5882719989238612,0.2798464654163836,2.1113910512683662,NA,72175.81839921989,36318.380603741665
96,5842.25,3616.0,"[14,19]",2,0.5437278717745753,0.27351154837606817,NA,0.963477213273999,0.49673155736231855,0.2379438739462545,0.1588222283901728,NA,NA,0.5634507197355466,0.2908951601694554,1.1756783744169599,0.8228665885681857,1.509027144721638,72513.02563224791,18494.28764602682
96,17966.3125,12012.0,"[33,36,50]",3,1.9653403800376081,0.4504497608197222,NA,1.662597791359524,NA,NA,0.5899675358535639,1.104454419869127,NA,2.83638079302583,0.5180564854015053,0.29371676951308634,2.4834340450947927,NA,75421.52503470055,33206.27646880799
96,10645.25,5204.0,"[18,23,28]",3,0.7467368681278033,1.3704433240060023,NA,1.1305736045478127,NA,NA,-0.07299997045042828,1.098385629459158,NA,0.7454742895011833,0.31698198477019623,0.17984346210751279,2.233811928095865,NA,74267.80056832856,28573.110072567473
96,14376.1875,9011.0,"[35,37,26,48]",4,0.5581545381338031,NA,NA,1.1997466001373853,NA,NA,0.3437827680669825,NA,NA,0.6964473348071266,0.3374006189097418,0.25235471235854423,1.6960796230224475,NA,65657.12223772818,21808.066429294973
96,2875.9375,1849.0,[27],1,1.240777202086276,0.8862739900684535,NA,1.5022539225252638,NA,NA,NA,1.189053166706517,4.729475692361191,1.1225706790177155,0.5743896272737161,0.239467036857547,2.3469379228946994,NA,NA,41835.978702597036
96,12207.75,4145.0,"[40,45,47,49]",4,0.6511074519976987,NA,NA,1.0962017719532713,NA,NA,0.45399200450021304,0.9010769644948935,NA,0.7357477540189631,0.24771463035776842,0.1916256232925806,2.207013360017202,1.6501529922999771,71890.07540292034,30899.33099875086
96,576.125,360.0,"[42,52]",2,1.0981067080711646,1.2095205958993276,NA,1.7652033589715797,1.7753756929919748,0.9117288025602097,NA,1.3437117203297912,2.8309087666522026,NA,0.8164225865697525,0.5113943854415268,1.921444456281188,NA,NA,30348.03211108701
120,208915.625,96268.0,"[9,14,19,24,41,43,53,55]",8,0.3556232732210929,0.24223951086174633,NA,0.8851053288185966,0.395557853299346,0.25365593243265505,0.1078988574524784,NA,NA,0.4150619452721598,0.2461254972725233,NA,0.6698650367673805,NA,70013.60175908328,15839.056442044406
120,255803.375,137123.0,"[12,13,18,23,34,35,37,38,40,42,45,46,47,49,51,52,57]",17,0.3021760358871859,NA,1.9799917469741195,1.1365321178504044,NA,NA,0.6684813358608723,0.9947624879428867,NA,0.5433324016209676,0.1834159487709588,0.1919292177454881,2.1616948673384293,NA,67091.53523873581,21406.35945870545
120,7957.125,5036.0,"[14,19]",2,0.5309345693874921,0.2682514034591632,NA,1.0737971702876266,0.520063650564746,0.21894457228976982,0.20094772620843804,NA,NA,0.5481264685030721,0.3205324975729309,1.2378773540027004,0.8133057490653041,1.6028448990213133,71208.57294563041,18042.76971896258
120,21607.15625,12624.0,"[33,36,50]",3,1.9869934637656048,0.45184651599947667,NA,1.970603865313699,NA,NA,0.6691002986568382,1.2697160294607306,NA,NA,0.5770813131268784,0.3141187673774176,2.4942563641921054,NA,73579.69135804268,32367.620889491256
120,47779.65625,15921.0,"[13,18,23,34,35,37,48]",7,0.452051502018054,NA,NA,1.1160097534809883,NA,NA,0.38851179132987257,NA,NA,0.6466549281192503,0.2892797736399264,0.20794836072949552,1.9087605494656823,NA,67168.12944839874,22953.359485502737
120,61891.5625,45457.0,[39],1,0.618021243352519,NA,2.1034936221693186,1.1967668124567838,3.296765923834568,NA,NA,1.2746075626453872,3.834486349741273,0.6903058556310727,0.322938963811207,0.1538729690946431,2.5703159830106226,2.2293916563116847,69629.93157589153,22873.45926999339
120,12555.875,6452.0,"[40,45,47,49]",4,0.672136722176859,NA,NA,1.3398089680552943,NA,NA,0.68786020524007,1.0135541222460493,NA,0.7018287390613983,0.2730395462184094,0.1954145101297199,2.3116967953945826,NA,70768.61548876532,30121.26243690701
120,6938.96875,4451.0,"[42,46,56]",3,1.3289041827135681,0.43378075581746733,NA,1.6651872993014907,0.8357586660121505,NA,0.5456085160574182,1.2189897153845792,NA,0.9865660473683494,0.8026247590059752,0.42520016994149856,1.1695955964908298,NA,63731.14564033751,32295.86557800819
120,360.59375,98.0,[52],1,1.1591612847733777,1.1632457767570825,NA,1.8976587894964916,NA,NA,NA,NA,NA,1.2368095938122896,0.8666008587399237,0.5141177747638448,1.905242122887599,NA,NA,29741.65802929197
144,173147.25,78500.0,"[9,19,24,41,53,55]",6,0.41319643212676804,0.23181445028815606,NA,1.0455394082466216,0.38769759724465214,0.24437919650822537,0.17065132231389946,NA,NA,0.43207223943293904,0.2515537354591806,1.0321291642376422,0.7021468499669313,NA,69767.30691939915,15642.734585735552
144,231517.6875,103616.0,"[12,13,18,23,34,35,37,38,40,42,45,46,47,49,51,52,57]",17,0.2978148004956682,NA,2.0222290378961465,1.3165269176032854,NA,NA,0.8314633130864273,NA,NA,0.5747443305157781,0.13366857162573798,0.23137101589787745,2.256709222489431,NA,66640.67778406761,20308.758733606563
144,35893.21875,22216.0,"[19,43]",2,0.32216835586588544,0.07583221233294335,NA,NA,0.3793814839515113,NA,0.22647467901013174,NA,NA,0.5172602506105354,0.2585327917333804,NA,0.8271022209304905,NA,72486.1032419946,14696.443099018372
144,26775.578125,15972.0,"[33,36,50]",3,1.9567865212492397,0.38524386039225567,1.7584995005820816,2.34455936321053,NA,NA,NA,1.2983527894169078,NA,NA,0.633551942133606,0.3872532670810658,2.395518696249536,NA,74568.76048311277,34390.3921962469
144,28880.875,6196.0,"[13,18,23,34,35,37]",6,0.4619614831630585,NA,1.8769289636058875,1.208158729317521,NA,NA,0.4465523439451782,NA,NA,0.6760065911984364,0.2827222636887683,0.2394407142729611,1.9774175643824683,NA,67251.52008032982,22776.543612338573
144,70827.78125,39882.0,[39],1,0.6141270713691727,NA,2.0652313095918493,1.348840363900972,NA,NA,NA,1.2837425694062787,3.754041627362143,0.7214827680904307,0.26319012568538325,0.19438536849396348,2.5576646966705217,2.233261464389008,68922.9312121081,21713.897906409384
144,10846.328125,4796.0,"[40,45,49]",3,0.7173486455453646,NA,NA,1.5970543696239505,NA,NA,0.895572648773697,1.0888252138554768,NA,0.7410041060641196,0.26303891123005085,0.24632753595903045,2.3006341104391583,NA,69241.24969711821,28668.317555624268
144,7832.484375,4363.0,"[42,46,56]",3,1.2642372448776074,0.4609555170015063,NA,1.9466679112749508,0.8729640083067531,NA,NA,NA,NA,1.0836438751593431,0.7622241963756702,0.5292389621727609,1.2360256886045495,NA,64964.98398696136,31187.009038878477
144,572.90625,165.0,"[47,52]",2,0.9392163673157714,1.3203430227186002,2.1568422711776605,NA,NA,0.9626934951726389,NA,1.2508427691321646,NA,NA,0.6594667452953678,0.45154335831560577,1.9013584769268541,NA,68421.65363006604,28614.20345824467
168,216578.0625,155789.0,"[7,8,10,11,12,13,14,18,20,23,26,34,35,37,38,40,42,45,46,47,52,53,55]",23,0.41993099631837283,0.9894940722263033,NA,1.4814222491843223,NA,NA,0.3913057320097013,NA,NA,0.7571706158329813,0.3250345564861963,0.2833794212521955,1.4010165183125731,NA,65831.79233122931,23763.929248374374
168,131140.3046875,54160.0,"[9,19,24,41,43]",5,0.31752366658687303,0.12224713010433375,NA,NA,0.3244586936948384,NA,0.22250320458562545,NA,NA,0.437018431167976,0.22443141344596107,1.373878675304632,0.7433100526655644,NA,71269.6231854251,14954.090309406816
168,195159.734375,76839.0,"[8,10,11,39,49,51,57]",7,0.37082813626092115,NA,2.1275390251004,1.4338133476225723,NA,NA,NA,NA,NA,0.6568765146472485,0.1348373909178675,0.21184662040765667,2.425404363116998,NA,68359.38266274333,21335.416244209686
168,11134.8046875,6341.0,[19],1,0.38868520604523926,0.21766123953187622,NA,NA,0.4873246252123171,NA,0.35708191879278184,NA,NA,0.5326310645652886,0.2732455142139467,1.29968945909679,0.8339280590483799,NA,72522.90095456605,17883.75899610941
168,15715.734375,8665.0,"[13,18,20,23]",4,0.9245341983208502,0.8325757347652072,NA,NA,NA,NA,NA,NA,NA,NA,0.5405611184695442,0.287692627096948,1.8736672022127419,NA,69108.95247298926,32340.884102019623
168,9226.7734375,5060.0,"[14,26,35,37]",4,0.5833806624768079,NA,NA,NA,NA,NA,NA,NA,NA,0.8464613299103249,0.386066854689179,0.31787102403924583,1.8642777924501255,NA,68316.00534788796,24493.5259363249
168,17466.421875,6243.0,[41],1,0.3879820337365958,0.1571913927943065,NA,NA,0.3229145669780573,NA,0.1921609762110652,NA,NA,0.4233260627270581,0.22399017538070076,1.2525675584778317,0.7807654458747161,NA,71158.30751683359,15516.117178407523
168,7294.8203125,2251.0,[49],1,0.7610866609419971,NA,2.745641217449904,1.8159725491118075,NA,NA,1.0443413724646082,1.131935814955372,NA,0.8024327441945615,0.28043283022308696,0.2677098671006932,2.312511874830914,NA,70224.35770243655,30407.372011604904
168,40281.0390625,35699.0,"[40,42,45,46,47,52,56]",7,0.5435977955505198,0.7714640666316495,NA,1.8307246141674924,NA,NA,0.477616572501637,NA,NA,0.940519783817137,0.4463140099372054,0.3042037587266262,1.3752735857020597,NA,64932.45433519538,28682.1280157984
