time_in_hour,cumulative_size,size,pcore_ids,pcore_power,AF700 CD48_[R 730_B-A],APCCy7 Ly6G_[R 780_A-A],BV421 CD117_[V 440_F-A],BV510 SCA-1_[V 525_E-A],BV605 CD11b_[V 610_D-A],BV650 CD150_[V 660_C-A],BV711 CD11c_[V 715_B-A],BV785 B220_[V 780_A-A],FITC Ly6C_[B 525_B-A],PE CD115_[YG 582_D-A],PECF594 CD135_[YG 610_C-A],PECy5 CD3-CD19-NK11_[YG 670_B-A],PECy7 CD16-32_[YG 780_A-A],PerCPCy5-5 CD45_[B 695_A-A],_FSC-A,_SSC-A
-1,0,0,[],0,0.0,0.0,0.0,0.0,0.0,0.0,0.0,0.0,0.0,0.0,0.0,0.0,0.0,0.0,0.0,0.0
0,84572,84572,"[0,2,4,9,10,41,48]",7,0.30925990493307554,0.14749080764319666,NA,0.45850108394030764,0.2745325078394667,NA,0.03864188074067032,NA,NA,0.3411045691600063,0.16006493568793,0.9285170052617864,0.5920971837014638,NA,69032.43172681262,13789.70704251997
0,10201,10201,"[14,16,17]",3,0.34340259543182405,0.1623737689442204,NA,0.6262490227428623,0.4220736078815799,NA,NA,NA,NA,0.5003749591216547,0.19780099284383823,NA,0.7695829165768052,NA,72855.9537300264,16610.35584746594
0,54564,54564,"[7,8,15,18,24,28]",6,0.4210141301957344,NA,NA,0.6721044621178822,NA,NA,NA,NA,NA,NA,0.2176552593284944,0.11730640255479874,2.100417939648855,NA,67430.30921486684,19655.768345429206
0,22345,22345,"[4,20]",2,0.3079114574177648,0.18939545737301522,NA,0.45814553976281225,0.30112386068471375,NA,0.019366019154180236,NA,NA,0.3689254274334308,0.19112510924144122,0.51796360067129,0.5085358476616652,NA,70067.97619154172,13415.966703960667
0,44017,44017,"[8,15,18,26,35,45]",6,0.359305744984892,NA,NA,0.6679610419383413,NA,NA,NA,NA,NA,NA,0.1965025376559013,0.13276009646273024,1.882596749483152,NA,65878.41315855243,19394.29874821094
0,41379,41379,"[30,40]",2,0.03259689878923866,NA,1.8807104547717306,0.6572831632470622,NA,NA,0.6519662097682164,NA,NA,NA,0.004963777568327998,0.14081769320186255,2.1379288856907963,NA,66819.3733052999,17623.973513134602
0,9457,9457,"[35,49]",2,0.35957668668711396,0.9014182969229236,NA,0.7390448685629689,NA,NA,0.13822513947339843,NA,NA,0.5670724879983061,0.35238130612245033,0.1879633823622716,1.0875288244686474,NA,60397.24733002007,16465.5886644813
0,13937,13937,[46],1,1.8742896358613665,0.28354136177082223,1.482992933342906,0.8180628812513473,NA,NA,0.39336665946762084,NA,NA,3.136971337231829,0.3705158971084095,0.1881783426131879,2.3936800225299715,NA,72605.95881466602,25475.8206213676
24,186996.0,94351.0,"[0,2,4,9,10,14,17,41,48]",9,0.30966907623692363,0.1409011732657346,NA,0.5071788635585719,0.2568911724635763,NA,0.01253154259985001,NA,NA,0.33911675236368954,0.15782359022652415,0.9113233146003126,0.5668329196720815,NA,70782.50161500783,14789.978138569753
24,34151.0,19728.0,"[1,49]",2,0.4190499193288624,0.5668520662352559,NA,0.8481918250417229,0.839971165939505,NA,0.13778436341542166,NA,NA,0.5819046949723296,0.3637820332933157,0.2539407035518736,0.796893863254364,NA,NA,23031.39258001229
24,25887.0,14640.0,"[16,47]",2,0.2292580236412054,0.05240687325684279,NA,0.9187671709352019,0.18445237555529737,NA,NA,NA,NA,0.37217948132267364,0.18643764472515922,1.6805755666936988,0.6983441067331085,NA,73263.84362807579,13651.753544249985
24,256282.0,121670.0,"[5,6,7,8,13,15,18,24,26,28,30,40,45]",13,0.2829739801234592,NA,NA,0.7095814029077303,NA,NA,NA,NA,NA,NA,0.11576624233071353,0.1356569869362666,1.9997990448373213,NA,66941.56518210415,20803.819043085306
24,5750.0,2821.0,[6],1,0.3861195434782623,NA,1.9648123459130562,0.7102782130434702,NA,NA,NA,NA,NA,NA,0.19017835791305115,0.13266002695652024,2.0599787794782665,NA,NA,21155.450434782648
24,12980.0,6168.0,[32],1,0.8756083265023211,1.0667386171032378,NA,0.9601964580123306,NA,NA,NA,1.0569255279660803,NA,NA,0.23095808004621876,0.10063769506933906,2.336507255084754,NA,NA,31439.398459167896
24,31133.0,16696.0,[20],1,0.2519786919988365,0.1818036215912331,NA,0.4549836533260536,0.3008573577875624,0.21207633874024512,0.04623212973371604,0.6321156045996172,NA,0.3131141470786658,0.1732160792085411,0.24419499746250117,0.39622858976005904,NA,NA,12803.467960042284
24,13497.0,6287.0,[44],1,0.36493203800844753,1.0119324542490875,2.8772663054011915,0.9061213660813348,3.4380055747202944,NA,0.8948258888641898,0.8228672796176983,NA,NA,-0.05365419078312561,0.14697216507371746,2.282297896495499,NA,NA,28213.748240349687
24,8370.0,3468.0,[10],1,0.4609407658303435,0.23728745937873663,NA,0.645611254958173,0.4738776279569912,0.19561522688171773,0.1302690394265298,NA,NA,0.5442603336917559,0.2815763501792059,0.7685480996415786,0.6697154322580644,NA,NA,19241.343847072898
24,23771.0,9658.0,"[15,18,35]",3,0.33351532278827145,NA,NA,0.7354354037693067,NA,NA,0.05502754419250344,NA,NA,0.5912806253838719,0.20435886374153078,0.15003621240166687,1.8192963684321226,NA,66007.19195658584,20264.977661856894
24,4740.0,2906.0,[28],1,0.5493269770042195,NA,NA,0.7560496345991616,NA,NA,-0.36813431286919274,NA,NA,NA,0.174425302320679,0.09948269177215097,2.068861435232075,NA,68234.76118143462,23919.40590717306
24,43376.0,19147.0,"[34,46]",2,1.927935237112692,0.3504552097473228,1.6575591251613928,0.9306537887541513,NA,NA,NA,0.9540061130117907,NA,NA,0.4020637114072345,0.20124565607709421,2.4498527483862094,NA,NA,30148.116562154082
24,21304.0,11818.0,[37],1,1.3323542098197618,0.5887839626361409,2.892746759434836,2.3195713929308845,2.1855768212072895,1.7758509455501328,-0.8914108408749573,1.0967427582613571,NA,3.3771026105426514,1.4912789222681133,0.5190745517273672,2.409356562617333,2.4866804638565445,NA,NA
24,16864.0,8791.0,"[14,17]",2,0.39086253581593566,0.1568494328154615,NA,0.6626713863851994,0.35414797046962887,NA,NA,NA,NA,0.4854392721181229,0.19889747414611048,NA,0.7046444424810218,NA,73616.35673624292,17361.958254269495
24,15498.0,8071.0,[43],1,-0.040634347206088384,0.02156103232675166,-0.35969288385597453,1.0804041769260602,0.42287230965286193,NA,0.14471329545747924,NA,NA,0.30890693050716567,0.15654469505743185,1.9531868754678166,0.7315765798812678,NA,73790.29448961151,12864.718544328276
24,4461.0,2499.0,[35],1,0.4818918040798019,1.0886540286931252,NA,0.8529745902264048,NA,NA,-0.1675470623178712,0.9146057556601757,NA,0.6178324841963673,0.3562309222147553,0.18167188567585446,1.2980430118807451,NA,61245.54673839942,17986.12329074198
48,280817.0,93821.0,"[0,2,4,9,10,14,17,41,48]",9,0.2904806173272976,0.14171238213497883,NA,NA,0.24443066320414397,NA,NA,NA,NA,0.31700433961263363,0.14741284552928846,NA,0.5653433909378712,NA,NA,14969.07688637082
48,71575.0,25128.0,"[1,20]",2,0.3074482726091534,0.243394209123307,NA,NA,0.34927194813831,NA,0.05197268300383007,NA,NA,0.41812861789731426,0.2556400723017642,0.23699001035278577,NA,NA,NA,18598.78002095684
48,8569.0,2710.0,[16],1,NA,0.12144217271560587,NA,NA,0.5106370451627855,NA,NA,NA,NA,NA,0.13920399288130492,NA,NA,NA,NA,15211.498191154129
48,189925.0,47666.0,"[3,5,6,7,8,15,18,24,26,28]",10,NA,NA,NA,NA,NA,NA,NA,NA,NA,NA,NA,0.10615024638146897,NA,NA,NA,NA
48,97401.0,24445.0,"[30,40]",2,NA,NA,NA,NA,NA,NA,NA,NA,NA,NA,NA,0.13106528415519003,NA,NA,NA,18434.508721676364
48,7972.0,2222.0,[6],1,NA,NA,NA,NA,NA,NA,NA,NA,NA,NA,0.17112850551932013,0.11810841482689294,NA,NA,NA,NA
48,90418.0,28101.0,"[13,44,45]",3,NA,NA,NA,NA,NA,NA,NA,NA,NA,NA,0.0639564554513532,0.1350675156716622,NA,NA,NA,22516.260036718355
48,9755.0,1385.0,[10],1,NA,0.24227964982061145,NA,NA,NA,NA,NA,NA,NA,NA,0.27290486201946873,NA,NA,NA,NA,19658.615274218373
48,28156.0,8128.0,[47],1,NA,0.040755374023288216,NA,NA,0.06363985662026295,NA,NA,NA,NA,0.3412189981176261,0.19206519104277264,NA,0.693505177191366,NA,72764.5063219206,13443.684614291771
48,14294.0,9833.0,[35],1,0.3631015183993289,NA,NA,NA,NA,NA,NA,NA,NA,0.44802670575066705,0.24156816503427958,0.1008481842031621,1.2313510097243547,NA,NA,17737.18763117384
48,16251.0,5947.0,[25],1,2.1900129294812416,0.29287820324902425,NA,NA,NA,NA,NA,NA,NA,NA,0.5092152514922281,0.20004541578979806,NA,NA,NA,NA
48,19394.0,6414.0,[32],1,0.928991101887193,NA,NA,NA,NA,NA,NA,NA,NA,NA,NA,0.08275159131690402,2.439599819016196,NA,NA,NA
48,7316.0,2576.0,[28],1,0.530783999863313,NA,NA,NA,NA,NA,NA,NA,NA,NA,NA,0.07629888367960336,2.0703181621104614,NA,NA,NA
48,11557.0,3536.0,[33],1,NA,0.2320486724063442,NA,NA,NA,NA,NA,NA,NA,NA,0.26715113498312393,NA,NA,NA,NA,20068.47728649299
48,30601.0,10889.0,[34],1,2.0718890650305566,0.35867635495571815,NA,NA,NA,NA,NA,NA,NA,NA,0.4433603653475213,0.18334783484199757,NA,NA,NA,NA
48,34701.0,15864.0,[49],1,0.23260422382640233,0.7901162372266146,NA,NA,NA,NA,NA,NA,NA,0.4259211030229664,0.24397100956745277,0.1623518738364922,0.8751578908388705,NA,NA,18495.01512924696
48,25960.0,4656.0,[37],1,NA,0.5976662988829138,2.847756575308145,2.2864684617103,NA,NA,NA,NA,NA,3.326560870454566,1.4554777293528685,0.5039383451463777,NA,NA,NA,NA
48,10491.0,6657.0,[38],1,NA,0.33937356753407233,NA,NA,NA,NA,NA,NA,NA,NA,0.34623762577447037,0.1802613570679633,NA,NA,NA,22555.60461347824
48,10997.0,5971.0,[42],1,1.3536329068836805,0.432034059197977,NA,NA,NA,NA,NA,NA,NA,NA,0.4226147922160526,0.1969837324724938,NA,NA,NA,42823.02446121661
48,20600.0,5102.0,[43],1,NA,0.0287115093203969,NA,NA,0.41980542257282005,NA,NA,NA,NA,0.2950632210194195,0.14887398650485295,NA,NA,NA,73459.63495145645,13031.378640776655
48,33768.0,10104.0,[46],1,NA,0.3245358930052089,NA,NA,NA,NA,NA,NA,NA,NA,0.31694941924307596,0.20069969311181923,NA,NA,NA,NA
48,10964.0,7124.0,[52],1,NA,0.30248606238597864,NA,NA,NA,NA,NA,NA,NA,0.432073553447649,0.4104807030280848,0.2329829573148463,0.5004535668551605,NA,NA,19838.663261583355
72,392130.0,111313.0,"[0,2,4,9,10,14,17,41,48]",9,0.2857082788820009,0.17852678967943847,NA,0.5451144599775595,0.2868180817687942,NA,-0.0012077482212649038,NA,NA,0.3223498328539012,0.15546396072987045,0.8204818425777141,0.5958662175324511,NA,69838.86511106013,15835.51691530869
72,26932.0,3793.0,[1],1,0.4687746481880206,0.384087162223381,NA,0.975085386640449,0.4642784602331824,NA,0.030839518453869008,0.9429534216173976,NA,0.6070900446309259,0.41971761644140004,0.2953268270458934,0.5951659585994346,NA,63839.58176147325,29018.85756720621
72,46839.0,10114.0,"[16,47]",2,0.2400440491257354,0.09190964503938703,NA,0.9741066116057171,0.21458840705394566,NA,-0.13893724774226213,NA,NA,0.360483471209888,0.18426855596832636,1.5942987372061728,0.7269416065458273,NA,73159.84986869911,14602.424133734665
72,240165.0,50240.0,"[3,5,6,7,8,15,18,24,26,28]",10,0.42094618389023997,NA,NA,0.7757783913392817,NA,NA,NA,0.7905484675535517,NA,0.6069035474153207,0.21622797156954476,0.1225563558053856,2.080323888697363,NA,68246.85681927024,22916.38285345481
72,232016.0,63808.0,"[13,30,40,45]",4,0.11912855747017326,NA,NA,0.7452642675418844,NA,NA,0.553571019929656,0.6017442817305456,NA,0.46163491538946055,0.0769871035014904,0.14813449529342892,1.8484670068529803,NA,66483.29218674592,20611.5928556651
72,36785.0,22491.0,[35],1,0.38574690781569565,1.3609257675411195,NA,0.8038151124914901,1.7813014167187773,NA,-0.30815595568845033,0.7976740924289789,NA,0.4971722403697104,0.28851199056683186,0.13906477615876267,1.3872641038195037,NA,64873.08979203459,20860.95528068497
72,23322.0,3928.0,[32],1,0.9454000408627106,1.0193140019294975,NA,1.0303946019209422,NA,NA,-0.6380074931824073,1.084988812623251,NA,NA,0.2708704477746209,0.09794363841008291,2.4041424209759175,NA,NA,33566.19706714689
72,59669.0,11233.0,[20],1,0.23624516767501103,0.21321245333423233,NA,0.5054264988184576,0.33412469178297766,0.21312010050445473,0.05865848319898781,NA,NA,0.33157216100488685,0.18140774769141155,0.238716537532062,0.39629219269636373,NA,NA,14568.935158960096
72,4805.0,2075.0,[11],1,0.7521714235171613,0.5518200826222808,NA,1.1730572799167578,NA,NA,NA,NA,NA,0.6967865359001045,0.45813639729448985,0.4036328690946913,1.0901290921956304,NA,NA,21649.488449531756
72,23134.0,3523.0,[44],1,0.4375756439007419,0.9636600120601777,NA,0.9845502561597486,3.4538196065963382,NA,0.9154842335090989,0.820200957249078,NA,NA,-0.01243884222357261,0.1485672898763727,2.358412916400106,NA,74560.65289184757,30314.260914670933
72,26317.0,5717.0,[43],1,-0.02662107827639759,0.05952357008778808,NA,1.1728691467112435,0.42630323570315776,-0.2415815855150637,0.1642467092373887,NA,NA,0.3104589313371605,0.15096972629859806,1.8408586377246876,0.7313122478245969,NA,73491.69343010255,13810.20633050876
72,17699.0,1448.0,[25],1,2.165483806373227,0.3131757153511474,NA,1.1010257357477822,0.5292299266625182,NA,-0.10310776919600206,0.7388677087406021,5.48992832176961,NA,0.5206137108876296,0.20323711107972098,2.4376345941578714,NA,NA,43424.1970732809
72,8705.0,1389.0,[28],1,0.5480902971855226,1.403010239402648,NA,0.7692586477886385,NA,NA,-0.40793606249281433,0.8392780754738602,NA,0.5081740248133241,0.1820653016657161,0.09585633394600612,2.021479079379683,NA,NA,24230.098564043663
72,13635.0,2078.0,[33],1,1.1154807168316714,0.2658435283461813,NA,NA,0.2864486933626811,NA,-0.2587699426475907,NA,NA,NA,0.2898638917491687,1.082945979244593,0.578298509717638,2.6113353461679547,82354.1955262192,21644.368170150323
72,80302.0,15933.0,"[34,46]",2,1.9694582511020833,0.3679971542178184,NA,NA,2.0169976673930683,NA,NA,0.9055416247914199,NA,NA,0.4053801624492386,0.2015068922318245,2.4957679217204953,NA,NA,31361.559712086768
72,60799.0,26098.0,[49],1,0.24076249944899297,0.9272189164624498,NA,0.7304551526999239,1.3258203303508251,NA,0.15713302893138925,0.6756566007664522,NA,0.4215282771427087,0.24934535003863534,0.1755637571506089,0.9883368597016285,NA,61152.0352637381,19551.45209625167
72,33456.0,7496.0,[37],1,1.34166900355693,0.6359488935616868,2.7527213372488677,2.3202495236429725,2.153667303174316,NA,NA,1.1279353988522463,4.401082512912437,3.2109766980511765,1.472132089251561,0.4992044286226609,2.4055021735413615,2.4650269330762447,NA,NA
72,14276.0,3785.0,[38],1,1.047999617680025,0.37735291482207867,NA,1.0507628666293112,0.8679514610535266,NA,0.18320136487811478,1.0252993984309353,NA,NA,0.36432983566824984,0.18886047226113833,1.467825657887373,NA,62841.18576632094,24347.839731017073
72,13576.0,2579.0,[42],1,1.3485669176487785,0.4619524857837414,NA,1.2667510268120377,NA,NA,0.014630007660572986,0.8726864450500886,NA,1.1338445963465005,0.43988192943429016,0.20453059369475546,1.9110341370064887,1.3664812125810266,NA,43136.626988803735
72,12975.0,2934.0,[51],1,0.9591159244701244,0.6033285714836296,2.5129944384585525,2.1087184045471967,2.214403348208108,NA,0.4215078597302453,0.8386321260115595,4.332818277379558,NA,1.1636444133333228,0.4877058110211918,2.26609350774566,NA,NA,NA
72,11198.0,234.0,[52],1,0.5498859198963995,0.31238482353990893,NA,NA,0.39605029683872717,NA,NA,NA,NA,0.4344705383997164,0.40983451598499077,0.23163378674763135,0.5105033824790114,NA,54099.8549741024,19943.332737988927
96,452818.0,73359.0,"[0,2,4,9,14,17,41,48]",8,0.3104591463413491,0.17641371040462017,NA,0.5770139018060259,0.281318658419043,NA,0.021723454414344534,NA,NA,0.3303266103290968,0.1630058756321664,0.8782827337892913,0.6049095048363778,NA,70039.39270965401,15485.47359866431
96,47216.0,7613.0,"[1,10]",2,0.4668626702389047,0.3696694340901474,NA,0.9474166360132212,0.48718064717468534,NA,0.08214099044815448,NA,NA,0.594716987758393,0.3996035900542054,0.4406084380718426,0.6322095618857978,NA,NA,26369.915282954866
96,60972.0,14133.0,"[16,47]",2,0.2990432324837655,0.10498398277897181,NA,NA,0.24404986023091935,NA,NA,NA,NA,0.39864146937938727,0.20240041874960912,1.6395509629666107,0.7564904809912766,NA,73323.31850685574,14578.480351636807
96,296662.0,56497.0,"[3,5,6,7,8,15,18,24,26,28]",10,0.44348182431183947,NA,NA,0.8407815715460698,NA,NA,NA,NA,NA,0.6228276171198209,0.2218908071643888,0.12407837770931307,2.1584548514740782,NA,NA,22588.972392824056
96,176437.0,40108.0,"[30,40]",2,0.06820705829843443,NA,1.8506956220180695,0.8354077963012116,NA,NA,0.750003632157632,NA,NA,0.485629520537076,0.0334883614661452,0.1487993173597405,2.143027865515751,NA,67331.59144623877,19702.60587065066
96,121607.0,12663.0,"[35,45]",2,0.31191935112287883,1.3426269601832344,NA,0.7957062224214,NA,NA,0.12795188466947005,NA,NA,0.4904219389426573,0.22473321454358208,0.1494041135296479,1.4536669258430872,NA,64581.76914157919,20779.925366138392
96,28315.0,4993.0,[32],1,0.962340064135615,NA,NA,1.0858286163870727,NA,NA,NA,1.152006305385826,NA,NA,0.27790441073634664,0.09780970679851286,2.4372996909058937,NA,NA,32860.090835246236
96,66582.0,6913.0,[20],1,0.24240116804842882,0.21761939225316063,1.0195864454507086,0.5218126163978116,0.33282555019372495,0.21494955946051775,0.06290383701301483,NA,NA,0.3374981662611577,0.19042978548253586,0.24088352237843325,0.4004109161635194,NA,NA,14566.906371091076
96,5410.0,605.0,[11],1,0.7745948330868726,0.5438386075785697,NA,NA,1.0376410768946402,NA,0.6116779109057373,NA,NA,0.7294515066543424,0.4693991828096107,0.415476130683917,NA,NA,NA,21699.856561922403
96,29333.0,4982.0,"[12,29,33]",3,1.008870577847471,0.21690139818634524,NA,NA,0.2969284993011323,NA,NA,NA,NA,0.5600645440289101,0.26559298786349794,1.1577744875055385,0.5206282912760375,NA,81642.75103126164,19713.261105239835
96,56508.0,9846.0,"[13,44]",2,0.29404478564096426,NA,NA,0.925960889626253,NA,NA,0.9641101127273894,NA,NA,0.4111261922559669,0.012057509839312974,0.15211323830254153,2.1663284685000312,NA,NA,26363.642953210106
96,33554.0,7237.0,[43],1,0.02054944018597027,0.06999237178877893,NA,NA,0.4519963761101482,NA,NA,NA,NA,0.3445558789712113,0.16649668278001029,1.8859789499612702,0.7559198167431685,NA,73619.75275675063,13708.544793467163
96,66470.0,9870.0,"[21,37,51]",3,1.2582198184594657,0.6244160639085385,2.6147833693545697,2.261906969068726,2.1739008135549827,NA,NA,1.0840315597562946,NA,3.081541197201766,1.3756979275462737,0.5022320531217062,2.357491035956071,2.463434578215714,NA,NA
96,21213.0,3514.0,[25],1,2.192031994437352,0.318662156837787,NA,1.2072013738745149,0.529384871635318,NA,-0.0681424953566343,0.7762474775845103,NA,NA,0.5624489598359501,0.21319703125441825,NA,NA,NA,42866.4053174938
96,11737.0,2601.0,[27],1,NA,0.240652954162051,NA,1.4145200189997436,0.5951924847064709,NA,0.41449516648206686,0.900719344807031,NA,1.0664665450285469,0.7527248422084054,0.23819181017295643,1.0579355239839785,NA,61487.49424895632,34743.05734003566
96,97386.0,17084.0,"[34,46]",2,2.0149485696506604,0.3714412539071281,NA,NA,NA,NA,NA,0.9652817187583471,NA,NA,0.4347664290760376,0.21279449621095503,2.5032698703304286,NA,74366.60809561971,30981.095106072902
96,70018.0,9219.0,[49],1,0.2512130513296498,0.9508099988003056,NA,0.7704743940558574,1.3490167322402966,NA,0.19997272404238364,NA,NA,0.4341991840669468,0.259140650818356,0.18620854443142676,1.0081232706446723,NA,61612.07917963962,19484.7395812505
96,16753.0,2477.0,[38],1,1.0964619704530547,0.37238332310631694,NA,NA,0.8584165197278262,NA,NA,1.0847036601802786,NA,NA,0.3901225489762976,0.19418220205336745,NA,NA,62574.43848862879,24119.373962872378
96,10923.0,2193.0,[39],1,0.3280998840977667,0.10868811352191265,NA,NA,0.1882602048887705,NA,NA,NA,NA,0.5209062253044027,0.2553209171472961,NA,0.8544747332234742,NA,76107.91174585719,15651.676645610165
96,16645.0,3069.0,[42],1,1.3808361474917235,0.45613159273056114,NA,1.3657309664163568,NA,NA,0.09670560660858163,0.9529916191048264,NA,NA,0.4866789420246209,0.21334958233703627,1.9079691602283124,NA,NA,42183.455452087575
96,12643.0,1445.0,[52],1,0.5695160450842252,0.32594358601597584,NA,NA,0.41167561116824336,NA,NA,NA,NA,0.44147284877007487,0.42166076801391217,0.22896298647472657,0.5239929567349498,NA,54344.70173218369,19806.12955785808
120,437745.0,52529.0,"[0,2,4,9,14,41]",6,0.3153163859255885,0.168032175538269,NA,0.5891106088544724,0.27507231485452666,NA,0.05815264591485114,NA,NA,0.32690478893191377,0.16548126400073881,0.9511124624724401,0.6147885777792953,NA,70177.30698922908,15288.813788849633
120,57348.0,10132.0,"[1,10]",2,0.4669952107658557,0.3996764111739073,NA,0.9789162452744717,0.5111682658331649,NA,0.10900303593847616,NA,NA,0.6053754252458731,0.4222189344004983,0.43562753039338586,0.6483055630885067,NA,NA,26336.282346376407
120,93478.0,13584.0,"[16,17,47]",3,0.35161272185968806,0.13050990680159202,NA,NA,0.25599865614368733,NA,NA,NA,NA,0.425849216970836,0.21880305531784616,NA,0.7631137060377852,NA,73255.865979161,15252.595049102496
120,378893.0,82231.0,"[3,5,6,7,8,15,18,24,26,28]",10,0.45273527545506664,NA,NA,0.9118074940629626,NA,NA,NA,NA,NA,0.60515722906467,0.22701727605684052,0.11843144966520835,2.2588163402438264,NA,67998.52766876161,21889.05165310523
120,52987.0,4307.0,[48],1,0.24184147000206746,0.27669256930944863,NA,0.6399616101874046,0.4006012894861062,0.2802370348576171,0.034447209372096665,NA,NA,0.36017862745579243,0.2066300839262496,0.29424047211579507,0.45449079268498804,NA,67074.81910657328,14892.09836374939
120,244054.0,67617.0,"[30,40]",2,0.06500242928614863,NA,1.9488025323166256,0.9339926261933713,NA,NA,0.8746274345349616,NA,NA,0.462592993165438,0.03529445066259962,0.14676686094881208,2.27143511517126,NA,66920.18048464676,19207.807059093502
120,133100.0,11493.0,"[35,45]",2,0.3219144711194575,1.358280506513914,NA,0.813651946371134,NA,NA,0.13953901553718806,NA,NA,0.4972352533734009,0.2357528636814603,0.14971794380916714,1.457196344094656,NA,64258.40324568011,20535.732892562006
120,80570.0,13988.0,[20],1,0.24597994193869055,0.2308818802283592,NA,0.5431230809358447,0.3362603069008263,0.2182785078441134,0.07152186355964307,NA,NA,0.34337510359936163,0.20727177806873165,0.24216822376816405,0.4043935494724944,NA,NA,14427.248256174613
120,6528.0,1118.0,[11],1,0.7961091677389647,0.5363765232843232,NA,NA,1.041817996017163,NA,0.6429932732843184,NA,NA,0.7426331292892149,0.4931158463541645,0.4148017037377464,NA,NA,NA,21442.68627450983
120,35146.0,5813.0,"[12,29,33]",3,1.0318577134809128,0.2173468884368046,NA,NA,0.29971538746941206,NA,NA,NA,NA,0.5692150939224966,0.27743224477892126,1.1714519647470545,0.5323767846412092,NA,80788.26927673149,19481.318841404456
120,70860.0,14352.0,"[13,44]",2,0.31229475612474134,NA,NA,1.020308801905161,NA,NA,1.0452299473892066,NA,NA,0.41499510656223615,0.025659907239627966,0.15315140681625816,2.213288130482641,NA,NA,26040.356308213275
120,39353.0,5799.0,[43],1,0.019457695525120222,0.06869993680278386,NA,NA,0.46994511821207574,NA,NA,NA,NA,0.3581416479302746,0.17467091286562164,1.920442931161539,0.7619561561507474,NA,73536.54481234003,13503.551139684338
120,78893.0,12423.0,"[21,37,51]",3,1.3240623890966325,0.6522626886035616,2.6303278409871305,2.309858826537177,2.2200103551645873,NA,NA,1.112711718149915,NA,3.074567365482364,1.4042520253001065,0.5204558849454275,2.3955192447238587,NA,NA,NA
120,25697.0,4484.0,[25],1,2.2272286052068164,0.3278426266490322,NA,1.3648955952445792,0.5303287464295492,NA,NA,0.841038855236047,NA,NA,0.5966965636455694,0.22835051212203739,NA,NA,71365.07825816236,41830.61119975079
120,36130.0,7815.0,[32],1,0.9844600456407406,NA,NA,1.1807773050927342,NA,NA,NA,1.215131603044544,NA,0.6289812942430147,0.2829967216163696,0.09559080293384348,2.4686613150014107,NA,NA,31890.595959036662
120,14387.0,2650.0,[27],1,NA,0.2493176911795434,NA,NA,0.6128485711406069,NA,NA,0.9339472971432583,NA,1.0421192649614262,0.7695385288107324,0.2566678030166134,1.0819713360672791,NA,60623.178146938226,34099.45534162761
120,55631.0,9439.0,[34],1,2.125358119411853,0.3898208458593331,NA,NA,NA,NA,NA,1.1621484277651213,5.764161619223099,NA,0.5218124009634599,0.21331221471841277,2.5645352722222903,NA,NA,31504.133738383334
120,79052.0,9034.0,[49],1,0.2569400832869466,0.9611643834185046,NA,0.7950943731468318,NA,NA,0.2223128783964885,NA,NA,0.44417241652328665,0.2736833189040144,0.1880080913828842,1.0077681905707632,NA,61672.70394170947,19343.28108080763
120,18993.0,2240.0,[38],1,1.129707048070349,0.3776918302006109,NA,NA,0.8746071911230553,NA,NA,NA,NA,NA,0.4066866954140904,0.19797641183594217,1.5173869627757588,NA,62239.52656241769,23893.060390670256
120,15717.0,4794.0,[39],1,0.33118704097473484,0.09753121537187637,NA,NA,0.21156501698798325,NA,NA,4.321863460202325,NA,0.5512872349685042,0.274434111535268,NA,0.8542060284405478,NA,75610.25233823253,15266.555195011764
120,20631.0,3986.0,[42],1,1.4273478604042416,0.44913353356600627,NA,1.4537959000533305,NA,NA,NA,NA,NA,NA,0.514285192816625,0.21859483626581466,1.9305772968833383,NA,65099.546119916646,41144.306722892616
120,60508.0,9314.0,[46],1,1.9872068372115874,0.3549602167977777,1.5318299052356559,NA,NA,NA,0.5377289528161922,NA,NA,NA,0.40505348777023276,0.22899854087063565,2.467986656855295,NA,72673.62041382969,29564.794076816448
120,16941.0,4298.0,[52],1,0.6000419867186098,0.34466231220117294,NA,NA,0.4455671762587894,NA,NA,NA,NA,0.45908593607225534,0.45962924449558695,0.2273592511067808,0.552197832418389,NA,54085.35316687303,19392.884009208443
144,509925.0,49884.0,"[0,2,4,9,14,17,41]",7,0.33904882552728766,0.1673076998186045,NA,0.6613698155042527,0.2776471862960106,NA,0.07052867619158798,NA,NA,0.34349994765308856,0.17429748898956943,1.0070902640564747,0.6356411014658966,NA,70284.08899347985,15335.796283767166
144,64777.0,7429.0,"[1,10]",2,0.4823476907698685,0.41832279307472264,NA,1.0507340734365695,0.5351542512157166,NA,0.1458715160627988,NA,NA,0.6207371942356098,0.43714281294287716,0.4459054510705932,0.6799100485511776,NA,NA,26138.279945042043
144,85809.0,14627.0,"[16,47]",2,0.3250712388910333,0.10551376336980356,NA,NA,0.27668759667400966,NA,NA,NA,NA,0.4209179977857729,0.21318736057990995,1.6798646239904826,0.7798403718257935,NA,73074.96341875571,14486.059038096288
144,397531.0,70525.0,"[3,5,6,7,8,15,18,26,28]",9,0.4616497299682252,NA,NA,1.0233838448498451,NA,NA,NA,NA,NA,0.6162103780937763,0.20566407746064286,0.12575503953905276,2.3743596612943434,NA,67913.25520777011,21177.30362663533
144,57471.0,4484.0,[48],1,0.24663199140435688,0.28104423366567044,NA,0.6925252449757333,0.40212463485932615,NA,0.04741731497623247,NA,NA,0.3653948017434878,0.2163630693219174,0.3044008366654447,0.45814726874422884,NA,NA,14838.690261175003
144,350653.0,54712.0,"[24,30,40]",3,0.13524891295954222,NA,1.957563412687159,1.0039375523237966,NA,NA,NA,NA,NA,0.49437948207487337,0.06193282745053663,0.15729995456193213,2.2408999250683936,NA,66668.14675476898,19472.28906069517
144,139262.0,6162.0,"[35,45]",2,0.3376563532980976,1.3513783652899045,NA,0.8524718742514006,NA,NA,0.16414073134809204,NA,NA,0.5172556725021905,0.24427379840877217,0.15782522680989974,1.4634380122574613,NA,64144.587094828596,20571.028880814618
144,89570.0,9000.0,[20],1,0.2529097734509398,0.2343243009824505,NA,0.5829358144021497,0.33844022442781974,0.22222658751814417,0.08515624762755136,NA,NA,0.34715058286257705,0.21330913740090596,0.24943253735626936,0.41494058103157905,NA,NA,14343.323166238522
144,7368.0,840.0,[11],1,0.8038999013300738,0.5335217251628794,NA,NA,NA,NA,0.6811079039088033,NA,NA,0.755496236970684,0.49349601140065014,0.43944897516286785,NA,NA,NA,21153.693811074965
144,18952.0,3702.0,"[12,29]",2,0.891131037621361,0.12760725385183713,NA,NA,0.3010901005698532,NA,NA,NA,NA,0.5330050702300532,0.23798446464752931,NA,0.4501414080835777,NA,80456.30730265923,17484.40354579992
144,79278.0,8418.0,"[13,44]",2,0.3381592849592481,NA,NA,1.0990985516410565,NA,NA,1.0918425279774824,NA,NA,NA,0.029611615719370654,0.16312571020964206,2.2218491555160296,NA,69629.3238477259,25841.44705971374
144,49644.0,10291.0,[43],1,0.0272311609660727,0.053081855430660685,NA,NA,0.4887581160865291,NA,0.3282303556522592,NA,NA,0.3764394124566919,0.17489377955040908,1.9721116062565751,0.7788947224035193,NA,73371.84368705214,13291.912013536385
144,91506.0,12613.0,"[21,37,51]",3,1.3456870154088374,0.6403615181081128,2.5996556202106835,2.3901618998863197,2.2603808845649556,NA,NA,NA,NA,3.066180633543158,1.4086599350425222,0.543684056269528,2.4031341932769297,NA,NA,NA
144,30807.0,5110.0,[25],1,2.2557809136884295,0.32155521485377037,NA,1.4910947718375591,0.5238138749634893,NA,0.011378165514310812,0.8464848194891057,NA,NA,0.6273119583211644,0.24201025494205597,2.4478171434089715,NA,70932.43172006376,41033.011977797236
144,39359.0,3229.0,[32],1,0.9985868994130909,NA,NA,1.234685982697747,NA,NA,NA,1.240258249650628,NA,NA,0.28280336705706155,0.10527631154246198,2.466629634543585,NA,76625.32239132148,31686.396910490705
144,16273.0,1886.0,[27],1,1.7128108667117201,0.2576107370491094,NA,NA,0.6188244460148633,NA,NA,0.9799624146746062,NA,1.0638047052786823,0.7608247608922771,0.28522158016346155,1.095507749708104,NA,NA,33728.60566582656
144,24808.0,4912.0,[33],1,1.1942254077313759,0.277750129434041,NA,NA,NA,NA,NA,NA,NA,NA,0.32642854421960177,1.1371919113189248,0.6086854302644303,NA,79978.21863914895,20820.248951951005
144,65123.0,9492.0,[34],1,2.141286960751218,0.38331051960136087,1.5158303009843062,NA,NA,NA,NA,1.1813115808547154,NA,NA,0.5377292932296953,0.23111929025075506,2.547739099811082,NA,74329.79242356814,31530.162185403165
144,83763.0,4711.0,[49],1,0.2670145327292426,0.9571657150531849,NA,0.8338225543617304,NA,NA,0.24207938382100824,NA,NA,0.45905466469681055,0.28110109781168546,0.19657408057256243,1.0134923924763903,NA,61595.68649642463,19371.557561214417
144,19874.0,881.0,[38],1,1.1366411768642506,0.3756133016504055,NA,NA,0.8771109528026604,NA,NA,NA,NA,NA,0.41137760048302807,0.20271446352017986,1.5188841811411922,NA,62009.12468551871,23828.803059273465
144,26642.0,10925.0,[39],1,0.34025990788979255,0.06107690075819283,NA,NA,0.21646942748292464,NA,NA,4.392744319570601,NA,0.5715250885444049,0.2761639178740216,2.20251208591697,0.8847363157045364,NA,74499.1180842279,14698.740334809578
144,22166.0,1535.0,[42],1,1.434645532933317,0.4464775246774466,NA,1.5001149005233403,NA,NA,NA,NA,NA,NA,0.5267527074799112,0.2267202090138032,1.920865989894438,NA,64944.23820265283,40745.2826851935
144,71347.0,10839.0,[46],1,2.003293764292824,0.35111547795982156,1.5652150410388548,NA,NA,NA,0.6007750844885122,NA,NA,NA,0.4277991560121639,0.24639097265477727,2.458554791133473,NA,72527.87643488873,29807.62123144649
144,24781.0,7840.0,[52],1,0.6576545611557212,0.292918600782877,NA,NA,0.4586816797546538,NA,NA,NA,NA,0.4684001225132183,0.4731286052217354,0.3965852120979746,0.6175102314273032,NA,55272.89068237771,18482.513538598196
168,518690.0,35964.0,"[0,2,4,9,14,41]",6,0.3213138014189625,0.16326733417648231,NA,NA,0.2809679083537291,NA,0.10280398716187289,NA,NA,0.3372897208872365,0.17202441041084793,0.9902079982802805,0.6312243459522945,NA,70115.26644431194,15220.88621720097
168,75182.0,10405.0,"[1,10]",2,0.4800996297251956,0.4463773506690587,NA,NA,0.6109387804793807,NA,0.17681139908488364,NA,NA,0.6252548205554561,0.4359256745896758,0.423434588837752,0.7299812052352862,NA,NA,26167.10425367751
168,125879.0,12871.0,"[16,17,47]",3,0.3546655643673726,0.12569791653094775,NA,NA,0.27520645090921336,NA,NA,NA,NA,0.4428273512023423,0.22133446827510328,NA,0.7847469318313592,NA,73292.88094122155,15309.073125779589
168,413967.0,46111.0,"[3,5,6,7,8,15,18,28]",8,0.4486734722646899,NA,2.005108971492937,NA,NA,NA,NA,NA,NA,NA,0.20210361043273029,0.12089414828476419,2.3811054852222653,NA,67758.97232388088,20613.76865305683
168,64715.0,7244.0,[48],1,0.23836051379124124,0.28346625907439726,NA,0.7682497092946088,0.4171585873445127,NA,0.05014890819746398,NA,NA,0.36563222498647563,0.21882629520203212,0.3030939465348065,0.45584511264775707,NA,NA,15014.564165958238
168,424635.0,44307.0,"[24,26,30,40]",4,0.1625390630612209,NA,NA,NA,NA,NA,NA,NA,NA,NA,0.0647222274636099,0.15424644890554484,2.2468261942445005,NA,66946.68835117188,20223.415516855464
168,178296.0,39034.0,"[35,45]",2,0.34221828884552075,1.2990680661652556,NA,NA,NA,NA,0.17370547192308816,NA,NA,0.5686388005451614,0.2558906854837022,0.1562008437373832,1.4714634272277616,NA,63910.28491945964,21342.560954816785
168,96687.0,7117.0,[20],1,0.25216750680029754,0.2343258264399526,NA,0.6196806582167165,0.3495252541086167,NA,0.09560139276220614,NA,NA,0.3475877982148615,0.21506311277627255,0.24665053271898651,0.42420027369758784,NA,NA,14434.242286967034
168,8223.0,855.0,[11],1,0.7804818797275936,0.5135694163930502,NA,NA,NA,NA,NA,NA,NA,0.7505348628237868,0.47814954043536373,0.4787013332117247,NA,NA,NA,21209.575094247837
168,23543.0,4591.0,"[12,29]",2,0.8578698027014371,0.13187864299367247,NA,NA,0.2847863560718613,NA,NA,NA,NA,0.542376298729981,0.25120152771524484,NA,0.4335068673491025,NA,81348.49356496608,18053.18948307355
168,88461.0,9183.0,"[13,44]",2,0.3357540105922294,NA,NA,NA,NA,NA,1.13396948182814,NA,NA,NA,0.03205970384689172,0.1663225855800864,2.2088162098325785,NA,NA,26058.788573495574
168,56649.0,7005.0,[43],1,-0.0010207124574177495,0.04735482283887116,NA,NA,0.5015270246606232,NA,NA,NA,NA,0.3883238006672671,0.17388793761584465,1.9766634489399761,0.7838745555791001,NA,73351.24630620172,13347.366131794075
168,111988.0,20482.0,"[21,37,51]",3,1.3724227999517964,0.6219332946655172,2.5845487108350738,2.5281628199717736,NA,NA,NA,NA,NA,3.0815848983105347,1.397991967103613,0.5478587050487507,2.3952688175965156,NA,NA,NA
168,38968.0,8161.0,[25],1,2.2451648569852143,0.31472109672039705,NA,NA,NA,NA,NA,0.783872173424367,NA,NA,0.658289854496009,0.2469132665520456,2.4340593890628215,NA,NA,42252.830219667194
168,41945.0,2586.0,[32],1,1.014113706305882,NA,NA,1.2976291696269118,NA,NA,NA,NA,NA,NA,0.2871646787221107,0.1085593858385916,2.467812213136262,NA,NA,31937.64787221365
168,17836.0,1563.0,[27],1,NA,0.26048902394035744,NA,NA,0.6339258099910143,NA,NA,NA,NA,1.0848966253644288,0.7756962055393615,0.28463419365328735,1.1034323004036746,NA,NA,33968.18300067237
168,30129.0,5321.0,[33],1,1.1528161438149158,0.2685274855122879,NA,NA,0.30968347087523673,NA,NA,NA,NA,NA,0.342674076504371,1.191476428855917,0.5979633570978099,NA,81654.08423777779,21298.838461283158
168,72726.0,7603.0,[34],1,2.1339386986497413,0.3742422996177246,NA,NA,NA,NA,NA,NA,NA,NA,0.5432995588234846,0.23343663362483424,2.5492914208810675,NA,NA,31715.210296180376
168,108139.0,24376.0,[49],1,0.26216411201325385,0.897079450725454,NA,0.950067348089028,NA,NA,0.2808181907452143,NA,NA,0.488908560565552,0.28904714280693566,0.19559573502621752,1.007045682824883,NA,61036.557763619065,19723.792230370465
168,29181.0,9307.0,[38],1,1.0178513891573362,0.3817211192556882,NA,NA,NA,NA,NA,NA,NA,NA,0.4217756917857489,0.204298945443957,1.573805455638944,NA,61920.70950275853,25543.173983071
168,39041.0,12399.0,[39],1,0.28698707717526295,0.05675335490891742,NA,NA,0.23058053920239052,NA,NA,NA,NA,0.6036221984836402,0.28598721421070783,2.180860244819543,0.910348148280021,NA,74576.31761481515,15019.997233677232
168,26112.0,3946.0,[42],1,1.4277892425704553,0.44241528990504264,NA,NA,NA,NA,NA,1.0355251532245475,NA,NA,0.5593461552542678,0.23379555874693492,1.9048388214231093,NA,NA,41628.262254901834
168,81282.0,9935.0,[46],1,1.9885391933392274,0.34504703091705036,NA,NA,NA,NA,NA,NA,NA,NA,0.43101619690705784,0.25359776561847447,2.4662363607686903,NA,NA,30291.197952806302
168,38436.0,13655.0,[52],1,0.6091536036788407,0.2691289244718522,NA,NA,NA,NA,NA,NA,NA,0.509381393823496,0.5250271801176032,NA,0.6733037838744879,NA,57530.60505775849,19331.77978978044
