time_in_hour,cumulative_size,size,pcore_ids,pcore_power,AF700 CD48_[R 730_B-A],APCCy7 Ly6G_[R 780_A-A],BV421 CD117_[V 440_F-A],BV510 SCA-1_[V 525_E-A],BV605 CD11b_[V 610_D-A],BV650 CD150_[V 660_C-A],BV711 CD11c_[V 715_B-A],BV785 B220_[V 780_A-A],FITC Ly6C_[B 525_B-A],PE CD115_[YG 582_D-A],PECF594 CD135_[YG 610_C-A],PECy5 CD3-CD19-NK11_[YG 670_B-A],PECy7 CD16-32_[YG 780_A-A],PerCPCy5-5 CD45_[B 695_A-A],_FSC-A,_SSC-A
-1,0,0,[],0,0.0,0.0,0.0,0.0,0.0,0.0,0.0,0.0,0.0,0.0,0.0,0.0,0.0,0.0,0.0,0.0
0,95344,95344,"[0,2,5,15,22,32,54]",7,0.16630652934120702,0.2325762927336892,0.3141037945516435,0.2792237338068896,0.2573732651679534,0.21303246523383293,0.25382590121947346,0.5322767265938412,0.1557685919040081,0.09971482302340566,0.2458189263312477,0.23527959038059715,0.14656745795433673,0.2753197763193558,0.20132814680466274,0.050353825649533134
0,112137,112137,"[3,4,6,7,8,14,16,28,46,49,53]",11,0.1514601537136644,0.41716543601224776,0.4867933010201518,0.2938589966230973,0.5071647226694274,0.1848139084871781,0.2873110003926734,0.2987084203356303,0.5482257468027324,0.11995693867175881,0.2394803530131851,0.09245741087203248,0.3247448692411716,0.3492086500663629,0.18166871403308615,0.06505972295700639
0,15195,15195,"[4,17]",2,0.16796893011406636,0.40338700789525045,0.5400053560292126,0.30608427989674525,0.5440824105043452,0.2002812444078752,0.2765679347674641,0.3357733548655762,0.5971842250398296,0.11872703086419965,0.23632376954328885,0.09337199846362422,0.3524400560076847,0.38709611992864634,0.20235121044023102,0.07987468204610278
0,31536,31536,"[2,5,47]",3,0.16980202678861372,0.23425495086293646,0.32394029513581096,0.2777179723463949,0.2504916576278139,0.2602226410202062,0.23728383893560845,0.43493106917495794,0.15486591681319029,0.10292720996148894,0.24742956111567752,0.17915451081075967,0.13299629518962455,0.2370556830517228,0.2070119747849212,0.04486267865776351
0,27498,27498,"[26,30,34]",3,0.20204855049660944,0.41704085771058963,0.5370952155980848,0.30517680288678894,0.5637979934994947,0.41348116409748303,0.185041694358991,0.34416037671419797,0.6076150989111213,0.1349821777449234,0.25069662367697526,0.08510390529573185,0.36632428288146573,0.40707614214511095,0.19669874219044917,0.08026534492261328
0,23623,23623,"[14,16,46,17]",4,0.1640471110098624,0.39507301639939596,0.5515067422526246,0.30414869068306455,0.5538837258803918,0.2025948179648798,0.2919551687725864,0.30663771925278493,0.6098059469243559,0.1193966927315141,0.23720143519611528,0.09117822030124519,0.35616606530708034,0.37783703359169557,0.19762862855354932,0.08048026406116385
24,108654.0,96736.0,"[0,2,5,15,22,32,54]",7,0.16371667601737602,0.23094942311067435,0.3163074931870819,0.28772784498267606,0.25290657204781214,0.2159506852776853,0.25381116193984393,0.5293065929198119,0.15572065348590697,0.09723924350939121,0.24439671127261633,0.22899116516559953,0.1377553695952333,0.2757985080124385,0.2122892248200829,0.05431669619353459
24,115858.125,101841.0,"[3,4,6,7,8,14,16,28,46,49,53]",11,0.15668358713358072,0.39460954719742436,0.49701783559940016,0.2995971871655438,0.49743737063957105,0.1913674740955067,0.2860454027711996,0.3063426842625038,0.5569270829922902,0.12234064992608956,0.23596372977636726,0.0931430920836274,0.304829581691096,0.33216447709914215,0.17864027635027294,0.07523490654246157
24,16613.25,15055.0,"[2,19,39]",3,0.16555531333533946,0.2251185613381675,0.2828325282665105,0.33691587753286045,0.23710635889628096,0.3236314198773908,0.21208399712955694,0.6315055495208037,0.17530605621825382,0.1094729799199011,0.25175878603732355,0.33353657047721175,0.15219834199050758,0.4554369783254486,0.2269103555353458,0.05322925775809502
24,20276.75,18448.0,[47],1,0.1551344010827177,0.23326953987339955,0.34295683103387037,0.27293519406780836,0.2512718232813674,0.2186061735831933,0.25271736100133074,0.3003683465413734,0.13463636368587867,0.09084738024156169,0.24317568719213864,0.10307585582214773,0.10210298065570328,0.13109118010695467,0.22925267453037898,0.0386731755319744
24,26998.25,23561.0,"[26,30,34]",3,0.2055148842006746,0.40998470607180376,0.5437395784474813,0.30955326539104694,0.5655575809035145,0.40986850877285014,0.19033371642367217,0.34742834184918964,0.6223278434898684,0.13834605397635824,0.24445903014553746,0.08559927866736158,0.3576947003470542,0.40061951558120956,0.19390151433769595,0.09111151633879934
24,44466.0,38517.0,"[4,6,14,16,46]",5,0.15330941440818638,0.4192548921914409,0.5188854722205503,0.30085288867477145,0.5327078293287879,0.18325431908562212,0.29352182503951024,0.29716335327816223,0.5863783845945306,0.12468516953316151,0.23221800002718662,0.0921437067381487,0.3361376448236546,0.3755171468717926,0.18625602646273506,0.07731865953250024
48,102547.75,88966.0,"[0,2,5,15,22,32,54]",7,0.16024108555774946,0.2315900181147269,0.30755352032923156,0.27924622072529337,0.24921909508986767,0.2177628126963118,0.25151675883051483,0.5367322262498597,0.15358427224427615,0.0911861685854517,0.2421929475445805,0.2177648476472768,0.1408777669092341,0.2505573642702945,0.19869042056112396,0.05493661884171984
48,70149.828125,63528.0,"[1,38,40,41,47,52,53]",7,0.16142134239703315,0.26687772324478104,0.4076411778032379,0.2942495929833661,0.30021302627415974,0.22547926719276662,0.2604286977442781,0.3097608713639354,0.31395364155437155,0.10898305767990527,0.25274466628209097,0.09856259946959178,0.14109609148306934,0.15973437806001303,0.16739976149421318,0.06678206301808139
48,67724.515625,57670.0,"[3,4,6,7,14,16,49]",7,0.14120396994436304,0.4145244378064968,0.5008063446967222,0.2903567026901385,0.5179605878400085,0.13746271882862385,0.3004909570352099,0.3010298240496589,0.559888163590752,0.09926598097679616,0.2309724605591075,0.08805150835078493,0.32595331183271276,0.3244430340001063,0.173421704992358,0.07072341234654295
48,17424.15625,15123.0,"[2,5]",2,0.17862574696778372,0.23121592338584823,0.30352235763811897,0.2868711222526047,0.2318885357183099,0.315794060217224,0.20996162711402971,0.5783800406306963,0.17425847132933175,0.10011245059441762,0.24715693347957385,0.2520550721951824,0.15172179979321362,0.31585851809094734,0.21119014164665498,0.058787121224150786
48,5924.078125,5339.0,[40],1,0.18577239480958435,0.26946558810287036,0.4707002732640601,0.32683694889645415,0.2757988851102469,0.3344849553377242,0.21683536496933697,0.3492498167372822,0.32365276280506333,0.12888605688376228,0.27317390468686703,0.11212981927335394,0.14657840219072085,0.16151139876529572,0.20883543652794878,0.09952565770011451
48,13386.625,11878.0,"[52,7]",2,0.17371648491561267,0.3199300040295907,0.4674908460659493,0.2937916827632112,0.40784281188556876,0.2616055504926474,0.252335190603863,0.3157913159316774,0.5825962817052864,0.1258103550410733,0.24958579192167402,0.09223332763903974,0.23654932628032876,0.22259916387361992,0.17484928807036051,0.08086016089582154
72,118137.46875,105319.0,"[0,2,5,15,22,32,54]",7,0.1609713267604584,0.23888569157192172,0.30208413807907136,0.29743789542896104,0.2587092146938776,0.21685308222746388,0.2507854288185871,0.5232519462646037,0.15637459541635024,0.09633698288726678,0.24476614085401963,0.19863012080556336,0.14864336906723954,0.2659799647280642,0.20485327002648038,0.06213256158143065
72,136411.533203125,122283.0,"[3,4,6,7,8,14,16,28,46,49,53]",11,0.15822222942226655,0.38444882757255583,0.4490849312958129,0.31849136636589076,0.4669871793804747,0.20184259459606635,0.27486634860424347,0.3130927462026528,0.4964458700774008,0.11482211613695185,0.251977625684167,0.09445970171879485,0.27887200449942745,0.3088119757328694,0.18807850668546736,0.08151844654314201
72,15980.83203125,14184.0,"[2,19,39]",3,0.1713646098561685,0.23694084894123849,0.3002754770967324,0.3497496710753807,0.24863785100091387,0.3071645524496626,0.2155115533983015,0.607601795559139,0.18165730708782474,0.10925728592239471,0.2524731511415435,0.27797230462397443,0.1652554445031738,0.4208325666093385,0.22248599130332022,0.06687980822555471
72,12956.19921875,10540.0,[47],1,0.15628320357801356,0.24076241328577322,0.3345912009792172,0.2842714333718025,0.26145016096495427,0.21859690510561156,0.254774098884828,0.3140226883717949,0.14427078182614608,0.09493798786118102,0.24557247842809857,0.10349784539382968,0.11000611065147203,0.1369081370820095,0.208787816926226,0.049061021913536916
72,38014.205078125,32905.0,"[4,7,8,16,40,41]",6,0.17187472000864118,0.37042173560946756,0.45860530972269986,0.3254203318793476,0.43920165342116874,0.27044265592173966,0.24986175165619237,0.3253835178526991,0.4810478663940173,0.124162596897992,0.26032048335467445,0.09784285660799423,0.2687474443660024,0.30421398853127285,0.1940068444374963,0.0891143243680073
72,8802.095703125,7762.0,"[40,41]",2,0.18791401996050217,0.28909136305072464,0.41832643448515644,0.3396193037790272,0.3113235981979716,0.322355615969898,0.23031005761136883,0.36272128069145615,0.34084610409825594,0.12609408727895202,0.27289404327538175,0.1116742718704463,0.169291299632456,0.207219186098358,0.18540543325538603,0.09190478746435621
96,96480.18359375,81713.0,"[0,2,5,15,22,32,54]",7,0.181136766896653,0.23625649895736026,0.3122825851382903,0.3082632691191876,0.2590378827658895,0.21146984151536566,0.2655404463042265,0.5563527159213077,0.15483925401598186,0.10646654518663744,0.2506820713647916,0.2581559493312646,0.15514749820663593,0.2991562599850426,0.20816998703631992,0.05348845567471194
96,13635.8466796875,12000.0,"[2,19]",2,0.19111379606718532,0.23434443198477284,0.30689494719292976,0.36343769933529085,0.2452015933867579,0.3187059494808299,0.23134254798563683,0.6140374530778058,0.17121572795538423,0.12062672924896974,0.25882069991322143,0.32446136185998947,0.16543904881354798,0.4175520814993523,0.22023064543470391,0.055872155245284404
96,51079.10595703125,47123.0,"[6,8,14,16,49]",5,0.1427575637251993,0.47666099619614366,0.5169188353609806,0.337529141863562,0.5807655705621667,0.11341976952966719,0.35776894851855434,0.31571793419764804,0.5469448931814619,0.11882091877188995,0.23317866999709283,0.0956061072131546,0.3867050813794785,0.451604160533437,0.192014622945239,0.07112870967910444
96,9592.52490234375,7973.0,[47],1,0.15852362546570162,0.23783354112104285,0.3416203429813248,0.28712411541479815,0.25349785107321254,0.21857460767953663,0.25547841468322635,0.3066171184016858,0.13612081369236173,0.09689601634660336,0.24979359837641138,0.10432464528012103,0.10563953338989641,0.1319690210799033,0.2230468633852802,0.04047249994668862
96,39307.8154296875,37253.0,"[26,30,46]",3,0.1960668801339363,0.49903789034555923,0.5139992887183643,0.3395020364168852,0.596071363273035,0.3975420028936484,0.23473409664702985,0.3743799785713121,0.5615052701132234,0.13584810505759456,0.25094337949199214,0.08758202941024106,0.4067466452614058,0.4843465241322792,0.1946885068098616,0.0731939830062976
96,5579.91162109375,4943.0,[14],1,0.17352657935459245,0.3211880323781113,0.5874802491546817,0.3456197287254703,0.5830988451912762,0.08274163889377838,0.36663148663790956,0.3365778904315906,0.6066763450781284,0.11213565134668393,0.23522633627921005,0.09644984177118801,0.3497491889040366,0.33305043942740215,0.18233850239057853,0.09304625604666629
120,79743.02294921875,67683.0,"[0,2,5,15,22,32,54]",7,0.1724695269092332,0.23711325387593093,0.32209284766938384,0.312745297550456,0.26244587990410934,0.2099262463411339,0.2677356506885296,0.5535469375540948,0.15431334780414604,0.10700468570516312,0.25322445704889923,0.2573592142127597,0.14962006468591965,0.311839318459385,0.20573932011605195,0.05145184345298175
120,63683.26412963867,58345.0,"[6,14,49]",3,0.1260523159889987,0.49922612336840316,0.540617180192274,0.34826881750727967,0.6119051875285106,0.06742525135826336,0.37960149091709283,0.3340229281947375,0.5595152095616123,0.099368926090522,0.22702819497862306,0.09404274187927326,0.41020531538735316,0.49075656271746,0.18428151134538723,0.06588764737594438
120,27925.03466796875,24222.0,"[2,5,47]",3,0.17810547051262235,0.23853885543302492,0.3286887719723863,0.30124745123485414,0.24826182344526918,0.26992233260873183,0.24025766627516876,0.4662934836672331,0.15715044013426685,0.10728039305793313,0.25575408644256387,0.20668223450377315,0.135863583733892,0.26584670961077683,0.21338369726090797,0.047960540628176215
120,59782.47692871094,54869.0,"[26,30,46]",3,0.19477555526999688,0.5093647417327475,0.5339922512048136,0.35004872652766683,0.6107285661487997,0.4129083708420301,0.23252612230286832,0.38728261233638867,0.569152166090327,0.12350192587714726,0.2537395438974541,0.08547812091178776,0.42063023407618433,0.5060655927062035,0.1854949799266501,0.06952635440105633
120,6675.488952636719,5978.0,[14],1,0.168959187166622,0.3223904833629011,0.6056501492959775,0.36326031423894906,0.6054008883234424,0.07571688598735976,0.37962603722572585,0.3437502693898172,0.6112956487669848,0.10005569253385832,0.23306481338113927,0.09495822033807326,0.36974592193437483,0.37553747172406277,0.17716211524191908,0.08907595835392404
144,71069.7155456543,61972.0,"[0,2,5,15,22,54]",6,0.1873156238330047,0.23165257471288372,0.3258809060961504,0.34294417487440026,0.2566205007553633,0.2203361958483332,0.2706047816243129,0.5722942224249796,0.1567963148283429,0.10958391590819688,0.2521819660003174,0.2781909677193589,0.16033382123767267,0.3216535826679561,0.20599594475754684,0.051901043384134475
144,136986.2468032837,117843.0,"[4,6,7,8,9,16,26,34,46,49]",10,0.16199688212162458,0.4991981436650889,0.5239768944106726,0.3636487877380503,0.595868316748441,0.2504321296210592,0.3167523249044595,0.3481088167016799,0.536583504381539,0.12136318838374746,0.23375167340595238,0.09586814244096029,0.4032009202258036,0.4755943281407908,0.18332652489317797,0.06417327931730077
144,5247.43611907959,4413.0,[14],1,0.1863713227270516,0.31650260477653064,0.6040071638251483,0.3896853051983303,0.5935370405059588,0.08027112965884864,0.3834504638835068,0.34306704491884016,0.5894055388423051,0.11726910793409161,0.2287745590255796,0.1031964967216602,0.3706945469435395,0.39346643706708984,0.17673771653929785,0.08841949814537882
144,8968.814262390137,7405.0,"[9,30]",2,0.22606584927727483,0.38000212765125807,0.5558386094277608,0.3688196439211594,0.5620913169477793,0.41572927186074093,0.20897391486119712,0.3699577979775999,0.5493305362633806,0.13386056807072305,0.25271906985152126,0.09357870610042293,0.3664908202568013,0.3982963760146122,0.18323993217310583,0.08258935743807173
144,6657.486442565918,5524.0,"[16,34]",2,0.19514878477412367,0.3579922105441029,0.5725448254064444,0.3840753764329703,0.575567786620256,0.3074309315587741,0.3497007736749791,0.3435804378957654,0.5571133437329938,0.13218733818832343,0.24514127898812102,0.101631950260916,0.3681249975031763,0.39003507984224445,0.1767958821610201,0.08156992633858373
144,5247.43611907959,4413.0,[14],1,0.1863713227270516,0.31650260477653064,0.6040071638251483,0.3896853051983303,0.5935370405059588,0.08027112965884864,0.3834504638835068,0.34306704491884016,0.5894055388423051,0.11726910793409161,0.2287745590255796,0.1031964967216602,0.3706945469435395,0.39346643706708984,0.17673771653929785,0.08841949814537882
168,94771.76919078827,87407.0,"[3,4,6,7,14,16,53]",7,0.15423327400138717,0.382390606695998,0.48583016298314124,0.3721066653395917,0.502960894144968,0.16124627618511747,0.3261802334422342,0.31105983413150307,0.5046249123597294,0.13233134855379855,0.24247489728802396,0.09628411708378096,0.303824147917693,0.3283522490327933,0.1769585560149136,0.07997823231611172
168,29915.927731990814,24017.0,"[4,49]",2,0.15280688172919515,0.4970158896311692,0.5249451477876245,0.372673013095489,0.5954020838408365,0.14610262209309968,0.34276404047351977,0.3761088728199761,0.5103154078037834,0.12402706750650684,0.22575066034935834,0.09645943517017688,0.38671853052848126,0.44921355371904964,0.19037252048565442,0.07019652871081335
168,27312.10120201111,21619.0,"[26,30,46]",3,0.20748682254338732,0.47714439336031617,0.5298461245137779,0.380031086516397,0.6000952275510071,0.43209265757818704,0.2256044462765468,0.384844442137134,0.5291952230392529,0.14429703385955248,0.24868263020872847,0.08815782919002432,0.3908408813795815,0.45403167932337685,0.19035412572769683,0.07924733243616193
168,29149.012021541595,28248.0,"[28,40,52]",3,0.19234367637459598,0.3016247952479725,0.43733818972806093,0.39174811698351686,0.38129457673520617,0.3405733359007766,0.2372221918261633,0.3300822562130483,0.5101172533233727,0.16683709390953602,0.2720110094406793,0.09966073491200063,0.23764840930706654,0.2572001142948564,0.1660383303138302,0.09609336635745669
168,5199.929514884949,4544.0,[14],1,0.1788464022495953,0.31567932150345435,0.5815887255424981,0.4072314720920452,0.5960646562502427,0.07217396167416368,0.38532844245908715,0.35171287790143957,0.5566502243313103,0.1306279054190298,0.2288292143613563,0.101769020041051,0.3543779252356237,0.3639453535181158,0.18256647612954927,0.10205541883689714
168,18864.15277338028,17910.0,"[7,16,40]",3,0.17835157436066004,0.3307923020746975,0.47645543853030436,0.38285196056448006,0.436444700774288,0.290300272490462,0.28211260619595707,0.32460606306657125,0.4612300992669418,0.1448535319797939,0.26165840074469915,0.10073648477547209,0.2620573534724434,0.28043405773097924,0.1722177978866653,0.08620680448147924
