time_in_hour,cumulative_size,size,pcore_ids,pcore_power,AF700 CD48_[R 730_B-A],APCCy7 Ly6G_[R 780_A-A],BV421 CD117_[V 440_F-A],BV510 SCA-1_[V 525_E-A],BV605 CD11b_[V 610_D-A],BV650 CD150_[V 660_C-A],BV711 CD11c_[V 715_B-A],BV785 B220_[V 780_A-A],FITC Ly6C_[B 525_B-A],PE CD115_[YG 582_D-A],PECF594 CD135_[YG 610_C-A],PECy5 CD3-CD19-NK11_[YG 670_B-A],PECy7 CD16-32_[YG 780_A-A],PerCPCy5-5 CD45_[B 695_A-A],_FSC-A,_SSC-A
-1,0,0,[],0,0.0,0.0,0.0,0.0,0.0,0.0,0.0,0.0,0.0,0.0,0.0,0.0,0.0,0.0,0.0,0.0
0,184444,184444,"[0,3,4,6,8,9,10,11,13,14,16,18,21,22,27,28,30,33,34,35,36,38,39,40,42]",25,0.40074051796751275,NA,NA,0.7455110031879593,NA,NA,0.14868362394005974,0.7382738090097889,NA,NA,0.19143949075057298,0.18242450518856634,1.9705282761054859,NA,67991.51924703426,20772.190930580557
0,123798,123798,"[1,2,5,7,12,15,17,26]",8,0.33994082295352324,0.172523031099046,NA,0.5262021446953953,0.3079345398875586,NA,0.00762094518489187,NA,NA,0.36776464550316046,0.1933153780190371,0.8673586597764142,0.5988125834343058,NA,69289.70458327277,14796.594452252828
0,12885,12885,[32],1,0.1466535601086476,0.008500011951882325,-0.4082305379899158,1.0149024655801395,0.24625615847886362,NA,-0.17009920007761403,NA,NA,0.3599343979821503,0.2043451099728273,NA,0.7870214670547083,NA,71649.74590609234,12716.072332169153
0,889,889,[5],1,0.9934767030371232,0.15311593588301475,0.9259450708661423,NA,0.22681974578177844,1.0576439876265493,NA,NA,NA,NA,0.2747797941507333,1.2170491766029234,0.5341763914510679,NA,77457.42182227227,16885.273340832395
0,25152,25152,"[4,6,8]",3,0.4065288792541346,1.2622592248330116,NA,0.7520514380168533,NA,NA,0.16970918952767278,0.7551905634939593,NA,0.5716271212627205,0.24206558472487094,0.18650620900922443,NA,NA,66528.81170483468,21017.541984732823
0,970,970,[31],1,1.0342962639175253,0.5852130309278345,2.5102890082474256,2.0384522979381425,2.074361182474225,NA,NA,0.9577875360824728,NA,NA,1.2466222969072156,0.5116066298969075,2.00543888556701,NA,NA,NA
0,8411,8411,[13],1,0.400461291166331,1.0730471852336194,NA,0.8932512093686706,3.228118032814162,NA,0.7941487221495747,0.6845614529782509,NA,0.5179745553441947,0.0449106694804402,0.16261042670312764,2.290308550945181,NA,73560.85126619916,27060.28201165136
0,2043,2043,[15],1,0.7012243210964255,0.1231164351443983,NA,NA,0.47675146451297357,NA,0.1297249696524787,NA,NA,NA,0.19363905041605411,1.1284352153695545,0.5284456240822325,NA,75639.82378854629,15113.303964757706
0,25472,25472,"[24,25,29,41]",4,1.8989338402559695,0.32447303615734224,NA,0.995344181179338,NA,NA,0.006227767391647099,0.818874722950683,NA,NA,0.49870462963253503,0.21667908515232337,2.4587076817289653,NA,NA,32479.44974874372
0,26473,26473,"[16,18,22,27,28,30,33,31]",8,NA,NA,NA,0.8563994559740147,NA,NA,NA,0.809811075170932,NA,NA,0.3475426145506706,0.19204673935708072,1.9936826686435278,NA,70334.07078910591,24891.96993162843
24,280386.0,183415.0,"[0,3,4,6,8,9,10,11,13,14,16,18,21,22,26,27,28,30,33,34,35,36,37,38,39,40,42]",27,0.4504028717054356,NA,NA,0.8288334959359633,NA,NA,0.15552946095739895,0.8235639756211119,NA,NA,0.1922213342213941,0.20684384911693154,1.7895270643577041,NA,68181.30890985997,23697.153039024768
24,179948.0,122504.0,"[1,2,5,7,12,15,17]",7,0.3043691388595633,0.14543722608197518,NA,0.5464157765521143,0.26293432175128695,0.22939653417654182,-0.0028619826644389335,NA,NA,0.3249573124069217,0.15878548674895532,0.8603895882893928,0.5388304293657052,NA,71638.98246160001,14776.693889345723
24,22938.5,16496.0,[32],1,0.14168116716436918,0.029604751836421972,NA,1.053635506615509,0.20329095978376577,NA,-0.13445146397975805,NA,NA,0.354700960306912,0.18775489487106833,1.8398538369335427,0.6950207037731272,NA,74108.27386271994,13367.741395470506
24,5272.0,3751.0,[3],1,1.113871075208649,0.2912760085356543,0.9957159091426413,1.153957161418822,NA,NA,-0.27038336741274627,NA,NA,NA,0.29797237812974586,0.9899944548558439,0.5982514216616092,NA,79690.03945371753,20859.85432473446
24,2068.5,1624.0,[5],1,0.9840158880831533,0.12686316050278323,NA,1.1544905358955817,0.2508283635484623,NA,-0.4984068931592951,NA,NA,NA,0.2512326524051214,1.2086776350012103,0.48205967125936644,NA,81210.56997824507,18408.067681895092
24,9719.5,6676.0,[6],1,0.5772818619784941,1.2355088278718012,2.667110859303486,0.895320097227227,NA,NA,0.092117439580234,0.8697591126086617,NA,NA,0.14676050882246638,0.14426831246463556,2.2205935452440997,NA,74534.24065023934,29493.309738155178
24,14893.5,9287.0,[24],1,1.8639582001879973,0.3781558497331057,1.8513123480377156,0.9538985831067022,1.9978293156746152,NA,0.42850732007250025,0.9598625493335917,NA,NA,0.3528669270487286,0.22954071490918693,2.444734921005808,1.9310526908382888,74874.64142075398,32639.978514116923
24,1357.0,872.0,[31],1,1.1006277354458354,0.5853995232129718,NA,2.083598318717748,NA,NA,NA,1.0778923574060415,NA,NA,1.2127143375092166,0.5236327048636715,1.8649870600589558,NA,NA,NA
24,4088.5,3067.0,[15],1,0.6777421022379857,0.1222576420447572,NA,NA,0.5085733946435202,NA,0.22165976213770788,NA,NA,NA,0.16883001174024503,1.0976025220741084,0.49180616754311124,NA,79149.51302433648,16630.27124862419
24,16267.5,12106.0,"[20,25]",2,1.3003092587060048,0.5948129403104296,2.89743434824037,2.2680493039803378,2.176570859351473,NA,NA,1.0872757618871836,NA,3.3163518129091702,1.4271390715536998,0.5147688289534325,2.3890929413247264,2.443922700445681,NA,NA
24,28157.0,18983.0,"[16,18,21,29,41]",5,1.8840399541499433,0.38655584993074577,NA,1.0846702814930742,NA,NA,-0.12724902770181057,1.0119973702454121,NA,NA,0.475769698653977,0.26787543070994746,2.3237252603615444,NA,NA,36325.52331569408
24,7407.0,5073.0,"[25,28]",2,1.2296799760361814,0.5104150007425399,NA,1.6328994346564074,NA,NA,-0.13185191582286704,0.9680884576751696,NA,NA,0.7965524667881709,0.3426159875793161,2.07559349162954,NA,NA,NA
24,11086.5,7738.0,"[22,30]",2,0.7425687839714994,NA,NA,0.8907558512154381,NA,NA,NA,1.0290896351418546,NA,NA,0.2440976889460158,0.11385805461597587,2.1983367431560765,NA,NA,28090.094439182743
24,2122.5,1409.0,"[27,31]",2,1.2587542216725554,0.7013476360424025,NA,2.1489233486454586,NA,NA,NA,NA,NA,NA,1.293909927444056,0.5913400153121331,1.9275228426383992,NA,NA,NA
48,315696.5,194511.0,"[1,2,5,7,8,12,15,16,17,26,33,35,36,42]",14,0.29729003323603753,0.41830514087818393,NA,NA,NA,NA,0.045342114099305775,NA,NA,0.36371090938290496,0.18022219278484775,NA,NA,NA,NA,17155.90841203495
48,40149.5,23975.0,"[18,32,37]",3,NA,0.16617966234324255,NA,NA,NA,NA,NA,NA,NA,NA,0.27425946533580614,NA,NA,NA,NA,18682.536818640314
48,180264.0,86152.0,"[4,6,9,10,11,13,14,22,28,30,34,39]",12,NA,NA,NA,0.7309638068263671,NA,NA,NA,NA,NA,NA,0.10644677625593824,0.11791711787988679,NA,NA,NA,23473.006612523823
48,3045.25,2011.0,[5],1,NA,0.1099262512929946,NA,NA,NA,NA,NA,NA,NA,0.46529392496510846,0.23012066784336227,NA,0.3339594867416472,NA,NA,17973.470815203986
48,2547.25,2204.0,[40],1,NA,0.2976908788889969,NA,NA,0.8464780972617527,NA,NA,NA,NA,NA,0.8132574817940901,0.27621551064873795,NA,NA,NA,37518.698203945496
48,10147.75,5288.0,[6],1,0.6148011625976169,NA,NA,0.8887861625976368,NA,NA,NA,NA,NA,NA,NA,0.10892935562070638,2.4449681846222147,NA,NA,31790.18481929482
48,447.75,341.0,[38],1,NA,0.45034533165828927,NA,NA,NA,NA,NA,NA,NA,NA,NA,0.26369783863763263,NA,NA,NA,NA
48,16015.75,8569.0,[24],1,1.9685484450775037,0.34053162867802067,NA,NA,NA,NA,NA,NA,NA,NA,0.2864281344926276,0.20876738977256604,NA,NA,NA,30041.403992944444
48,7096.0,4286.0,"[15,16]",2,NA,0.16650296272547704,NA,NA,0.41096192164600076,NA,NA,NA,NA,0.40901085234639134,0.17353040536922393,NA,0.40097229143179347,NA,NA,18447.909808342753
48,32992.75,19044.0,"[19,23,25,29,41]",5,NA,0.3812817303422724,NA,NA,NA,NA,NA,NA,NA,NA,0.6432367580604867,0.2578458826408845,NA,NA,NA,NA
48,2298.25,1662.0,[23],1,NA,0.15989827390405686,NA,NA,NA,NA,NA,NA,NA,NA,0.15452198205156087,0.14347629261394523,NA,NA,71556.07266398342,19266.199934732944
48,16581.75,10497.0,"[19,25,28]",3,1.2155158341097907,0.4997578962262783,NA,NA,NA,NA,NA,NA,NA,NA,0.8336537069669978,0.32732259031766886,2.1791748760836507,NA,NA,NA
48,3627.0,3323.0,[30],1,1.4801008270609282,0.3630776594292833,NA,1.0657778945409389,NA,NA,NA,0.7669927132616485,NA,NA,0.5067483540805102,0.18341638675213823,NA,NA,NA,42450.11304108074
48,6727.5,5079.0,[35],1,0.7991007138981783,0.3633284767001079,NA,NA,NA,NA,NA,NA,NA,NA,0.31356989687849124,0.17842273396507025,NA,NA,60681.510813823916,22876.805945745033
72,389430.0,230786.0,"[1,2,5,7,8,12,15,17,18,26,33,36,42]",13,0.327153555884244,0.587219575477298,NA,0.7309496488274623,NA,NA,0.03695865885877092,NA,NA,0.4405295458914311,0.2091493801119717,0.5333891962233275,0.9014726599809298,NA,68407.75671109067,19272.556526204902
72,30551.0,9407.0,"[4,32,37]",3,0.25988649455828083,0.41682295195739183,NA,1.2117265432719089,NA,0.43354660531978606,0.08785981178601876,NA,NA,0.4105051093049309,0.2119708607942452,NA,0.9244495989288347,NA,69523.79457300913,17222.3665346469
72,2171.625,649.0,[5],1,0.9411187374086285,0.17464603206124085,NA,1.266795273758138,0.2160045182754815,NA,NA,NA,NA,0.564578094053993,0.25124098169573195,1.1922422480861123,0.47192224186956777,NA,81208.54751626091,19358.189374316447
72,159911.25,79284.0,"[4,9,10,11,13,14,30,34,35,39,40]",11,0.3780876717272841,NA,NA,0.9052987563226451,NA,NA,0.1680943478945358,0.7847992439016998,NA,0.613871640783559,0.21668172189183332,0.1618486549085847,1.9774200002454556,NA,69435.99522860328,25064.086285361467
72,17841.125,7561.0,"[16,22,28]",3,1.0271207520545949,1.0000174024199837,NA,1.2070731685221743,NA,NA,-0.42139876993462666,1.0045499862606917,NA,NA,0.3707793644809487,0.24624468135417343,2.0360422058376386,NA,NA,35368.86962004912
72,5089.0,1989.0,"[21,27,31,38]",4,1.1684793475142439,0.7374984593485969,NA,2.104663982511297,NA,NA,NA,NA,NA,NA,1.1409461332530992,0.5182320509923366,2.103995235630771,NA,NA,NA
72,15602.875,7595.0,[24],1,1.8744249543513576,0.41275905927593115,1.4710792911482766,1.3568663263901737,2.014345474872426,NA,0.4515394777805293,0.8287386644849084,NA,NA,0.37598832628602663,0.23287383705727316,2.4470377330780377,1.99887456736339,75822.16585084469,33883.5195436737
72,4894.125,2442.0,[19],1,1.2274159105049385,0.6418289845988889,2.3433420657165374,2.0585106362986196,1.993742805174581,NA,-0.6740724649196679,1.0988689047071634,NA,NA,1.1699162997216033,0.41783984563123744,2.1948313715168704,NA,100457.4554184865,NA
72,3487.125,1151.0,[15],1,0.5988832071548953,0.16096763791805646,NA,1.1499273195325612,0.5449481330609061,NA,0.2791124410151631,NA,NA,0.5197685808151403,0.17112619758396708,1.0646391898412022,0.4758788272574095,NA,79189.89998924594,17789.20801519879
72,26450.125,11194.0,"[16,23,25,29,41]",5,1.7927139563801642,0.4292775442649117,NA,1.5004728663522435,NA,NA,NA,0.9087747112253513,NA,NA,0.5874509746504004,0.31422024523513714,NA,NA,NA,NA
72,11343.75,6468.0,[20],1,1.3183109744793422,0.7117812055757708,2.579901267118466,2.3427908282093868,2.126588181509647,NA,NA,1.1757935733884222,4.358772366853991,2.9786219709862505,1.4731574655537192,0.49652572018732744,2.3816435656859483,2.419151673763094,NA,NA
72,8050.25,3505.0,"[21,19,23]",3,1.1422489350641258,0.5695154000031093,NA,1.8960309602030976,2.177806419117425,NA,NA,0.9407015339119829,NA,NA,0.9625747903947075,0.38298073382814,2.108388679404367,NA,NA,NA
72,20167.375,8851.0,"[22,25,28]",3,1.0807972693335166,0.9844353894470754,NA,1.3608539916077422,NA,NA,-0.39906637336291695,1.0117094989804203,NA,NA,0.5494914878051897,0.2081657714377786,2.236380698039535,NA,NA,NA
72,13340.25,4105.0,"[26,30]",2,0.8088739779801759,0.38447027292405034,NA,1.1156389836678677,0.5594474896085089,NA,0.006904862540051848,0.9514371618129394,NA,0.8357442747137428,0.4850733093270452,0.27389224282715874,0.8399999470118663,NA,64644.964824497336,34409.00972620457
72,2949.125,1017.0,"[27,31]",2,1.28163868906031,0.8033415768660248,NA,2.1880705191794134,1.8588831152460474,NA,NA,NA,NA,NA,1.2836162170982979,0.5864181659390484,1.9959706849913084,NA,NA,NA
72,5554.75,2191.0,[35],1,0.9051250105540338,0.43647152104054676,NA,1.0730662183041573,0.9110899792069924,0.40830342162113786,0.22092606125387082,0.9233583620775012,NA,1.3882643107700647,0.35352787913499384,0.202355299945993,1.3501729966245155,NA,63901.096538998136,26670.533147306378
96,315529.3125,126543.0,"[1,2,5,7,8,12,15,17,26,33,36,42]",12,0.3538544180610026,0.5384309200444695,NA,0.7868587812604182,NA,NA,0.11734773327852688,NA,NA,0.41582364474774214,0.22598666180203253,0.6926778317842512,0.8557603937419359,NA,68853.2062643149,17881.854827671425
96,31978.5,16703.0,"[4,32,37]",3,0.35377825647309913,0.38404434790953346,NA,NA,NA,NA,NA,NA,NA,0.4772652235466821,0.26492959160255714,NA,0.9417178767433555,NA,70339.65658176583,16242.176837562687
96,2109.8125,1024.0,[5],1,1.0674000879521286,0.18536552925318306,NA,NA,0.27275247871551755,NA,NA,NA,NA,0.6546136790591582,0.30153432422905047,NA,0.5408328528009024,NA,80844.26838877864,18846.32496963594
96,131027.0,64733.0,"[4,9,10,11,14,30,35,39,40]",9,0.3495267736082104,NA,NA,1.020355149633768,NA,NA,NA,0.883605852525621,NA,0.618353915343307,0.1975134698874177,0.17876302313311276,2.129191959975341,NA,68290.22326696,22677.21501675237
96,65965.75,44550.0,"[13,22,28,34]",4,0.6307585801135389,NA,NA,1.1378293097611363,NA,NA,NA,1.1325916279025363,NA,0.6911948474928288,0.2385268445187454,0.14911864132144492,2.44103243654472,NA,71512.39872206397,25887.590090312013
96,16271.1875,7998.0,"[18,21,27,31,38]",5,1.6482668440686858,0.5628364167335631,NA,NA,NA,NA,NA,NA,NA,NA,0.7480503858738081,0.3602545873495736,2.2259355122743805,NA,NA,NA
96,2976.4375,1810.0,[16],1,1.0941890178485199,0.38752100109191545,1.0742765195178778,NA,NA,NA,0.30841390496188126,NA,NA,0.7059549660878156,0.34651160514877466,1.0322461557230755,0.7737347191903091,NA,79039.53098292842,22760.819268000767
96,17453.4375,9652.0,[24],1,2.0032874637911213,0.43085436840162883,1.5083886483357647,1.6954098080786246,NA,NA,0.6219353881255465,NA,NA,NA,0.48097175002059167,0.2697408689369929,2.4741845113176053,NA,74965.58039068247,32324.195162127697
96,3535.0625,1088.0,[19],1,1.2949102310072342,0.6269988532381046,NA,2.1177554173193545,NA,NA,NA,1.1523116878767965,NA,NA,1.2086925883736162,0.43911167970863063,2.2545728586305103,NA,99963.03035660608,NA
96,2825.5625,1082.0,[15],1,0.718713352075915,0.1682514416819645,NA,NA,0.6287495895949964,NA,NA,NA,NA,NA,0.20712110239111592,1.0515546413988364,0.6008194533831729,NA,78625.71930367834,17566.921984560635
96,27231.0625,14006.0,"[16,23,25,29,41]",5,1.9060272659853041,0.42487601219195703,NA,1.7574853093617802,NA,NA,NA,1.0640756983086832,NA,NA,0.6454293009109509,0.3679315249634517,NA,NA,NA,NA
96,11277.875,5606.0,[20],1,1.443598250767552,0.6705134655575766,2.649242748340241,2.4275918379792434,2.1826766255167773,NA,NA,1.2413258092559487,4.4015506996885465,3.098576533849473,1.573581659482611,0.5630826799541149,2.4980981254114814,2.5915996068962577,122566.13342495814,NA
96,6497.125,2472.0,"[21,19,23]",3,1.2227528768108986,0.5552333620543743,NA,2.021796433913076,NA,NA,NA,1.0071547865690524,NA,NA,0.9858611874001975,0.415090448659983,2.1646506150316513,NA,NA,NA
96,17548.6875,7465.0,"[22,25,28]",3,1.1063336722938673,0.9968245947809544,NA,1.4645852205471228,NA,NA,NA,1.1392332922049113,NA,NA,0.566768754696755,0.2210605052015987,2.2971431533020708,NA,NA,NA
96,2894.25,1558.0,[30],1,1.5424463974907077,0.42170875155481014,NA,1.4239888303964743,NA,NA,0.08928922162477626,0.9384298497883767,NA,NA,0.629300681372547,0.2279025917552041,1.71549932784832,NA,64635.98237885465,40301.4998704328
96,1005.875,178.0,[31],1,1.0831599837206387,0.656150838946191,NA,2.1312002906051872,1.9924530393314286,1.3841428634273616,NA,NA,NA,NA,1.1785013023487028,0.4972761270659867,1.9007356197961975,NA,NA,NA
96,4623.375,1846.0,[35],1,1.0122786912563957,0.41728714169843384,NA,1.3042140951280188,0.8868140825695647,NA,NA,NA,NA,NA,0.4111934513883351,0.21731040942763702,1.3660494306648334,NA,62392.6261659502,25051.79268391591
120,279229.75,122520.0,"[1,2,7,8,12,15,17,26,33,36,42]",11,0.3580128106582703,0.525155969655255,NA,0.8360310213300992,NA,NA,0.17312890280919824,NA,NA,0.43202385213923233,0.2580910428851628,NA,0.8319891149902053,NA,68283.05559131864,17194.601728504862
120,28881.09375,13800.0,"[4,5,32]",3,0.3579297398774104,0.33003682597612105,NA,NA,NA,NA,NA,NA,NA,0.5055362244180083,0.26296488989553257,NA,0.9277932170267112,NA,72421.30045715449,15258.275112936068
120,308026.40625,191069.0,"[6,9,10,11,13,14,18,19,21,22,25,27,28,29,30,31,34,35,38,39]",20,NA,NA,NA,1.2813633276057392,NA,NA,NA,NA,NA,NA,0.2665051955586235,0.1804094363536234,2.45580591482935,NA,69550.81338257826,24243.313224059042
120,2642.90625,1588.0,[5],1,1.1193978689298045,0.15439353943929923,0.9917248745107772,NA,0.21495088503422455,1.0479412340226817,-0.5351949569839047,NA,NA,0.6416363294668511,0.3436551989760419,NA,0.5293057949463787,NA,78930.1958781171,18314.051813226433
120,4654.15625,1887.0,[4],1,0.3705336389584595,1.6020735424385482,NA,0.9279971611731299,NA,NA,0.4134102559070172,NA,NA,0.5655378844581106,0.24480615537188166,0.17806921378069218,1.8078174714200324,NA,64792.94415609697,21144.614987947607
120,26444.375,12789.0,"[11,24]",2,NA,0.8576146997731033,NA,1.7162862041147515,NA,NA,NA,NA,NA,NA,0.46069701572640875,0.26193970192385074,2.38617151767389,NA,71705.05871286438,28845.062967077265
120,3006.78125,1594.0,[15],1,0.7795738246463737,0.14188993731877186,NA,NA,0.6386441351944061,NA,NA,NA,NA,0.6088404268164692,0.2570152969849384,NA,0.6205995994470815,NA,76672.08048473764,17038.768616772526
120,11739.9375,6101.0,[20],1,1.6163414272169228,0.7272647911615917,2.756450316981591,2.488553206341615,2.2831162750227674,NA,NA,1.2631883902730499,4.41077535843994,3.110719442786131,1.6037145305900236,0.5914804765011525,2.5564418019314408,2.7026276403356144,NA,NA
120,12757.875,5759.0,"[18,19]",2,1.727832892532051,0.49577992409835625,NA,1.8544302500489835,NA,NA,NA,1.2580707076829856,NA,NA,0.7429579109422653,0.3110407037222114,2.2762378981658324,NA,NA,NA
120,8708.78125,5115.0,"[21,41]",2,2.096973150580764,0.4127762866072726,2.4102338014970477,1.9685389347318432,NA,NA,NA,0.9814127217714921,NA,NA,0.8197726720623266,0.32776713640327326,2.484854606697262,NA,NA,45465.19548874878
120,4240.90625,2446.0,[40],1,1.8041771563566311,0.3420750851085783,NA,NA,0.8593142955367803,NA,0.8608987695731383,NA,NA,1.1192942434326332,0.942693718544831,0.3711082112313825,1.351837647340997,NA,63081.35153895473,34843.000832664125
120,9023.9375,4583.0,"[25,28]",2,1.3090215145585,0.61738089580144,NA,1.8694292825228755,2.24588728129697,NA,NA,1.0759212232326543,NA,NA,0.7963483312959267,0.3337359341612255,2.2809958641010324,NA,NA,NA
120,3634.125,2187.0,[30],1,1.6639575322722069,0.41142233359990765,NA,1.5869729132012491,0.8430433463522884,NA,NA,0.9928244555085621,NA,1.4962305269494025,0.6794827323031614,0.24802425125545802,1.8548139702989017,NA,62940.78547105546,38013.87239019022
120,4063.6875,1752.0,[35],1,1.097337321852079,0.42977538070410093,NA,1.467585506767262,NA,NA,NA,NA,NA,1.3636442564942537,0.46807417663299633,0.23083090446638488,1.4202463802273284,NA,60795.918485365764,23791.63555268453
144,238473.875,98859.0,"[1,2,7,8,12,15,17,26,33,36,42]",11,0.40752905329547384,0.42995098816556476,NA,NA,0.6545416721289219,NA,0.2381358913490761,NA,NA,0.45859938945277456,0.26633822824420994,NA,0.8312582139268619,NA,68607.73873448372,16661.19233815436
144,34349.46875,22236.0,"[5,32]",2,0.32420652479114276,0.02535094079830058,NA,NA,0.2823093451017571,NA,NA,NA,NA,0.5223997553073584,0.26026059532535584,NA,0.7873984231865901,NA,73373.7507075711,13921.588292395198
144,4109.453125,2788.0,[5],1,1.1172021449972422,0.13722626807475313,NA,NA,0.13606092264406167,NA,NA,NA,NA,0.6450167173247635,0.3636277670424586,1.4066343628143956,0.4775155092716882,NA,79130.18499268091,18851.242402235737
144,68451.0,34705.0,"[10,11,14,30,35,39,40]",7,0.5423704073433848,NA,NA,1.3712415876868218,NA,NA,NA,NA,NA,NA,0.2819863807869978,0.21747729821286133,2.259684241656657,NA,66703.98506961206,22233.92718879194
144,199614.109375,101767.0,"[9,13,22,28,34]",5,0.35369855402819006,NA,2.2098040548370643,1.3078981182628802,NA,NA,NA,NA,NA,0.5612336000025943,0.09926263726768969,0.18040680834943512,2.542473781835104,NA,67276.50592459479,20066.207226239676
144,32302.734375,13413.0,"[11,18,21,24]",4,NA,0.6236181620702537,NA,2.034267799098861,NA,NA,NA,NA,NA,NA,0.5498416832795181,0.33074151946695785,2.3422403422654177,NA,NA,31640.222655299738
144,3623.390625,2120.0,[15],1,0.8020419047335714,0.143649008736638,NA,NA,0.6087268028305712,-0.18428865774460257,NA,NA,NA,0.6039144539644784,0.2630723906475736,1.10412787549214,0.621008693118062,NA,76311.49594863248,17182.665476483064
144,34693.546875,18365.0,"[20,25,29,31,38]",5,1.84842221666763,0.5300060109805176,NA,2.509343805479866,NA,NA,NA,NA,NA,3.039622422189014,1.0508413686537494,0.49284227744577924,2.4971739616431687,NA,NA,NA
144,13675.84375,2641.0,"[14,18]",2,NA,NA,NA,NA,NA,NA,NA,NA,NA,NA,0.4636414854545112,0.23615604079844288,2.0930990296336773,NA,68259.3935748936,25611.004732340574
144,14075.390625,9721.0,"[21,41]",2,2.1742794856725762,0.3340494808203558,NA,2.222255410573666,NA,NA,NA,0.9560739987589191,NA,NA,0.8042912929714494,0.3580815333810692,2.375919464891621,NA,NA,40435.34450753464
144,8310.96875,3799.0,"[25,28]",2,1.3133717413828043,0.5972441187079554,NA,2.159597494465149,NA,NA,NA,NA,NA,NA,0.9327659838598072,0.4426581165628264,2.303474855648221,NA,NA,NA
144,2791.0625,974.0,[30],1,1.628645501304381,0.41716894553485284,NA,1.74304337545066,NA,NA,NA,1.0908036843272155,NA,NA,0.7010451450892323,0.30166768176881187,1.7827634429204813,NA,62580.66274044371,37086.30315516048
144,2691.84375,660.0,[35],1,1.092586190802079,0.4078552620996314,1.0819521198411808,NA,NA,NA,NA,NA,NA,NA,0.4759114247727658,0.2713702389103617,1.343935279350827,NA,59872.59810306597,23154.612150129404
144,11283.53125,8431.0,[37],1,0.8563917005605604,0.16978639927937644,NA,3.5984680285288335,0.4813598655285727,NA,NA,3.9120435979801798,NA,0.49572934716386896,0.5687619016750136,NA,0.7062400026490477,2.269200215802614,56690.243225054015,17516.18430622059
144,4465.078125,3128.0,"[38,31]",2,1.9114320826063331,0.4899072479939859,1.9894726580476845,NA,NA,NA,NA,NA,NA,NA,0.764985364491805,0.5315781080328248,NA,NA,NA,NA
168,266762.9375,147526.0,"[1,2,7,8,12,15,17,26,33,36,42]",11,0.3243194166401975,0.5214892769576052,NA,NA,NA,NA,0.30975320949259855,NA,NA,0.5063831798812702,0.2613334575797892,NA,0.9321092053889951,NA,67052.09000594381,18436.91239717276
168,43416.2734375,24500.0,"[4,5,32]",3,0.27947914682948816,0.22532380085718096,NA,NA,NA,NA,NA,NA,NA,0.5787373000478871,0.26664078925780155,NA,0.9410304347217914,NA,73122.21995676693,15990.430120618184
168,4522.7265625,2468.0,[5],1,1.0075452935383609,0.1365211625229481,NA,NA,0.06813975654204807,NA,NA,NA,NA,0.6511743198810201,0.38698531773215405,1.5216167406759924,0.42850350228447,NA,83087.82938942063,20095.602783857226
168,93524.328125,55428.0,"[4,10,11,14,28,30,35,39,40]",9,0.6014050970195393,NA,NA,NA,NA,NA,NA,NA,NA,NA,0.35452480131982567,0.22579753422705495,2.02905653615569,NA,67040.81282594093,26432.790970664813
168,147839.1640625,55151.0,"[9,13,34]",3,0.3094661337155651,NA,2.177183017150432,1.3846574929350814,3.400874754522277,NA,NA,NA,NA,0.5953858920137182,0.07376801174274128,0.17927653087209772,2.497244458302033,NA,67820.92837565794,20426.177502758183
168,17210.1875,9149.0,"[18,22]",2,1.2455678743612968,0.8524818753427286,NA,NA,NA,NA,NA,NA,NA,NA,0.472277421673839,0.23889805173080603,2.2461665457255484,NA,NA,31235.587758703983
168,28886.78125,15807.0,"[11,21,24]",3,NA,0.7624873575713678,1.9407945521865035,NA,NA,NA,NA,NA,NA,NA,0.49478053979355474,0.33336696562008794,2.379634220506886,NA,NA,32963.57802065608
168,2803.3671875,1158.0,"[19,31]",2,1.4621764191889828,0.5478786619327729,2.377678430171867,2.487674417884747,NA,NA,NA,NA,NA,NA,1.2401946537144237,0.5079171173755894,2.1881349323609167,NA,NA,NA
168,3928.6953125,2117.0,[15],1,0.6244506412672812,0.1623714727237333,NA,NA,0.5963762465433708,NA,NA,NA,NA,0.5831318708043577,0.26057512623266454,1.1288346274447019,0.6006997164771192,NA,78079.97798251256,18566.251821036323
168,52823.296875,29854.0,"[20,25,29,38,41]",5,1.888173939854015,0.43981712836221654,NA,2.6439233368318855,NA,NA,NA,NA,NA,NA,1.001165079116812,0.4492652187591235,2.4103344141329384,NA,NA,NA
168,10688.7734375,6497.0,"[18,21]",2,1.4452713490563542,0.4013600736695899,NA,2.449899823944951,NA,NA,NA,NA,NA,NA,0.7000871352156088,0.3587572330650668,2.16169279211395,NA,NA,37886.81656206166
168,9368.484375,5213.0,"[25,28]",2,1.2884565395758398,0.5681828238467337,NA,2.501942092264955,NA,NA,NA,NA,NA,NA,1.050266187422754,0.496840456634027,2.2523240553359605,NA,NA,NA
168,12083.1328125,5698.0,"[30,22]",2,1.1382611807724003,1.0649510643775728,NA,1.7333241445383987,NA,NA,NA,NA,NA,NA,0.4469676995689329,0.20590913772814645,2.186143193533598,NA,NA,33271.867216761995
168,17788.1328125,10501.0,"[19,31,37]",3,0.7739340709764864,0.23253973186741472,NA,3.3648223608515617,NA,NA,NA,NA,NA,NA,0.7011752210018951,NA,0.9739751995765261,NA,65665.95149768476,25693.32857009219
168,5327.5546875,3390.0,[38],1,1.9928638688246612,0.4250370113179258,2.095285077330862,NA,3.5306247104821895,NA,NA,NA,NA,NA,0.6699931382508777,0.5314270711395805,NA,NA,NA,NA
