time_in_hour,cumulative_size,size,pcore_ids,pcore_power,AF700 CD48_[R 730_B-A],APCCy7 Ly6G_[R 780_A-A],BV421 CD117_[V 440_F-A],BV510 SCA-1_[V 525_E-A],BV605 CD11b_[V 610_D-A],BV650 CD150_[V 660_C-A],BV711 CD11c_[V 715_B-A],BV785 B220_[V 780_A-A],FITC Ly6C_[B 525_B-A],PE CD115_[YG 582_D-A],PECF594 CD135_[YG 610_C-A],PECy5 CD3-CD19-NK11_[YG 670_B-A],PECy7 CD16-32_[YG 780_A-A],PerCPCy5-5 CD45_[B 695_A-A],_FSC-A,_SSC-A
-1,0,0,[],0,0.0,0.0,0.0,0.0,0.0,0.0,0.0,0.0,0.0,0.0,0.0,0.0,0.0,0.0,0.0,0.0
0,117189,117189,"[2,4,5,7,17,18,36,38,43,49]",10,0.29460799769602986,0.18567381629675284,NA,0.4768234242207039,0.3060611014856329,NA,0.017122120361125148,NA,NA,0.32500878486035556,0.1751452133903344,NA,0.5937668214422837,NA,69079.19726254173,13809.12078778722
0,21269,21269,"[4,21,24,39]",4,NA,0.16265140932813305,NA,NA,0.3868668147068526,NA,NA,NA,NA,0.40235326254172765,0.24393557811839006,NA,0.7646150227091065,NA,71431.09238798253,14433.86412149137
0,130272,130272,"[9,10,11,12,13,14,15,16,19,20,32,34,45]",13,0.220091775231823,NA,NA,0.6425674418754612,NA,NA,NA,NA,NA,NA,0.10656237331890273,0.12209991468619574,2.0470367364207194,NA,NA,18484.51436993368
0,7496,7496,[10],1,0.27620552454643166,2.0708337740128178,NA,0.6072506756937006,NA,NA,NA,NA,NA,0.5652021355389526,0.21335719783884954,0.10141174706509848,2.0688907721451404,NA,NA,16946.561366061993
0,5646,5646,[12],1,0.31500629206517794,NA,1.618962842897632,0.6225144596174372,NA,NA,NA,NA,3.7276080593340315,NA,0.15994238806234584,0.11988211760538348,1.9917830851930551,NA,NA,17396.06376195541
0,14699,14699,"[22,33]",2,0.7110885371113653,NA,NA,0.7712824980610851,NA,NA,NA,NA,NA,NA,0.2122470586434435,0.06755707884890183,2.3982870101367455,NA,NA,23069.820804136292
0,10482,10482,[7],1,0.2209043928639598,0.12888875777523,NA,0.5174796535012502,0.44829131787826615,NA,0.10542210627743476,NA,NA,0.3643825036252628,0.1391613885709062,NA,0.7248753155886304,NA,71632.69299751935,14725.43407746613
0,9410,9410,"[16,19]",2,0.7538657771519635,NA,NA,0.8189113624867153,NA,NA,NA,NA,NA,NA,0.30330226981934416,0.11932731264612206,2.1248933459086095,NA,NA,24627.696493092462
0,11081,11081,"[36,21]",2,NA,0.07791086111361833,NA,NA,0.3676507202418602,NA,NA,NA,NA,0.3541794725205305,0.19143829509972088,NA,0.7496610388954065,NA,73048.62738020023,14571.444454471612
24,142159.625,127511.0,"[2,4,5,7,17,18,36,38,43,49]",10,0.28216342790893956,0.17880337151459536,NA,0.5499467034231729,0.2960720286913374,NA,0.0192019145265383,NA,NA,0.3147199254368126,0.1637884904486766,NA,0.5425747019573967,NA,71189.81474522015,15081.069101019357
24,37416.125,34138.0,"[4,15,21,24,39]",5,0.2898134554520282,0.23807259637723277,NA,1.002284003451054,0.44298730641200423,NA,NA,NA,NA,0.4268421372135669,0.22432939950355602,NA,0.6853290860892213,NA,70638.53544427702,16128.273892606423
24,124473.5,108809.0,"[9,10,11,12,13,14,16,19,20,32,34,45]",12,0.2587946645249799,NA,NA,0.7000441903387071,NA,NA,NA,NA,NA,NA,0.06086554117542953,0.1286291323293709,1.9508958432387224,NA,NA,21496.882083335033
24,4860.0,3923.0,[10],1,0.29798141676954604,NA,NA,0.6466276755401297,NA,NA,-0.08852974436728367,NA,NA,NA,0.1573648716821041,0.11095179506172714,1.9908522400205833,NA,65376.831275720135,19954.93991769548
24,4990.75,4285.0,[12],1,0.32245565288283107,NA,NA,0.6599032698241718,2.4596930433802515,NA,-0.09053403436357987,NA,NA,0.5358962804939152,0.124591135275256,0.12193462695987334,1.8779582883083692,NA,63597.61238290831,19727.624104593517
24,17811.375,15974.0,"[22,33]",2,0.7033287857268153,NA,NA,0.8034077935518722,NA,NA,NA,1.1182719630713605,NA,NA,0.1503103101459029,0.07442408184376581,2.325006337087955,NA,NA,25024.979149560382
24,5232.5,4613.0,[15],1,0.41145600059722764,0.4986290528428112,NA,0.832798186598183,NA,NA,0.24405217118967792,0.8941488570950842,NA,0.6260382090062105,0.2578597369565192,0.166556158767321,0.7645767746774977,0.7063010369804095,57178.23755375059,19077.788437649302
24,10334.25,9024.0,[7],1,0.1857472941674545,0.114523424135752,NA,0.6662354174710194,0.40095604289136055,NA,0.16336574601447085,NA,NA,0.33830097378861124,0.1345833814137407,1.3640847363137019,0.6505469976292407,NA,74277.3097225245,15398.840941529354
24,15329.125,13193.0,"[19,20]",2,0.29125054639452475,NA,NA,0.6703906767101842,NA,NA,NA,NA,NA,NA,0.07843938522256799,0.1093356866014874,2.1768170985297663,NA,NA,19957.719439302633
24,8804.5,7917.0,[21],1,-0.08173173540518874,0.023204262266454556,NA,1.1263996896757287,0.4116152844852037,NA,0.22464378989436762,NA,NA,0.2903222484240998,0.1364036099863717,NA,0.6796204312851354,NA,75303.26083252892,12909.822022829187
24,4116.625,3619.0,[36],1,0.46195415540643037,0.16223157571433333,NA,0.7025449924999267,0.17251726514438337,NA,NA,NA,NA,0.47725724194577,0.23125779087844833,NA,0.6635951402544579,NA,75973.34224030616,18801.908845231195
48,142262.75,124934.0,"[2,5,7,17,18,36,38,43,47,49]",10,0.24452662327585428,0.1705167502226308,NA,NA,0.25281829802623035,NA,NA,NA,NA,0.27409670088533533,0.151166671398411,NA,0.5344428843874521,NA,NA,15398.7818174469
48,85791.078125,76849.0,"[4,9,10,12,14,15,34,37]",8,0.2333543650239358,NA,NA,NA,NA,NA,NA,NA,NA,0.37641463427997224,0.1577910999278913,0.10701503043367122,NA,NA,NA,19313.422318645094
48,12865.546875,10879.0,"[24,39]",2,NA,0.06515278360324706,NA,NA,0.04621820628981155,NA,NA,NA,NA,0.34939420367138474,0.188266046998101,NA,NA,NA,NA,15233.36986015212
48,43999.4375,36999.0,"[11,13,19,20,45]",5,NA,NA,NA,NA,NA,NA,NA,NA,NA,NA,NA,0.08516017853069213,2.4203460628058506,NA,NA,20388.77076553536
48,11607.78125,10055.0,"[10,32]",2,NA,NA,NA,0.594775965032881,NA,NA,NA,NA,NA,NA,NA,0.05747494229086647,2.409675898807097,NA,NA,17766.785792935283
48,9990.84375,9367.0,[12],1,0.2680065875019937,NA,NA,0.5659246633182833,NA,NA,NA,NA,NA,0.3378705596546224,0.07319927058681186,0.08434541966863562,2.043458659227044,NA,NA,17532.6240088581
48,20182.796875,18270.0,"[16,33,46]",3,NA,0.5210162708076678,NA,NA,NA,NA,NA,NA,NA,NA,0.3287904031248776,0.13547448429626352,NA,NA,NA,34885.245556433794
48,7489.0625,6835.0,[15],1,0.33529649477362566,0.4995938045483075,NA,NA,NA,NA,NA,NA,NA,NA,0.2495665561881859,0.18124221831420884,0.6513761429668273,NA,NA,18889.052935530966
48,12842.34375,10450.0,"[7,21]",2,NA,0.08606781467556557,NA,NA,0.4065413616430056,NA,NA,NA,NA,0.2682451109695726,0.11627039804845651,NA,0.6764090745264061,NA,NA,14328.786363470426
48,13692.640625,11813.0,"[36,37,21]",3,NA,0.15779945621792502,NA,NA,0.2651934070674393,NA,NA,NA,NA,0.40743631107266687,0.24059690851724147,NA,NA,NA,NA,19286.06221635936
48,12585.828125,11560.0,"[47,46]",2,NA,0.29013565696660093,NA,NA,NA,NA,NA,NA,NA,NA,0.39578719131016316,0.19519782944109954,NA,NA,NA,23923.82320889192
72,149989.888671875,132873.0,"[2,5,7,17,18,36,38,43,49]",9,0.2364946524012883,0.27207482303832986,NA,0.638409542355046,0.3810331395867843,NA,0.010224583612030269,NA,NA,0.30301173758166144,0.159608268723757,0.6780568499436213,0.631111244602322,NA,69287.24051932505,17074.11299639297
72,141223.859375,125807.0,"[4,8,9,10,12,13,14,15,19,20,22,32,34,37]",14,0.2884600276512319,NA,NA,0.8786735639494738,NA,NA,NA,NA,NA,0.4843552927039353,0.2599953371911723,0.14225116350632316,1.6314200617500223,NA,NA,22124.17117548409
72,16776.388671875,14416.0,"[21,24,39]",3,0.21228437199824235,0.12130080202889859,NA,NA,0.26411584468009597,NA,NA,NA,NA,0.34196517861633535,0.18689937396727352,NA,0.7117073664557884,NA,75404.71157810953,15868.873910051458
72,19701.3046875,17116.0,"[8,11,45]",3,NA,NA,NA,1.0882940340157372,NA,NA,NA,NA,NA,NA,0.2020431109402674,0.16985908865866928,2.158870091851368,NA,NA,25358.3575262901
72,3777.5625,2908.0,[10],1,0.2372004530264984,2.034896905094434,NA,0.8454144344696597,NA,NA,NA,NA,NA,0.5399740303560493,0.28814351445365416,0.10780192417398748,2.051262846670718,NA,NA,22642.47176585431
72,10417.576171875,8802.0,"[16,33]",2,1.1433428219651682,0.7908973753047239,NA,1.3734434754562383,NA,NA,NA,0.9791637395604891,NA,NA,0.46269255936060194,0.1384135518156957,2.0657162631495862,NA,NA,40300.21915111541
72,6629.2734375,5722.0,[46],1,1.4690446998725573,0.4312107306875679,0.8383106312207693,1.5368394834095827,1.0491683765598738,NA,0.24678996810989107,0.9195404053420129,NA,NA,0.3873832129572681,0.1917950379501676,1.895677290742289,NA,NA,28823.687418610865
72,13962.23046875,12173.0,"[7,15]",2,0.2542922329978674,0.3730254967957576,NA,0.8986332255522735,0.6124249788473728,NA,0.1653975064027371,NA,NA,0.4283134138108665,0.17786098020245378,NA,0.7962733509210541,NA,68831.380220802,18696.564749039746
72,27849.830078125,23139.0,"[19,20,22,32,16,33]",6,0.6861381964338176,NA,NA,1.0736973308339062,NA,NA,NA,0.9737667959247531,NA,NA,0.3681825485500405,0.11085696123342359,2.172231263273737,NA,NA,NA
72,21685.962890625,19242.0,"[36,21,24]",3,0.21791955898909565,0.14794182040478576,NA,NA,0.23336626791613968,NA,NA,NA,NA,0.3571426643331964,0.19342511514226013,NA,0.7635205459876381,NA,74220.68522471828,16807.960399931086
72,1651.3125,1410.0,[37],1,NA,0.6437730854907109,NA,1.6057179449857601,NA,NA,-0.2180459354017681,1.2608319699694364,NA,0.980003117963692,0.8106085015234079,0.3663298980013515,0.9580771105855658,NA,NA,44250.80912910183
96,112114.73608398438,93366.0,"[2,5,7,17,18,36,38,43,49]",9,0.40543462636432603,0.21093654278887053,NA,NA,0.31611758610228824,NA,0.11757012880837481,NA,NA,0.37273879579008995,0.2118717074741152,NA,0.6592603132322962,NA,70908.65904129817,14870.307763902003
96,7574.3369140625,6581.0,[24],1,NA,0.08918902120113836,NA,NA,0.0858794825532252,NA,NA,NA,NA,0.5331584786320412,0.3005463567208966,NA,0.7874626709886597,NA,75226.18954294309,13692.42564214765
96,8664.711669921875,7561.0,"[21,39]",2,NA,0.10894384296651216,NA,NA,0.501516910979908,NA,NA,NA,NA,0.5012084736664345,0.24146116814137164,NA,0.7241714516021766,NA,76786.54485305551,14486.939595908825
96,95921.72143554688,80156.0,"[9,10,11,12,13,14,15,19,20,34,45]",11,0.20287908041639158,NA,NA,0.9963382857724081,NA,NA,NA,NA,NA,0.49101668692005795,0.10783664704562046,0.15040591132149017,NA,NA,NA,19550.741418819027
96,18498.62158203125,17623.0,"[10,32]",2,0.2136294279015114,NA,2.0028902752227444,1.0319442350247834,NA,NA,NA,NA,NA,0.6024342273321605,0.2006844498493705,0.12090282811303776,2.601855507267978,NA,NA,18560.83754804681
96,4787.10693359375,2495.0,[12],1,0.32789715486457394,NA,NA,0.9425325448753741,NA,NA,NA,NA,NA,0.5487635527753268,0.2546861824292437,0.15537015239991103,1.8306784193012655,NA,66215.63897574402,20094.94868326637
96,31620.37548828125,27973.0,"[14,19,22,33]",4,0.6915037820269276,NA,NA,1.020191160375592,NA,NA,NA,NA,NA,0.6203823121128266,0.2437056403307114,0.09342129322167803,2.4328530049538344,NA,NA,21274.167676785753
96,14122.986328125,12295.0,"[24,21]",2,NA,0.09640700604095098,NA,NA,0.3170038988221897,NA,NA,NA,NA,0.5077590868503586,0.26682481908390887,NA,0.8040192462958763,NA,75285.74370157036,13645.371916267333
120,101900.34201049805,87886.0,"[2,5,7,17,18,36,38,43,49]",9,0.34303910113635094,0.24061747518599308,NA,NA,0.35876941749031754,NA,0.1471731147849713,NA,NA,0.3817621771551629,0.2493028174554488,NA,0.6121237519905413,NA,69830.37374474615,14396.820872824417
120,133670.21517944336,121680.0,"[9,10,11,12,13,14,15,19,20,34,45]",11,NA,NA,NA,1.1001803063046522,NA,NA,NA,NA,NA,0.38279064681821506,0.09321561692392466,0.13715863913582382,NA,NA,65415.941696012174,18295.377659460635
120,54119.487701416016,49596.0,"[22,32,33]",3,NA,NA,NA,1.1589846396283212,NA,NA,NA,NA,NA,0.5168013025053103,NA,0.07538863641035565,2.749271607279016,NA,NA,19067.56560265632
120,3989.3883666992188,3391.0,[12],1,0.3572009849529345,NA,NA,0.9945269408231483,NA,NA,NA,NA,NA,0.5173191558075471,0.27887218978512074,0.15788623614239383,1.8206283579471827,NA,NA,17906.00085912124
120,10107.992889404297,8625.0,[5],1,0.4449543707662338,0.22224925636375348,NA,0.7383855773894754,0.12110712531146017,NA,-0.06869993532361729,NA,NA,0.39656345748647437,0.2759602351736792,0.9649631016871694,0.5951545357315883,NA,69923.98503718578,14823.395942845678
120,22133.73419189453,18853.0,"[7,21,24]",3,NA,0.09939420993577786,NA,NA,0.44375490116650296,NA,NA,NA,NA,0.48760896737848103,0.24767982224795926,NA,0.7891590705595873,NA,73130.71988353523,13901.734322951543
120,9846.862518310547,8883.0,"[14,19]",2,0.47234148126208453,NA,NA,0.9666155764178574,NA,NA,NA,NA,NA,0.5000314601405643,0.2505308263465209,0.1301024552250195,1.9843299758555033,NA,NA,19519.322008224986
144,94124.54275131226,81387.0,"[2,5,7,17,18,36,38,43,49]",9,0.4340903593661951,0.1623380484542265,NA,NA,0.3078348008521141,NA,0.21631611812673546,NA,NA,0.40637846075289075,0.2358726199607708,NA,0.7018462524871266,NA,70326.07285437817,14260.605641368391
144,31204.67077255249,28374.0,"[5,21,24]",3,NA,0.01900154889114125,NA,NA,0.30195656466810306,NA,NA,NA,NA,0.5108848141407368,0.24676411429674783,NA,0.8459451490427897,NA,71400.04582406022,13593.100391315571
144,146729.04063415527,125360.0,"[10,11,12,13,14,19,20,22,32,33,34,45]",12,NA,NA,2.190002567916794,NA,NA,NA,NA,NA,NA,0.4944319850836508,0.03959263963554882,0.1540554443064529,2.5906673516219154,NA,65953.5939074365,17764.437144060157
144,2776.6735458374023,2278.0,[12],1,0.34880928051302695,1.9289789638321126,NA,1.1001541933478656,NA,NA,0.4140901225392364,NA,NA,NA,0.18169102322882003,0.18590137468262424,2.0051148790091404,1.5305326599125932,NA,17300.528905243744
144,6571.857814788818,5341.0,"[14,19]",2,0.5369650721169459,NA,NA,NA,NA,NA,NA,NA,NA,NA,0.18174837513469466,0.16143864697581323,2.196826267819281,NA,NA,18898.449956375778
144,7057.960567474365,6364.0,"[37,39]",2,0.9585847615283101,0.23266110353575042,NA,NA,0.22389338880718546,NA,NA,NA,NA,0.6392579209083228,0.44812929874384366,NA,0.41721687949006114,NA,81398.14421111855,22130.444455813646
168,82077.20518350601,71420.0,"[2,5,7,17,18,36,38,49]",8,0.25290877422657254,0.2162957272940691,NA,NA,0.44120645650301427,NA,0.2324891814311827,NA,NA,0.400145075885746,0.22090925680441487,NA,0.6965136704774321,NA,68985.73584894597,16064.374400504612
168,105337.63689184189,101317.0,"[4,9,12,14,15,16,19,34,37,46]",10,0.39370667277480864,NA,NA,NA,NA,NA,NA,NA,NA,NA,0.31234836598705007,0.19806205379089337,NA,NA,NA,24001.32121135503
168,64495.5151925087,53108.0,"[10,11,13,20,45]",5,NA,NA,2.2210610242398894,NA,NA,NA,NA,NA,NA,0.5432485368077383,-0.008353216543517394,0.15539469474811862,2.4456197183086856,NA,NA,19980.258155466003
168,14648.755120277405,11669.0,"[10,32]",2,0.17395455990024056,NA,2.1733305329618866,NA,NA,NA,NA,NA,NA,0.6494073286688394,0.1547676860577618,0.1368283546386636,2.52394384270873,NA,NA,19379.843472165525
168,8955.084193229675,8608.0,[12],1,0.28654656744130813,NA,NA,NA,NA,NA,NA,NA,NA,0.625678716756849,0.21825613964546298,0.16202809849057342,1.6990514283066998,NA,NA,21148.417595080264
168,9339.562388896942,8172.0,[5],1,0.37219619387677705,0.12703254322385416,NA,NA,0.07969493815988304,NA,NA,NA,1.1977963085364585,0.39346345228669466,0.24693585824207887,0.9894201983326321,0.6859897552566513,NA,69715.82955450876,15373.39357789293
168,33858.95225715637,28685.0,"[7,21,24,43]",4,0.06291193383722526,0.05078687977345098,NA,NA,0.4455897416234582,NA,NA,NA,NA,0.5424887575978182,0.2394947793019342,NA,0.8800481606175742,NA,73421.43351479924,15288.690554117296
168,35920.25854587555,31093.0,"[14,19,22,33]",4,0.6462150720922546,NA,NA,NA,NA,NA,NA,NA,NA,0.7306030990100226,0.23074197439679178,0.10844095171596291,2.217854171812114,NA,NA,23167.06672914471
168,13086.251217365265,10908.0,"[16,32,33]",3,NA,NA,NA,NA,NA,NA,NA,NA,NA,NA,0.37952666161515447,0.19495747580413803,2.2352812530388135,NA,NA,31391.748294393714
168,18127.690460205078,16315.0,"[38,15,37]",3,0.4459479872501202,0.2558230841934397,NA,NA,0.4465880919437182,NA,NA,NA,NA,0.5659308485674578,0.4501835041354929,NA,0.7055216175485804,NA,NA,21026.647375785793
