time_in_hour,cumulative_size,size,pcore_ids,pcore_power,AF700 CD48_[R 730_B-A],APCCy7 Ly6G_[R 780_A-A],BV421 CD117_[V 440_F-A],BV510 SCA-1_[V 525_E-A],BV605 CD11b_[V 610_D-A],BV650 CD150_[V 660_C-A],BV711 CD11c_[V 715_B-A],BV785 B220_[V 780_A-A],FITC Ly6C_[B 525_B-A],PE CD115_[YG 582_D-A],PECF594 CD135_[YG 610_C-A],PECy5 CD3-CD19-NK11_[YG 670_B-A],PECy7 CD16-32_[YG 780_A-A],PerCPCy5-5 CD45_[B 695_A-A],_FSC-A,_SSC-A
-1,0,0,[],0,0.0,0.0,0.0,0.0,0.0,0.0,0.0,0.0,0.0,0.0,0.0,0.0,0.0,0.0,0.0,0.0
0,127586,127586,"[1,2,3,7,12,17,20,24,40,44,52,57]",12,0.16953413540205772,0.2360624399955946,0.32870161727204844,0.2859995663414876,0.2645056263086443,0.2249938341494991,0.2520483718189495,0.4890903822361931,0.17420858672320408,0.10698295042576975,0.24842877455253767,0.21403240685353636,0.14812781132639025,0.2724290549292625,0.19917306787129596,0.05059708133202896
0,107180,107180,"[34,37,38,39,41,42,47,48,49,50,51,53,55,56,63]",15,0.16890273105538572,0.40039153213724266,0.48422724368434533,0.30522884245742393,0.49557980888151615,0.22166172190572117,0.2696547376172034,0.32165797977046834,0.5495473891483952,0.1378698273543628,0.24643894524048574,0.10074440047011268,0.32060471337089685,0.3722994727839451,0.1913624520710466,0.07567357520699773
24,160223.4375,151805.0,"[1,2,7,12,17,20,24,40,44,52,57,59,64]",13,0.16999401343613996,0.23652701232254367,0.3483666463624893,0.29807421311956295,0.2621840549802826,0.23215973858663946,0.25206140927730475,0.4719096364983643,0.18398814994174875,0.10585025936066728,0.24866401834477964,0.20308525593144086,0.13991207522947394,0.269225393462965,0.2109436838226354,0.059251504544881844
48,136703.453125,128259.0,"[1,2,7,12,17,20,24,40,49,52,57]",11,0.16338224287092626,0.23748407778005942,0.3315545359106771,0.2850501081534905,0.2594057889793258,0.22068201980033433,0.2547338340406992,0.4651739787348633,0.18985926402261502,0.09827310133768057,0.24561871969579346,0.17984752939366674,0.1384608895254025,0.221875965077728,0.19202571503448934,0.057456390814152165
48,44164.0703125,41272.0,"[50,51,53,55,56,63]",6,0.14653979940015452,0.3742771906376857,0.4788674523269456,0.2934581046563773,0.4672119400599373,0.13012312537791984,0.30020156801162634,0.2950994074016912,0.5419635762567129,0.10474378772918105,0.23614243769534105,0.09251814190551959,0.27887898470773737,0.27732678064574895,0.17326592201435737,0.07324205100642518
72,160643.62280273438,150867.0,"[1,2,7,12,17,20,24,40,44,52,57,59,64]",13,0.16725796332484758,0.24986166299876375,0.3352764353003295,0.309520062536754,0.27622080776517605,0.22862929326910914,0.2509312381771748,0.47254357105492145,0.1955709956240868,0.10545833251938275,0.24990477453892104,0.17782278795796244,0.15488124223295544,0.2617263290019434,0.20057811960773567,0.06845052635884222
72,39932.937744140625,37904.0,"[53,55,56,62,63]",5,0.1558885498110296,0.38981134914476173,0.4495401499973065,0.330425625260289,0.4861955102722371,0.1290047510655424,0.2982362644864946,0.32417268510056974,0.501437312390421,0.12033526750098594,0.25091239518574027,0.10280092048973233,0.2974850759756073,0.356669730380539,0.20180964295875542,0.08850334369591996
96,119323.21743774414,110177.0,"[1,2,12,20,24,40,44,52,59]",9,0.18565722520461692,0.24194047536026358,0.33682923002249204,0.32605666024067687,0.2684289266633142,0.22680721827741063,0.26543028068105257,0.517165639383809,0.18042848439906997,0.11587804972059132,0.256014573351636,0.2388558241951167,0.15794151948304394,0.2988384742444632,0.20693962726447682,0.05701738093278954
96,19038.68846130371,17086.0,"[2,12,20,64]",4,0.19292288899642593,0.2453413168970435,0.36940423659442123,0.33171721215878375,0.2754363678868608,0.22408840102065816,0.27120552564854167,0.5065945548778358,0.2365927186069179,0.12234337677310465,0.25816694408399044,0.23877630538898068,0.16216173201973266,0.31235525198167535,0.20926138233840294,0.06219420403368027
96,96828.28067016602,88658.0,"[39,41,43,46,47,48,50,51,53,55,62,63]",12,0.17739378957684768,0.4491292394803909,0.4926897705624529,0.345578592768231,0.536016738408874,0.23073277628007632,0.30057830223595916,0.3518790319034246,0.535328206214233,0.13916413412695058,0.250002417509126,0.10319211058256245,0.35999958538434584,0.4346070721455736,0.19597140175209002,0.07937515997412316
96,24395.962188720703,19346.0,"[41,47,48,50,51,53,55]",7,0.18018577210773107,0.392494276690824,0.47759838826770246,0.34195654694426975,0.4842196910112901,0.21624802383073352,0.29968487615563627,0.34243731998041044,0.5197700519108477,0.13811800082140438,0.25775609994313947,0.10588034157983539,0.3114211778133017,0.3676245754128796,0.19012895522878293,0.08282748267947891
120,111326.70108985901,103869.0,"[1,2,12,20,24,40,44,52,59]",9,0.1769061845808555,0.24661306929023616,0.35644124406092587,0.3295126309815483,0.27478372308912563,0.22787695118295212,0.26729794559650627,0.4901054559881648,0.18986207520039164,0.11554430898759116,0.2597827081447586,0.21961472831352719,0.15218757944203873,0.2935549048542525,0.1994746325868851,0.05609434567442616
120,199118.83514022827,190269.0,"[9,10,11,14,16,18,23,28,29,32,33,34,36,37,38,39,41,43,47,48,50,53,55,62,63]",25,0.17761183055037721,0.4523239569270168,0.5308175291345161,0.35899930591395046,0.5669141031325585,0.24569043215047942,0.3065787305911568,0.35950087374173884,0.5542765465072826,0.1277634517642336,0.25153780273419024,0.10013523928323759,0.3817122604049811,0.4645418667418392,0.1900255660183256,0.07907229795174689
120,29225.247636795044,28074.0,"[11,14,18,23,28,29,32,34,36,38]",10,0.2216403192829583,0.3673037627098415,0.5699212890859746,0.37938868137154846,0.5497675219580033,0.36124364513038354,0.27436340540906917,0.3655834929464688,0.5848401497420372,0.1515956098390804,0.2721819313150805,0.10186887359598387,0.36536158493115123,0.43441289719919035,0.2034276229521674,0.10528881025018609
120,29712.442091941833,27582.0,"[10,33,41,47,48,50,53,55]",8,0.1810021273878155,0.3712317175301522,0.5411783064177428,0.3665366853634359,0.5444551544680221,0.14779234599656463,0.3384562742348124,0.3493939396099581,0.5732018664023517,0.12842680276058724,0.25130605796865063,0.10404041551312224,0.34487458636418267,0.41486149350672075,0.19259337258973958,0.08924199576659476
144,102871.71317470074,96591.0,"[1,2,12,20,24,40,44,52]",8,0.18188480998008108,0.23344349255123878,0.3314661919246552,0.39053229824727065,0.2657947516994539,0.22783096863883834,0.2758402359093472,0.5455921262944304,0.1820607024630461,0.11714075801835486,0.25558281956431345,0.2746445424375382,0.16219678299788376,0.3486138280366189,0.20340827102546347,0.05293386292578369
144,150391.7966441512,137961.0,"[9,11,14,18,23,28,32,33,34,36,37,39,41,43,47,48,50,53,55,62,63]",21,0.1792712095165393,0.4565681641162623,0.5224571187662136,0.38272657297983986,0.5708340552683066,0.24717892297718147,0.3183484796668721,0.3627907803568866,0.5392842784016317,0.13977574121807868,0.24183310614213385,0.10769525808679788,0.38408571225323196,0.4677385098827898,0.18879547326013887,0.07538419853880726
144,13262.01749688387,11435.0,"[11,14,18,23,28,32,34,36,51]",9,0.23105319387277876,0.3570028277305656,0.5695777253512816,0.4103671421276481,0.5503703996728394,0.3787967418247383,0.28018391422570316,0.37376536822260165,0.5779279219640195,0.17096702102999786,0.2672561615406145,0.11257556346554706,0.3662874534795497,0.4391936423243084,0.20272773372569447,0.10722208795346919
144,11266.275374948978,9410.0,"[33,41,47,48,50,53,55]",7,0.1947134032628164,0.3526736905643854,0.5503193200950833,0.4040624608484192,0.5451489156309024,0.1481318404882741,0.35257617055470636,0.3540403096867112,0.5662967209450792,0.1484798618453625,0.24754749130850093,0.115707426840706,0.35133143491477375,0.4288082223046758,0.18937274163497947,0.09072078403378726
168,38946.07666024938,35442.0,[62],1,0.15537629608867973,0.4470660413837295,0.521809617736373,0.38993646659453723,0.5705573758933039,0.09409220047322898,0.36622771626689543,0.34076850761237526,0.5044053446460985,0.1385485255356561,0.22947307898208444,0.10616993164604129,0.36441414842606984,0.4270621665271372,0.19385348765297866,0.07869363349605574
