time_in_hour,cumulative_size,size,pcore_ids,pcore_power,AF700 CD48_[R 730_B-A],APCCy7 Ly6G_[R 780_A-A],BV421 CD117_[V 440_F-A],BV510 SCA-1_[V 525_E-A],BV605 CD11b_[V 610_D-A],BV650 CD150_[V 660_C-A],BV711 CD11c_[V 715_B-A],BV785 B220_[V 780_A-A],FITC Ly6C_[B 525_B-A],PE CD115_[YG 582_D-A],PECF594 CD135_[YG 610_C-A],PECy5 CD3-CD19-NK11_[YG 670_B-A],PECy7 CD16-32_[YG 780_A-A],PerCPCy5-5 CD45_[B 695_A-A],_FSC-A,_SSC-A
-1,0,0,[],0,0.0,0.0,0.0,0.0,0.0,0.0,0.0,0.0,0.0,0.0,0.0,0.0,0.0,0.0,0.0,0.0
0,130775,130775,"[2,4,6,10,17,21,24,25,26,27,35,43,44,49]",14,0.34901090314662175,0.2152849273714339,NA,0.5944570823934257,0.4184792521200489,0.26100091234563183,0.010698063467783125,NA,NA,0.42730613975912723,0.2050663694895749,0.9412115850659539,0.6967883554731406,NA,69336.93393997324,15253.716688969569
0,159977,159977,"[8,9,11,13,14,15,16,18,19,20,22,23,28,30,31,32,33,37,38,39,40,41,45,47,48,50,51]",27,0.39096367551585587,1.6500729611194043,NA,0.7825838319883527,NA,NA,0.1256810681473035,0.8008363524319155,NA,0.722517209642635,0.21041072615437972,0.21398180279040158,1.9738160949323964,NA,69606.55954293438,22739.972471042678
0,81531,81531,"[9,11,14,15,18,19,20,22,23,27,28,30,31,32,33]",15,0.4058577103678367,1.5683942847628507,NA,0.7713193645484582,NA,NA,0.07870850731624346,0.8273810233898802,NA,0.7165446663600362,0.23840173637021733,0.22432102058112924,1.8745790791600725,NA,68817.13213378956,22038.20622830579
0,45053,45053,"[4,10,17,21,24,25,26,35]",8,0.38119473828601813,0.22950871067408896,NA,0.6076034688034144,0.43043253334960996,0.2666453067054366,0.05387587117395132,NA,NA,0.4610785222959617,0.2184493353383825,0.8187559135240705,0.6534096475040524,NA,69809.2632233148,15936.840965085583
24,147762.75,139827.0,"[2,4,10,17,21,24,25,26,35,43,44,49]",12,0.33461288122598076,0.18126748495561307,NA,0.6888693407003013,0.3484909637438247,0.2904796002912575,0.009493374008758604,NA,NA,0.3957904276805223,0.19022406896189858,0.9216411617770686,0.614955985433154,NA,72182.25020852688,16761.370345367795
24,97688.875,92909.0,"[28,30,31,32,33,36,37,38,39,40,41,42,45,47,48,50,51,53]",18,0.4375775591591129,1.4801859257374579,2.0846357727357483,0.8753036356058792,NA,NA,0.21263734047760652,0.8519325447306576,NA,NA,0.16454373553090518,0.2151554645456054,1.9066751552767625,1.6086576716520868,70482.51940663665,27018.634865024276
24,14375.6875,13444.0,"[30,31,32,33]",4,0.41871915574037466,1.1926907892405212,NA,0.8893056500210808,NA,NA,0.23960437872101803,0.920700467816741,NA,0.6757258829708171,0.21515768892356935,0.2673696428127387,1.5558798300733434,NA,68278.45610862086,25270.434127063472
24,76722.8125,73633.0,"[4,10,17,21,24,25,26,35,43]",9,0.368865386348582,0.21963235092805755,NA,0.7887309277903873,0.4235332360323052,0.3238241412251093,0.04452650723832363,NA,NA,0.4590944822302675,0.2244593672050006,0.8899858868328769,0.6528310096809539,NA,72350.64048258145,18085.030811403034
48,150371.7734375,141146.0,"[2,4,10,17,19,24,25,26,35,43,44,49]",12,0.3185568227364801,0.19003629054647186,NA,0.6281598471789622,0.3154412193877567,NA,-0.0021868176988202315,NA,NA,0.38820508493384065,0.1782310733195569,NA,0.637445652078417,NA,67970.63849884132,17014.573604888705
48,151.78125,50.0,[21],1,0.9268550514206291,0.5237922860047322,NA,NA,NA,NA,NA,NA,NA,NA,0.6067306609275303,0.4883938017809353,NA,NA,NA,24114.829730286194
48,112382.92578125,106568.0,"[27,28,32,33,37,39,41,50]",8,0.2488180404259901,NA,NA,0.6595983213049559,NA,NA,NA,NA,NA,0.4302900438525422,0.13620964551387926,0.12432457320123014,NA,NA,63966.83911969645,20277.143037151523
48,8564.0703125,8309.0,[38],1,0.510707273439351,NA,2.863524546886025,0.8541013437001959,NA,NA,0.8734949670489249,NA,NA,0.33928088384521093,-0.006851584009690992,0.11998935207548478,2.470845120360224,NA,70362.63283832063,30846.92399295375
48,10743.484375,9064.0,"[28,33]",2,0.5626862758874223,NA,NA,0.678192725992711,NA,NA,NA,0.994750042503247,NA,0.5906801407099166,0.17817363207423176,0.054132493884738064,2.4740798340400394,NA,NA,21364.729424665726
48,51485.91015625,49046.0,"[10,17,19,25,26,35]",6,0.4137671792918498,0.17570009958034394,NA,0.8178466131033386,0.3727826623173569,NA,-0.025411514127087198,NA,NA,0.5451442996315076,0.19910132300341488,NA,0.8085739324610411,NA,70192.07291436609,17853.61924185413
48,9480.46484375,9119.0,"[41,49,38]",3,0.5124618932970217,0.8604768244712973,NA,0.8824919499167474,NA,NA,0.8137165701749347,NA,NA,0.3685837410794187,0.0364428141066333,0.14844683022366179,NA,NA,NA,30141.476257715716
72,168767.52221679688,159797.0,"[2,4,10,17,21,24,25,26,30,35,43,44,49]",13,0.29094447445539817,0.39413716174771185,NA,0.7995108797818946,0.570592112301683,0.2637983639651371,-0.0003060261540261955,NA,NA,0.386203338044823,0.20170449574159077,0.6947248296305915,0.7632654350413529,NA,69909.58540543065,19073.159905671906
72,134907.96801757812,126450.0,"[27,28,31,32,33,37,38,39,40,41,46,47,48,50]",14,0.4227310985753263,1.482948282104413,1.6029891707210076,1.0505445786308258,2.2560855504432626,NA,0.10543787154289141,0.8470187132257547,NA,0.6574506634383134,0.3253496107814309,0.1975582785085207,1.7488203500191144,NA,71884.87478531121,27696.70758355903
72,13118.09326171875,12263.0,"[28,30,31]",3,0.6883315766050799,1.4749053533235807,NA,1.2022014603237645,NA,NA,-0.3360920833702936,1.0199803470111335,NA,0.8543031926174517,0.45286260118162014,0.20702654548027533,1.9036300207158279,NA,75904.06352390404,31046.18432817405
72,62.4306640625,40.0,[33],1,0.66554571769854,1.2849875527694787,NA,1.1275791995143059,NA,NA,-0.17657167497536141,0.9525591491654803,NA,NA,0.3175672045589657,0.22873455148680555,1.9469084812721915,NA,NA,26091.762799355536
72,58133.948486328125,52667.0,"[4,10,17,21,24,25,26,35,43]",9,0.33377024871295013,0.5422308898501877,NA,0.8884270949069535,0.7726719247962368,0.31210827549162246,0.04768740816904682,NA,NA,0.4626361323933408,0.25100966724547025,0.5418158133783044,0.8451092167586208,NA,68652.64750382662,21412.933832494295
96,123299.59706115723,113308.0,"[2,4,10,17,21,24,25,26,35,43,44,46]",12,0.4860532278243963,0.29833791537710175,NA,0.97221067512131,0.48777204446395883,0.2653501583480833,0.16954770877213887,NA,NA,0.4912706816922713,0.2680528422245616,1.1004260767433534,0.7912365792980155,NA,70944.25131379886,16459.270254921736
96,127353.7798461914,119828.0,"[28,30,32,33,37,38,39,40,41,45,47,48,49,50]",14,0.44815993882904537,NA,1.9679188889202304,1.1987955477580394,NA,NA,0.5490338832606585,1.130172836193021,NA,0.7070625205994158,0.23362310957615984,0.22980984804954918,2.27021885729914,NA,70329.71291538276,23290.384333106223
96,27396.960021972656,25480.0,"[30,32,33]",3,0.42665962932660073,NA,1.8121393954464673,1.1746771816039034,NA,NA,0.4989419216563906,1.1145951452846599,NA,0.6791212478759995,0.22516805788752103,0.23404313811516497,2.158646772138592,NA,68333.09714018938,21043.35628610098
96,24698.187866210938,22312.0,"[4,10,17,21,25,26,35]",7,0.5262013095537563,0.31620561261093316,NA,1.005102207820162,0.521998083004183,0.28059159936988953,0.203967770357949,NA,NA,0.5424570920789947,0.29204927123682767,1.0034941633098922,0.7838290291265434,NA,71763.76854768986,17456.099864044743
120,104808.48941421509,97453.0,"[2,4,10,17,21,25,26,35,43,44,46]",11,0.4248410893575967,0.3038377088117099,NA,1.0215927083375034,0.5126991650529935,0.2667564638910893,0.18231718726050294,NA,NA,0.4774983680747237,0.2981975647396298,1.0242268121001137,0.7390879806710046,NA,69406.04760899901,15798.925142526983
120,184099.62141990662,175992.0,"[28,30,32,33,36,37,38,39,40,41,45,47,49,50]",14,0.3913243095854537,NA,2.143941823509737,1.250709374055019,NA,NA,0.5984094599852434,1.1649148153811986,NA,0.5951739694330026,0.21393388089250553,0.20271889930838438,2.4308316370525214,NA,67418.46687093884,21090.165468038005
120,5336.132057189941,4605.0,"[30,32,48]",3,0.6962840982982137,NA,NA,1.4536787608749884,NA,NA,0.6604341102801121,1.2419289214244107,NA,0.809825154455163,0.4661607961153531,0.38725019199413724,1.8386988949555803,NA,67251.61134631663,23086.40657031545
120,32296.636741638184,30753.0,"[4,10,17,21,25,26,35]",7,0.4335945624911215,0.3111426516304405,NA,0.9472656479939352,0.48906809437609233,0.26784414582803273,0.17453912252625958,NA,NA,0.480474385776807,0.30681627906705655,0.8191556923138223,0.6487302006437855,NA,69895.90327646374,16102.678470088465
144,109090.21143847704,103016.0,"[2,4,10,11,17,21,25,26,35,44,46]",11,0.477289502698947,0.16757879147268007,NA,NA,0.3943179459436843,0.2972195311147323,0.2691275313330488,NA,NA,0.5104698269872306,0.27023589103391465,NA,0.7941037283210958,NA,70525.45569411086,15292.029351353529
144,157387.14203202724,145391.0,"[28,30,32,33,36,37,38,39,40,41,43,45,47,49,50]",15,0.40768790723366277,NA,2.0745779929524564,1.485046920240169,NA,NA,0.7187222728314295,1.1768404526069922,NA,0.6912846060181356,0.13790158509724826,0.2749872916163656,2.4013321760846362,2.121401984431878,67263.8105994387,20285.19106421948
144,1083.5082535743713,750.0,"[30,32,48]",3,0.8862985265198329,1.108647517651614,NA,NA,NA,NA,NA,NA,NA,NA,0.5517232102526282,0.6641608255907117,1.753718325667868,NA,68223.45764909172,24655.069353138217
144,19136.91180127859,18448.0,"[11,17,25,35]",4,0.5805150717785919,0.17450416832822802,NA,NA,0.4564142531874795,NA,0.3136897947557715,NA,NA,0.5956972876578609,0.30044014666393704,1.6146723850192113,0.8866333216352956,NA,71776.34403685838,16535.024672808697
168,92494.13821490481,85676.0,"[2,4,10,11,17,21,25,26,35,44,46]",11,0.3221056612658235,0.2144929893833063,NA,NA,0.5022196238655865,NA,0.3128518046714608,NA,NA,0.5263547204561397,0.27835701476429264,1.1156154479152618,0.8121829628178442,NA,70751.26133276477,17282.576567066335
168,121845.76785243675,117201.0,"[37,38,39,40,41,42,43,49,50,53]",10,0.37714642477636184,1.4648198610006729,1.7788925895228531,1.6335700534348834,NA,NA,0.6176323786426967,1.0418330256817807,NA,0.8044610363183254,0.23637959880475012,0.2728932073168052,1.8085450579643854,NA,67250.81769717428,24679.277554950917
168,28545.73386786133,27984.0,"[38,39,40,41,42]",5,0.6183337024245921,NA,1.894101371256237,1.818401540366085,NA,NA,0.37801934437402496,1.1511603401210504,NA,NA,0.36625562858969607,0.2831436828705637,1.949517759735914,NA,69643.3561167744,27697.30403060149
