time_in_hour,cumulative_size,size,pcore_ids,pcore_power,AF700 CD48_[R 730_B-A],APCCy7 Ly6G_[R 780_A-A],BV421 CD117_[V 440_F-A],BV510 SCA-1_[V 525_E-A],BV605 CD11b_[V 610_D-A],BV650 CD150_[V 660_C-A],BV711 CD11c_[V 715_B-A],BV785 B220_[V 780_A-A],FITC Ly6C_[B 525_B-A],PE CD115_[YG 582_D-A],PECF594 CD135_[YG 610_C-A],PECy5 CD3-CD19-NK11_[YG 670_B-A],PECy7 CD16-32_[YG 780_A-A],PerCPCy5-5 CD45_[B 695_A-A],_FSC-A,_SSC-A
-1,0,0,[],0,0.0,0.0,0.0,0.0,0.0,0.0,0.0,0.0,0.0,0.0,0.0,0.0,0.0,0.0,0.0,0.0
0,119589,119589,"[1,2,3,7,32,40,44,56]",8,0.2604473280736548,0.14218934701352115,NA,0.49661418362056775,0.26661907512396166,NA,0.009231374524410363,NA,NA,0.30590433974696685,0.15950027016698698,NA,0.5893117806905278,NA,69513.38360551557,13217.477861676225
0,38978,38978,"[2,3,32,41,55]",5,0.34905584588742244,0.22596863779567888,NA,0.5290363018625874,0.2990906249935801,NA,-0.09322340099542892,NA,NA,0.3970879938170252,0.22974477243573244,NA,0.5563062119400656,NA,NA,14166.31576786908
24,140971.625,126023.0,"[1,2,3,7,32,40,44,56]",8,0.24316269489427333,0.12818423461814277,NA,0.5615813966152743,0.22792395524187814,NA,0.008855823248112848,NA,NA,0.29064243935437506,0.14743242106434273,NA,0.5175457192724059,NA,72043.85489633103,14301.663785176588
24,49684.125,45072.0,"[2,3,32,41]",4,0.30334274727843047,0.17967784556435262,NA,0.5557232068668738,0.26524343605728884,NA,-0.02603164318834761,NA,NA,0.3362259647045197,0.1831254478694171,NA,0.48560239313361986,NA,NA,14689.495930541252
48,141325.859375,123259.0,"[1,2,3,7,32,35,37,40,41,44]",10,0.23471270523938514,0.14924320190771034,NA,NA,0.23146327245013598,NA,NA,NA,NA,0.2845690780420481,0.14301630976671476,NA,0.5409573287755328,NA,NA,15284.140358690087
48,14642.8125,13361.0,"[55,56]",2,0.34282611616621095,0.504815126961824,NA,NA,NA,NA,NA,NA,NA,0.4382416353735823,0.31774855116417955,0.18861512057003238,0.5882508119950022,NA,NA,19724.683833792173
48,28915.65625,25778.0,"[3,32,35,37]",4,NA,0.17136996362372692,NA,NA,0.19675700006105412,NA,NA,NA,NA,0.4021426672088314,0.18978942165846746,NA,NA,NA,NA,17498.663582985395
72,144449.376953125,127381.0,"[1,2,3,7,32,37,40,41,44]",9,0.23344495453580416,0.2228021275272507,NA,0.651198798428358,0.311881288850814,NA,-0.010586246139920874,NA,NA,0.29534067683563836,0.1554026484357398,0.7443305967197802,0.612047100137103,NA,69888.82013334014,16838.493024717573
72,57313.22265625,49627.0,"[2,3,32,37,55,56]",6,0.2892143170316479,0.3835088622636946,NA,0.7218537100696922,0.49032906291574285,NA,-0.06194999580614713,NA,NA,0.3616629850343357,0.21336667071387083,0.5035765236830085,0.6460256769311804,NA,NA,18184.628050423238
72,43030.888671875,38315.0,"[51,52,53,54,59]",5,0.2749585732994757,NA,NA,0.8458507871592609,NA,NA,NA,NA,NA,0.44857873964246575,0.21980781268528693,0.13857678311537247,1.6126515575754397,NA,NA,22456.707703473287
96,104623.96728515625,88066.0,"[1,2,3,7,32,40,44]",7,0.40681079001953124,0.16586280311337642,NA,NA,0.2480901052302693,NA,0.09010509554378876,NA,NA,0.35805825321766016,0.19958694287806855,NA,0.6454352804581719,NA,71608.59278739995,14379.548233313288
96,58671.077392578125,52775.0,"[8,15,26,27,36,45,52,53,59]",9,0.5046816092558368,NA,NA,1.0265191092189725,NA,NA,NA,NA,NA,0.6109663158222106,0.21934087165741945,0.10720002172227894,2.481422141667534,NA,NA,19932.004961801784
96,43383.045654296875,40816.0,"[9,33,34,54]",4,NA,NA,NA,1.0698029960337103,NA,NA,NA,NA,NA,0.44004179996975845,-0.00988565182638057,0.15550552129605122,2.5584960676042425,NA,NA,19731.340628273458
96,46417.15869140625,38263.0,"[3,7,32,40]",4,0.4574725990007735,0.18104759918701463,NA,NA,0.2103100210403972,NA,0.010012566088298591,NA,NA,0.38827135193651907,0.22318364354415454,NA,0.6828533856148661,NA,71846.18708331622,15273.969871875957
120,88171.53845214844,81222.0,"[8,15,26,27,45,52,53,59]",8,NA,NA,NA,1.1181914835036797,NA,NA,NA,NA,NA,0.5006884896701361,0.22307210174233072,0.08953081959944065,2.6511921062527968,NA,66285.77554456168,18647.20602834675
120,65461.88070678711,60039.0,"[9,33,34,54]",4,NA,NA,NA,1.1600873573340587,3.6828142832952735,NA,NA,NA,NA,0.3048223162822612,NA,0.1373392607906424,2.680817949295609,NA,66260.94484271019,18372.151447940454
120,23248.434478759766,21158.0,"[26,33]",2,NA,NA,NA,1.24325274744939,NA,NA,NA,NA,NA,0.46482822574017113,NA,0.1191348140700571,2.764299156872385,NA,67098.08531935542,19671.32982156796
144,79375.47047805786,67654.0,"[8,11,15,26,27,36,45,52,53,59]",10,NA,NA,2.180710443607009,1.2813704995013238,NA,NA,NA,NA,NA,NA,0.1356344550620463,0.13153314167837937,2.612880196221448,NA,65937.98225319813,18048.586980563585
144,57157.56308364868,48667.0,"[9,10,33,34,54]",5,NA,NA,2.262198542884873,1.3105742955005,NA,NA,NA,NA,NA,0.4074590952773576,-0.09811540861679502,0.17888564868957146,2.607754754881091,NA,65468.75054812556,17509.105285522535
144,3755.8596687316895,2812.0,"[10,33]",2,0.5395967532663153,NA,NA,NA,NA,NA,NA,NA,NA,NA,0.06924322960787554,0.22785453102549658,2.2963300601493266,NA,NA,24281.198004269594
168,47481.35782146454,45619.0,"[51,52,54,56]",4,0.296580257483416,0.9970080053941088,NA,NA,NA,NA,NA,NA,NA,0.6130102594961205,0.2202310159379306,0.16179165951968255,NA,NA,NA,22290.070878903516
