time_in_hour,cumulative_size,size,pcore_ids,pcore_power,AF700 CD48_[R 730_B-A],APCCy7 Ly6G_[R 780_A-A],BV421 CD117_[V 440_F-A],BV510 SCA-1_[V 525_E-A],BV605 CD11b_[V 610_D-A],BV650 CD150_[V 660_C-A],BV711 CD11c_[V 715_B-A],BV785 B220_[V 780_A-A],FITC Ly6C_[B 525_B-A],PE CD115_[YG 582_D-A],PECF594 CD135_[YG 610_C-A],PECy5 CD3-CD19-NK11_[YG 670_B-A],PECy7 CD16-32_[YG 780_A-A],PerCPCy5-5 CD45_[B 695_A-A],_FSC-A,_SSC-A
-1,0,0,[],0,0.0,0.0,0.0,0.0,0.0,0.0,0.0,0.0,0.0,0.0,0.0,0.0,0.0,0.0,0.0,0.0
0,131501,131501,"[0,1,2,6,8,15,17,22,23,26,41,50]",12,0.30805167507471487,0.1752561299837958,0.4785671570710539,0.5561755262165353,0.34782069937110593,0.238426538786775,0.004686844518292155,2.4522662375343236,0.878539303001498,0.38520110425015963,0.18463882810016985,0.9508284272286915,0.6445395414179341,1.0847374582702807,69418.25476612334,14241.058303739132
0,4378,4378,[46],1,0.6149875404294218,0.3632562391502958,2.7816952921425266,0.9645742658748171,0.5738489337597135,0.46842113476472846,0.08905911192325533,1.0293040680676122,1.5156275767473786,0.7576303602101427,0.493420452032892,0.39932332571950757,0.7499243120146198,0.791907933988125,67959.8867062585,27475.73503883057
0,1118,1118,[2],1,0.5887915304114513,0.3039287754919475,1.306586550983901,0.7842056547406111,0.6021211323792452,0.3486955644007157,0.10782621019678107,2.286828829159208,1.591272140429338,0.7197950840787121,0.33630599463327027,0.8816523998211081,0.7847360134168163,1.398052502683362,69973.00894454378,19865.531305903383
0,100884,100884,"[7,9,10,11,12,18,19,21,25,27,28,30,39,43,47,49,51,52,56,57]",20,0.46045910127473166,1.6990941744082293,1.9377984630169354,0.7664453837080205,2.495147942577614,0.7969915427025118,-0.11529991181951482,0.812391133509776,3.840345622328614,0.712787984031165,0.2493356619880318,0.181834930494429,1.988388504311882,1.5954702647198769,69143.30185163161,22648.298481424197
0,838,838,[8],1,0.7784646646778042,0.41797227804296133,1.576422674224347,1.078854106205247,0.8188338687350796,0.4623684212410504,0.21507847136038238,1.8079820644391429,1.7258746085918863,0.8725768031026248,0.4546850357995216,0.7147370620525058,1.0595904761336539,1.5517374713603822,71540.23866348452,21669.651551312676
0,54815,54815,"[16,20]",2,0.16262536916902315,1.8036931283225242,1.945568967527128,0.716475524108358,2.75525879759191,-0.5024476646903246,0.6062163587886507,0.6669832356471792,3.951747482969965,0.5563942003831092,0.052649342460996174,0.18504002371613837,2.05736292370702,1.67383672139014,68053.49834899185,19847.99197300004
0,24698,24698,"[9,10,11,12,18,19]",6,0.5291800676977894,1.5801747886063646,2.1984934939266245,0.8019348686938224,2.637531310187058,0.8097337912381579,-0.09545180990363455,0.8175360268442775,4.137842244635193,0.725011146692042,0.25541841468945137,0.1755698122924937,2.064486160336868,1.6140287667017579,71440.68280832453,25069.238966717952
0,15996,15996,"[45,48]",2,1.8375526479744966,0.31897033208301195,1.653151963740941,0.8521624878094523,1.7816574454863647,0.08779056845461675,0.2137388949737553,0.7561687894473508,5.612728948924752,3.0232748367091746,0.40146521955488046,0.20408109346086423,2.369265709427361,1.817112996124033,72978.32458114528,27521.60440110026
24,105897.9375,100233.0,"[1,6,15,23,26,46,50]",7,0.3219526253261582,0.20581385938407015,0.8094671309592232,0.5743563074221867,0.3386140677509717,0.27222765593994613,0.015144609516708929,1.865672872741258,0.9377202887172597,0.3616566877270424,0.18574505169303857,0.6604838300970208,0.5471992710009116,0.7896671202862235,71284.44000148709,16569.58212240917
24,42509.5625,40584.0,"[22,41]",2,0.22732712869604343,0.08767323279321149,0.0831721793875877,0.8301610738554466,0.25023390940126244,0.2964737259190211,-0.042246676425746976,3.474386127660966,0.8088286925691696,0.35008492636215616,0.16315630755579802,1.441036606088628,0.6439673769372464,1.7041058260994209,73574.8510232257,14624.17788938659
24,125761.3125,116647.0,"[7,9,10,11,12,16,18,19,21,25,27,28,39,43,47,49,51,52,56,57]",20,0.4171901852626574,1.583956975199054,1.9918454821355573,0.8211269029510793,2.4499331799927444,0.5618229404879558,0.026985688507646266,0.835749226148145,3.8912888710513642,0.6902586731889443,0.1791290955734044,0.18978204454569458,1.8649683654770621,1.5415440389994735,68794.56958593678,25335.462557294733
24,44696.6875,42868.0,"[9,10,11,12,20,53]",6,0.28528728535951653,1.4740762477993843,2.028627579575947,0.8129147366807077,2.5126232366814043,-0.13132497773324903,0.4474932399926326,0.7946545899304769,3.9693673369181464,0.5925958345347203,0.0773259103191335,0.19950938920669659,1.8229291881375405,1.517072158638713,68513.82559389898,24480.38727702136
24,237.4375,233.0,[30],1,1.6608665119768362,0.6655814037904708,2.5108088810213203,1.1422925888391693,2.2303712237430884,1.3261196017373,-0.41565207370360646,1.3045313801000287,5.56562628981311,1.767972437483548,0.5181316572782331,0.26378368491708315,2.324159745985787,1.954372663069228,87871.88207423007,40672.00842326927
24,5547.125,5420.0,[19],1,0.42106326306420283,1.5319229239358174,2.177990959370845,0.8574178394100556,2.588268920961301,0.35630782983301845,0.21540859766321807,0.8228877399328431,4.288648342823975,0.7122741181918545,0.18260352991414797,0.1911179701309229,1.9963098080762567,1.599417696712266,70313.81337179168,27557.34691394197
24,8724.625,7865.0,[15],1,0.35311765214837676,0.16281499992119608,0.7996012979712774,0.6164382492513956,0.3312708519563916,0.2575614948636784,-0.017603812864454227,2.6801970641431687,1.1368185522945162,0.4073970818301662,0.17671231375989827,1.0258354831009933,0.6297356981030727,1.2566495704901461,72489.23638551799,17013.95257675826
24,10583.8125,10164.0,[23],1,0.38063642765781225,0.4943811838479619,1.4884605992464799,0.8044455843770786,0.763954916263633,0.3615211808717378,0.10641225463413706,1.1137331068022531,2.050210879137369,0.521309502701654,0.30092814789684397,0.3678556487383432,0.7334214150205837,0.6827020429193162,67404.23264301015,21259.194075858806
24,13290.3125,12743.0,"[33,36]",2,1.253841450027034,0.6034887414705139,2.8470030034564737,2.1239494905123615,2.1294096662935975,1.5734453828963793,-0.540641512718385,1.0991174319170423,4.531004332323814,3.117465767038956,1.2585059349808407,0.4892406418961166,2.266045389475411,2.356861434470598,112586.86355192936,91082.27304662685
24,13722.75,12723.0,"[45,48]",2,1.7764577114508688,0.4313751497695537,2.0138049791586945,1.0333261184665994,1.9013402840629525,0.08535337150443523,0.3283496603268281,1.0699017262028443,5.724697764419511,2.8659265528410884,0.3802225303419502,0.2491484127589232,2.366434384143121,1.8386649865278522,75093.64697309211,36694.73042939639
48,111084.5703125,104055.0,"[0,6,15,22,26,41]",6,0.24312481488069237,0.12436354055458176,0.2251125525972748,0.5765797292572659,0.2042088751566693,0.26498914624039416,-0.017412697887731365,2.93278627610111,0.765499933151648,0.28615518555228614,0.13754688708067997,0.9956693782263619,0.5872889892310048,1.0571229539168705,69402.75124449428,15273.080475777644
48,43463.5234375,40670.0,"[1,23,46,50]",4,0.2795374209559862,0.2999966309111395,1.213310211404636,0.6279851728175077,0.4540241961021225,0.2767373051953079,0.06247192601329621,0.6795250604112981,1.2790290468623962,0.3899074661296441,0.22932478060554518,0.2239780224399739,0.4811430777650111,0.49235051783931255,63000.444095093386,18216.68331580495
48,112570.02734375,105420.0,"[10,11,12,16,18,19,21,25,27,39,43,47,49,51,52,53,56,57]",18,0.27160529471974026,1.6279493345197973,1.7715837192259838,0.6426690370739734,2.2837068188536587,0.3655845562207862,0.09709193875502908,0.6045503903444525,3.7585056777151613,0.4487673341007147,0.13846286706222877,0.11288870419201291,1.7554643764283275,1.2132503721190966,63811.55028118432,20548.36715048931
48,23687.45703125,21532.0,"[11,12,20,28]",4,0.2816003017761106,1.694581990566935,2.5451450407733147,0.7609847674550609,3.3412698901122595,-0.570483417446997,0.8543789350415967,0.6941428056888004,4.420757798087209,0.38010120928385793,-0.0187936236175541,0.1099577882613254,2.4673217251528725,1.7158241304774793,67881.78261932862,25833.416254547985
48,363.6953125,17.0,[19],1,0.4148417243357063,1.5236652543874687,2.1840540418877414,0.8575437325091841,2.6092507870491617,0.34766642589091656,0.2206492394153039,0.8379810618220049,4.2949156085644224,0.6965558979872387,0.18339570397181948,0.18558520569028758,2.006455334113807,1.590759273752502,70558.04300474726,27436.644512706007
48,8613.5234375,7777.0,"[18,30]",2,0.9943984106972883,0.9930096229997134,2.944029114580919,0.8780213075695786,3.400426770278567,1.5941811412468165,-0.7108996358324564,1.0779931195689696,4.776803126315269,0.5335224691056303,0.21658801366673552,0.06777096433025442,2.5196336027435993,1.6115658983529733,73597.17482048133,33150.17914235507
48,6295.46875,5375.0,"[25,27,43,47]",4,0.35341137179891136,1.4563069252910061,2.1266682330979516,0.640806394409426,2.7742800475013127,0.9168857462137978,0.2374192742622463,0.18566896484760687,4.00975474590356,0.4323884605792877,0.1708795602076072,0.09984114384229803,2.042721312095752,1.1571465289630491,65929.62827430438,23195.11752004168
48,3922.96875,3704.0,[39],1,0.9442200903084796,0.5227693238300128,2.7084869814902244,0.8861840474270166,1.2754112537459603,0.5630912369249657,0.03763594351277,0.8634927585055983,4.976326948045376,0.9708391384952372,0.3468768157276898,0.18232562735491964,1.6148294434679542,0.9518013321583618,62134.81104074566,34457.34967937236
72,135193.03930664062,127133.0,"[1,6,15,22,23,26,46,50]",8,0.28331479009642213,0.30924984520184484,0.5555992104569847,0.7038715030803391,0.44917641178107726,0.25494297855532877,-0.005148459830672358,2.1670199290686014,0.9852475860775424,0.3571489995089665,0.18837934967239134,0.6400266539623629,0.6697004393861407,0.9223355410854239,69233.09785945932,18490.78160644959
72,165589.4599609375,157037.0,"[4,5,7,9,10,11,12,16,17,18,19,20,21,24,25,27,35,39,43,47,49,51,52,53,56,57]",26,0.34222643838579136,1.5158847003792197,1.4865020679408412,0.9826044660555668,2.1630063164457956,0.3040256105596224,0.1134554575550899,0.8476169669276019,3.3479297689850607,0.5645542848805661,0.28945846178504775,0.1989483103675196,1.6587699291448366,1.400033033672469,70127.06881895955,25213.25739054365
72,16533.177490234375,15666.0,[41],1,0.2166850477229103,0.18116345433049075,-0.09174592913471002,1.1875478842176315,0.357511783217646,0.2702740203126299,-0.0782286995434549,3.6523841765214646,0.9243556570866142,0.37742365069062866,0.18561330845358315,1.3551481319125636,0.7956328550058044,1.894351585022952,73422.03138383484,17077.87124052682
72,10788.499267578125,9512.0,"[5,7,9,10,11,12]",6,0.5045454319925702,1.5997827720813107,1.679398841784439,1.0428358158774742,2.3437472342124326,0.7378589187034914,-0.12899343547472242,0.8834436381384467,3.622415909643545,0.7005871226221697,0.37944153421600113,0.18889669041074475,1.8742663298103923,1.5503717445275536,72552.15932022876,29002.05318375935
72,3412.18017578125,2832.0,"[19,28]",2,0.8413669941547421,0.729830388033804,2.820609473148313,1.4061002390067703,2.6535303144237914,0.11377591179834257,0.338049023850747,0.8966957045160671,4.617311407854733,0.8395666517002002,0.4020500726632026,0.21864174515247037,2.084333459194172,1.5610645071405225,77069.65406813967,41727.15254420172
72,8626.531494140625,8050.0,"[17,18,30]",3,0.7732434976953921,1.0938510758275917,2.0939358979108547,1.2635165828798796,2.434174473588039,1.1257202663940722,-0.3093053516681943,1.0359950540315603,3.7144497495008593,0.7623984128904812,0.4587441175310718,0.21184156341711025,1.8876230652551187,1.5516694426676627,76844.66053364097,32997.508803534714
72,9170.76806640625,8480.0,[15],1,0.30785921815239514,0.29132401003748853,0.653620548291808,0.7578778447779513,0.4621646544095661,0.21562021904799367,-0.01236888371475553,2.6239891247892118,1.3619435452580677,0.4119884507292557,0.1869181047752897,0.815067724738604,0.7535390546203845,1.2210012563074717,71042.81620870669,20302.506812124193
72,1062.27197265625,938.0,[34],1,0.687767836412045,0.5888532721146902,2.7758631401105016,1.339514506275703,0.8217384052337997,0.7096951938285938,0.0460921135239003,1.134607396945026,2.0515874830659873,0.7991203449621321,0.5944291409996993,0.3371722263957838,0.901058590874282,0.9606703117300448,72596.28445626893,37454.787850149834
72,18695.392333984375,17370.0,"[24,25,27,35,43,47,49,50]",8,0.4389448142508354,1.3238613884619541,1.5415047321376858,1.0595656362071675,1.9857491861502496,0.42031443693678416,0.09698261956752363,0.9313028150402411,3.2745294016094952,0.6543655066920756,0.34052697880176686,0.2368182739578778,1.5887945284050269,1.406852101829969,70546.15075074047,27019.21552669924
72,9910.293701171875,9274.0,"[52,34,46]",3,0.4010403748135598,0.5444223790554217,1.6292536223439522,0.9594040227365079,0.7604029178043596,0.37296232631513937,0.06674622941911146,1.1970853738208098,1.7473668609098474,0.5118518675677123,0.33396271880952977,0.35880502583096296,0.7609659826740268,0.7670847444492961,67010.0227074601,24923.224082795597
96,83910.11811828613,76756.0,"[1,6,15,23,26,34,46]",7,0.4437861241787393,0.29522223279263926,0.7671229187347302,0.8033275992772131,0.43013012842194387,0.26313318239661054,0.13982358459671262,2.3164845041053503,0.9568438425885543,0.45286606623294856,0.26264692097500264,0.8934008798449078,0.6943699005175311,0.9435633290003724,70379.32588986488,16572.829594166964
96,35664.52284240723,33390.0,"[22,41]",2,0.45252664189134606,0.15738816796881716,0.17284601044146575,1.2087750525175713,0.37753443392524755,0.24587718975873596,0.1582089683353356,3.552539553095972,0.8876666754240873,0.48601687646881875,0.24627115997386273,1.562712616088858,0.8024720528691686,1.8296532469815083,72523.3430046553,14691.0472722082
96,67195.53323364258,64114.0,"[20,25,28,49,52,57]",6,0.2631904437820205,2.2233898803443486,2.056389906989558,1.1553803714565656,3.128751993563491,-0.2941653905024746,0.9264854938714171,1.0334823035665939,3.7971064896319784,0.5812898142219193,0.10949408963034957,0.20869633923991437,2.3572815738318535,2.0057900739269083,69358.43919118869,21447.754593437043
96,6277.173004150391,5704.0,[15],1,0.5489679683267228,0.2508698211715972,0.951932516004891,1.0083981559668782,0.4828743071723456,0.18806656880840467,0.16553701038287727,2.9850754107182054,1.3519141525504965,0.5498815134930205,0.28983632336422716,1.2877886244380417,0.8175539745819101,1.5221124200068732,72705.8833790134,17583.627653453274
96,39638.73155212402,38307.0,"[42,51]",2,0.5424347983991029,2.5147113604222913,1.9192477818556442,1.140354675634374,3.0328020177453436,1.183938950904199,0.07947824355891209,1.1720049503239562,3.6726878412538606,0.7422564767581413,0.27915406036716073,0.18707767327877523,2.421515147581958,2.088315720923126,70220.02419796005,22138.163125047675
96,13310.643249511719,12509.0,"[45,48]",2,1.9555384552146442,0.42032449814733486,1.5282063294282628,1.8750689708690422,1.8559097018049333,-0.06000359591830051,0.6173524390645961,1.218505725297912,5.483044265915366,2.508756943967288,0.5488766517163173,0.30576431873639587,2.3308813990391126,2.186679776476707,72351.38018864038,30273.00623988975
96,8022.949462890625,7457.0,"[25,28]",2,0.6462552896480289,1.2046754182709227,2.4864778993399077,1.3623944498947496,2.9974874206540494,0.2017646125995487,0.7772438452926944,1.1122364619895766,4.287867508468036,0.7735809833509447,0.2968891552822037,0.22328953049748967,2.235435988246883,1.7871183493949754,72168.41061979154,28795.923203946062
120,81294.75768089294,76721.0,"[1,6,26,34,46]",5,0.3766991670466322,0.3314218511026783,0.8996900491957116,0.8106305159344318,0.45617039991793806,0.26084474605017793,0.1528133960457847,2.0126192027974312,0.9853908598530022,0.4417261151592057,0.2996389574239733,0.7485740842944768,0.6361441790835315,0.9005019725329113,68693.52847464295,16163.361316876646
120,15003.960765838623,13491.0,"[15,22]",2,0.434494875133439,0.19771820788630023,0.7952984195083852,1.067876615752727,0.4634578574403667,0.14454617101209544,0.18711826109946106,3.2519168678200208,1.023648240515814,0.4876265293822334,0.27715994119208887,1.4082889131299998,0.7736911797939926,1.7347939743705416,70743.27827226452,15554.733291943272
120,105652.67387676239,101453.0,"[20,25,28,49,57]",5,0.1797996887105593,2.44743505688556,2.230956064915238,1.2043710201167022,3.3439039377721875,-0.29425281135783254,0.9783984545586102,1.0762062787336175,3.8181512054578017,0.44211268728195585,0.09790228371582144,0.18511911732727315,2.500326999296156,2.152801864422952,66704.99193930102,19583.537833667226
120,69289.56596660614,66099.0,"[21,30,42,51,52]",5,0.5841230762497094,2.49282767376744,2.185394323230939,1.2366048708013566,3.274735904877993,1.3516364826226306,-0.03719075111756753,1.2600328380068975,3.8312499565720644,0.654833691208727,0.3092151514450472,0.16026210635204574,2.539827201763967,2.190510410760055,68573.79634752465,22265.711605037344
120,2752.756805419922,2623.0,[25],1,0.5133018961135485,1.7490054297235331,2.1127616980003547,1.1903138507395719,2.6630036798400636,0.5555495424873027,0.3127352646746697,1.040911753977043,3.8808075845923224,0.6685732474728402,0.3456910505349473,0.20222460548561194,2.031128509879057,1.7286093538749776,67930.36998534462,24799.84674152836
120,13533.395224571228,12425.0,[41],1,0.2659701697930543,0.06530283090888522,-0.12436611610245452,1.6779408890963237,0.3952963052927152,0.3751499595622363,0.19759080091382009,4.041629194026474,0.846506943635087,0.5000469671511164,0.2715775813229464,1.895466880415194,0.7889377864709425,2.279291193833353,72090.32165549812,13277.270963634386
120,7639.195029258728,7201.0,[30],1,0.9707046066809559,1.306653450066669,2.760520941697474,1.5233805560091325,3.5065428346716376,1.6113059379942933,-0.08374184452827382,1.3870898284530657,4.344987305780105,0.7899400171648828,0.4102693963877422,0.16270731458757837,2.5270380050158376,2.0728009870205497,73799.32895188178,30333.14255650065
120,15213.915203094482,14382.0,"[45,48]",2,1.9547327685302196,0.4573448664829298,1.6709152282343553,2.120481069406439,2.059979361862584,-0.17047942111293168,0.659434764476984,1.403283956229144,5.4817466305512115,2.538818701296495,0.579080979851557,0.32059981130488413,2.402146290458972,2.3128190222325804,70306.9077791515,29975.295119403487
144,67565.92235505581,62485.0,"[1,6,26,34,46]",5,0.4814781290933414,0.25994700520664793,0.8465194891297223,1.1902879219569091,0.41137212020280645,0.27301610581839575,0.241343412784782,2.355505597309441,0.9633363735087696,0.47848203124404254,0.2858866947707095,0.9763573548607263,0.7382215452108317,1.0700970791025364,68892.22285775804,15762.838228583238
144,19822.747547864914,18885.0,"[15,22]",2,0.41267870379539584,0.11554146750258543,0.6110004101333328,1.678280263596847,0.44607391089465187,-0.03526130779259318,0.33996617125018425,3.589294219121623,0.9837022121345732,0.49535053924750583,0.22717301879295881,1.6770471012507868,0.8215947854519675,1.9079041823135376,72153.91813239313,15140.955625727063
144,151177.96085697412,139810.0,"[18,19,20,21,24,25,28,30,42,49,51,53,57]",13,0.36841395379549824,2.4307101285515547,2.1209633360137494,1.4290046840577637,3.2590332054634055,0.3629344409462758,0.6871693964694812,1.1439425675005834,3.665642775259052,0.6347896364217739,0.10557393348019728,0.22995464165106083,2.4736446705979263,2.1324843378907774,67026.13499249617,19792.253244106127
144,23774.044908583164,22566.0,"[15,41]",2,0.27417666569182275,0.024474873533526953,0.040768189984277114,2.3675368818854117,0.3788365561405538,0.3636973588384411,0.32480059259446703,4.075483058883054,1.0433167379238601,0.5403129658457461,0.2532374887669535,2.038325207354316,0.8408738289185168,2.269238386855248,72306.13578172812,14342.008405289074
144,6178.002934396267,6178.0,[52],1,0.3285501619984623,0.05008864951122938,-0.23660245719975936,2.926609804972188,0.5885566657757599,-0.08235659520400884,0.5655442139862878,4.32638511658617,2.8134692224475955,0.49990177913191947,0.23919672828058713,2.029021166790205,1.0491073475954775,2.4809668797635176,69778.54255184974,13728.088064791886
144,3970.4969896674156,3321.0,"[25,30]",2,0.9353471540311873,1.2555564067242537,2.621110774918528,1.695923575888528,3.261457534318646,1.4735404675343358,0.050455970593982435,1.3350875889399663,4.134518779655353,0.8964210237036853,0.3630760090219667,0.24705939704524815,2.3932465930362743,2.0138673472807205,71889.57155503111,29722.131128109235
144,25332.27843362093,23965.0,"[44,45,48]",3,2.073788911683721,0.3627446845715774,1.8449897759261469,2.4204059216621707,1.8393320686236954,0.2566418722189827,0.5958113717407474,1.1793647934248819,5.355162620733681,3.2261914228063153,0.6796037016010734,0.39205032042444465,2.3333866446648392,2.3726350014671818,73685.91696711446,35983.30003884016
144,1855.8942313194275,1800.0,[54],1,1.3833670247241756,0.5395486048009182,2.36481544777612,2.706889379942227,2.4427294616948214,0.9045070162898494,1.0261299977624843,1.2338581138524827,4.7800981741017745,2.8013331963609347,1.2202534588496121,0.6513569034830833,2.399635341044682,2.7391879098120104,101251.76299399586,62086.15252901944
144,6368.792346000671,5618.0,[28],1,0.6065339039964464,1.0983989014798965,2.6343968182416817,1.7778532213440852,3.2436169304603575,-0.42547234416439894,1.2302422700601316,1.1127142491487478,4.151141159063973,0.7235915192611987,0.1475607228991187,0.27993470705450996,2.3152208181830054,2.00653962477863,67952.41235498531,26124.596050460772
168,73673.53554664552,69314.0,"[1,6,23,26,34,46,47]",7,0.3071465673752922,0.4262560030064897,0.9602510008607128,1.3598021546035053,0.8078098423623703,0.3490463974212432,0.23110651266272964,1.703852160920225,1.6109297988762115,0.49897996279088297,0.2696919074893893,0.5764236721292373,0.8438765690181248,0.9613558655575396,66078.52031979931,18731.15814324051
168,16279.921721741557,15041.0,"[15,22]",2,0.18769257828503694,0.11815898164190619,0.5088238218642323,1.9112435746657748,0.4756384663919144,0.021120881519935297,0.46187142799203107,3.6229127327451103,1.0511710410428208,0.4784765270429596,0.2163416030970562,1.4647889388974487,0.8026884872372807,1.795273163533565,72549.2215915051,15995.665781664495
168,67418.29729568213,62326.0,"[20,28,49,53,57]",5,0.2829475692934136,2.0787200310208913,2.106031638322571,1.5587855059105729,3.0651790281338713,-0.2507106765120709,0.9955565566569575,0.9557890331411452,3.473377949554418,0.7198415382338695,0.09933239022066198,0.2253186866231235,2.234011273454527,1.8414068805093022,68440.96274421408,22426.47967905613
168,34787.51167266816,31426.0,"[21,30,42]",3,0.636420766689967,2.2082414509858257,2.1454473249786283,1.556077342137184,3.168688987245942,1.3775746084091345,0.06062662646935024,1.1477732743543014,3.5206904386081033,0.866606681899499,0.28993700486426155,0.19837362391723545,2.3517567267653208,1.9325614322297355,71249.7798565662,25448.206868151246
168,36578.277712177485,36381.0,"[24,25,48,51]",4,0.34429489260288704,0.836487877732361,1.4011128742355026,1.6547868227234606,1.694826015378402,0.1989676358012451,0.4379973963426229,0.954803617559389,3.4828714123298368,0.8064361682041362,0.3148815067524704,0.24856121119291863,1.3562035008626059,1.2155716580839186,63662.19942325903,25695.132229291907
168,20216.115008495748,18867.0,"[41,52]",2,0.137558399234756,0.04718732709336759,-0.2592649638024973,2.5618573869370045,0.3645800274258604,0.499843936248914,0.4098488781812204,4.229681158656605,1.5310563711402976,0.5553328527737388,0.26454589522591787,1.8385476317599911,0.8831318304091539,2.2309270165995727,73019.66189672331,15068.396524306103
168,2956.590605583042,2722.0,[30],1,0.9011492930909861,1.1865465447304855,2.3898820842940283,1.9237338112594702,3.062370097259881,1.5001670999338936,0.056438581133461785,1.232070343679951,3.946967000451139,1.060701525010609,0.4407301782938,0.2601846450384323,2.206539425815103,1.8221153449416947,73475.13188242269,33351.6920323425
168,14370.875837553293,13533.0,"[45,54]",2,1.6365940458323152,0.37115584470590424,2.0778864954045413,2.8193226734049603,2.5150085568457183,-0.13786196982824062,1.149549473955128,1.0820765279454978,5.060124234124599,2.7902396418069113,0.6644824553129869,0.4341504227299352,2.3803309579574488,2.4561699198315625,80007.01740017833,41688.37663059818
168,19821.01911776513,18709.0,"[23,26,34,25,50]",5,0.37727888480502614,0.6210442142409618,1.3399247105267431,1.54603889225718,1.1343753005922697,0.4216923029584376,0.30717803810812594,1.4879819750634553,2.42626283287261,0.6407841631978316,0.33456736090082684,0.47532374670920574,1.053817464676614,1.1106864520805855,65127.57699153367,22718.044156792606
168,7559.049521625042,7161.0,[28],1,0.3894401380641188,1.1180094448528846,1.8944311338753157,1.8650856751160245,2.471256175007668,-0.4937675677850213,0.987152319181527,0.9517222531745575,3.942415022061779,0.8750864935029296,0.2537163514637686,0.2734773892293393,1.8345877430040725,1.598910517676637,66972.48057217865,26274.317477660374
