time_in_hour,cumulative_size,size,pcore_ids,pcore_power,AF700 CD48_[R 730_B-A],APCCy7 Ly6G_[R 780_A-A],BV421 CD117_[V 440_F-A],BV510 SCA-1_[V 525_E-A],BV605 CD11b_[V 610_D-A],BV650 CD150_[V 660_C-A],BV711 CD11c_[V 715_B-A],BV785 B220_[V 780_A-A],FITC Ly6C_[B 525_B-A],PE CD115_[YG 582_D-A],PECF594 CD135_[YG 610_C-A],PECy5 CD3-CD19-NK11_[YG 670_B-A],PECy7 CD16-32_[YG 780_A-A],PerCPCy5-5 CD45_[B 695_A-A],_FSC-A,_SSC-A
-1,0,0,[],0,0.0,0.0,0.0,0.0,0.0,0.0,0.0,0.0,0.0,0.0,0.0,0.0,0.0,0.0,0.0,0.0
0,130649,130649,"[2,3,4,9,19,22,23,39,47]",9,0.2914027683947069,0.15780242552946966,NA,0.5500194670529495,0.3015946266791043,NA,-0.006125778146029326,NA,NA,0.34858491052361684,0.18056566491898796,NA,0.617236311008886,NA,69490.85356948772,13964.172094696438
0,6547,6547,[4],1,0.4291441664884703,0.22184679059112122,NA,0.6019641802352229,0.3875064675423854,0.31335764304261904,0.027863921796241087,NA,NA,0.4936749463876621,0.24789079410417347,1.0148867942569122,0.6975795096990983,NA,70545.10707194115,17483.64258438983
0,108559,108559,"[18,21,33,34,35,36,42,43]",8,0.2753087640729932,NA,NA,0.7057247815197298,NA,NA,NA,0.7039542884238101,NA,0.5819948706417696,0.13897955015244312,0.16761158320360425,1.9860956878563685,NA,67071.99174642352,19590.81745410327
0,18118,18118,"[19,22,23]",3,0.23130499431503826,0.06665889115796331,NA,0.941992665581191,0.2967344050667844,NA,-0.09521749740589636,NA,NA,0.40305228507561663,0.22253145380285044,NA,0.7828024061154638,NA,71584.56518379525,14087.615851639239
24,179871.25,146654.0,"[2,3,4,9,15,19,22,23,39,47]",10,0.2877604308456718,0.14850663306253908,NA,0.6322476457897035,0.2728986895126284,0.2656242066867254,-0.008171701469801729,NA,NA,0.33755532505056085,0.17041459758160116,NA,0.5553535990729458,NA,72027.71093212506,15221.942317073983
24,9361.75,7725.0,[4],1,0.41844829796779615,0.20420355943065216,NA,0.695811263065119,0.36046160811279115,NA,0.04420047106577352,NA,NA,0.4501607643335864,0.2369248576654961,0.9226471118647734,0.6420899664592655,NA,71861.1148556626,18666.257056640072
24,124574.75,97435.0,"[18,21,33,34,35,36,42,43]",8,0.29627163156859626,NA,NA,0.7636276518255136,NA,NA,0.24098572246783379,0.768349286289959,NA,0.5903032629044015,0.10760898193453938,0.1683071063377608,1.868077554139182,NA,66965.2665889356,22287.049984045716
24,7825.75,6814.0,[19],1,0.2717860771491587,0.13379489793309318,0.6257175562406343,0.8555831448104145,0.38170786710539106,NA,0.13796332639043785,NA,1.485977320608248,0.4107765125387358,0.1776524662172969,1.3879784686451846,0.7117201514551358,NA,73886.83154969156,16600.448519311256
24,5861.25,3843.0,[35],1,0.5034290517807591,NA,1.9941787658775953,0.7917343928769416,2.4902463851141152,NA,-0.3455581076562151,0.8471788271699663,NA,NA,0.25621039415654323,0.16376142465344357,1.9680433024098938,NA,68734.29660908505,24089.174152271356
24,3879.0,3324.0,[15],1,0.7215480718613085,0.10450079788605393,NA,NA,0.4308574706754347,NA,0.06364518928847707,NA,NA,0.5521291934132501,0.16686702429749722,1.206525045501419,0.41386438257282954,NA,80949.08172209325,16885.193091002897
24,29305.75,23162.0,"[21,33,34]",3,0.4672211621439477,1.3742874380283676,NA,0.7902165239159635,NA,NA,-0.18110339529785024,0.8342487043583562,NA,0.6415746943347306,0.2616782233350121,0.17563070756592325,1.5842256611501142,NA,65671.89742627306,23093.153800875236
48,167967.375,128856.0,"[2,3,4,9,19,39,47]",7,0.2443320105221285,0.1773107962859588,NA,0.5309327700475976,0.27444830346145777,NA,0.02034945579423475,NA,NA,0.2934567653160327,0.1551142048336791,NA,0.5399507998443179,NA,NA,15644.461074658064
48,8378.5,6268.0,[40],1,NA,0.3038983889494027,NA,NA,0.3456196863325718,NA,-0.021292824110829223,NA,NA,0.6169676273870589,0.4185776199647959,0.23790362905800244,0.5527854539371583,NA,NA,31638.964969863355
48,8093.4375,5753.0,[4],1,0.33804884406347635,0.2126711458666466,NA,NA,0.3094601057878599,NA,-0.05035190844434556,NA,NA,0.36896387633499006,0.19023674755783215,NA,0.6508326899262532,NA,NA,18918.316969767213
48,71808.875,52311.0,"[18,35,36,43]",4,0.05851031587147015,NA,NA,0.6391506841215735,NA,NA,NA,NA,NA,0.33198416149205,0.002026317969053615,0.12103302586118458,NA,NA,NA,20214.40508572232
48,14654.5,9973.0,[23],1,0.18974091080810784,0.040602754200929514,NA,NA,0.10022589634157342,NA,NA,4.224588047016288,NA,0.3279347239755718,0.1837556734194128,NA,0.7028915811354878,NA,72810.21256269445,13671.490122487934
48,19306.0,16004.0,[34],1,0.28718212587084646,1.0370263625362544,NA,0.5878055812991878,NA,NA,-0.11621541378975042,0.5629080213922957,NA,0.435378314002126,0.21330912690029313,0.11604264006656473,1.111332372322721,NA,NA,19715.446389723358
48,6761.4375,4805.0,[19],1,0.17902605182884845,0.16034204806670038,NA,NA,0.4026021779022675,NA,NA,NA,NA,0.367953332002256,0.15946853385467774,NA,0.7700509147370692,NA,NA,16644.50495918946
48,12432.625,6878.0,"[35,36]",2,NA,NA,NA,0.8339030377384185,NA,NA,NA,NA,NA,NA,NA,0.13405212248016796,2.319954084143531,NA,NA,28770.73827932565
48,8378.5,6268.0,[40],1,NA,0.3038983889494027,NA,NA,0.3456196863325718,NA,-0.021292824110829223,NA,NA,0.6169676273870589,0.4185776199647959,0.23790362905800244,0.5527854539371583,NA,NA,31638.964969863355
72,194882.65625,147977.0,"[2,3,4,9,15,19,23,39,47]",9,0.26226465442586266,0.2666766413885231,NA,0.7158001870299389,0.3932487881906579,0.2513349383603485,-0.014734710350214897,NA,NA,0.3350621383758168,0.17598288303819754,0.7536646909650799,0.6493350325687993,NA,69696.65613842953,17478.482157131442
72,6995.671875,4656.0,"[22,40]",2,0.5658373355579227,0.4473395826928708,NA,1.1368900710483882,0.5703815689499945,NA,0.0380212508961959,1.0703606855689762,NA,0.6342431155111558,0.4506482611480811,0.33470702209625325,0.6919844948193427,NA,64489.49865876902,30692.688684744837
72,7306.359375,5283.0,[4],1,0.3509647796162192,0.3473328430113338,NA,0.7710805102917595,0.49663563068773264,NA,-0.016504085387946343,NA,NA,0.4336179293423741,0.22336360379763898,0.7315638578165014,0.7520615125393745,NA,70200.87702707632,21226.750292446384
72,172553.328125,138177.0,"[12,13,14,18,21,26,33,34,35,42,43,45]",12,0.3080511989712784,1.5985966281300006,NA,0.9145539560611335,NA,NA,0.11923817820225402,0.8016949609511923,NA,0.5248772239222602,0.2573858245361236,0.1746604288888769,1.6755653901971286,NA,68412.24873071403,23552.37070278902
72,18786.03125,12624.0,"[13,36]",2,0.3812859450397794,1.5272087930709848,NA,1.0091617057778985,NA,NA,0.4042320101604604,0.6633193396880595,NA,0.5719513022882697,0.24283344610690794,0.17144121538776436,2.1003355763208322,NA,NA,28942.354122827208
72,17248.234375,13881.0,"[21,22,26]",3,0.6014051086488004,1.667879793075739,NA,1.0162793188079893,NA,NA,-0.4680622773916192,0.9761801686150795,NA,0.6802614739715195,0.4147195897705118,0.18946326391469492,1.846251035116818,NA,NA,25902.682575299692
72,2194.421875,701.0,[14],1,0.6073285418069991,0.44001820452426443,NA,1.883591567611059,NA,0.3536688374287045,NA,2.5481358939284906,NA,0.5009778008444726,0.40704307489870795,0.23475359524504824,0.663860058963423,NA,57148.474242219265,21761.814600941296
72,23084.171875,16480.0,"[15,19,23]",3,0.27220839327204294,0.1683833512850761,NA,1.189165877615686,0.3284201620117151,NA,-0.09970270961433991,NA,NA,0.39214174280469527,0.19221714881002683,1.4253492848637526,0.754765334045178,NA,74325.44547366418,17079.026362083838
72,15667.0,9845.0,"[35,42,36]",3,0.4961761700120082,NA,NA,1.0405194608761703,NA,NA,NA,0.8964465024414459,NA,0.6261831965536663,0.24881996841690412,0.14592177404836026,2.21549526894906,NA,NA,28743.693687368388
72,5901.625,3807.0,[40],1,0.5243837234050996,0.3982502988504226,NA,1.089386665118711,0.5064645184138854,NA,0.03331264360186115,1.0005295368621954,NA,0.6109237007630343,0.428132875643366,0.30272901294400056,0.61482640653263,NA,63945.56041768169,31663.765657763783
96,166256.58984375,122537.0,"[0,5,6,7,8,10,11,12,13,16,18,21,27,33,35,36,42,43]",18,0.376925503675571,NA,NA,1.0809334044109216,NA,NA,NA,NA,NA,0.5979039015906499,0.19354621063625155,0.1745194500960925,2.2394668002516727,NA,69345.03164858109,22362.41437403546
96,144611.36328125,102232.0,"[2,3,4,9,19,23,39]",7,0.38521241895555725,0.18861947525721368,NA,0.8402034604703794,0.31479434399642114,NA,0.09674459444432015,NA,NA,0.39224823611442006,0.21006352946416085,NA,0.6746172600895114,NA,71260.1141789813,15159.994989371944
96,19635.41015625,12396.0,"[40,47]",2,0.42183766393463396,0.6255579724437528,NA,1.0471858109629304,0.831888712703754,NA,0.16889388074338685,NA,NA,0.5922388631728962,0.41917689998716234,0.3664364400398682,0.7896119247982535,NA,66456.35730887178,24348.28932502959
96,5906.58984375,4080.0,[4],1,0.5050625059259191,0.29909925865508713,1.0236667230139567,0.912818865612885,0.4471904515011378,NA,0.12703254265131303,NA,NA,0.5151093032173423,0.2909854976605244,NA,0.7708606812266742,NA,72285.21029808477,19069.329931412714
96,20858.13671875,11161.0,"[5,6,7,8,10,11,12,13]",8,0.4471489897434002,NA,NA,1.0849768006582048,NA,NA,0.36532342611180635,NA,NA,0.6473906180586021,0.2983623274935967,0.1943136461450995,1.9538934576983311,NA,69553.20493445019,24296.13786136738
96,9189.58984375,7292.0,[19],1,0.42638667074836234,0.21742606348725557,0.6723618381868932,NA,0.5075302243630797,NA,0.273137716285623,NA,NA,0.49359947559717743,0.24992061001684762,1.5189545989853461,0.8620691776169142,NA,73957.99214719453,16689.49597944352
96,29647.92578125,22722.0,"[31,37,44,49]",4,2.092888405482886,0.4139186206396941,NA,1.8461671543205695,NA,NA,NA,1.1775842186614822,NA,NA,0.5879070289989188,0.2864054890590335,2.445883451112393,NA,75122.77573591855,33092.14190864161
96,12394.375,5630.0,[34],1,0.3631734520400478,1.283468437673979,NA,0.8958007709574094,NA,NA,0.15733716606009374,NA,NA,0.5180629206299449,0.2774362833742008,0.18696101758420924,1.3616171321066122,NA,64324.28436286653,21127.87183702278
96,25846.0234375,14708.0,"[16,21,27,33,35]",5,0.6797717430006913,NA,NA,1.1360580297284861,NA,NA,NA,1.0497994333328022,NA,0.7024288549309919,0.36387474064811176,0.1702927807955824,2.0838800784699676,NA,71223.5233478554,27147.843088773003
96,10442.95703125,8667.0,[36],1,0.39677570756269187,NA,NA,1.293511473745204,NA,NA,1.2608282413887588,NA,NA,0.5314505243781632,0.07567224350517554,0.18949552897792687,2.36639096599157,NA,72521.26528757229,27697.95519932127
96,7649.40625,6174.0,[40],1,0.5408365364187842,0.45705553028879864,NA,1.209231202144987,0.5526988903055177,NA,0.15193479279182398,NA,NA,0.7161101519976018,0.5313529969145767,0.44900201250965066,0.6819895019777912,NA,NA,29616.59485009045
120,225269.1474609375,183705.0,"[0,5,6,7,8,10,11,12,13,16,18,21,27,33,35,36,42,43]",18,0.34452551762339123,NA,2.1925369991444232,1.1767201255527175,NA,NA,NA,NA,NA,0.5184922184048207,0.17988288058140878,0.157792825578831,2.451030224945819,NA,67359.86109130307,20655.811828079346
120,116185.0517578125,83271.0,"[2,3,4,9,19,39]",6,0.35093376487861083,0.2080226778285783,NA,0.8046864096569766,0.346114856149331,NA,0.15071459701864676,NA,NA,0.39260062387365113,0.23694282163018388,NA,0.6226147549972237,NA,70248.15785748174,14513.975570541543
120,23285.8525390625,18377.0,"[40,47]",2,0.43792119419168607,0.6660213373482757,NA,1.0863736036539438,0.852781544728137,NA,0.23244636842216826,NA,NA,0.6088786868521786,0.469640033426868,0.36807020300059745,0.8106006694088487,NA,64510.52628597369,23120.474243829176
120,6872.6474609375,5396.0,[4],1,0.5150759997672454,0.29989139492106887,1.1445808838726204,0.9574660077654462,0.4442033040566078,NA,0.13833516151762426,NA,NA,0.5166699399152358,0.32355515511727617,NA,0.766689901034319,NA,71688.3511121915,18616.77299064409
120,14559.1376953125,10198.0,"[6,7,8,10,11,12,13]",7,0.44954589976856907,NA,NA,1.1183154351203108,NA,NA,NA,NA,NA,0.6181634887964028,0.32728443590402323,0.20155212659468025,1.9102916216103933,NA,66601.38905837765,21973.040587630305
120,11391.2998046875,9415.0,"[5,27]",2,0.6556986919960446,NA,2.886422395814163,1.4733022707573546,NA,NA,NA,NA,NA,NA,0.29449158853235424,0.16370412381048127,2.4972229864767197,NA,71417.13163323405,28408.524064289457
120,9334.3974609375,7037.0,[19],1,0.32380378845055224,0.1946864690305059,NA,NA,0.5792068935810883,NA,0.38269715960026174,NA,NA,0.4900069595384121,0.25411282665162904,1.6578000455568818,0.8428891290235779,NA,72760.86219996755,15826.49788652371
120,18783.6025390625,13445.0,"[16,21,33,35]",4,0.7768026840091078,NA,NA,1.2574456117205202,NA,NA,NA,1.171271353949741,NA,0.6857217604606937,0.378642594776057,0.1542759491334511,2.193602257387839,NA,69760.66745050496,25536.03875388103
144,199414.28686523438,143097.0,"[0,5,6,7,8,10,11,12,13,16,18,21,27,33,35,36,42,43]",18,0.35969444055864064,NA,2.170439657655813,1.3665760109906784,NA,NA,NA,NA,NA,0.5901974657103418,0.11315755870640531,0.20051173518686327,2.485266333893939,NA,66910.15853492229,19749.18486566502
144,99602.66357421875,72890.0,"[2,3,4,9,39]",5,0.4199997082973168,0.1620641840566872,NA,NA,0.3012770942255272,NA,0.20196190833900163,NA,NA,0.4040388626806257,0.23093057837329,NA,0.6800218776449686,NA,70288.8697055789,14225.306457202154
144,16928.463134765625,11107.0,"[40,47]",2,0.5328678427041535,0.6299447668961675,NA,1.3888673209187568,0.8263949110603694,NA,0.32953033652082864,NA,NA,0.6941117082816123,0.4989808238325657,0.43417764591277075,0.8929490462684736,NA,64084.07579245637,23083.65841351732
144,10298.161865234375,8580.0,[4],1,0.5732208749238987,0.2387453017965666,1.0906861794690461,1.4088373721120035,0.3585778232819745,0.49124938882446556,NA,3.294472073791244,NA,0.5621218488726515,0.30232281426193053,1.4595072025158737,0.8633073609408758,NA,72454.76317297334,18040.15355725047
144,9785.784423828125,6146.0,"[6,7,8,10,11,12,13]",7,0.43706138246404524,NA,NA,1.3114412848119033,NA,NA,NA,NA,NA,NA,0.2804674191761083,0.22237286340275653,2.092336757332446,NA,66160.3728898342,20658.71902744367
144,16958.197265625,14071.0,[23],1,0.24673716460488437,-0.028958273172535076,NA,NA,0.20042475504367374,NA,NA,4.422631728350136,NA,0.5408546376381435,0.270496150957634,2.2829371275411376,0.8452210551934639,NA,72090.68274756975,13273.803764472716
144,18896.7255859375,11353.0,"[5,16,21,27,33,35]",6,0.7873097534164695,NA,NA,1.5632123418527741,NA,NA,NA,NA,NA,NA,0.3051325275730239,0.22195558022937611,2.338112843121293,NA,69693.48197281417,26468.784868327508
168,163053.60119628906,115033.0,"[0,5,7,8,10,11,12,13,16,18,21,27,33,35,36,42]",16,0.3994856791608137,NA,2.130055274337861,1.5147787230439151,NA,NA,NA,NA,NA,NA,0.15927998882892158,0.1975640266807277,2.2966766747853242,NA,68493.87677591035,22681.382198999363
168,83701.66589355469,58801.0,"[2,3,4,9,39]",5,0.29092376448838375,0.16382846139461504,NA,NA,0.34538173572858266,NA,0.23513754920724317,NA,NA,0.4011231039692784,0.2236562330848444,NA,0.6787319102321453,NA,69931.77569509941,15401.564372250872
168,29952.115783691406,25720.0,"[40,47]",2,0.36554163842045395,0.6343240878222023,NA,1.416894332567343,NA,NA,0.29850397243933857,NA,NA,0.6082126998247873,0.36682221518666625,0.2889413603931682,0.9664024002105976,NA,61895.21468309612,22587.66412373301
168,9995.540466308594,7421.0,[4],1,0.37890932485245976,0.19450571133892858,NA,1.7574019366095914,0.3413255710243899,NA,NA,3.3879733102221365,1.5830257228179692,0.5232182585370734,0.2952992977372997,1.3029112411322674,0.8215136073214159,NA,72246.13758502596,17911.615080247957
168,51817.02087402344,48007.0,"[10,11,12,13,43]",5,0.28328234636510574,1.3243234193642288,NA,1.4589189769278512,NA,NA,0.605368409344063,NA,NA,0.6728900885486394,0.23378171232718303,0.21488187833208072,1.6429110129709237,NA,64981.57144657889,22350.763028882695
168,16217.54931640625,11978.0,[23],1,0.17447874202978775,-0.001527138086633073,NA,2.629007072658243,0.19282479376046746,NA,NA,NA,NA,0.5693125645644627,0.27047790972001406,2.049663611926762,0.8405213167422184,NA,73240.03581479014,14209.531488376968
168,20835.662109375,19744.0,[34],1,0.359178021794732,0.8885729787626353,NA,1.4602945444258406,NA,NA,0.08545545622047968,NA,NA,0.7418759529295452,0.3480034921996946,0.1973228463783172,1.2431747373652087,NA,62082.106812997816,25375.608293660483
168,29720.5068359375,24670.0,"[5,7,8,16,21,27,33,35]",8,0.675041256892362,1.2960890936288618,NA,1.712605536363018,NA,NA,NA,NA,NA,NA,0.35850574124847645,0.21437303922955098,2.0019060319737965,NA,NA,28099.79946427325
168,20714.88067626953,15934.0,"[36,40]",2,0.5188770217602818,0.8480990005527076,2.486115801108823,NA,NA,NA,NA,NA,NA,0.734795294221949,0.28930346290137354,0.30425122058026055,NA,NA,NA,27242.91698063366
