time_in_hour,cumulative_size,size,pcore_ids,pcore_power,AF700 CD48_[R 730_B-A],APCCy7 Ly6G_[R 780_A-A],BV421 CD117_[V 440_F-A],BV510 SCA-1_[V 525_E-A],BV605 CD11b_[V 610_D-A],BV650 CD150_[V 660_C-A],BV711 CD11c_[V 715_B-A],BV785 B220_[V 780_A-A],FITC Ly6C_[B 525_B-A],PE CD115_[YG 582_D-A],PECF594 CD135_[YG 610_C-A],PECy5 CD3-CD19-NK11_[YG 670_B-A],PECy7 CD16-32_[YG 780_A-A],PerCPCy5-5 CD45_[B 695_A-A],_FSC-A,_SSC-A
-1,0,0,[],0,0.0,0.0,0.0,0.0,0.0,0.0,0.0,0.0,0.0,0.0,0.0,0.0,0.0,0.0,0.0,0.0
0,79228,79228,"[16,37,41,47,54,56,57,64]",8,0.14940396496698616,0.42285381998874855,0.49177692186158967,0.2979026165113465,0.5134526633340565,0.14802963427251098,0.29752986885857124,0.3040064928219316,0.5520215436660147,0.12421036970517028,0.2376145960538127,0.09491909795310452,0.3309366712414915,0.37075431594655195,0.1877663534057351,0.06842709032499124
24,90673.3125,86038.0,"[3,9,10,12,27,40,62]",7,0.16735591501642993,0.23435917761736183,0.35381937305144007,0.28057301307775817,0.25443971442550906,0.2241788449780297,0.25222660811066616,0.45007258161274294,0.15738555025680048,0.09880230706475222,0.24579777639665684,0.18025529480044214,0.12889020911267182,0.2144120690781194,0.21196588747567746,0.054602889698902556
48,102420.25,96159.0,"[3,9,10,12,27,39,40,60,62]",9,0.16392052206500596,0.23791708866921105,0.3564710164129299,0.27867370720131596,0.25640415735249883,0.22625673393101725,0.2530157275419352,0.439121223803795,0.1820641333706832,0.0980347148641283,0.2463763691499463,0.16264028797424696,0.13213750655573764,0.19342707278385182,0.18816796122214918,0.05837456549597535
72,102846.32495117188,96808.0,"[3,9,10,12,17,27,40,62]",8,0.16380435854238332,0.24238093225740767,0.32409210237408487,0.2947882670693691,0.26205554119594054,0.2254909388782726,0.24947040480099045,0.4757435148851377,0.1568528080085891,0.09867427952719428,0.24642219590497041,0.173024407298277,0.1435943720889284,0.23326182502819906,0.20057451505387006,0.06270385898375636
96,67102.33346557617,64543.0,"[16,37,41,54,56,57]",6,0.15364313787919193,0.48710977546125517,0.5077559676173683,0.3390722955956458,0.5738902128391694,0.16095151074885344,0.3421434169220775,0.33542186193049683,0.541184405944432,0.1269807923827707,0.2380984217364919,0.0959649163091219,0.38683538523027744,0.4586394837216629,0.19297540097648047,0.07035860370199923
120,102519.89584159851,98326.0,"[16,37,41,54,56,57]",6,0.14519426161790153,0.5027843030883474,0.5282243363597381,0.3476690334751994,0.5937244763986547,0.16256437134579138,0.35075981054922567,0.34151656764932614,0.5494260004031036,0.110584795298368,0.2386109146288222,0.09377536595323918,0.4022866802701479,0.4833914606342957,0.18390690923331043,0.06629997850701602
120,38240.00082588196,36796.0,"[36,44,65]",3,0.20245166505554169,0.5116179827723968,0.521665857255349,0.3472512002775796,0.5902425055671113,0.4318562891090036,0.1967808593316352,0.37395975604258164,0.553988115379527,0.12925335994866705,0.2570564136989849,0.08679271850990408,0.41098658437206337,0.49980160234511056,0.18834988492582952,0.0714334198940651
144,74770.44560980797,69763.0,"[16,37,41,54,56]",5,0.14652242444768174,0.49063286149126845,0.5226899722546231,0.36858250897900213,0.5877278192542061,0.12517747756585587,0.3623032687534831,0.33617628113029546,0.5307959008882988,0.11897795404473613,0.2268394234888549,0.10099448958942876,0.3956273640437426,0.4700711292255034,0.18236718043712827,0.06398280203145325
144,52117.04793190956,48327.0,"[36,44,57,65]",4,0.190212519522011,0.5019620996630227,0.517022235713177,0.3686771330354976,0.5917405866470862,0.4050477637453722,0.26059379433138763,0.36737974050629174,0.5364969002526495,0.136188874231619,0.24659893570825553,0.09547778683288548,0.4046975304597167,0.4824956329751935,0.18747108632343992,0.0681776765684478
168,61426.60947780684,56843.0,"[16,41,54,56]",4,0.150970079261588,0.44372631857968436,0.5132133282005018,0.38120537868512994,0.5564827695806009,0.1235356937994408,0.35226810423355714,0.32412869025527424,0.5097306813126379,0.1341204372578511,0.23458734733017572,0.09879785201802387,0.3532789432197065,0.4037989602475151,0.1892664660601021,0.07752206099976791
