time_in_hour,cumulative_size,size,pcore_ids,pcore_power,AF700 CD48_[R 730_B-A],APCCy7 Ly6G_[R 780_A-A],BV421 CD117_[V 440_F-A],BV510 SCA-1_[V 525_E-A],BV605 CD11b_[V 610_D-A],BV650 CD150_[V 660_C-A],BV711 CD11c_[V 715_B-A],BV785 B220_[V 780_A-A],FITC Ly6C_[B 525_B-A],PE CD115_[YG 582_D-A],PECF594 CD135_[YG 610_C-A],PECy5 CD3-CD19-NK11_[YG 670_B-A],PECy7 CD16-32_[YG 780_A-A],PerCPCy5-5 CD45_[B 695_A-A],_FSC-A,_SSC-A
-1,0,0,[],0,0.0,0.0,0.0,0.0,0.0,0.0,0.0,0.0,0.0,0.0,0.0,0.0,0.0,0.0,0.0,0.0
0,152701,152701,"[1,2,5,7,8,12,14,16,17,25,32,35,39,40,44]",15,0.30004682624213364,0.2511803830688728,0.6103008896077995,0.577146965828645,0.41418007962619807,0.23766410828350426,0.017225851232144596,2.2815002612163617,1.0362664397286232,0.35787240953235466,0.19958047128047562,0.8982366036633718,0.6713856821697303,1.0643764043064567,68729.33767296869,14640.69416703229
0,151065,151065,"[4,6,9,10,11,13,15,21,24,27,29,41,45,46]",14,0.36888427801277857,1.8317165108198514,2.0043131349617798,0.695019721762153,2.7059892817727422,0.3304350211696985,0.13481872449607923,0.6782250562870362,4.041469639486304,0.6728590222023646,0.14760388356005638,0.13247469770628462,2.1132454660046944,1.6073675263562024,67751.56760334948,20291.105418197418
0,2158,2158,[5],1,0.8527355537534744,0.09571392075996066,0.8402216751621898,0.9264401014828509,0.24300016682113101,0.6858130690454123,-0.39428583317886945,0.590335232159406,0.8594252882298467,0.4912026227988867,0.21084980861909175,1.229213627896199,0.44718449721964815,2.448394776181653,77347.8554216868,15682.135310472688
0,19457,19457,"[6,8]",2,0.39348206470679226,1.1048536817597694,1.9961197303284082,0.7101272808243757,2.0718793235853448,0.30313597337719234,0.26703099789279383,0.5969011116307885,3.625647556252272,0.5340920399856103,0.24242773166469034,0.15692314848126487,1.6100777055558377,1.0664836457830096,64734.15305545574,20603.648249987167
0,11355,11355,"[10,34]",2,0.2998931962131304,2.2903110890356793,1.9417823552619784,0.7130839256715062,2.800236558784665,0.6266839106120683,0.018223664817266894,0.7546884115367662,3.8307335022456948,0.6672606347864359,0.18855971025979867,0.14661446464113026,2.2303716435931196,1.8099782435931326,68794.87661822984,19415.31730515192
0,16040,16040,"[13,15,17]",3,0.40688902518703296,1.1635414669575983,1.9602786253117315,0.8220856142144557,2.507085146321693,0.1654691670822952,0.3172364610972558,0.821311110598502,3.8288264917082313,0.5080629463216976,0.18200073148378992,0.1831287319825441,1.8678937822319193,1.4417676555486247,67852.67231920201,21537.955112219483
0,6621,6621,[16],1,0.4763535577707241,0.3984435425162327,2.3272587661984585,0.8695648693550879,0.49858088445855087,0.48429124180637184,0.03621153889140816,0.9126015035493036,1.5343700918290262,0.5990284842168864,0.43467348587826704,0.3143103197402214,0.6496774032623448,0.5277639123999376,65477.90605648691,24060.036852439167
24,195226.875,175683.0,"[1,2,5,7,8,12,14,16,17,25,29,32,35,39,40,44,46]",17,0.3238409947132044,0.23284818835585952,0.7029110360023401,0.6725892766678534,0.40547046550519994,0.2902293158747977,0.016746536580839244,2.1630810630586987,1.1833959093266464,0.3850990612345271,0.1910548140458368,0.8301443211084514,0.630958723954503,1.062126212308756,70902.88338631648,16505.36927356952
24,3090.75,2821.0,[5],1,0.820400599733077,0.1003649040281469,0.8527415190083425,0.984142854768268,0.1774763196635103,0.746126567135809,-0.35331256604384276,0.5034356469707975,0.7169132396667485,0.5043223429588283,0.18515910017794557,1.239744187050069,0.3549864589905368,2.3391151435331254,82146.84720537096,16958.26061635524
24,126866.75,111770.0,"[9,10,11,13,15,21,33,41,45]",9,0.33700977666725285,1.8016168562113313,2.1423039802942916,0.7562831128664436,2.748202947450759,0.2772941467100356,0.17572026938303598,0.7526002842086319,3.992455459328395,0.5920893995461801,0.08913782155686212,0.13822934093054173,2.009407466117993,1.6001534302752647,67576.88979973084,23021.211278762894
24,48281.625,42430.0,"[10,11,13,15,17,36]",6,0.4287157355774567,1.6164830863863888,2.0211446218903144,0.7823000912148235,2.570818444353819,0.4299186483470694,0.1343273175509312,0.8010560383660428,4.018923678912535,0.6967115766686603,0.13871306024030394,0.1575470115908486,1.9616861033493564,1.5674663342213544,67527.79443525357,23410.18190667775
24,8944.625,8117.0,[16],1,0.4583397340022637,0.3843159761169468,1.8763885619995215,0.8337433950556838,0.5361336859287031,0.4461325227161608,0.0483443889346904,0.973584775256092,1.7071354304121193,0.5178101141467591,0.3570519174085085,0.32087027397739043,0.6761727617284142,0.5343268749668109,66773.33571837828,23386.406920357265
24,4282.375,3952.0,"[29,32]",2,0.6862169751306242,0.31594162351499033,1.1100433004757888,1.0124432708193463,0.6612878048687962,0.31025037023847735,0.4193649312005614,1.0050144551212794,3.138975534282962,0.7866978268776109,0.3198322213141078,0.3724640555474462,0.8031687168919123,1.171631327096527,65041.8144137307,20958.439183864073
48,161090.296875,140063.0,"[0,4,6,8,9,10,11,13,15,21,41,44,45,46]",14,0.302394202147493,1.673502058510469,1.946594324024503,0.6469572223093234,2.5865676315022825,0.3349977848884085,0.12098606181306204,0.6454463034680997,3.9457292234017793,0.4327433778959766,0.11148754509112146,0.0959034830446901,1.9613940771051444,1.3261454975447085,64556.81227075766,21176.73239280879
48,176354.890625,154136.0,"[1,2,3,5,7,12,14,16,17,25,29,32,35,39,40]",15,0.28328757053261877,0.17016424039434552,0.5471166304879862,0.6246190312976831,0.24697527067960445,0.27761182188286515,-0.009925126340236012,2.2258666157919524,1.030195198161767,0.31321197158384373,0.17430139094995578,0.7978217659239653,0.5386619540564214,0.9584859890620059,68343.10083653219,16490.915696713448
48,18093.046875,15615.0,"[4,6,24]",3,0.8521481956457764,0.813255626776519,3.023689418593133,0.8782443085603453,2.370761290116626,0.7631159381159038,-0.01322141973651858,0.7531504091160803,4.5275265607143576,0.6584307175822898,0.2611219316355067,0.12840627464711507,2.0157082817639713,1.232200482225133,68623.12951366855,34392.41866221053
48,21572.171875,18205.0,"[3,5,7,47]",4,0.5155198265278105,0.13887265470561028,0.8359863328622792,0.770278223761228,0.22375382859137716,0.19060706164770846,-0.12284195544967957,2.3084128024690322,1.737461811742412,0.3385662059974568,0.16269356858626338,1.2656339896155295,0.5466381522280955,1.8793869923143116,75663.0856391229,16946.627447543386
48,13744.171875,10774.0,"[10,11]",2,0.23216141578987215,2.4785301526715413,1.9704534608226019,0.6289693213782592,3.0320701330097832,0.24502367771452915,-0.06231687653972218,1.0494443643009888,3.933137024366007,0.42450944749990294,0.05468592657796689,0.08059892167020843,2.340430650221051,1.8001272806928397,65713.84992957246,18800.201740055716
48,8358.625,7354.0,"[27,33]",2,1.8653041622594173,0.2691228749027941,2.5468057344808526,0.9507026156533676,0.8641753206119414,0.2710808597612482,0.35353245470247563,0.7018613292444975,4.209149851102537,2.13079877101871,0.495355386365504,0.17847452235340777,1.7810307905251346,1.2655981543054307,63716.81371038899,32869.91054150654
48,13609.25,11562.0,"[14,17]",2,0.3931161559095824,0.14493655051366083,0.04345601807592914,1.1034420364067596,0.074767846192616,1.0429523390582267,-0.473863995022926,3.641420908040491,1.07370087190468,0.4087087550436772,0.27776133741526143,1.496705847267251,0.7074214805842086,1.8035449415551537,71362.18035527301,16617.066186600976
48,13620.1875,12019.0,"[13,29,32]",3,0.45483561799924654,0.6178802075033358,1.9810968882736213,0.9294026303132328,2.2128020920003855,-0.3513824766270677,0.8298125569318078,0.9127864329281392,4.217065256503446,0.3870102127896109,0.08996247708135119,0.17495200852135817,1.6751365272802796,1.2846952420625566,68427.35131216072,26750.743923312348
72,282180.95703125,250842.0,"[1,2,5,7,8,12,14,15,16,17,25,27,29,32,35,39,40,41,44,46]",20,0.3050522381448486,0.6885132056754517,0.786240597363911,0.8156852119149063,0.9533836744592574,0.27099472160866434,0.03524747985153853,1.7448549697387135,1.882879898305028,0.43986055494085785,0.2136758850460665,0.5222244707229853,0.9744304831360925,1.0802730957518094,68523.72921592515,19799.408335007756
72,1207.79296875,836.0,[5],1,0.8559327538107044,0.18971691215091013,0.6533728616552681,1.235560720145866,0.2599579716748308,0.8469710006872682,-0.41917401093161333,0.6758655143825107,0.8012402637235415,0.5218452939213115,0.2183490326670876,1.174670832660621,0.43008574671809197,2.304317445261076,81573.37364446382,18673.608253691014
72,61920.798828125,53269.0,"[9,10,11,13,21,24,26,34,45]",9,0.41220473969948834,1.7667614310753978,1.9080927260187992,1.0709930442928477,2.796903255290864,0.2511858682907018,0.16749583106525412,0.9101252494697731,3.790742032436093,0.5791897896603632,0.2832869355402625,0.1503837802168151,2.0656723806765576,1.738468619041481,72120.81453674003,26616.137704386638
72,19804.6328125,17155.0,"[10,11,13]",3,0.3383221628703732,1.7371802507362881,1.9995396634693852,1.0373117941517074,2.936721809312503,0.0025144178902083425,0.3122761400997014,0.8367317908458745,3.8528692168533625,0.5323194642434935,0.24582412845636892,0.15179693003935246,2.1199376849312808,1.7321035794381865,73003.21415009811,27002.070812818787
72,2117.830078125,1747.0,[33],1,1.7371590102524277,0.3137517264003855,4.212879027776635,1.6326270757878758,0.596539943685904,0.7780587629999716,0.24412200199754874,0.9647939469054112,1.6103679219996883,1.019587384463573,0.7646141387466372,0.24156270771140376,1.0710725314724607,1.4157895338969952,67990.83008939166,40379.91563077258
72,4396.265625,4062.0,[17],1,0.549802304255028,1.0954259671525173,1.3339917483850874,1.0995898069815113,1.2625435661721083,0.9317623679356728,-0.23257194479779253,1.1252111548908745,2.541960336544068,0.6226629570818215,0.4655336832067949,0.2618687648528064,1.1969105647744374,1.17487164568206,66572.82298541734,24086.348257221092
72,34805.470703125,29452.0,"[27,29,32,35,40,21,24,26,34]",9,0.7749559520446831,1.088104532268889,1.7285969994612826,1.2328415412391132,1.6129685232422588,0.7193111677700164,-0.04390433756333678,1.0637794919332109,3.380561698160724,0.9384723139145966,0.407107778410261,0.2332393746012218,1.5128665340453882,1.4229496752438382,67717.8213226515,27824.328724364907
96,155139.38061523438,127461.0,"[1,2,5,7,8,12,14,16,17,25,29,32,35,39,40,44,46]",17,0.4378496079053056,0.31665148259091724,0.6075702321795027,0.918477598523332,0.47923221345106715,0.264639743568442,0.13626070158685977,2.5238071317145305,1.1671553339534193,0.46291297411681454,0.2598889553704664,1.0164849882456337,0.7649645001991517,1.1931821013402033,70325.56292111846,16455.963039699956
96,1224.97412109375,1074.0,[5],1,1.176308860251951,0.1300126323700641,0.8688006401185602,1.6173028129060079,0.16906564124800205,1.066397054375552,-0.5867425650135303,0.8406823068980218,0.8613800801427988,0.6595297114320412,0.3147819996019914,1.2832588407107226,0.46753953470816356,2.5619551923408412,81019.45231464152,17538.329360433727
96,115397.24633789062,101994.0,"[9,10,11,13,15,21,41]",7,0.30446098436271374,2.45335058737252,1.9993504591695763,1.0407223723484997,3.1612155110533533,0.2120592591680015,0.5305332447372435,0.9663438526857715,3.7096954108428366,0.5576971807659931,0.13950100371080998,0.14652092968791497,2.3918020877415005,1.9813107892241633,68394.08739658879,20076.283077502158
96,5706.9990234375,5035.0,[45],1,0.9854816683100671,1.1084707542875836,2.847467218946132,1.3153798412651834,3.613212570341465,1.6977818303808132,-0.4449115714482037,1.3419166935437077,4.441611641425068,0.6977956220677252,0.30910975753401226,0.10766657749042652,2.460322769923666,1.8742231832677214,75816.31833581503,30073.51948428185
96,13366.337158203125,9145.0,"[11,15]",2,0.45629362440390553,1.8444863215409146,1.6778299498250013,0.9844878159613182,2.3587042585147837,0.767729984819995,0.0021102081657211613,0.8603519276674509,3.3696710605827427,0.6348469627121417,0.31312978520583457,0.17070731679481088,1.8941607917307062,1.5375916351920222,67466.66020940793,21481.764165849487
96,19885.238037109375,13086.0,"[8,16,17]",3,0.35175181044027437,1.0915313980114463,1.4088242259913795,0.9394145687728233,1.4664820925759057,0.364525473515785,0.22588480458676763,0.8447887831705452,2.7103379083144006,0.5364773974596656,0.33171294504389337,0.22668998417922726,1.1635799077595155,0.8706754645535202,64744.14423986939,20564.11624696811
96,8080.701416015625,7299.0,[13],1,0.43491649665282517,1.0162112062882942,2.850542122032896,1.3008559339978483,3.5920739360419023,-0.7257914726692115,1.3080218082758703,1.0652155164903347,4.429570337684039,0.49644432404341055,0.06531287765764171,0.16985681172868838,2.4013968282041143,1.7837149319830752,71557.60568022434,27522.557379713788
120,114829.48767089844,99250.0,"[2,7,12,14,16,17,25,32,35,39,40]",11,0.3512859529676178,0.25193808635900306,0.6510462894613505,0.9645810746241921,0.399050706376217,0.24393908847686907,0.14648146605565415,2.5236371895373013,0.8864582459130995,0.43599389028960767,0.28677473023339894,1.0459671354858426,0.6522405365189169,1.2364559168492504,69595.35452374621,15443.173112364904
120,4555.930145263672,4112.0,"[44,46]",2,1.719647409023122,0.4527925148346652,1.36328441962609,1.957180756587157,1.3419732375714872,0.80046467409847,0.2412375252539123,1.5924476109869223,4.7295048703325415,1.6549814618796521,0.684163778239562,0.3585709560396856,2.0564594473088604,1.941527663775947,62796.62178284216,23957.649572811963
120,167197.65579223633,152773.0,"[9,10,11,13,15,21,41]",7,0.26045094297081217,2.648526513612131,2.2074035320039864,1.1334445915969984,3.401178804065674,0.23751053093951136,0.5967794667627371,1.0758333793953252,3.8087988949185676,0.45096674607414644,0.13599091241717653,0.12911082252810435,2.5535742849969503,2.1553110001661624,66367.66820886952,18908.753152071804
120,7903.3748779296875,7190.0,[45],1,1.0093252630732137,1.0874977284741787,2.9486628880280406,1.4408810635434106,3.6674821795741734,1.731512220711451,-0.4077377203718737,1.3925055881103967,4.469829045331396,0.626658228061911,0.3220675015246708,0.09501676880738463,2.535716661198236,1.9963362486621252,70892.89645142839,27913.964439050582
120,12435.79214477539,10765.0,"[11,15]",2,0.45945081301199164,1.8940893599666744,1.8911233926756181,1.0553533814127878,2.5170517790557736,0.7012179564780956,0.08902668493798416,0.9602124682910436,3.4480740265921375,0.5678421583622802,0.3214852595535458,0.16833339184073992,1.9465729895570227,1.629853340823688,65409.86118474568,19774.38863253536
120,23655.990295410156,20608.0,"[12,16,17]",3,0.44991965752789587,0.43697764806365225,0.6302849317762784,0.9731064583799012,0.5474792045210224,0.5066757101992205,0.09329157298382551,2.2603214571146006,1.6114560651120415,0.497246286579888,0.3617859095349991,0.8306657716951618,0.7702263863622422,1.1325458918933446,67568.08077412812,17340.124791918533
120,12552.087677001953,11542.0,[13],1,0.43195723972896993,1.0644844744977457,2.9601463730466224,1.4418028498673237,3.6999992009909657,-0.7430597054149968,1.3529744191402493,1.1876494188191389,4.436491961137156,0.3998246495066289,0.05828196716724943,0.16236476471687233,2.4866763837181662,1.9323015519179048,68842.51974088766,26110.75738813736
144,116231.6859588623,101878.0,"[2,7,12,14,16,17,25,32,35,39,40]",11,0.3924425395653348,0.1480535295148786,0.4855689427200254,1.5406468759336018,0.35781843051563245,0.2433340567398985,0.2408757774490633,3.013827810668662,0.9571706341148339,0.46397822753157614,0.2629655260315684,1.3851934315229515,0.7472882449332628,1.5203282680591408,70232.49844210935,14895.89344575118
144,3267.4622230529785,2982.0,[29],1,0.6597146262054043,0.27024119869953855,0.4951228070905578,2.640790674552005,0.3869021300211508,0.323845410380202,0.8640786996398031,2.78063084692487,3.599757860875932,0.5874587010006581,0.49232110356202075,0.5594192229556199,0.6264356850906377,1.4536785548704556,57145.84740990391,17477.84243324895
144,138234.70697402954,117335.0,"[9,10,11,13,15,21,41]",7,0.2926721151787195,2.646271486915132,2.171789048930546,1.3252692006797733,3.419622850483297,0.26159816278755654,0.6902455994310106,1.1344509371203304,3.686766177162387,0.5357619535367145,0.0547058208187301,0.17260191809496517,2.5583336352012855,2.144439428370677,66173.06968960815,18326.27721053076
144,4447.921859741211,3460.0,[45],1,1.046169086308945,1.0567869696461019,2.874254753394965,1.576075745262647,3.4933561767464893,1.697130672994575,-0.3881394263290576,1.3733749157323318,4.229556427792902,0.7163964940414803,0.24556069744714026,0.1613245559553398,2.4575101814724083,1.9198960055345748,69017.40718138366,27314.303509020174
144,1342.7940101623535,910.0,[46],1,1.8182175575911461,0.35866770125477343,1.20649018499524,2.07719606384734,1.3358006249299623,0.9842199262764935,-0.17612890559267624,1.451953076460227,5.322517955827134,1.9280511255786554,0.5810536889233022,0.3425246063685172,1.9907790421760465,1.9544617789735932,62984.09212947491,23197.368611133745
144,8572.474018096924,7018.0,"[11,15]",2,0.4635813618135518,1.9737454234685732,2.045799379258169,1.2817910595144855,2.7786225050624034,0.5524670218154348,0.35918756010846176,1.1295477134570242,3.420077304512018,0.6072952287244112,0.21531947770042814,0.21388229280414872,2.1632713413242293,1.7335334881444078,66025.44196041387,19428.020079318994
144,2346.7339630126953,2177.0,[35],1,0.8000665338530093,0.10758580626775327,1.048653218198211,2.360339330648874,0.515673698031363,-0.3365805478399181,0.3436923617416223,0.38626111702059873,1.0107951633341297,0.521088932525552,0.22957931158417466,1.3433558421296246,0.4116184073973488,2.609367527262598,78564.7591072609,16642.152938553394
168,116058.96074485779,101530.0,"[2,7,12,14,16,17,25,32,35,39,40]",11,0.2460453197296284,0.23653537924408097,0.5998400065441403,1.6597305238291287,0.5401658336021726,0.3060802261391493,0.2722440498791445,2.5247918616395886,1.3072912384742956,0.48174014271235066,0.2627649741066196,1.0336452113280452,0.7724485699799896,1.3517052877442652,68854.07935408162,17171.492957911927
168,177986.04050016403,158484.0,"[8,9,10,11,13,15,21,24,29,41,44,45,46]",13,0.3731728638686118,1.6768851266880622,1.8606636921530852,1.5753771867275534,2.5925941519628792,0.29113163095852346,0.5392577696856997,1.0543119892761523,3.590960111017344,0.7172391041573235,0.20650710158916796,0.2012314817724361,1.9394155719994193,1.6081821413361073,65681.85385770147,23322.891005937738
168,35168.82286071777,29669.0,"[10,11,13,36,38]",5,0.566837862411887,1.7997625902397125,2.2200510285932613,1.7706776563200268,3.1828118483699828,0.4987633610423785,0.866351077965779,1.201083684348168,3.833992442694623,0.9625310842940978,0.2353546706703349,0.22140075367423218,2.3314145356972924,1.9431632912478245,69908.71021330458,25987.14237463533
168,26005.623710155487,21234.0,"[7,12]",2,0.23000307969802147,0.10666861532984084,0.35516487730468693,1.6513756788065908,0.3304158846720404,0.23723925526289458,0.29169536358131865,3.622611932804986,0.9593692852095351,0.4245122527786498,0.20829468388704964,1.3758339858029691,0.7530638603933365,1.6322576104293567,72152.76860495636,15542.10152541114
168,16465.44352388382,15060.0,"[17,24,32,40]",4,0.7225506625073765,0.4634877991597377,2.5017557647393285,1.8256547591114982,0.9278449483473046,0.5413322651348804,0.313854478175966,1.055101212599523,2.3945473978079423,0.8726065074781891,0.5603620475149764,0.39201548482518433,1.0955446450643227,1.1107608414061372,63934.02382210775,30241.176781559076
