time_in_hour,cumulative_size,size,pcore_ids,pcore_power,AF700 CD48_[R 730_B-A],APCCy7 Ly6G_[R 780_A-A],BV421 CD117_[V 440_F-A],BV510 SCA-1_[V 525_E-A],BV605 CD11b_[V 610_D-A],BV650 CD150_[V 660_C-A],BV711 CD11c_[V 715_B-A],BV785 B220_[V 780_A-A],FITC Ly6C_[B 525_B-A],PE CD115_[YG 582_D-A],PECF594 CD135_[YG 610_C-A],PECy5 CD3-CD19-NK11_[YG 670_B-A],PECy7 CD16-32_[YG 780_A-A],PerCPCy5-5 CD45_[B 695_A-A],_FSC-A,_SSC-A
-1,0,0,[],0,0.0,0.0,0.0,0.0,0.0,0.0,0.0,0.0,0.0,0.0,0.0,0.0,0.0,0.0,0.0,0.0
0,126479,126479,"[1,2,3,4,6,10,17,22,23,24,25,43,49]",13,0.17316056230615343,0.24608011274608257,0.3595459989254314,0.284705073853044,0.27483166356099575,0.2282238975936345,0.2539631810030844,0.45368225890348485,0.19855054632602837,0.10930504720958878,0.25107088969485303,0.18874850026417078,0.1528251256059505,0.243189348925922,0.19559545453207364,0.05460141920278491
0,18855,18855,"[35,46]",2,0.16216461558782755,0.22553519194278573,0.2690710508632878,0.3241475419732159,0.2642617472680066,0.22961182686110895,0.24667379099177866,0.5820156082671694,0.17032937227807232,0.10838318023047465,0.24989374964276037,0.30601722770314577,0.16172991147690585,0.4576101163588407,0.2083909002479562,0.04783380321078262
0,149517,149517,"[8,9,11,12,13,14,15,18,19,26,27,28,32,36,37,39,40,41,42,50,53]",21,0.17842410352826304,0.39158869128379914,0.5010235507420207,0.3087429768532523,0.5007395590914222,0.24115578538861304,0.2650223298085514,0.32428838982377967,0.569466318850462,0.14662623710689973,0.24936873530312742,0.10031862205935788,0.32826886517245685,0.3741750722885736,0.19677023076871047,0.08171466687916175
0,39988,39988,"[9,11,12,13,14,31]",6,0.18893031971380228,0.3769657063961277,0.48997664395473134,0.3095651236769517,0.4826038735379809,0.2782623148836835,0.25145702927699487,0.3279122765453204,0.555530031055138,0.15322379633559036,0.2554404957448674,0.1010795593576348,0.3161486574158831,0.36207081127887913,0.19452854847305337,0.08060449557000307
24,154286.9375,146071.0,"[1,2,3,4,6,10,17,22,23,24,25,35,43,49,51]",15,0.17646361238663907,0.24531090560353558,0.3790746670977556,0.2975757005345486,0.2741264644491982,0.2354847091859168,0.2542781078699614,0.4354127564541063,0.21078484627269523,0.11051162533012784,0.25141287044010685,0.1761912150935031,0.14621029494470486,0.24458246512578202,0.2065068132181198,0.06523533131963381
24,23526.1875,22473.0,[46],1,0.15439386072833536,0.22665421432211166,0.2731963762639498,0.3311413393415967,0.25600899164003044,0.23714205880911352,0.24833981568816552,0.6142759943456122,0.17530533846656024,0.10328434639793224,0.24788736931760003,0.31342031178439117,0.15178539932785154,0.4363746066398035,0.22038406208841263,0.05130316210782715
24,109944.0,104179.0,"[13,14,15,18,19,26,27,32,36,37,39,40,41,42,44,47,50]",17,0.18232417328394956,0.37518202903536485,0.5166996451659192,0.3170813218029425,0.502085509119444,0.22954793225900053,0.2723519344562771,0.33080184691238623,0.5953130477689315,0.14799765291249162,0.2437499358901292,0.10098978875601061,0.31803609019589557,0.36877785678889835,0.19903155362446714,0.09697149837417997
24,6792.5625,6594.0,"[14,28,31,53]",4,0.2933686001767045,0.2668138347447562,0.48752873338526476,0.341115569632731,0.42872391216506206,0.15919200487883156,0.3005943913126462,0.36378933057088514,0.7602986825967292,0.30252789518795703,0.26107894224881145,0.11923050218611232,0.3229058152703313,0.4174930992870435,0.21247412839911783,0.11407069290366494
24,14313.0625,13237.0,"[4,10]",2,0.17435270599277863,0.2357014464028431,0.31433859739145625,0.2933219454304862,0.2597334457576241,0.23272517311276536,0.25281758534888754,0.49058370218217273,0.22415150576872278,0.10631772588075176,0.24770951319554693,0.2033665286667014,0.14457406314618831,0.2628457095939758,0.20961953058424443,0.06051815672672582
24,25277.8125,23554.0,"[23,24,35,43]",4,0.18287199469169654,0.23730160242717183,0.37461117166018937,0.30651614133524013,0.2684025324585102,0.2342046444238226,0.2547607003939414,0.46962995764787935,0.22804184518300888,0.11513843366227236,0.25066161116908553,0.2150817993103075,0.14559153680545642,0.31925347985244285,0.21526613001241032,0.06464822281327137
48,157462.65625,148510.0,"[1,2,4,10,14,17,22,23,24,25,43]",11,0.1682866153848115,0.24956058372051265,0.363197585633696,0.28657656720422126,0.27399080273876947,0.2368177391019869,0.2528224710709397,0.4250896747372372,0.24473189712360738,0.10568394860462611,0.2487794086506271,0.15480535742096646,0.14726683514235972,0.20049576505901984,0.1845741628662697,0.06332719994350165
48,11599.02734375,11599.0,[20],1,0.1408775314304871,0.22786170831411323,0.27071615586242465,0.3247321540433595,0.2722093020762109,0.13679357902201716,0.27805929889012093,0.6182197845449527,0.15913518277738511,0.09216956652696334,0.24120781851567258,0.2977098518958975,0.15412098333380603,0.41707842444307797,0.20522695568617644,0.0505459115744882
48,92180.73828125,85857.0,"[9,11,12,15,18,19,32,37,39,41,42,47,49]",13,0.1592241411038096,0.38445561695126385,0.5010894813641043,0.29858453049244527,0.49961406791653173,0.18271077446468814,0.28655983862741735,0.30766292015543334,0.5636287521277312,0.10968179276319648,0.23889357045442755,0.0907835165460681,0.3123291420109335,0.312081676734359,0.17886779160426297,0.08026570144493454
48,13913.6875,12179.0,"[4,35,46]",3,0.17992725919948438,0.22715462000585868,0.2697808899182003,0.33901910088446785,0.24055562483825266,0.3032079846970469,0.22383068390811964,0.5528991260144511,0.17618610367704116,0.10389609329834341,0.25004589691338264,0.3048079091248508,0.14507738953221305,0.4592133509002315,0.21753484064100947,0.05424564198072998
48,634.41796875,122.0,"[11,12]",2,0.1796914664614998,0.3711730017648666,0.48658770497131026,0.31315860641573007,0.44658392433162636,0.3074582370283866,0.23535326825235225,0.32925295013888517,0.5120139414822815,0.1389019921737286,0.2557683513138399,0.09920902668368775,0.2843531814062542,0.33293058591392954,0.18902855646376784,0.08777822761134942
48,6122.8046875,6054.0,[14],1,0.2396839618680271,0.2590672039907982,0.4021948715423992,0.31054378809944144,0.3240616696774886,0.2454401717534228,0.26952320720996115,0.3514671148151723,0.7663634176792328,0.2480972015282914,0.26390981400942165,0.10098749961584577,0.26939377454608326,0.23766353503987472,0.1786769370098866,0.09466852185402991
48,36314.84375,34251.0,"[22,23,24,18,19,40]",6,0.1752186477868834,0.27138704494962945,0.4654253985854887,0.3050817030182039,0.3031544592533272,0.23054975110901907,0.25773880847964437,0.39983020098499733,0.29558842803328605,0.11669738456758819,0.2586755217735468,0.14034606304428165,0.1669099217178871,0.22876139817270613,0.17610475847551463,0.08282443419663384
48,7322.01953125,5945.0,"[32,39,41,40,44]",5,0.2735020846175037,0.2877883910448706,0.645842504542368,0.3474531707605793,0.3764477632216881,0.3031389038191674,0.25603810877757893,0.33486676635304286,0.630473182755345,0.20228295161796178,0.2772909217757616,0.10392258306746573,0.30960172588064033,0.31619467206399227,0.1751195887298752,0.14966775659625095
72,239339.56323242188,226079.0,"[1,2,3,4,6,9,10,11,17,20,22,23,24,25,35,40,43,46,49,51]",20,0.16918769640538395,0.28404892924061387,0.36868000333259454,0.31567515412449343,0.3237293115902604,0.23258774977371546,0.2544618237770804,0.4264242479446619,0.28028274431965927,0.11169517319262874,0.2533769288717023,0.1535056080472299,0.18596003560230226,0.2718447176896095,0.19787792978789495,0.07532027683600502
72,106499.69311523438,100146.0,"[3,4,6,12,13,14,15,18,19,26,28,32,37,39,41,42,44,47,53]",19,0.18445194411982094,0.36932646006058645,0.4678326581139245,0.34296888855737834,0.47428891900788384,0.23754774657137906,0.2628303039679545,0.33538705907379246,0.5291328728032788,0.14044177300511876,0.2632895567779247,0.10339456546591877,0.29956754719850226,0.35601196558077275,0.21058587546737603,0.10424628394637797
72,30339.847900390625,29208.0,"[11,12,13,14]",4,0.19719448930813172,0.3705086397325333,0.44593187763805503,0.3395279904941587,0.456336839552105,0.32436236570910976,0.2301396301251978,0.33946732525276546,0.5215220639809289,0.15159626796463008,0.2685889033503706,0.10050349245594976,0.2923349181526253,0.3397917952024663,0.20827886333610665,0.10038419141183225
72,13287.212890625,11972.0,[10],1,0.1684840699015152,0.24962155349185983,0.31916931625467515,0.30450757836096193,0.27402999086207924,0.23361003376665163,0.2516451146151875,0.4779997449913488,0.24992953134059034,0.1064140107846773,0.24924702779915536,0.17077943748848218,0.15599631502070868,0.2448786224826479,0.19963164063081426,0.07228404120014262
72,31927.7373046875,29707.0,"[22,23,24,18,19]",5,0.17554796703413494,0.31023678428415813,0.42675844869845697,0.3268621416617109,0.36268422621435464,0.23747938447543532,0.25924257996208055,0.3774313025172998,0.36428677177890945,0.12474152312995923,0.2612040544073212,0.1277797882656758,0.2102814491944011,0.27451273306228435,0.19556380149451183,0.09085332730962704
96,148058.19384765625,136549.0,"[0,3,4,5,6,7,8,9,11,12,13,14,15,18,19,25,26,32,37,39,40,41,42,44,47,49]",26,0.18483969408927553,0.42653165827940454,0.5042049318604771,0.35094794233965326,0.5314929493618555,0.24381272077210484,0.30063379703892407,0.35431228621369054,0.53944896296596,0.14215312100713112,0.25345452122005707,0.10432925363313261,0.35498417473643923,0.42524077958451934,0.19823436077927922,0.08442907123386623
96,109067.3892211914,100465.0,"[2,10,17,20,22,23,24,43,46]",9,0.186913922242452,0.2427520840393615,0.3301416792792293,0.3275950059546104,0.2705364321632671,0.22639120999308546,0.2663134281659175,0.5302491597092245,0.1803187158724542,0.11589442534785634,0.25554178272010825,0.24730374893880733,0.16198470510068255,0.3127952786668698,0.2060978579600743,0.056383401093407004
96,2190.196533203125,1724.0,"[3,5,7]",3,0.19129092228570294,0.3896078921967225,0.46979022481780774,0.3522688070744474,0.46025792848441666,0.2527327851877057,0.2846481085579524,0.3485523293541103,0.44631565343886354,0.14632055906376776,0.2631456672071348,0.11148743597138398,0.30485098891590634,0.38396890274837947,0.19277726829052105,0.08121159104343849
96,20400.37940979004,16882.0,"[4,6,9,11,12,13]",6,0.19616982264070176,0.39851632886059424,0.4792703585624865,0.34573356578127096,0.48389730730229574,0.2887338892509761,0.2764013806739151,0.3557557139970785,0.513598228497967,0.14503635125281258,0.2652262311614124,0.1085990626470721,0.31733132554468285,0.38595929787440564,0.1935745567121644,0.08520651442911137
96,9691.341979980469,8787.0,"[10,35]",2,0.1947677200122411,0.2451072109776457,0.3362365147524349,0.3302902295279253,0.27283839097690815,0.2308062259523864,0.26876605581997165,0.49303695763366234,0.2426646750119885,0.12043770374845218,0.2566188156668153,0.23034223842872484,0.15889955568279307,0.3041807690577517,0.2093746529408871,0.060584421730514884
120,203863.65140533447,194796.0,"[0,3,5,6,8,9,11,13,15,18,19,25,26,37,40,41,42,44,47,49]",20,0.17735007030516226,0.4503914616875445,0.5296551752734726,0.3579478123496694,0.5631145623842432,0.24612749703091025,0.3058709665692286,0.3586285478904656,0.5513623245102134,0.12695961686124288,0.25182302628655134,0.09978208321301456,0.37826710887879067,0.4591925653749964,0.18907198659214375,0.07861043006783539
120,108931.94400691986,101881.0,"[1,2,10,12,17,20,22,23,24,43,51]",11,0.18185631134036562,0.2537601721098444,0.3868187385224257,0.3240430493444458,0.2824765335529674,0.22670261166657757,0.2692457918155076,0.4587875083831606,0.20614561536262935,0.11747649468993485,0.26273634654334943,0.19476709596038363,0.15544396413635428,0.2680909923773606,0.19490778990991983,0.0605558307137956
120,13864.300873756409,12954.0,"[39,46]",2,0.16778633416021432,0.2282019618258182,0.2691161258201347,0.40513646248328233,0.26916740902393194,0.26305233421618046,0.2678189358922353,0.6351725081596741,0.18202550322020283,0.12201459895800112,0.2595871234215683,0.3448113700883912,0.167594186332444,0.4929363310156463,0.21078276967091797,0.04928339636495463
120,1006.7501754760742,870.0,"[3,5]",2,0.1971553202636256,0.3831022674949716,0.4950478365008046,0.35489044486668914,0.46579348802318193,0.24907878439007758,0.28622740307486333,0.3557216428330996,0.4782280073144348,0.13803285712598193,0.2714018104060987,0.11156803005045848,0.29868120219247873,0.39966669993831233,0.17815361512149247,0.07424770025129063
120,17049.572256088257,15882.0,"[9,11,13]",3,0.19655258722403404,0.4036673780607881,0.5032319425993829,0.3530523209541795,0.5055616642158279,0.30605507984547164,0.25938931349209887,0.35672389304248586,0.5298051148868573,0.13707340846315313,0.2634254309738548,0.1014211937811059,0.32573482772357704,0.4013633733597212,0.18584981868459083,0.08173029837702231
120,9207.762463569641,8602.0,"[10,12,35]",3,0.19950910576903993,0.24668224140836667,0.3606025284450825,0.35082490670098226,0.2807738156018643,0.22915154335101884,0.26603087472687253,0.46615905586539746,0.24421454662261105,0.12236042421824647,0.26195413744399954,0.22512156669090894,0.15634371902445962,0.35968400117280497,0.2039429023095286,0.06027198524604276
144,168788.75080770254,155263.0,"[0,3,4,6,7,8,9,11,13,15,18,19,22,23,25,26,37,40,42,44,47,49]",22,0.18130077164209618,0.4478462322642767,0.5204821103665761,0.38422463424973774,0.5575220213342936,0.2474434345540965,0.3180210153652156,0.3602595248184296,0.529368012764258,0.1412999211462815,0.24507317528591296,0.1098322849997334,0.3749690106623725,0.4588452459402832,0.1883643972321109,0.07585855262446824
144,83275.90676856041,77634.0,"[1,2,10,12,17,24,43,51]",8,0.19198060870034941,0.24155344820674837,0.3748712148779264,0.3628776641670308,0.2690794463211519,0.2312259402868379,0.27567904888728245,0.4969868662966467,0.18583372004419313,0.11998442966214205,0.25976312536864093,0.23186328272560575,0.16245362211738007,0.2929597944128491,0.1989055841421077,0.0583133913535919
144,22338.28618490696,21166.0,"[20,46]",2,0.16465248963253876,0.2231658188269431,0.27266664972026133,0.46688559025829685,0.2755025467504709,0.20215640786582204,0.28954090789800313,0.635344715666542,0.1949511782505535,0.12084806591677184,0.25348278177396927,0.35915551015979597,0.17292144915940846,0.48526511079114826,0.20986005788783677,0.05040558572457589
144,107.91537183523178,45.0,[3],1,0.20539538284193007,0.3497880033027668,0.5162756178669955,0.3954607041427593,0.4489431335215133,0.26434467295707575,0.30077186931601646,0.36178144432073944,0.48787049802345656,0.1651541805831973,0.272400830949733,0.13035981861372808,0.29764020497028787,0.4094240174384439,0.17348410645994872,0.0979957590052735
144,1996.5144437551498,1288.0,"[9,11,52]",3,0.21300434838656748,0.3503848943635151,0.5070280080982176,0.40113195242827754,0.4648670657517962,0.26287410430196084,0.298785051761519,0.34903067019927303,0.5098448334772279,0.18029536871039864,0.28264060699251214,0.12452078058912212,0.3090485160069098,0.3978954643202981,0.19621528687681494,0.099179825662975
144,16838.305649459362,16115.0,"[10,12,35,39]",4,0.19529611576896422,0.23045584540265676,0.3353638583765134,0.4755895470218055,0.2632211500577569,0.28504435611884976,0.2679122828871681,0.5489757967161145,0.2547092034503795,0.13160028898979456,0.2608701729879881,0.31942742166061056,0.16945495749252665,0.4664717505641913,0.21008370450539252,0.05829631643010778
168,217064.99939499795,206322.0,"[0,3,4,6,7,8,9,11,12,13,14,15,18,19,22,23,25,26,29,37,40,42,44,47,49,50]",26,0.1820224012372828,0.367968513572032,0.48507720545781574,0.40220513645056605,0.48248964448764103,0.24736167022071778,0.30195082852387656,0.3471003085024604,0.5122425502949228,0.15936399257855838,0.25743232526627474,0.10870834412117951,0.30306928938366384,0.3609683303685646,0.18836766472105065,0.09399217758489563
168,77350.09711218625,71630.0,"[1,2,10,17,20,24,43,51]",8,0.17208332718117042,0.24539467293436695,0.37918559397351626,0.3882696302078153,0.28518134264477424,0.23195313598716757,0.28011031632217004,0.472157478823715,0.22036118796156817,0.1206338983165297,0.2592375028777133,0.19635916233925002,0.16525073997791812,0.2805674688339215,0.19566360469698166,0.06645659225907305
168,18905.96992528811,17651.0,"[39,46]",2,0.15166235959397514,0.22341377226109874,0.2542207621084764,0.48942368667862346,0.26332784200490833,0.277704669743817,0.28467019506342517,0.6509318539775758,0.21364102970780813,0.12765782680676638,0.2570682590681529,0.34055523019782796,0.1742260484961494,0.48003031726414325,0.21701503488984053,0.05470432907310319
168,21630.000706736,21498.0,"[3,4,6,7]",4,0.1666349205317888,0.3179971627772342,0.4489742866681994,0.3973372145027503,0.424611785461866,0.181945898923265,0.31106995719149466,0.33960477120976024,0.48762277218745026,0.14492255390618825,0.2583426741638054,0.11381462037864434,0.2451296992606845,0.29836423520048655,0.17459954159549845,0.08789620975029418
168,33630.177442807704,32393.0,"[9,11,12,13,14]",5,0.20075261712559642,0.34883867290980886,0.48083023860013113,0.41674849693264426,0.4615470651626704,0.3135631992996384,0.2666826219307911,0.3561790002000065,0.5400181468103531,0.17898987021333188,0.2695439567386782,0.10992400836769252,0.29760634780265294,0.3636407202100793,0.19183378213872657,0.1061517761891407
