time_in_hour,cumulative_size,size,pcore_ids,pcore_power,AF700 CD48_[R 730_B-A],APCCy7 Ly6G_[R 780_A-A],BV421 CD117_[V 440_F-A],BV510 SCA-1_[V 525_E-A],BV605 CD11b_[V 610_D-A],BV650 CD150_[V 660_C-A],BV711 CD11c_[V 715_B-A],BV785 B220_[V 780_A-A],FITC Ly6C_[B 525_B-A],PE CD115_[YG 582_D-A],PECF594 CD135_[YG 610_C-A],PECy5 CD3-CD19-NK11_[YG 670_B-A],PECy7 CD16-32_[YG 780_A-A],PerCPCy5-5 CD45_[B 695_A-A],_FSC-A,_SSC-A
-1,0,0,[],0,0.0,0.0,0.0,0.0,0.0,0.0,0.0,0.0,0.0,0.0,0.0,0.0,0.0,0.0,0.0,0.0
0,108220,108220,"[0,1,6,9,11,21,24]",7,0.32347850206061524,0.15618422320273906,0.4406076765662603,0.4778089470245792,0.29662465205136535,0.23393670527628396,0.043296055719828974,2.327478465034172,0.7672026977176135,0.37627330809462356,0.1756792786453527,0.8467960688412499,0.5865083673905002,0.9011980649233042,69290.48412493062,13817.694030678222
0,63738,63738,"[5,15]",2,0.10851254187455295,1.9759283911795178,2.100552893423075,0.6852027334400392,2.8860066073927393,-0.5350924960463131,0.6500147987229026,0.5510589894411626,4.014014559509234,0.4877809971759356,0.024548205811272705,0.14030797827041752,2.1381534735636505,1.6832989915121208,67721.20066522296,19346.772851360325
0,28228,28228,[10],1,1.9413817561640963,0.27789405537055956,1.6196760263213563,0.8857326654031512,1.7055304992560671,0.38167851374521855,0.06779127288507425,0.7811566990576742,5.673888338316558,3.244743840583805,0.4464287850715576,0.18956716125832807,2.4188270543786112,1.8337308966628856,73162.7059657079,27868.95508006231
0,52124,52124,"[14,20]",2,0.41739798772157855,2.2605726368275674,1.901807866107743,0.6858788252628343,2.802471221203269,1.081269085852955,-0.34968172810989406,0.7887371478589578,3.9119386514081893,0.6710939980047529,0.21075700318471258,0.11443819762489327,2.221192838692361,1.7727504759611576,67963.20282403493,19380.0420535645
0,10339,10339,[19],1,0.20490523493568835,1.2700467977560748,0.7834810879195229,0.6811864540090848,1.857988027468815,-0.15470260383015577,0.43367078653641,0.5710126088596774,3.4044196620563034,0.48648377492987416,0.20293147325661298,0.1407366670857917,1.4544912072734348,1.1408428498887748,60555.897475578095,14659.584099042439
24,109766.75,104032.0,"[0,6,9,11,24]",5,0.2836607990933038,0.13397802923698876,0.4701547542157636,0.5106564159171634,0.2245581945221291,0.25757014749627394,-0.0034231054440421183,2.1648672522200547,0.6786941958829705,0.31189210726096694,0.14830550380921315,0.7639114659875352,0.4953205470059213,0.8218422612340477,72360.96191241869,14804.939929441318
24,48793.625,44810.0,"[5,15]",2,0.14974379133800575,1.8236727403080426,2.2056828297561837,0.7691805861319057,2.9557685441361348,-0.5825518833774359,0.7204994642140727,0.6641809976367488,4.20392398502109,0.5217713147132456,-0.034636302111722195,0.1434808525896064,2.0875997363820504,1.6792256169338071,67984.31319665212,22518.300700142612
24,25150.25,23386.0,[10],1,1.9608455053652498,0.3811794829947037,2.02207294803978,1.0437356523667711,1.7808860853594979,0.459204969925749,0.13552628372231768,1.0509913163213915,5.843699248710279,3.1879605047961834,0.4156959483131386,0.22600375130466355,2.4660808395418554,1.8480075858266776,74167.01241538339,36602.13683760582
24,11539.625,10956.0,[9],1,0.3662035521897349,0.1892248997151187,1.2403054897202073,0.49642260433073204,0.27174113096178454,0.3027922296055978,0.031125366048507352,1.948109072684355,1.0257625948579356,0.36347938736635754,0.19605841955977077,0.6708542008459972,0.5050397280728366,0.5558570681943713,71092.28003509634,17750.544580088233
24,46362.75,43105.0,"[14,20]",2,0.44958317758330346,2.1702069578837646,2.0520277027530383,0.7537977874910395,2.8411965906654753,1.0713243190586745,-0.2799924852548714,0.8534759510692993,4.037594598500409,0.7085047436357838,0.1621791155857828,0.11516645933022684,2.1379918937563014,1.7267472018174523,67493.6465157913,22282.272470895183
24,24856.1875,24210.0,[19],1,0.24858126466498986,1.2284533130483264,1.6323538297455875,0.7269178159261012,1.9499728691497533,-0.10365055686084168,0.42400120993515733,0.6274811213178739,3.57221152694374,0.5065146364587271,0.1301333097996138,0.15557932434579624,1.4289503164956496,1.076310397846114,62938.74762571672,20463.536976456984
48,114662.421875,107802.0,"[0,6,9,11,24]",5,0.2515460565330021,0.1536626181309355,0.39205743685985706,0.46635494292682056,0.23691477922491533,0.25834974156157475,-0.002766097839920434,2.1560802701613113,0.7466070695000352,0.29330098953391703,0.13971376210752418,0.6743354097833056,0.5194709276309452,0.7261020108360559,68172.28973692466,15197.978843057603
48,28339.890625,26768.0,[10],1,2.0748833935895883,0.31255459539239494,1.7100944089155328,0.896380958454519,1.8475082961534626,0.4560529275571106,0.09523002196921615,0.8002649944977356,5.823160677295903,3.1609441237693368,0.363975817108658,0.1801235395519699,2.608905897432956,1.8415021655042179,71551.62912700896,31689.61940021604
48,14556.2265625,13835.0,[9],1,0.3371321460304548,0.22592527533429818,1.108658607607504,0.47199494910092543,0.23300153094009257,0.510915629059359,-0.1024426851860003,2.2242820081735823,1.3343841330602801,0.35551694320434213,0.20843652576861915,0.6119132040141206,0.5345462074662529,0.5287508124779619,66765.78085516448,19019.7064507939
48,57268.97265625,55119.0,"[16,19]",2,0.19558800657014852,1.2230040735650105,1.454695996926306,0.5771819708546349,1.7026366789515257,0.13573064350727448,0.16038786056054644,0.49851933101951307,3.6134866129648473,0.4343906670348102,0.1515142295196732,0.1116887203578868,1.2882916051824291,0.8159023301790616,60359.35574134577,18940.832281223273
72,125253.4013671875,118087.0,"[0,6,9,11,24]",5,0.2605969292742889,0.2661116658536624,0.39034603375917865,0.628714053431005,0.36512242208638135,0.2589897651964106,-0.014624808359273267,2.195476925330759,0.8597492681570228,0.3230990020522875,0.16981814996325983,0.619728848832271,0.6154576528904,0.8292497311325164,69211.26337289231,17433.149060424643
72,98706.11938476562,93548.0,"[5,15,19,20]",4,0.2284021874641089,1.6499330828474452,1.6222338804169714,0.9587409719049198,2.4213740863915922,-0.2115252749121448,0.41651169756861517,0.6886548583339707,3.5111966982584133,0.5162935371199796,0.21852886077296896,0.15828693326731136,1.7785910155384506,1.4584534041285275,69469.60126582166,24086.117067828287
72,12223.76416015625,11314.0,[9],1,0.36072240022983815,0.5382686555602327,0.9833342659890278,0.8138376269474517,0.6987498339465379,0.43632615995379465,-0.007494333108195583,1.704162278508024,1.8074118203420069,0.44256293105596567,0.289857021240699,0.41896138268369243,0.7392096744596205,0.7265605974953957,66587.31041293844,21680.880929417162
72,35573.52880859375,34048.0,[16],1,0.4246784023170993,1.3186588205641487,1.353572684414094,0.8998813250697597,1.7240278932822717,0.807843482952572,-0.14845025347915897,0.7124679982418294,3.432953959150455,0.6035834188403201,0.30669991969994115,0.13798528669872046,1.3999522161858686,0.9886546172961166,66605.84686347931,24204.685384929646
96,75309.5154876709,69795.0,"[0,6,24]",3,0.45546044552004994,0.164396412927176,0.3264565748230486,0.6970475920159847,0.2755354692195189,0.19828754872130694,0.1405205769800948,3.036437914129122,0.6409587735248167,0.39614039010651625,0.20178324899910427,1.2017307730574627,0.6788682917574963,1.1316391948866567,71218.39478056977,14422.06385133854
96,60901.31993103027,58596.0,"[5,20]",2,0.17105873942504002,2.7345100304383587,2.0418591210774175,1.0791497012868345,3.3582537588068324,-0.18619536130815328,0.971417308559694,0.9173328001306595,3.784080408020269,0.5669849225414775,0.07273148443734678,0.15300449847460496,2.556953378675728,2.174373363507261,68731.75133684088,19326.159727289323
96,22427.140197753906,21121.0,[10],1,2.2059736469163944,0.3709184629060793,1.4896948694784746,1.8377302288275454,1.7180014638771572,0.4134161427580181,0.19882169928193782,1.1310003787664864,5.66959755931579,2.9544486927812303,0.5965454208451035,0.2658502418496985,2.4981084804374802,2.1680671865855126,72897.79062141807,31037.036207947178
96,26907.49951171875,25647.0,[14],1,0.6685409275834115,2.7658897890207363,1.932681687125124,1.0412907034067769,3.273513765235615,1.530660461411543,-0.5778867704276496,1.217544634528577,3.7948414245632116,0.6996730586799677,0.2467552712429999,0.10031110964324552,2.5727840529705506,2.178295869687635,69119.00145933616,20369.35852180484
96,19060.298873901367,15750.0,[19],1,0.29828067264678215,1.5644768266796985,1.6451175237927216,0.9519203124467825,2.186071212865753,-0.1893702436073499,0.6204417405015219,0.6608134823614069,3.3402822107153387,0.5769970403325814,0.223127336649648,0.18417234370265712,1.662638615709033,1.2624914024429268,64656.448711712444,19769.293350334265
96,17766.820999145508,16490.0,[6],1,0.5126828821764629,0.1845620544956441,-0.11009339080515312,0.8380497599674674,0.25919255485910186,0.39223029733032044,0.10174617971534161,3.2571295282382673,1.202608942812713,0.4392595416025289,0.2344038704301319,1.276563223791191,0.7518250054125942,1.3363783410566374,71948.97177201151,15084.357705748536
120,81613.33452033997,76064.0,"[0,6,11,24]",4,0.34018011722984065,0.2115855248561509,0.5310203290000701,0.6956933370072784,0.3287853539228891,0.17646794559191803,0.15548735763920973,2.4288196339362207,0.7163739523214278,0.38029418861070574,0.23975432623644188,0.9290601420890254,0.5807293874209362,1.007655423725544,70015.96474099549,13957.98880912795
120,59216.94167613983,56786.0,[5],1,-0.03012025048225131,2.9362262208416112,2.2219383544959332,1.1492708019788247,3.608324934417275,-0.7392459643568401,1.2203181044713407,0.9564754725606717,3.853266355620774,0.38040006887070266,-0.00068444265320311,0.13691657508604393,2.693125368882692,2.327187841481538,66227.88391751423,17704.90482619643
120,24334.69626235962,22933.0,[10],1,2.2453225108982275,0.38807494588303904,1.6184867738631268,2.1576031617532645,1.8457200176407649,0.3661441416010145,0.25635506383567375,1.3661551949208812,5.675562082876972,3.111327694527956,0.6336947735229725,0.2858385957381865,2.5559710444878503,2.309099557856281,70527.28721759291,30771.241587495966
120,76948.10953903198,73891.0,"[14,20]",2,0.4953410857604903,2.8836799728105618,2.176196016084169,1.1659511509335254,3.4825009587989917,1.2618402295019588,0.02055662406177472,1.2014619087557286,3.894624712242758,0.5777147899529623,0.2459196501056442,0.10277754122095084,2.7001090248388127,2.2973788777981436,67280.74621926148,19429.80439414117
120,21789.268679618835,20598.0,[19],1,0.27967320779149296,1.6016705637880029,1.796022381191324,0.9863643889440703,2.3332417128738565,-0.26177794633357565,0.7192228162593763,0.6009829380301976,3.4156555694926913,0.517836029757854,0.23883326555082718,0.17044455802130165,1.695796896936769,1.3528897800315758,63005.54600851605,18615.711153530196
144,61835.052794873714,57944.0,"[0,6,24]",3,0.46203268065812875,0.1119546685794095,0.347130070231104,1.080953762188269,0.26782172106016944,0.18478189262730393,0.23341333091704497,3.3155336864070497,0.6641765047361651,0.4018864544978946,0.20868249619944068,1.391607682527664,0.7319508193278937,1.3489075380424358,70861.65332253509,13976.030420935522
144,55088.05885475874,51387.0,[5],1,0.031098323699547015,2.822261937403364,2.1570291362221305,1.327983087116127,3.5055161629041316,-0.7034887348708939,1.2593962389760684,0.9115747179525249,3.681260685948026,0.4481628177049529,-0.07994700635856766,0.18333433973799718,2.5962594577994325,2.228902345372736,65935.78346591353,17160.978158118407
144,26547.918516397476,25027.0,[10],1,2.1800049325660558,0.32369556643907194,1.7511024621835474,2.4238928902091748,2.075365524791873,0.2825832781201987,0.604382082589622,1.1093472637802808,5.526491497033527,3.4037547022895507,0.6227843630973675,0.34942727525811157,2.417886148184833,2.4760980852847987,71190.27007232915,33120.500899528895
144,68689.2568461895,63880.0,"[14,20]",2,0.4754702992059612,2.797147104250808,2.1368222625798716,1.3234320613703359,3.445050892745128,1.2527868732110645,0.19603673299531899,1.155217667630406,3.6919729913450214,0.6163667602275781,0.14791466769883632,0.1406379962791403,2.6262586665351444,2.1910320949656774,66765.90185916587,18384.22975852433
144,16739.839144527912,15917.0,[6],1,0.5093896721220357,0.08529310656510924,-0.2834203016475363,1.3283810099062006,0.16446179996338461,0.5496391143594654,0.0939000714665057,3.603170842559549,0.9655767447301767,0.4117174839387461,0.2312844483698222,1.4925326005069404,0.772513211618889,1.5625099706420156,70741.99666668691,13636.527881813407
168,39295.00367842242,35852.0,[5],1,0.08171644105618747,2.4936761883994585,2.212733973587158,1.4461932850009984,3.4201416253193693,-0.7017990039540873,1.242939230724767,0.8215285786013053,3.445258775259756,0.5495389092366579,-0.04155114310035124,0.17401277228671486,2.3983087809733727,1.962551650690134,68448.61639470336,20519.075593482496
168,88788.82949943468,87473.0,"[9,16,19]",3,0.3156692743666043,0.9738466119700866,1.434355780529104,1.481302704026863,1.8056390111386587,0.29426016366999974,0.33841772391308167,0.7602084800353142,3.482939301594294,0.7263147267793956,0.2888872581414188,0.18702879339079348,1.3781966053684602,1.0883380603448172,62497.02534874421,23873.818032919004
168,22636.17378829047,21770.0,[11],1,0.21950629463605842,0.3773467051998787,0.9686193801177061,1.1271167601109653,0.7404791066504952,0.15884117245569773,0.25745505625780796,0.6856763475109995,1.3899392776469677,0.3914394817684105,0.24289314699826425,0.2800660100266802,0.654027103318987,0.6577551994967252,64893.64968848457,17111.883280943497
168,48890.078552886844,44597.0,"[14,20]",2,0.5070863091626554,2.4992966856935785,2.1519592661730615,1.4099974084783211,3.310053774104469,1.20672353818987,0.14241125185489567,1.0247794309559923,3.451785431177553,0.7176576459187053,0.19454348718762526,0.12049677185881769,2.406425129187848,1.9101611715465185,68748.46236337791,21590.42255057561
