time_in_hour,cumulative_size,size,pcore_ids,pcore_power,AF700 CD48_[R 730_B-A],APCCy7 Ly6G_[R 780_A-A],BV421 CD117_[V 440_F-A],BV510 SCA-1_[V 525_E-A],BV605 CD11b_[V 610_D-A],BV650 CD150_[V 660_C-A],BV711 CD11c_[V 715_B-A],BV785 B220_[V 780_A-A],FITC Ly6C_[B 525_B-A],PE CD115_[YG 582_D-A],PECF594 CD135_[YG 610_C-A],PECy5 CD3-CD19-NK11_[YG 670_B-A],PECy7 CD16-32_[YG 780_A-A],PerCPCy5-5 CD45_[B 695_A-A],_FSC-A,_SSC-A
-1,0,0,[],0,0.0,0.0,0.0,0.0,0.0,0.0,0.0,0.0,0.0,0.0,0.0,0.0,0.0,0.0,0.0,0.0
0,90319,90319,"[13,15,17,21,23,28,39,45,47]",9,0.31328131601324216,NA,NA,0.7058117826813848,NA,NA,NA,NA,NA,NA,0.11022042942237942,0.12477863021069813,2.20595943653052,NA,68604.07223286355,20351.44233217817
24,196617.5,159905.0,"[2,6,7,11,14,16,30,32,36,38,46]",11,0.29019923514056334,0.21471885596653584,NA,0.6427370114765991,0.3747779560415547,NA,0.0054398416455763154,NA,NA,0.3490123424974907,0.17576588136991855,NA,0.6049714673108936,NA,71213.13982732959,15843.913547878466
24,18089.0,14869.0,"[6,47]",2,NA,0.15935069995576656,NA,0.8308006691912211,0.6813495678865555,NA,0.20469207729835004,NA,NA,NA,0.17285206769306827,NA,NA,NA,72981.99082315221,16554.84769749573
24,93697.25,71723.0,"[13,15,17,21,23,28,39,45]",8,0.3104943460720586,NA,NA,0.7529581950644189,NA,NA,NA,NA,NA,0.5832292754136378,0.06157618655563102,0.13116598446859473,2.139246514358745,NA,68561.27589657123,22686.89542115695
24,82922.75,66762.0,"[7,16,30,32,36,38]",6,0.37210101406127993,0.34429693869896916,NA,0.7295666790084687,0.5706990583253688,NA,0.020522766725659114,NA,NA,0.4243796560533766,0.21395069238236886,NA,0.7372588557181209,NA,69506.06823820948,18276.5290345532
48,216107.3125,165268.0,"[2,6,7,11,14,16,30,32,35,36,38,46,47]",13,0.28280261979537413,0.275883684537221,NA,NA,NA,NA,NA,NA,NA,0.3464892642683023,0.1566138342047676,NA,NA,NA,NA,16304.074819309932
48,123297.25,93193.0,"[8,9,10,12,13,15,17,23,24,28,29,34,39,44]",14,NA,NA,NA,NA,NA,NA,NA,NA,NA,NA,0.10471600670178915,0.12116743554651488,NA,NA,NA,21313.348610775945
48,11139.375,7503.0,[6],1,NA,0.10662860575099664,NA,NA,0.43721804182237056,NA,NA,NA,NA,0.2955988943948832,0.1197265032373851,NA,0.703932790669363,NA,NA,14704.171104752217
48,64605.5,47901.0,"[16,30,32,35,36,38,12]",7,NA,0.15299149451381888,NA,NA,0.21050344686985012,NA,NA,NA,NA,0.3521970072081716,0.20088234376620306,NA,0.5919451547526896,NA,NA,18322.004287560612
72,227787.84375,173742.0,"[2,6,7,11,12,14,16,30,32,36,38,44,46,47]",14,0.2985206623078993,0.39020159640693564,NA,0.7574376886019643,0.5825176229009563,NA,0.015289718930484142,NA,NA,0.3939644524851873,0.18913931790251137,0.6797031765420816,0.7702684087731871,NA,69268.17393432566,18287.920533511802
72,142099.75,106866.0,"[8,9,10,13,15,17,21,23,24,28,29,34,35,39,45]",15,0.34059669912497714,NA,NA,0.971262090376658,NA,NA,NA,NA,NA,0.5310852035375909,0.23513876591476457,0.16828247705221244,1.8669552474210422,NA,69481.07262679924,24563.5532645202
72,12447.84375,9663.0,[6],1,0.10768950970801927,0.17586787360637635,NA,1.0507841409656873,0.4800938061386293,NA,0.1491048945362068,NA,NA,0.33806840116887604,0.1402470887578473,1.4077729171932354,0.7897970790736851,1.9056559889175098,73254.65737790945,16830.5418358099
72,29997.390625,21692.0,"[14,16,30,32]",4,0.3640922832506759,0.2352708538367625,NA,1.1178339678982514,0.35572658967993087,NA,-0.09565156722278223,NA,NA,0.4394382154265496,0.25655971591800286,NA,0.6808934530565959,NA,71305.2348365718,21095.418761944384
96,171640.2890625,116864.0,"[2,6,7,11,12,14,16,30,32,36,38,46]",12,0.38244780748967955,0.29047699399655347,NA,NA,0.434835243577282,NA,0.10277493359864165,NA,NA,0.4075424569686248,0.23094724672959321,NA,0.7175136691738856,NA,70684.99169261017,16273.158094210154
96,13537.9609375,10426.0,[6],1,0.30759757845475066,0.1671131260659422,NA,NA,0.5265026748818045,NA,0.33544935432686174,NA,NA,0.43714357021431527,0.20278693574952467,1.7047012410302846,0.839539610662205,NA,74056.38743371503,15303.640312339321
96,91167.19921875,75802.0,"[13,15,17,21,23,28,39]",7,0.31281729881584197,NA,2.068543023443867,1.0475160913393107,NA,NA,NA,NA,NA,0.5594835310227358,0.13105571711094433,0.14079596536861927,2.456105959824247,NA,68995.2953710609,20838.22642660794
96,18803.7421875,11493.0,"[15,17,29,45]",4,0.8207128767335188,NA,NA,1.177640217238387,NA,NA,NA,NA,NA,NA,0.35388653729124053,0.1514327795204914,2.1960319958714183,NA,NA,28326.468286939264
96,29271.34765625,21772.0,"[14,16,30,32]",4,0.4587889790645583,0.23003784883361522,NA,NA,0.3580368351213985,NA,0.04699779079824706,NA,NA,0.5453991718593462,0.33752114471395966,NA,0.7126648506353187,NA,72104.64576267458,19735.760650113087
120,184771.9423828125,155180.0,"[10,13,15,17,21,23,28,29,39,45]",10,NA,NA,NA,1.1733267289725395,NA,NA,NA,NA,NA,0.48560715407551747,0.15171007623814603,0.13026370385192199,2.603418527592408,NA,67121.9811805484,20052.829418554342
120,9847.5703125,7628.0,"[15,17]",2,0.502089620752145,NA,NA,1.0584063470511285,NA,NA,NA,NA,NA,0.5730829462660932,0.29290657791569696,0.15099542006961186,2.107704918971123,NA,66878.97151026304,21225.070581337866
144,174119.98559570312,127927.0,"[10,13,15,17,21,23,28,29,39,45]",10,NA,NA,2.227434292313428,1.3304440969882347,NA,NA,NA,NA,NA,NA,0.08298919887889777,0.1695908033339696,2.582243563502563,NA,66520.54419945915,18996.92119297995
144,7871.892578125,5410.0,"[15,17]",2,0.5221188455117736,NA,NA,1.2342713332299762,NA,NA,NA,NA,NA,NA,0.2162525962289159,0.18799124763370867,2.2176187518619046,NA,66301.6054162245,20098.114165584706
144,53252.02978515625,39782.0,"[36,38,46]",3,0.4105710819197066,0.1357032454950846,NA,NA,0.2540879417810129,NA,0.11001470512172373,NA,NA,0.37651884708209227,0.22012650781606702,NA,0.6652281306416875,NA,71024.12830834257,13328.869526567742
168,220559.32751464844,172467.0,"[7,8,9,10,12,13,15,17,23,24,28,29,30,32,39,42,44,46,47]",19,0.32124832116211177,NA,NA,NA,NA,NA,NA,NA,NA,0.6631536669244052,0.2079060176453993,0.2634778060252527,NA,NA,65989.38495697122,22059.01603113018
168,29419.00958251953,18208.0,"[21,45]",2,0.7411466612837851,NA,2.189449070533208,NA,NA,NA,NA,NA,NA,0.7181536209105058,0.2103148344687824,0.11791645877242884,2.5199649743792194,NA,NA,21804.717860282355
168,21428.29931640625,13721.0,"[9,10]",2,0.293191043247105,NA,2.049043642395477,1.458274135878355,NA,NA,NA,NA,NA,0.6452876163874347,0.14174436181540617,0.18079510620733685,2.3726490434447416,NA,NA,20080.003958696023
