time_in_hour,cumulative_size,size,pcore_ids,pcore_power,AF700 CD48_[R 730_B-A],APCCy7 Ly6G_[R 780_A-A],BV421 CD117_[V 440_F-A],BV510 SCA-1_[V 525_E-A],BV605 CD11b_[V 610_D-A],BV650 CD150_[V 660_C-A],BV711 CD11c_[V 715_B-A],BV785 B220_[V 780_A-A],FITC Ly6C_[B 525_B-A],PE CD115_[YG 582_D-A],PECF594 CD135_[YG 610_C-A],PECy5 CD3-CD19-NK11_[YG 670_B-A],PECy7 CD16-32_[YG 780_A-A],PerCPCy5-5 CD45_[B 695_A-A],_FSC-A,_SSC-A
-1,0,0,[],0,0.0,0.0,0.0,0.0,0.0,0.0,0.0,0.0,0.0,0.0,0.0,0.0,0.0,0.0,0.0,0.0
0,130775,130775,"[2,4,6,10,17,21,24,25,26,27,35,43,44,49]",14,0.17454784118575237,0.24135396518587832,0.3504074957408796,0.2911349164907245,0.2734884497996969,0.22867278433435306,0.25309615261828966,0.4791395714695201,0.19044896268666042,0.11303242273722655,0.251356225442352,0.20955224731636463,0.15588022768792478,0.28120419349350484,0.19833368250958744,0.055668333316261774
0,159977,159977,"[8,9,11,13,14,15,16,18,19,20,22,23,28,30,31,32,33,37,38,39,40,41,45,47,48,50,51]",27,0.17917679338151643,0.3843074431199632,0.4942208144858966,0.3112960961447953,0.4897900861020049,0.24298026425777308,0.26410832408068563,0.3273921239840505,0.5578017951233282,0.1484843499952306,0.2519185175075774,0.10482379248808628,0.3203028264921408,0.3737070368943574,0.19950166145227327,0.08495545064097192
0,81531,81531,"[9,11,14,15,18,19,20,22,23,27,28,30,31,32,33]",15,0.18082015975370933,0.37616948086799135,0.48451203827301864,0.3100889049704825,0.472840634772054,0.25702575188605403,0.25960966016647335,0.32992372054698427,0.5345962756465148,0.1477671066679952,0.2548635161162328,0.10631274457688518,0.3075256506120228,0.3592630087722019,0.19608197659840917,0.08221005816656934
0,45053,45053,"[4,10,17,21,24,25,26,35]",8,0.178098916023559,0.2427711356979461,0.37598082465890154,0.2925437892788012,0.27474124409824513,0.22954049430577242,0.25723138480461094,0.4433924177783845,0.21183466844536272,0.11708815157387825,0.252764278081414,0.1919173902490267,0.15029503977331707,0.25537046012465076,0.20037974434829325,0.058340796214186835
24,370552.0,177121.0,"[0,3,5,6,7,8,9,11,13,14,15,16,18,19,20,21,22,23,27,28,30,31,32,33,37,38,39,40,41,43,45,47,48,49,50,51]",36,0.18315465696529407,0.3694091615245691,0.4995295018934577,0.3168586485041811,0.47372919968474386,0.24854845231109285,0.26412866791073103,0.332241009514456,0.5487948263624502,0.15004100958380048,0.2524888787742083,0.106852091839843,0.3027908627285121,0.36012249048825407,0.19971446640216678,0.09298312280917358
24,255195.0,136041.0,"[2,4,10,17,24,25,26,35,44]",9,0.170887793757248,0.23592154126088283,0.33976244750925966,0.29383479362821435,0.2636661145574253,0.22931792783958513,0.2515521322055239,0.48621562731499396,0.17887082640227547,0.10712489142572017,0.2484385214831967,0.21328688238802287,0.14530871751039715,0.2803387316367339,0.2063153986742678,0.056227538666882494
24,21509.0,10839.0,"[3,5,6,7]",4,0.18328931075015903,0.35864888177288134,0.4893888312656262,0.31668884943645936,0.4497953857059265,0.2516141810963896,0.2652001423277985,0.3363178979348192,0.5169139951560668,0.14633414770875605,0.25677686025710916,0.10971284105454523,0.2832744513737049,0.33830519283300164,0.19446417636820593,0.08991794446982199
24,59657.0,28838.0,"[12,29,34,36,42,53]",6,0.333872481927139,0.2602153473171747,0.5087841172751177,0.34793402006117885,0.419179376383039,0.2823828303032702,0.25106131752806327,0.342531666416994,0.7727824020314751,0.4233026247163311,0.2853661012214241,0.1117409580083311,0.37300582303724045,0.421761085000401,0.24375307991044268,0.15272378453863425
24,21847.0,8970.0,"[11,13,14,15,16,46]",6,0.20564025828426596,0.3499987354949748,0.525959532121673,0.3327307736750936,0.44302369875529585,0.27723720574424654,0.2603379320373944,0.3368975720140281,0.5282205061738888,0.17375338498872325,0.2688183318059138,0.11272263661188398,0.2915841070840266,0.3674506151691135,0.2103902928815548,0.109433821625467
24,23127.0,11881.0,"[19,20,22,23,27]",5,0.19589258782501226,0.3563559357028305,0.48010800064457865,0.3143354437476124,0.4527129139289016,0.26458126031829593,0.2584069218039821,0.3335461569088142,0.5570277200634096,0.1698825404479303,0.2561777171566564,0.10751965106359883,0.2994941780131138,0.3562902360940291,0.1948067066519993,0.08901399619643931
24,23979.0,15119.0,"[21,30,24]",3,0.18292048360972077,0.25551305502964694,0.4460825187486283,0.31234019250574074,0.29173780193302035,0.23929786972136355,0.26448387973934306,0.3658268712847215,0.27769262086859636,0.12719558724076416,0.2618668548664452,0.13888341593344433,0.15534943633139378,0.20857828836333045,0.20060948117515237,0.07418567694738203
24,18675.0,9685.0,"[29,31,33,52]",4,0.26680160644933565,0.28508210151957375,0.5905922246637602,0.4264718451792198,0.459568748663359,0.4062519668250078,0.21114543024770033,0.35185363681730397,0.636778974454528,0.38047908866188623,0.3415901171594388,0.13570697759874753,0.35553474038686383,0.47939608971289777,0.3416480597558886,0.28226265770811493
24,44832.0,24921.0,"[10,17,25,26,35]",5,0.17926735543503564,0.23655785910832772,0.3468477640570052,0.3084030534009464,0.2711067684012422,0.23416381676901418,0.25360006151136977,0.504295037444766,0.2253288102359667,0.11860749280186184,0.25072769385994176,0.24075105316521933,0.15452113462065153,0.35052869369382733,0.2126668391740462,0.061046724887473904
48,520213.0,158889.0,"[0,3,5,6,7,8,9,11,14,15,16,18,19,20,21,22,23,27,28,30,32,33,37,38,39,40,41,45,47,49,50,51]",32,0.18077461742875517,0.3717397492691141,0.49684686482472445,0.31282720636181766,0.4768607386936151,0.24574620305010889,0.2648493864727862,0.3276566499524558,0.5600174022570762,0.13936128399612863,0.24975881415924053,0.10231135713955747,0.30472380709995006,0.3488066396991037,0.19305745009629166,0.08939177634203578
48,405473.0,135566.0,"[1,2,4,10,24,25,26,35,43,44]",10,0.17101549959539553,0.23743800064293283,0.3515494700721333,0.2914087831208151,0.2630626612102828,0.2294620072101338,0.25302068024169677,0.46174975554194625,0.18096391148851396,0.10589303459176276,0.24895559875532303,0.1911684759822689,0.14153873065559294,0.250200387307535,0.20040704825014607,0.05885757062393877
48,26374.0,12912.0,[17],1,0.15932779690940188,0.22855831919385122,0.2729453385588422,0.3376951028502804,0.25627600767336445,0.2493504125397806,0.24598002573028407,0.6297916035388732,0.21089893384291,0.10617058642620923,0.24870544671020764,0.32545352588497334,0.16217605595838283,0.4424775634204347,0.21447952969451023,0.054240893455144094
48,22702.0,1193.0,"[3,5,6,7]",4,0.18175778056943317,0.3598234478355636,0.4884470079616072,0.31481777980615305,0.4502510575497511,0.2521493066836565,0.2647424909172616,0.33486822489113455,0.5163856490218051,0.14374273924672426,0.2560876863777506,0.10847281506766299,0.2839887759331443,0.3339253759546557,0.19291306215849938,0.08865789654440248
48,89261.0,29481.0,"[12,29,31,34,36,42,48,53]",8,0.33909551813913896,0.2580613712310206,0.49593264805137166,0.3429004424597909,0.4200559565869931,0.2789249772453883,0.25423451257000995,0.3370097772184614,0.7790891502268091,0.42833824235108153,0.28214031820589586,0.10896658481602926,0.37865197100803455,0.417976440846059,0.23554600645368745,0.14688606777813276
48,26337.0,8325.0,"[11,14,15,16]",4,0.20492781509933888,0.3325364715207596,0.4599250792623337,0.3402871839393638,0.4030303114960318,0.26816027559728056,0.2644447382253448,0.35295757743728723,0.5903871638289866,0.14728260654977723,0.2605769989787821,0.12882379666989283,0.2539195561069611,0.3958346491602529,0.20450745476523297,0.0921592359302518
48,7154.0,3723.0,[19],1,0.27569734453257094,0.26307335429149387,0.44417586312003193,0.3178827160410379,0.40194334162566814,0.24413563122556148,0.2594497666826015,0.3513594759325042,0.7777595382450303,0.26646952175977506,0.2649656077469458,0.10621960001230348,0.3193323010733104,0.36376900505179144,0.19271023424694,0.09769280703274648
48,7721.0,2522.0,"[21,46]",2,0.29385798004132113,0.2516985304330855,0.651621159990248,0.3650454379994969,0.30419595346221595,0.29066269088041263,0.27277075882758345,0.35891625497700597,0.30024269972638934,0.19456850686891766,0.3015505837764765,0.12541087359082503,0.21193370367284287,0.32952446749017406,0.202080371072567,0.13893178194957234
48,29377.0,8770.0,"[23,25,26]",3,0.18091503245229779,0.26124058970755515,0.3974461049464627,0.30206679522096663,0.30563508272381995,0.2325969274304598,0.25541864855349594,0.48338086799693064,0.2946406407319407,0.12464172418819432,0.2518083137862799,0.2014071351904728,0.1824034576332721,0.32786649436035836,0.20720297046778774,0.0710089455932204
48,520.0,148.0,[30],1,0.22109187695278323,0.2983209986480144,0.4779502627203486,0.38129382133075496,0.39463389963762985,0.1338708167303493,0.3243845739521027,0.39000953649430986,0.416595654153796,0.18004391658050134,0.28380001740211497,0.16602685154155314,0.24571932720260958,0.4480078661227141,0.2129155914781086,0.09949250799275834
48,39591.0,20916.0,"[29,31,33,52]",4,0.2754201251831424,0.27835388562404606,0.5595814843574718,0.3963775290085763,0.43478283964364717,0.3807457491906902,0.22219979856438735,0.3418993198725482,0.6715157019236585,0.3713477285481179,0.32187691579600086,0.12335532777384695,0.35767238854467037,0.4271657601575899,0.3019107832536397,0.2459287741948598
48,8446.0,3649.0,[35],1,0.21834645436441094,0.2323955617926021,0.3741442036318865,0.3386389122706028,0.2674352904334896,0.24880539989562928,0.24720355129581378,0.3100563419921087,0.18303803154048195,0.1245775866983166,0.2491324395290582,0.24524099787987225,0.12152426818670782,0.497578127253946,0.23909868601459808,0.06294962215997435
48,36142.0,15344.0,"[38,39,41,45,49,43]",6,0.22951920251151658,0.274376316108683,0.5980326103934871,0.34105769327542623,0.3691205778097376,0.2691112445008397,0.2662573104370302,0.34702146519838245,0.468355583152752,0.16732542196568062,0.2745536760763321,0.11723835804926186,0.2469647380263041,0.2853615428006274,0.19415825943740334,0.1246386346716134
72,712870.0,192657.0,"[0,3,5,6,7,8,9,11,14,15,16,18,19,20,21,22,23,27,28,30,32,33,37,38,39,40,41,45,47,49,50,51]",32,0.18413243602165066,0.3693659944245802,0.4882312484895016,0.3228737648753723,0.47385029260058203,0.24648000732977948,0.2639478017740158,0.32687220207515666,0.5522555412807696,0.14494734257310063,0.25508150294089316,0.10181978819055361,0.3022186418499271,0.3490917018702433,0.19879653777640913,0.09586837330918906
72,556042.0,150569.0,"[1,2,4,10,24,25,26,35,43,44]",10,0.16899583223289838,0.23858395537994917,0.3435178191895782,0.2962428741089847,0.2624465736654289,0.22884407108686378,0.2519093803989079,0.46863529257402764,0.17974754164380122,0.10411282458986393,0.24882300439585847,0.18955193081036037,0.14200011721568745,0.25284753086483536,0.2005684909623328,0.06069833751313937
72,26374.0,0.0,[17],1,0.15932779690940188,0.22855831919385122,0.2729453385588422,0.3376951028502804,0.25627600767336445,0.2493504125397806,0.24598002573028407,0.6297916035388732,0.21089893384291,0.10617058642620923,0.24870544671020764,0.32545352588497334,0.16217605595838283,0.4424775634204347,0.21447952969451023,0.054240893455144094
72,22702.0,0.0,"[3,5,6,7]",4,0.18175778056943317,0.3598234478355636,0.4884470079616072,0.31481777980615305,0.4502510575497511,0.2521493066836565,0.2647424909172616,0.33486822489113455,0.5163856490218051,0.14374273924672426,0.2560876863777506,0.10847281506766299,0.2839887759331443,0.3339253759546557,0.19291306215849938,0.08865789654440248
72,106035.0,16774.0,"[12,29,31,34,36,42,48,53]",8,0.34001554142250767,0.25973619814654725,0.49055790756619266,0.3573573981130882,0.41415511524448495,0.28317765543457524,0.2512626480614439,0.3375200126120439,0.7715064560584615,0.4260421481738333,0.2857329922191189,0.1096656715078766,0.3766604601894582,0.4190064793013771,0.24242888190626044,0.1558728270176755
72,26337.0,0.0,"[11,14,15,16]",4,0.20492781509933888,0.3325364715207596,0.4599250792623337,0.3402871839393638,0.4030303114960318,0.26816027559728056,0.2644447382253448,0.35295757743728723,0.5903871638289866,0.14728260654977723,0.2605769989787821,0.12882379666989283,0.2539195561069611,0.3958346491602529,0.20450745476523297,0.0921592359302518
72,7154.0,0.0,[19],1,0.27569734453257094,0.26307335429149387,0.44417586312003193,0.3178827160410379,0.40194334162566814,0.24413563122556148,0.2594497666826015,0.3513594759325042,0.7777595382450303,0.26646952175977506,0.2649656077469458,0.10621960001230348,0.3193323010733104,0.36376900505179144,0.19271023424694,0.09769280703274648
72,7721.0,0.0,"[21,46]",2,0.29385798004132113,0.2516985304330855,0.651621159990248,0.3650454379994969,0.30419595346221595,0.29066269088041263,0.27277075882758345,0.35891625497700597,0.30024269972638934,0.19456850686891766,0.3015505837764765,0.12541087359082503,0.21193370367284287,0.32952446749017406,0.202080371072567,0.13893178194957234
72,29377.0,0.0,"[23,25,26]",3,0.18091503245229779,0.26124058970755515,0.3974461049464627,0.30206679522096663,0.30563508272381995,0.2325969274304598,0.25541864855349594,0.48338086799693064,0.2946406407319407,0.12464172418819432,0.2518083137862799,0.2014071351904728,0.1824034576332721,0.32786649436035836,0.20720297046778774,0.0710089455932204
72,520.0,0.0,[30],1,0.22109187695278323,0.2983209986480144,0.4779502627203486,0.38129382133075496,0.39463389963762985,0.1338708167303493,0.3243845739521027,0.39000953649430986,0.416595654153796,0.18004391658050134,0.28380001740211497,0.16602685154155314,0.24571932720260958,0.4480078661227141,0.2129155914781086,0.09949250799275834
72,48908.0,9317.0,"[29,31,33,52]",4,0.28595410451580644,0.27643753990421605,0.5414208759679717,0.4032304556266618,0.41887424590820704,0.3648916046488037,0.22541725112489214,0.34144093500232836,0.6829114831629856,0.376242538823141,0.31827404654638786,0.12120536893889328,0.3541007965523484,0.420057961884485,0.2940445671134312,0.2372906757289768
72,8446.0,0.0,[35],1,0.21834645436441094,0.2323955617926021,0.3741442036318865,0.3386389122706028,0.2674352904334896,0.24880539989562928,0.24720355129581378,0.3100563419921087,0.18303803154048195,0.1245775866983166,0.2491324395290582,0.24524099787987225,0.12152426818670782,0.497578127253946,0.23909868601459808,0.06294962215997435
72,39923.0,3781.0,"[38,39,41,45,49,43]",6,0.23777494867192472,0.2743891045830824,0.5974332057881389,0.34940222822902706,0.37080037808187377,0.27445991435471323,0.26518162296936404,0.34729445107760704,0.4800698462285476,0.17980191818274366,0.2795853078479925,0.1179063397417739,0.25392759879184745,0.29584171414592986,0.20227798367693667,0.1363773549009232
96,885322.0,153967.0,"[0,3,5,6,7,8,9,11,14,15,16,18,19,20,21,22,23,27,28,30,31,32,33,37,38,39,40,41,45,47,49,50,51]",33,0.19135459158964527,0.37284599901740445,0.4904221358163011,0.33071443561882613,0.47760181288251347,0.24726580299179757,0.2703764801263215,0.3316755115454049,0.5589592443924357,0.1545394263199317,0.25666075752117734,0.10225968826486366,0.31179510470821586,0.36249521925193107,0.19920810349974175,0.09601808792558802
96,680915.0,124873.0,"[1,2,4,10,24,25,26,35,43,44]",10,0.1726105963510643,0.241554370458803,0.34516697248510436,0.3037814932933791,0.26664903111100374,0.22929636731955402,0.2551003415013838,0.47628153748269464,0.18545533116727445,0.10733672648625583,0.2505074109208263,0.19829364910869346,0.14733394152209534,0.26600062754625314,0.20218343001217814,0.06070277883285439
96,26374.0,0.0,[17],1,0.15932779690940188,0.22855831919385122,0.2729453385588422,0.3376951028502804,0.25627600767336445,0.2493504125397806,0.24598002573028407,0.6297916035388732,0.21089893384291,0.10617058642620923,0.24870544671020764,0.32545352588497334,0.16217605595838283,0.4424775634204347,0.21447952969451023,0.054240893455144094
96,901.0,0.0,[3],1,0.18371590199183332,0.3441198071121804,0.46987395270940563,0.31825792683059306,0.41049129873776785,0.2424870740936163,0.2652893038031426,0.34745670016905644,0.44533870111514673,0.14587065466719218,0.25930371632437726,0.1117433969864562,0.2492242694627384,0.31960927010104717,0.18621486707158086,0.08312552068946932
96,21801.0,0.0,"[5,6,7]",3,0.18167685458431404,0.3604724538578455,0.48921460223628427,0.31467560410462464,0.451894263948063,0.2525486310982992,0.26471989202683555,0.3343479636083765,0.5193219042423866,0.1436547959508277,0.2559547730718513,0.10833764721715922,0.28542553664732423,0.33451703740936417,0.193189887706562,0.08888654067289635
96,97815.0,10265.0,"[12,29,34,36,42,48,53]",7,0.343352935056543,0.2635504734478749,0.49696010901810367,0.36291371936686706,0.43284265509390435,0.28456055474023706,0.2545962223483777,0.3419397728825645,0.769223488291626,0.425889525792584,0.2872985970739002,0.11139615667051875,0.3854398937303192,0.44431882423040586,0.24581592407352637,0.15396778652106344
96,27870.0,1533.0,"[11,14,15,16]",4,0.2088040875564625,0.33325944861239815,0.461376681611488,0.3446358810820771,0.40481786533620295,0.26963450310792997,0.26463233226176835,0.3555684644261744,0.590760042361215,0.15274622989023154,0.26241319341840147,0.1290247452244153,0.2578387375424329,0.4002827748491758,0.20617785713283904,0.0937543380014406
96,7154.0,0.0,[19],1,0.27569734453257094,0.26307335429149387,0.44417586312003193,0.3178827160410379,0.40194334162566814,0.24413563122556148,0.2594497666826015,0.3513594759325042,0.7777595382450303,0.26646952175977506,0.2649656077469458,0.10621960001230348,0.3193323010733104,0.36376900505179144,0.19271023424694,0.09769280703274648
96,7721.0,0.0,"[21,46]",2,0.29385798004132113,0.2516985304330855,0.651621159990248,0.3650454379994969,0.30419595346221595,0.29066269088041263,0.27277075882758345,0.35891625497700597,0.30024269972638934,0.19456850686891766,0.3015505837764765,0.12541087359082503,0.21193370367284287,0.32952446749017406,0.202080371072567,0.13893178194957234
96,13499.0,0.0,"[23,26]",2,0.18540000376706928,0.2869805981346,0.44142917070174387,0.3038191417797142,0.3437019283166093,0.24118281096142938,0.2561797365622103,0.432621331003336,0.3419464144545322,0.13490831696301034,0.253781657034108,0.1732385291902476,0.20967962508190027,0.3284633868187105,0.20495391201800303,0.07891645231385112
96,31063.0,7033.0,"[29,52]",2,0.28252069716112865,0.28291311164483984,0.5749828977564712,0.45542261335295353,0.4520551641393592,0.40738666317206434,0.21800669281631635,0.3551187841109263,0.6249752422988909,0.42211358166282625,0.3582297180018157,0.14105877623396965,0.3692747958584429,0.5151141051440458,0.36175305966863686,0.3092959143831149
96,520.0,0.0,[30],1,0.22109187695278323,0.2983209986480144,0.4779502627203486,0.38129382133075496,0.39463389963762985,0.1338708167303493,0.3243845739521027,0.39000953649430986,0.416595654153796,0.18004391658050134,0.28380001740211497,0.16602685154155314,0.24571932720260958,0.4480078661227141,0.2129155914781086,0.09949250799275834
96,15567.0,9174.0,[33],1,0.23831202941960714,0.3509132084340605,0.5926299083717015,0.3586375548633978,0.5408847435637788,0.3374862501525841,0.27553006677435243,0.35280761901530755,0.6558675684230564,0.17630276179360607,0.269873470469005,0.10339166585364619,0.38088397865612406,0.42248107333728613,0.2220263130463608,0.12386761230044455
96,8446.0,0.0,[35],1,0.21834645436441094,0.2323955617926021,0.3741442036318865,0.3386389122706028,0.2674352904334896,0.24880539989562928,0.24720355129581378,0.3100563419921087,0.18303803154048195,0.1245775866983166,0.2491324395290582,0.24524099787987225,0.12152426818670782,0.497578127253946,0.23909868601459808,0.06294962215997435
96,50826.0,3327.0,"[38,39,40,41,45,49,43]",7,0.24066871150995034,0.2883242947566136,0.5957215116503047,0.3498083555671283,0.4117392220583479,0.3029800701058719,0.25312712827981476,0.3515735474926286,0.5200137707648536,0.17565305277600204,0.27657009928410187,0.11316455183657037,0.28172358528618213,0.3209756557714389,0.20924031151755032,0.1348501030379234
96,6487.0,0.0,"[36,42]",2,0.3271047090143431,0.26145496180397365,0.5210161390587342,0.34964983653313525,0.41063408245054,0.3113574387644317,0.24149573219039178,0.3382668217145692,0.7556352030747685,0.42079202804443616,0.291344628376448,0.11280657136130771,0.3673985207518536,0.41192803827744695,0.24477831139449366,0.16206196144841584
96,10862.0,0.0,"[48,51]",2,0.3488086983048725,0.25477670930871343,0.4780764645027702,0.3314690196294129,0.47197552662554254,0.16676720445379967,0.3043001488193824,0.31799082200905343,0.7905573579105253,0.42064612218842673,0.2642216287615663,0.10519434003103778,0.39689331385906534,0.45838039460022734,0.21659586300232372,0.12266892789930633
120,1107347.0,219828.0,"[0,3,5,6,7,8,9,11,13,14,15,16,18,19,20,21,22,23,27,28,30,31,32,33,37,38,39,40,41,45,47,49,50,51]",34,0.19136936486014608,0.38321175229264054,0.49603270146281064,0.3382065549008089,0.48894684895473617,0.24775988146508723,0.2768973590342891,0.33844771586929295,0.5576026858672196,0.1525545105490815,0.2569624288605722,0.10295732876624557,0.3220151357851285,0.38092942242513167,0.197420594317372,0.09337362362746644
120,784845.0,103930.0,"[1,2,4,10,24,25,26,35,43,44]",10,0.17393132515879628,0.2434495920640464,0.3502929847121414,0.3078984836371877,0.2697034279236554,0.2297738675702744,0.257097496530147,0.4752611837083184,0.18873688258362706,0.10901347050907588,0.2521057462014891,0.1994728431264693,0.14933042656599593,0.27077374418842975,0.20163076422024873,0.060692639274897396
120,34982.0,8608.0,[17],1,0.16592330567113564,0.23533854567292425,0.2892246062687558,0.34991477584623326,0.26714497984909036,0.24823950451634713,0.2538007060931082,0.6077610023870449,0.22360298339109524,0.11286297070891473,0.25196872856919267,0.31225261179712305,0.16824241352976363,0.4380188214479498,0.21204368607360274,0.055361277866716775
120,901.0,0.0,[3],1,0.18371590199183332,0.3441198071121804,0.46987395270940563,0.31825792683059306,0.41049129873776785,0.2424870740936163,0.2652893038031426,0.34745670016905644,0.44533870111514673,0.14587065466719218,0.25930371632437726,0.1117433969864562,0.2492242694627384,0.31960927010104717,0.18621486707158086,0.08312552068946932
120,21801.0,0.0,"[5,6,7]",3,0.18167685458431404,0.3604724538578455,0.48921460223628427,0.31467560410462464,0.451894263948063,0.2525486310982992,0.26471989202683555,0.3343479636083765,0.5193219042423866,0.1436547959508277,0.2559547730718513,0.10833764721715922,0.28542553664732423,0.33451703740936417,0.193189887706562,0.08888654067289635
120,120161.0,22346.0,"[12,29,34,36,42,48,53]",7,0.3450321292187706,0.26712825345160407,0.49654225508854194,0.3807373224349495,0.4379717544311818,0.28104247210885674,0.26057750233597393,0.3496915306768388,0.7644372903500326,0.4178930420007297,0.2903159274020648,0.11312374683632011,0.3873566185295191,0.4587730467322437,0.24201078413123517,0.15055476582938876
120,33428.0,3361.0,"[11,13,14,15,16]",5,0.21889654751500834,0.3310056158601927,0.4700349870977493,0.3588872878603978,0.41029551872447806,0.2871107992871647,0.26281265458353864,0.3582542249130179,0.5832438508251921,0.17583199524327153,0.27238667054177035,0.13063346459913278,0.26854120960453937,0.41876255598948986,0.21552140133830353,0.10639556319042397
120,12942.0,5788.0,[19],1,0.28580823304956104,0.28549735803300946,0.4677602398964152,0.3679368724906691,0.4283611930253085,0.25266600356788915,0.27366432320183837,0.36693566310180503,0.7470285379584217,0.2600199414844605,0.27254088527569725,0.11006663211673383,0.34048597860840224,0.41069698655333653,0.1921051063290325,0.0995982073868022
120,7721.0,0.0,"[21,46]",2,0.29385798004132113,0.2516985304330855,0.651621159990248,0.3650454379994969,0.30419595346221595,0.29066269088041263,0.27277075882758345,0.35891625497700597,0.30024269972638934,0.19456850686891766,0.3015505837764765,0.12541087359082503,0.21193370367284287,0.32952446749017406,0.202080371072567,0.13893178194957234
120,18722.0,5223.0,"[23,26]",2,0.1870946064161234,0.2795536942948669,0.43413821649342527,0.3121589999349276,0.33307952557478654,0.23904917720060737,0.2598614404603585,0.4461353923774386,0.32175501004457596,0.13214415280645328,0.2575016613131446,0.18531268198187834,0.20079394228792008,0.3333894131207005,0.2046922702230614,0.07741844579710067
120,36351.0,5288.0,"[29,52]",2,0.2868381012230042,0.2872741583552443,0.576899021982838,0.45849627914365765,0.4569062328529707,0.41071265826260195,0.21979902388752662,0.35854433894141,0.626094092824958,0.41637586604275073,0.3591734428675139,0.1422997505095375,0.37355274258559995,0.5232912332896029,0.3592375457485628,0.3036214799214573
120,1805.0,1285.0,[30],1,0.20669693542579265,0.34070436177202507,0.48139358734553894,0.3672743973856756,0.4254547185076454,0.17285969112176555,0.3087617019231516,0.3782496659522745,0.4298137758589024,0.14626789028269385,0.27978661868049987,0.1425871942915678,0.26568110259700645,0.42219313704524924,0.1908220933902762,0.08561512629054387
120,16897.0,1330.0,[33],1,0.23786647430408434,0.350321149745999,0.5918462047642437,0.36260072458598824,0.540563540256218,0.33795873595611853,0.27665021572879017,0.3543486345952168,0.6554166299437223,0.17565314067950913,0.2704749830340488,0.1040017452922406,0.37974350596226997,0.4269268916104822,0.22152255058818818,0.12374352497557366
120,10416.0,1970.0,[35],1,0.21822414501632384,0.23556985149842274,0.38382646749840016,0.3486679229359076,0.27910352085541085,0.24702780635820354,0.25330579673136117,0.32870414102609613,0.1906164743784843,0.12765690572737634,0.25300320998715886,0.23896142030935327,0.13320094246765132,0.492414284842769,0.23308615011687953,0.06169978854610631
120,78522.0,26386.0,"[38,39,40,41,45,47,49,43]",8,0.23790307552612378,0.3171494028318476,0.577669552283962,0.366914553865363,0.4441015355134757,0.3127242664686063,0.2654554352392378,0.36198217459507637,0.5335212618652796,0.17619165039093262,0.2790971044883777,0.1153589101609154,0.30587280632156405,0.36672602434923485,0.2090901515281347,0.12551974404642005
120,7084.0,597.0,"[36,42]",2,0.3243269891587533,0.262857158583654,0.5256837710438551,0.3592191911340826,0.4161937401803361,0.31923150262395583,0.24077672468725483,0.3397916295388175,0.7475412970019765,0.4159361709336379,0.2951114991857384,0.11397210942868072,0.36991237321114656,0.4244338719552198,0.2487456944641647,0.16598528509873792
120,22675.0,11813.0,"[48,51]",2,0.3482131467154266,0.2703724629204492,0.48432001050641055,0.3953192881319211,0.4670790745108666,0.1759707991723794,0.3064603578614801,0.3508891388133935,0.767461653514925,0.39811761595038503,0.2799381909953043,0.11294108351022453,0.3940354274138871,0.4875096340532273,0.21589891516220658,0.12348994274211784
144,1282288.0,174941.0,"[0,3,5,6,7,8,9,11,13,14,15,16,18,19,20,21,22,23,27,28,30,31,32,33,37,38,39,40,41,45,47,49,50,51]",34,0.19176322450877542,0.38837525104229415,0.49663764332618626,0.3476149240256594,0.49417392193156157,0.2482014899414425,0.2826283665224318,0.34370079679425997,0.5550158402835351,0.15276734233561137,0.2559767322438924,0.1060171298284927,0.32677188507491245,0.39354113990405154,0.19642313535438402,0.09115808100056588
144,886515.0,101670.0,"[1,2,4,10,24,25,26,35,43,44]",10,0.17565437331754433,0.24333887254803188,0.3517793984006393,0.3179901600536447,0.27052474987508324,0.23035140454429456,0.2597170383378492,0.47943216792786053,0.19065203474388312,0.11066050854038867,0.2529158656410018,0.2055784222787463,0.15164240900507223,0.27834782534377217,0.2013392351059832,0.060347325723980834
144,45530.0,10548.0,[17],1,0.1701991982321685,0.23433599790402404,0.2920659189290486,0.37760481483855457,0.26877600888463526,0.2462766058993728,0.25964754740600954,0.6090438689828405,0.22964965717362365,0.1161447643417579,0.2531349518647632,0.3197119781362846,0.1710385948421034,0.4495720319186464,0.2124387866017652,0.05522511749174371
144,901.0,0.0,[3],1,0.18371590199183332,0.3441198071121804,0.46987395270940563,0.31825792683059306,0.41049129873776785,0.2424870740936163,0.2652893038031426,0.34745670016905644,0.44533870111514673,0.14587065466719218,0.25930371632437726,0.1117433969864562,0.2492242694627384,0.31960927010104717,0.18621486707158086,0.08312552068946932
144,21801.0,0.0,"[5,6,7]",3,0.18167685458431404,0.3604724538578455,0.48921460223628427,0.31467560410462464,0.451894263948063,0.2525486310982992,0.26471989202683555,0.3343479636083765,0.5193219042423866,0.1436547959508277,0.2559547730718513,0.10833764721715922,0.28542553664732423,0.33451703740936417,0.193189887706562,0.08888654067289635
144,148629.0,28468.0,"[12,29,34,36,42,48,53]",7,0.3460272172040184,0.26649828946270643,0.49491447043855025,0.40385254820409794,0.441031631637888,0.2784607766418113,0.27061950433189746,0.3549148302604319,0.7593788387277464,0.4194873993774395,0.2934301630156041,0.11798935007435034,0.3837181867066032,0.4758629929696942,0.2403312435908178,0.14971143209374316
144,45538.0,6475.0,"[11,13,14,15,16,46]",6,0.23857080735388064,0.31419496801453045,0.4998017400586928,0.37896585048489945,0.38610294349242147,0.2901272967609329,0.26725869702224586,0.36325751948148216,0.5444788602382613,0.18082250587942433,0.279304965710731,0.13711529247359294,0.25583569869028944,0.4197673755177085,0.21312802879386158,0.11093347936173643
144,13876.0,934.0,[19],1,0.2878251350146933,0.2852437303724903,0.46737323396669284,0.377617523868377,0.42730242474083296,0.253718330185479,0.27781091413216485,0.3711041101878827,0.7439960737891234,0.2592211903138155,0.27384754039009884,0.11191085094189415,0.33765812066986145,0.4175303513594131,0.19182650515480965,0.10043874546325057
144,2086.0,0.0,[21],1,0.21878157714914132,0.26030978226028056,0.45340062049327673,0.33603204660876956,0.3198069713998446,0.24451212545817846,0.2815334412245015,0.4036082150639179,0.29078601671693416,0.16545777665011868,0.27542448806914016,0.16037756455799174,0.19666911267957435,0.3321539437575813,0.19872645630726024,0.08144575444182585
144,21281.0,2559.0,"[23,26]",2,0.18924462497690428,0.2753206212982623,0.4306580161414522,0.3250108738403336,0.32690724999086174,0.2379126723616144,0.2630923803545497,0.4545481282462309,0.31311275049003917,0.13232585069258168,0.25851523851453617,0.19451876570742985,0.19806405828311954,0.33932792822220337,0.20428870724730241,0.07603397954410127
144,41939.0,5588.0,"[29,52]",2,0.2906616951391113,0.2861301248825059,0.5736930323955597,0.4665006944408218,0.45497799949410356,0.4101578876549314,0.22474339057758894,0.3628902286889838,0.6305488667386087,0.4145336186611472,0.3587904423483115,0.1456218458047203,0.3719243090032655,0.5291351230036244,0.3556144783742816,0.2968228183377616
144,2813.0,1008.0,[30],1,0.21465473058932918,0.3436772384603593,0.4854383355103101,0.39765970073685486,0.43316358081630296,0.17729252092842124,0.3228607262037565,0.3861644628459419,0.4395499370001491,0.1606817303519261,0.2777611804073329,0.1520484629840696,0.2806399463380825,0.44176325467631067,0.19235191752498468,0.08278726301325422
144,23233.0,2672.0,"[38,39,36]",3,0.23749513981870748,0.33228401397647606,0.5781086003076894,0.3833528072046234,0.5151367718669301,0.28711872976144437,0.2821846317137478,0.3565921472983143,0.652593179003525,0.19518773220246022,0.2751536731637847,0.11152809445339386,0.3623614235436555,0.4312444474843249,0.22390683280814166,0.13081852150239234
144,12087.0,1671.0,[35],1,0.2216169064743334,0.23693741340504965,0.3878775692985549,0.3643993994511036,0.28146260762558556,0.24789054853475678,0.25575388297530766,0.33479574783409183,0.19482346277668905,0.13089248044060475,0.2545493275801172,0.24037198001877735,0.1378077147793937,0.4980554476610707,0.23181295647219355,0.06227927976186999
144,17220.0,554.0,"[42,45]",2,0.3136478137236075,0.2703241291445747,0.607773947079161,0.3702763864498141,0.38388366624393727,0.29914176926393826,0.2617021895181419,0.34123243922452146,0.6812035373426893,0.3079452434778351,0.29125383828529,0.11110792687320716,0.3359332414554314,0.3591972990387542,0.2170219250412237,0.17555937564883908
144,34110.0,5375.0,"[41,47,49,43]",4,0.2149951574342234,0.2926711794461063,0.5394834661486492,0.3687111791646605,0.3425459336105007,0.2739306975004645,0.28295046626177595,0.37379529598180383,0.34032289076547056,0.15975172939472476,0.28672852369189905,0.13991173363169687,0.21417896421232893,0.30448403316753747,0.19182925282015753,0.10249976988349714
144,1839.0,0.0,[51],1,0.2940483447861071,0.2733649517975918,0.518050330780672,0.3308522031851571,0.4199161400717427,0.2979028164090945,0.25143319738803427,0.36666670175537797,0.7688377599619456,0.2508580151871972,0.2732257153533252,0.11265957473836752,0.3294748630961282,0.38419105969885975,0.21913269663407453,0.11860449728426214
168,1601496.0,242966.0,"[0,3,5,6,7,8,9,11,13,14,15,16,18,19,20,21,22,23,24,27,28,30,31,32,33,37,38,39,40,41,43,45,47,49,50,51]",36,0.19077930010793365,0.37642519588195106,0.4923688693462328,0.35734834801740406,0.47898133644682145,0.248617888198982,0.285028592485365,0.3474034469395288,0.5350129278223967,0.1530621383575993,0.25753518838471245,0.10951343776534768,0.3126891216183044,0.3797023721313919,0.19480118931189075,0.0913026674966256
168,870967.0,60694.0,"[1,2,4,10,25,26,35,44]",8,0.17388638373926366,0.2407456947820942,0.33964036149141996,0.3218226961210368,0.2676590595104328,0.2288450332751439,0.260004821379287,0.49042500616686974,0.18062926487206998,0.10885931208713577,0.25147202507164523,0.21282272967856639,0.15059785116833874,0.2858729200557912,0.2031248386310548,0.058152894573721504
168,58957.0,13427.0,[17],1,0.16491912206279927,0.23245927138386607,0.28805580030079364,0.4012623994757088,0.26903608914972366,0.24875666191339166,0.2660730007931494,0.6194218811444762,0.2315870759790776,0.11898782962480577,0.25380671258647924,0.32397856855116614,0.1721824165528107,0.46125779468056605,0.21417480476471756,0.05553500884160335
168,901.0,0.0,[3],1,0.18371590199183332,0.3441198071121804,0.46987395270940563,0.31825792683059306,0.41049129873776785,0.2424870740936163,0.2652893038031426,0.34745670016905644,0.44533870111514673,0.14587065466719218,0.25930371632437726,0.1117433969864562,0.2492242694627384,0.31960927010104717,0.18621486707158086,0.08312552068946932
168,21801.0,0.0,"[5,6,7]",3,0.18167685458431404,0.3604724538578455,0.48921460223628427,0.31467560410462464,0.451894263948063,0.2525486310982992,0.26471989202683555,0.3343479636083765,0.5193219042423866,0.1436547959508277,0.2559547730718513,0.10833764721715922,0.28542553664732423,0.33451703740936417,0.193189887706562,0.08888654067289635
168,182438.0,33809.0,"[12,29,34,36,42,48,53]",7,0.343204764773038,0.26492945975606697,0.49802536758557714,0.4272427702792248,0.44528554717579183,0.27884901585607974,0.2793145477281256,0.3554362140731348,0.7508140893529772,0.4187134745985425,0.2962895585166082,0.12141930712254714,0.38098872952940394,0.48404096570902494,0.24190134155370355,0.1532176771828503
168,53226.0,7688.0,"[11,13,14,15,16,46]",6,0.2403517876740939,0.31022720432689466,0.5023683456041369,0.39431766608457736,0.38041652326559566,0.2955108821818016,0.2701589283539319,0.36541893961205085,0.5338647583262048,0.18204370731714925,0.28175412858579413,0.14353524479474086,0.2524540968182218,0.42372004840736094,0.21440896199498347,0.11066051882844345
168,15335.0,1459.0,[19],1,0.2873176441286086,0.28182315137949626,0.46651376869596844,0.3923493752832781,0.42516207277811185,0.25411058838829886,0.2832478348103965,0.3736067947236026,0.7418505681221359,0.25674150915675814,0.27631467376577173,0.11298444156843275,0.33334261549175864,0.42171339650285705,0.1916465366540384,0.10112237152598744
168,2086.0,0.0,[21],1,0.21878157714914132,0.26030978226028056,0.45340062049327673,0.33603204660876956,0.3198069713998446,0.24451212545817846,0.2815334412245015,0.4036082150639179,0.29078601671693416,0.16545777665011868,0.27542448806914016,0.16037756455799174,0.19666911267957435,0.3321539437575813,0.19872645630726024,0.08144575444182585
168,23605.0,2324.0,"[23,26]",2,0.18965537440281402,0.27352903475746676,0.43048420682812816,0.33796182054901575,0.32554610183949456,0.2375653032483661,0.26611172065756106,0.45692596084769993,0.30805922203111763,0.13323249822271854,0.25902398599145476,0.19861421260051343,0.19665634003442267,0.3470367800708287,0.20583213686912363,0.07588710963076675
168,53428.0,11489.0,"[29,52]",2,0.2895993493453837,0.2831048126842544,0.5664654669261203,0.47969381531791067,0.4482101129986925,0.4127108625401444,0.22946827997539082,0.36579389785124,0.6356227754799288,0.4084407461163759,0.3577361146715532,0.14814260644579513,0.361965881139128,0.525721593559054,0.34976086112246496,0.28936111642945384
168,2883.0,70.0,[30],1,0.21456212314755857,0.3427055726652813,0.48578318531339726,0.39834993533149315,0.43251438960388566,0.17627563987474323,0.3233620044906692,0.38620340331602687,0.43828274472284756,0.16090840506783174,0.2777555450888521,0.15299723984861746,0.2801687881895282,0.4428642469574105,0.1931808510853128,0.08300180065450229
168,21286.0,1724.0,[33],1,0.2400366183858612,0.347579106785093,0.5875343465946842,0.3843901702874442,0.5441802274211771,0.3404327571200509,0.29048383661524296,0.360566123407237,0.6500423198869527,0.18025055328317263,0.27265092629769905,0.10829974337056165,0.3774570070343481,0.4381821152928882,0.2212026079870533,0.12432199459576586
168,27534.0,4301.0,"[38,39,36]",3,0.25407947947794174,0.32146452147697735,0.5690929259489321,0.4059574212414762,0.5120578494830139,0.30958209242615947,0.2764101421300693,0.35910717133534514,0.6609859330482133,0.22843457129350653,0.281664110361122,0.11577243336516563,0.364961995654252,0.450129301285324,0.23112447369302347,0.13768834591321805
168,14884.0,2797.0,[35],1,0.22011415706978127,0.23838093770593066,0.39075595613289454,0.37726885740697086,0.2810330256665649,0.24895631358211837,0.25789207061625946,0.3368281245399487,0.19856838213415354,0.1321914553807409,0.25612597211540716,0.24783724166792237,0.1398366342483516,0.506203267976513,0.23796759071371815,0.06554290250210026
168,17760.0,540.0,"[42,45]",2,0.3135271386254193,0.27001112314718123,0.6102254505088516,0.37298587711825304,0.3824206652870095,0.3004079971550827,0.2613602674315923,0.34156515085051026,0.6804164984417599,0.30530737351620235,0.29209179181115497,0.11109972059102863,0.3346211438388149,0.3583127501292954,0.21573947804194551,0.17582234838744576
168,50027.0,9152.0,"[41,43,47,49,46]",5,0.23121119190740716,0.28798071553354104,0.5691733482426959,0.3879569675315979,0.34357077080435966,0.2825662013561903,0.28930362731282266,0.3707648623328302,0.33881046682389204,0.17099761985299403,0.29211575696601894,0.13855695175728258,0.2225235169343076,0.31768852605766934,0.1938047549139093,0.11185229380240816
168,18682.0,16843.0,[51],1,0.22553972357860272,0.2698734474569535,0.45676696506251363,0.4680447374967903,0.38153725118378246,0.3010361110070682,0.2820971746487387,0.3763262193976552,0.6601911207419728,0.23451142183850676,0.28873921458976154,0.12181739524091403,0.2736353292528843,0.3688261157074401,0.1978802888565502,0.13481688114014498
