time_in_hour,cumulative_size,size,pcore_ids,pcore_power,AF700 CD48_[R 730_B-A],APCCy7 Ly6G_[R 780_A-A],BV421 CD117_[V 440_F-A],BV510 SCA-1_[V 525_E-A],BV605 CD11b_[V 610_D-A],BV650 CD150_[V 660_C-A],BV711 CD11c_[V 715_B-A],BV785 B220_[V 780_A-A],FITC Ly6C_[B 525_B-A],PE CD115_[YG 582_D-A],PECF594 CD135_[YG 610_C-A],PECy5 CD3-CD19-NK11_[YG 670_B-A],PECy7 CD16-32_[YG 780_A-A],PerCPCy5-5 CD45_[B 695_A-A],_FSC-A,_SSC-A
-1,0,0,[],0,0.0,0.0,0.0,0.0,0.0,0.0,0.0,0.0,0.0,0.0,0.0,0.0,0.0,0.0,0.0,0.0
0,90319,90319,"[13,15,17,21,23,28,39,45,47]",9,0.31328131601324216,1.968855546607033,2.067348176895225,0.7058117826813848,2.931710665607467,0.25699779224748065,0.139284400048707,0.7079774012112718,4.081892716482684,0.6046543172532911,0.11022042942237942,0.12477863021069813,2.20595943653052,1.7293570591902017,68604.07223286355,20351.44233217817
24,196617.5,159905.0,"[2,6,7,11,14,16,30,32,36,38,46]",11,0.29019923514056334,0.21471885596653584,0.6243667250778793,0.6427370114765991,0.3747779560415547,0.27543013573944375,0.0054398416455763154,2.269352965075597,1.0238131534031791,0.3490123424974907,0.17576588136991855,0.8817027670782069,0.6049714673108936,1.077486074159217,71213.13982732959,15843.913547878466
24,18089.0,14869.0,"[6,47]",2,0.3881112314389972,0.15935069995576656,0.7432955766073479,0.8308006691912211,0.6813495678865555,-0.1953219082591553,0.20469207729835004,3.1839110433412516,1.8370145985405504,0.6785141597241394,0.17285206769306827,1.3103124944717752,0.9494269942368257,1.857688836143516,72981.99082315221,16554.84769749573
24,93697.25,71723.0,"[13,15,17,21,23,28,39,45]",8,0.3104943460720586,1.9114630757119357,2.163236049598565,0.7529581950644189,2.9714357502354605,0.27561479051413285,0.1664331927190963,0.7731949913418035,4.139440126084274,0.5832292754136378,0.06157618655563102,0.13116598446859473,2.139246514358745,1.6986565687573514,68561.27589657123,22686.89542115695
24,82922.75,66762.0,"[7,16,30,32,36,38]",6,0.37210101406127993,0.34429693869896916,0.9016998537494256,0.7295666790084687,0.5706990583253688,0.3541387123889441,0.020522766725659114,2.1159943649842816,1.4607994874386097,0.4243796560533766,0.21395069238236886,0.819895233033153,0.7372588557181209,1.2042798602253302,69506.06823820948,18276.5290345532
48,216107.3125,165268.0,"[2,6,7,11,14,16,30,32,35,36,38,46,47]",13,0.28280261979537413,0.275883684537221,0.6154222536514617,0.5968770640081305,0.4497490807287092,0.24261271589201683,0.01459899424186295,2.0859891472989203,1.3262399639643738,0.3464892642683023,0.1566138342047676,0.758041891022889,0.656169388997713,0.9816871438107861,68389.58949156333,16304.074819309932
48,123297.25,93193.0,"[8,9,10,12,13,15,17,23,24,28,29,34,39,44]",14,0.26064397855487376,1.7595202097025697,1.9583396574619498,0.7611910672161213,2.564221129652116,0.0653366606584902,0.39464761567928264,0.7437632004211379,3.9633154240630986,0.4325015705966694,0.10471600670178915,0.12116743554651488,1.9913342809668313,1.4679838337878588,64061.36584554804,21313.348610775945
48,11139.375,7503.0,[6],1,0.028782437563831476,0.10662860575099664,0.5378541324861117,0.865174846423165,0.43721804182237056,-0.3698442611120436,0.27428499625764946,3.8771295489984876,0.9409152754923394,0.2955988943948832,0.1197265032373851,1.6568008742692002,0.703932790669363,1.9067133103237384,72799.45418840834,14704.171104752217
48,64605.5,47901.0,"[16,30,32,35,36,38,12]",7,0.4042800060037459,0.15299149451381888,0.6658818855457294,0.7261379722885395,0.21050344686985012,0.356864337746013,-0.09392361947028594,2.552964038753477,1.0745210712390962,0.3521970072081716,0.20088234376620306,1.027530687126096,0.5919451547526896,1.3451384541863691,71474.68683006859,18322.004287560612
72,227787.84375,173742.0,"[2,6,7,11,12,14,16,30,32,36,38,44,46,47]",14,0.2985206623078993,0.39020159640693564,0.5545019968727076,0.7574376886019643,0.5825176229009563,0.25655794773103757,0.015289718930484142,2.143023760802177,1.3376503272866564,0.3939644524851873,0.18913931790251137,0.6797031765420816,0.7702684087731871,1.0444514794406423,69268.17393432566,18287.920533511802
72,142099.75,106866.0,"[8,9,10,13,15,17,21,23,24,28,29,34,35,39,45]",15,0.34059669912497714,1.6572944345729188,1.718056770935665,0.971262090376658,2.4921869059183197,0.17877026566867893,0.2013030088887855,0.8051865509105398,3.7021552778486115,0.5310852035375909,0.23513876591476457,0.16828247705221244,1.8669552474210422,1.5574805364609643,69481.07262679924,24563.5532645202
72,12447.84375,9663.0,[6],1,0.10768950970801927,0.17586787360637635,0.3823393019586776,1.0507841409656873,0.4800938061386293,-0.2622031886471349,0.1491048945362068,3.680921437615977,0.9844546566737195,0.33806840116887604,0.1402470887578473,1.4077729171932354,0.7897970790736851,1.9056559889175098,73254.65737790945,16830.5418358099
72,29997.390625,21692.0,"[14,16,30,32]",4,0.3640922832506759,0.2352708538367625,0.814149847995115,1.1178339678982514,0.35572658967993087,0.4535393518878945,-0.09565156722278223,2.645925873048861,1.1422309817275758,0.4394382154265496,0.25655971591800286,1.05772430385091,0.6808934530565959,1.5424058892497476,71305.2348365718,21095.418761944384
96,171640.2890625,116864.0,"[2,6,7,11,12,14,16,30,32,36,38,46]",12,0.38244780748967955,0.29047699399655347,0.5376045950946091,0.8592498939870254,0.434835243577282,0.2483699229032208,0.10277493359864165,2.5898630406951977,1.0120440105445394,0.4075424569686248,0.23094724672959321,1.0214665992291652,0.7175136691738856,1.1717972199288094,70684.99169261017,16273.158094210154
96,13537.9609375,10426.0,[6],1,0.30759757845475066,0.1671131260659422,0.507713559028458,1.1430274544939776,0.5265026748818045,-0.34967432404425314,0.33544935432686174,3.8010000859383206,0.9732211587945204,0.43714357021431527,0.20278693574952467,1.7047012410302846,0.839539610662205,2.0256622488000935,74056.38743371503,15303.640312339321
96,91167.19921875,75802.0,"[13,15,17,21,23,28,39]",7,0.31281729881584197,2.4502408846360257,2.068543023443867,1.0475160913393107,3.274933797438156,0.2125805078529981,0.5022792002041809,0.9391474753431059,3.803692838622059,0.5594835310227358,0.13105571711094433,0.14079596536861927,2.456105959824247,2.0274249192375806,68995.2953710609,20838.22642660794
96,18803.7421875,11493.0,"[15,17,29,45]",4,0.8207128767335188,1.4085340035217717,2.457672398056156,1.177640217238387,2.848640465595899,1.142591255662628,-0.23077445626306803,1.0786842980047968,4.130483626059312,0.7298202203800065,0.35388653729124053,0.1514327795204914,2.1960319958714183,1.7084039663776196,70565.97480803974,28326.468286939264
96,29271.34765625,21772.0,"[14,16,30,32]",4,0.4587889790645583,0.23003784883361522,0.9478156910713511,1.3542377838134896,0.3580368351213985,0.47378075913892803,0.04699779079824706,2.808046720018708,1.1430813584550013,0.5453991718593462,0.33752114471395966,1.2887425831242323,0.7126648506353187,1.6209869954996758,72104.64576267458,19735.760650113087
120,184771.9423828125,155180.0,"[10,13,15,17,21,23,28,29,39,45]",10,0.32637247451811935,2.581083076278931,2.2982418185340356,1.1733267289725395,3.4585469941605544,0.37876911943972225,0.5514329776166829,1.085707653399468,3.900999655513521,0.48560715407551747,0.15171007623814603,0.13026370385192199,2.603418527592408,2.1877310941041985,67121.9811805484,20052.829418554342
120,9847.5703125,7628.0,"[15,17]",2,0.502089620752145,1.9928698432831364,1.9800189562916626,1.0584063470511285,2.771404737207249,0.7667907653791481,-0.03477270217589945,0.9906776967577646,3.632922465804843,0.5730829462660932,0.29290657791569696,0.15099542006961186,2.107704918971123,1.7679785916046276,66878.97151026304,21225.070581337866
144,174119.98559570312,127927.0,"[10,13,15,17,21,23,28,29,39,45]",10,0.3258788072725982,2.601476576592624,2.227434292313428,1.3304440969882347,3.43909570065517,0.3783822749753405,0.660375999249335,1.0760847108193752,3.7539152798328206,0.5471413600652882,0.08298919887889777,0.1695908033339696,2.582243563502563,2.166275358757754,66520.54419945915,18996.92119297995
144,7871.892578125,5410.0,"[15,17]",2,0.5221188455117736,1.9567129025808851,2.0764828575613783,1.2342713332299762,2.888799300908086,0.7329405256741939,0.1381297048708916,1.0613554116806734,3.5190954018413225,0.5824618811242236,0.2162525962289159,0.18799124763370867,2.2176187518619046,1.7857654329555983,66301.6054162245,20098.114165584706
144,53252.02978515625,39782.0,"[36,38,46]",3,0.4105710819197066,0.1357032454950846,0.2649970639083836,1.0293354314907757,0.2540879417810129,0.27461954020431634,0.11001470512172373,2.786286520714409,0.6632647484709792,0.37651884708209227,0.22012650781606702,1.1682756629355324,0.6652281306416875,1.2920565248691882,71024.12830834257,13328.869526567742
168,220559.32751464844,172467.0,"[7,8,9,10,12,13,15,17,23,24,28,29,30,32,39,42,44,46,47]",19,0.32124832116211177,1.4983562154804422,1.843969806265806,1.5033647852737295,2.3190426179543446,0.08524919739747161,0.7245625884750142,0.9712252485060522,3.1869601293014997,0.6631536669244052,0.2079060176453993,0.2634778060252527,1.7724222261749567,1.5100067952702447,65989.38495697122,22059.01603113018
168,29419.00958251953,18208.0,"[21,45]",2,0.7411466612837851,2.500600350758303,2.189449070533208,1.3996974457258187,3.4470299167538854,1.6464574877305138,-0.5533691623540076,1.3722763413449588,3.663711662757392,0.7181536209105058,0.2103148344687824,0.11791645877242884,2.5199649743792194,2.0852318946952213,68611.34521931446,21804.717860282355
168,21428.29931640625,13721.0,"[9,10]",2,0.293191043247105,2.513783792322223,2.049043642395477,1.458274135878355,3.2445429167377102,0.6809394354713858,0.7858290540056103,1.2740299938686594,3.5420249575536427,0.6452876163874347,0.14174436181540617,0.18079510620733685,2.3726490434447416,1.9835008963478586,67674.74939775161,20080.003958696023
