time_in_hour,cumulative_size,size,pcore_ids,pcore_power,AF700 CD48_[R 730_B-A],APCCy7 Ly6G_[R 780_A-A],BV421 CD117_[V 440_F-A],BV510 SCA-1_[V 525_E-A],BV605 CD11b_[V 610_D-A],BV650 CD150_[V 660_C-A],BV711 CD11c_[V 715_B-A],BV785 B220_[V 780_A-A],FITC Ly6C_[B 525_B-A],PE CD115_[YG 582_D-A],PECF594 CD135_[YG 610_C-A],PECy5 CD3-CD19-NK11_[YG 670_B-A],PECy7 CD16-32_[YG 780_A-A],PerCPCy5-5 CD45_[B 695_A-A],_FSC-A,_SSC-A
-1,0,0,[],0,0.0,0.0,0.0,0.0,0.0,0.0,0.0,0.0,0.0,0.0,0.0,0.0,0.0,0.0,0.0,0.0
0,86729,86729,"[0,2,7,11,13,45]",6,0.2911742375560653,0.13099445781687447,0.30992481413368544,0.4460360220687378,0.25153536413425703,0.17577710098121968,0.011580585651852271,2.855803821478398,0.666474159393054,0.3138395511305331,0.15080707412745165,1.0524160545838146,0.608874598115969,1.026944658015196,69686.0585963173,13798.56352546436
0,53909,53909,"[3,25,27]",3,0.008863497838955015,2.2279011404589335,1.9336636430651626,0.6129607465358355,2.88954658815782,-0.5438188067113081,0.6543204162199214,0.40132642440038424,3.879964953977994,0.4606910443339737,0.0017767442727536498,0.1294199848077341,2.157220750004637,1.69690108126658,66556.59277671619,17190.55148490973
0,30658,30658,"[2,16,46]",3,0.3130970455998474,0.1676043440211381,0.6665882279339872,0.4501708111096674,0.23820738433687794,0.4179568963076439,-0.08754649650988489,1.6240391425076712,0.790700562691632,0.3561198968295386,0.18438443495987844,0.606169112238242,0.5070571509557024,0.739527591591099,69997.68177963345,12913.831822036684
0,31234,31234,"[20,26,38]",3,0.4383985723890744,2.399294245181525,1.9099643358519587,0.6350094420823389,2.9113419831593945,1.2499273866939873,-0.585249596753536,0.8966968825958861,3.921166333546774,0.6404535534673735,0.18597722289812202,0.09609807789588054,2.261328391176286,1.8224230750784438,66990.60972017667,18182.48319139397
0,6152,6152,[11],1,0.3150793234720428,0.19186599463588516,0.9237637725942682,0.5264818311118269,0.49090827113132773,-0.19494692181404227,0.23677193611833003,2.726663939694398,1.2533037418725557,0.4215363906046812,0.19212745952536148,0.9556992727568254,0.6611038034785405,1.245927987321201,69777.5396618984,16471.334200260088
24,107173.25,85491.0,"[0,2,7,11,13,45]",6,0.27223767863949044,0.1169955117065169,0.349467966271904,0.5119197364780921,0.21647763758214467,0.1957411986176596,0.008111636096222785,2.8134978760208407,0.6411792337593546,0.29640058013077064,0.1402848461813031,1.004480736027877,0.5511337153627448,1.0243348310352642,71970.8142097024,14826.049746555183
24,56506.25,43029.0,"[3,25,27]",3,0.04166859861077499,2.1178224851808416,2.0241753848910498,0.6629610545072491,2.889925730096208,-0.53610572274306,0.67681293838293,0.47645764136269,3.9628243426877527,0.48701417817056025,-0.0388573679593085,0.12788988915827904,2.077288761030857,1.6492933017232565,66081.3708926004,19217.53094569176
24,62967.75,50366.0,"[6,14,20,26]",4,0.41123090786553496,1.689631354467168,1.880215026823254,0.6638494528270438,2.4117042085273916,0.8749288686788075,-0.2680821991098572,0.7538605728686596,3.8249071674785937,0.5758635941533586,0.1720455222355879,0.11260272114693437,1.8144557425031076,1.329814043800201,64457.49641681653,20776.225289930167
24,45133.5,37469.0,"[2,16,46]",3,0.2933023919704889,0.15014211472076733,0.6860237022832321,0.49847665168334476,0.20566150600441047,0.3976663293506937,-0.07080931825584713,1.5630661814118385,0.818671050522333,0.3193962041776093,0.16613255045034148,0.5690015879723536,0.44689603302425296,0.6982614607054625,72768.37825561943,13889.373702460583
24,10633.75,8708.0,[41],1,0.2749493383566459,0.6283599715528241,0.967287897637231,0.7364029776184453,1.057468611167287,0.21065128665804145,0.2451368737510351,0.6463004791818401,2.8708613706359474,0.48757655013518575,0.235357660561899,0.15826538631715004,0.7999468036205458,0.6224617916304227,55894.01744445757,17648.20275067592
24,18259.5,15181.0,[18],1,1.3309824303650106,0.5844227924915963,2.913441418973663,2.314110354596227,2.143905441537292,1.7883280225499212,-0.8618687736520767,1.124735898244758,4.4486296404337375,3.387440286617938,1.4755049828171525,0.5208734295846016,2.382422157780882,2.4617653034584794,124375.705358854,109089.32314685512
24,17576.0,13930.0,"[38,47]",2,0.5689549289798572,1.8078593120021687,2.4815791087278156,0.7923268380746435,3.2834949753214544,1.2478503651570467,-0.36241492358898375,0.9362126858784698,4.453477398384164,0.6300829074590345,0.1277779146136755,0.0873577356338201,2.307815424940261,1.7870255476644272,69652.13837050502,25057.432862994974
24,8594.0,7056.0,[11],1,0.32492586298580806,0.1714216638061421,0.9351238034966127,0.59312108334302,0.4535365684198265,-0.13064457025250742,0.2190384938038097,2.6826365219048185,1.39313958540842,0.4086572088375595,0.17823720115779862,0.9504635014545075,0.6413120889865026,1.2258722183500195,71585.70165231553,17431.64998836399
48,103557.3125,76764.0,"[0,2,7,11,13,45]",6,0.23772330683129805,0.11781269981537923,0.25106937921030825,0.4438262736141838,0.1863286114923084,0.18706969664443185,-0.014579580144936433,2.905008934393819,0.6132825801328566,0.24645662314406946,0.11772662555094726,0.9495982331003905,0.5741328101769739,0.931561303385146,69382.43558609136,14847.70497496247
48,44584.5625,30458.0,"[3,25,27]",3,-0.08652803865547898,2.2791606495816383,1.9518353008089977,0.5968460915942044,2.9897266563860962,-0.6289359212381529,0.8122694311483958,0.35737784389635685,3.8653992822403596,0.32601294796405367,-0.048939917175656156,0.0983913423466366,2.197337806875419,1.5890902133361708,63952.26598892833,17957.090954968895
48,51601.6875,40673.0,"[6,14,26]",3,0.25500585346651494,1.4511714285215924,1.7143436871553352,0.5442701181308376,2.1011382386755906,0.5253244986912962,-0.1259462088037271,0.6285715691177769,3.717494256242835,0.3933410123699915,0.14303131775486655,0.09393268485042172,1.5461558488542648,0.9736466134077559,62388.07380088103,19213.467544060477
48,51547.375,40264.0,"[2,16,46]",3,0.2557780855572189,0.17033593991327622,0.6529172621641757,0.45360957245034506,0.2114946748949431,0.4097085603279913,-0.10622684296484852,1.496711868445053,0.8745602140300518,0.3163492727672884,0.16068505279731715,0.49475521043869786,0.44101761825165886,0.631676518390849,69572.68625220969,14906.320021145646
48,20095.4375,17437.0,[41],1,0.17381374168576302,0.7877836764128574,1.0102218140498147,0.5641603360868519,1.1385171876452258,0.19355505516488347,0.16224489936148867,0.4519718476457655,3.128791326886992,0.3983712765148806,0.18280008478291787,0.11525605590510457,0.8163948621049036,0.5220298672864168,55274.43729453519,17581.022557981007
48,7930.4375,6327.0,[43],1,0.4878994547983635,0.5202258486921498,1.5167324916815672,0.8908461193896904,0.4890086200635113,0.9923088542403884,-0.4204217267174597,0.8363593848700139,2.071530888601668,0.5443078572666976,0.4233661656355654,0.18526060810800415,0.634643934303755,0.5790405974213262,55160.07408166323,23211.979414754813
48,9262.5,7114.0,[11],1,0.1833178610121451,0.16907523516194978,0.8301635930701727,0.45099149296221563,0.40612258647774047,-0.2524469315182223,0.20057375567475288,2.9201177025978424,1.3716415970040505,0.2847930518960874,0.10988207100540848,0.9588696428475045,0.6344218964844829,1.1406408390958123,70173.92107962238,16930.588933873165
72,121314.328125,95425.0,"[0,2,7,11,13,45]",6,0.23977892817032953,0.18446578074235287,0.23069995904917784,0.5912841678946883,0.2629268895520145,0.19620093803055783,-0.02307323213637913,2.7780201908164264,0.646432594784699,0.2854537144571624,0.1399205255083018,0.830193343319527,0.6273747700401721,0.9959966779224256,70625.47289691778,16671.81657154313
72,12390.53125,9473.0,"[12,46]",2,0.34670494990378864,0.3015851613644007,0.9546266445572109,0.7405230592513967,0.3496916406921118,0.5216576773128176,-0.14618432070860354,2.409957566541496,1.489488234077434,0.4047496070638611,0.22622835226369986,0.7364584615608714,0.6485578447201378,0.8874088015230899,69634.6740580636,20479.888221096273
72,96473.28125,78549.0,"[6,14,26,41]",4,0.28721933126933785,1.4157123781885845,1.3538325691124116,0.8107203454147709,1.9181514506573296,0.4573856744181095,0.008749746578964324,0.6838409058910297,3.334779152351278,0.4693934005231397,0.24214297824623943,0.13372465836395808,1.4363209953886211,1.049448642288428,65294.15712187142,21736.06083290538
72,22058.015625,14606.0,[16],1,0.19255503269432794,0.24257513670554998,0.6297100151319768,0.5540826262689325,0.3759598751856932,0.17634333678232972,0.06329342033754815,0.6415370450785591,0.8596224767307451,0.30543092794427695,0.16525048663149056,0.202238694950036,0.38253304444388403,0.4107006366959825,67225.14954243519,14565.745961112472
72,36351.921875,29586.0,"[25,27]",2,0.0708899602458144,1.8165508334789866,1.6282519691010893,0.8357423630851604,2.527520826025395,-0.5267137853423327,0.5882455696419302,0.4529096726488544,3.4997169799202257,0.4083063789603648,0.12456787588860241,0.1403145431427032,1.8246435594803971,1.4605544283916416,67688.03392186572,21404.46845356789
72,3556.4375,1774.0,[38],1,0.19286349920039636,2.687363685820614,1.8418801940055949,0.8346162406727253,3.425196287555129,0.9112858988234358,0.20979378501133805,0.8982432145449235,3.848781529361371,0.5989353073915252,0.21639187167196372,0.08339114007609394,2.4493597675298338,2.063653568181822,68393.61045990532,20282.5861553872
72,10731.609375,8749.0,[43],1,0.4287591685790928,0.780319347649979,1.3076537755899325,0.9060811035142815,0.9052717632665157,0.8980740024664378,-0.27037258573750744,0.8823631816465118,2.1915595019823213,0.5099091525312903,0.3862769214935988,0.20489453069131025,0.8469635903922822,0.7005517100228176,60199.38384125182,23102.306404998
72,11615.625,9300.0,[11],1,0.24633614488297573,0.2878137604667663,0.758567496127259,0.666760896713749,0.5157904360129026,-0.10206489420903941,0.12974236091336655,2.7299934761218756,1.4393064437826197,0.35288175890638174,0.1629308236682956,0.818240709967718,0.7291092228827089,1.183446946938396,71374.04298089842,19574.794382566502
96,103205.58203125,72877.0,"[0,2,7,11,13,45]",6,0.39528709401615414,0.16872564625361264,0.3031627498515985,0.6611430929492941,0.267243484627103,0.16696573525888203,0.09763700989907909,3.060748248258496,0.6414659716230838,0.3496204078778756,0.18570136558050399,1.149916048918061,0.6699321032031419,1.1262901488024775,71200.55640037946,14954.575112348715
96,3647.31640625,2989.0,[12],1,0.5877074791183143,0.22148218993523328,1.0790911296854633,1.2972145676476612,0.21862320228806986,0.866374096943064,-0.4237876883346354,3.8633412360682584,1.2912962470844924,0.6111790519517236,0.32881669556598325,1.8753068292109099,0.8574533183183649,2.0153161727650777,76907.87911060458,18354.73798908231
96,33743.3046875,30524.0,[3],1,-0.024071449481064544,2.9283110584084495,2.06627959730035,1.0272535466365587,3.541907503819415,-0.7857217355423236,1.1966827921411793,0.9364586559862751,3.784459811624291,0.45547587411703117,-0.033757978143003076,0.1407887614951614,2.6323980066387023,2.236994558141378,68293.485317805,18364.663441798424
96,5102.31640625,2663.0,[46],1,0.38804024422884353,0.32177342344966764,1.0938860083019972,0.7274511684919491,0.3672831854718268,0.44961558236493504,0.03512975630248105,2.207143692383119,1.508528019344772,0.4260257009316393,0.2768682927959385,0.6868844598401633,0.5978036082546762,0.6009761553078277,68527.41032910155,19172.557121344293
96,13046.22265625,9484.0,"[11,12]",2,0.4268916892754844,0.24617350703882268,0.9199803564169104,0.8580781680793552,0.41401787411107405,0.15215282912408967,0.10710305987664448,3.209790130399367,1.3621923816831574,0.45401192886291153,0.23652975653274044,1.2886393087549581,0.7713117633276841,1.4445691173633488,73163.63026295032,17374.656766371245
96,15284.50390625,9770.0,[16],1,0.217809436693571,0.22362416502928895,0.679256982950212,0.5945489958774113,0.31834580796013157,0.17040238639752547,0.082930565065515,0.5959180140197615,0.7892029696756667,0.32097581755546856,0.20269396939813022,0.2146832693048778,0.3751285944917734,0.39204896240754233,69878.60726793102,13032.710267982384
96,36905.0,32965.0,"[20,38]",2,0.4981231443455898,2.9664411144935094,1.959601851531802,1.0144985608779056,3.4569936374752257,1.3857874811802373,-0.16944588157536833,1.2495016963895944,3.8027681896785475,0.6338186808978531,0.21175302813664842,0.09184674595900888,2.647800832505863,2.247843289999976,67894.58733911379,19074.555690285742
96,24430.98046875,15343.0,"[25,27]",2,0.10323080235647186,2.0029471306213322,1.8099817317179023,0.9085578347548267,2.74761584117103,-0.37351106172282944,0.8325297001383634,0.28450754131754374,3.5172369628219093,0.47094117745191055,0.11308205516528469,0.14231920241637142,2.0272994767991968,1.5774118237728376,66798.57831892837,19660.01093834016
96,19427.6171875,8767.0,"[41,43]",2,0.3055504602372139,1.0472500222301555,1.1405845826366692,0.8661305006275253,1.3814219278962194,0.3435286855065025,0.18112975100100925,0.7063392954677266,2.733652285443766,0.4825788154566141,0.2944310650775095,0.17694345551656787,1.0591838969266991,0.7554220379059304,60974.28658220516,19295.375991410318
120,84665.3955078125,58864.0,"[0,2,7,11,13,45]",6,0.3586064056955025,0.17905883601408057,0.37596116658098166,0.6789173745623018,0.29228050539805794,0.1522572893960874,0.1307868925101121,3.0503513184123765,0.6378352871057845,0.35993167895197364,0.21369459920628842,1.1648744077362199,0.6384372612437302,1.184243719283798,70794.48787916442,14293.22310333185
120,118028.9033203125,98578.0,"[1,3,5,26,27,38]",6,0.06713432806715902,2.9159905630376537,2.1758009977869333,1.0971268118654964,3.5194540262444405,0.022985092486269565,0.9292174091890679,0.9280156413069016,3.803901212976331,0.4048319260511317,0.08034637826386692,0.11964753718933385,2.649501164046012,2.2399271329669936,66214.99492090946,17722.37517384442
120,34688.490234375,26115.0,"[2,16,46]",3,0.3449850332569886,0.2404832646899986,0.7077495261344731,0.6439911405640375,0.2479159514936482,0.4377529834092935,-0.03179489527203261,1.7725652811986397,0.8712806233257581,0.37383058352661314,0.25640102790013053,0.6650255958452918,0.5103310659253749,0.7747987247995525,70037.71898538704,14015.832118306087
120,35226.22265625,30040.0,[20],1,0.6729696714871636,3.056431855175644,2.114632478823235,1.0866925976018855,3.5324782237277073,1.6883461298099205,-0.8652427023989908,1.4269970931335818,3.8603418547098776,0.5535582068496104,0.23871738406954002,0.0597732917489644,2.739559290066851,2.35887889042693,66495.20788058164,18280.252933910466
120,16441.6044921875,12271.0,[25],1,0.07657190357991372,1.846492643395277,1.9194448711182317,0.9237427302821848,2.7785883794762927,-0.7035224102126204,0.9549159095143365,0.45946783077937514,3.5095272723256445,0.38279933543056077,0.0909246347773931,0.14286733374864846,1.9291499268263745,1.4887113137783987,64281.10343502044,18409.18483769753
120,20434.26171875,17350.0,"[5,27]",2,0.1011459244950157,2.608182090655652,2.1466693716803626,1.0535973694180916,3.2130275746821693,0.6398002656393711,0.8546680758853551,-0.177062409931124,3.7139117453777994,0.4762631183855891,0.2085210000314932,0.10591895283747232,2.506954708524102,2.0203558771453896,66125.73033456567,18524.11294067806
120,8347.7265625,5998.0,[11],1,0.35402513382596323,0.26959792634725366,0.9443320942524838,0.7168965759419148,0.5051997963316177,-0.14965346234647736,0.3588133574166066,2.9579272578075155,1.3943479846931561,0.4066434974701909,0.2351975734162064,1.0979960712111445,0.7103840098458444,1.2672077915452729,71078.08406667592,16528.678665317777
144,79064.34887695312,57898.0,"[0,2,7,11,13,45]",6,0.43888632572519537,0.12905573169843176,0.3724925985145786,0.9626184047130808,0.2704096936845817,0.15859164574833606,0.20094155620160592,3.3024779512337386,0.6674256717150376,0.3836806249777083,0.20871733398580794,1.3533637101154903,0.7172465941607403,1.3077140985074278,70959.88718944634,14147.22547733894
144,115222.22583007812,85715.0,"[1,3,5,26,27,38]",6,0.09519401659019944,2.882485848630668,2.1553153027024767,1.2544013997793955,3.512998051763971,0.060407658891975524,1.0250945483327967,0.9284604356945159,3.6902070051888125,0.46530772001646836,0.010577666568071464,0.15307319110350104,2.632445002562874,2.1946222147738355,65958.25680087548,17129.786343571654
144,12903.401123046875,8793.0,[25],1,0.08433658157964397,1.887417676771312,2.0927654891421867,1.082919102390783,2.9900283202521973,-0.7192743580953697,1.1406250826067037,0.37915672557843383,3.439507910457881,0.3857047949448055,0.0026363559171151962,0.1617441529705992,2.1245839365396453,1.559673472686334,63663.17034682923,17726.616715240045
144,3948.894775390625,2548.0,[46],1,0.44270769505448593,0.4193397967748713,1.3207830147625348,1.1429025137894362,0.442853754887103,0.5031960472924593,0.234263426253003,2.114022818121688,1.5559520537722218,0.5325260336928598,0.3728096106709531,0.6627180278641789,0.6804616747774143,0.5908277477667707,64634.75165649412,18203.20884335649
144,8161.931640625,6075.0,[11],1,0.4214259010988848,0.22420253443838067,0.9856377478968001,1.1022981805689382,0.4636102745540769,-0.1259522518643892,0.5033970875498506,3.1845204559928586,1.4695363370354562,0.4616692131516569,0.2309068764286013,1.3030262621114128,0.7815561429589316,1.2840564591668016,71247.10279357605,16519.973508875162
144,13364.031494140625,9065.0,[16],1,0.2257977920020262,0.21259821929414136,0.7103253251640544,0.6482776427472539,0.2829113773593832,0.15183209630064032,0.12944209560671682,0.5577093687511838,0.6730304968037221,0.29251041407612033,0.21757755775005627,0.22831410286681253,0.385979819469343,0.4076626450052592,70959.66847841933,11371.71481555781
144,32602.5556640625,23796.0,[20],1,0.684850998745145,2.98281541705063,2.084424361360776,1.198073771147981,3.5241140922886074,1.689527449870836,-0.7954329327681169,1.4511447816738743,3.7439296323128333,0.5839935921620673,0.16605577865039045,0.08552287617393373,2.6941172267913154,2.2897607945690917,66204.75412524122,17676.71439484364
144,13068.606689453125,10701.0,[21],1,2.376711429937467,0.2652870996036101,1.888067959856127,2.0839661660040103,0.8066558258601444,0.6369483055857013,0.03652323986953254,0.8633836619183031,5.424223534123627,3.7427902843440513,0.6714591129587344,0.27233732103276453,2.408052004964049,1.8207435546245911,67115.95767596149,33121.661149851396
144,10201.5302734375,8472.0,[5],1,0.3332595432805725,2.5354303630163404,2.1207144668347433,1.1843475996351076,3.2255475222783425,1.3413441519324245,0.5964362595989927,0.16586540635993163,3.561364237021412,0.5602945461664625,0.19374077363698916,0.12572636321345065,2.500957945919044,1.9132102448058552,65990.13883850744,17729.03047040179
144,13202.63232421875,9832.0,[40],1,2.0966238558140216,0.36211663818690853,1.6942006000958716,2.490200298153311,2.679219086684903,-0.5741932191905212,1.1802487489258966,1.2426569909314416,5.642770820058483,3.131588487716787,0.5099242259879095,0.35988875694065237,2.4940071948921667,2.6980117064803992,70485.58498887756,29909.666997854994
168,78665.22332763672,50795.0,"[1,3,5,27,38]",5,0.12222353533238595,2.7730112121544233,2.1697207162343477,1.3273310380368364,3.477344074909707,0.10555970248248125,1.0065959221153649,0.8378006478478084,3.525087745296148,0.5355216473969461,0.021857216813743197,0.13932679884376242,2.5227174582605403,2.035913251843319,67207.510145605,18805.940165383814
168,29253.088317871094,27132.0,"[6,26]",2,0.4548929926441576,1.2834157904788301,1.601655925642881,1.3850683548899192,2.196755162869209,1.00689229682137,-0.17747055068627704,0.8811007117133478,3.581199254677428,0.7405510656622082,0.29583732155045706,0.13804996771284583,1.6438227148913955,1.2293690184787032,63763.049524341266,23563.152131680028
168,21348.638916015625,13198.0,[20],1,0.7031856166616044,2.8682079667180806,2.0929393109777474,1.2580546392692171,3.479560152772064,1.688114653274585,-0.8003913223283496,1.389375475924715,3.5669733682096916,0.6467874963973114,0.1679100213273199,0.06930362444056859,2.572494609424176,2.1365923070328705,67016.13208348994,19071.152116797002
168,15533.151672363281,12266.0,[21],1,2.203042324239335,0.26878771309204463,2.164745625474462,2.376294461354014,0.89982841926077,0.7240387492522429,0.04728626596279639,0.684622513720011,5.112943836381193,3.6033487026579647,0.7490978252358906,0.2651486947872217,2.3664018957952604,1.752565750379654,68753.71720366355,41749.75023072818
168,26273.85028076172,23048.0,[25],1,0.0732348414794699,1.598926071992134,1.9393115639402967,1.3260474369072828,2.8550231093954976,-0.702455441961647,1.0472068504218082,0.5258846250554048,3.430813532862211,0.5282976032343193,0.03764050239715733,0.15344335901251016,1.903579735772864,1.4087031331248316,64678.16287975881,20919.8465255118
168,42418.24401855469,39666.0,"[41,43]",2,0.21640308800411479,0.8198909258176004,1.1904608344082224,1.2235368341964281,1.4443691006141868,0.2710714881553373,0.2867598199400363,0.5923677386084463,2.87941676883996,0.5574403985271063,0.26417744191727044,0.17389317992332998,1.0738096167939237,0.784666991714861,59656.377973810835,20661.909172307376
