time_in_hour,cumulative_size,size,pcore_ids,pcore_power,AF700 CD48_[R 730_B-A],APCCy7 Ly6G_[R 780_A-A],BV421 CD117_[V 440_F-A],BV510 SCA-1_[V 525_E-A],BV605 CD11b_[V 610_D-A],BV650 CD150_[V 660_C-A],BV711 CD11c_[V 715_B-A],BV785 B220_[V 780_A-A],FITC Ly6C_[B 525_B-A],PE CD115_[YG 582_D-A],PECF594 CD135_[YG 610_C-A],PECy5 CD3-CD19-NK11_[YG 670_B-A],PECy7 CD16-32_[YG 780_A-A],PerCPCy5-5 CD45_[B 695_A-A],_FSC-A,_SSC-A
-1,0,0,[],0,0.0,0.0,0.0,0.0,0.0,0.0,0.0,0.0,0.0,0.0,0.0,0.0,0.0,0.0,0.0,0.0
0,119267,119267,"[0,4,11,12,14,17,19,28,47,60]",10,0.2798644877627534,0.1354610649718686,NA,0.5291456596292377,0.280744555384135,NA,-0.010476681236219587,NA,NA,0.3308251306983506,0.16374742959913924,NA,0.6145028840081496,NA,69675.70536694987,13480.434722094138
0,1937,1937,[44],1,0.42551263551884233,0.46024522922044575,NA,0.8021620495611836,0.6101798998451202,NA,0.07876633040784542,NA,NA,0.5507912509034593,0.3736900356221007,0.41575759318533856,0.7102447707795562,NA,67956.46876613324,19994.928239545683
0,90406,90406,"[13,15,16,18,24,27,31,33,36,52,61]",11,0.21794271969781143,NA,NA,0.7148878103333849,NA,NA,0.38848940445324365,0.6807998947746863,NA,0.5631339151494349,0.09106133189169308,0.1618687372408919,2.0959078947636223,NA,68222.13038957588,20135.772935424604
24,158091.5,128433.0,"[0,4,12,14,17,19,28,47,60]",9,0.26126250388540617,0.12266649355436288,NA,0.6006924402197491,0.23702206021829575,0.25127418792123746,-0.01770697115120523,NA,NA,0.31288068498939214,0.1524818968018513,NA,0.5464038103187093,NA,72178.87686561263,14506.979059595222
24,107531.5,84930.0,"[13,15,16,18,24,27,31,33,36,52,61]",11,0.25879544720616887,NA,2.0732755438197246,0.774148374999422,NA,NA,0.3833970130403719,0.7465401412958004,NA,0.5849567620394963,0.06552101352394013,0.16658236220781775,1.9996759319780701,NA,68202.51048297466,22805.211272975754
24,10243.0,8795.0,[14],1,0.36894536200331984,0.2144442212486437,NA,0.5943492767011538,0.3440254225812778,NA,0.04323988665430667,NA,NA,0.3979958046714813,0.2069317007712579,0.7831278055745399,0.5936340733427773,NA,70941.36014839404,17972.336229620203
48,118917.5625,90968.0,"[0,4,12,14,17,28,47]",7,0.2462835318101122,0.1288468587987146,NA,0.5067858200202666,0.20465397404241914,NA,-0.0045374745856063825,NA,NA,0.2675762781086263,0.12981052073731725,NA,0.5780737705532385,NA,69635.51604919585,15352.510879122628
48,25000.375,18351.0,[60],1,0.17446973277151412,0.15902972045418196,NA,0.4673252467038007,0.26249132793009,NA,0.0468054135412892,NA,NA,0.272531265066033,0.13676839435409605,0.19966734397483776,0.32218135560466143,NA,NA,12518.690939636039
48,56283.4375,46155.0,"[38,44,46,52,59,61]",6,0.21390784210052782,NA,NA,0.6072140734219111,NA,NA,NA,NA,NA,0.39499356398029994,0.1827463983865143,0.12357434938231215,1.1970666376820494,NA,NA,19247.872768965102
48,12210.75,9650.0,[14],1,0.25993218227791415,0.21592880630285727,NA,NA,0.31475741685605074,NA,0.05550698611879268,NA,NA,0.32637907932047305,0.16100008596932858,0.6592360400569197,0.5597951460239977,NA,67786.75773396365,17963.10988268528
72,183707.03125,140221.0,"[0,1,4,12,14,17,19,28,47,60]",10,0.25932678534675135,0.24073876430304875,NA,0.7073986241384618,0.3591989514177212,0.24880528216870257,-0.019659749216526468,NA,NA,0.3303091995635049,0.1723096905298438,0.7732612323154646,0.6417892745311192,NA,69949.0176862787,17339.982821152877
72,16396.0625,12507.0,[1],1,0.33500026817986406,0.5223115575490609,NA,0.8233138794298926,0.7479205768153161,NA,0.07266460161833699,NA,NA,0.4632570999401533,0.2936979627320957,0.31406248260443825,0.7074553494484116,NA,64628.07542969568,21959.569500299192
72,106065.6875,84048.0,"[13,15,16,18,24,31,36,38,52,55,61]",11,0.21253825173211727,1.5698016426577723,NA,0.9073963106130942,NA,NA,0.3858730458620636,0.7491379084061012,NA,0.47218446510343626,0.19046068213506073,0.18093710187805256,1.692552213267608,NA,68667.2884385914,23140.258898524582
72,60241.25,51462.0,"[15,23,27,44,46,54,56,59]",8,0.367027578571576,1.2864803538600094,NA,0.9051446488878079,NA,NA,-0.07818505344811166,0.8554512338508586,NA,0.5220136338830313,0.3023021799810155,0.19946865974000383,1.347118089279817,NA,66929.41813126394,22792.049019567115
72,6643.859375,4419.0,"[18,36,23,27]",4,0.3187571945475953,1.3446984539083253,NA,0.898043092832431,NA,NA,0.12385986613343736,0.8717839060010788,NA,0.5157942787489381,0.23417320997537994,0.19973953655278565,1.525037722356403,NA,67738.28396992534,21950.555959803078
96,143594.7421875,101767.0,"[0,4,12,14,17,19,28,47,60]",9,0.38848618722700046,0.18840350763950164,NA,0.845858928664958,0.3171614457594272,NA,0.09900997631999742,NA,NA,0.3951668906334551,0.2112047807491475,NA,0.6766305906089761,NA,71266.81400449522,15160.457686935402
96,149883.48046875,112299.0,"[5,6,7,8,13,15,16,18,24,27,31,33,35,36,46,52,59,61]",18,0.3519052186454672,NA,NA,1.0726640169786172,NA,NA,NA,NA,NA,0.5957794538224265,0.1834617762693611,0.17315024374694588,2.275032466111972,NA,69312.22783531519,21825.732991182078
96,13871.13671875,8697.0,"[6,7,8,18,24,27,33]",7,0.5779174221673755,NA,NA,1.1189170986800723,NA,NA,NA,NA,NA,0.6852931004682882,0.3141332297185242,0.17184925783840244,2.2044453114380698,NA,71497.20447275433,27188.34720590838
120,87022.564453125,63472.0,"[4,12,14,17,28,60]",6,0.35859982886417896,0.2269921604550249,NA,0.7395506264150065,0.3338915902724606,0.22717718800266384,0.12006961551619044,NA,NA,0.3889858728618927,0.24352161677875994,NA,0.5921059299471941,NA,69960.73291246101,14651.973562262801
120,184216.0703125,151231.0,"[5,6,7,8,13,15,16,18,24,27,33,35,36,52,59,61]",16,0.3017353381792556,NA,2.144885692589017,1.1492423011507409,NA,NA,NA,NA,NA,0.5149850851381986,0.16884755589844813,0.1526663009411351,2.5172887045186667,NA,67119.33346986337,19695.215177387825
120,13972.1357421875,11829.0,[31],1,0.3589122709768884,1.1864500895148793,2.7985980526146492,1.4031508502468446,NA,NA,1.3477818697806483,1.0640091088529675,NA,0.4443041808220175,0.08826953506661717,0.17817067967439837,2.436153561380501,NA,69995.85243146117,25978.131847377215
120,16499.1728515625,13044.0,"[6,8,18,24,27,33]",6,0.5690957934176737,NA,NA,1.2930050713768022,NA,NA,NA,NA,NA,0.6410677926983549,0.32636602092346,0.1660381170136198,2.3557185360506687,NA,69894.17373373293,25517.704336622493
144,79932.64111328125,58177.0,"[4,12,14,17,28,60]",6,0.42627231892368345,0.18430164905361046,NA,NA,0.31604215270340585,NA,0.19635309967471626,NA,NA,0.4152078250246293,0.2403420732556385,NA,0.6733003265800351,NA,70224.70128705606,14578.322024545885
144,188408.1943359375,136335.0,"[5,6,7,8,13,15,16,18,24,27,31,33,35,36,46,50,52,59,61]",19,0.33873177738110605,NA,2.163964983655893,1.3611710327759585,NA,NA,NA,NA,NA,0.5857148870334169,0.10587595985943787,0.19924597697832425,2.50543564803561,NA,66716.98157734328,19430.119027082754
144,15005.79296875,11996.0,[47],1,0.14475752847160006,0.05622466254118397,NA,NA,0.6111370244001502,NA,0.5721922570934703,NA,NA,0.4830045180540783,0.19235036281465145,2.0664587491052,0.8680198624148819,2.3250241578177393,72639.83455556101,13877.062916587041
144,19544.946044921875,15417.0,"[6,7,8,18,24,27,33]",7,0.4748041049517502,NA,2.293583268382234,1.4677352060022435,NA,NA,NA,NA,NA,NA,0.23554281118259635,0.20824508023972,2.458829645975623,NA,67961.90030853232,21745.700453778012
168,67886.23834228516,47604.0,"[13,18,31,36,61]",5,0.2012941822608847,NA,2.2043085538351845,1.4995863713085198,NA,NA,1.1544049112091526,NA,NA,NA,0.031092976367000702,0.2055907870449103,2.3638912645663477,NA,68123.91382369316,21353.334507883013
168,35743.339111328125,23488.0,"[35,46,52]",3,0.6049522840773451,NA,2.040982803182804,1.401705821351837,NA,NA,NA,NA,NA,NA,0.23977188615835043,0.16252308194088927,2.345499470306484,NA,68526.57825793946,21915.732231387195
