time_in_hour,cumulative_size,size,pcore_ids,pcore_power,AF700 CD48_[R 730_B-A],APCCy7 Ly6G_[R 780_A-A],BV421 CD117_[V 440_F-A],BV510 SCA-1_[V 525_E-A],BV605 CD11b_[V 610_D-A],BV650 CD150_[V 660_C-A],BV711 CD11c_[V 715_B-A],BV785 B220_[V 780_A-A],FITC Ly6C_[B 525_B-A],PE CD115_[YG 582_D-A],PECF594 CD135_[YG 610_C-A],PECy5 CD3-CD19-NK11_[YG 670_B-A],PECy7 CD16-32_[YG 780_A-A],PerCPCy5-5 CD45_[B 695_A-A],_FSC-A,_SSC-A
-1,0,0,[],0,0.0,0.0,0.0,0.0,0.0,0.0,0.0,0.0,0.0,0.0,0.0,0.0,0.0,0.0,0.0,0.0
0,184444,184444,"[0,3,4,6,8,9,10,11,13,14,16,18,21,22,27,28,30,33,34,35,36,38,39,40,42]",25,0.180255542979658,0.3866480057936944,0.49690996966365364,0.3073230728329127,0.49008351446129317,0.24134528140077033,0.26631132868270646,0.32142546046252246,0.5644124364566554,0.14488998678887502,0.249922510166725,0.10027922198651121,0.31987950623118316,0.36470769557046007,0.19250554151231225,0.07725725670764176
0,123798,123798,"[1,2,5,7,12,15,17,26]",8,0.17354707376909437,0.23709343216538326,0.354266519579127,0.2838201669180539,0.26190252769514316,0.22349509076627724,0.25280145033393275,0.4665365956627728,0.17313955012314391,0.10588207866636105,0.25011987658376467,0.19891667801126828,0.1432654421506145,0.24779618214941831,0.19812909179751514,0.053880017104769765
0,12885,12885,[32],1,0.15222029488820332,0.22075118474150018,0.2340403807642086,0.33619323447795324,0.25543816673110903,0.2621509578456407,0.23578080700140366,0.6417925091888919,0.1696994983571597,0.10494174344913305,0.2512803400685508,0.3415881987885285,0.1674981136946254,0.4886635772782119,0.20835244795749733,0.04574076870058663
0,889,889,[5],1,0.24565640472101216,0.23515982825144308,0.3845175198615681,0.3451247105618107,0.253401083645427,0.35114033284691515,0.1950313055743076,0.34568863394392635,0.2278018606931751,0.13606563684232054,0.25869093530271825,0.24927565448325473,0.1349432653221046,0.5412820645767605,0.23351045632742007,0.06205117575125342
0,25152,25152,"[4,6,8]",3,0.1808942146615141,0.34566806149093426,0.4940461508403616,0.30802399857518487,0.451720434611261,0.25825679197084994,0.26832499264974213,0.3230388312809417,0.5224415667990575,0.13036394401143936,0.255248998034305,0.10086702868065761,0.28026454353295505,0.29146378923003186,0.18616930493153364,0.0782170990264022
0,970,970,[31],1,0.2501603215135536,0.2782113320896205,0.5632102957307026,0.44588508903610075,0.4470374027253976,0.38939020233091826,0.22957158575442893,0.3423607433995012,0.4903820723296887,0.3873308779925835,0.3609407218013373,0.14768478226199988,0.32437439146831476,0.5046652417359557,0.35804149434518734,0.2576896272243417
0,8411,8411,[13],1,0.18022473387119026,0.3268161345919634,0.6082208792154511,0.3231561047932922,0.5679598487264373,0.09900317851161267,0.32812891950220824,0.31630284974597417,0.6723305083558165,0.12392080194058334,0.23450587563153055,0.09742579398589618,0.3610525381167186,0.3766964844739047,0.21663107874531795,0.10185701212620243
0,2043,2043,[15],1,0.21341008990788782,0.2321708620306496,0.37931743763301473,0.3295018945743808,0.2795958184834611,0.2132622227219344,0.26449561728872234,0.29313442311140336,0.1709353876060566,0.1231684226102833,0.2501539309016162,0.23651434648629033,0.13420540534082862,0.5038437393238355,0.22563688569338392,0.05511902214555312
0,25472,25472,"[24,25,29,41]",4,0.3455620263712538,0.25223279852770464,0.4872542763231627,0.33409721099177164,0.4187420951000837,0.2612376348237049,0.2526680226784321,0.3291124646459691,0.7787945339029002,0.45077841245506084,0.2822505826270644,0.1052122284692362,0.38273462211871945,0.42771080650641324,0.23330363872314192,0.12305743673613435
0,26473,26473,"[16,18,22,27,28,30,33,31]",8,0.22545631471748168,0.3389958460526869,0.5110795348302841,0.31920677370477374,0.4635989610376219,0.28382794973857334,0.25185995339672146,0.3282480538720252,0.6007929976938352,0.20443277816522365,0.26634647910722214,0.10166492117131515,0.32286072995655807,0.36165530694118186,0.2026531344828888,0.0933743190239595
24,183623.375,164778.0,"[1,2,5,7,8,12,15,17,26,33,36,42]",12,0.17326336381616692,0.2524027264697058,0.3811463615171648,0.2962781915254746,0.28446787478984187,0.22722223631632582,0.2565633684452756,0.43170181382273143,0.2276783244169264,0.10868302934405073,0.24986486749399023,0.17436325707632125,0.1526910175144255,0.2490813364747808,0.2030707719619323,0.0634307116647419
24,21014.5,19058.0,"[32,35,40]",3,0.16267815146679887,0.22876953080666249,0.27286261523301353,0.34237234369852604,0.2580893401664816,0.2651555057506279,0.2474821634848471,0.6023985965697934,0.22059400083722677,0.11557019355189269,0.25274388662440417,0.30874559615409575,0.15992133546258808,0.44633136310263133,0.21442158507225895,0.05465843337801672
24,147253.75,129940.0,"[4,6,9,10,11,13,14,16,18,22,27,28,30,34,37,38,39]",17,0.18627846943867676,0.38069998467735144,0.5181413351322236,0.315914759563117,0.504928286614284,0.24797118743302268,0.2674833810751919,0.3307265111221442,0.6001588980829391,0.15021446447325482,0.2445369925310691,0.09815970344601307,0.32393432519109155,0.36952568671798375,0.19599822337349326,0.0936979903443443
24,1683.125,1572.0,[5],1,0.2430612260741947,0.23300618510565632,0.3947785583021878,0.35625928073201046,0.25297561786916933,0.3444695297905995,0.20483709498545763,0.3361082505624435,0.23609529682800579,0.13826775843911182,0.25509223636724726,0.2503551762615882,0.12552404838029468,0.522620302927614,0.2567213501905718,0.06954707962426374
24,6994.875,6234.0,[6],1,0.1982710840303761,0.34417519089245935,0.5753044033753767,0.32332068114049495,0.5625199498715382,0.30689397529735246,0.2614482808154956,0.3348347381419893,0.6618034433230762,0.1343572379979966,0.24282126421451286,0.09436770211704418,0.3507777321469657,0.3819356980796014,0.2213662233488076,0.1143566526544225
24,8673.5,7200.0,"[10,21]",2,0.1803990233769584,0.4131559104758841,0.512163512648279,0.3170620500646851,0.5183989395884453,0.30053339971284754,0.2503017681752925,0.3296854926348472,0.5776176784866192,0.16258439448589265,0.24918742022744103,0.09798169874677569,0.33731959392748867,0.3993173179350587,0.2037882582257561,0.09536676678706318
24,8929.625,7528.0,[24],1,0.3422976842746212,0.258953953613066,0.49817579190807804,0.3367278746532859,0.44543440959457087,0.1614362261506402,0.29534357171342357,0.34679499845358125,0.8110927763368981,0.43946170022621917,0.2667088264775321,0.10984812340268311,0.38332214467091935,0.4349492926152234,0.22486736972578095,0.13344557340230853
24,948.25,827.0,[31],1,0.25287404235310684,0.2750458804336468,0.5877387597111795,0.44972218421686444,0.43466146175101256,0.39758457665367725,0.23586164409802945,0.35365116390256063,0.47620629082353233,0.3782662398311719,0.3537597140368324,0.14813462025544288,0.2960641510948508,0.5093077328560821,0.3482229203826431,0.27824098393833824
24,3497.375,3242.0,[15],1,0.21118719765685576,0.2318532536181412,0.391002908553333,0.34138639293521433,0.2827498519955061,0.2033887249558898,0.2747004211904712,0.29665674823803884,0.16747517401780032,0.12868688464160763,0.248410734547673,0.23053846876566195,0.12641243311968547,0.47926993595477974,0.24311406551864384,0.06355704792758676
24,14524.75,13312.0,"[16,22,27,28,30]",5,0.25325757727828124,0.3306717958259812,0.5755522095326645,0.338321706531416,0.49389084461381644,0.36031752411548207,0.2290516044769623,0.35470294904592253,0.6733656610016039,0.19549226129847763,0.2660313694849139,0.10131180859278614,0.33840284050248204,0.38645773317679205,0.2125626815404937,0.1259977347042613
24,5267.125,4593.0,[18],1,0.3276219822738025,0.26391955688235935,0.49634573355122036,0.32665311016135307,0.40052479175459227,0.2886581188502574,0.2551420666935328,0.3550172396992138,0.7953245340166927,0.37075380832719385,0.27242574483988,0.10526556387478368,0.3571994194875253,0.3798049846349802,0.2089259992944579,0.1254775760717281
48,194600.171875,173005.0,"[1,2,5,7,8,12,15,17,26,30,35,36,42]",13,0.17060148443625975,0.252996013388316,0.36802048869464205,0.2898468857712469,0.27904332388037845,0.2383641946684368,0.251804375814584,0.4252404896647944,0.2500111617903369,0.10755470011407163,0.24949363356262716,0.16132235923412894,0.15186171882425611,0.22006464829029376,0.18656742370193255,0.06399489201300207
48,50566.65625,45676.0,"[18,32,33,37]",4,0.1742916321764333,0.3012840739795957,0.39039455893006314,0.3242144484243763,0.3710163225168774,0.1974154649970945,0.2832967119413097,0.4135297346765919,0.47938268790642174,0.1325798663501315,0.24778750723554033,0.1565803762548116,0.23044423432107858,0.32614162926190265,0.17741503781900753,0.0694015290966332
48,2318.390625,2108.0,[5],1,0.24624037929516512,0.2311336495024573,0.3607285202631241,0.35222774874646234,0.2278204921038652,0.36147139368882053,0.18397679217889695,0.3178530304452583,0.2068670244697283,0.11651929953226987,0.25318619654057617,0.26337787586885963,0.10758706534215033,0.5135421066208631,0.25633209005573016,0.06613741116199928
48,25728.609375,21555.0,"[11,14,39]",3,0.1821032150115899,0.3998757039222934,0.5017805135520583,0.2964292774400939,0.5015438776947067,0.32366248337800124,0.21515341269648977,0.32804408725171463,0.5692105014850377,0.11701527764520903,0.24811482336472146,0.08766821257306087,0.3250494156396138,0.32331089625878534,0.17782947480146905,0.07989613150753301
48,56720.875,47692.0,"[9,10,13,16,34]",5,0.16308782659920287,0.4361905443941255,0.5130515272674504,0.298812178597676,0.5689559671631883,0.1841281813958156,0.2938891840829834,0.31470313618675794,0.5963307247948333,0.11893366824317743,0.2309045303014869,0.08665836364347747,0.37999343341532,0.4018256660503866,0.1838636477678361,0.07669117109430781
48,12037.90625,10693.0,"[22,28]",2,0.2713702841898066,0.2947190343683273,0.6578226612477576,0.3317202155869829,0.48286763387564974,0.3785648534974142,0.20005228098570324,0.34563096648470204,0.6811659859397429,0.15711363782163373,0.26215290052868795,0.0901808849930944,0.3523056191437666,0.33749709503996334,0.19782893278322675,0.14508621046430797
48,16921.34375,13769.0,"[11,13]",2,0.17014856818794646,0.3711679189212536,0.5563471716989546,0.30767448064355407,0.5538860305230066,0.1371988539727922,0.30040222118082294,0.324043478087493,0.6233999967951859,0.10281934466249913,0.23149322109427078,0.09042720325149535,0.35924641694809,0.3567626625691366,0.19562444344023153,0.0954796589519014
48,2957.171875,2520.0,[15],1,0.196503820386789,0.23228058816512212,0.36660898032635203,0.33325973030762185,0.27277193939590566,0.16950434625145938,0.27887011428688985,0.2766630412317638,0.17384887661339704,0.10866374073447596,0.24377457085588164,0.23769187033326564,0.11053309372752952,0.47305524256026193,0.24569191360759926,0.06346450151452886
48,15524.390625,13774.0,"[26,28]",2,0.2434265442894955,0.2537336166927397,0.6685382265804739,0.3355301734066647,0.3147615867947225,0.29011903332724054,0.2456703603493855,0.3315811994077911,0.43296543362470763,0.15978866126296598,0.273711268525093,0.10380446578381482,0.21498295638755763,0.22879734720192976,0.1610806320684584,0.1391624062430632
48,5445.359375,4457.0,[22],1,0.24554576391619323,0.3383809386987415,0.6016211937760486,0.3185180248850974,0.6063768086005852,0.4705996011398956,0.14991353388590176,0.3669815608311505,0.6686135855724101,0.11463975269889917,0.2515023899993788,0.07953918027147544,0.39441521862099743,0.38224277161890635,0.23349640590879747,0.1191251163997469
48,7263.125,6883.0,"[30,35]",2,0.26364623580767105,0.25348137150690336,0.4176236351509664,0.31164011775659645,0.2945250114260868,0.26412834024676823,0.2655642008324353,0.3309865811077255,0.7300732284117556,0.28405517770988586,0.26933766213989924,0.1005918049672819,0.25248234490226673,0.22010001272399624,0.16860475668707475,0.10105788900199095
72,262834.01953125,230579.0,"[0,1,2,3,4,6,8,9,10,11,13,14,15,16,18,22,26,27,28,30,31,33,34,35,36,37,39,42]",28,0.18337894657317202,0.34046601085015704,0.4430730612705744,0.33294490658595693,0.4210842465395598,0.2392136097588507,0.2612440327919579,0.3425245913220412,0.47054369381012545,0.13626602751893488,0.25999372668847043,0.10901800212802361,0.25742096188576746,0.3088739019216641,0.19912105808563813,0.09282862696517126
72,114638.193359375,101657.0,"[5,7,12,17,32]",5,0.1629070151635596,0.23901032205865128,0.29994546850659193,0.3047184087148094,0.2595259078841982,0.22566354267253763,0.24750095902127117,0.5201199532109246,0.14979709428062218,0.09841924590949594,0.24569640264976378,0.2034675669513271,0.14992561685514444,0.28235992872114013,0.20542356888368155,0.061303588841823145
72,965.798828125,676.0,[5],1,0.23988553786787836,0.23941787850001664,0.3600573754262662,0.3747816928728398,0.26591460243881093,0.3288044422964987,0.21433598123247577,0.3397116149500597,0.2067312585711491,0.13823107426371462,0.2594378732511146,0.24036771138036622,0.13504845473282914,0.5078979225037553,0.25512853797371365,0.0733289624196837
72,11786.357421875,10440.0,"[4,6,40]",3,0.21220705031342746,0.3190022729933319,0.5495088061978615,0.3571885084945469,0.4452682749761791,0.2680749682040895,0.26742527210698863,0.3344498601364081,0.5335251963125903,0.1435052321767262,0.26872457169687264,0.100360718028927,0.27417555205734323,0.31206464971286724,0.21468762091871557,0.12077933412854537
72,23851.626953125,19335.0,"[3,10,11,13,19]",5,0.20105273006930835,0.35105333128898614,0.4967582826593547,0.36433093903849645,0.48231280366804746,0.23404106200779792,0.26640346833948636,0.33239179224128734,0.5904328305066454,0.16170720766416363,0.26992990225352287,0.11806495965271945,0.3141417754566127,0.41056946849240517,0.23695010590082424,0.129023750484301
72,1371.646484375,1002.0,[15],1,0.2030362567442144,0.24113494379385234,0.3745065043246251,0.36320661223627176,0.3095910789557851,0.17066217673842857,0.2908781429231982,0.30425635229925996,0.18322229946200286,0.13589183077085465,0.2490897631704131,0.210903402412299,0.14542464567353278,0.46525065195996124,0.23316279948074403,0.06821060166478969
72,18928.298828125,15907.0,"[16,22,26,28]",4,0.24790540121427976,0.28306800547023153,0.5492600354127227,0.37345446953131317,0.41351343237122296,0.2809360998033445,0.24743749854059913,0.3474205304376986,0.5467537488755385,0.19612965144691355,0.2764996299078609,0.1097994113685446,0.2781584495273865,0.32666494569813187,0.2110390402514647,0.13304602708144633
72,21932.505859375,18692.0,"[18,27,30,34,35]",5,0.25303122939446504,0.3455792458203897,0.4375492310984382,0.3665849527005859,0.4448798155141589,0.34506197989260384,0.23013545254582493,0.3462316259893211,0.6301534253701301,0.23825066777936524,0.2779129166891022,0.10214750147032235,0.3297112784965247,0.3836119892312748,0.21214210358477714,0.11279040359456548
96,153504.24267578125,123889.0,"[1,2,4,5,7,8,12,15,17,26,33,36,42]",13,0.18305453952891257,0.26619615413637665,0.370043495553885,0.3189772236361794,0.30001859122347074,0.22311147721154315,0.26845877826432646,0.4631805814519622,0.23832828569416617,0.11650464807634958,0.2564691770832762,0.19784702282649447,0.17452225000818225,0.2753672071357432,0.1999260017650363,0.0626139528363434
96,22327.35107421875,18776.0,"[2,5,32]",3,0.18423405320474945,0.2370533472293978,0.300124714972969,0.37650304481366376,0.2655439188130948,0.2576839863209974,0.2615549928187651,0.5842776125993636,0.20486894091317182,0.12202928363680135,0.2590274395632099,0.3027162212734382,0.16605674008014462,0.42343874809443377,0.21566841059110006,0.05721995205694673
96,117131.10693359375,105942.0,"[9,10,11,13,14,16,22,34,39]",9,0.18095985239587598,0.4520800033106855,0.5091246156052792,0.34746181828626427,0.5615768836442043,0.23644357975254496,0.2999899981595184,0.3513575974253055,0.5562144697432985,0.13909241752831197,0.24770144037782668,0.09915735107522039,0.37849012690817474,0.4513925507942936,0.19966093984835082,0.08041854008213142
96,4698.74853515625,4230.0,"[28,38]",2,0.3122193661168983,0.27337779505898446,0.6293483790700108,0.42057851395514007,0.4332606177298828,0.3292225973269455,0.29623483397136224,0.3632607284610689,0.6856387467309639,0.24646075717747343,0.2975078083920157,0.11589451169541871,0.3394948590788292,0.4189129361417997,0.19885290956413423,0.14264250079984686
96,8686.52197265625,5775.0,[8],1,0.17501680241055512,0.31993334112177785,0.42385096052430826,0.3296553334975173,0.37546242797815876,0.23595922749724177,0.2765314049820322,0.3433773124422408,0.39926860657035995,0.12356337590596284,0.26339707039547494,0.1119555820969337,0.20564647570528224,0.22553323087374888,0.17526224314337127,0.07344537815045374
96,4470.386962890625,3264.0,"[11,21,35]",3,0.2213863855965901,0.33735754620291974,0.47479224519543856,0.3793749024063048,0.4458165241250363,0.23078632784248096,0.3035189118427509,0.34699304209297976,0.608118564880625,0.2126234415566113,0.28383989542198146,0.11617176053483406,0.3156412267577177,0.39818964921893213,0.2201097718414409,0.12352158418716139
96,1028.455810546875,857.0,[15],1,0.22861190604890771,0.23723938844369966,0.4059177242254642,0.3882077432937265,0.30405794668037794,0.15639182317036618,0.31021823329816556,0.31367451139307817,0.19629215516824294,0.1477070642637811,0.25889626770036894,0.22416899484056158,0.15725958215568284,0.5070932620764329,0.23613785557370903,0.06621646910889965
96,29244.720458984375,23910.0,"[4,26,14,16,22,28]",6,0.23313844146077747,0.31840817573292796,0.5348893477124294,0.3666199285315536,0.4311121515364481,0.29615802015075166,0.2627808873222814,0.3582670135352435,0.5192344616182535,0.1743639228051141,0.2770346624982231,0.11404671006578954,0.2878998970701243,0.33857661428762365,0.20024379168643466,0.10588658138597189
120,141461.63189697266,122851.0,"[1,2,7,8,12,15,17,26,33,36,42]",11,0.17764074885350223,0.26917752715617327,0.3879913531334085,0.32337401792460274,0.30394628784116035,0.22023017923168042,0.27316198328149216,0.44804297533100385,0.2398093094414464,0.11659586767985161,0.2606813520447616,0.18823334513175333,0.1699251388288366,0.2774547522138203,0.19305781023964863,0.06014488355417967
120,18893.57827758789,16244.0,"[2,32]",2,0.17539152228272387,0.23595359307730215,0.3113896660963364,0.38910815922950587,0.26701638943583167,0.27172994518860055,0.26299572829714485,0.5998773824469459,0.20864688836476086,0.12398554745090805,0.26190100705526415,0.3144044270536012,0.16543645681439886,0.4308853744546052,0.2093887338078903,0.056210911533284974
120,168623.61227416992,154591.0,"[9,10,11,13,14,16,34,39]",8,0.1728607132363685,0.4757968242639034,0.5278897687307457,0.35561874858065273,0.582878736302909,0.22881522044653263,0.3099584104825014,0.35748402236096144,0.5618153712975469,0.1249913354885136,0.2465652143244356,0.09650986312469612,0.39730479774008465,0.4821700763507159,0.18847805985954208,0.07347193451558881
120,12243.277160644531,11203.0,"[22,28]",2,0.26769041094853685,0.3163624588439314,0.6366040423655408,0.3941072606389471,0.5275371345975711,0.40112688424373577,0.23308336817349132,0.3714204751370912,0.6383350395567755,0.16794530316404507,0.277843390880526,0.09868789677665964,0.3691541158961762,0.42331344679058136,0.1984413354982652,0.12178518696975625
120,10177.815246582031,9092.0,[8],1,0.17840017338859507,0.3200918815637241,0.4382771209021396,0.33963415833972,0.3717390081321762,0.23629951728103085,0.28152815218115207,0.346837511993971,0.4054118308663123,0.12617018181113104,0.2704682726830571,0.11238012194572211,0.2010973552250964,0.23754962909041513,0.16670010447003455,0.06905912799157818
120,4493.665374755859,4107.0,"[11,21]",2,0.20366253181496421,0.3845996791666909,0.539085588975093,0.38368149287567604,0.5251918151051386,0.23677857993926077,0.320574390188229,0.3310155567361435,0.557914686532726,0.1986254106402171,0.28522265151066795,0.11266614214407225,0.3606748485525421,0.4566401400004568,0.2246364382079069,0.12499683961833188
120,1446.5569763183594,1318.0,[15],1,0.22394342998497963,0.2345792176359186,0.4168516184596912,0.4106342742558501,0.3081778157004223,0.1438058071995772,0.3125453064843853,0.29351523782144534,0.19033204873295684,0.14429976847577503,0.26087034735638376,0.22901440412029417,0.14897977990128594,0.5297130627348425,0.22304547790919182,0.06425238604151355
120,34326.66522216797,30935.0,"[26,14,16,22,28,35]",6,0.24646050594497787,0.3037330309175226,0.5500614994288855,0.38387629125118805,0.4323771973650319,0.29830463380021754,0.2657524767186192,0.3688033426439835,0.5333615598222825,0.17641446923319556,0.28037962276085476,0.1144533484604124,0.29270149997304085,0.3585307159969422,0.1889634790453946,0.10290864421791747
144,104035.06540298462,88063.0,"[1,2,7,8,12,15,26,33,36,42]",10,0.18874331958719148,0.25227122198652463,0.3746586227660814,0.35675393609992995,0.28346401964647355,0.22943450081810432,0.2779984951297651,0.4775578439101238,0.21339774732456213,0.11997554773845466,0.2599807616773624,0.21801773494847557,0.16952345527832982,0.2902214667213508,0.19593470533222934,0.05836624633208227
144,36879.19701004028,33424.0,"[5,17,32,35]",4,0.17283746415900642,0.2239973760276899,0.29869660632803735,0.49413272658970897,0.2704772105648452,0.23135923733647984,0.2775669482613953,0.613308190408903,0.2337430826981455,0.12600851556571774,0.25666171147728606,0.3607948306339615,0.17170471229647152,0.5044242379518704,0.21014882484247202,0.05275969484853042
144,2880.0425758361816,2669.0,[5],1,0.25448577173903875,0.22989376478162618,0.3903452720857818,0.5652448787135235,0.2363919709858161,0.35616472588949405,0.1897096341655991,0.3403367965653296,0.19843782228387183,0.13468066358694603,0.26700962256660166,0.2975193200651151,0.11219453083077292,0.578475827173059,0.23312425457388078,0.06482057878300798
144,157508.0485458374,135431.0,"[9,10,11,13,14,16,22,34,39]",9,0.17555255487832058,0.4701130496231848,0.523903312416323,0.3768998094481316,0.5807289214011075,0.24095887423323709,0.31720838593857703,0.35505704201257,0.5427168472755018,0.13415863049683566,0.23948418769991814,0.10326045461338042,0.39180010385572367,0.4735743159616589,0.18723005912948582,0.07162331940578995
144,2251.3126335144043,1720.0,[28],1,0.3037491945394113,0.2645073201455433,0.6842594020678182,0.4362007937413163,0.3864247879172126,0.29903834674378893,0.28749808401583565,0.36688149079855603,0.6358435497691979,0.21145992298352687,0.30188661647087484,0.12534655269084738,0.304336337725494,0.37335142254420284,0.17826367438405574,0.1373602144211877
144,5676.226905822754,4404.0,[8],1,0.1921712990538136,0.30489976536664215,0.4416293866472522,0.37706126397701184,0.35690191771430274,0.23752010185729555,0.2908780154199523,0.3545349457427406,0.40565331446154673,0.14642093709652615,0.2758101142304298,0.1252966363237542,0.2032081463456222,0.25879940867326057,0.16632855463947377,0.07073256411153873
144,2360.819622039795,2180.0,[15],1,0.22671071266811688,0.2318432896729261,0.41407593820693256,0.4924164484401676,0.2964383056389363,0.1397754394195068,0.3064183713969749,0.295855176673242,0.20265199693677063,0.14060195998920538,0.2598929280281572,0.2590464636915447,0.13887526710122353,0.5459616965650376,0.22895664636871668,0.06286706122014933
144,35309.767307281494,32142.0,"[24,25,29,30,38,41]",6,0.36676001503775635,0.2573210487688366,0.4934083255742445,0.4952654334887523,0.4411735089160778,0.283015804899015,0.3103599293397818,0.36844692907856524,0.7531546600022526,0.4570164603337322,0.30608379746786873,0.13359889002236877,0.3757788195957256,0.5320304668052696,0.2246544132828895,0.1422614797275494
144,27987.85113143921,22149.0,"[11,13,14,22,33,28]",6,0.20378516352157527,0.35468342658231256,0.5588660162046627,0.39117366459013886,0.5324957722771994,0.22316531950889207,0.32082434343178173,0.33301797906162084,0.5547820911344596,0.1451585641328829,0.253582170905115,0.10926290008563563,0.3473001150013564,0.40774732557946475,0.18678942735860274,0.08958293875255424
168,160506.96654081345,147165.0,"[1,2,4,7,8,12,14,15,26,33,36,42]",12,0.1699870752334501,0.27628977830211715,0.39860403108576,0.38366265346913137,0.33939077981536997,0.23774384770706744,0.2793491954213772,0.4025239988036208,0.3477594894955535,0.13100092285813095,0.259409733292463,0.15258143267925223,0.1947298107028143,0.2716448443912729,0.18261023093400403,0.07637641551694775
168,37055.16698360443,31753.0,"[2,17,32]",3,0.1528855667675244,0.22836681042359452,0.30383106791565,0.4746576485363739,0.27169659735822443,0.2424179455024956,0.28953384597881143,0.6324885182479995,0.2518709817535561,0.12580993176611988,0.2560924090557125,0.32265367799749156,0.17504873833779652,0.4540061840088815,0.2138838149835113,0.05791160805775143
168,142678.76410484314,121830.0,"[4,9,10,11,13,18,22,28,30,31,34,35,39,40]",14,0.1895745464575792,0.4097265186991511,0.5215659056380333,0.4047989824747687,0.5313703535563524,0.24801790433378143,0.31186794846085514,0.3473167715381851,0.5307835867305699,0.161781590042379,0.25345336273844493,0.10520852101429662,0.34860154950071065,0.41087750161447584,0.1944329195208583,0.09297334828287293
168,4579.9087109565735,4318.0,[16],1,0.25625028735130045,0.26228040915564155,0.47937193149019414,0.5096969498381796,0.4606472639346554,0.12214369079585687,0.3489198067785843,0.3700867182101423,0.7019171255949281,0.2739717510174409,0.2825011333939537,0.12896607270070704,0.330172938499223,0.4580801013196147,0.1995634027182188,0.12199609345355325
168,20921.041164398193,18757.0,"[11,21,24]",3,0.26240644230454596,0.31554798681216983,0.5138939226963183,0.4638798789211023,0.5119898516566698,0.1884827591618823,0.34692723215590654,0.32093754621104437,0.6200327744881217,0.3015527736512369,0.27462541851396394,0.1198275654395473,0.3597070174911239,0.4665853441529276,0.21894871451433212,0.12077946786739328
168,2461.1024527549744,2166.0,[15],1,0.19988867459254048,0.23583151558460472,0.4133074526111841,0.4886838436346361,0.2944059203169227,0.14852332582182592,0.30781625199159374,0.3052157957530456,0.2273697167770877,0.1388945373995128,0.2593436194373292,0.248597798358939,0.1420575948737051,0.4915503954517884,0.24522013820842617,0.07329468304418353
168,36316.85735845566,33501.0,"[14,26,18,22,28,30,16]",7,0.23171030574222223,0.2870383214052743,0.5091479863946494,0.44408642381189556,0.4126903770311145,0.3040702723741334,0.2739253389393448,0.35877434527094865,0.5494677012382791,0.21152963830599802,0.2845319304304114,0.1162114809495941,0.2816924729370618,0.3416683263501257,0.18925911066308163,0.11996485783869085
168,949.5891580581665,890.0,[31],1,0.2846053100679305,0.2921906102482191,0.5641216826423485,0.544538022009873,0.36939927075423323,0.384385548689,0.40214888618550726,0.43139401600579774,0.434929699179682,0.24881656092365886,0.36269129202734424,0.19575154717414597,0.28488046925979416,0.446919330765092,0.22603469925149056,0.1471243404568254
168,3853.8770780563354,3604.0,[35],1,0.20897040052283533,0.257371023064402,0.4064732008039096,0.47926401205246266,0.3275201970762796,0.23178958671406683,0.29968261179826106,0.38123336228719173,0.6242494604532071,0.18364445125722992,0.28390632162928997,0.13623744309682323,0.20873091723164058,0.3503840589993995,0.18500685382845466,0.10295212682807664
