time_in_hour,cumulative_size,size,pcore_ids,pcore_power,AF700 CD48_[R 730_B-A],APCCy7 Ly6G_[R 780_A-A],BV421 CD117_[V 440_F-A],BV510 SCA-1_[V 525_E-A],BV605 CD11b_[V 610_D-A],BV650 CD150_[V 660_C-A],BV711 CD11c_[V 715_B-A],BV785 B220_[V 780_A-A],FITC Ly6C_[B 525_B-A],PE CD115_[YG 582_D-A],PECF594 CD135_[YG 610_C-A],PECy5 CD3-CD19-NK11_[YG 670_B-A],PECy7 CD16-32_[YG 780_A-A],PerCPCy5-5 CD45_[B 695_A-A],_FSC-A,_SSC-A
-1,0,0,[],0,0.0,0.0,0.0,0.0,0.0,0.0,0.0,0.0,0.0,0.0,0.0,0.0,0.0,0.0,0.0,0.0
0,129915,129915,"[2,4,5,7,8,14,18,21,38,49]",10,0.2928807561328577,0.1759770944771577,NA,0.5400779592194915,0.31809656625485916,NA,0.009527288311589999,NA,NA,0.34931259900704437,0.18463104245852957,NA,0.6231274506408028,NA,69108.13648924298,14017.866574298563
0,4984,4984,[30],1,1.4051968061797726,0.2735286849919696,NA,0.6932015483547431,1.0509680357142872,NA,0.27728396749597906,0.6955177377608321,NA,NA,0.3897850232744786,0.15603416552969784,1.7821440182584278,NA,61214.75441412521,20174.39486356343
0,15899,15899,"[5,23,43]",3,0.3677182995785928,0.13178876287817154,NA,0.7396206583432892,0.2852424899050243,NA,-0.1272551916472615,NA,NA,0.40939749141455384,0.21038603924775146,NA,0.6598879209384246,NA,72475.59821372411,15428.983458079165
0,135057,135057,"[9,10,11,12,13,15,16,19,20,29,32,34]",12,0.2342139342055587,NA,NA,0.6587994480774846,NA,NA,NA,NA,NA,0.555235102830658,0.12901794269826672,0.13145398049712254,2.0495823668377056,NA,66662.718348549,18619.821379121357
0,5326,5326,[10],1,0.46786813086744394,2.0959304776567738,1.923042955689081,0.6759654988734436,NA,NA,-0.4200574581299321,0.8444794119414185,NA,NA,0.2422440904994403,0.12365603022906546,2.104111999436719,NA,67906.53548629362,20785.411941419436
0,25551,25551,"[12,13,14,33,35,46]",6,0.4905544239755757,NA,NA,0.7733794998630175,NA,NA,NA,NA,NA,NA,0.25873797874838855,0.14311837732378463,1.925269014950492,NA,NA,20929.74834644437
0,19833,19833,"[16,19,20,29]",4,0.3195394078051743,NA,NA,0.6758312507437103,NA,NA,0.015015898805026406,NA,NA,NA,0.19798937876266676,0.1376328976957607,2.0052124642262896,NA,67187.96672212983,19577.462209448902
0,7853,7853,[33],1,0.7820850920667255,NA,NA,0.8748552353240653,NA,NA,NA,NA,NA,0.5469652129122623,0.21763037195975699,0.08687306379727655,2.3362090924487533,1.6554144132178656,74212.77982936446,27921.228575066856
24,156093.375,139630.0,"[2,4,5,7,14,18,21,23,38,49]",10,0.29319517865908384,0.15356816184463584,NA,0.6140273625057779,0.26639630774128076,NA,-0.008085378786894193,NA,NA,0.3284716408888274,0.16768633590791104,NA,0.5428240298026751,NA,71891.37547958057,15219.506093708316
24,12160.125,11042.0,"[8,30,43]",3,NA,0.18803941897184995,NA,1.039274277782917,0.7253525784685659,NA,0.16363516902581088,NA,NA,NA,0.24816074092577445,NA,NA,NA,72209.27350664583,19337.656479682544
24,315.125,276.0,[35],1,0.999576267354225,0.3646866691788957,NA,NA,NA,NA,1.3466636969456545,NA,NA,1.0890074184847278,0.6385296406188017,0.6684525870686235,NA,NA,NA,24931.338357794528
24,149086.5,131224.0,"[9,10,11,12,13,15,16,19,20,32,33,34]",12,0.3035441532499601,NA,NA,0.7313659434615141,NA,NA,NA,NA,NA,0.5727694209988842,0.10196851029183884,0.13651889112612448,1.9283936783796647,NA,66809.01339826212,21989.426487307617
24,6071.75,5406.0,[10],1,0.49325062562275046,NA,NA,0.7285183465845915,NA,NA,-0.39174313101659486,0.8141240933009293,NA,0.6523514441470765,0.23752345555235266,0.13672600191460482,1.9621610834808654,1.4980768013340486,67906.05937332723,23410.197060155653
24,30045.125,27020.0,"[12,13,14,26,36,39,46]",7,0.6191907426495982,0.9513548426075777,NA,0.9615172115859094,NA,NA,0.008613791372146906,0.8514439877683992,NA,0.700361381850633,0.3295668803300029,0.2409658118288729,NA,NA,NA,26764.120435511566
24,18848.0,15928.0,"[16,19,20,26]",4,0.5566956368381271,NA,NA,0.8457781502944637,NA,NA,-0.01701180788412504,0.7577498570007415,NA,NA,0.2312728291529602,0.16025272475196317,1.878568927797379,NA,66764.25297113752,26955.426146010217
24,9049.625,8068.0,[33],1,0.7753662184344605,NA,2.712356082102835,0.9050725539870434,NA,NA,-0.5315274603781948,1.0067231049491001,NA,0.593409285591939,0.17903383939942152,0.09736680296144917,2.2417659129936376,NA,74165.9796952912,30562.12030885255
24,4106.0,3787.0,[23],1,0.7810262899415508,0.09493342504870572,0.8780978135655038,NA,0.2837240846322464,NA,NA,NA,NA,NA,0.17814018409036025,1.2201734347905493,0.3652269657817837,NA,82309.81977593768,16945.798343886978
48,187282.953125,166521.0,"[1,2,4,5,7,8,12,14,15,18,30,35,36,49]",14,0.30581349782952705,0.4350607343932884,NA,NA,NA,NA,NA,NA,NA,0.39208068165490473,0.18531659129272304,NA,NA,NA,NA,17611.67264806284
48,12537.671875,10700.0,[21],1,0.11219430116237983,0.10019230074362939,NA,NA,0.3453019902680796,NA,NA,NA,NA,0.2430379757194321,0.10607925677488117,NA,0.6746509028353306,NA,71697.28510700876,14434.203319744987
48,20583.4375,17337.0,"[23,38,43]",3,NA,0.0664941003666435,NA,NA,0.1598132873722804,NA,NA,NA,NA,0.335330011319782,0.17090686448676218,NA,NA,NA,74804.73895577446,14674.28266051281
48,74334.59375,62533.0,"[9,10,11,13,16,19,20,32]",8,0.13558139351021192,NA,NA,0.6039924827532368,NA,NA,NA,NA,NA,0.35095034264602654,0.03465897977135812,0.09277711297755431,NA,NA,NA,19340.22978365975
48,23924.171875,19880.0,"[26,33,34]",3,NA,NA,NA,NA,NA,NA,NA,NA,NA,NA,NA,0.07389643357430697,NA,NA,NA,30684.36963400639
48,2616.6875,2428.0,"[8,46]",2,NA,0.6193631800463337,NA,NA,NA,NA,NA,NA,NA,NA,NA,0.48369646453650816,NA,NA,NA,33826.30138295077
48,5439.78125,4699.0,"[13,39]",2,NA,NA,NA,NA,NA,NA,NA,NA,NA,0.4515170178545789,0.19957106306836891,NA,NA,NA,NA,22002.43070435969
48,10788.078125,9020.0,"[7,44]",2,NA,0.15577599573313838,NA,NA,0.3321377719690566,NA,NA,NA,NA,NA,0.314734790059056,NA,NA,NA,NA,23622.466675453386
48,6016.03125,4620.0,"[16,19]",2,0.38046888319490013,NA,NA,0.6908225371585281,NA,NA,NA,NA,NA,0.40897268219548855,0.17546245705745012,0.10126571998514333,1.9765309108683513,NA,NA,25361.76453538201
72,271643.51171875,241927.0,"[1,2,4,5,7,8,9,12,13,14,15,18,19,20,21,23,35,36,46,49]",20,0.2730412453541189,0.8160974153149514,NA,0.7632575252856171,NA,NA,0.051241768821999045,NA,NA,0.3953941620850546,0.21312024741774938,0.4316765012993504,1.020963376854823,NA,68291.88519587068,20021.26548583264
72,25984.8828125,23094.0,"[30,38,43]",3,0.4477703181849304,0.21261415481815238,NA,1.3570762916260706,0.4633245103232313,NA,-0.04077643382368512,NA,NA,NA,0.2282067590714556,NA,1.0218638107924067,NA,72605.0777384085,19116.83682910584
72,43377.205078125,37672.0,"[8,10,11,16,32,34]",6,0.3330091383327083,NA,NA,0.9625570637269427,NA,NA,NA,0.8360343769224841,NA,0.5590657938736349,0.2725193859470112,0.14530684788224024,2.0392226605039747,NA,NA,24301.081935811144
72,10671.37109375,9251.0,[10],1,0.5492247479007939,1.8964994007220666,NA,0.9436702878911638,2.592299763257673,NA,-0.5582723233706908,0.8941364393084585,NA,0.6347057873947911,0.3787907451168082,0.12872461120766998,1.9925149459760316,NA,NA,24688.425572071308
72,11755.595703125,9512.0,"[26,33,37,39]",4,1.0896884472924657,0.7526659213487905,NA,1.4383810156951502,NA,NA,NA,1.0020102658555983,NA,NA,0.4802151158017356,0.2441748300460299,NA,NA,NA,38337.32507108905
72,14101.63671875,12008.0,"[7,13,47]",3,0.3563353726265768,0.5201799147148565,NA,NA,NA,NA,0.1711672602090144,NA,NA,0.44350800496216336,0.2344115921921759,0.6550513869608421,0.909958964754339,NA,70616.80203234375,21928.807328714756
72,7649.00390625,6897.0,"[19,16]",2,0.47051584434783966,NA,NA,1.0367356110237038,NA,NA,-0.04292235320290194,0.7646487716565997,NA,0.5941559211189679,0.3196104406627156,0.1467932381470718,1.872044775672892,NA,NA,28574.60300437405
72,1621.28125,1078.0,[23],1,0.7597698766263199,0.16623316562180346,NA,NA,0.338655790862743,NA,NA,NA,NA,0.47760998960240764,0.19648435770199946,NA,0.40414189558316127,NA,81660.05335286526,17997.826641737818
96,112918.6728515625,95817.0,"[2,4,5,7,8,18,21,36,49]",9,0.43117634928641,0.21063616666957907,NA,0.7628282509237727,0.31146728059956397,NA,0.12024420061109398,NA,NA,0.409938815803366,0.24197797516937403,NA,0.6542668883836381,NA,70896.50506122947,16037.539086504223
96,8744.59716796875,5733.0,[14],1,0.26552437192766076,1.201547191005905,1.2560562614297268,0.898466998810985,NA,0.004236509319893944,0.4033537669307514,NA,NA,0.48275021237296023,0.25858192986075856,0.1998939396768159,1.2261624308356964,NA,63586.50767519107,18717.513811290275
96,23100.854736328125,19427.0,"[23,30,35,38,43]",5,NA,0.16991545988935775,NA,NA,0.4523897754167234,NA,NA,NA,NA,0.7285062182887724,0.3044820361425584,NA,0.9792434942238902,NA,73110.8386009585,16114.930763614726
96,95286.23681640625,79286.0,"[9,10,11,12,13,15,16,19,20,32]",10,0.23945945206173658,NA,1.919653489435213,1.0190098290945477,NA,NA,NA,NA,NA,0.5453652335757307,0.14134555787016678,0.1604729776297742,2.2357724138389363,NA,67725.48239488516,19983.822371956503
96,4635.92138671875,3302.0,[10],1,0.5929563603505634,NA,NA,0.946198870972172,NA,NA,NA,NA,NA,0.6476803022764969,0.32048881723036216,0.1381197901071778,2.06552289825857,NA,NA,22287.646889571468
96,50404.943603515625,42258.0,"[12,13,14,26,33,34,39,46]",8,0.6694728463086193,NA,NA,1.1168858478228274,NA,NA,NA,NA,NA,0.6789445411446767,0.30749272248434156,0.1736590023059449,NA,NA,68504.11345508698,22547.347893572525
96,7576.603515625,6453.0,[7],1,0.4957197631097552,0.23638450333449823,NA,NA,0.38250801136098644,NA,0.14129768140469112,NA,NA,0.47458339290504825,0.2566142952705235,NA,0.7717807836933636,NA,73372.2124622443,17416.428562332476
96,10036.976318359375,7426.0,"[16,19,20]",3,0.4449543189697074,NA,NA,1.0599672861056648,NA,NA,NA,NA,NA,0.6069401246756169,0.269245405504134,0.16109335657823254,2.1195792894012597,NA,68684.06108068905,23437.082793396632
96,6123.768798828125,5421.0,[33],1,0.980261960835479,1.0352628708351652,2.91800357218855,1.3463616205044429,NA,NA,NA,NA,NA,0.706317527194306,0.33487636496601914,0.12015467164648674,2.4800407022308795,NA,75601.47084604076,30916.38093929678
96,1563.66015625,1361.0,[23],1,1.0533067766214799,0.12906997822522914,NA,NA,0.2594317018757315,NA,NA,NA,NA,0.5974275601929647,0.2960358411527886,NA,0.46091659164258025,NA,81707.89711639109,17450.023427605003
120,197569.2980041504,180061.0,"[0,6,9,10,11,12,13,15,16,19,20,32,33,34]",14,NA,NA,NA,1.1542786584286815,NA,NA,NA,NA,NA,0.471581010241933,0.16061993597400637,0.13144420577114369,2.5079276130442087,NA,66655.4046485849,19678.16574699221
120,104058.83410644531,89944.0,"[2,4,5,7,8,18,21,36,49]",9,0.3729159451191357,0.2457232472756985,NA,0.7819221189453964,0.3515013583837896,NA,0.1464336140485707,NA,NA,0.41608291444594603,0.2805536729833684,NA,0.6092559287376095,NA,69539.41444571497,15736.193565330494
120,9235.074645996094,8142.0,[14],1,0.3069395112119784,1.1557325699672387,NA,0.9872767905148905,NA,NA,0.4998272306331897,NA,NA,0.5134775099571075,0.33285243306357204,0.20566228689580324,1.1781614763381172,NA,61354.11407993786,17885.564125333276
120,952.5105285644531,862.0,[35],1,1.1322906136848265,0.39906866665702134,NA,NA,NA,NA,NA,NA,NA,NA,0.7274910191854294,0.5582028228840528,1.3035840223340398,NA,NA,21355.785556037714
120,31260.99530029297,26760.0,"[5,7,38,43]",4,0.32534599946310405,0.15603849690763383,NA,NA,0.32552043198805025,NA,NA,NA,NA,0.4801027844259238,0.27852903897822445,NA,0.7417007942535959,NA,72129.66616907154,14881.276761584433
120,2447.45751953125,2252.0,[23],1,1.0036221369571854,0.09949261543729815,NA,NA,0.2080773598203005,NA,NA,NA,NA,0.5080141485981976,0.29774063099720216,NA,0.40262510374520666,NA,78504.53025770326,16659.790811295148
120,29217.332458496094,25447.0,"[10,12,13,15,16,19,20]",7,0.4922479858618194,NA,NA,1.10385177534864,NA,NA,NA,NA,NA,0.5593626511346413,0.3100666275879145,0.15924613257615428,1.9501238471286735,NA,65574.71270587944,21294.33341068991
120,8809.471099853516,8044.0,[33],1,0.9471273572194383,NA,3.002774747875572,1.471608525245462,NA,NA,NA,NA,NA,0.6131738577900622,0.31880419806953375,0.1003164675428081,2.5615440038611776,NA,NA,28339.070222415947
144,163100.1622505188,138404.0,"[0,6,9,10,11,12,13,15,16,19,20,32,33,34]",14,0.32212117589689404,NA,2.199249733050625,1.338433144839934,NA,NA,NA,NA,NA,NA,0.07789842653846124,0.17415869884902202,2.5319763587849056,NA,66265.26342429232,18797.676003357687
144,94167.35426330566,81160.0,"[2,4,5,7,8,18,21,36,49]",9,0.4526567608389276,0.1796131833729948,NA,NA,0.3123130548756583,NA,0.22452311064052433,NA,NA,0.4365049577072436,0.2604950391595038,NA,0.7005665624272094,NA,70055.44350871594,15387.071154284518
144,4565.384330749512,3411.0,[14],1,0.3984691978675923,1.0548953208319158,1.5403071449922643,1.1985705206082309,NA,NA,0.5813192116706563,NA,NA,0.619327744576231,0.3415159776755199,0.2626429999206167,1.2708565590632128,NA,NA,17969.567736136683
144,13270.686870574951,12219.0,[38],1,0.2923004060678689,-0.03672045401565738,NA,NA,0.1311951201248962,NA,NA,NA,NA,0.5518111436222807,0.28160341557185076,2.2969116864383663,0.8527543439875797,2.4729255634000844,71866.90301681927,13251.881051338416
144,18202.89517211914,14312.0,"[6,9,10]",3,0.4124379182132414,NA,NA,NA,NA,NA,NA,NA,NA,NA,0.09987564067612054,0.21159945026846205,2.217549298866702,NA,65730.31707430567,21779.434625070735
144,19852.85116958618,18259.0,"[7,43]",2,0.20657076995913703,0.06262152571807045,NA,NA,0.5381789398998276,NA,NA,NA,NA,0.5413541475168456,0.2355006079163635,NA,0.8950527363099109,NA,72487.26646903584,15273.066413671084
144,14213.730285644531,11213.0,"[12,13,15,16,19,20]",6,0.5337753364805313,NA,NA,NA,NA,NA,NA,NA,NA,NA,0.23368000751979867,0.21660060013390314,2.1133458603681565,NA,65394.712853370576,21162.76728577385
144,4534.183887481689,3433.0,[33],1,1.017558153938409,NA,2.9346975158715733,1.6429727365597517,NA,NA,NA,NA,NA,NA,0.27759479487602956,0.1730797994042279,2.486768721104898,NA,69679.42952251041,28154.736261929393
168,181092.19332265854,160134.0,"[0,6,9,10,11,12,13,14,15,16,19,20,32,33,34]",15,0.3274734567547357,NA,NA,NA,NA,NA,NA,NA,NA,0.6731706090370014,0.16740094325087895,0.169711523968044,NA,NA,66283.66166570497,22554.295255314
168,86444.80849933624,78935.0,"[1,2,4,5,8,30,35,36,39,49]",10,0.39460377288017945,0.36201765954879894,NA,NA,NA,NA,0.2287884579418753,NA,NA,0.5999044011764375,0.32332972002378657,0.5131965519886639,0.8394634846943382,NA,65893.22998631299,20356.335190031943
168,31292.5066075325,25765.0,"[7,18,21]",3,0.23462405300022926,0.11015254719557843,NA,NA,0.34868821970819,NA,NA,NA,NA,0.4336147188305449,0.21500766749799416,1.3965390262096897,0.7634206509386775,NA,72604.800292648,15625.584528470763
168,9611.320907115936,8403.0,"[6,26]",2,NA,0.7660875854082687,NA,2.0257076790863535,NA,NA,NA,NA,NA,NA,0.3066162396387564,0.26590210024317706,2.1171441681034247,NA,NA,34614.41131939061
168,21310.673933506012,20505.0,"[10,12,13,8]",4,0.5195069549301792,NA,NA,NA,NA,NA,NA,NA,NA,0.7924263988399461,0.3670903956049494,0.2152761188685125,1.6220729375854637,NA,NA,24787.799076292664
168,38956.20305156708,33541.0,"[5,7,38,43]",4,0.16315086784034172,0.07000364412739613,NA,NA,0.3317966151883982,NA,NA,NA,NA,0.5280660463145729,0.2544031901394601,NA,0.8361377963333781,NA,72455.94319889069,15582.69886420542
168,13800.353469371796,12615.0,"[16,19,20]",3,0.4968252129252093,NA,NA,NA,NA,NA,NA,NA,NA,NA,0.22501910533141478,0.20203281457116917,2.1004308137875016,NA,NA,24794.578696416553
168,14684.186671733856,13786.0,"[15,33]",2,0.6151792474265669,0.8985201664363927,NA,1.6650142818702318,NA,NA,NA,NA,NA,NA,0.3793469738147581,0.16624449962229015,1.6577057192808486,NA,NA,29956.172581397324
168,12437.990535736084,11307.0,"[35,36,39]",3,0.6634947083534817,0.34934391702654244,NA,NA,NA,NA,NA,NA,NA,0.7855137962899422,0.5116572717436041,0.5304483296265297,0.7756425677385762,NA,NA,26377.402532010365
