time_in_hour,cumulative_size,size,pcore_ids,pcore_power,AF700 CD48_[R 730_B-A],APCCy7 Ly6G_[R 780_A-A],BV421 CD117_[V 440_F-A],BV510 SCA-1_[V 525_E-A],BV605 CD11b_[V 610_D-A],BV650 CD150_[V 660_C-A],BV711 CD11c_[V 715_B-A],BV785 B220_[V 780_A-A],FITC Ly6C_[B 525_B-A],PE CD115_[YG 582_D-A],PECF594 CD135_[YG 610_C-A],PECy5 CD3-CD19-NK11_[YG 670_B-A],PECy7 CD16-32_[YG 780_A-A],PerCPCy5-5 CD45_[B 695_A-A],_FSC-A,_SSC-A
-1,0,0,[],0,0.0,0.0,0.0,0.0,0.0,0.0,0.0,0.0,0.0,0.0,0.0,0.0,0.0,0.0,0.0,0.0
0,126869,126869,"[1,2,3,7,17,21,33,36,51,52]",10,0.28666805622334746,0.1536628968936471,0.37117387932434553,0.5379591903223044,0.3004757125775419,0.23174330196501658,-0.00719834931307739,2.5470299858830847,0.8150936675862487,0.3444414549574758,0.17167897293271128,0.9896611854196085,0.6178801352182169,1.0906666816874113,69526.48669099636,13690.541266976168
0,6514,6514,[54],1,0.5608177476205014,0.34357504912496006,2.8774431656432244,0.9525883050353077,0.49044962987411633,0.44922744980042717,0.08102490435983967,1.0076295199570122,1.459041203254527,0.7148472347252078,0.4814448319005171,0.38334898940742945,0.6523548107153857,0.6536865310101314,66398.11360147386,27519.656125268586
24,140322.125,132749.0,"[1,2,3,7,13,17,21,36,52]",9,0.2694147328174352,0.12516995993236835,0.4015671416735711,0.6177891472348862,0.2392006476170474,0.26053206766840886,-0.013159176871608391,2.540569900490569,0.7726230521420782,0.32070383189082075,0.15591451490187724,0.9666221929867622,0.5421924766768796,1.098606348062537,72577.54592869786,14841.076387633077
24,18288.375,17566.0,"[51,54]",2,0.44844342630222656,0.44168327189744616,1.9839390296328925,0.8810315527384089,0.6630988658608343,0.4151347791834983,0.09483261191535375,1.0068671734230201,1.9100913135974436,0.5598957720033882,0.34425511426658373,0.3293269872152381,0.7014690211097235,0.6368763663119335,66417.08560766047,24561.386782587328
24,102115.5625,95903.0,"[30,35,37,38,41,43,45,46,50,57,58]",11,0.2880048861265627,1.7436341203305799,2.0177828435895777,0.7747356878707929,2.642285511667834,0.12500480605245556,0.2735890983218181,0.7662564817532136,3.945899116848014,0.6028399625369328,0.08395902154054369,0.16957685017893387,1.9345322816380173,1.5823241765291634,67874.08753685324,23139.80633461226
24,43039.25,40643.0,"[3,7,13,21,51]",5,0.3612421069576024,0.23697073083144415,0.6286156922576409,0.6794335264816342,0.3996917535592517,0.3204497613718922,0.03308628312819728,2.3289970128618114,1.4642854334139765,0.4081770909068463,0.20444875564891518,0.8311261093406048,0.643327131746022,1.0618453949505409,70449.4810667006,17424.497871129268
48,133794.5625,124914.0,"[1,2,3,7,13,17,21,36,47,52]",10,0.24439166063926598,0.1340937949207457,0.3009554251726203,0.5578531016330444,0.21887527417284502,0.24685759489551473,-0.008355361238993275,2.5507163088300358,0.866585848493027,0.3024855351897958,0.14102781502938955,0.8665879124155147,0.5702194284786198,0.9499141582629849,69080.1273370134,15147.491507735947
48,22797.0234375,21654.0,"[51,54]",2,0.32197819867930266,0.4515032567716437,1.7109221509278894,0.7521083430020554,0.6088124572538871,0.3583456552441897,0.0627494481452926,0.7152862256942121,1.930283098881294,0.436588408712381,0.2953875320410879,0.1821986795063728,0.5686343372128494,0.4812127546633523,54700.14315328304,22197.483199389804
48,3789.53515625,3526.0,[3],1,0.2080747352629233,0.22869666228026642,1.0606483546805046,0.6350279019380034,0.47266395849899157,-0.15574245726357772,0.19258865756024468,2.6282118933483662,1.593522801307258,0.36474259016555877,0.16672011932428665,0.7950789494176491,0.6375910574464444,1.1951830483383006,68530.73036456286,18977.924543433284
72,141334.54663085938,132969.0,"[1,2,3,7,13,17,21,33,36,40,52]",11,0.2600813253527401,0.23145098481180604,0.30566174764582144,0.7348983303468697,0.3415268615662539,0.24493459827370878,-0.029522172503090083,2.525507843054428,0.8274247680931294,0.3298702179984183,0.1681170216727712,0.7887194702628435,0.6476778860225209,1.0695954432592127,70435.20316573235,17365.686348949584
72,21471.81396484375,20047.0,"[51,54]",2,0.31884917767372345,0.7627191969544223,1.4129272167724642,0.894905970527041,1.0577478308191686,0.32472418647297907,0.09549260567183682,0.9869988328852246,2.123553584575771,0.46637822035056764,0.3045127602818378,0.27411236375154435,0.8661597001539568,0.738678095193747,64025.85389826215,23305.210303432952
72,87175.01318359375,83253.0,"[30,37,38,41,43,45,46,50,57,58]",10,0.25449819820994257,1.5555513639721528,1.5184207912987255,0.9580412009938857,2.2384909921114953,-0.0430310257580917,0.2985246735368454,0.7763085193703367,3.3496445710721243,0.4970112195967228,0.23741922297159324,0.19040897727481076,1.6715471744239259,1.4039543584079666,69551.97562025387,24029.468586201467
96,111625.79797363281,102976.0,"[1,2,3,7,17,21,36,52]",8,0.42731469078122175,0.1860059708873405,0.36578649543825614,0.8859014676450165,0.31806096305536213,0.22834131456309725,0.13398716384859277,2.9359436489831,0.7933934370380434,0.4202279242525485,0.22773452879962175,1.2113234973873679,0.6892328542812715,1.256695470095188,71538.1888853618,14742.517521848435
96,7262.404571533203,6839.0,[54],1,0.496472022693041,0.5045585712986167,2.3560957807596226,1.1710392153787672,0.6135431926341299,0.42602027345666005,0.18688082991745292,1.23264570395206,1.6274965391676757,0.7061876253801197,0.5213606648992037,0.4444602965718025,0.7188347714192466,0.6547926198828535,69199.90285969866,27463.50128173629
96,96819.45809936523,91604.0,"[15,27,29,30,35,38,41,43,45,46,50,57,58]",13,0.33755633551037145,2.3266419557160782,2.0356053012135376,1.1009607455160397,3.1367373305038,0.11883994878679816,0.6040488474348158,1.0303481750710333,3.750717505435675,0.593002551377873,0.14548656436559604,0.17888526328395848,2.3757044082763277,1.999558901345196,68982.45345098712,21027.223118372443
96,9634.744613647461,8291.0,"[27,29,37]",3,0.6016029239660106,1.4305131149660864,2.1330449443966555,1.2149545973532176,2.681953766908347,0.8209261806182806,0.3926066264580683,1.0364703025550352,3.734940714335623,0.7116365841676128,0.3195873319520821,0.19790440740824322,2.042821260025678,1.6556048383104072,70069.39247311704,25185.949669516333
120,75128.98695755005,70885.0,"[2,3,7,21,52,54]",6,0.37458089850130016,0.3007800957953579,0.9251488482383499,0.800172751573665,0.3982144617113774,0.277197992442751,0.1476802252496361,2.0542599642196446,1.0491893593411423,0.4387653622738117,0.3027604392989449,0.7696548335683058,0.6033405502864174,0.8741852953445477,69093.82829398935,16328.485172567127
120,187682.67533493042,179693.0,"[6,8,9,10,11,14,15,25,29,30,32,35,37,38,43,45,46,50,57]",19,0.33225194625079424,2.4420436347399503,2.24475153156633,1.192633022974956,3.3371585586549446,0.35375101313088697,0.576568401115793,1.0980200476775774,3.8387430395485187,0.5014440360140987,0.17520862420686845,0.15400177156119177,2.5074461783912434,2.13353741990674,67076.24773813505,20332.60162469673
120,4285.240200996399,4048.0,"[9,10,11]",3,0.4423098639673029,1.884679327350332,2.163680636174187,1.19164046931549,2.918285684051319,0.5469432789680946,0.4480499606086292,0.9248801808439171,3.7642848817540977,0.6018524750757231,0.2939859511314209,0.17871204375355265,2.1937218158453415,1.8351928173338095,67427.99708720786,22222.550088637112
120,19717.48860168457,18887.0,"[8,14,25,29,32]",5,0.7770749913555186,1.3602800232792873,2.702209988189774,1.4137741361117886,3.4507701782684737,1.3478788672645632,0.19962160848281085,1.2622146120114066,4.2388384225514635,0.6471783291608572,0.33825358713834586,0.14408332366895782,2.435614691884134,1.9775717287193946,70930.1911723715,27391.573424617705
144,85953.56408596039,80938.0,"[1,2,3,7,17,21,36]",7,0.4014635064154797,0.08896663988515607,0.2869065783049902,1.5800865773313042,0.3116009411583258,0.23425922164700674,0.25662743078036776,3.531183035773539,0.8221936273376894,0.44828215730044807,0.2274195904727927,1.605870630632659,0.7693344779098655,1.650169100721485,70985.44963992629,14226.800466899223
144,154789.9626829028,142666.0,"[6,8,9,10,11,12,14,15,25,29,30,32,35,37,38,43,45,46,50,57]",20,0.3553132015542635,2.4561769412757677,2.165935283232604,1.3982931835337933,3.3138850857598396,0.3695008216448781,0.6960779064202716,1.0794648724903633,3.6876641476186305,0.6017799556463402,0.09591557043467835,0.2061068558699305,2.4971578153975673,2.1189459674460007,66742.77300590783,19480.126490396317
144,2811.827512562275,2544.0,"[9,10,11]",3,0.5492646720853647,1.5776738613597754,2.302120198285929,1.4492611262815025,2.9495866619314435,0.5811541080020237,0.614628810527067,0.9525281555456964,3.6588037265774944,0.6663145278145818,0.2289878586588876,0.24250147425368862,2.2575299106477,1.8414564528605626,67206.53521336435,22154.099437011806
144,9461.343037605286,8229.0,"[8,14,25,29,32]",5,0.8777271398243329,1.2431571355284867,2.6569856296486036,1.6767118592287096,3.3044074134403476,1.3319779908115976,0.2732879131527439,1.2978955799687393,4.0734402133378,0.8241557489288555,0.3045372274953717,0.2297570275296429,2.3947239627374524,1.96453012150343,69872.10215502419,27453.283721612566
168,76423.38630915433,71171.0,"[15,25,29,30,38,45,50]",7,0.2451485913937379,1.977032957864708,2.080800168929534,1.5543698767478165,3.069391871837563,-0.23201729109664848,1.0438816311150974,0.8490992292942385,3.5054823688957204,0.6675462156364244,0.09191603877824628,0.20839576479286281,2.1695421848541057,1.7754296398415723,67860.95854875608,22411.261965493475
