time_in_hour,cumulative_size,size,pcore_ids,pcore_power,AF700 CD48_[R 730_B-A],APCCy7 Ly6G_[R 780_A-A],BV421 CD117_[V 440_F-A],BV510 SCA-1_[V 525_E-A],BV605 CD11b_[V 610_D-A],BV650 CD150_[V 660_C-A],BV711 CD11c_[V 715_B-A],BV785 B220_[V 780_A-A],FITC Ly6C_[B 525_B-A],PE CD115_[YG 582_D-A],PECF594 CD135_[YG 610_C-A],PECy5 CD3-CD19-NK11_[YG 670_B-A],PECy7 CD16-32_[YG 780_A-A],PerCPCy5-5 CD45_[B 695_A-A],_FSC-A,_SSC-A
-1,0,0,[],0,0.0,0.0,0.0,0.0,0.0,0.0,0.0,0.0,0.0,0.0,0.0,0.0,0.0,0.0,0.0,0.0
0,120311,120311,"[2,4,6,11,18,22,25,26,27,34,41,44,48,51]",14,0.1711156162625035,0.2375702677857504,0.3334449107918049,0.2909399720911926,0.2656989993988131,0.22645850039200222,0.25181400184975367,0.5038012220439406,0.17955531325331336,0.10724800001387413,0.2502612177418498,0.22487255536152434,0.15207498950606826,0.28973260401498785,0.1979102343845368,0.05403432675174126
24,149408.125,133875.0,"[1,2,4,6,11,25,26,34,41,44,48,51]",12,0.17177432811922655,0.24040828861875463,0.3612662748158173,0.2911240654615026,0.2654952056696715,0.2307141560628565,0.25378403544230677,0.4445522908699394,0.1931590359244261,0.10480305860715802,0.24911122340126626,0.18014575598415705,0.13920243893223583,0.23299463319102456,0.20618495651258992,0.0598085781397641
24,26612.875,24622.0,"[18,22,27]",3,0.15589781063399039,0.22531910781591213,0.2706861271048862,0.33803248886458204,0.25544671140575803,0.2384972955413341,0.24589865755017534,0.6083652866529374,0.1656881536505421,0.10529090301147755,0.2480960064716258,0.32323738590329043,0.1496106137201545,0.4622497626323478,0.22389803241178471,0.051096208386359344
24,62311.125,55927.0,"[32,36,37,43,46,55]",6,0.16858062355173184,0.3746479022997473,0.5153704009358344,0.31181602683502535,0.512708193326609,0.1416012190688708,0.3051314088443868,0.3230655892427201,0.5964867431953065,0.13851186972316396,0.23422122930386663,0.09875242783373245,0.31913432975159167,0.3623842609207235,0.1939975325144253,0.08798224488786655
48,134768.828125,119431.0,"[2,4,6,11,25,26,41,44,48,51,52]",11,0.1702578424548848,0.24265912736923836,0.35252937639856985,0.2865914625331856,0.264176214860069,0.23409230658376787,0.2514784858090286,0.4671682685653887,0.22484762916952133,0.10684445110267941,0.2485234323493254,0.17585706499664808,0.14790075740798275,0.21878349178483064,0.18686375247489562,0.06403248330825612
48,23157.34375,19120.0,"[4,6,18,22,34]",5,0.15730489150613672,0.22842365430328485,0.2761328736595125,0.33848979603742657,0.2575581692195186,0.22604554176752334,0.25258909381355926,0.5886031135724409,0.1785290906459678,0.10104644501970289,0.24729645717025225,0.30465808389219645,0.15068956157927624,0.4378945560468551,0.21326447802461265,0.054942218194808386
72,164113.310546875,145200.0,"[2,4,6,11,18,22,25,26,27,34,41,44,48,51]",14,0.16623208168789194,0.2541503401173434,0.33184840880391114,0.30942563756160546,0.28106729743687064,0.22894743721069008,0.2510511034986464,0.47901280426107157,0.20314307154687913,0.10429598133450922,0.24973487704503822,0.1820858372651633,0.15949767922612434,0.2701530281232511,0.19948416598629254,0.06776003013427057
72,141340.859375,124596.0,"[10,12,13,14,15,16,23,28,29,31,32,36,37,42,46,55,56]",17,0.17418303839082544,0.37322244627419804,0.4628160525131787,0.3320414497115352,0.4694249179364477,0.22592118095824837,0.2670217237184751,0.32884446321032457,0.5155025250624271,0.1273168187444651,0.2578334491586361,0.09932220427240614,0.2884818938429974,0.3326803065598428,0.19985522891761429,0.09506613469884956
72,49785.814453125,43854.0,"[12,14,16,23,25,28,29,31]",8,0.18898325447129327,0.3815468976635273,0.45186898131919273,0.3304656979044408,0.465474629453198,0.3366080714830217,0.2250124367866945,0.33661146359574445,0.49693881371345183,0.13590164587849882,0.267123203480657,0.09819404391501656,0.29178473094388985,0.3382993575318417,0.20081685506098168,0.09490324132064148
72,81165.33203125,70698.0,"[4,6,11,18,22,26,27,34,41,44]",10,0.1665031878986311,0.2599608473347485,0.32072814000500394,0.3230518326471577,0.29191612755705,0.23246829908703523,0.25105288661458763,0.48989128225938117,0.2513322363263096,0.10758071926682145,0.2510401230539326,0.19474480391984186,0.16934719425503816,0.30926645197080344,0.20099468978673113,0.06930854975596722
96,129159.42309570312,108464.0,"[2,4,6,11,18,22,25,26,34,40,41,44,48,51]",14,0.18525175018562745,0.24600242825339227,0.3422180238398908,0.32798579587907256,0.27385066037539574,0.22626647408936518,0.2665600980202805,0.5196256685235208,0.18952394094272676,0.116251911001199,0.2566901376436472,0.2380041845382788,0.1628129427327616,0.30547310866261845,0.20426859252320295,0.05999982631205063
96,59905.338623046875,52118.0,"[32,36,37,46,55]",5,0.1582405459473372,0.4313045274254552,0.5139707188793672,0.34442937320390316,0.5570160091241992,0.1155778464554638,0.3470389267544658,0.3413014099281795,0.5495280799495378,0.12360999197292484,0.2382598211506453,0.10026699205234156,0.36131499564954084,0.4215594303705215,0.19540045048891996,0.07898139001106728
96,53266.782470703125,45481.0,"[4,6,11,18,22,26,34,41]",8,0.18509377415386094,0.23869998998443898,0.30442453909392353,0.34882957487839167,0.26941131192669365,0.22377005492487642,0.26863616170846144,0.5722513740750755,0.20892189511259335,0.11841579520510961,0.2561986840273166,0.28191443953814654,0.16791823875679068,0.3792462478289003,0.21253358042158663,0.05711492679744002
120,103465.87951660156,88921.0,"[2,4,6,11,22,26,40,41,44,48,51]",11,0.17959455608701796,0.2508827440803364,0.36851499350033967,0.32712436609756024,0.2808428316805304,0.22224827210627227,0.270483656316388,0.4987658490664752,0.20020474115130416,0.11647222274752397,0.2608650351067518,0.2213200543303979,0.1587534384412388,0.29603140547321033,0.19655303500666255,0.059728423250732084
120,135256.58554077148,124900.0,"[23,28,29,31,32,37,42,55]",8,0.16874784683500138,0.48514177091657107,0.5307013870392796,0.3534367326181587,0.5854834828731391,0.2351272298533566,0.3067492621353938,0.35783873705848535,0.5546317873326992,0.12119968045046856,0.2459068699730175,0.09538349330107646,0.39911000393723817,0.4828423934158078,0.18802404980417942,0.07308222912297686
120,28739.70184326172,25274.0,"[28,29,36,46]",4,0.18064640946694357,0.35339850074888807,0.5371775845136325,0.3598388884617518,0.531462621473065,0.17949625935020752,0.3324498650441575,0.3438091150868033,0.5555807856280268,0.12330031195310492,0.25224913889330886,0.10058161568320195,0.3287548731971241,0.3752544681343849,0.18652027111919806,0.08522411661935604
144,118817.07319259644,101910.0,"[23,28,29,31,32,37,42,55]",8,0.1715162555187536,0.4808113301065602,0.5224972491946591,0.3744684747730753,0.5832678660614662,0.22915236752889392,0.3163404250234183,0.361476430263886,0.5386401936736931,0.13139992329261316,0.23730776648113777,0.10235290917775178,0.39454394238436963,0.4763107484294128,0.18636014258682798,0.07022413279216902
144,15707.462730407715,12115.0,"[28,29,36,46]",4,0.1942824715107972,0.34147485683337736,0.5492658979393188,0.3934114924455197,0.5394233673975093,0.18304338008565688,0.34879516151141515,0.35055439230746627,0.554725346773839,0.1407813728537356,0.2480772444662956,0.1107842944075615,0.34029867032969224,0.3942150688932695,0.18557595483020015,0.08776031989273622
168,68318.15980911255,59490.0,"[32,36,37,42,46,55]",6,0.15984838940145538,0.40094311379005987,0.506265811090526,0.3910387576537686,0.5339354626072853,0.12655455808855787,0.3506552613444256,0.3357246393204401,0.5131047438275845,0.13772180645866375,0.2383765355036807,0.10361076055310016,0.3310694939535426,0.3832754924858984,0.18614630856608283,0.0840374084151132
