time_in_hour,cumulative_size,size,pcore_ids,pcore_power,AF700 CD48_[R 730_B-A],APCCy7 Ly6G_[R 780_A-A],BV421 CD117_[V 440_F-A],BV510 SCA-1_[V 525_E-A],BV605 CD11b_[V 610_D-A],BV650 CD150_[V 660_C-A],BV711 CD11c_[V 715_B-A],BV785 B220_[V 780_A-A],FITC Ly6C_[B 525_B-A],PE CD115_[YG 582_D-A],PECF594 CD135_[YG 610_C-A],PECy5 CD3-CD19-NK11_[YG 670_B-A],PECy7 CD16-32_[YG 780_A-A],PerCPCy5-5 CD45_[B 695_A-A],_FSC-A,_SSC-A
-1,0,0,[],0,0.0,0.0,0.0,0.0,0.0,0.0,0.0,0.0,0.0,0.0,0.0,0.0,0.0,0.0,0.0,0.0
0,107038,107038,"[0,1,2,5,12,14,17,19,24,29,44]",11,0.3025984379379265,0.13599996970234818,0.30146486369327086,0.557124424260544,0.29840186627179355,0.23381904851548008,-0.01035481347745515,2.8705923122909596,0.7855708448121229,0.3601341592985696,0.17231968263607245,1.1196270827463146,0.6598469970944886,1.2285217163250446,69521.85803172708,14071.7989499056
0,25452,25452,"[1,2,53,55]",4,0.30362759641678716,0.2270637887788829,0.9755102829247124,0.5202796098538363,0.3654122648514897,0.24351454035046372,0.050295286146482265,0.9474995891089053,0.9798648212321167,0.3831225137120833,0.21909076960553175,0.3458100234952043,0.4772103409162298,0.500454115865157,69533.94813767086,13600.756875687599
0,69948,69948,"[16,18,25,27,33,34,37,38,51,57,59]",11,0.2089420241751021,1.8346716366157647,1.9532090865785912,0.7076745265483027,2.653238964445029,-0.18367756113112632,0.4393779492480183,0.6582819157374185,3.8686032417367184,0.5515064959398402,0.09745740548692972,0.17022733519185518,2.0190775663778737,1.59907146663235,67409.39349230858,19904.14639446437
24,187210.0,127445.0,"[0,5,12,14,17,19,24,29,44,55]",10,0.26587614244698754,0.12680491370386404,0.3557813767266649,0.5945437895438292,0.2477352167539162,0.2514936225281761,-0.015887210546981834,2.6045374452246053,0.7623891923027591,0.32230780693072314,0.15649676995086015,1.0002534699241448,0.559894593835799,1.1167509677527876,71851.45562737028,14441.046012499286
24,12860.0,9902.0,[53],1,0.38410698985225356,0.3123676048211488,1.487782512558332,0.6968594231337355,0.4646483491446167,0.3448010104587913,0.05577684234061042,1.2577949884914421,1.4990144447511655,0.4563136904743408,0.2755998271773019,0.42396652223950204,0.5855995559097981,0.5215460690902014,69472.6718506997,19871.50482115083
24,89596.5,58548.0,"[10,18,25,27,30,31,33,34,37,38,45,49,50,51]",14,0.5021797401684207,1.673623008041612,2.1248534113386026,0.819549732656971,2.7077207402186505,0.9621986977058297,-0.18492854820221805,0.855303984218148,4.067383160754052,0.6880241885285695,0.21093382425652907,0.15603044723845216,2.0398742595134833,1.6257014662347289,70034.58715463225,25251.987477189337
24,20985.0,14622.0,"[11,47]",2,1.2428093319275664,0.5620618302597093,2.8034316314510233,2.1687690751727406,2.1161563870860207,1.5769046858708589,-0.6041908892542409,1.0591451371932137,4.432921568811041,3.215003924446031,1.3243152026923979,0.499974159494877,2.296367361710731,2.409107561258053,114718.99356683341,93247.73009292367
24,63934.5,39399.0,"[16,59]",2,0.15037649342686454,1.7917767625147962,1.8606898067787951,0.7152756325145289,2.530418475533583,-0.34409757496343696,0.5211529370605894,0.6797563791849615,3.766848565258194,0.530202009400237,0.04743520810360469,0.1740496010213557,1.864347464428433,1.5142795625210024,65982.47143561002,20245.81132252532
24,17634.5,11654.0,"[12,17]",2,0.2936940625194966,0.1380145860387305,0.6225663668093846,0.6957456618843754,0.376342516232385,0.07365158498965352,0.07167002285293389,3.13607342655024,1.186563738892509,0.40077750009923585,0.1690866380674252,1.237122761376843,0.6775165268933053,1.537848914627575,72760.17896736502,16013.615129433787
24,6190.0,4303.0,[14],1,0.4496778561389265,0.24326178061390502,1.125727419547657,0.7065692068659164,0.40364430573505183,0.33374316389338277,0.06559301987076038,2.3862025793214894,1.5714383655088824,0.48819535193860875,0.27760764006462146,0.8636434994345714,0.6714424411147019,1.1140666893376427,71388.73796445885,19686.891114701168
24,12860.0,9902.0,[53],1,0.38410698985225356,0.3123676048211488,1.487782512558332,0.6968594231337355,0.4646483491446167,0.3448010104587913,0.05577684234061042,1.2577949884914421,1.4990144447511655,0.4563136904743408,0.2755998271773019,0.42396652223950204,0.5855995559097981,0.5215460690902014,69472.6718506997,19871.50482115083
24,27443.0,17034.0,"[18,25,27,33,34,37,38,51]",8,0.4209254121087347,1.6032979248806614,2.2481884253179234,0.8268813530044077,2.7174925390627824,0.4128951023029548,0.17002611547571256,0.7852806543198683,4.182243671901764,0.6596002028932696,0.16645895477899408,0.1689010616186274,2.0648909174106347,1.6303841784425916,70454.54913821384,25571.656743067455
48,178313.0,99038.0,"[0,5,12,14,17,19,24,29,44]",9,0.24907367879234976,0.11888509500708722,0.23152305247374017,0.5846409073034389,0.2110030267282763,0.2577828247281435,-0.02695442132373671,3.0077945911234583,0.7422863237256961,0.29051636092713473,0.1419778054979175,1.0751160145796996,0.5964290015506465,1.1413171129348392,70319.45928788162,14989.89018187113
48,54972.0,34212.0,"[53,55]",2,0.2593362845812437,0.2287445917967279,0.9625545475241757,0.5641853471221685,0.34598254832007047,0.25976209619897506,0.04652244294366881,0.7557509300052603,1.03493101111019,0.35648592453431005,0.20781864331387245,0.25484014380957365,0.4183444985083352,0.4317681615913586,67789.63021174379,16054.276649930845
48,132723.25,84492.0,"[16,18,25,27,33,34,37,38,39,51,59]",11,0.16876836778032223,1.8045423256362492,1.9190831062323235,0.651458173193086,2.6328691618800923,-0.061745359590350324,0.3979278867982794,0.5690831062756638,3.8311631919652176,0.4128660908902514,0.06522221205968126,0.12321160233229655,1.9576550065662985,1.4076560610122886,64890.186881348985,20446.604916621494
48,18082.25,9265.0,"[12,17]",2,0.21368553967288562,0.13967360603631684,0.6107623916133251,0.6652076178711175,0.3773039459829439,-0.07721104111766852,0.11627273409006023,3.367178567946471,1.2284876412918733,0.3395961216524491,0.14137222483374767,1.2975024464184515,0.6919646836400363,1.5629236332038263,72076.19051832594,15931.759819712657
48,4980.0,1885.0,[14],1,0.389860143724891,0.23966145803213346,1.2080740557228844,0.634494660893568,0.3636588450301219,0.2964980924196865,0.0014495932730893557,2.4956183200803235,1.5911942884036128,0.43509963639558147,0.2389640040160752,0.8321152029618439,0.6449916428212844,1.0801064643574259,70739.9421686747,19941.073092369545
48,39631.75,18798.0,"[18,25,27,33,45,49,50]",7,0.41846575105186945,1.5267589074479382,1.7435688070107864,0.7115769086843269,2.1957113436954008,0.9737285406082197,-0.3219797440940688,0.8037976971746255,3.773152596907783,0.5746191017681505,0.23032111179168568,0.1366432006219772,1.6762270627527154,1.252355075211164,66618.84130778981,22299.07647277746
48,19726.75,13085.0,"[56,58]",2,0.267065228116635,0.7910186802058137,1.4160357385022775,0.6799948980445376,1.0718539201971922,0.40994719761238474,0.07697744183660227,0.6498067289974307,2.822506945923694,0.42111188381258935,0.2635869888349527,0.1713004281876156,0.849492516227964,0.5747060868617535,58652.38379358001,19328.09327436085
48,22465.75,13531.0,"[45,50]",2,0.41104112902974155,1.3324717375115473,1.5140592540199922,0.6836009275118853,1.8676970475501755,1.0317703296239757,-0.3783485080845357,0.7662124996606106,3.6176408348040883,0.5368482820849491,0.2510350789869076,0.1342704829573923,1.4410365549224888,1.051758111180354,64012.48763117186,21121.032683084173
48,3322.0,538.0,"[38,56]",2,0.3853220846628558,1.7696070127935015,2.063738585490659,0.8884511673690478,2.5544539263997534,0.33706384226369734,0.26506831509632356,0.8733585470349166,3.865650247667055,0.6810994485249849,0.22819491187537677,0.19258224029199134,2.0019519146598466,1.6676396222907865,68532.37326911507,23555.087296809223
72,237562.0,131066.0,"[0,5,12,14,17,19,24,29,44,55]",10,0.2550999301356063,0.19938445417458395,0.3282208164931686,0.6702773163032196,0.31344985368082945,0.24731634863056562,-0.02251069524849747,2.5560098348309994,0.8148027186281924,0.3198030205709478,0.1616662477653179,0.848757902396531,0.6231061413630999,1.0604820494555052,70525.70943164307,16499.425059563364
72,23803.5,13657.0,[53],1,0.3485710641029669,0.47380474436533104,1.3221079820352095,0.8007417709738083,0.6540602391034853,0.3641278329499893,0.048459282862792996,1.2124014616548018,1.7339996123626769,0.46701637561177267,0.3000114101025195,0.33875398695569503,0.6714249221017964,0.6196591780672993,64945.75738861917,22462.176066544806
72,152376.5,86916.0,"[10,18,25,27,30,31,33,37,38,45,49,50,51,59]",14,0.43959372275088104,1.6429092732048605,1.7413972448614135,0.8992561095526486,2.4248438758338726,0.7677512624256364,-0.14279788657125403,0.8236024907900781,3.697083150147001,0.6040939305503118,0.27380986866085255,0.1513793894973966,1.8675677504864607,1.4662136493627576,69999.51908594836,25576.54079205113
72,90680.0,57747.0,"[16,34,39,56,57]",5,0.1999504151576954,1.5871802562555097,1.6485614379866056,0.877665719670806,2.3945655874861944,-0.34989025118824213,0.5006065557537664,0.6953850694999075,3.52185039179393,0.4746295747808241,0.16052881614468184,0.18007781092440212,1.7608560297240428,1.4303862282380215,67860.35765328637,22566.8142920159
72,23501.125,11970.0,"[12,14,17]",3,0.281999687748991,0.2532780895329476,0.655092041875664,0.7719212180587136,0.45760993568393005,0.11054138961432569,0.04540852611311008,2.945328519086857,1.3964528992973726,0.39436773716152185,0.18847752251222483,1.02411779530767,0.7523630768739834,1.4036468160779498,71900.737007271,18821.22800504231
72,74284.5,45906.0,"[18,25,27,30,31,33,34,58]",8,0.4498961638009924,1.1880754016938373,1.7881773972665793,0.9206570472457263,2.135507913565411,0.5529676437463422,-0.003910762679295132,0.8371642692688326,3.5063198942646134,0.5421422224791178,0.2690911684267907,0.17289650552773506,1.609585345946996,1.2337980276824267,69417.04113240306,26365.83987238245
72,1412.375,0.0,[38],1,0.3096818072395813,1.9474692119656654,2.0798107924594977,0.7682281612532007,2.7949372423223235,0.39304784848216756,0.1657888622886925,0.8039915765996959,4.1173528294539175,0.6461401880697409,0.13698541269138964,0.14703787450216665,2.107715666430661,1.6851455104876514,69834.89795557137,23304.065846535177
72,11283.75,2771.0,"[45,49]",2,0.500232090173915,1.6340865717957183,1.8180624980835156,0.8525301709981203,2.241160612894656,1.1302080472360736,-0.40365458343857386,0.8718004740334679,3.712276879982283,0.6572299154314797,0.29257757881909985,0.15726986633433038,1.798680220782093,1.4413068140578291,68725.38367120858,24417.542040544988
72,15521.125,8508.0,"[29,54]",2,0.34022600505762357,0.2101805741127043,0.7081406327988384,0.7109204817063901,0.36057333488228416,0.24652296917910133,-0.0481417789544798,2.7756815758522713,0.8857326977667509,0.3694188025996813,0.18354735939727274,1.0009902196119784,0.7084325242854485,1.3687784210712868,72227.87368827916,17403.32920455181
72,6675.625,5313.0,"[56,57,54]",3,0.45968521864993916,1.148058288231442,1.4118540279000102,1.110416223050278,1.5660091182286267,0.026600371594420302,0.393997946578037,0.9412576705551929,2.4063699087351367,0.5765442017788612,0.35815328879318775,0.34913344611927677,1.3665168037636928,1.484625545342198,68310.95275723249,19726.487332646735
72,12097.25,4404.0,[51],1,0.1534392390419228,2.304258825456185,1.8292687317881957,0.8221653890863654,3.118516276168102,-0.05646729378577686,0.44125161828102044,0.8066390901961209,3.8293916393085277,0.47265611435450106,0.06881606360950476,0.1254269736303718,2.315088936690162,1.867163252671068,68646.56016863341,21356.94046167511
96,194455.75,90855.0,"[0,5,12,14,17,19,24,29,44]",9,0.3565156916194294,0.183371644520669,0.29323203057475533,0.8094946540948245,0.3132391489670554,0.24110545741865175,0.058402153943129864,2.998073419938719,0.7902856584602206,0.3743022566573614,0.1942471615981307,1.1326997608707237,0.6883223216535151,1.2644348058063903,70993.86378649132,15721.350857457242
96,42298.0,15216.0,"[53,55]",2,0.29404078339401263,0.34171631132824487,0.9792765997594315,0.6977523244006623,0.4707517882656851,0.2778574822701385,0.0674532817834037,1.044069847984829,1.2177080963092268,0.4030797897270537,0.25303251049844766,0.32809245519587227,0.5267291387063283,0.5209253162974627,69569.57038157817,17469.70551799134
96,95640.875,49121.0,"[10,18,25,27,30,31,37,38,45,49]",10,0.5686950621733378,2.041292069666878,1.9469522148708571,1.0496131522028391,2.8733280582909697,1.1426127296507713,-0.1532145805180063,1.0219733933575599,3.7859882322758076,0.6898932616526395,0.29832433080652,0.15576566959602745,2.2348315183642784,1.8390785358803108,70985.32910745533,24859.513550038046
96,18739.625,7915.0,"[11,47]",2,1.3388980504579207,0.6399230985278388,2.533084431758922,2.292351727919447,2.122395423501017,1.4813038834621974,-0.4131377492946098,1.1471057066109926,4.359095947941204,2.9329266480952905,1.3790427244975567,0.5214477687053494,2.3793482543240403,2.497189161836235,112943.35655062518,88010.3521815402
96,125602.75,62661.0,"[16,33,34,39,51,57,59]",7,0.21719287971401524,1.96715730429767,1.828406678412685,0.9892466309192027,2.716692111842177,-0.2709683188390598,0.691567658242962,0.8599959475369698,3.63844212722203,0.5105096221743762,0.13264753481213987,0.18485717844453853,2.040036841070358,1.6883280242271714,67717.7000662805,21202.339916920584
96,21715.0625,12269.0,"[12,17]",2,0.4038948591991185,0.21559971688717505,0.6573843679444775,0.9153282785883117,0.45575344474889734,0.029473826264027503,0.17640536040363397,3.2240699626152542,1.292379354926445,0.4461971196807528,0.2208132091088757,1.301823033686294,0.7875328870542065,1.5816876201311816,72916.66399762852,17103.01888378171
96,4075.5,1771.0,[14],1,0.4844144205465535,0.3436151975831203,1.195851398079994,0.9394631452122484,0.5017408721782632,0.3231046053398343,0.10880595770457546,2.379755386578325,1.6242467627438417,0.5285134190436743,0.32527968457857837,0.8325435464820248,0.7542313729143647,1.151130019782846,70479.62409520289,20445.965403018123
96,57563.5,22769.0,"[18,25,27,30,31,33,34,50,56]",9,0.5757408351907016,1.3522239635554754,2.0158767795554007,1.0794562180863299,2.5456608114267403,0.7808086353516075,0.059779118141272125,0.9789204534448888,3.8490803223299,0.6367600026145032,0.3047544474091648,0.17468886728134947,1.9199663096634585,1.5099687868896936,71059.58324285349,26888.72942055283
96,21616.5625,6496.0,"[38,58]",2,0.3115541653940084,1.0763773285675313,1.3289847314241134,0.8357162273835153,1.4925246616251853,0.40305418584130126,0.16063647397105774,0.8487610315932588,2.78762173413036,0.4674217768724769,0.27195236587395577,0.21690080765038655,1.1397512546398105,0.846461079129144,63508.21394474715,20516.710369652792
96,8022.875,2381.0,"[45,49]",2,0.536914300515704,1.7204014908932233,1.8279826381907918,0.9334922287210019,2.3331357155477295,1.127419355717248,-0.2512318446862878,0.9376196921225359,3.6981708797968307,0.6835852090584708,0.32789096919745164,0.1670701205147781,1.8853719575121093,1.5230733160572114,68450.25804340711,24175.666703021012
96,1393.3125,708.0,[54],1,0.8382237134077941,0.37074255972727155,1.4998140686762715,1.3903206393038197,0.8753700692594095,-0.031003911586596322,0.716050371955328,0.9120486298838242,1.635427970887723,0.7865019283631624,0.4394059488180124,0.698148402458171,0.9789391607679531,1.9044682391333587,72772.62207867936,19634.983537433272
96,4396.5,1744.0,"[56,57]",2,0.515533943861596,1.2388945746474507,1.536220557929607,1.2369497922779473,1.6855108555242775,0.042858386756510436,0.4600833497526411,1.037403687222791,2.589024732699304,0.680975912529855,0.4077957075372485,0.3351063247185253,1.4835324982656646,1.5077808019162968,67217.20732400774,20754.607528716024
120,172194.875,74967.0,"[0,5,12,14,17,19,24,29,44]",9,0.3515716942348759,0.18196608650519064,0.33633573240619796,0.8858968536287817,0.3324215228988465,0.23530074005233237,0.10552921054888786,3.06153874349409,0.7821446492066825,0.39308237863931395,0.2179301364919679,1.2040349884249908,0.6827278031557985,1.34584320836258,70688.9493778488,15079.734841121077
120,44879.0,23730.0,"[53,55]",2,0.29496939887252305,0.37465103806415145,1.042362499572472,0.7399570077708866,0.47818361293769707,0.2707112054308498,0.11275273104205841,1.035193244680825,1.2225747993013183,0.4220472004932664,0.29562075597787896,0.3366688749289791,0.5208966707034509,0.5196054878980145,69129.01401546363,16576.574388912413
120,107393.625,67522.0,"[10,25,30,31,37,38,49]",7,0.6038043479792243,2.4025261144207715,2.185907733766753,1.1679973125965253,3.2993732004215643,1.3767905917873586,-0.17085909157258516,1.1881143343360483,3.9157791926758336,0.6436432768731003,0.2891542367333799,0.13593243232489793,2.5316554491095347,2.1287269265918836,69656.31349160637,23125.31376047697
120,162007.1875,91257.0,"[16,18,27,33,34,39,45,51,57,59]",10,0.1912530904298162,2.235170221994795,2.0002030344577713,1.091514496447496,2.965892483077122,-0.2929762088703626,0.8314222717965922,0.9408399401023919,3.67817507804534,0.47735013001525817,0.12684206344066196,0.17798678709894933,2.2318236305964523,1.898751688256685,66488.28061409341,19801.386602060462
120,25696.28125,12801.0,"[12,14,17]",3,0.4211350032190986,0.24512159569660064,0.8389860089835386,0.9829535473712827,0.49703172543449403,0.055235252620454256,0.2295997706112618,3.1453098434343003,1.337344705072839,0.4745841281313804,0.2643110939472,1.2923016597610752,0.7858599617308418,1.5967135020412682,71800.21272533352,17159.555957148397
120,9239.71875,5008.0,"[34,38]",2,0.6456145928312198,1.0276189174386419,2.917067529223384,1.373576506610393,3.2662789098491243,-0.0024499150609988973,0.8841934758464758,0.9862278780705536,4.526023294103939,0.626415017918566,0.24653979592857755,0.18094916378677572,2.3991340897653024,1.8254945024706475,71515.25797254387,30115.41861055023
120,16739.875,8244.0,[53],1,0.38128383067935556,0.5545549870966728,1.4494175682371693,0.9457853750307983,0.7083442693493773,0.35635666075201633,0.1527342087325092,1.2530559155086216,1.8095141696828132,0.5415067029902368,0.3986868466517204,0.38615212826409906,0.7100930544769714,0.6439887473043413,66533.48916882573,21372.931040405
144,152977.9375,72669.0,"[0,5,12,14,17,19,24,29]",8,0.37718919492690506,0.15113330183518991,0.3634182302674729,1.1348944142450907,0.34778180200249853,0.1559274536516091,0.2180047954114741,3.2185830739849273,0.7951435683555493,0.4074724621157556,0.2141103460173195,1.3435230738794217,0.7268774016974296,1.4241824807882848,70590.06179240704,14706.942751140103
144,39173.5,16734.0,"[53,55]",2,0.32662846360421716,0.36893411060131065,1.0656662066232583,0.9219683899798135,0.46865907910999693,0.28407955011080377,0.15907540296931622,1.0566043718333895,1.2115277020670048,0.44059903578869997,0.312607886728673,0.36986291168695373,0.5463919034104728,0.554896783991409,68812.79553779989,16006.239141256208
144,266977.53125,134438.0,"[6,7,8,9,10,16,18,25,27,30,31,33,34,37,38,45,49,51,59]",19,0.3665289601559978,2.44097636381309,2.13421180779288,1.2995655047977932,3.25970537740308,0.4208053767058064,0.5658706821576018,1.0723815263576708,3.7604885642297243,0.591569389586096,0.14168323809633998,0.19047666208075842,2.4706630015699567,2.111548964358647,67477.77240149325,20318.37767621126
144,1070.640625,196.0,"[8,9]",2,0.5776159809839336,1.8136328983815062,2.0165550681104993,1.024396445162795,2.5101266092292795,1.1191306804921168,-0.22160042149122594,0.9303811956918357,3.8075861751579674,0.7104854064155502,0.33787963643262797,0.2026174629091807,1.9928102301776116,1.6735643991039197,68787.06662191145,24277.439500299177
144,12638.03125,2802.0,"[7,39,57]",3,0.30402409250847473,1.333588602269462,1.5248790171580233,1.0583199250587905,1.9592054906024994,-0.14339116001799757,0.5596210688151033,0.7908212775105823,3.121594772228895,0.5216116930334321,0.23265962619647285,0.2425618695319376,1.4664233250555774,1.263298005656287,63327.29229483433,18974.439234750203
144,26318.296875,16818.0,"[17,44]",2,0.3931145573124917,0.08650547491140426,-0.008771154931426661,2.0108545803305717,0.2452356572910639,0.7616071215854443,0.025286420866302173,3.9750965772125024,1.396650305065807,0.5198028396214392,0.2680136187105022,1.8631538505174947,0.850201192668366,2.095273402854824,72222.26445836469,14629.524312636542
144,7576.859375,2957.0,"[34,38]",2,0.704300446559113,1.0327787860859243,2.868011142201094,1.5456971590348032,3.226882754839474,0.08523444741080488,0.9395827693718095,1.039883223303267,4.415740259101006,0.6947837339493778,0.23891014903932062,0.22173958240036096,2.3699617920497964,1.8727443453772705,70148.86256880016,29096.24424697731
144,32257.0625,12016.0,"[14,24,53]",3,0.42483273526873067,0.39345607274375594,0.8818512106520364,1.0629222763522628,0.5180238079674369,0.3487703539723821,0.2026307813952557,2.07705050320617,1.6196643645214475,0.4973896317589367,0.3300597664179237,0.721873288834028,0.720100165058332,0.8558661595072214,67328.165607144,18428.68550104332
168,131380.96875,54892.0,"[0,5,12,14,17,19,24,29]",8,0.29582500670670075,0.1431976872917997,0.3476680707997084,1.3420317443179366,0.3672325854819629,0.15920735898535598,0.28243914743228427,3.2905590147835664,0.8796446552591816,0.41465336844882805,0.21062095059768593,1.30600610271316,0.7403267811915563,1.436707819733691,70897.44141120143,15093.53002468245
168,25914.28125,13080.0,[55],1,0.23920233659680212,0.26234329216305463,0.8372822200617511,0.9407911984333563,0.4177923697879464,0.24472007463186318,0.13141838649327742,0.8375405042384392,0.9628829084023288,0.3614824554628354,0.24085382588449988,0.3204367317134573,0.468012800511176,0.527997854851693,68442.7765867518,14921.421909010056
168,228749.671875,98725.0,"[6,8,9,10,16,18,25,27,30,31,33,34,37,38,45,49,51]",17,0.37504894710438985,2.332087449545617,2.1390101629934626,1.4094555725260967,3.2359250511970488,0.4115300753359681,0.5984704178946192,1.0173525316075112,3.6478861175739135,0.6525089728160837,0.14595426368298314,0.18992329625049154,2.397455131605728,2.010472262864063,68256.5088138447,21525.291372617383
168,2677.3203125,2142.0,"[8,9]",2,0.5933318101792577,1.3445395495320902,1.8000711012176862,1.615459135373233,2.3647531191197957,1.1970669313066604,-0.14152458228989806,1.0409512512977934,3.897117847813083,0.922773445618141,0.40119175563252885,0.20715804193208498,1.8141799255377178,1.5610113782816906,67615.07360729738,28112.305482685864
168,43955.90625,34382.0,"[39,57,59]",3,0.24381212306402267,1.0886002758083682,1.4639247604981116,1.3981830161159285,1.8876097072552853,-0.054629497800890325,0.5444361598286744,0.7808182494484979,3.322170670696984,0.6301394243048234,0.2420872730051351,0.2269962987249604,1.3895964676243335,1.1758233578813801,62911.133904786766,22129.926350909835
168,47011.3828125,24927.0,"[12,17,44]",3,0.28716092898578416,0.10907906641876552,0.2777256951565996,1.9898092131200946,0.34955906181249174,0.45176581502484536,0.23402941132773236,3.8703362160096804,1.4118123574297274,0.5122942823883906,0.2470939199359523,1.676624576927928,0.841931420106372,1.9692754014150762,72549.61546447288,15573.593206565403
168,76907.09375,52016.0,"[18,27,33,37,38,50,53,56,58]",9,0.3995702734332045,1.0715374035100944,1.5350474204775035,1.3478914254079695,1.7322215863940045,0.6411441172510512,0.2122088734385188,0.9058120431742469,2.9936616933701843,0.6694067731282488,0.34091923876190533,0.23849736902155472,1.364111884015088,1.103940831817166,64221.76711104744,22989.70309874691
168,4404.15625,835.0,[34],1,0.756365733619871,0.9277072026140027,2.911618106917856,1.6920829993472029,3.2685299672415344,0.087415550658823,1.02160421546765,1.0668988431116162,4.415740254495043,0.7341023649145325,0.257429462907905,0.23453215873855093,2.3695274286859673,1.8734152886211903,70669.78947443116,30791.948741600652
168,18747.0625,9371.0,"[14,24]",2,0.3489142005864285,0.24191029800501385,0.41127672463768716,1.173575199995097,0.37843403781675855,0.3609908827324575,0.21152037983783512,2.655397573720294,1.4769021291944187,0.41725313428812105,0.24690565307316037,0.8647961968158315,0.6859105537304983,0.9601020863726972,68655.20750250874,16819.976009574784
168,33687.5859375,20556.0,"[45,50,53,56,57]",5,0.4595447029592399,0.9724275623060739,1.558775408269129,1.3903504858415339,1.5291468406293438,0.7288160181646033,0.11761530565900502,1.0566746751905276,2.839005713715939,0.708923724280618,0.39738815830409857,0.28039311611032625,1.2739294856369798,1.0844580006173443,65089.18058325907,23556.12634197814
