time_in_hour,cumulative_size,size,pcore_ids,pcore_power,AF700 CD48_[R 730_B-A],APCCy7 Ly6G_[R 780_A-A],BV421 CD117_[V 440_F-A],BV510 SCA-1_[V 525_E-A],BV605 CD11b_[V 610_D-A],BV650 CD150_[V 660_C-A],BV711 CD11c_[V 715_B-A],BV785 B220_[V 780_A-A],FITC Ly6C_[B 525_B-A],PE CD115_[YG 582_D-A],PECF594 CD135_[YG 610_C-A],PECy5 CD3-CD19-NK11_[YG 670_B-A],PECy7 CD16-32_[YG 780_A-A],PerCPCy5-5 CD45_[B 695_A-A],_FSC-A,_SSC-A
-1,0,0,[],0,0.0,0.0,0.0,0.0,0.0,0.0,0.0,0.0,0.0,0.0,0.0,0.0,0.0,0.0,0.0,0.0
0,118685,118685,"[2,4,11,18,21,24,25,26,44,47,50,51]",12,0.3103876196823516,0.1730536309137638,0.4820673806125595,0.5867705141509081,0.33727787707797585,0.2399571930656741,0.005140989274130092,2.6848543445928383,0.8803985899650307,0.3821685779331866,0.1943674856300288,1.0428467397143708,0.6647258698234811,1.163457323756162,69148.825748831,14912.88112229852
0,146052,146052,"[9,10,12,16,23,27,28,31,32,33,37,38,40,41,45,46,55]",17,0.331042518897376,1.7992854174814372,1.9756092107263137,0.7330137493358633,2.6483107604620195,0.3365320969449219,0.1444146544792213,0.7329468323747763,3.876215895968554,0.6132436280297425,0.1675496320283143,0.15861304358721484,2.0381170321597786,1.6039746680634301,68126.17095281123,20896.50875030807
0,1884,1884,[15],1,0.7945739384288781,0.410819353503181,0.7228168041401282,0.7551676173036075,0.8989690291932049,0.33036533757961406,0.3283061305732491,0.8150596650743074,4.529088963906578,1.3210944166666652,0.34628793471337804,0.155161602972399,1.2538910445859872,0.9297572133757959,56713.54564755828,17642.90445859873
0,4561,4561,"[4,35]",2,0.5436281225608399,0.21037966849374934,0.8438393589125179,0.7672119258934442,0.47509615084411116,0.19670318592413727,0.08408808704231241,1.6236201012935805,1.2702063227362412,0.5476906340714741,0.2453603393992556,0.9781162591536938,0.6065660355185277,1.6423230583205426,71413.3356720018,17194.446831835143
24,168259.0,137042.0,"[1,2,4,11,18,21,24,26,35,46,50,51]",12,0.3338754087062199,0.24521703081410617,0.7963949455036574,0.5971133070147832,0.3972958823985686,0.2888661264598025,0.014998488841601265,1.9377010084631507,1.0690582147685994,0.37365419065696726,0.19204668864666807,0.703185683834145,0.5971326701751457,0.8857878428880466,70632.40741951394,16609.68036182309
24,33879.5,28304.0,"[6,25,44,47]",4,0.2026359342965547,0.062261539610974026,-0.051592418734045076,0.9825852533759281,0.255523544245039,0.32877133537980363,-0.052241402780446755,3.7298646413760386,0.8768170697545724,0.36353693912985596,0.17559892772915742,1.6661497092194377,0.6687368438214839,2.0162931886465336,74450.87064449018,14193.001903806095
24,160822.25,125028.0,"[9,10,12,16,23,27,28,31,32,33,37,40,41,42,45,55]",16,0.3872867714775139,1.6630344932262164,2.0637165952441197,0.7918079076729132,2.6313588667939256,0.3285861329573496,0.16984595762557309,0.7961839034539779,4.049464813814637,0.667990285796897,0.13004114704743452,0.16153134482635279,1.976963821820363,1.5846623200194614,68374.28577202467,23955.471733544327
24,2320.0,1849.0,[15],1,0.7672901633620703,0.3859556217672395,1.034250167564653,1.0387428990301717,0.759979133943959,0.4364819974137921,0.387737307112074,1.1689256725215489,4.486415398706897,1.0440656113146551,0.3241197177801687,0.21239352499999942,1.0031966318965502,1.005422205387934,58799.7586206896,21849.593103448202
24,5437.5,4509.0,"[4,6]",2,0.6468636142988526,0.22921933296551744,1.0369636628046006,0.9479641304367812,0.41615250675861937,0.5372355724137932,-0.03826309236782288,1.7364422547126424,1.5393981011494255,0.5891663691494248,0.3011115353563243,0.86943285443678,0.6198390777471262,1.536417538574712,73289.68386206904,19528.6628045977
48,178832.1875,138472.0,"[1,2,4,11,18,21,24,26,35,42,50,51]",12,0.31569442392011604,0.20900267183025623,0.684707078825638,0.5527379807913455,0.34404620141718434,0.25267506050539534,0.01950388178162399,1.9434249463648694,1.1436890099901622,0.37642695766142475,0.17758592795864558,0.6302716467557745,0.5933419648948158,0.7887512383687207,67543.81730078654,16882.48019669275
48,17631.75,12606.0,"[25,47]",2,0.2357187101074787,0.08207305547875299,-0.03806213361195532,0.9611201219674705,0.14970280625151,0.5776841377309412,-0.20237127855290504,3.9976256919087723,1.0341074167907318,0.33702623323691894,0.17219056879988992,1.67739289478143,0.7159163135040493,1.908263204988869,72522.8824138273,14519.158223091807
48,106501.0625,76882.0,"[10,12,16,23,27,32,33,37,41]",9,0.16363001906084218,1.7385602636000712,1.9210170809246638,0.648590167026506,2.6459525657537584,-0.10329478621750976,0.3815126148013732,0.6188236766376272,3.875959121495853,0.3834913819727144,0.054618181087982,0.11328427782762729,1.9273677454280111,1.361007874528835,64928.67550499781,20653.39556588928
48,10803.375,6857.0,"[4,44]",2,0.09519081324123735,0.07911438745993804,-0.25381411941290954,1.0936128911335614,0.34006914401171695,0.05355706263667881,0.1176644855137754,3.8223696212584164,0.8033767633899144,0.317006543429716,0.1796262613592896,1.6219653346118652,0.6716751125805621,1.9761955037661882,71468.15879296983,14579.8267670982
48,24125.8125,14531.0,"[12,16,23,46]",4,0.33652690816370945,1.354190679961559,1.7296511017789427,0.6524391040172159,1.846680302471691,0.814210919601156,-0.1933464871908468,0.662079516702812,3.604686195268035,0.4850608625175826,0.22088881198560006,0.12718641261304797,1.44200842368521,0.9710845031125934,63778.076862696136,21055.451541787417
72,222824.515625,172288.0,"[1,2,4,6,11,18,21,24,25,26,35,39,46,50,51]",15,0.29379692644218935,0.4423855132063301,0.670921221885576,0.7198766297363042,0.6117796533015172,0.3167059682094322,-0.0072962747872105105,1.9559607037932638,1.3131064383598834,0.370636930475698,0.20432855151899343,0.5960716133026189,0.7512150660294717,0.953865840992866,68698.58620387173,18796.726667404826
72,16204.03125,12634.0,"[44,47]",2,0.13171941647622742,0.16529308129727882,-0.12095339875879496,1.2391777695934114,0.40132347824423364,0.044215828312399674,0.026689713391147674,3.8403891334872275,0.9017815773698344,0.3452838022299617,0.17055546773372576,1.5039092234908766,0.7857364556215786,2.023488897655679,73392.55100486177,16320.628979285557
72,117067.328125,88785.0,"[10,12,16,23,27,28,32,33,37,41,48]",11,0.2851869312145294,1.5652798148147635,1.6617255125110346,0.9296059161812402,2.3852305806626553,0.05032033600188557,0.26832382198560234,0.7656010331709515,3.585179344148488,0.506314763014445,0.21591155794775618,0.16999815872823587,1.770514949217136,1.4164059397763749,69510.52364764993,24492.307357851787
72,2981.84375,1860.0,"[4,6]",2,0.6712117233412653,0.44164747664511417,0.9256627266372508,1.1694487534610456,0.6244583265701822,0.6342560580387544,-0.12392236449240146,1.404675013404038,1.6461996754315185,0.5771121419476201,0.3457450234754096,0.7295420184659238,0.7209951611576314,1.6321005375030118,73074.98691036382,21648.27248241961
72,30147.109375,22460.0,"[18,21,12,16,23]",5,0.29735778430663995,0.4036292355558522,0.5955307597841926,0.7492988763241657,0.6053663810403695,0.3020188169046072,-0.07824488512994687,2.6579409438498285,1.3816247378744264,0.38645785521207354,0.18154846582357598,0.8429876875213489,0.8571774638043147,1.3255518045899901,71291.13362962348,19003.89177859605
72,13771.078125,9662.0,"[26,45]",2,0.6064364848317791,0.35828553278439923,1.6382642864858412,0.874721178200689,0.7581709784115018,0.369278425352499,-0.02499637650579345,1.9442052807457717,2.26164296219772,0.6227131277700427,0.2779307788435803,0.5696012516744249,1.022249818466923,1.1235437392009315,69567.11924107242,27141.79693174887
72,28304.515625,18708.0,"[28,32,33,37,39,42]",6,0.7520881287267001,1.0529489453272949,2.0542916427320237,1.2131572988569101,2.4918297628630435,0.254179373861505,0.25418980399605084,0.9274317279563986,4.437246426261494,0.9534802096071272,0.30054286054787616,0.19130578995897818,2.0785070682101856,1.6128146617809995,73983.06608541371,31799.299162180927
72,3768.640625,2154.0,[45],1,1.3473649203832683,0.49788695121748416,3.492045420053645,1.3770537840443122,1.504961768044689,0.7503417497647118,-0.10827975902285791,0.8803863874905193,4.709405173736382,1.2096715219181249,0.48637850282968786,0.20962488037795524,1.8678873687213176,1.3345910287114529,67561.64764317372,45511.694817013755
96,154744.8515625,107125.0,"[2,4,11,18,21,24,25,26,35,39,44,47,50,51]",14,0.41073927575589564,0.26589489428538027,0.515598368571561,0.9043672984233693,0.4225758356213687,0.2456784527861695,0.12591090954282924,2.7637789785834697,0.9765360607878438,0.43069653532485663,0.2413581350529772,1.0859804215342943,0.7379199484752906,1.2470613616319826,70479.93552047206,16528.580729336587
96,149786.84375,111031.0,"[9,10,12,16,23,27,28,31,32,33,40,41,46]",13,0.37415056307630046,2.1605951215675194,1.9056461208752604,1.0626160761239545,2.888810303827039,0.3947130561725871,0.38733354536610465,0.9939848686641906,3.6791719765680457,0.5939752848027363,0.1978750640689766,0.16834893239562332,2.207833171806369,1.831164999385013,68773.72182595325,21720.587428093033
96,9725.828125,8065.0,"[37,48]",2,0.3623839807403104,1.2435425818009587,2.56459148999646,1.3024550675705577,3.420374467144526,-0.7616005031492343,1.3233276127101057,1.0479913743077813,4.169734810616629,0.5484814560195762,0.0851226558410838,0.20488737784861122,2.318061208304076,1.8663849865230786,71618.78973673515,26616.09422076837
96,1329.17578125,876.0,[4],1,0.7370640334235536,0.5493838088453535,1.4099957128066283,1.406714869144706,0.8187355008272923,0.5319334067811075,0.26107869039494647,1.870541714913787,2.0768726619527493,0.7556398049014151,0.5523920885681619,0.6007231237050676,0.9938885390617448,1.3883998067499514,70434.94345943947,23549.634624370705
96,24687.50390625,14166.0,"[12,16,23,27,28]",5,0.40961216323668026,1.3912601144742047,1.8325456373283893,1.0230188995478042,2.354408314482534,0.28254306183511724,0.42514361756588803,0.8654814477355295,3.6585421359681534,0.5681385915391496,0.25128319607544336,0.1846821766926896,1.749207044238605,1.3336305817880374,67690.07168954564,23286.727748302514
120,137386.8330078125,99093.0,"[1,2,4,11,18,21,24,26,39,46,50,51]",12,0.38256119994046056,0.3910692696920206,0.8795330934649392,0.8255629517424352,0.5429342041293546,0.2712464713533751,0.15387592980185794,2.0945568976545115,1.1593509825640962,0.44049852377958854,0.2898088127795626,0.7757367971267533,0.7061341237034248,0.9844828353993245,68427.58775710262,16435.406895918422
120,16273.12109375,11920.0,"[25,47]",2,0.3897296037017819,0.1476357964443693,0.20447898870400172,1.3840292881148053,0.3673856040101908,0.4158188189712182,0.13414129278401754,3.8488786365911674,1.17125395752534,0.49794487641634555,0.27198693916558936,1.7212963101016268,0.8247083981888491,2.0623538041988483,72493.08722133093,14817.842132792273
120,181693.4853515625,151284.0,"[9,10,12,16,23,28,32,33,40,41]",10,0.33887022025554536,2.5850796510816823,2.212906330185731,1.17605073750661,3.3745157418039304,0.4597657895656422,0.4969451753327716,1.1180327888671502,3.8354407203628047,0.5187422872642956,0.1739409172501336,0.14610970072409235,2.561675529945282,2.1800826011944516,67422.55169735049,20226.22949036509
120,28814.1982421875,22438.0,"[27,37]",2,0.30461444364094215,1.3859494124279208,2.201133481181355,1.176711184291428,2.8571591261722307,-0.4539447938609493,0.9622720655938792,0.9057155321269539,3.813748575395166,0.46124131514008504,0.1491436220080038,0.1830762428086984,1.988634286690047,1.5991566961068475,66111.27567392902,22074.730575227994
120,12608.552734375,9115.0,"[4,35,44]",3,0.2799019857241325,0.1188730800172988,-0.02450240925516045,1.7390855739032185,0.5233094895519077,0.05203695252029594,0.35008484683232943,3.577308107811133,0.7803199686447192,0.5130810066618355,0.2876410223966013,1.780463904648284,0.7870220300769281,2.309540965237822,72592.65782976238,14238.169833565596
120,25987.8759765625,19816.0,"[12,16,23,28,27]",5,0.4322973386559259,1.4981083426666055,2.0680512460676534,1.1337973856448191,2.6214228831788025,0.36116247018992076,0.5862182272450149,0.889714299748547,3.705659770774447,0.5623192064121715,0.27627216701537893,0.17854790456186598,1.9090667149987115,1.53186546885362,66305.29193176575,22500.21679685741
144,186166.4072265625,134790.0,"[9,10,12,16,23,27,28,32,33,40,41,46]",12,0.3469104087585977,2.505608687710142,2.1316815664185627,1.3453355980988846,3.281150980559898,0.4145147837337009,0.6208330091833467,1.0825669953217103,3.687278194302078,0.5873418735426829,0.11508590317299738,0.1956594752951084,2.4860259423217324,2.114515533649132,66674.19911561513,19344.559485504524
144,9775.706787109375,6271.0,[37],1,0.44236822998177017,1.15168940332183,2.7114002059542446,1.6034112518430983,3.4699618412278386,-0.7470519514402332,1.3907875981274649,1.0744711810677745,4.170384470552541,0.536937196160013,0.04351632286226481,0.233958361194464,2.3674123952370456,1.947976694294282,67751.39087464595,24821.217264626375
144,96037.373046875,75444.0,"[11,18,21,25,26,35,44,47]",8,0.392033162237188,0.09882774664246163,0.25721696458469845,1.6190213617419884,0.34760372322860755,0.2165043944888121,0.2524352364204212,3.564487543802028,0.9095516235714615,0.4592942213735889,0.2309083995109189,1.6417405364817101,0.7918934003596981,1.8013891532546638,71291.28139279278,14312.402205887622
144,21715.968994140625,15219.0,"[12,16,23,27,28]",5,0.43758783082905683,1.7566198956381402,2.1485512103827653,1.3893765686123896,2.8454396472575527,0.5765625888510617,0.784097107515914,0.588570635855969,3.6327949364747103,0.6611672341097777,0.24643963976403072,0.2206046409533845,2.1667479950256068,1.7719042425746216,66593.966597499,21274.438686815207
168,150000.89111328125,105262.0,"[9,10,12,16,23,28,32,33,40,41,46]",11,0.38660104297066966,2.1667667120485534,2.0480246835368408,1.4701914519253836,3.0360662950755164,0.5327063124143865,0.5170814892113271,1.0040314610981742,3.538326164272721,0.6998357493120079,0.17083297876330095,0.18572688880122323,2.246433186930512,1.8539922188231868,67758.85452930495,22338.487534414893
168,44360.685546875,39833.0,"[27,37,51]",3,0.25394467713835356,1.0866025591752706,1.7046370732547804,1.5660824621782066,2.2659972704417872,-0.3497388645745506,0.8261037496677459,0.8181018028707432,3.5495164196639037,0.6647849176843864,0.18960002342047,0.22906498131515574,1.6080848695782808,1.3397764152340084,64355.268684867544,23676.468793388438
168,50010.08447265625,44188.0,"[24,26,39,50,55]",5,0.43649533753453373,0.5982521356511139,1.490416515773929,1.5791707152839383,1.1624514420421996,0.4407438362307723,0.28860645418930764,1.124678133118577,2.7727801495674194,0.7717280311313072,0.38240835596283507,0.36290567477901814,1.1016511605329873,1.0219066459598722,63788.264868258484,24575.842734531227
168,28659.184448242188,23768.0,"[16,23,30,42,45,48]",6,0.729748644378138,1.1929978346276595,2.0136859596953953,2.0297018733002177,2.1183915058616587,0.4727676126844269,0.6804477040583716,0.7243065773365771,3.8817645611857325,1.019590433551235,0.41315419556899124,0.4255217239041633,1.8393725318009633,1.8906861527242051,70657.77742199652,27216.519872677414
