time_in_hour,cumulative_size,size,pcore_ids,pcore_power,AF700 CD48_[R 730_B-A],APCCy7 Ly6G_[R 780_A-A],BV421 CD117_[V 440_F-A],BV510 SCA-1_[V 525_E-A],BV605 CD11b_[V 610_D-A],BV650 CD150_[V 660_C-A],BV711 CD11c_[V 715_B-A],BV785 B220_[V 780_A-A],FITC Ly6C_[B 525_B-A],PE CD115_[YG 582_D-A],PECF594 CD135_[YG 610_C-A],PECy5 CD3-CD19-NK11_[YG 670_B-A],PECy7 CD16-32_[YG 780_A-A],PerCPCy5-5 CD45_[B 695_A-A],_FSC-A,_SSC-A
-1,0,0,[],0,0.0,0.0,0.0,0.0,0.0,0.0,0.0,0.0,0.0,0.0,0.0,0.0,0.0,0.0,0.0,0.0
0,101716,101716,"[7,17,20,24,26,40,51,56,58,63]",10,0.17247123513057086,0.23676740403421295,0.33731552757784283,0.28917888952322335,0.2681821588442281,0.22525085593912886,0.25154120609552977,0.48702098111571096,0.1778364225552939,0.11029435386930042,0.24947212632920768,0.21651496236814236,0.15231601628854452,0.290217090049792,0.20056486908656368,0.0523752836971056
0,6680,6680,"[17,20]",2,0.18301834699816275,0.2401981050932239,0.38005962665876025,0.2955292354364715,0.2793261666629616,0.22317221220308905,0.2555075893595217,0.4985538827024357,0.23022560951918963,0.12629908509672813,0.2518987627527266,0.2272585764352804,0.16115661098189454,0.32526399296499675,0.20579482841912516,0.06217158822065452
0,50084,50084,"[54,55,62]",3,0.15539982550465437,0.39924695437018964,0.48417831971528397,0.30314421698853816,0.5001740025032478,0.13944272683465292,0.29736805290460816,0.3185630467295691,0.5477620646426498,0.12972082252134287,0.23896668033294588,0.10347202359852407,0.31867355582317725,0.37358939298444327,0.1903331706863318,0.07328946258618006
24,272157.0,144978.0,"[2,3,7,17,20,23,24,26,31,40,51,56,58,59,63]",15,0.1725835307359798,0.23802158423792327,0.35202485099269104,0.29573760206539246,0.2666441906094485,0.23026514580413973,0.2526249786755047,0.47225129273942434,0.1862492174399591,0.10958676022469356,0.2500234550259398,0.20460309284124484,0.14631851715391753,0.27368262158610873,0.20638875415339467,0.058249815888307487
24,1507.0,750.0,[3],1,0.21415964775923071,0.257983641541535,0.44329052812668696,0.3377842782589756,0.3191322730606708,0.24791676929837023,0.27802480036061633,0.43562038656588464,0.3011883137997728,0.16693573464783548,0.2728192892978087,0.18003376157794565,0.19289293366885324,0.35659423888020053,0.2017092768632253,0.08165748955217837
24,271982.0,135343.0,"[15,16,18,19,21,22,25,28,29,30,32,33,34,35,36,37,38,39,41,43,45,46,48,49,50,54,55,61,62,64]",30,0.18044444157990466,0.3766198979171963,0.5014786660719006,0.3158414865426863,0.4865810264278239,0.2433042821707272,0.2652569127518514,0.3306613335663545,0.5620440998085376,0.1481728639734085,0.24981778348943837,0.10519871338696352,0.3108403975022517,0.3677265316747556,0.20025766578182155,0.09321620804334141
24,10531.0,3851.0,"[17,20]",2,0.1831074537651029,0.2401455136841271,0.3794661040330722,0.29841994615808737,0.2773879547234079,0.22537924388498262,0.2555003922901652,0.4920094250316619,0.23810101795801975,0.12377607998858803,0.25136435807957197,0.22022911334742298,0.15824083053456506,0.321017120882871,0.20938443135804352,0.06486079893746231
24,61615.0,29580.0,"[27,42,44,47,60]",5,0.3326341402502726,0.25987061451115673,0.505527903477541,0.34504132310622365,0.4180236177214142,0.278505331012938,0.2524108015385143,0.3425342662332863,0.7737217361998431,0.4160117785613966,0.2833017364726209,0.11149745873995262,0.3702360340932034,0.4189787798947159,0.2400989348233919,0.14785523655929378
24,50663.0,25106.0,"[16,19,21,28,29,30,32,52]",8,0.19023652141965142,0.36263650520514623,0.4953907377164494,0.318505439865303,0.4609398311209204,0.29343009787173846,0.250691629587128,0.33673678609555985,0.539885859398014,0.15430533984672284,0.2572562564435105,0.10728323866711656,0.29555946862945276,0.35094208374727387,0.20027215939486945,0.09691159718872873
24,73751.0,37183.0,"[18,23,31,34,35,36,37,38,39,41,43,45,46,48,49,52]",16,0.19132040716600573,0.3728097810723462,0.4991081286736661,0.31904252776339753,0.47242431061110307,0.30320607740395245,0.24332201001841233,0.3377359064483716,0.5473786940703246,0.1563095323935714,0.25848068242307126,0.10698571254697482,0.30412577224075366,0.36342473146014737,0.20238683911479582,0.09746015207269419
24,21280.0,11035.0,"[26,40,51]",3,0.1798318689869979,0.24911728665215355,0.38346974286815444,0.29938258179509514,0.28137380707340015,0.23569787611506648,0.25679643101201777,0.4397933412250186,0.25688804953803207,0.11838529898114217,0.2550778438290235,0.17852184388759978,0.15459579277715685,0.25326854348090455,0.20158105532058626,0.06580935783374313
48,395080.0,129181.0,"[1,2,3,7,17,20,24,26,31,40,51,56,58]",13,0.1680857186692643,0.23567989947962587,0.33324545572908276,0.291001793829876,0.2610606590764086,0.22808774594563463,0.25243780195701315,0.48467082854510407,0.1760264591614924,0.10396035444256599,0.2473809274027871,0.20391528186650373,0.14305916231791765,0.262399848484608,0.20249812505292686,0.05575595092547711
48,21313.0,9807.0,[59],1,0.19783319965705196,0.25682835342966326,0.5797552518708465,0.33392824299432766,0.284324883244936,0.26755430348988724,0.2583655396080324,0.33966094394463997,0.27772914710626495,0.14157687143881773,0.2766948140933875,0.11726947354904033,0.15145745919271017,0.1860355257785072,0.17973700007327303,0.11061895005507323
48,479595.0,147573.0,"[5,6,8,9,10,11,13,14,15,16,18,19,21,23,28,29,32,33,34,36,37,38,39,41,43,45,46,49,50,54,55,61,62,64]",34,0.1766754740447348,0.3771916003020385,0.4975874884564858,0.31077221305980246,0.4849345422185515,0.24524818217418443,0.2643385502566993,0.32522800535253826,0.5575865403246217,0.13640310968010563,0.24836862268562188,0.10035963389276384,0.30808671165520124,0.3475256688055042,0.19259934321085137,0.08869171364089566
48,9747.0,3638.0,"[3,63]",2,0.21605769281489282,0.23586451735029068,0.37762610582571393,0.341346032032247,0.2718748028264003,0.2504088110196164,0.2500458029010407,0.32355206104667633,0.19332424555566746,0.12884499541257,0.252890660275279,0.2389652314817898,0.12757828849398878,0.4781682470458297,0.23569832139887154,0.06496083511745507
48,44332.0,7812.0,"[6,8,9,10,11,13,30]",7,0.19816172018440922,0.3691670225424791,0.5306687388455837,0.31878808703302214,0.5014635962573575,0.2872517738813598,0.25330309709339016,0.33402838044444627,0.6166025206363389,0.1562107626835337,0.25564781772790274,0.10291704712062476,0.33500698526305267,0.3801971766260534,0.2093559694660705,0.10616530452992484
48,16119.0,5588.0,"[17,20]",2,0.1814230351985362,0.24084384324807,0.3969708320559638,0.30092671874454935,0.27745707192182517,0.21831845418255835,0.2600758967403957,0.5078098676100994,0.24191965687500583,0.1200318929278447,0.2509243333384324,0.22278359905172335,0.15911633607672407,0.32981539303073226,0.2103068574414304,0.06742682731833949
48,90931.0,28811.0,"[27,35,42,44,47,60]",6,0.3361179597797344,0.2575367601651879,0.4886345630270546,0.3382827957001205,0.41633782091522265,0.2744321811844906,0.25469642922371655,0.33906750192825924,0.7833091283196717,0.4144463675300031,0.2787407700348843,0.10802079583029439,0.37330326205741254,0.4100421628461686,0.22873823505014315,0.13761027383086688
48,40688.0,1196.0,"[19,21,28,29]",4,0.1897213497364668,0.3729359345974382,0.5015216574881782,0.3172918212415511,0.47885943923995905,0.30023087097529877,0.24765721686751377,0.334320802652187,0.5645645572506812,0.15511165287186104,0.2554307311531518,0.10451702098083532,0.3112759822417431,0.3640639602776498,0.20349041400579918,0.09887710547338913
48,34039.0,13769.0,"[14,16,18,23,26,31,32,30]",8,0.17800400556046717,0.3057507519699411,0.4451839801640602,0.3152842594508576,0.371443025601796,0.2146838630049637,0.2743518609025346,0.33605215344244105,0.4243084798146786,0.1310593981155731,0.2593151336580901,0.11373472393991141,0.20603354211321903,0.2601200591179472,0.17426800988474575,0.07735543501509184
48,11804.0,3709.0,[36],1,0.1887081792253491,0.39999159796491945,0.4842488700969473,0.30366222423301087,0.4720800659434677,0.36974619428265,0.2021426601682291,0.3385782663725762,0.529726363734074,0.14430098024315116,0.25554815456854496,0.09733119464461568,0.31114626522243605,0.3478439571104241,0.19065029621137483,0.08878626309508302
48,36038.0,23718.0,"[38,41,43,45,46,49]",6,0.17094703017107699,0.3431291528727012,0.5031165434339453,0.30907761300667774,0.45449240191332735,0.1678381281728946,0.29311175861363803,0.3199283150420574,0.5441310586031401,0.12434166675583862,0.24865999189231838,0.10266499253989289,0.2748091189851111,0.29423199114362675,0.17961957661885208,0.08795689093882791
48,25996.0,9823.0,"[40,51]",2,0.1797748408498855,0.24085176553932117,0.359885204860373,0.2983142844833642,0.26989398257082875,0.24662789150219494,0.25594177398486523,0.46145425106037924,0.2460054428038181,0.11745788669405813,0.25200128314300296,0.17775188881015222,0.1481043659159771,0.2586444821340652,0.19774142173586437,0.0645746662769965
72,558120.0,154060.0,"[1,2,3,7,17,20,24,26,31,40,43,51,56,58,63]",15,0.16815292716863342,0.23865711675428522,0.3316974556630068,0.2973384207662552,0.2635214490280598,0.22876613080511274,0.25137959201892657,0.48220262395766167,0.17924539178535312,0.10380686692930016,0.24805122294007206,0.19904030492847147,0.145015439152427,0.26763953659013134,0.20320517585364342,0.059294409973018734
72,21313.0,0.0,[59],1,0.19783319965705196,0.25682835342966326,0.5797552518708465,0.33392824299432766,0.284324883244936,0.26755430348988724,0.2583655396080324,0.33966094394463997,0.27772914710626495,0.14157687143881773,0.2766948140933875,0.11726947354904033,0.15145745919271017,0.1860355257785072,0.17973700007327303,0.11061895005507323
72,1521.0,0.0,[3],1,0.2143684386952661,0.25784278754261586,0.4431728654062012,0.3378715683734646,0.3188214420938589,0.24823168301796966,0.27823941098550464,0.43553478457558253,0.30165282578614455,0.16684560743121907,0.2727606062558099,0.17976624375449712,0.19271184132924513,0.357292695869644,0.20166609341504302,0.08181470101272888
72,607117.0,186552.0,"[15,16,18,19,21,23,28,29,30,32,33,34,35,36,37,38,39,41,45,46,49,50,54,55,61,62]",26,0.18171902106480192,0.3714522685580039,0.4851090229724072,0.3214585271770828,0.4754449665801113,0.24256903008657646,0.26410486689766466,0.32395566986268526,0.5517064227051814,0.14448445329817133,0.253982310675517,0.09953739896497388,0.3021335901854561,0.3428073650809966,0.19761209781095337,0.09527938824729304
72,28480.0,0.0,"[16,18,21]",3,0.18406406094426625,0.36492684633701733,0.47756325938105226,0.31579564959447914,0.44421660890583514,0.29682149942669883,0.24806126029676254,0.33631210727822886,0.4966533321007728,0.14763545442453294,0.25804141116928153,0.10811121976580962,0.27827555712133933,0.3346463597131816,0.19379202385810432,0.09055837091311138
72,16119.0,0.0,"[17,20]",2,0.1814230351985362,0.24084384324807,0.3969708320559638,0.30092671874454935,0.27745707192182517,0.21831845418255835,0.2600758967403957,0.5078098676100994,0.24191965687500583,0.1200318929278447,0.2509243333384324,0.22278359905172335,0.15911633607672407,0.32981539303073226,0.2103068574414304,0.06742682731833949
72,103055.0,19388.0,"[27,42,44,47,52,60]",6,0.33735984867912444,0.26291662810052346,0.4910806176067075,0.35922576698995623,0.42524240495175025,0.2745636341878022,0.25363118238271837,0.33787994450162456,0.7658478904285123,0.4180009737358339,0.2853452112648789,0.11066250098692552,0.37848698839976125,0.4308454555953931,0.24365840915183856,0.1529288037145234
72,19908.0,0.0,"[19,28,29]",3,0.19458922953731383,0.3631611891630086,0.5197371792421045,0.32047921348703884,0.4933151786084212,0.2847171140133539,0.25516842144325663,0.33374245508648825,0.6100888240606841,0.15885078477294792,0.2533963324220809,0.10351408942522172,0.3242375923117503,0.37552700074032325,0.20810932674555863,0.10409220672479491
72,53297.0,6793.0,"[30,31,32,34,35,26,64]",7,0.21570413007367226,0.3295147096177198,0.4713159774134404,0.3294592485006464,0.4139547114204392,0.2638599231979996,0.26069830355687024,0.34369173616123777,0.5811858313069305,0.19746387646120558,0.26534395874802236,0.1102405518464696,0.2872816995566742,0.33389835778005217,0.2009105083486871,0.10604234024263778
72,24114.0,0.0,"[44,53]",2,0.28360834891584985,0.27508216749271647,0.5578189653678917,0.41971008073142047,0.4371616429413468,0.3925659975026358,0.20829196308864312,0.3456312324362003,0.6526660667936732,0.42272838172413796,0.3404463471902837,0.13212569278665756,0.3595024251343127,0.4769888587351358,0.3332955541852645,0.27902072275702
72,27781.0,0.0,"[41,43,45,46,49]",5,0.16599639027288962,0.3524876386608611,0.4768787371778573,0.3076559733747476,0.42900945767264775,0.18332284879454674,0.2832657087380098,0.32449392463274035,0.5111905501908257,0.1269148737544014,0.25178772623900153,0.1052260832658069,0.2543242708577455,0.28940074223105333,0.17799486132910516,0.0804028295061289
72,11096.0,0.0,[51],1,0.1792453710698027,0.24213449152634545,0.4080044749674967,0.29635300529401654,0.27763015764495175,0.2366288109870494,0.26100992534853784,0.4143053293688566,0.22935975800668887,0.12081749444432437,0.2525748202824594,0.15631139070298006,0.14476226133417894,0.23502673821553627,0.19584093474416614,0.0665125752796461
72,14900.0,0.0,[40],1,0.18016913592906664,0.23989652207945394,0.32405088129603443,0.29977484514678715,0.26413286856932083,0.254074186629447,0.25216753186866986,0.4965659581133415,0.2584014507574386,0.11495599356674574,0.25157417119002257,0.19371858458177516,0.15059322446897253,0.27623256847768923,0.1991567105720982,0.06313150934455355
96,668918.0,111552.0,"[1,2,3,7,17,20,24,26,31,40,51,56,58,63]",14,0.17100147070700328,0.238998383164064,0.3315348255063208,0.30282986926816063,0.26347281673488765,0.22850596540070547,0.2536309609029388,0.49035556806014824,0.17860029400601268,0.10545383744991324,0.2493780973304232,0.20805256427958946,0.14655653467466973,0.27506698750404024,0.2043283745402272,0.05863393261866006
96,25881.0,3171.0,"[18,43,59]",3,0.20054416655015364,0.2643314880151794,0.566449852573696,0.3401548082195596,0.2953709240682381,0.26752891556300806,0.26221784837641926,0.34569578008799384,0.2903915159498994,0.14631999986830685,0.2787696013326109,0.12067626922744268,0.16244362379884938,0.20774694440259717,0.1833495519206188,0.10809815240615248
96,831487.0,157440.0,"[5,6,8,9,10,11,13,14,15,16,19,21,23,28,29,32,33,34,35,36,37,38,39,41,45,46,49,50,54,55,61,62,64]",33,0.18583240387793726,0.37832944838497146,0.49141548155949427,0.32897117222693395,0.48425353287594053,0.24687375990926122,0.2711250653326195,0.3297786569360781,0.5533138896160723,0.1479870893619559,0.2551125932205753,0.10056310729355937,0.3125690026945993,0.3610831861079818,0.198059527870432,0.09433018523933706
96,1521.0,0.0,[3],1,0.2143684386952661,0.25784278754261586,0.4431728654062012,0.3378715683734646,0.3188214420938589,0.24823168301796966,0.27823941098550464,0.43553478457558253,0.30165282578614455,0.16684560743121907,0.2727606062558099,0.17976624375449712,0.19271184132924513,0.357292695869644,0.20166609341504302,0.08181470101272888
96,44332.0,0.0,"[6,8,9,10,11,13,30]",7,0.19816172018440922,0.3691670225424791,0.5306687388455837,0.31878808703302214,0.5014635962573575,0.2872517738813598,0.25330309709339016,0.33402838044444627,0.6166025206363389,0.1562107626835337,0.25564781772790274,0.10291704712062476,0.33500698526305267,0.3801971766260534,0.2093559694660705,0.10616530452992484
96,9553.0,0.0,"[14,16,18,19]",4,0.19493212105420946,0.30827865719693887,0.45918724373662867,0.3235945415835972,0.38595113152746885,0.24174832501967736,0.2702358634811719,0.34307860850078076,0.47340132659775686,0.15180070059585288,0.26269151818276804,0.11654226153354917,0.2327849951398412,0.3018044783754804,0.18085308203215483,0.08395404789378147
96,16119.0,0.0,"[17,20]",2,0.1814230351985362,0.24084384324807,0.3969708320559638,0.30092671874454935,0.27745707192182517,0.21831845418255835,0.2600758967403957,0.5078098676100994,0.24191965687500583,0.1200318929278447,0.2509243333384324,0.22278359905172335,0.15911633607672407,0.32981539303073226,0.2103068574414304,0.06742682731833949
96,122544.0,19489.0,"[27,42,44,47,52,60]",6,0.3409865289578158,0.2649556941478259,0.491276825125295,0.3717731245690228,0.4238500323318949,0.2751477074850543,0.25797867299488525,0.34248967238531747,0.7619651362059563,0.413347759455514,0.28915317646796074,0.11255768458938346,0.3789015563680013,0.4397311495769178,0.24379381581410234,0.1528729292365243
96,18502.0,0.0,"[28,29]",2,0.18999639750652572,0.37070651476580235,0.5255831702217488,0.32035977397617205,0.5012965017647423,0.28956684025904794,0.2545826573879279,0.3329382590288393,0.6000194363118273,0.15410852152131319,0.252480158047413,0.10285955256929068,0.3272572463301102,0.3754805334378877,0.20985937365750507,0.10507137313905142
96,11855.0,0.0,"[26,31,32,30]",4,0.20652163984444008,0.2940211326768565,0.4651335174497641,0.32652302179541004,0.35844073632433,0.2671036578609876,0.2592596038643208,0.36567751536585447,0.4292561260432611,0.1560004421829969,0.27156598900077883,0.1265515256085776,0.22029286715718158,0.2887474969639561,0.19308217525859095,0.08828723895628325
96,17226.0,1136.0,[35],1,0.28050096190133716,0.2767013152585185,0.4420852708549494,0.35444586013743984,0.36183570304822066,0.2792172881883795,0.25595316555014175,0.3483211268039387,0.7363280143364273,0.3031612286244479,0.2804654006197327,0.10649968129031873,0.31179488099326796,0.32731363497210403,0.21010097147492943,0.137423946206085
96,28600.0,4486.0,"[44,53]",2,0.2928529262790163,0.27791212641644686,0.5567762477145903,0.430643820110763,0.4392071885730706,0.3909086204484188,0.2173482897807836,0.35314014543507116,0.6536743076266465,0.4213052564252711,0.3439836002429155,0.13472947483751802,0.3642061228175955,0.48914281005974153,0.33437822920079524,0.2747032436767014
96,5354.0,220.0,"[52,57]",2,0.2827332515988165,0.29386894988985535,0.562139586247041,0.4471834872424701,0.44853010187930514,0.24878287446708972,0.3244442478498224,0.34975826198880455,0.5633281626784369,0.3639726701187086,0.34680358710313297,0.14607385519651403,0.36166489537397356,0.49063389486948583,0.32422222219920827,0.24636291381412803
96,27781.0,0.0,"[41,43,45,46,49]",5,0.16599639027288962,0.3524876386608611,0.4768787371778573,0.3076559733747476,0.42900945767264775,0.18332284879454674,0.2832657087380098,0.32449392463274035,0.5111905501908257,0.1269148737544014,0.25178772623900153,0.1052260832658069,0.2543242708577455,0.28940074223105333,0.17799486132910516,0.0804028295061289
96,11096.0,0.0,[51],1,0.1792453710698027,0.24213449152634545,0.4080044749674967,0.29635300529401654,0.27763015764495175,0.2366288109870494,0.26100992534853784,0.4143053293688566,0.22935975800668887,0.12081749444432437,0.2525748202824594,0.15631139070298006,0.14476226133417894,0.23502673821553627,0.19584093474416614,0.0665125752796461
96,14900.0,0.0,[40],1,0.18016913592906664,0.23989652207945394,0.32405088129603443,0.29977484514678715,0.26413286856932083,0.254074186629447,0.25216753186866986,0.4965659581133415,0.2584014507574386,0.11495599356674574,0.25157417119002257,0.19371858458177516,0.15059322446897253,0.27623256847768923,0.1991567105720982,0.06313150934455355
96,4094.0,0.0,[58],1,0.22245220031150595,0.26327238338710246,0.5064730301187321,0.3420828931256745,0.3168938519476489,0.2525668973062197,0.2755552279541316,0.3691585232124254,0.30911285183292025,0.16210213086803685,0.2827604053662816,0.14223684148235347,0.20125555942142917,0.2886799513310696,0.20209333504344598,0.0979348235836901
120,774361.0,104242.0,"[1,2,3,7,14,17,20,24,26,31,40,43,51,56,58,63]",16,0.17236252724492337,0.24162463457169123,0.33775258921142526,0.3070569300478318,0.2677649281625815,0.22827701539324405,0.25616205289847,0.4883190994638311,0.18389780645004375,0.10730539818670673,0.2508921181669177,0.20829511026364236,0.14940390330417538,0.27958646009068716,0.20343704465382773,0.05876913388966066
120,28703.0,3576.0,"[18,59]",2,0.19910247509021053,0.2667476958800423,0.562524581976255,0.34205479132877753,0.29679600499137854,0.26536773266074754,0.2632231497905121,0.3467664040768325,0.2922197601022773,0.14588798141679657,0.2791297243298875,0.12096652702860772,0.16259023554604554,0.20693579326759343,0.18338912766648593,0.10654574517596344
120,1521.0,0.0,[3],1,0.2143684386952661,0.25784278754261586,0.4431728654062012,0.3378715683734646,0.3188214420938589,0.24823168301796966,0.27823941098550464,0.43553478457558253,0.30165282578614455,0.16684560743121907,0.2727606062558099,0.17976624375449712,0.19271184132924513,0.357292695869644,0.20166609341504302,0.08181470101272888
120,987493.0,214828.0,"[15,16,19,21,22,23,28,29,30,32,33,34,35,36,37,38,39,41,45,46,49,50,54,55,57,61,62,64]",28,0.18833352204427037,0.3875352639351813,0.4965973767771578,0.3387897261578201,0.49281680875943484,0.24612317490426056,0.2788551749470409,0.338195106365899,0.5517389999525377,0.14845976711559522,0.2559464928750798,0.10220402835588328,0.32294224691311235,0.38104305847560654,0.1957174247456264,0.09153548985483864
120,28480.0,0.0,"[16,18,21]",3,0.18406406094426625,0.36492684633701733,0.47756325938105226,0.31579564959447914,0.44421660890583514,0.29682149942669883,0.24806126029676254,0.33631210727822886,0.4966533321007728,0.14763545442453294,0.25804141116928153,0.10811121976580962,0.27827555712133933,0.3346463597131816,0.19379202385810432,0.09055837091311138
120,20897.0,4778.0,"[17,20]",2,0.18674538752943173,0.24789658279827306,0.40587311289402156,0.31260518135717724,0.28806275950686816,0.22229342706787886,0.2640383761771484,0.49791115117150836,0.2565964092328097,0.12339831254659689,0.2560170641537389,0.21934713164037306,0.16661992684531335,0.3398976478236259,0.2085515635661819,0.0704330170903577
120,139798.0,17254.0,"[27,42,44,47,52,60]",6,0.3415037576760185,0.2673563635233742,0.49157052130898987,0.3822638815331944,0.4290187677653784,0.27049320850308056,0.2623532655572106,0.3474686658031002,0.7581647277461069,0.407967852177384,0.2906233899970307,0.11384240727037483,0.38079812557504356,0.4508360060615202,0.24143703989739718,0.150217217699108
120,21050.0,1142.0,"[19,28,29]",3,0.19920132465989288,0.3602393897584496,0.5184859661210465,0.3258186125145764,0.491361980410447,0.28082395567385776,0.25746780877448605,0.3364490009706811,0.6147384970624385,0.16220814725984267,0.2549580182573939,0.10442909888015829,0.32553579486435935,0.38074134411205773,0.20783151262358096,0.10384723165508365
120,58734.0,5588.0,"[22,30,31,32,34,35]",6,0.23790644258944316,0.32385578617420413,0.50238820550389,0.34162667726646206,0.41870077268083294,0.27417582322937717,0.2587470304996983,0.3430736663243561,0.6338159427104316,0.21865622634272983,0.26831900347897747,0.10741975588538887,0.3111916589681842,0.35259690265504784,0.1999396394314649,0.11635306332331939
120,35434.0,6834.0,"[44,53]",2,0.2962847337451937,0.2853256109626996,0.5617717132490728,0.44009482109475123,0.4492485956249141,0.3950627961929076,0.22385805962592653,0.3586931456017821,0.6498173677194365,0.41448419989974644,0.3476819281732223,0.13789023427680175,0.371055681001199,0.5052116800149482,0.33476350343154315,0.27239031912433453
120,4609.0,882.0,[52],1,0.26978114447004253,0.2917067544176502,0.5513125983874543,0.4430271386183197,0.4832694143034627,0.19283835472302807,0.3156832115755667,0.3307235654379478,0.6176735951983566,0.39237241149444063,0.3314278617519492,0.1356077124481725,0.3793445956452919,0.5289516239519202,0.33424057979400823,0.25342678804494395
120,37390.0,10363.0,"[41,45,46,49]",4,0.17035620384417305,0.3625977320537672,0.48108527689846986,0.3184651974772194,0.4490141009130508,0.1925124063993556,0.2864589314348928,0.33290358085340016,0.5183000608396455,0.12542305212137345,0.25276011172969853,0.1055917191899341,0.272372173908684,0.318278679361625,0.1810520285620372,0.07723020074374756
120,20271.0,2004.0,"[43,26,51]",3,0.18342437460310193,0.2582318166188154,0.426815189345758,0.311818682159717,0.2991157919231167,0.24267916741040826,0.2638745364532134,0.4014203951191692,0.27999147459350315,0.1273043884311504,0.26040377015629923,0.15007578863994914,0.16248658074146444,0.2492801034752633,0.1916718511302431,0.07182383263613279
120,18138.0,3238.0,[40],1,0.1813137035404624,0.24484054277745895,0.3373230585956781,0.30589410065530154,0.2718559843881347,0.2507385083381526,0.25442876003880227,0.49135381258358835,0.2637101978730594,0.11658035146547574,0.25419866662797475,0.19565057230081664,0.1549235022350019,0.28531024516929737,0.2005189826583821,0.06513577290624432
120,4094.0,0.0,[58],1,0.22245220031150595,0.26327238338710246,0.5064730301187321,0.3420828931256745,0.3168938519476489,0.2525668973062197,0.2755552279541316,0.3691585232124254,0.30911285183292025,0.16210213086803685,0.2827604053662816,0.14223684148235347,0.20125555942142917,0.2886799513310696,0.20209333504344598,0.0979348235836901
144,878783.0,104422.0,"[1,2,3,7,14,17,20,24,26,31,40,43,51,56,58,63]",16,0.17423491924952064,0.241347651720637,0.3392832654842472,0.31827851285058484,0.26852903331984224,0.22882586666739188,0.2589249249357134,0.49298259103727166,0.18595793851827977,0.10914617707188208,0.25168877619073715,0.21521400186460957,0.15172299393900537,0.2885321571872227,0.20324371417753304,0.058453816619683734
144,32476.0,3773.0,"[18,59]",2,0.20076646610854768,0.26832483652579253,0.5607691633216033,0.3506266269233026,0.29892684304523515,0.2654177911462681,0.26739729092038816,0.35071296933810436,0.29556108636640177,0.14822568003899236,0.28082312504383167,0.1237365480625307,0.1669685046340962,0.21235062777097324,0.18307217326903313,0.10607342378267506
144,1236974.0,175890.0,"[5,6,8,9,10,11,13,15,16,19,21,23,28,29,32,33,34,35,36,37,38,39,41,45,46,48,49,50,54,55,57,61,62,64]",34,0.18890625828708163,0.3911132222626134,0.49610241210700967,0.34802064777098624,0.496959829049338,0.24833099964858743,0.28367812831403266,0.3440107603691384,0.550830123592502,0.14870969533799255,0.25508365142869616,0.10637672214876479,0.32640894751737043,0.3949864997841175,0.19570471984435947,0.08959624117503343
144,1521.0,0.0,[3],1,0.2143684386952661,0.25784278754261586,0.4431728654062012,0.3378715683734646,0.3188214420938589,0.24823168301796966,0.27823941098550464,0.43553478457558253,0.30165282578614455,0.16684560743121907,0.2727606062558099,0.17976624375449712,0.19271184132924513,0.357292695869644,0.20166609341504302,0.08181470101272888
144,65959.0,4068.0,"[6,8,9,10,11,13,22,30]",8,0.2221206916627923,0.354710250323952,0.5501736373760855,0.34578647307127575,0.4894760334087934,0.2943557706679037,0.2620527745796439,0.34462965419455216,0.6290902045142318,0.17775355208829235,0.263797416272346,0.10673436669369528,0.3423387016515011,0.3996848302032906,0.20791585827445241,0.11537662320585576
144,447.0,0.0,[14],1,0.23931310564557248,0.2798048409556907,0.49667024353870787,0.39039004895026297,0.3415788049609418,0.20807201431937475,0.32205326464423295,0.38890386323076886,0.35566369578368257,0.1861080570456578,0.30335074884552055,0.1532431593967654,0.2433421774546965,0.3592886829030311,0.18981609832732646,0.10182891787345445
144,28480.0,0.0,"[16,18,21]",3,0.18406406094426625,0.36492684633701733,0.47756325938105226,0.31579564959447914,0.44421660890583514,0.29682149942669883,0.24806126029676254,0.33631210727822886,0.4966533321007728,0.14763545442453294,0.25804141116928153,0.10811121976580962,0.27827555712133933,0.3346463597131816,0.19379202385810432,0.09055837091311138
144,2033.0,526.0,[20],1,0.22094761317917816,0.24755525492803926,0.4168744122492238,0.3760372825570364,0.3168717503154021,0.2296598189891394,0.2979679700377755,0.4656046098313558,0.2633157543596213,0.15346122532197654,0.26255303630505455,0.24318512072374207,0.1905616177317936,0.5014215566193246,0.22617373361710882,0.07477645390860511
144,202550.0,32347.0,"[27,42,44,47,52,53,60]",7,0.3340860401665536,0.2708534390780522,0.5047918797668042,0.41281460656788743,0.4360146266727249,0.29733670143815816,0.26156308710589193,0.3554016616348121,0.7334592870438549,0.410434915095556,0.3046392590168263,0.12287228112258836,0.37711349570921543,0.47697627915434326,0.2593148090977826,0.17382612180428123
144,21540.0,490.0,"[19,28,29]",3,0.20130902125982755,0.35823582490706657,0.5170446180087348,0.3307218628654782,0.4891248241955759,0.27950412703951794,0.26018449522221254,0.3393842881639139,0.6165988139455651,0.16313074205069472,0.25568135789154184,0.10534453016579862,0.32392814303377815,0.38378512815217725,0.20706757905743542,0.10368358945102896
144,19200.0,1227.0,"[26,31,32,22]",4,0.2398897240937403,0.28808669238220863,0.5477770069478995,0.3489012258439163,0.3551706228782142,0.2861658393392893,0.25985968216378447,0.35690122545984365,0.5009220591742826,0.19180053771994063,0.2762983141574269,0.12130498224223092,0.2580959485344841,0.3071198627386322,0.18629958529710738,0.11509629026873607
144,24644.0,1821.0,"[35,30]",2,0.29011551796331636,0.277047723262234,0.4613500765958111,0.37670133577711756,0.3837840685148489,0.28436416349097193,0.263355308483466,0.36064664303901944,0.7343077861040159,0.2925937060517446,0.28281544662881347,0.11139362756131435,0.3224179025360715,0.3672638185488328,0.2073941465419619,0.13021019721434127
144,6407.0,1378.0,[44],1,0.33191608615184853,0.26092761750055765,0.48236143292053485,0.3538353995080333,0.39936971927190434,0.2588593135076314,0.2740239121059307,0.3296371054168259,0.7477794383705548,0.4035492891482675,0.2812548431240631,0.11005128057248939,0.3538334061834776,0.39623578492992345,0.2080291564937837,0.12325597808293533
144,21059.0,3982.0,"[41,43,45,46]",4,0.17925370940603144,0.3597277483192832,0.46869040037496185,0.33418060406395667,0.4345978629496425,0.22129801360331078,0.2821794516486906,0.35323306811420097,0.45457036153872643,0.13354445733381454,0.2574420757195322,0.11969710619130997,0.27023231687840027,0.34469326879451645,0.18110979288482507,0.07574863648813837
144,6120.0,1511.0,[52],1,0.2745064751270265,0.2898096182358221,0.549499515331992,0.46247160336972515,0.48753918919256717,0.19961293243301972,0.32716667761755697,0.34107589965422047,0.6286889017367283,0.3925688443172189,0.3325367515371523,0.14152722019973663,0.3781818337440077,0.5440551574079872,0.32588027818095167,0.24136232944187422
144,17278.0,4178.0,[51],1,0.1841706047758188,0.2482826361452196,0.41051419610951717,0.32226115603054417,0.28596515924684984,0.23608984096750313,0.2681474886968278,0.4359486381635565,0.24275672518754093,0.1238109623111898,0.2560771773429498,0.1759751985504958,0.1593929410268798,0.2609449404213627,0.19419582692692855,0.06614204209427908
144,21559.0,3421.0,[40],1,0.18434362429005208,0.24637673441087804,0.3427019083329556,0.322454677443916,0.2742048897999868,0.25043903412778035,0.25945668603689875,0.49366425964496025,0.2689904394330478,0.11891649201959116,0.2560982297577082,0.20218637296996803,0.15935135052957622,0.2954416410505751,0.19946305528417926,0.06460446734854851
144,4094.0,0.0,[58],1,0.22245220031150595,0.26327238338710246,0.5064730301187321,0.3420828931256745,0.3168938519476489,0.2525668973062197,0.2755552279541316,0.3691585232124254,0.30911285183292025,0.16210213086803685,0.2827604053662816,0.14223684148235347,0.20125555942142917,0.2886799513310696,0.20209333504344598,0.0979348235836901
168,950595.0,78676.0,"[1,2,3,7,17,20,24,31,40,43,51,56,58,63]",14,0.17332112438617173,0.2408131307740145,0.338421738002366,0.32576115361488867,0.26858364924226313,0.22947826904526653,0.2604140159570772,0.4954792940527115,0.18548156944452335,0.10961863710214315,0.25183685395983973,0.21730560424256978,0.15216477848570867,0.2923877387760049,0.20351582054455716,0.05841726786288142
168,73224.0,34331.0,"[18,26,59]",3,0.18622912769956124,0.286569116549336,0.4997754145143354,0.36293024153701836,0.3442653048814252,0.25612578049636237,0.2763591011801356,0.3526162902889193,0.34891179781378934,0.1417847474933877,0.27053141253117985,0.12137457116309566,0.19361944977132653,0.23446253501961287,0.17784250921349934,0.09371157892197135
168,1521.0,0.0,[3],1,0.2143684386952661,0.25784278754261586,0.4431728654062012,0.3378715683734646,0.3188214420938589,0.24823168301796966,0.27823941098550464,0.43553478457558253,0.30165282578614455,0.16684560743121907,0.2727606062558099,0.17976624375449712,0.19271184132924513,0.357292695869644,0.20166609341504302,0.08181470101272888
168,1327769.0,174936.0,"[15,16,19,21,22,23,28,29,32,33,34,35,36,37,38,39,41,45,46,49,50,54,55,57,61,62]",26,0.18808399132625,0.3896036793434525,0.4946172300289253,0.35745589606745815,0.4960040269050454,0.24610200621764064,0.28797782063304606,0.34612002864928537,0.5461785932524672,0.1506997739760759,0.25525801914040447,0.10687626447345713,0.32517603644344595,0.39208724897104513,0.19414515534634333,0.08967725901628137
168,36613.0,2930.0,"[16,18,19,21,64]",5,0.20030357173178182,0.3456885025002479,0.4775740037952848,0.34449254214083136,0.43339044815529726,0.2847004264039758,0.2633784529850587,0.3481219817884796,0.5153912210045648,0.16306065099364267,0.2646152631641339,0.11781869416871815,0.2800508676084853,0.3604186942240024,0.19510645862438633,0.09304938753554096
168,27490.0,2855.0,"[17,20]",2,0.1906356520533485,0.25077930181282204,0.4091100696125831,0.3428418487981082,0.2933102868917341,0.2252886297136713,0.2717246358943555,0.5023926285203032,0.26386326439443814,0.12766603879322871,0.25808673304242347,0.22931834654526104,0.17335307670808828,0.3613725564834221,0.21062334535440533,0.07072317279119819
168,248730.0,41665.0,"[27,30,42,44,47,52,53,60]",8,0.33206580330832136,0.26913955228052006,0.5072558697785472,0.4327213280687727,0.4400429224479536,0.2989471918076695,0.26889972501180076,0.3570394868393304,0.7292557977035933,0.408694859319973,0.3068648073034912,0.12607833364772625,0.3748525279714616,0.4854807122259285,0.2601820742579964,0.1758141423529172
168,18502.0,0.0,"[28,29]",2,0.18999639750652572,0.37070651476580235,0.5255831702217488,0.32035977397617205,0.5012965017647423,0.28956684025904794,0.2545826573879279,0.3329382590288393,0.6000194363118273,0.15410852152131319,0.252480158047413,0.10285955256929068,0.3272572463301102,0.3754805334378877,0.20985937365750507,0.10507137313905142
168,14528.0,1745.0,"[22,31,32]",3,0.2647126804409962,0.2944316101501873,0.5950676341547884,0.3718006042157674,0.3737519478304141,0.3074227868409516,0.25987256878974957,0.3524427677229785,0.5721978518671582,0.21999702592698223,0.2821116625700667,0.11751878374390454,0.29788431742602095,0.34290575789298006,0.18593953997916443,0.13307040682168594
168,22310.0,5948.0,"[30,48]",2,0.2699329072388741,0.2619103944078656,0.42611765068129326,0.4400813574831149,0.3315379798588936,0.27061173044935094,0.27448102603364766,0.3849683416470263,0.6600050539575784,0.1831671321868107,0.27735909502731715,0.18216481335390494,0.21767704657045914,0.505135889608273,0.22130310391778932,0.09360918338511773
168,9955.0,3548.0,[44],1,0.32688557412431524,0.2600253333299901,0.4908838165579246,0.4004116459173465,0.39990134838188734,0.27831429148426223,0.27874851759796604,0.33345825540854235,0.7287829548864135,0.40403698920576003,0.2905682406662612,0.11480329918014032,0.35425310574195085,0.4099602068096827,0.21413343689519446,0.1421408607134713
168,38703.0,5797.0,"[41,43,45,46,48]",5,0.21145225028079837,0.31671210946702116,0.439244136843167,0.38160391364950835,0.37067181843129393,0.235164722925878,0.27899302793515424,0.3668240021714693,0.5285808916394681,0.1423122863139387,0.26484310951984125,0.15436466288769685,0.2275434662381656,0.41412510393729673,0.19879871681524663,0.07946726823563484
168,7408.0,1288.0,[52],1,0.2725842193053508,0.28620936314279777,0.5453770415999006,0.48297269909710344,0.48425148138441704,0.2008180301761108,0.3384662422017438,0.35088171079228303,0.6295254040349464,0.389095630323946,0.3327470139177425,0.15129200523992362,0.3722745722543486,0.5516308972671503,0.32234174939417737,0.2342121781484311
168,18606.0,1328.0,[51],1,0.18415619339206796,0.25132785856121687,0.41318383455650565,0.32742289953445813,0.29068930597592185,0.23645976484725809,0.2691976471125153,0.43480721320888466,0.2456289626770485,0.12378139690447039,0.2569040195306966,0.174296519607652,0.16257820495301895,0.26227463765323106,0.19346913470203964,0.06653899477615836
168,23750.0,2191.0,[40],1,0.18325599444248813,0.24688969417290627,0.3437149605028132,0.3298890313000792,0.27535228290293484,0.25046365590067043,0.26092586997911243,0.4933084263568741,0.27240904580037817,0.11855546763373,0.25640529988252525,0.20144865998574846,0.15980751447472583,0.295369268644719,0.19883320444165584,0.06466683182668742
168,4094.0,0.0,[58],1,0.22245220031150595,0.26327238338710246,0.5064730301187321,0.3420828931256745,0.3168938519476489,0.2525668973062197,0.2755552279541316,0.3691585232124254,0.30911285183292025,0.16210213086803685,0.2827604053662816,0.14223684148235347,0.20125555942142917,0.2886799513310696,0.20209333504344598,0.0979348235836901
