time_in_hour,cumulative_size,size,pcore_ids,pcore_power,AF700 CD48_[R 730_B-A],APCCy7 Ly6G_[R 780_A-A],BV421 CD117_[V 440_F-A],BV510 SCA-1_[V 525_E-A],BV605 CD11b_[V 610_D-A],BV650 CD150_[V 660_C-A],BV711 CD11c_[V 715_B-A],BV785 B220_[V 780_A-A],FITC Ly6C_[B 525_B-A],PE CD115_[YG 582_D-A],PECF594 CD135_[YG 610_C-A],PECy5 CD3-CD19-NK11_[YG 670_B-A],PECy7 CD16-32_[YG 780_A-A],PerCPCy5-5 CD45_[B 695_A-A],_FSC-A,_SSC-A
-1,0,0,[],0,0.0,0.0,0.0,0.0,0.0,0.0,0.0,0.0,0.0,0.0,0.0,0.0,0.0,0.0,0.0,0.0
0,108220,108220,"[0,1,6,9,11,21,24]",7,0.32347850206061524,0.15618422320273906,0.4406076765662603,0.4778089470245792,0.29662465205136535,0.23393670527628396,0.043296055719828974,2.327478465034172,0.7672026977176135,0.37627330809462356,0.1756792786453527,0.8467960688412499,0.5865083673905002,0.9011980649233042,69290.48412493062,13817.694030678222
0,63738,63738,"[5,15]",2,0.10851254187455295,1.9759283911795178,2.100552893423075,0.6852027334400392,2.8860066073927393,-0.5350924960463131,0.6500147987229026,0.5510589894411626,4.014014559509234,0.4877809971759356,0.024548205811272705,0.14030797827041752,2.1381534735636505,1.6832989915121208,67721.20066522296,19346.772851360325
0,28228,28228,[10],1,1.9413817561640963,0.27789405537055956,1.6196760263213563,0.8857326654031512,1.7055304992560671,0.38167851374521855,0.06779127288507425,0.7811566990576742,5.673888338316558,3.244743840583805,0.4464287850715576,0.18956716125832807,2.4188270543786112,1.8337308966628856,73162.7059657079,27868.95508006231
0,52124,52124,"[14,20]",2,0.41739798772157855,2.2605726368275674,1.901807866107743,0.6858788252628343,2.802471221203269,1.081269085852955,-0.34968172810989406,0.7887371478589578,3.9119386514081893,0.6710939980047529,0.21075700318471258,0.11443819762489327,2.221192838692361,1.7727504759611576,67963.20282403493,19380.0420535645
0,10339,10339,[19],1,0.20490523493568835,1.2700467977560748,0.7834810879195229,0.6811864540090848,1.857988027468815,-0.15470260383015577,0.43367078653641,0.5710126088596774,3.4044196620563034,0.48648377492987416,0.20293147325661298,0.1407366670857917,1.4544912072734348,1.1408428498887748,60555.897475578095,14659.584099042439
24,141305.0,114250.0,"[0,1,6,9,11,21,24]",7,0.3052178513587591,0.14603631247832594,0.5043928461731797,0.5329962432521835,0.2578202598085704,0.2557722933459541,0.02180758122854476,2.205709585573767,0.7754551210838209,0.34173291520823956,0.16406851512507803,0.7758932264640275,0.524703044710027,0.864410067241075,71672.3730370474,15055.390368352138
24,133888.25,105623.0,"[2,14,15,16,19,20]",6,0.3868395345670741,1.6324607204254429,1.9050611976536476,0.7558624641370599,2.3863661804489964,0.5654774530793429,0.05051757528760081,0.7497765368861842,3.9120347334866987,0.6215440048772015,0.17308049017184324,0.13623684836048178,1.8258083660235291,1.4101392661790668,65672.97094405227,22040.534132009227
24,42828.75,33010.0,[5],1,0.10040100869742852,1.9973948463240507,2.241359721145256,0.7618164832793601,3.102620306312916,-0.7182317682748125,0.7967978810611998,0.6590891927326945,4.224100405492786,0.5113646636780104,-0.06937774424306609,0.14050975826401935,2.183118035927975,1.773373312331069,68557.13921139424,21971.174036132346
24,24136.0,19583.0,"[1,12]",2,0.19221416941498393,0.13075278900813192,0.2784510461344083,0.9127230544311407,0.4025067702705458,0.01833512898781553,0.1555840493868148,3.369560076721492,1.1794479732867882,0.39478256627030306,0.20111314152096593,1.3805496825488894,0.6676355336426837,1.6937976920367925,71930.55352999651,15538.04905535297
24,30336.0,23279.0,[10],1,1.9586589401783467,0.3640733623335346,1.929174907692183,1.0033844237786815,1.7575296182176663,0.4368559362968141,0.12654124323410665,1.0065207733138326,5.816654925748313,3.195206313422999,0.41452608874767805,0.21801424729694807,2.44983251195776,1.8363202382565367,73787.63607594921,34610.27373417715
24,13004.5,10670.0,[9],1,0.3501775359875381,0.18023293063940526,1.2422065178400117,0.47407154292744247,0.2562922801722327,0.30464184653389426,0.02566756067130349,1.9313642828636368,0.8770773096812655,0.3529234839286387,0.19152710763581515,0.6747252518551285,0.4917617983198176,0.5229804144911352,71111.28978430518,17230.871159983144
24,22022.75,18132.0,[23],1,1.3147878039186789,0.5638456888218073,2.8955473595599757,2.215521960813239,2.1133844715918646,1.6442217162933932,-0.6829484320305261,1.0867842199203008,4.514354194616947,3.3175849123860686,1.3574333602865125,0.49602421228048366,2.3505686388961395,2.412261386543466,118306.83234382563,99249.12810616338
48,142976.375,109670.0,"[0,6,9,11,21,24]",6,0.26076782450771785,0.14736800469307765,0.43001787475422937,0.46767801782723417,0.25339750948713835,0.2319364194373037,0.021677412656890382,2.1949164792172704,0.7308384595099157,0.307448722272297,0.13891561184933643,0.7073079604366437,0.5318541777710656,0.7769188332674675,69023.72778719553,15100.764164709022
48,55277.625,38698.0,"[5,15]",2,0.05213344442032364,1.9927848444295932,2.1574531644370194,0.6734286536188945,3.0485277073476857,-0.6251493576933249,0.7876922371450026,0.5290822404872233,4.053470697047397,0.33946766944808127,-0.028718094208546763,0.11031665436852012,2.2370112586534847,1.589113558733071,66243.39935009865,21094.789365498193
48,35585.0,28001.0,[10],1,2.0512319441425593,0.3229748697467283,1.7594268674423952,0.9103638719667764,1.8137328923299791,0.4586303614409082,0.0979087272639303,0.8384089888102384,5.815934124459043,3.147055172094975,0.37554771159372047,0.18653928535900266,2.5630507610141215,1.8243818053937988,71850.61008852029,32086.5037515807
48,36394.75,30109.0,"[9,16]",2,0.40397083733058614,0.5670134542997256,1.2644599727124235,0.5407722040850609,0.7616623070583661,0.6380187849415182,-0.12877752313348267,1.361135004540471,2.629446971199484,0.5046513134414997,0.2294116372004118,0.348300350994992,0.8455373117499748,0.5902755227230592,63131.07170677096,19482.509647682644
48,46514.5,32923.0,"[14,20]",2,0.3825454456459769,2.4312076922169457,1.8947678113934932,0.619693300615932,2.988791940085903,1.141215447230169,-0.4449558557922826,0.8178727413911422,3.886797473844181,0.49545383587376046,0.13988364778995255,0.06219456545405344,2.311478228649135,1.724733719707025,64874.15846671484,18830.95077878928
48,32984.6875,28033.0,[19],1,0.09657414795123831,1.2138059136720623,1.4346453121846126,0.5718063018711197,1.8269484393856996,-0.1856216687989629,0.3877630390048137,0.43872742761128913,3.452728261268959,0.3659734551467987,0.11325785917708009,0.11837531820068259,1.2502322327822588,0.8343787674905976,59959.93868366966,18171.162118785996
72,149506.0,115408.0,"[0,6,9,11,24]",5,0.26104010935660993,0.22295196985949328,0.3833930863444732,0.5976296348292545,0.31703420960331696,0.25350970713790066,-0.01355214045631703,2.249494366762268,0.7775084715185984,0.3185583578902136,0.15931777169770633,0.6602342842046227,0.5954735149890499,0.8367271252191564,69567.24570251344,16984.29555335569
72,43650.40625,29831.0,"[5,15]",2,0.1573394117415856,1.867898032999796,1.98390267679819,0.9406496436387641,2.9071438263926725,-0.6045028659702485,0.6804541493832721,0.6528907964963881,3.880372234518832,0.49213093103443006,0.14484781024016113,0.15255286220525144,2.1109206859937633,1.7086259221130466,71069.72496962754,25036.800659787656
72,21170.875,16292.0,"[12,21]",2,0.1679451229379123,0.22845009148107875,0.3157335546276725,1.0786484070258648,0.5654104186522497,-0.21093890437555607,0.20096111831702457,3.428619802032726,1.0768717872644853,0.39747949254355663,0.1815372664804884,1.2864445673677587,0.8093250152819024,1.8306655246469277,73000.32426623857,17949.962247663396
72,27239.25,18343.0,[10],1,1.9318211293658554,0.4187727691468992,1.3385120282491192,1.533488522187092,1.790723558335512,0.4110686046043315,0.06964939860391972,0.8672954399883683,5.561779650493969,2.997818578475877,0.45546585832082,0.21276601886524127,2.4460710530088603,1.9444712120647318,75761.939040172,34850.48050148222
72,18193.78125,14238.0,[9],1,0.3162708499461546,0.31267097225358276,1.0365342915221616,0.6246859389248733,0.39670865650007636,0.32914668094781474,0.012576237707428106,2.0324720585656975,1.3026337458910175,0.3723395521984707,0.2097420726080852,0.5543665796305757,0.6025533577381356,0.6220931010020632,68635.82505698196,20245.426716889917
72,48255.625,36627.0,"[14,20]",2,0.4773064515043497,2.0594359289078996,1.6421569552101913,0.9243627777046641,2.723024618897417,1.081337086257758,-0.36624098180393005,0.8514434042323411,3.6345087940997804,0.6478591967918216,0.3364069289079006,0.12197537718562668,2.091416966677451,1.7249502201935611,70070.46123638423,24136.467758939976
72,84450.078125,71061.0,"[16,19]",2,0.29477130680865016,1.3494406296808372,1.4158649282105533,0.8761269878498785,1.8886777990893084,0.14054357398906991,0.22634867256486935,0.6611335145251456,3.447770950694402,0.5436798573225162,0.23618779476133733,0.14909987423265048,1.4469140300188594,1.0693761231137686,66502.84957329651,23258.725292031606
96,101968.37890625,71671.0,"[0,6,9,24]",4,0.41858239531192676,0.1808502497604887,0.36916881727733575,0.6940484415308248,0.2804218420237907,0.24767559934331929,0.09688606320142945,2.906529287591737,0.6899055816626346,0.38966412487943836,0.20071435190698272,1.0845980670725286,0.6688978895959822,1.0679534251705227,70968.23919700916,15356.788281293482
96,57266.6015625,46354.0,"[5,15]",2,0.15695022718615892,2.326330874988437,2.168202379499679,1.0861984268972327,3.3330084141799703,-0.6806008214261668,1.0999505149440956,0.8672266472594421,3.8956736298383814,0.5157411646774056,0.04602967042624195,0.1622030062902745,2.454040100806642,2.0483663031471315,69409.27150028171,21307.61408407085
96,4374.2734375,2811.0,[21],1,0.5267887364848063,0.36198672934969744,1.3128489975870905,0.9878799480199509,0.7673663296324187,-0.20634479065719957,0.4634259412554229,2.6041573601562567,1.6238793649356014,0.6280378525996292,0.3164934316502621,0.9416988484542974,0.907301350352823,1.5064177426858392,72608.99227907503,20436.972911572804
96,28482.8125,21673.0,[10],1,2.1558617355473535,0.38657328710064975,1.4646179104458672,1.7799056213285085,1.7828493819069982,0.3950716687473259,0.19995490934158155,1.0958602574245684,5.660233644208438,2.9660581061451707,0.5633683624577515,0.25841766208459227,2.5006825954307477,2.1480022146621907,73533.40318832657,31684.87064786852
96,18277.12109375,11198.0,[11],1,0.2581432073198977,0.2838972351811133,0.7837611700315654,0.6609678820817062,0.4078627725849526,0.20851816938889467,0.09741978377465843,0.731699501657125,1.0071686110619376,0.36841218604757564,0.22705274235463913,0.2530054958664806,0.44834685266031526,0.45648924209356473,69618.2524437678,14697.76312812541
96,59300.90625,47237.0,"[14,20]",2,0.5073976079491811,2.626987204975923,1.9358767818399518,1.0431421486449772,3.173998427601085,1.170380470724454,-0.06336352485996954,1.0630582583185726,3.737123933731121,0.6811157686868728,0.2539497289250101,0.1229483755178874,2.4891201745446554,2.08464103326131,69315.69406243262,21124.173161350278
96,31772.54296875,16093.0,[19],1,0.27672881073980915,1.5098041805133229,1.5352612640090562,0.9288980872616146,2.0998072559883982,-0.1514511968444876,0.5467828215603596,0.6722510820772976,3.334628482876845,0.5517793387737427,0.22012287778228368,0.17439715737767936,1.5813635357410587,1.1996326595067552,65232.85139746375,20748.304350343646
96,4374.2734375,2811.0,[21],1,0.5267887364848063,0.36198672934969744,1.3128489975870905,0.9878799480199509,0.7673663296324187,-0.20634479065719957,0.4634259412554229,2.6041573601562567,1.6238793649356014,0.6280378525996292,0.3164934316502621,0.9416988484542974,0.907301350352823,1.5064177426858392,72608.99227907503,20436.972911572804
120,84610.0947265625,59118.0,"[0,6,9,24]",4,0.3916363676728092,0.19526089236289002,0.45608512461589124,0.7191730587937131,0.2992113060868675,0.24784115026329934,0.12329599761740884,2.8900401946016334,0.7017876979457761,0.3978143347876729,0.2335704534507541,1.0914448598775566,0.6380506148048314,1.1186564457927446,70408.12205020833,14749.930177902266
120,86749.650390625,72433.0,"[5,15]",2,0.07310479839166528,2.529200788085702,2.320799647605025,1.1835076188714035,3.5535133055606996,-0.7130696752942257,1.2223890671368682,0.94428807042316,3.9309335533901772,0.4067489396539723,0.026912528990892248,0.14735349293981215,2.6049268697023567,2.2063355849187216,67127.65120914966,19590.725701456595
120,31430.703125,24310.0,[10],1,2.227502415518428,0.3928747913907493,1.5946156424346367,2.0886326447715597,1.857004302927113,0.36778053686153767,0.25706999361971894,1.3282982375090158,5.67082955747731,3.048885924067604,0.6182931853542044,0.280442136973703,2.5477422800072143,2.285215041254427,71046.21150199004,30602.3600430509
120,22216.2802734375,17647.0,[11],1,0.2477047160999486,0.2957167965355434,0.8749772363807091,0.6618615335687892,0.3912921232109081,0.17530826993116877,0.13775778796342086,0.7267075193640351,0.9218051957616112,0.36607938341167967,0.2664679870261213,0.2615560618075887,0.4287669660842238,0.45613807069452245,68808.06366987622,13555.884757408274
120,88751.2265625,73926.0,"[14,20]",2,0.5011564873280379,2.84763550175372,2.156147374381344,1.1578730940601378,3.4418464666523856,1.2635212921124561,0.02144398111289325,1.194378632762493,3.857228961141495,0.5949036643554783,0.2548500967462277,0.10730286901260433,2.6721834063769676,2.2736085289534596,67524.03108020412,19778.30789556871
120,27020.1357421875,19077.0,[19],1,0.3002622269144648,1.5651097624543522,1.6990431572876115,0.9701539123968446,2.185624748418244,-0.1746419750765562,0.6375083733667375,0.649553320465702,3.3510932544606815,0.539237569109072,0.25446825389002603,0.17109805465870953,1.6168698445850156,1.2789136182343208,62926.06320423859,18965.506715604282
120,17179.2431640625,11244.0,[6],1,0.4672090126117381,0.18892505524529302,-0.08288550966495212,0.8726341691965058,0.26898616947278153,0.46865104891788745,0.04493691839620473,3.2928349702162265,1.1942978232219619,0.44129731602460265,0.2526033264056693,1.2570585629223634,0.7314609623695899,1.446626403679892,71326.09952519796,14994.56134228103
144,77274.52368164062,56122.0,"[0,6,9,24]",4,0.4709664346522222,0.1476916743197716,0.4421148160295685,0.9744892924292783,0.273173760989895,0.263632305456313,0.18215648564130404,3.1598598258098205,0.7283676279153092,0.4204555857807495,0.22667817981142102,1.2830170142261308,0.7206741267688451,1.2460941831095131,70562.27187515286,14516.254852789612
144,81964.41259765625,60277.0,"[5,15]",2,0.1034009141649268,2.542385615833637,2.2630520617848373,1.3459785848216588,3.496724212138839,-0.6931860142142596,1.275477188484747,0.9167455096781709,3.780869501506101,0.46478646146027935,-0.0341009603454121,0.18526655977676632,2.5672490520108173,2.1832668263170074,66201.20279663382,18583.21219053748
144,35926.67578125,28069.0,[10],1,2.2058821906215647,0.3352512189191055,1.7693451666111382,2.3716768168743143,1.9968845856935524,0.3670864505698388,0.5271078079768827,1.1567975238010009,5.531105197912356,3.3580045881200817,0.631353737467347,0.33510798541576736,2.451201005060431,2.4138865892477956,70879.36103450324,32634.63679462591
144,85632.806640625,63445.0,"[14,20]",2,0.4847488913301097,2.818069585686173,2.14177454449398,1.3016431741186074,3.4471548725317835,1.2642727073287683,0.16838753866905032,1.1762001373506972,3.7160932682832404,0.616923933700151,0.1708903814558469,0.13748001906608964,2.6384023013417597,2.2155273002332048,66829.12423062162,18615.264380571905
144,18776.810791015625,14482.0,[6],1,0.5452311798829699,0.12457374162176071,-0.10338898820115627,1.1812493059304097,0.18430254332336116,0.5979873786386389,0.051396310416305546,3.500275223552144,1.1906013838386778,0.44486533069319756,0.24610242897609513,1.4193070073821643,0.7909820949731409,1.4947282045107289,71230.79232186943,14455.499545708155
168,102761.83416748047,96002.0,"[1,16,19]",3,0.3454889521221891,1.0213528213470369,1.4559214927852255,1.4902787567374998,1.8056035051048593,0.3225900371174073,0.3403059603229375,0.7548840643056547,3.5034840760475583,0.7623919121845181,0.30023551266742743,0.1860226669389734,1.4289949872141432,1.1127972128825838,62613.12440220627,23858.8271827732
168,59818.10314941406,39327.0,"[5,15]",2,0.14257371073092773,2.3416813610213243,2.2671529360231495,1.4737080818208148,3.459821710913238,-0.7032247954256248,1.2871416067916281,0.8756628002686879,3.6460014646247125,0.554359953447613,-0.02677364325531073,0.18673983244873094,2.4432411681950987,2.026791553401885,67822.42521110193,20851.904894546427
168,35938.6689453125,26957.0,[10],1,2.0008221925509373,0.31614639162436875,2.002924548848029,2.664528951563413,2.194050816786945,0.3665738424362557,0.7251667235476913,0.9468384290836513,5.266953127601473,3.2540313919886605,0.6450868296929868,0.33630584633856575,2.4816336009990603,2.361329073296756,72815.37153892053,37549.180073789496
168,23548.267517089844,19152.0,[11],1,0.22250890313132698,0.3493771538019188,0.9410970997202477,1.0068699321421706,0.6596226526369429,0.15820006345420978,0.23526286530133333,0.642043512902402,1.176096364384772,0.37547666549548364,0.23324030423865372,0.268126157802846,0.6127931760344912,0.5974132902096183,65752.99251203693,16028.172228440651
168,61351.20166015625,39943.0,"[14,20]",2,0.501735375741186,2.6578269639438687,2.139094999378735,1.3759917149906915,3.3883052591772187,1.2642959061273011,0.13533595835461432,1.0975745449797447,3.539129596761741,0.6844137030636067,0.1823760083782413,0.12033277046965385,2.5021322749157955,2.0390673485735156,68154.54092427836,20342.045470103836
