time_in_hour,cumulative_size,size,pcore_ids,pcore_power,AF700 CD48_[R 730_B-A],APCCy7 Ly6G_[R 780_A-A],BV421 CD117_[V 440_F-A],BV510 SCA-1_[V 525_E-A],BV605 CD11b_[V 610_D-A],BV650 CD150_[V 660_C-A],BV711 CD11c_[V 715_B-A],BV785 B220_[V 780_A-A],FITC Ly6C_[B 525_B-A],PE CD115_[YG 582_D-A],PECF594 CD135_[YG 610_C-A],PECy5 CD3-CD19-NK11_[YG 670_B-A],PECy7 CD16-32_[YG 780_A-A],PerCPCy5-5 CD45_[B 695_A-A],_FSC-A,_SSC-A
-1,0,0,[],0,0.0,0.0,0.0,0.0,0.0,0.0,0.0,0.0,0.0,0.0,0.0,0.0,0.0,0.0,0.0,0.0
0,105609,105609,"[7,14,17,20,23,24,39,42,54,56,59]",11,0.3278795088865567,0.17581670563114393,0.5021297406281806,0.5831069436127598,0.37477030829758284,0.2416300070353814,-0.0008446229582728115,2.4739093856394927,0.8931475400865462,0.4042619313789545,0.19146421341930475,0.9814380274976611,0.6742059388593776,1.1752833843611823,69618.68174113941,14457.356323798114
0,52367,52367,"[52,53,60]",3,0.19251228495043549,1.7933318180915743,1.8323034763878003,0.7180576124085856,2.5873216053430697,-0.28712469687016906,0.46350663263124137,0.7088950525140039,3.8296075033895387,0.585348960967787,0.09231251026407916,0.20415633790363985,1.9758982169496107,1.644956672656449,67930.41663643108,20059.077816182
24,130402.125,117426.0,"[7,14,17,20,24,39,54,56,59,61]",10,0.31939990335376156,0.15768997476268298,0.5578771150383761,0.6745998620967613,0.31803004190882644,0.2813265785373471,-0.008652189330690785,2.4422747287122393,0.889897509700284,0.3787664597921666,0.17620365258521575,0.9613153103064813,0.5988866014798478,1.1846192884960618,72552.61117869051,15990.352488504328
24,10497.25,8722.0,"[14,17]",2,0.3837702653790247,0.16587896026340587,0.67475729098097,0.6799534032246473,0.3690513630593748,0.2636988126533042,0.0024327897068334714,2.5883257053871276,1.206632573578795,0.43395640036676253,0.17812261550644148,1.0248372743337548,0.666170536402393,1.3413940984424455,73392.21910500372,17095.959417942777
24,125721.25,110945.0,"[32,33,34,35,36,37,38,40,41,43,45,48,49,50,52,53,60]",17,0.3897419748650275,1.50108156377601,1.9883274206578148,0.8400466313143209,2.411062194765201,0.2199744628622835,0.21959650770952743,0.839839655223368,3.925494715768026,0.7103621979965619,0.1592625012030573,0.21576458866639314,1.8396831646221359,1.561420483855152,69603.24145679429,25723.206092844164
24,60392.375,53112.0,"[33,35,36,37,38,40,41,43,45,48,49,50]",12,0.4734928628096655,1.4960395857506885,1.964977184750151,0.8627676902899584,2.2960990830796066,0.6873655527643152,-0.05255452143378658,0.8889087420183395,3.79778969865608,0.7595905942161586,0.2389102461631154,0.21988735688694128,1.8002294694114962,1.5368172589503215,70171.44068270212,27033.081974338522
48,129241.28125,114120.0,"[2,3,7,17,24,39,48,54,56,57]",10,0.30651011949307017,0.17853896808488479,0.6425247223359545,0.5438930863254559,0.29228067845316374,0.22087268659068093,0.03006454583239604,2.0249756727965824,1.0444676453046497,0.37298537323806713,0.1683832806671468,0.6448488726081862,0.5837447355036781,0.7683561803884991,67601.15839535592,16861.78878700956
48,22899.75,18682.0,"[3,20]",2,0.1836408079673404,0.06649631992708338,-0.1961964496378208,0.9613435169645625,0.20637804987773123,0.37934775116540154,-0.07836092884268586,3.934528370970204,0.7347823286109808,0.3081339124096675,0.1590883837180046,1.6156279048174627,0.6916668796916535,1.9165470981792805,71633.20324457683,14014.33491631992
48,14044.640625,12843.0,[17],1,0.2305845413920118,0.15148502083536464,0.7482824455970185,0.6388755039622471,0.3818399230812046,-0.12116971408022081,0.15861221552150484,3.142953308975735,1.1734103380493286,0.31253857172832,0.13389947535925506,1.1149531889521906,0.6734316684678495,1.3869723450760212,70340.07999047654,16529.072775758374
48,82668.34375,70016.0,"[23,26,30,33,35,36,37,38,40,42,43,45,49,50,52,53,59,60]",18,0.22607665696020618,1.3660682613084556,1.630768187973826,0.6695397536267889,1.922749311214194,0.16873857596809283,0.18622750819974065,0.6299997900806216,3.5639412621206312,0.43965893526844846,0.1569253793594334,0.1513087498524781,1.4528994743780412,1.0405430006114404,63087.36913578244,20474.56498122948
48,25082.5625,17606.0,"[30,33,35,36,37,38,40,43,45,49,50]",11,0.3799993727969686,1.3390173824320133,1.7101009297133722,0.7393829485960199,1.8752130360378652,0.7648863762617659,-0.19670715142804163,0.7740034474479245,3.6037952075346023,0.5670649560389326,0.2471214634357608,0.16450718305919876,1.4468465139651312,1.1451375794899854,65346.87327102244,22766.422848542596
72,226595.16015625,201316.0,"[0,4,5,6,8,9,10,11,13,16,18,21,23,25,26,28,30,32,33,35,36,37,38,39,40,42,43,45,49,50,52,53,54,56,57,59,60]",37,0.46462260137324796,1.3457463385335813,1.598249412841461,1.0409525410226346,2.069774009914647,0.3621889391661599,0.09475118599146759,0.7407107554199439,3.411945860250596,0.7141373878036993,0.32061623459523947,0.168049946505333,1.6315611159178878,1.3602173273114575,70060.31057902156,27043.50071687077
72,136178.46484375,124998.0,"[2,3,7,17,24]",5,0.25346653020820087,0.24465744640561304,0.32729648589417293,0.6704308108102999,0.3441624625141704,0.22891640524799373,-0.03165146857394463,2.558894838140554,0.8583759817635249,0.30337133335367494,0.16011346686629135,0.7713294864177314,0.6495459723191274,1.0205583899194772,70805.28551495496,17540.510719633396
72,14272.46875,11410.0,"[3,20]",2,0.21632738407861551,0.15534770512503604,-0.2250887037289302,1.4726402821744689,0.2744020535663023,0.38935074691221727,-0.11051680481228665,3.9819482413574168,1.0014785137785744,0.38437255012997396,0.21397323850372718,1.6278818087563218,0.7963726160919028,2.1543781319851525,74962.36737249831,17199.287947293516
72,15931.1796875,10978.0,"[4,5,6,8,9,10,11,13,16,18,21,41]",12,0.6883132798650249,1.4815744536480375,1.9753226823508556,1.0733077201405985,2.519887365707166,0.7707767999890622,-0.09128420928361303,0.8116025742567716,3.9011789936343733,0.8975287926343071,0.4158426127700876,0.17325592454851257,2.085076381426884,1.6136347575298253,73142.27480211515,33284.08420790412
72,50623.369140625,40114.0,"[25,28,30,32,33,35,36,37,38,40,42,43,45,49,50,41]",16,0.5668885392838843,1.6278370105906244,1.8892332564086076,1.0959994849179409,2.7158363731256396,0.4480246122275897,0.03661506793254432,0.8140776600366957,3.922089706358054,0.819740553169786,0.33798842315005073,0.15389438831713886,2.1121565278296153,1.70254142644035,74268.43133071603,30437.697866269922
72,14045.40234375,9061.0,"[26,39,53,17,24]",5,0.291472899738658,0.23146451109112798,0.48148341064162503,0.999599043649182,0.45086966102423753,0.05513978046419332,0.23276201828056475,2.9558794335369702,1.4556109401874164,0.39409023378855135,0.18873087449004355,1.051368747301651,0.7330601064188326,1.4872975523629584,73425.30974799079,19119.672272649233
96,139567.0380859375,116432.0,"[2,3,7,17,20,24,54,57,59]",9,0.4504731688011927,0.2788950114664335,0.6182569385541621,0.9387919510210749,0.4506422539503241,0.26132657314112495,0.14424419312559156,2.6243353881889364,1.0104243650177982,0.4682268486695925,0.25871030666044836,1.0565628279156767,0.7506951940185028,1.2342443317887541,70989.65743219537,16545.720227987153
96,796.02197265625,745.0,"[3,61]",2,1.0532349948685888,0.2129213816852369,1.1616430666881148,1.770003053899607,0.6846298802615296,0.4883250245624464,0.26143383257537556,1.4003118314930267,1.0233934677546994,0.8974766046644299,0.35000109312849004,1.2188774143252592,0.7576594281927408,2.492220490177907,78840.95583200891,18604.76401638272
96,128535.2880859375,117229.0,"[25,28,30,31,32,33,34,35,37,38,39,40,41,43,45,49,50,52,53,55,60]",21,0.46007440204746564,2.0882551485278444,1.980949373093169,1.1943131969724807,2.9386280012900703,0.33230343850601374,0.5297828611364301,1.1066694872037366,3.765952876053349,0.7193580985984439,0.23360333898244345,0.22157899746525533,2.293142301873639,1.9842321659607796,70578.81659811402,23584.117146331693
96,13211.546875,13105.0,"[31,36,56]",3,0.6266611522911765,2.0276019956528835,1.8938718595609942,1.240804616815077,2.615895123908102,0.9882478788601328,0.1710194743409339,1.2028659021690573,3.375243291899758,0.8174078719119969,0.34938287073349983,0.2557145354014394,2.165456146521662,1.907790218716981,70523.98829267494,23860.673916874322
96,36665.7744140625,29240.0,"[28,30,33,35,37,38,39,40,41,43,45,49,50,52,36]",15,0.5347737280982874,1.6825191726503421,2.0015724250732796,1.2110446739195089,2.697011117830186,0.32711107713475074,0.47710033592099244,1.072720552282863,3.7879100365738627,0.7558844058661826,0.3010335973102012,0.2358363454869864,2.1146791731390633,1.8232898987206563,70761.03238414205,25503.743100850777
120,109178.64749145508,93882.0,"[2,3,7,17,24,30,54,57,59]",9,0.4036931662956502,0.3451250511645907,0.8867528611849518,0.8861199259591466,0.517467282857154,0.2568334127902616,0.1696102013418015,2.1991323301299115,1.0819897580003603,0.4643423741269992,0.2970073288316768,0.8468728020600105,0.7040510270459978,1.0780794558561417,68958.04854193883,16333.95681729494
120,19166.989715576172,16918.0,"[3,20,61]",3,0.39405492358155936,0.12813008835920003,0.21378333639792313,1.5660201073072142,0.4448364066839958,0.3210001957790183,0.1832776758569601,3.5245852908775293,0.9987178379962348,0.5242061297450108,0.27953833476829804,1.6838735874927107,0.7834601912591438,2.1637540922135816,72008.7334640091,14406.37062047811
120,200125.80618286133,184059.0,"[25,26,28,31,32,33,34,35,37,38,39,40,41,43,45,49,50,52,53,55,60]",21,0.3990398199835363,2.3053852102958032,2.1776483055420583,1.254016968708727,3.186702138004972,0.3865633783024196,0.5703918986361249,1.1639680480426722,3.8164217196698558,0.5900784182862774,0.21719093638245468,0.19644400374277182,2.4434130361160533,2.1305676065734933,67960.59230074612,21601.5961407096
120,10119.345581054688,8468.0,"[26,31,56]",3,0.5576444611730162,1.814862351234435,1.9445488678647203,1.2426177661793893,2.499288057542795,0.7873056084264027,0.24905300761313498,1.1915288187516788,3.3898296614061616,0.6917581512281509,0.3525408593359707,0.25808505874361753,1.9882857578405195,1.833817045318286,67128.09142731244,22094.307330365693
120,32533.719451904297,27951.0,"[28,33,35,37,38,39,40,41,43,45,49,50,52]",13,0.67718717775039,1.531317428947439,2.376604850908651,1.4213299709018137,2.9997889180608683,0.6293848750724893,0.4585140756179147,1.1928720109083732,4.009020429348029,0.7600238706271675,0.36744992638154317,0.2244113720727856,2.277439063794657,1.9757822732009995,70756.64472255658,27420.03849125068
120,11495.136505126953,9843.0,"[17,24,30]",3,0.5131894777693182,0.2990437014174443,0.9634747238908563,1.1139071287449474,0.5506077677917043,0.24272228309055688,0.21449606594588566,2.792551017900198,1.5007532453605892,0.5411946825356798,0.3214786685199815,1.1544586366824103,0.7998203182874136,1.5535517131300778,70475.50447680113,17605.25473927913
144,97310.30026245117,84446.0,"[2,3,7,17,24,54,59]",7,0.4759315654167193,0.2404365562074391,0.7469221758569509,1.3266620776552576,0.4269167316710769,0.2621836380555862,0.24345855743300904,2.658751105676955,1.0286916632958638,0.48586915974204503,0.2712558539204877,1.1370022185209923,0.7675830886093152,1.2826294244394938,69519.7074152285,15589.917744298878
144,25776.000915527344,23592.0,"[3,20]",2,0.31251260194582176,0.04996745258160695,-0.027786250190431794,2.192701924694567,0.3957562138217159,0.327262310512614,0.3015144462743602,3.935185358089643,1.1524185037658765,0.5220525689293424,0.24787513999765132,1.920938754883121,0.8463824629105429,2.1788141832092323,71926.75976760138,14091.93028384539
144,6082.704257965088,5481.0,[17],1,0.5261069093469115,0.19683801619644736,0.8320291892807523,1.8369120107077697,0.4928746140083544,0.18097830043480911,0.3821854168368448,3.4192712315737435,1.6300657096218227,0.568161374353695,0.27708659196304675,1.5797796130420925,0.9157793570390941,1.8836131380310472,71837.6662576985,16899.17812676806
144,174338.173122406,149176.0,"[25,26,28,31,32,33,37,38,39,40,41,43,45,49,50,52,53,55,56,60]",20,0.41222862669490246,2.293926207780695,2.0911646453910406,1.479127029263724,3.1560973732593616,0.39473758023575267,0.6923572055201292,1.2000932460917895,3.6668312859031063,0.6849677232251618,0.14426281572760313,0.2700605101749597,2.4209478072925528,2.1354375566474837,67516.43915012336,20569.856438407212
144,4096.734897613525,3348.0,"[26,31]",2,0.5987152883712996,1.9008347459000037,2.170086352369602,1.5965550734397356,3.0175078430340707,0.9621866842845963,0.49256330600451603,1.2779135182054735,3.7102779096997227,0.8753867071683138,0.2840920175729891,0.2989986392089682,2.3300072671036363,2.0705680945178906,69277.70571390525,24635.693265609512
144,15384.319564819336,11318.0,"[28,33,37,38,39,40,41,43,45,49,50,52]",12,0.7451930354154461,1.4420988086241429,2.3762890210808965,1.7169918058258493,2.9906751047839104,0.7053511398801098,0.5801522115729298,1.2599311663330752,3.9672219897671446,0.9026382999251051,0.33270482198715445,0.3101363905266368,2.2842567821805266,2.0383124299340016,70418.11934569274,27703.581078902258
168,74272.65324640274,61975.0,"[7,17,20,24,54,59,61]",7,0.3102948817162001,0.21669907342047656,0.5558761929445173,1.8372884413072939,0.5208826461840368,0.33248953012119387,0.3072260741272874,2.9386283911797406,1.2250050052955541,0.5279487944658875,0.2676376192573353,1.2414963277286046,0.8407249659440733,1.5996960790181267,71023.7002612686,16899.1479963331
168,236089.5082616806,214206.0,"[21,23,25,26,28,30,31,32,33,34,35,36,37,38,39,40,41,42,43,45,48,49,52,53,56,57,60]",27,0.4277907047878988,1.448416343626456,1.7711287240002709,1.6646801150848156,2.3401530377821014,0.38113950635707394,0.5321208510358484,1.0769613275881764,3.4587944467388323,0.8359621936908995,0.27241833724726483,0.28012990247520153,1.8175666856647257,1.6063737770850457,67521.71116937636,25121.529140134495
168,11828.171898841858,10798.0,"[23,50,55]",3,0.6582464259001022,1.123875120195784,1.8931766380042334,1.897383727342865,2.3268672314418466,0.8618554931911768,0.4317721111009809,1.2088186386192428,3.7572198421262883,1.028243809264851,0.42177595598765505,0.3215891230585445,1.8184405169507545,1.6510813530691877,70387.14026234209,29448.0352550714
168,2951.0918622016907,2439.0,"[26,31]",2,0.6903397698473417,1.6649723594506693,2.3035872676127576,2.0203529724137836,3.317166276296176,1.0289062092006949,0.8950786501960657,1.2984927657967518,3.759378435541803,0.9441145877925264,0.3058164131977521,0.3243741017380998,2.361960081837058,2.0179213909302858,72583.17644110497,28780.732693847513
168,37244.62670660019,36647.0,"[28,30,33,34,35,36,37,38]",8,0.5124443570902935,0.8294862668289036,1.5168510481867767,1.7692648800486244,1.6328566272976053,0.5711128344460172,0.3285746010490538,1.1219718867759156,3.2478753106064517,0.9311429893356485,0.4062581451048928,0.32496050280523536,1.4136049920328686,1.3424638529634145,66356.34442609988,26894.90631488149
168,42174.99126338959,40553.0,"[40,41,42,43,45,48,49,52,50]",9,0.5751319142388167,0.8799109777578993,1.6720302973227859,1.9286978813790543,1.8850709517443014,0.6698635045741912,0.3374809464303681,1.136622145266557,3.884511183824206,1.0493313834621287,0.42861684488117424,0.29707125238985965,1.5971870798291414,1.48569619297181,67955.80229964986,31108.255050067823
