time_in_hour,cumulative_size,size,pcore_ids,pcore_power,AF700 CD48_[R 730_B-A],APCCy7 Ly6G_[R 780_A-A],BV421 CD117_[V 440_F-A],BV510 SCA-1_[V 525_E-A],BV605 CD11b_[V 610_D-A],BV650 CD150_[V 660_C-A],BV711 CD11c_[V 715_B-A],BV785 B220_[V 780_A-A],FITC Ly6C_[B 525_B-A],PE CD115_[YG 582_D-A],PECF594 CD135_[YG 610_C-A],PECy5 CD3-CD19-NK11_[YG 670_B-A],PECy7 CD16-32_[YG 780_A-A],PerCPCy5-5 CD45_[B 695_A-A],_FSC-A,_SSC-A
-1,0,0,[],0,0.0,0.0,0.0,0.0,0.0,0.0,0.0,0.0,0.0,0.0,0.0,0.0,0.0,0.0,0.0,0.0
0,138237,138237,"[2,4,5,7,12,18,26,31,32,33,40,41,42]",13,0.17287921774143358,0.24176371440948663,0.3501143569140413,0.2915430248445388,0.27192829682048475,0.22747979417612782,0.2532380090882344,0.4724265997747919,0.19188302061103238,0.11009051319015123,0.2516859781668044,0.20508761164439257,0.15343971917440685,0.2746474630654689,0.19751583637619163,0.054493357403380044
0,149142,149142,"[9,10,11,13,14,15,16,17,22,25,27,28,34,35,37,38,43,45,46,47]",20,0.17917739520046605,0.39023689542720885,0.4968936953810133,0.3079285529942064,0.4967079048837085,0.2405077949466349,0.26498224703325474,0.32376753774770023,0.5679113533761119,0.14593076166871957,0.24906625145804914,0.10051587976962001,0.3249934564795545,0.37293539966580413,0.19470251271521336,0.07909902126392274
0,15223,15223,"[4,5,7]",3,0.15983941764954154,0.26343568563066644,0.3361952103118513,0.32300566808745446,0.31222507603575955,0.23570178605811923,0.25355679836098455,0.5123005999367222,0.2766968035846539,0.1163619359507983,0.2551588380843401,0.24911607191040946,0.19249347709914627,0.4049002959794837,0.19413081496249818,0.05369724428329408
0,33828,33828,"[10,11,13,24,39]",5,0.23650713394876433,0.34294592133384005,0.4791492491770612,0.3104253855086561,0.4640689747890925,0.23424328734116515,0.2654496995389147,0.32478684750198883,0.6379480442485812,0.24913035407757375,0.2588158863983338,0.10165151498976278,0.3391040006680351,0.38581387218678975,0.20024204541777724,0.08646840131309629
0,16254,16254,"[19,20,21,23,29,36]",6,0.3206927942572109,0.2635259031628969,0.5128046467289957,0.3673821984053286,0.42994108255621,0.36056057849237183,0.2231779604353139,0.33780229189360045,0.7181511957523528,0.4304179255817301,0.3083629853252233,0.11660919128144204,0.37410878887671956,0.45095206790546716,0.26962621966522643,0.16795975001015118
0,7378,7378,"[16,17,19,20,21]",5,0.2679775980153659,0.27980676827012363,0.6060009834284604,0.3853008115607569,0.4610368700403545,0.3750341574966514,0.22222493769818905,0.3405347315550012,0.6662408622650936,0.30228762872206655,0.31130704368738676,0.1193324849803982,0.35108923815951465,0.424944193784785,0.2743491898489903,0.18572857931516415
0,7921,7921,[18],1,0.17802694715619838,0.2411604340221082,0.37995414481922685,0.2845200175781751,0.2730247620122218,0.22413619236363894,0.2513163756990582,0.49634399716033667,0.21578359635854863,0.11506691506378972,0.251292483713381,0.21828926584730568,0.1540385835710511,0.2883649029749677,0.2033670659671649,0.060604162145250474
0,18062,18062,"[31,32,33,40]",4,0.1864314935114846,0.2505976642007711,0.39318064019402804,0.30270427519942894,0.2875255640911843,0.23106400438039557,0.2571490120076333,0.4540541183363753,0.2418636036750338,0.1254853240131883,0.2588987757739294,0.19960515218448902,0.16753678298352795,0.30572647051411495,0.19927900132178808,0.06431799177007114
24,191594.0,156582.0,"[2,4,5,7,12,18,25,26,31,32,33,40,41,42]",14,0.1721456688370574,0.2413758891738718,0.3582459850840598,0.30013985706995844,0.2699660191908924,0.23235825180482392,0.2534766369452179,0.4646380109381598,0.1979283780806522,0.10843709380081512,0.25032189593362764,0.19865728468294813,0.14642004599556255,0.2727328527335364,0.2071826124684764,0.06072143167568222
24,108.25,70.0,[5],1,0.25979018052908043,0.2581410005412802,0.5212851983877579,0.401598742691792,0.31443734968392534,0.3491672793468067,0.24978317717885437,0.42533907742534593,0.33935521308483174,0.19691729331468033,0.29699366252802323,0.183492661483949,0.21433098448933655,0.4343401008700635,0.2489315425292493,0.12301882384778087
24,168787.25,131979.0,"[9,10,11,13,14,15,16,17,22,23,27,28,34,37,38,43,45,46,47]",19,0.18340278454132497,0.3754683153174559,0.5057989543155385,0.31568864175521855,0.4894136086535078,0.24456988562711096,0.2659319954919904,0.33017189769305916,0.5786833860302515,0.14808420682125972,0.24684821260237882,0.10211344900371208,0.3110350727466449,0.3643266474750783,0.1966985913066128,0.09230337235827392
24,9229.25,7752.0,[4],1,0.17340283597950687,0.30904930379810264,0.4430380845283207,0.31352292396322845,0.37903825678902053,0.23138225334000953,0.2716980212104855,0.33898116869805944,0.431862454042987,0.1254983775938143,0.2541703799426259,0.11241490179895763,0.2082847940011917,0.25642216409056107,0.17001268980801154,0.07550923318639953
24,37474.0,29039.0,"[10,11,13,24]",4,0.2345382573792636,0.3391954671688339,0.49981620342164995,0.3217250750741958,0.4610256504463879,0.24103231619123228,0.26792414164269096,0.33582471294429217,0.6371513377153147,0.24183417631506404,0.25739606470574317,0.10431381126130544,0.3286050552829382,0.37694948658288274,0.20447735732760294,0.10623951484680175
24,15763.0,11653.0,"[19,20,21,29,35,36,39]",7,0.32178144256244295,0.2670335121549446,0.5387951683226436,0.37453560993202967,0.4293183984587364,0.3628582973642898,0.23152690964190328,0.35456279813224845,0.7198888084597631,0.40554343501092965,0.3023255173885303,0.11832322668749028,0.3619759728791769,0.4426676384425228,0.26313470897173646,0.1787717459269537
24,10698.5,8854.0,"[16,17,19,20,21]",5,0.29731718195576146,0.27989094210734683,0.5646716794104317,0.3637963059190332,0.4639533921901624,0.37361613256018295,0.2252695510566389,0.35694664527127096,0.7390836844574424,0.326933178814287,0.2894778718647352,0.11239921423924412,0.362339831585153,0.4227831027877058,0.2508632758668652,0.1681811870490694
24,9243.0,6810.0,"[18,25]",2,0.1826583784859199,0.2548524237847845,0.4012698243127847,0.3041854187802305,0.29210409386060515,0.22917737799013804,0.259853545453203,0.4586029430722385,0.27166564810497884,0.1219756765435089,0.25593350622509475,0.1908389124543149,0.16624236290783198,0.2964454014980371,0.205762100338574,0.06979257428824188
24,26249.5,21734.0,"[31,32,33,40]",4,0.18854225809383873,0.24997571189341297,0.398830164110327,0.31357105587110096,0.28823491199001927,0.23679740783069902,0.2602269389651632,0.43329575159862865,0.26493277635809914,0.1242292191128477,0.25645275406585416,0.1891918131369715,0.1600627865179205,0.3034966970360029,0.20599756575557923,0.07008494608233606
48,269358.25,211326.0,"[1,2,4,5,7,8,12,13,18,25,26,27,31,32,33,38,40,41,42,43,46,47]",22,0.1731195278876742,0.25938690809852627,0.37037095312746565,0.2978186703489738,0.2938365654645823,0.2390860016805724,0.25447297014831854,0.4305624635724327,0.2857177473433896,0.11362206534042482,0.2501623022933273,0.1650130773295394,0.16527076403954077,0.24632146401515087,0.18793641447516643,0.06528446956827044
48,122941.4375,85158.0,"[6,9,10,11,14,15,22,28,34,37]",10,0.17085600984740992,0.4083877435326896,0.5179247904801275,0.3022598069094046,0.5245684910849698,0.22159066424944054,0.2712544906694527,0.3160533759432853,0.5799986038358774,0.12050973177503295,0.23897542498629706,0.09014960097911058,0.34509763789553594,0.361934020130816,0.1844446268360798,0.08383123646025949
48,26199.9375,19814.0,"[6,8,16,45]",4,0.20337452090898273,0.33058785585275213,0.5417452010712689,0.31777994253153713,0.4954761107003481,0.2900699633908796,0.2492909652810642,0.32698512961445975,0.6218907795010236,0.12321238486574394,0.2507403454727108,0.10431092083743207,0.31325199310036456,0.3492340689742489,0.2062903246663618,0.10381371892762394
48,648.0625,621.0,[5],1,0.26915930781432246,0.26875288993724855,0.48721638971783027,0.41927296146014903,0.2689622054231965,0.41591188549359026,0.20882016288770772,0.41827477590758255,0.3403277926112918,0.18191680162887036,0.3232859222811359,0.16261498346122547,0.1974421094496228,0.37712356794539537,0.21228631878472293,0.12141650125878373
48,25599.625,19494.0,"[10,11,13]",3,0.16923735993048,0.40729423751263455,0.4897322410728778,0.2993690187312588,0.48121800385925695,0.30539950062156096,0.2463538936353421,0.30341426778434716,0.5450599114895408,0.1216886739702992,0.25024950972740395,0.09030319852696736,0.31552182611953106,0.3277871523421321,0.18006516258144403,0.07824132131731759
48,3063.75,753.0,"[18,25]",2,0.18142316693194502,0.25310786959046594,0.40868781030182316,0.30387847550286834,0.28970178092293225,0.22197292621365905,0.2584817405451221,0.4548161411809585,0.2645139075077995,0.11995066694869982,0.25483370394686394,0.18786411741962014,0.16357818525206594,0.30028053105112085,0.2051186736610901,0.07183603843137218
48,39467.5625,25495.0,"[15,22,28,34,16]",5,0.22213742834697034,0.3320482717613238,0.5863366713572317,0.32112595151850615,0.5110185487778597,0.3162452247603943,0.2430896851920319,0.3317700506214148,0.6403755770751272,0.14352747262425894,0.25354788728946837,0.09308967348333222,0.34749616710397524,0.34302807725621765,0.20016938393889605,0.11949513026763223
48,22863.875,18507.0,"[27,31,32,33,38]",5,0.2211740805684279,0.2554521647986604,0.40082480191064124,0.3537799595771174,0.30458791460266826,0.2684612457533194,0.2742008447867329,0.3794756936879618,0.45128270855887437,0.15746661823685662,0.2672284148525052,0.13782691599809788,0.17881019283580082,0.335355599510146,0.18043543280892266,0.08080446659130958
72,359413.921875,281871.0,"[1,2,4,5,7,8,9,10,11,12,13,18,22,23,25,26,27,31,32,33,35,40,41,42,43]",25,0.17203835000835738,0.2970874294306023,0.3863221336754184,0.31756545729392605,0.3457778778207786,0.23677570927500616,0.2552752615103495,0.4094813777326359,0.32507063301854133,0.11689635544499366,0.2545295014241806,0.14625953614193538,0.2030815775997073,0.28400694861623427,0.1983229267265994,0.07891554748379782
72,72635.09375,48769.0,"[6,14,15,16,28,34,37,45,46,47]",10,0.19737595362838498,0.3697117408358125,0.5008385927126076,0.3416749039643283,0.5023061740267487,0.2356042877883219,0.26606631691728694,0.33241949611547766,0.5897930573640545,0.15592888751130196,0.25991227565748376,0.09991549127942378,0.3308279936433426,0.3755989918080648,0.21420601327977748,0.11221128341471863
72,30343.53125,21459.0,"[5,6,17,19,20,21,24,36,38,39]",10,0.3198635897582549,0.27373191061934027,0.462020101671156,0.407840784072094,0.43020023803011936,0.28029987196582445,0.2510073601013801,0.33968819881518214,0.7163343952656686,0.3826931723953601,0.29499166839404783,0.11446735005270357,0.3635738962338074,0.4447525371895657,0.2595566467895486,0.1682322638018901
72,7491.515625,3746.0,[7],1,0.15840288266450428,0.2329362033635186,0.26741595342015245,0.35283719350010145,0.259738390270442,0.25048728947294413,0.2439904139315604,0.6155011322307897,0.20672440505811282,0.10647027076145128,0.24945310728954773,0.2972805805299336,0.16461763111832123,0.4393409556798013,0.21551888949293138,0.05500692435901142
72,14603.40625,10347.0,"[10,11]",2,0.19238619284831265,0.38930338304342865,0.4824711986559172,0.3356059503756383,0.49422462413249835,0.3052665885941723,0.24361195768328164,0.3249781095920592,0.5559201163444336,0.15049945489758704,0.2659876063753866,0.09797797207276253,0.3286581840017406,0.37529930146172863,0.21358481531419654,0.10868968498788316
72,2298.9375,1533.0,"[18,25]",2,0.18349025861875332,0.2588647238536525,0.3930123047313762,0.3224354984526262,0.2954752074797579,0.22432780370762503,0.2618043919250188,0.46030613847043655,0.27096037576557125,0.12080553348092078,0.2571361517990525,0.18082566150161072,0.16882287779330007,0.3082941400268977,0.20785977374509002,0.07690371228212248
72,23685.671875,12595.0,"[22,23,27,31,32,15,16,28]",8,0.22070246351142114,0.3195851637437116,0.5047958202349409,0.35713074618283946,0.43342165666194443,0.3146338502437786,0.24724493458301608,0.3525951844688013,0.5495704054494807,0.15767703596657326,0.26975498945705184,0.11374978054548364,0.28297963240755963,0.3521018795121786,0.21261983434619394,0.11745520632251213
72,26260.25,18416.0,"[34,17,19,20,21,24,36]",7,0.31032314445642295,0.27503041175328,0.47953612429747644,0.403385912307774,0.4473090326210274,0.2548576342882935,0.260526237424076,0.33816295274318897,0.7137392024513548,0.36271314089093404,0.2907760018081177,0.11312969594016202,0.36528913074948793,0.4396605906600099,0.257563009668209,0.16696432919793155
72,8622.71875,5038.0,[40],1,0.17263891877535859,0.2516135083792339,0.358730832709846,0.3149814127691997,0.28463915597070555,0.22348535055540864,0.25649817760445864,0.5087594880425,0.274910019951701,0.11372341203055265,0.2523172698391164,0.2011647152307941,0.16895880789211581,0.31001395313635727,0.2086818848975155,0.07674291765415947
96,166923.88671875,117256.0,"[2,5,7,12,18,25,26,31,32,33,40,41,42]",13,0.182371832320386,0.24734508917806097,0.34536131914223256,0.32423505224405674,0.275243635558616,0.2287044113065629,0.2633678670059412,0.49729659650264063,0.19168821489212348,0.11506878399837069,0.25556092227309346,0.22029142047498304,0.16023765641995752,0.29333374052950933,0.20490082584850713,0.06091385407632877
96,198923.171875,142930.0,"[4,6,8,9,10,11,13,14,15,16,22,23,27,28,34,35,37,38,43,45,46,47]",22,0.19122798672863442,0.40569680357661714,0.49586575206438044,0.352069898824701,0.5087334408180061,0.2451137259545883,0.2936893366382178,0.35107014983946394,0.5459275462770257,0.14688552043735387,0.2569192975465888,0.10420436356590544,0.3383259864542254,0.40702946816732183,0.19859367720295712,0.08900602572668319
96,647.50390625,607.0,[5],1,0.26750197489719363,0.2824892555400453,0.49041995346266287,0.4321172885235757,0.3301250017114196,0.3260560445790498,0.3014251167631435,0.41234673713404524,0.35192817626616524,0.1944151731443684,0.3061806600305118,0.17827190152752753,0.24559156583131375,0.444019800675586,0.21266778478800527,0.09883911629475095
96,9211.1328125,4779.0,"[6,8]",2,0.18936074081230836,0.39353980768161495,0.48512513666852647,0.3473554086228749,0.48876768102411283,0.27131259253787665,0.2777510608116472,0.343345749655285,0.5388329682001929,0.14699521210606484,0.26428515775149725,0.10282661180949058,0.32006455137425777,0.37891140884108027,0.20207360570274777,0.09631956108289336
96,12629.40234375,7285.0,"[10,11,20,21,36,39]",6,0.21608101692452888,0.38263819424431694,0.5150784400743803,0.3780629525777583,0.5039188345758243,0.3190292724842745,0.27374123360330627,0.34685125134798583,0.5663716407641767,0.21213996545817787,0.2873683892015976,0.11257174787312398,0.3571283039616729,0.4428280422395981,0.24303006497234889,0.14151027768142838
96,2021.734375,1447.0,"[18,25]",2,0.1999098417082638,0.2525910060614386,0.41435006535059793,0.3443447738987052,0.293698133241023,0.2204343678459789,0.2775669299729268,0.4881108341638293,0.2531090152298038,0.13271894960913208,0.2642314701027053,0.22091338436135832,0.17449947251533293,0.3404934142242782,0.21104136938345086,0.07082096527793588
96,36007.41015625,24789.0,"[15,16,22,23,28,31,33,34,20,21,36]",11,0.21910372887843405,0.32973013066589013,0.5336388032281189,0.3732635122064541,0.4800535909495413,0.2765301761848721,0.2888583870590737,0.36049586419336643,0.5483919784569672,0.1712063230713357,0.274267214575037,0.11368315867180802,0.31804067676280645,0.38105884465529805,0.21457807683866073,0.11725042833059791
96,8760.703125,6201.0,"[32,40]",2,0.20226671096961263,0.24805123110661165,0.37958941309992356,0.3454394314126605,0.2850349042808556,0.23103481028320647,0.26932702611026893,0.4918427290827211,0.25737185267903806,0.13006735135148426,0.25988455199805677,0.23808048170685844,0.16977439332016728,0.37169765930357695,0.21662124048087325,0.06847140521817446
120,257892.0205078125,207480.0,"[0,4,5,6,8,9,10,11,13,14,15,16,22,23,25,28,31,33,34,37,38,43,47]",23,0.18260157603755642,0.435211801516527,0.5188498606710664,0.3588532062454946,0.5453330879876492,0.24671937788940873,0.30317436044692864,0.3587868388666287,0.5484850670006581,0.13293619955828154,0.25409896009010363,0.10206532891356816,0.3656340731061414,0.4454730502712456,0.18986183890891098,0.08015271292022312
120,143227.7119140625,104264.0,"[2,7,12,18,26,32,40,41,42]",9,0.17843443545882262,0.24484602631592498,0.35600306688454125,0.3289464818701971,0.272627827632374,0.2283221855288848,0.26593193240489793,0.49140508637440067,0.18432323485728982,0.115219606757723,0.25879358769417543,0.22162552058792181,0.15232468946464414,0.2959539605693886,0.20134438892350906,0.057619390181415556
120,10500.951171875,8372.0,"[27,35,45,46]",4,0.28843593301391224,0.2592150137660458,0.5238997433797549,0.4583858892618616,0.31603150098982896,0.262741274144195,0.32584621323285073,0.4127208006355844,0.5180195011393874,0.19281272001328764,0.3038405221279419,0.14036397686692562,0.22438363488780505,0.435193121051554,0.1751498871568279,0.10245209600496397
120,13892.095703125,10672.0,"[5,7]",2,0.17345247364018745,0.2303392625137907,0.2739465715516093,0.41358890901297124,0.2718540257462719,0.26758017784943816,0.26968817661571937,0.6301551893647511,0.1999694975876674,0.12594431426259461,0.2615957470577508,0.3426807114032676,0.1738723353483301,0.500847048983387,0.21261644663385604,0.05178594532341195
120,31660.701171875,18937.0,"[6,8,9,10,11,13]",6,0.18553184504258002,0.3977694325500593,0.4976332146037878,0.3529051152873019,0.5040002884374744,0.2533698468885271,0.2967914484868044,0.3460699100832395,0.5285306800845816,0.13830967174340725,0.26140075369993443,0.10385368490782045,0.326131052488197,0.3930407809967349,0.19084172023215346,0.08415453598214294
120,2761.43359375,2256.0,"[18,25]",2,0.19905813255149318,0.2503428210284784,0.42664975256066795,0.34566061893878175,0.29101969738368527,0.21635452075260386,0.27578888365930254,0.49626135958965284,0.24551686600994357,0.1312964771891358,0.26690951230516774,0.2342887898256602,0.169109209847696,0.36480874526039897,0.2067616254424178,0.06959596255700186
120,30221.439453125,25502.0,"[15,16,22,23,28,31,39]",7,0.24126642843118842,0.35726737910029077,0.5750793036356034,0.3897774991127006,0.5294304269376776,0.37864042431435546,0.26209222702022444,0.3731029033820126,0.583749612347392,0.172888463697557,0.282446427607015,0.10871573648290586,0.3634791298350936,0.44646934862843457,0.2109000923011437,0.11733813113059831
120,6826.4033203125,4769.0,[33],1,0.184729399879,0.3215700339884877,0.4412794235355018,0.34291532734430613,0.3709515230491526,0.24839056521671904,0.2757922509467337,0.3583147426301471,0.3929465518336638,0.12924261809966836,0.2703035710606891,0.12109476751314682,0.20972766441143115,0.2745444387508887,0.17343384674114465,0.07205987753824002
120,8750.17578125,6560.0,"[32,40]",2,0.20760225180153222,0.24537867857013757,0.39398645415925904,0.3618566310182097,0.2822314866897205,0.23690198431517662,0.2664929978194253,0.48159422858402195,0.24655119387894714,0.13082227430009022,0.26514798893409425,0.24780917245519896,0.16300970289351177,0.40837816102500457,0.21111258762851207,0.066690236667922
144,221820.0751953125,156816.0,"[0,4,5,6,8,9,10,11,13,14,15,16,22,23,25,28,31,33,34,37,38,43,46,47]",24,0.18414051633975798,0.44259718921019653,0.5186272060906095,0.38190574601149146,0.5539701859757102,0.24818807014102662,0.3159466528819692,0.3611291267277933,0.5383140243256531,0.1423378111085892,0.2477774576772831,0.10983277706925072,0.37329631627260434,0.45978104899260064,0.18883607497960544,0.07698340323455866
144,143003.92797851562,107197.0,"[2,7,12,18,26,32,40,41,42]",9,0.18294569164378188,0.23795141180325205,0.34540691582212485,0.38228081680272735,0.2696637965724134,0.23042007484105753,0.2740299244869012,0.5254532481182399,0.1905288296118366,0.11855764326176749,0.25761750827880325,0.2606437547978166,0.16220960498234296,0.3395208728748596,0.20259642334323025,0.05571016730874319
144,882.968994140625,720.0,[5],1,0.2686074942031563,0.2731331970043332,0.49568804662105337,0.49870381149976445,0.31940846820030666,0.3225602887357449,0.33252222371638895,0.42695868471603127,0.3573921354848806,0.19585704075711538,0.3099691228101079,0.2159621811304831,0.23507735403287303,0.4750814669035162,0.204328713958718,0.09569543432620096
144,21981.239013671875,10357.0,"[4,6,8,9,10,11,13]",7,0.19191459668847893,0.3744072982697331,0.49575659941669614,0.37337623151079347,0.4842788957081404,0.2519643812154501,0.30657540857037874,0.343906981973789,0.5102736087196045,0.14721496297958045,0.26202247156395686,0.11265132120337766,0.31233115491708013,0.3774602646211654,0.1849477609136693,0.08148131965916723
144,4071.0185546875,2505.0,"[20,21,29,36]",4,0.32345559247322914,0.27069328661587755,0.5127111392714279,0.48666467606474206,0.45873942356039005,0.3720169344679944,0.26910178430503423,0.3854962361556082,0.6911940758663286,0.37405671158582554,0.33196684942539445,0.1467325232426498,0.37136797008069944,0.5427492663221165,0.2742448680245483,0.18041336817320705
144,3646.3583984375,2956.0,"[18,25]",2,0.1995690329161219,0.24733675196158278,0.4297012164273827,0.3913199026557977,0.2900624280332068,0.20019716654808983,0.29319700151626,0.5271969301799946,0.2463775300910632,0.1367512172335855,0.26292581534820936,0.27588017438662193,0.18240199708811233,0.39054222558764345,0.21181424706635602,0.06892708006330263
144,27915.756591796875,17332.0,"[16,22,23,28,31,33,34,20,21]",9,0.2265594820293766,0.32215978410417134,0.5622815868517851,0.42085292912668354,0.5057057300617801,0.24586683489565642,0.3342524701420275,0.37109683424896905,0.5564467775288342,0.17327914912291295,0.27300330061930306,0.12784666850985318,0.33581561257019915,0.4281272932004681,0.19993915013091101,0.10791037640181307
144,11329.5439453125,9142.0,"[32,40]",2,0.20833547271661357,0.23839678445884468,0.38380699018222575,0.43090514982599804,0.2735164890669773,0.23870654234868413,0.27289903268849264,0.5020715318344271,0.25804440694684355,0.1302429477682745,0.2609883476207263,0.2834768182906912,0.16562409893434488,0.44300437615285254,0.21501680568212464,0.06383823853667103
168,277896.5955810547,218551.0,"[0,1,4,5,6,8,9,10,11,13,14,15,16,22,23,25,28,29,31,33,34,37,38,42,43,46,47]",27,0.18522539259222362,0.374484179510562,0.49062725747021796,0.4010510017078594,0.48755463955864153,0.24962846292688876,0.3041495218283166,0.3513104481739734,0.5127703888455837,0.15916573559582348,0.2578614107543363,0.11089454275887306,0.31134020880005464,0.3752001576081737,0.1887544593873079,0.0922574387034415
168,118134.88397216797,84835.0,"[2,7,12,18,26,32,40,41]",8,0.1679791674346623,0.2363034055669137,0.3339398340291618,0.40508957090290804,0.2724031855789472,0.23493175261859656,0.27805445653067995,0.5248254503287084,0.20286049541522913,0.11763102250961123,0.25570846354677185,0.24598500511644933,0.1612046590245906,0.33697421888564405,0.20394082727944085,0.05834846290812205
168,452.74224853515625,232.0,[5],1,0.2595383086395367,0.27426774280869387,0.4992556614702347,0.5000358375998485,0.3163517900613412,0.3325306634946037,0.33968420720627757,0.4286760564217114,0.3639038049849124,0.19582771155186812,0.3101265990020159,0.2197549817671181,0.2280143261867947,0.4708585037778624,0.21800799347272873,0.10310084075524902
168,27863.3076171875,22225.0,"[1,4,6,8,35,45]",6,0.20384761980772584,0.2994539480276128,0.4806503159631913,0.4311221175132639,0.3854068162786864,0.25526877579594814,0.296059617597061,0.35607141164214223,0.47245788381859305,0.15850013939740576,0.27395970988996865,0.14082648935925732,0.23049711020151156,0.35455369996325486,0.19347694195182094,0.0962501557965339
168,14699.042602539062,13334.0,"[10,11,13]",3,0.1961538429164422,0.37531353652666666,0.5073779573794589,0.3994930471208774,0.49305034533103265,0.2988005473724349,0.2947279736345762,0.33755011436017535,0.49820151180722183,0.16784261994315233,0.265187116674793,0.1099122832871365,0.3223388386577426,0.3709575917558149,0.19783870155509564,0.09700239341366566
168,9837.900512695312,7748.0,"[19,20,21,36]",4,0.3342102912526163,0.2625213818388027,0.5116065591137271,0.5256711181711774,0.4941622507171274,0.40480311311048545,0.2771502725714657,0.37598317338595033,0.7107133629109689,0.4034304184154167,0.3160960897315869,0.13708459008912488,0.37850919675355343,0.5442658520055368,0.254465866372704,0.16844820528622526
168,8794.339538574219,6100.0,"[16,18,20,21]",4,0.22673999944335155,0.29707538905856085,0.5203771942184517,0.4418694986258728,0.46937877428833746,0.3317161436551387,0.3031476801997909,0.4247071659046161,0.4822361239323315,0.19179224226126595,0.2780295079158153,0.167310174607262,0.3053757602723371,0.4351411644968209,0.2306261367508733,0.11864187715552561
168,8976.577087402344,5145.0,[12],1,0.17728440752707453,0.23412224254348687,0.32147607033053655,0.3760118313064885,0.2627724572976123,0.2322997780457027,0.27296390949093347,0.558758478561806,0.20138846885927705,0.11388015131518345,0.2535679152680288,0.25469556330145715,0.1653224470787509,0.334550723048256,0.2070160022900197,0.056502694335115844
168,3463.5250244140625,2322.0,"[28,31]",2,0.2699852431144982,0.27987332415085475,0.5978798612536889,0.4589889650287676,0.39839850653948633,0.27730178164758085,0.31241659223547175,0.3699120403874191,0.5322215507000401,0.2056614824314994,0.30157867361633944,0.14208957466742847,0.2915440089232794,0.3856858749761862,0.19341866083673015,0.13534701450841113
168,14304.813293457031,10855.0,"[23,29,34]",3,0.22607808390373282,0.3186412301210949,0.5462487903810626,0.4640151740693338,0.5297922588450725,0.17322066597835514,0.3748157858515828,0.36987541458954326,0.5881936187473762,0.20457459832555377,0.27035353454447136,0.13087074406299326,0.35159337384701916,0.44066986500357325,0.21005233353120162,0.11988107480149086
168,14299.385986328125,11467.0,"[32,40]",2,0.180235794092429,0.235911996286806,0.3659225436015225,0.46141976167934257,0.27425145109957183,0.24060944254712424,0.28393970020747517,0.526589058541227,0.2807835231343046,0.127591405569889,0.2601777900076426,0.27139153349695255,0.16433198109644115,0.4259644736164631,0.21712115828921652,0.0659418665689876
