time_in_hour,cumulative_size,size,pcore_ids,pcore_power,AF700 CD48_[R 730_B-A],APCCy7 Ly6G_[R 780_A-A],BV421 CD117_[V 440_F-A],BV510 SCA-1_[V 525_E-A],BV605 CD11b_[V 610_D-A],BV650 CD150_[V 660_C-A],BV711 CD11c_[V 715_B-A],BV785 B220_[V 780_A-A],FITC Ly6C_[B 525_B-A],PE CD115_[YG 582_D-A],PECF594 CD135_[YG 610_C-A],PECy5 CD3-CD19-NK11_[YG 670_B-A],PECy7 CD16-32_[YG 780_A-A],PerCPCy5-5 CD45_[B 695_A-A],_FSC-A,_SSC-A
-1,0,0,[],0,0.0,0.0,0.0,0.0,0.0,0.0,0.0,0.0,0.0,0.0,0.0,0.0,0.0,0.0,0.0,0.0
0,111093,111093,"[1,2,3,7,9,16,18,42]",8,0.29220502764350664,0.14640525703689855,NA,0.4778582521490984,0.2658830011611908,NA,0.015491856444604934,NA,NA,0.324061188130666,0.16260431479030935,NA,0.5849890834165964,NA,69585.80879083292,13551.952904323374
0,6678,6678,"[27,50]",2,0.4179372938005379,0.3822247681940705,NA,0.7485121115603501,0.6284276235399884,NA,0.19112009973045962,NA,NA,0.5176689294698974,0.3412673670260502,0.3298105880503155,0.6901298794549274,NA,NA,17615.698113207545
0,8777,8777,[3],1,0.4139034928791123,0.18109103794006964,NA,0.5055570314458135,0.28056106824656224,NA,-0.08247448478978647,NA,NA,0.4314287348752448,0.21945641677110972,1.083808577532187,0.6597089868975688,NA,71171.76256123942,16699.938475561103
0,75643,75643,"[8,10,11,12,13,22,26,30,31,40,48,49,52]",13,0.4343022527001841,NA,NA,0.7062844540803481,NA,NA,NA,NA,NA,NA,0.20965309215657824,0.11806859418584692,2.1296472900334456,NA,68321.1460148328,20557.46112660789
0,11494,11494,[23],1,0.06930590821297544,-0.010739178440921204,NA,1.0879611985383733,0.25658356751348776,NA,NA,NA,NA,0.32515600017400337,0.19402430807378535,1.9961630936140597,0.7787592015834285,NA,72153.29598051173,12305.255611623454
0,50870,50870,"[17,20,21,56]",4,0.07312385529781329,NA,NA,0.677812612502454,NA,NA,0.6998076323569773,NA,NA,NA,-0.004487365932773102,0.142848795223116,2.134041892962458,NA,67445.65708669154,18884.01462551594
0,11955,11955,[47],1,0.2518553770807186,1.2158703150146404,1.4675785303220272,0.6133544687578496,NA,NA,0.340740059974904,NA,NA,0.48540914303638527,0.22545214855707707,0.14820494897532577,1.3730442987034701,NA,61174.86708490167,16606.18251777495
0,11251,11251,[45],1,1.887761303972985,0.29204126006577225,NA,0.8498778919207135,2.0610967931739173,NA,0.42674580943917606,0.7406768815216385,NA,NA,0.3641189194738206,0.19537777273131007,2.458596169051642,NA,NA,26333.90383077054
0,7248,7248,"[21,55]",2,0.3026898325055174,NA,NA,0.7285060785044171,NA,NA,0.42522993046357493,NA,NA,NA,0.2059914717163367,0.1532349285320096,NA,NA,62568.609271523186,16652.6092715232
24,173434.5,117888.0,"[1,2,3,7,9,16,18,42]",8,0.2768539695446992,0.1335878484788151,NA,0.5358135705295055,0.23096623619291634,NA,0.0019393857854086427,NA,NA,0.30775457493463354,0.1534770733936992,NA,0.5328314576569252,NA,71651.8813961467,14417.334867053512
24,13245.0,9906.0,"[27,50]",2,0.43300828478671516,0.35613468561720474,NA,0.7843375973952376,0.634453466289159,NA,0.20503113084182534,NA,NA,0.5035350709324232,0.30331435156662456,0.3419596984899952,0.6761750576443964,NA,NA,19101.088712721776
24,211097.5,136599.0,"[6,8,10,11,12,13,17,20,21,22,26,31,40,47,48,49,52,56]",18,0.3142876854107677,NA,NA,0.7391871096673341,NA,NA,NA,NA,NA,0.5699165170643895,0.10807898144932881,0.1370715568895885,1.9802709672686771,NA,67367.83721266233,21844.41945546486
24,19003.0,13256.0,[23],1,0.07064906885754674,0.0065173577066865995,-0.49353075401251534,1.1250914210913971,0.2252004391148641,NA,-0.12828788433405203,NA,NA,0.3362088214492429,0.18187798066095517,1.9720861596590078,0.7057551855233278,NA,74499.54807135725,12979.73919907386
24,18986.5,10429.0,"[10,11,12]",3,0.2653049929950242,NA,1.9366191458668047,0.7196071158191355,NA,NA,0.2045677375766961,NA,NA,NA,0.14480360124298608,0.14126315616358842,1.9893364832117513,NA,67138.55507860839,21003.428752007992
24,11994.5,6940.0,"[13,21,43]",3,0.3093727217474658,NA,NA,0.7342705254074766,NA,NA,0.09080519488098648,NA,NA,NA,0.1948840125891027,0.16807365167368427,1.751483464254446,NA,66402.44778856967,20107.487931968848
24,16625.0,12068.0,"[34,44]",2,1.3066239603609013,0.5984721847218011,2.9406223976541352,2.3363020701954906,2.1747663842406078,NA,NA,1.074539857744366,NA,3.381835903067662,1.4909979483609006,0.5365520763909766,2.4130915787669194,2.4599610554887246,NA,NA
24,12490.0,7055.0,"[26,31]",2,0.48661157253803067,NA,NA,0.8133767702962382,NA,NA,NA,0.8216586924739779,NA,NA,0.1410480799439524,0.11741809931945513,2.2181299576861444,NA,NA,25127.114811849486
24,3605.0,2376.0,[18],1,0.4822007553398098,0.26693889583911634,NA,1.116538222746187,0.47272460915395076,NA,0.5063455632455014,NA,NA,0.4665198895977799,0.34444434993066064,0.6186470533980595,0.6205499553398034,NA,64132.500416088726,18505.844105409138
24,13718.5,8093.0,[45],1,1.8667137579545765,0.35712084772388275,1.8014477469475367,0.9392619841819392,2.1418904715530114,NA,0.5066488507489888,0.9255103087800989,NA,NA,0.3319238901848025,0.22175075369027197,2.473736906367296,2.0066969667601984,NA,31372.11561030719
24,4436.0,2680.0,"[43,55]",2,0.6042193678990082,0.5483117829125348,NA,NA,NA,NA,NA,NA,NA,NA,0.3173727766005374,0.20092811136158661,0.9899554817403048,NA,59261.33814247066,18574.304779080263
24,10016.0,6661.0,[48],1,0.8293463830371477,NA,2.812057635133798,0.9309099795826667,NA,NA,-0.6664844324081463,1.074775578524374,4.742676452775585,NA,0.1976868084564778,0.09512299860223916,2.2946594204273216,NA,NA,30680.942492012822
48,159324.5,88727.0,"[1,3,7,9,16,42]",6,0.26312465991891276,0.12430457803570105,NA,NA,0.19544647915260693,NA,NA,NA,NA,0.27586835655062536,0.1348120231100598,NA,0.5840392152697796,NA,NA,15125.91381739774
48,58532.75,37593.0,"[2,27,50]",3,0.23109799322173874,0.25824007004624505,NA,NA,0.41090995397022656,NA,0.08515341564337131,NA,NA,0.3441753798557229,0.1956548653061736,0.2083233856345359,0.41871776135582783,NA,NA,15191.833494923805
48,5055.5,3253.0,[18],1,0.5129311410345192,0.2370417750469791,NA,NA,NA,NA,NA,NA,NA,0.39853072317278093,0.3564485998912086,NA,0.5291987792503198,NA,NA,18664.500840668556
48,168811.0,83524.0,"[5,6,8,10,11,12,13,17,20,21,22,26,31,40,49,52]",16,NA,NA,NA,NA,NA,NA,NA,NA,NA,NA,0.08255448701654311,0.10253026255398112,NA,NA,NA,19968.390495879958
48,18553.25,7093.0,"[6,48]",2,NA,NA,NA,NA,NA,NA,NA,NA,NA,NA,NA,0.0912570170724829,NA,NA,NA,NA
48,7475.25,2563.0,"[11,12]",2,0.29202636851610464,NA,NA,NA,NA,NA,NA,NA,NA,NA,0.17069904705527783,0.12874177341894844,NA,NA,NA,20232.786328216425
48,17672.5,8171.0,[23],1,NA,0.021847817527238078,NA,NA,0.2253114359173889,NA,NA,NA,NA,0.32043243338520666,0.17403279610975986,NA,0.7130459656669933,NA,73715.37473475772,13280.479841561712
48,11626.5,6340.0,[56],1,NA,NA,NA,NA,NA,NA,NA,NA,NA,NA,NA,0.12639993452457932,2.4327051109319275,NA,NA,30191.056637853282
48,29433.75,18461.0,[47],1,0.13874849240243958,NA,NA,0.5679569089055923,NA,NA,0.30413038587504815,NA,NA,0.3563225273453039,0.1369567269376053,0.12312206224997391,1.1957265582791954,NA,NA,18883.141971376284
48,18703.5,14756.0,"[21,43]",2,0.15778941422728487,NA,NA,0.6062300904108948,NA,NA,NA,NA,NA,0.391475018820007,0.13186410667789694,0.11401207330179064,NA,NA,NA,17342.36693666965
48,11739.5,6521.0,[24],1,NA,0.30131358079559556,NA,NA,0.35983867994804886,NA,0.029209460879932703,NA,NA,0.5899467644916719,0.40392650489799564,0.25416952097619105,0.5110881054559399,NA,NA,29984.804122833088
48,8467.0,4475.0,[26],1,0.5471013466989474,NA,NA,NA,NA,NA,NA,NA,NA,NA,NA,0.1047987763375472,2.397413934776193,NA,NA,30907.827565843814
48,14148.25,7289.0,[45],1,NA,0.3295349730002055,NA,NA,NA,NA,NA,NA,NA,NA,0.2692642945064043,0.20483006324103636,NA,NA,NA,29213.37126499739
48,9411.25,8616.0,[43],1,0.2619930285828165,NA,NA,NA,NA,NA,NA,NA,NA,0.41924625395139103,0.1943573340151481,0.1144554559968135,1.0471863552397385,NA,NA,17414.43315181303
48,2445.0,1074.0,[27],1,NA,0.2118882215746445,NA,NA,NA,NA,NA,NA,NA,NA,0.34778251278118777,NA,NA,NA,NA,20134.04662576687
72,195822.875,124369.0,"[0,4,11,13,18,21,22,24,27,40,43,47,50,53]",14,0.327921085640531,1.2396379543701173,NA,0.8555557125667694,NA,NA,0.04149954423545177,NA,NA,0.48646302385893214,0.2713359111390834,0.18917791235319137,1.3299585714041293,NA,65425.647989286204,22441.520787599435
72,218150.375,120240.0,"[1,2,3,7,9,16,42]",7,0.25237121220397674,0.1911222273827171,NA,0.5962716329974236,0.2803633668346932,NA,-0.024535347648948047,NA,NA,0.30162890459677305,0.1508229564262633,0.7844667655940321,0.5950574035937383,NA,70301.19296379853,16185.234134940165
72,110240.125,50599.0,"[5,6,8,10,12,17,20,26,31,49,52]",11,0.24936570163993976,NA,NA,0.8386000003583107,NA,NA,NA,NA,NA,0.5239979773256346,0.14912627958512648,0.13669315752771716,2.115168740456344,NA,69198.80216028423,23038.636358585347
72,42061.125,15096.0,"[4,11,6,8,10,12,48]",7,0.45471418495701066,NA,NA,0.8822221408693931,NA,NA,NA,NA,NA,0.5842488326988416,0.22972223045924922,0.12940141854860077,2.0385431979470368,NA,NA,25813.62053440084
72,18090.25,9254.0,[23],1,0.10454366315417807,0.08327083869074325,-0.5238144654786492,1.332512951603746,0.26788396487748223,NA,-0.09017922411242774,NA,NA,0.33914629126187157,0.1801351992164255,1.776015600945274,0.7443620280606938,NA,73971.075911057,14696.266994651678
72,9232.25,3419.0,[56],1,0.4294145886972296,0.9348720206477363,NA,1.0692576177936188,NA,NA,0.9287431240488377,0.779795981261346,NA,0.38544070944244346,0.018399935240603238,0.15154772838419883,2.3304623464621175,NA,75244.41647485705,31126.17270979457
72,9995.75,4053.0,[40],1,0.513091624615452,1.1691024976240056,NA,0.8305587230822868,NA,NA,-0.25216006867918805,0.7714145934522061,NA,0.5660764748518062,0.26803739125378945,0.13514357536953014,1.6939122435159915,NA,NA,26456.421579171154
72,14336.125,7262.0,[45],1,1.9067957941999671,0.3913130269075684,NA,1.3705667534985762,2.133998324512389,NA,0.5156974154975629,0.7931121287481813,NA,NA,0.35302396633504873,0.22786859064949683,2.483567724297873,NA,75153.15498434889,32342.925581354786
72,16852.0,7232.0,"[18,24,27]",3,0.5310390524715176,0.37099028166538206,NA,1.1191466399537262,0.5410705800350115,NA,0.21075208913629817,NA,NA,0.5614283180928102,0.3881551475418399,0.3388941455687756,0.6281565806506629,NA,63072.95988606692,26264.690244481364
96,201180.1875,92105.0,"[1,2,3,7,9,16,42]",7,0.34030813355689804,0.1848053681339139,NA,0.685177439111023,0.2825986700982943,NA,0.05324512534721615,NA,NA,0.34664528702814024,0.18408120863540978,NA,0.6298930066572798,NA,70912.59542642589,15344.752812699286
96,17276.875,5314.0,[50],1,0.2905054168577925,0.6372694155446226,NA,0.8407723788987984,0.9154130265202673,NA,0.1930283820207639,NA,NA,0.4606313735701548,0.31124989871576725,0.255564421795756,0.7476758652027616,NA,NA,20344.823239156263
96,5101.625,1772.0,"[18,27]",2,0.6260724905789796,0.4020781828093978,NA,NA,0.6947936617376804,NA,NA,NA,NA,0.5836689175140252,0.40398254137162093,0.4828926575723421,0.7776050521279986,NA,65605.14659544759,20035.83485654079
96,235545.5,113371.0,"[5,6,8,10,11,12,13,17,20,21,22,26,31,40,43,47,49,52]",18,0.3035954475340197,NA,NA,0.9480415914756892,NA,NA,NA,NA,NA,0.537701210021258,0.17963832462412155,0.1503471665771582,NA,NA,67733.75598345126,21134.240119212598
96,9400.5,4957.0,"[6,8]",2,0.5135047344822035,NA,NA,0.8880644304691252,NA,NA,NA,NA,NA,0.6423382958951677,0.21366411083852288,0.1331135281833401,2.30701091634754,NA,68364.37125684801,21232.75187490028
96,16211.8125,6836.0,"[11,12,48]",3,0.7494625172308751,NA,NA,1.1279768090628486,NA,NA,NA,NA,NA,0.6383489483594095,0.29756711893334487,0.13333408819572068,2.1684366689682335,NA,NA,28581.095420391764
96,48264.3125,24402.0,"[14,19,25,30,38,45]",6,2.0173686473830887,0.39424409381414227,NA,NA,NA,NA,NA,NA,NA,NA,0.5071136242656031,0.24558272480961096,2.4099240305544045,NA,NA,31452.440724189324
96,17796.125,8751.0,[23],1,0.1719577476662717,0.08028187753303628,NA,NA,0.2995271895321405,NA,NA,NA,NA,0.4208038682437868,0.2223952111941454,NA,0.7735659352843641,NA,74356.45838630605,13906.903665826068
96,11064.125,6448.0,[56],1,0.42953087824386715,0.9896938153096131,2.864663885073383,1.2200432515845256,NA,NA,1.194265629365158,NA,NA,NA,0.040055671014435745,0.16400028702563685,2.402935471450503,NA,72994.63735270518,28917.157027781275
96,1678.875,645.0,[53],1,1.0365396806269083,0.7738732016603387,NA,NA,1.2244929410691734,NA,NA,NA,NA,0.9307858498250329,0.7393030040950093,0.4272474015709913,1.5501527269004538,NA,NA,24685.49475094934
96,10838.375,5742.0,[24],1,0.52482692667259,0.38424744317645176,NA,1.1284118605302966,0.45357226695076625,NA,0.11923576135722236,NA,NA,0.6531154491275276,0.4868802427082115,0.35998721878279283,0.5831602696437462,NA,64002.654272434665,29875.978640709352
96,14435.875,6470.0,"[34,44]",2,1.410324294085053,0.6836013713837978,2.6839913053157605,2.446711224787204,2.1973383702061766,NA,NA,1.1741716897919274,NA,3.122408338743759,1.5894634826560612,0.5666382819884521,2.521109179327544,2.5652834508602678,NA,NA
96,7947.875,2950.0,[40],1,0.5184232905493547,1.2756937697576478,2.025942104139451,0.8777064497271185,NA,NA,-0.09072988997059417,NA,NA,0.5712513053803644,0.28955958967806383,0.1441471312457726,1.7693596697308958,NA,66942.55055596589,24597.504112734525
96,18114.5625,9706.0,"[19,25,38]",3,2.2266380443807288,0.3844172290629433,NA,NA,NA,NA,NA,NA,NA,NA,0.5770645343663428,0.2513699705485566,2.534329442979235,NA,NA,35153.24866388572
96,7141.75,3822.0,[26],1,0.6266384389855468,NA,NA,1.1840638294185633,NA,NA,NA,NA,NA,NA,0.2288393954825505,0.13823040477649118,2.3916047782318697,NA,74934.78489165816,30340.43812790975
96,2423.25,849.0,[27],1,0.7385012476529411,0.3937761283142458,NA,NA,0.8026189944547606,NA,NA,NA,NA,0.7449826270762364,0.4409714346177669,0.4823878741359745,0.8905559108377202,NA,70895.33972970193,21368.812957804574
120,155618.8125,67860.0,"[1,3,7,9,16,42]",6,0.3532904233278853,0.1862488346751583,NA,0.7484206576922183,0.29877261371256303,NA,0.09724216970535116,NA,NA,0.36933447989879664,0.20881355909009303,NA,0.656398503030642,NA,70673.9269585418,15075.52988171016
120,55416.90625,28528.0,"[2,24,50]",3,0.31577252503325326,0.4036978035967067,NA,0.8006883384673249,0.5147762988669382,NA,0.1395900389558391,NA,NA,0.4515206432349984,0.3311620310628274,0.28578901160690706,0.5366544506674157,NA,NA,18450.489520064057
120,5298.8125,2748.0,"[18,27]",2,0.6411042624880545,0.3817003010934026,NA,NA,0.656779631338384,NA,NA,NA,NA,0.5879455090468361,0.4598153324565697,0.4889115046236776,0.7407003854224413,NA,63771.96928557112,19375.355893419513
120,194718.4375,116003.0,"[10,11,12,13,17,20,21,22,26,40,49,52]",12,0.19313557668684678,NA,NA,1.0870284969640553,NA,NA,NA,NA,NA,0.4778854015819275,0.13799885900539577,0.14934176229908802,2.383217459678494,NA,67019.70245627101,19769.40426096004
120,17279.0625,8381.0,[23],1,0.13754807826488125,0.05135025571591667,NA,NA,0.34079490029660686,NA,NA,4.37540723505146,NA,0.4668542418823374,0.24501100565531297,2.120867840153367,0.7877651471560557,NA,73829.9609715516,13243.636221583141
120,15984.0625,10452.0,[56],1,0.42889522936517244,0.9951339875676859,2.944329640960746,1.3866541208449958,NA,NA,1.314065752886648,NA,NA,0.4048341345598164,0.03493785678898398,0.1648888457389257,2.4781614129406244,NA,70123.99507321746,26985.307896537484
120,23835.625,8174.0,"[11,12,47]",3,0.27436960586045167,1.3415986536565696,NA,0.8625517031137786,NA,NA,0.36700620816921337,NA,NA,0.4729123221884215,0.24289164035451805,0.17164280632194362,1.3907391447465725,NA,63359.068369300185,19962.779746702618
120,18293.9375,5820.0,"[13,43,53]",3,0.5115173919365408,NA,NA,1.0109879580906278,NA,NA,NA,NA,NA,0.5977699803452655,0.36925188733289493,0.19024029143534438,1.6030543538484316,NA,64247.43333686362,20755.683460709282
120,55354.375,38917.0,"[31,48]",2,0.7282049565893638,NA,NA,1.1629805694745294,NA,NA,NA,NA,NA,0.5980643144009633,0.26687004659580627,0.09186197366739657,2.641862486085127,NA,68997.18015062003,21722.705675928995
120,16108.03125,8585.0,[45],1,2.118430510387869,0.3903592033612897,1.5392517242233565,1.9350893307491819,NA,NA,NA,NA,NA,NA,0.49782108132202785,0.2779576735848045,2.5339979296274926,NA,71923.75964629458,29466.102755418997
120,24539.15625,8965.0,"[22,40,43]",3,0.46027888396733463,1.4307714056285121,NA,0.9578110037885934,NA,NA,-0.06606394693557549,NA,NA,0.5674906333194537,0.3249187415877386,0.16638209203912635,1.5616997440977656,NA,64738.2729795365,21034.982977460688
120,9507.875,5937.0,[26],1,0.6239164788990703,NA,2.94227805203253,1.3675077374150342,NA,0.7819196377871076,NA,NA,NA,NA,0.24065686237395179,0.13588870548427034,2.478187384506914,1.8326001748287626,NA,28328.51294321806
120,2249.625,1038.0,[27],1,0.8006006913096557,0.35970914773295615,1.5285301486081067,NA,0.7842149674529009,NA,NA,NA,NA,0.7561615822775994,0.502202351711404,0.5017032247596813,NA,NA,NA,20771.965105295298
144,142759.40625,64950.0,"[1,3,7,9,16,42]",6,0.39984342202988077,0.15636227913933398,NA,NA,0.29091788618821424,NA,0.16205512053419602,NA,NA,0.39019320514005007,0.21220673298891013,NA,0.7030208569335769,NA,70730.5211701243,14765.703195126553
144,35283.859375,14036.0,"[2,50]",2,0.279639262327803,0.38099520366429207,NA,NA,0.5080982528944897,NA,0.17173338494450707,NA,NA,0.39553539517139125,0.281464992811423,0.2880160959477325,0.5300092379212923,NA,NA,14789.06900331107
144,2309.8125,1185.0,[27],1,0.8082925843953779,0.3163607880442192,1.5580924753767955,1.5009783058689945,0.7042574443068959,NA,NA,NA,NA,0.7808691907960584,0.516378255695817,0.5917055118110268,NA,NA,69598.33622859005,20801.226939416054
144,267457.0625,133898.0,"[6,8,10,11,12,13,17,20,21,22,26,31,40,49,52,56]",16,0.30641407578365376,NA,2.160934677259664,1.260035912007662,NA,NA,NA,NA,NA,NA,0.1078155380031669,0.16959843859668522,2.4922664254473332,NA,66821.4734467892,19357.462471195788
144,11120.59375,4660.0,[24],1,0.5605704848577633,0.4342915354662962,NA,1.293631312331557,0.48869450106502654,NA,0.2242039380091585,NA,NA,0.6915204908896518,0.530516080145508,0.3943664834077524,0.6832216700097545,NA,NA,28052.83494867343
144,4662.546875,2071.0,[8],1,0.6887249331608614,NA,NA,1.1326690988294321,NA,1.497224588794355,NA,NA,3.7542879022462885,NA,0.2757524433400511,0.13963773044841832,2.3221462838409823,NA,67721.35733219839,21350.075971086077
144,15552.8125,3635.0,"[11,12,47]",3,0.3227525957985873,1.3074780780345354,NA,0.9864176753410874,NA,NA,0.4321491338815173,NA,NA,0.5280530307802026,0.2610030913420074,0.19851418158090006,1.4210350127026867,NA,62956.67339910381,19676.973666338417
144,27890.53125,19251.0,[23],1,0.12716182986105196,-0.01269928159031286,NA,NA,0.367262562377777,NA,NA,NA,NA,0.5090954779119753,0.2368153465686853,2.305984690525562,0.85245819839003,NA,72665.74411342599,13038.017732272252
144,14375.171875,4530.0,"[13,48]",2,0.8594398481050864,NA,NA,1.321680602411289,NA,NA,NA,NA,NA,NA,0.3091389228302779,0.14616469859382175,2.3107815966569936,NA,70230.27103806354,26638.93032583306
144,10082.09375,6794.0,[39],1,1.2246598655661145,0.23346228349301867,NA,NA,NA,NA,NA,NA,NA,NA,0.36581496890217435,1.1903060119317397,0.5738987414584026,NA,77211.54060881445,20047.33461241605
144,16372.015625,8318.0,[45],1,2.1121714721146674,0.3504930054227495,1.6332472013935608,2.230988055914749,2.3787265819323777,NA,0.9143306182157089,NA,NA,NA,0.5008221213093407,0.32788630905919247,2.4798676106160533,NA,71424.22575106731,30052.564770869587
144,7593.890625,1209.0,[21],1,0.2620889404332045,NA,NA,NA,NA,NA,0.48008270666798936,NA,NA,0.5277152158005253,0.21875663177841975,0.21318927009787592,1.736989512673639,NA,65472.22834145056,19061.599402480097
144,8398.9375,3645.0,[26],1,0.6834100654882029,1.0293996246772004,2.920414282161819,1.5708635576151786,NA,NA,NA,NA,NA,NA,0.21421781191631473,0.18666079653862688,2.4662337667394634,1.8708139250500475,69893.87490977297,27513.504416481126
144,2309.8125,1185.0,[27],1,0.8082925843953779,0.3163607880442192,1.5580924753767955,1.5009783058689945,0.7042574443068959,NA,NA,NA,NA,0.7808691907960584,0.516378255695817,0.5917055118110268,NA,NA,69598.33622859005,20801.226939416054
144,11220.359375,7648.0,[55],1,0.9810122630360867,0.15816587964401663,NA,NA,0.4871780417572382,NA,NA,3.981868373429702,NA,0.5178868658089449,0.6309071967767843,NA,0.6744756440997993,NA,55541.10997447412,18242.202781495078
168,119860.703125,48481.0,"[1,3,7,9,16,42]",6,0.32885363014156743,0.14534693040091629,NA,NA,0.2985127602376334,NA,0.19681733509450927,NA,NA,0.39193615293827433,0.20711558130928465,NA,0.7095592580072442,NA,70906.47531190178,15088.0705297881
168,38342.9296875,20701.0,"[2,50]",2,0.24047257304017067,0.3961266026386041,NA,NA,0.6570429167054295,NA,0.20525721454596146,NA,NA,0.4054408100849719,0.26649250135425184,0.26436745976880394,0.5986021654890753,NA,NA,16302.899559179621
168,5481.90625,4327.0,[27],1,0.49461149933873294,0.31002112456177056,NA,NA,0.6969397415431859,NA,0.45309057122864926,NA,NA,0.6383781573942123,0.41491785706244855,NA,NA,NA,NA,20991.666356935588
168,248012.8984375,114469.0,"[6,8,10,11,12,13,17,20,21,22,26,31,40,49,56]",15,0.30852358593304263,NA,2.119634670702746,NA,NA,NA,NA,NA,NA,NA,0.1133756411822433,0.1669795140827316,2.3529759705531736,NA,67157.0727144957,20606.610106562326
168,11541.6328125,6870.0,"[48,52]",2,0.8611023979641697,1.003905527715912,NA,NA,NA,NA,NA,NA,NA,NA,0.33825780207523826,0.1588250794846653,2.1240456488243336,NA,NA,30516.904212941048
168,29270.265625,15325.0,[23],1,0.057127194716854346,-0.002694854636240418,NA,2.7606047126339193,0.374039122662603,NA,NA,NA,NA,0.5516292630490495,0.24379655884918394,2.2039842813883768,0.8658583554196283,NA,73324.81457451801,13821.889069378662
168,10881.796875,8507.0,[18],1,0.28261726153768296,0.16247300502056783,NA,2.668820328511637,0.4144307157021081,NA,NA,NA,NA,0.460835562580862,0.3565682449812222,NA,0.8031627862830008,NA,64361.289366559664,16959.786478278722
168,34484.40625,26708.0,"[11,12,47]",3,0.23610559866234748,1.0577360910126226,NA,NA,NA,NA,0.47837226713592074,NA,NA,0.5911173845103009,0.24168739514781112,0.18475844053018953,1.337125480310406,NA,61902.748187813086,21885.74927254253
168,25744.875,20164.0,"[13,43]",2,0.4129371788471925,1.109946765204493,NA,NA,NA,NA,NA,NA,NA,0.6785256051835612,0.33722692737996374,0.17555931025926508,1.3723665103221343,NA,63082.586883797354,22789.035235168172
168,10883.546875,8865.0,[30],1,0.9103931221834294,0.388934528875287,NA,2.2659140300338714,NA,NA,NA,NA,NA,NA,0.5238744347208404,0.2615319986224891,NA,NA,NA,31379.49052109905
168,18520.734375,11040.0,"[34,44]",2,1.423265491793409,0.6430850528107439,2.6706234976483123,2.8277930551560932,NA,NA,NA,NA,NA,3.1213431987700346,1.5945592126573418,0.6358054593542568,2.364871194019033,NA,NA,NA
168,12547.046875,7506.0,[39],1,1.054384201003484,0.2138037315360557,NA,NA,0.23393690812828138,NA,NA,NA,NA,0.6845345855841302,0.3995549814834365,1.259531532095453,0.5466621119318408,NA,83429.85675663213,21838.305398057957
168,12369.0,7363.0,"[22,40]",2,0.5176035291195431,NA,NA,NA,NA,NA,NA,NA,NA,0.7074807797871691,0.3223659178825331,0.1765834548107924,1.7685931659548322,NA,NA,23655.91911229687
168,19725.890625,10073.0,"[45,51]",2,1.839367674026137,0.3660490085888064,1.9375636304610677,NA,NA,NA,NA,NA,NA,NA,0.594791253929853,0.3845812710741865,2.4940741426203044,NA,NA,NA
168,7055.46875,2856.0,[26],1,0.7007464882405094,NA,2.8640763776314997,NA,NA,NA,1.1237094873092643,NA,NA,0.7235279370291224,0.23082008928690456,0.19896477663714363,2.445669014779093,1.8482622172073981,NA,29098.348143062747
168,5481.90625,4327.0,[27],1,0.49461149933873294,0.31002112456177056,NA,NA,0.6969397415431859,NA,0.45309057122864926,NA,NA,0.6383781573942123,0.41491785706244855,NA,NA,NA,NA,20991.666356935588
168,12295.1796875,6685.0,[55],1,NA,0.16948721638878927,NA,3.8224954756583363,NA,NA,NA,NA,NA,0.5561263493315135,0.7137111359971522,NA,0.713045910028891,NA,58622.24459661839,20076.172432921212
