time_in_hour,cumulative_size,size,pcore_ids,pcore_power,AF700 CD48_[R 730_B-A],APCCy7 Ly6G_[R 780_A-A],BV421 CD117_[V 440_F-A],BV510 SCA-1_[V 525_E-A],BV605 CD11b_[V 610_D-A],BV650 CD150_[V 660_C-A],BV711 CD11c_[V 715_B-A],BV785 B220_[V 780_A-A],FITC Ly6C_[B 525_B-A],PE CD115_[YG 582_D-A],PECF594 CD135_[YG 610_C-A],PECy5 CD3-CD19-NK11_[YG 670_B-A],PECy7 CD16-32_[YG 780_A-A],PerCPCy5-5 CD45_[B 695_A-A],_FSC-A,_SSC-A
-1,0,0,[],0,0.0,0.0,0.0,0.0,0.0,0.0,0.0,0.0,0.0,0.0,0.0,0.0,0.0,0.0,0.0,0.0
0,80342,80342,"[0,1]",2,0.3214822947399847,0.14853688541485743,NA,0.44285708540988544,0.2712318058300669,0.229106089728913,0.000778258619410721,NA,NA,0.3489140718802104,0.1584374285056267,0.961118106096438,0.6056968268153652,NA,69144.8872071894,13959.358143934656
0,11086,11086,[12],1,0.15529633366408357,0.08082060653076617,NA,0.7923499290095677,0.5230500338264572,NA,0.12492023083167147,NA,NA,0.42916975094714216,0.16029702237056398,NA,0.8152942627638423,NA,72100.214324373,13955.1751758975
0,27010,27010,[4],1,0.31333050270270424,0.2807465190669949,NA,0.5604459307293537,0.44654473487598256,0.23761291806738227,0.08727702984079189,NA,NA,0.4179955676045948,0.25180127541653485,0.31170481632728575,0.5292191497963764,NA,68556.51329137353,14758.506627175011
0,60411,60411,"[7,9]",2,0.3382329559186219,1.540133058052327,NA,0.7029643723493941,NA,NA,0.22048736504941058,0.6879311141182862,NA,NA,0.20842082304546938,0.16956433641224877,1.744171787853206,NA,65182.372216980235,19443.96404628293
0,107067,107067,"[11,14]",2,0.33394334511100454,NA,NA,0.7353495973922946,NA,NA,NA,0.7121718035435993,NA,NA,0.13444290298594153,0.14878808396611432,2.1955819254298605,NA,69427.62823278885,21269.878487302256
24,125402.0,111983.0,"[0,1,4]",3,0.308761923655523,0.16543228397473042,NA,0.5332207479715216,0.2750379697622489,0.25875002632534194,0.004244723008801188,NA,NA,0.3363061990279326,0.16966603263304325,0.7166063149162221,0.5229129827514697,NA,71516.6260825184,15645.004704869061
24,15919.75,14534.0,[12],1,0.13878917541889813,0.08942239328506485,NA,0.8954349303302731,0.40098828137219034,NA,0.14552846928343977,NA,NA,0.3683452677570339,0.14955706771463673,1.5865659050393384,0.6876001771777086,NA,74094.79822233386,14526.38791438314
24,25590.875,22832.0,[6],1,1.965162783252796,0.385035332061737,2.0688867667088284,1.0660207907310886,NA,NA,0.06104919819564847,1.0556828957489515,NA,NA,0.44204999545248524,0.2428764748469956,2.4663090294978214,NA,76061.46331456014,38201.765902884996
24,67241.375,59690.0,"[7,9]",2,0.4122606685913164,1.216136219749401,NA,0.8117741524358881,NA,NA,0.17753934925111947,0.7667574021928716,NA,0.6235798973158234,0.20795513740795357,0.17845075751165007,1.562687936445379,NA,65374.42745630959,23631.223484052636
24,106985.375,93602.0,"[11,14]",2,0.36278838126590185,NA,2.1647120422978197,0.7940459931836443,NA,NA,NA,0.7848579494463315,NA,NA,0.08488150832532115,0.1484901459124689,2.1086576408995006,NA,69282.13939522087,24060.85856127552
48,87869.71875,76858.0,"[0,1]",2,0.2759846595367932,0.13352325940498844,NA,0.4477309150052111,0.20285746336816413,NA,-0.0024704624342684056,NA,NA,0.28325950857270654,0.12973679767824287,0.8108090878761998,0.566366676362125,NA,69323.81576559911,15478.597773479258
48,44036.53125,39373.0,[4],1,0.2594733492086563,0.2866313194655792,NA,0.6197737693850076,0.44983674012730557,NA,0.1052696196779781,NA,NA,0.40474382254541996,0.2306100815675527,0.20310340552232553,0.45960275017262897,NA,NA,17478.87131777648
48,30021.859375,26823.0,[6],1,2.0616309187082047,0.3163730671052658,NA,NA,NA,NA,NA,NA,NA,NA,0.37013313993555075,0.1844339906255782,NA,NA,NA,32146.207633084014
48,57860.78125,53077.0,[7],1,0.26926815709314966,1.1965040062129315,NA,0.6076666123564407,NA,NA,0.023348038246959746,NA,NA,NA,0.19032761676221677,0.11505934221150571,1.2802881354890165,NA,60963.03993475735,19953.087861218428
48,41327.71875,34668.0,[11],1,0.006696478874253398,NA,NA,0.6611015560504447,NA,NA,NA,NA,NA,NA,-0.05819695106377987,0.10327840180244185,2.317281935063635,NA,NA,20419.65500454825
48,41306.453125,34593.0,[14],1,0.5513288414397279,NA,NA,0.6853609903079678,NA,NA,NA,NA,NA,0.4874099736065801,0.15961586828970376,0.056005732358332505,2.395686012426549,NA,NA,22544.989451935624
72,115816.0859375,103029.0,"[0,1,12]",3,0.2548172991856035,0.2150400508140624,NA,0.6580713434706333,0.32434240123357627,0.20020565176126914,-0.011385196254015018,NA,NA,0.31864395540650636,0.15553259382225582,0.7896454916939277,0.6488626195304877,NA,70435.09976910421,17257.66798451118
72,41480.56640625,35976.0,[4],1,0.2820581735742309,0.5325509350031554,NA,0.7699741965340983,0.7473662770750038,0.2763877381163111,0.07816988987860629,1.0338389071854501,NA,0.4020113691892089,0.2545419934128397,0.29089654844286605,0.6720189177942527,0.6273784919840091,65489.69252902213,19953.118666920942
72,137326.5625,124928.0,"[7,11]",2,0.28553422869181433,1.5287636168945538,NA,0.9463713780137497,NA,NA,0.2516394298075988,0.7449936311395757,NA,0.5480421022331711,0.24520106507221984,0.16864685444696204,1.6457889284723177,NA,69041.60651367078,24536.925173343443
72,32968.306640625,27805.0,[14],1,0.6149054485617103,1.8142276962780173,NA,1.023049810811961,NA,NA,-0.48470827783364356,0.9142128367632596,NA,0.7199397724049944,0.4040294595620795,0.12919605584322658,2.1212027059843406,NA,NA,27888.300839116717
96,98535.0107421875,84058.0,"[0,1,12]",3,0.43481676164532623,0.18212313972940253,NA,0.7934583724369211,0.32313372514985916,NA,0.15262115622919703,NA,NA,0.41016438167443237,0.21089871565443463,1.1975070780933466,0.6986250435417419,NA,71149.25080109411,14918.204054830498
96,24265.07080078125,19080.0,[4],1,0.33325104053110777,0.528159189364549,NA,0.8774617225562777,0.7101485888594596,NA,0.1843840429827197,NA,NA,0.47327253661239177,0.3311818842646277,0.3247570109346487,0.6816838816598504,NA,NA,18613.581336421703
96,23098.216552734375,20324.0,[6],1,2.164390777175748,0.3691361230833694,NA,1.887939564534102,NA,NA,0.2526991381997865,NA,5.602734432564776,NA,0.61578688588826,0.27379082233909513,2.4574431354579582,NA,74149.17726084695,32448.25316889644
96,31013.07470703125,20857.0,[7],1,0.479742824668679,1.4062328909213742,NA,1.0603035906928002,NA,0.4609808491725531,0.2986646748173709,0.9151999657984811,NA,0.673061788334011,0.3338462747702695,0.17923385323725582,1.5417446401982366,1.219787794994143,64665.15588710918,21703.096788074865
96,62518.74560546875,55509.0,[11],1,0.20744030558486548,NA,2.055230513467414,1.1313666098956583,3.2205868106100355,NA,1.0748791333279035,NA,NA,0.5799338060518807,0.06913918144851383,0.1688695916717945,2.4066755809583213,NA,68749.80992349444,20851.507013767532
96,7508.8701171875,5789.0,[1],1,0.5427588626161994,0.33644149561293535,NA,NA,0.5320605742664317,NA,NA,NA,NA,0.569315956426241,0.32322273739541085,NA,0.8378227555640242,NA,72307.29086004148,19348.803329603776
96,50695.038330078125,46574.0,[14],1,0.6213919954017804,NA,2.0354469667188693,1.130632302035945,NA,NA,NA,NA,3.8852078878184755,NA,0.272887076448427,0.12940849391434095,2.520101792435696,NA,NA,22871.029807089253
120,55764.526794433594,46852.0,"[0,1]",2,0.3845234689284682,0.20534605868204414,NA,0.7049421976003858,0.2893589479883434,NA,0.12818346292684435,NA,NA,0.3864516489351201,0.2353411149200042,1.0096361803100693,0.6011195001583515,NA,69915.5364372806,14431.928407528163
120,33510.133850097656,30477.0,[4],1,0.3242462447097565,0.48593169643378875,NA,0.8529992636471477,0.6126741349440992,NA,0.19265917167235225,NA,NA,0.47157585403301727,0.3643292054969436,0.339291853496707,0.6140986174983071,NA,67090.72952730069,17440.669805660782
120,25620.277069091797,22733.0,[6],1,2.2117153944386487,0.38036301290855157,NA,2.1364970906011336,NA,NA,NA,1.337888657441849,5.6096860804733355,NA,0.654507559260638,0.2915219106306196,2.5257502167949313,NA,71451.54528425081,32077.332149467453
120,30766.634338378906,26890.0,[7],1,0.49386838987933146,1.4374747566891113,NA,1.0915706558417049,NA,NA,0.37545736849244626,NA,NA,0.6433455070129469,0.35978121551326936,0.1895568764824097,1.5931003174455816,NA,62535.872811038564,19962.304472532956
120,92019.8432006836,84205.0,[11],1,0.14604355534860392,NA,2.2643522651912815,1.2142704508758753,3.4311503317010916,NA,1.152603767073737,1.0065249755071402,NA,0.45396102143932937,0.06140348792727135,0.1624792447610668,2.5562804968174495,NA,66587.07795519699,19411.496951966874
120,76604.87979125977,70268.0,[14],1,0.5898192531367554,NA,2.192108937213469,1.1998648689558071,NA,NA,NA,1.2310786758607137,3.9127274525709663,0.6420707896556902,0.28440901829505805,0.11580378648300671,2.6511974270936025,NA,68094.39531344973,21131.76407300566
144,43958.614753723145,37786.0,[0],1,0.46693240675225667,0.1272489303934794,NA,0.948745921373086,0.2184043397416997,NA,0.1758120113137971,3.052993320510936,NA,0.3872770163006115,0.21227367411590503,1.2354487527732951,0.6796700314396286,NA,69811.74051320434,13640.944945779991
144,23958.766731262207,19770.0,[4],1,0.3919631862070465,0.4341323190527855,NA,1.0820547994871754,0.5790557754567525,0.27447402239434404,0.2594337706733163,NA,NA,0.4928645832271511,0.3563362203895539,0.3834335508650524,0.6826988065019369,NA,NA,16643.652735788095
144,29037.534633636475,25835.0,[6],1,2.1460386634976745,0.3204377024630647,NA,2.3685578113661303,NA,NA,NA,1.1296914351471177,NA,NA,0.6545766352178997,0.36676384705613274,2.383754022699284,NA,71704.90396893979,34178.00896959422
144,80610.48040008545,69108.0,[11],1,0.15392728535262212,NA,2.1980960237406983,1.4031039136380317,3.3957981912219393,-0.5928842980003662,1.2343902756560836,NA,3.731528442143833,NA,-0.013461125938386775,0.21198397993005802,2.5204626168379543,2.1695709831175773,65982.55259961175,18408.02719276135
144,26283.54369354248,23266.0,[12],1,0.3271626710608935,0.08372932452990778,NA,1.62953979726775,0.4996232849080844,NA,0.4372235985732331,NA,NA,0.4639585230114295,0.19658696451258528,1.7538650330403507,0.831006687555997,NA,72385.64620727679,14178.455476663406
144,69362.60997390747,59787.0,[14],1,0.5499500979200165,NA,2.1182927593027734,1.3449049441133512,3.375319756317331,NA,NA,1.2104120759414818,3.7192407136505303,0.6675294217850142,0.1836211525783975,0.1608484165324796,2.591836809836077,NA,67243.95170085487,19554.00506604296
168,33997.82684421539,28503.0,[0],1,0.30685449393160624,0.12739804836557633,NA,NA,0.24202898657642047,NA,0.1888399137898258,NA,NA,0.3798879633541604,0.20505323539637965,1.0194079787569665,0.6817874518325931,NA,70113.37462055852,14914.10544538389
168,40951.845841407776,37957.0,[4],1,0.25973270463531173,0.5161862237467991,NA,1.2469547516167374,NA,NA,0.3002653895954266,NA,NA,0.473037560345269,0.274253441499821,0.2966425122156747,0.8029011199866335,NA,63301.598394774686,18648.738841690807
168,29591.69182920456,25962.0,[6],1,1.8693941859538883,0.313519684678631,2.052838929148687,2.663330651684222,NA,NA,NA,NA,NA,3.083417172906982,0.6558037082653891,0.3606250323401714,2.4183426074476064,NA,73620.69045001047,39233.748127561026
168,74680.72866153717,73179.0,[7],1,0.40573854726625536,0.8804680853615428,NA,1.6412850913871293,NA,NA,0.2883199624270585,0.8800186990463508,NA,NA,0.35537144337574667,0.21189973088286396,1.4066868391296987,NA,63172.213755653036,26565.591625407753
168,64439.31005001068,54363.0,[11],1,0.18038570123341757,NA,2.168224416749218,NA,3.2404795405624314,NA,1.2153951589246788,NA,3.542816698166042,0.6376048587605373,0.035439916902423985,0.21017409671052367,2.2994460775995993,NA,68066.73079647802,21622.30570628314
168,48196.326246738434,39526.0,[14],1,0.5826311419595549,NA,2.130193618070766,1.4227619506363713,NA,NA,NA,NA,3.4996856960631315,NA,0.22359503044873774,0.14111057249033065,2.418743148799096,NA,69526.91103905649,22482.841322917353
