time_in_hour,cumulative_size,size,pcore_ids,pcore_power,AF700 CD48_[R 730_B-A],APCCy7 Ly6G_[R 780_A-A],BV421 CD117_[V 440_F-A],BV510 SCA-1_[V 525_E-A],BV605 CD11b_[V 610_D-A],BV650 CD150_[V 660_C-A],BV711 CD11c_[V 715_B-A],BV785 B220_[V 780_A-A],FITC Ly6C_[B 525_B-A],PE CD115_[YG 582_D-A],PECF594 CD135_[YG 610_C-A],PECy5 CD3-CD19-NK11_[YG 670_B-A],PECy7 CD16-32_[YG 780_A-A],PerCPCy5-5 CD45_[B 695_A-A],_FSC-A,_SSC-A
-1,0,0,[],0,0.0,0.0,0.0,0.0,0.0,0.0,0.0,0.0,0.0,0.0,0.0,0.0,0.0,0.0,0.0,0.0
0,103108,103108,"[11,19,20,21,27,32,37,41,43,51]",10,0.17636323378291716,0.24579575463826484,0.365529351504274,0.29133712501699127,0.2780578040127746,0.22696436503694056,0.2537404393403585,0.4763451140746608,0.19953740926972105,0.11278662934137654,0.252572133976787,0.20634603688836556,0.15978244777872705,0.2826158616448493,0.19609297940981257,0.057869631677216586
0,113579,113579,"[16,17,24,26,28,30,33,34,35,38,39,40,45,47,49]",15,0.1785343468290623,0.3907221572766891,0.5040540669783506,0.3092046723137157,0.505381819873146,0.23280149168745357,0.2669118512461716,0.3238789823621311,0.5761832176559477,0.14539575937214336,0.24816421792287846,0.10076590052645475,0.3297971597179332,0.3793222342843982,0.19761736989040488,0.08199949269293486
0,17413,17413,"[20,21,27]",3,0.185649249900932,0.2642177997390005,0.4438219960949629,0.30577621673378513,0.3012454078994884,0.23988583188530502,0.260006914527886,0.41148336948608916,0.2817083812420025,0.13118106745634733,0.264396319798145,0.16626359705293842,0.1715202928642245,0.25093221804510657,0.193018399316744,0.07244518359690795
24,212562.25,170193.0,"[1,2,4,7,11,12,19,20,21,26,27,32,33,37,41,43,51]",17,0.17429585802301162,0.259053881981268,0.38545806226592516,0.2984323926020698,0.29541052145913177,0.22880437053227556,0.25760422644728415,0.42972222401208154,0.24321399404916708,0.11293205012870265,0.2507360979472612,0.17313928048221897,0.1627403467927692,0.26069583256498174,0.20262374203899375,0.06522250723886283
24,23695.5,18133.0,"[2,4,7]",3,0.17601077394123515,0.25511557277929736,0.34920720456595017,0.29320653671286573,0.2862560091878109,0.24130628635479226,0.2556616363763432,0.4439393023992649,0.25466540849211994,0.11205467074894618,0.2509724276668235,0.17413664527252418,0.1589490739200758,0.23755741697598032,0.20092657198032693,0.06360867766590475
24,116989.75,93987.0,"[16,17,24,28,30,35,38,40,45,47,49]",11,0.1829957316697437,0.3811725353163529,0.5162634848949873,0.31690790665536805,0.504785146515149,0.2513569237057273,0.26285156151175776,0.3300859673978233,0.5953946827597114,0.14692983846184535,0.24537875042316026,0.10140321003912903,0.32102124378344493,0.3752363109066531,0.20118667221937525,0.09653866622195482
24,16830.25,12899.0,"[18,23,25,29,31,34,39,42,44,50]",10,0.31657797132072146,0.26373001628240195,0.5008304338723615,0.36655633493179385,0.4016246066008314,0.3495714885930678,0.2348851994294946,0.3555919991909957,0.7417208343507777,0.3657566625962356,0.29064120944742106,0.1311873649970921,0.332987202905826,0.4526117929933957,0.2525795881210777,0.15183033979676736
24,23208.5,18747.0,"[20,21,26,27]",4,0.18917818159480124,0.26322858465207927,0.44703505440599284,0.3188904103966501,0.3043711571444119,0.24515815904346905,0.2636645348237378,0.39829162130670986,0.30741036579173825,0.1318521047079377,0.26508566754982044,0.15413737062392982,0.1705649238961935,0.25112282131701574,0.19651009768672997,0.0806730406055685
48,216097.8125,168191.0,"[1,2,7,11,19,20,21,27,32,37,40,41,43,51]",14,0.1702988055214195,0.25076034040132666,0.36943516429085566,0.2903634846872625,0.2795491585085514,0.22779409284750476,0.25528124565852905,0.4287433900283293,0.24247181253034808,0.1076471165557518,0.24877110240564862,0.16454808667112467,0.15136913032717644,0.22451689481033357,0.18959269132592077,0.06378490786071143
48,18795.5,13777.0,"[4,6,13]",3,0.1647056741501826,0.23141148143048887,0.2553861759438694,0.3452047518578938,0.255243315603363,0.266593575484796,0.24523832696745476,0.5947393144627221,0.23779976877982562,0.10819398845491414,0.2527708601366484,0.29896337874133777,0.1597860971425773,0.43357151730184684,0.20515044014400602,0.05501146711554633
48,15423.125,10723.0,[6],1,0.1549738427005005,0.22458781392011273,0.2329182260022053,0.3443746160662766,0.246364135533851,0.2738238707654802,0.2333894553859948,0.6492891256771443,0.16864382416092716,0.09984489556957005,0.24803942043953217,0.33598321511884793,0.1569327146381417,0.4615902040546722,0.2121355548844959,0.04957526657535005
48,137215.875,103121.0,"[12,14,16,17,24,26,28,30,33,35,44,45,49]",13,0.18118724875017667,0.3800668446643786,0.5189194549550618,0.30516131799236723,0.5042747619605715,0.2449714345337029,0.2621789838768323,0.32021750630604695,0.5852439345401426,0.12636777390254209,0.24417533410547876,0.09124568732412151,0.3280424940016446,0.33583928738975066,0.1852276200887983,0.08928278302103869
48,25742.3125,18579.0,"[7,4,13,17,38]",5,0.197073974041965,0.3928011058306957,0.4486958691682406,0.33138607466868436,0.4614547681009012,0.3559825126925422,0.23166073121796488,0.37829631494766003,0.564567245945649,0.13030792521510023,0.2564192930793131,0.09476789881051698,0.2983725931386069,0.3827430088764752,0.1730858723000788,0.07554737601246157
48,16630.8125,10923.0,"[20,21,27]",3,0.18354652479758538,0.2642579967336877,0.46348257247198466,0.31813418103110563,0.29398305519106993,0.257977767888766,0.2545584742290943,0.3566445725368003,0.3142933350171146,0.12659490002696222,0.2684197132212794,0.12296540191045487,0.15318056877339323,0.20252998906778755,0.16961904288282975,0.08645772509297421
48,20520.0,13505.0,"[24,26,28,30,47]",5,0.2274038552073373,0.3177980137622925,0.5286101200566591,0.3262160658527905,0.47393646258056654,0.3509940597876343,0.2240204522946333,0.34245210083952693,0.6439679238279801,0.1438588230849189,0.25923744211120237,0.1101553723913428,0.3120093831815516,0.3590589263058234,0.20982714092589072,0.10841236040830236
72,327801.28125,258251.0,"[1,2,4,6,7,11,12,13,19,20,21,26,27,32,33,37,41,43,51]",19,0.1696867256289848,0.29091110818915455,0.37803388653447584,0.3143780095157916,0.335638779374471,0.2325400758192379,0.25523494246951917,0.41598756235009887,0.30440793052057985,0.11357588118499341,0.253335711400203,0.15019523295345005,0.19450280283648305,0.27647473775549225,0.1971726240099837,0.07577576219604736
72,2853.40625,536.0,"[8,35,38]",3,0.1933281236845666,0.3071154322164807,0.4121982490261244,0.3812356689370786,0.36341023757982727,0.25400473170256527,0.306405693879401,0.42792154626726375,0.5688427927373002,0.13026507570505452,0.2622752559550988,0.10841087089422936,0.21540859157150113,0.3470430712484464,0.1721389796471072,0.09163664178983218
72,24697.640625,20383.0,"[4,6,7]",3,0.16669355323952037,0.2914919896901287,0.3410421281708043,0.34485505918107134,0.33150428767081375,0.2541342265164702,0.24840319489834675,0.4759438894743461,0.2963193055217544,0.11551992166044125,0.2565041069059428,0.1994479880399049,0.2018927750643675,0.3689918517594463,0.20277986630978054,0.07151109316923593
72,96081.640625,67299.0,"[8,14,15,16,17,18,23,24,25,28,30,31,34,40,44,45,47,49,50]",19,0.21684614343884803,0.3467592121349437,0.49184190646200937,0.357647738783558,0.47532639196561066,0.24401918295007433,0.26375620293891644,0.33481328609306155,0.6015609003173584,0.1886329427044611,0.2679521027724365,0.1068019066826601,0.3230743167620472,0.3849382941978114,0.22327423904240815,0.12381042053263613
72,11388.25,9000.0,"[13,14,15]",3,0.3021064302088205,0.2714421629714904,0.42011434999321945,0.3984045098544793,0.417394210523781,0.2065513197120682,0.27534947083574934,0.33872862775576285,0.7301051591533724,0.3245452659741103,0.2753334830990695,0.11222003665586068,0.3338779748003885,0.41699729366033134,0.22457289047824797,0.12761891325012453
72,22409.15625,17418.0,"[17,18]",2,0.2109196746452445,0.38740728011841696,0.4686978879895761,0.34459126255859157,0.48759950671465363,0.374342570711496,0.20632626811532231,0.34328158518503843,0.556223572312936,0.15596176028446782,0.27297551397877307,0.10604097416576777,0.3203847611544155,0.3999117311021352,0.2205112369776289,0.10835928729552047
72,26888.78125,22519.0,"[20,21,26,27]",4,0.17361007996984917,0.3110695256457882,0.42123319165280665,0.32776706147776674,0.3578761422125799,0.23405392394319086,0.26239603945130696,0.3555217004393269,0.36245408386507705,0.1215361134391796,0.2619044851977038,0.11731323064960253,0.20100428155296382,0.2571218661519456,0.18336125126250477,0.08214022675962653
72,8808.015625,4504.0,"[24,28,30]",3,0.23076795864084335,0.3211666981168213,0.5383101850492361,0.35071467325756195,0.49481390170466394,0.3739443454743646,0.21638052958605092,0.34641550580336394,0.6381194384590714,0.1677479215237827,0.26910687622445006,0.0973450213880658,0.3259797176808876,0.34584918421592936,0.2252516823910542,0.1338414179215863
96,121449.7109375,88321.0,"[6,11,21,32,37,41,43]",7,0.18355727715348635,0.23881359456194856,0.32074979225653955,0.3248493477419337,0.26578123475564724,0.22577170247469008,0.2621790701050868,0.5373127213492754,0.16320309508618192,0.11234855330035891,0.2528528324557924,0.2488057884961643,0.15928083162892068,0.3231411569442056,0.20746266927904602,0.05639443557796437
96,20836.94140625,13456.0,"[20,26,27,51]",4,0.18834023978797293,0.29932417929957367,0.4821787559693867,0.34639597551377477,0.34187998643421613,0.2430633242221953,0.27312889705173615,0.3655111928690645,0.3388230678029202,0.13822423919694168,0.27418734786984933,0.13045676002028694,0.19507051629323333,0.24613807378695948,0.1910428604308138,0.09026370081472931
96,133742.23828125,98070.0,"[16,17,19,24,28,30,33,35,45,49]",10,0.178665494282162,0.41754370769816873,0.4984650707358715,0.3445850553687859,0.5290535915113741,0.22586341767848833,0.2980111325989229,0.34860524210848376,0.5423169070392434,0.13557076133379606,0.2510893021255236,0.10184223057744024,0.34565136453524553,0.40704998846397167,0.19863693978672506,0.0859212278008549
96,14595.91796875,11061.0,"[23,25,29,31,40,44,50]",7,0.32125601177659585,0.27774457377877,0.5193012262991896,0.4303674541879496,0.41937994641505205,0.3299439291077251,0.2814361277469697,0.3715838727614396,0.6888947163256554,0.3262111976734923,0.31231919332920477,0.1256429065179919,0.35565707181335116,0.4602318064505992,0.23858205168583238,0.16009603912781303
96,3719.57421875,2934.0,"[38,47]",2,0.24827147392039167,0.25889489681315153,0.37842576828191427,0.4647188039015088,0.29752120288281597,0.21833962356648481,0.3293167456067579,0.4445102635002225,0.6220664672422709,0.1441449999334873,0.278366634676441,0.1667242784226523,0.16903532461097148,0.4900730641276302,0.19519035730839415,0.084716830299739
96,15152.1953125,8430.0,"[21,20,26,27]",4,0.1860998343818685,0.30985928485498215,0.43691251409422194,0.34200236029554587,0.3598802125743862,0.2356431819730807,0.2757055537591991,0.3675352748974694,0.3604093393210063,0.13297685927262215,0.2688716034040595,0.1281229169693536,0.2088354883099763,0.2724139342842499,0.18786699176117844,0.079108745322966
96,8741.00390625,6539.0,"[24,28,30]",3,0.2350346292384338,0.3437787601884429,0.5524369957097506,0.36545114772563,0.5450281819824563,0.3986467706062364,0.24352414076106332,0.3687058037648435,0.6289710163452795,0.1661877881729339,0.27126274500850717,0.09942611684768253,0.3581934557047044,0.4038983522280552,0.21916108767198272,0.11740887136141652
120,155892.3154296875,111532.0,"[1,2,4,7,11,19,20,21,26,27,32,37,41,43,51]",15,0.18125084763920005,0.26248607499862453,0.38437027184520844,0.32422709942119404,0.2949870859886408,0.22857799817916893,0.2686740269283822,0.4510395081798428,0.22912180031174428,0.11782773532919788,0.26079322202702915,0.18938878154299676,0.1647565183474531,0.2734843880843803,0.19535417045190398,0.061816356118971724
120,234894.740234375,192511.0,"[3,5,8,9,10,12,13,14,16,17,24,28,30,33,35,40,44,45,49,50]",20,0.18312141962153522,0.4442590666578189,0.5256681794832437,0.36077804020913085,0.5583551159528237,0.24838852099033124,0.3045919115095237,0.35975131011171885,0.560594176280189,0.13464174929987657,0.2532047193217041,0.1011645708736924,0.3785315024023497,0.4604017616495462,0.19183949177359802,0.08131106228353503
120,14073.419921875,9669.0,"[2,4,7]",3,0.18192163867432878,0.2704307770015209,0.36294111861935924,0.3216089409108275,0.2990129359179173,0.24092331660514857,0.2657097279641435,0.44834287373368487,0.28527103109418156,0.11815940877122634,0.2610769653998669,0.1758267338561566,0.16749461932598098,0.2539764159125701,0.19310291406055372,0.06421924663269725
120,15914.8466796875,9505.0,"[5,8,9,10,12]",5,0.19581392167572098,0.3971163957073467,0.4919934898993806,0.350063596684321,0.4886706632169498,0.3167093332238852,0.26650987982293545,0.3482434904345169,0.5259571053509895,0.14651706939444462,0.268832938834566,0.10407974513477647,0.3192695263937463,0.3842654631823545,0.19272595291962025,0.0879434320142432
120,5052.5458984375,4083.0,"[14,23,31]",3,0.33127904293679467,0.27588504461106755,0.47524567600804846,0.44845665866821344,0.4338306406665458,0.35061729574066436,0.2458961373446101,0.38678651381848483,0.7112149337168057,0.3018681517961815,0.30988619898806763,0.12515170778620485,0.363195087335212,0.49436130961828695,0.22897161142216282,0.13662135024506536
120,14830.048828125,11042.0,"[20,21,26,27]",4,0.1928539093360987,0.30946362815634904,0.45143471884445247,0.3507033146537372,0.36105953919750006,0.23781832912523979,0.2828085242961968,0.3673678591498036,0.3673901968033142,0.13537381134045234,0.2754465567485555,0.13059570003442603,0.2086364664817551,0.28581653504083443,0.17925846200685444,0.07479607081940576
144,134200.31884765625,95804.0,"[1,2,4,11,19,20,21,26,27,32,41,43,51]",13,0.18755329144303204,0.25101901347006667,0.37566063033495123,0.36082117505973627,0.28438596411888173,0.22507656465016027,0.27718179876932725,0.48950555446009864,0.21751680144143248,0.12130937376576695,0.25997487107948253,0.22429504467909844,0.16989506894662337,0.301257544926853,0.19715653240307668,0.059353493669367624
144,208255.27514648438,149724.0,"[3,5,7,8,9,10,12,14,16,17,24,28,30,33,35,40,44,45,49,50]",20,0.18269188551286125,0.45022832755178105,0.5224003465618777,0.38166522766261585,0.5640503284155669,0.24866412613885333,0.31686315482355626,0.3609622759836752,0.5439161749990046,0.1417742654945869,0.24609070305612474,0.10874894031368712,0.38142194095724696,0.46792751947919703,0.1898376063473834,0.07710210890315183
144,25605.012451171875,20804.0,"[6,37]",2,0.17259161015440067,0.22111169900624536,0.266940365931783,0.49196459960076633,0.2633840549828263,0.2731479922198218,0.26937207100727684,0.6114756717459688,0.18896244872869575,0.12659162460436404,0.25714284424781936,0.36686842451380186,0.1676960745347195,0.5198660583694726,0.21346479248299666,0.05070869204630326
144,9174.98583984375,5661.0,"[2,4]",2,0.18877517548528566,0.2570325626483842,0.3605487032649618,0.35528692912465615,0.2833510982142674,0.2419132185699912,0.2744027205969645,0.4842711278676242,0.2756928776920073,0.12279069506467631,0.2618534055757468,0.208548678290829,0.167352017042793,0.26632884151666164,0.19145416410040544,0.061894216634412004
144,7106.080810546875,3123.0,"[5,7,8,9,10,12]",6,0.19501971147544833,0.39012985236615133,0.498360709633843,0.3688395871780896,0.49268037870201303,0.30384189671444034,0.28528153705082593,0.33486269889894793,0.5180448917521264,0.15081826302800297,0.26533357119594125,0.11012488422825167,0.3273820642667807,0.394637536221467,0.19036563501441306,0.08386536793570984
144,2433.136474609375,1170.0,"[14,23,31]",3,0.3255545548957241,0.26876880387915697,0.47951658008228715,0.4774243643903409,0.43075071009902066,0.3627500846219795,0.25484653616619585,0.39255817219880235,0.6895143113307344,0.30488628396101763,0.3149325268578425,0.14193719204149513,0.34347017808261104,0.5104446749250283,0.23310526672420284,0.13878128819902877
144,9260.51220703125,5553.0,"[20,21,26,27]",4,0.21108024792461105,0.29950154093578013,0.46429539581439466,0.3950862665183775,0.3533275415025861,0.24645819131909127,0.29841951216129525,0.3796475674457432,0.3689967431034407,0.15437954782661334,0.2816489726093888,0.1491165335429846,0.21898713530992892,0.32133793560962215,0.17872140855306182,0.07727229229808011
168,220852.8271484375,184170.0,"[1,2,4,7,9,11,13,19,20,21,24,26,27,28,32,33,37,41,43,51]",20,0.17439907977827085,0.2817136650211321,0.40810242265422464,0.3926672574801205,0.34932664134312097,0.23386282949248297,0.2842792956023033,0.4124325488930078,0.353767901778712,0.13569412921883192,0.2603096718288094,0.16284192313683918,0.2051319168697517,0.2999769641143428,0.18779080365936332,0.07757844930854045
168,155760.1644897461,105404.0,"[3,5,8,10,12,14,16,17,30,31,35,40,42,44,45,49,50]",17,0.19085621374752393,0.42060297626862664,0.5207142191853728,0.40424095366352014,0.5475982798631919,0.2558159428749438,0.3158233755870326,0.3576291606060257,0.5399640974883406,0.16344704095742044,0.2528012430409134,0.10884435894430197,0.36382039916600173,0.43657640301368267,0.19808174865685854,0.09195885661179286
168,8594.746459960938,6301.0,"[2,4]",2,0.17443910797639878,0.2460734152731521,0.34889165274239986,0.38054626588761276,0.2776437035753819,0.24526006365898853,0.2761637034302872,0.49318269745013926,0.2738647083951326,0.11657079930441766,0.25829174542833777,0.19398264464152884,0.15843895694146434,0.26123792731147233,0.19225161110697514,0.06465061790122047
168,17173.52020263672,15397.0,"[5,7,8,9,10,12]",6,0.18888883765215334,0.3737516301753742,0.4950044242738956,0.3940934368503442,0.4840683134678976,0.2875651481773683,0.29249808683845,0.3365142474004166,0.49623391657455407,0.16168881833999219,0.26423072516449453,0.10863236311114853,0.3115799621915056,0.3626611599291177,0.19476157045703255,0.09218888034464842
168,6529.325988769531,5145.0,"[14,23,39]",3,0.32793016609001124,0.2573690645045203,0.4901537160915609,0.5062667042821435,0.4403777849783216,0.3762174598067308,0.2470474403300665,0.3716081999547038,0.7112131295463184,0.3681616151453072,0.3077022815966182,0.12943244907075246,0.35738976356799773,0.49127629837094206,0.2295353306525361,0.15207642518037745
168,9628.398742675781,7593.0,"[13,34,47]",3,0.25452480893614504,0.2572849619556382,0.5168726586554199,0.5151056972721757,0.3129201982807691,0.2397298189999895,0.31696361258585326,0.37290583657001325,0.4956385166096398,0.1799557073050411,0.29740374606380465,0.19253902445697457,0.19353776007674975,0.4519394140655351,0.2193408861077204,0.10853556438872336
168,59247.33123779297,55022.0,"[20,21,24,26,27,28,30]",7,0.19000019053606,0.3213795125477663,0.46443072607068775,0.4034951009169839,0.42816003551884246,0.29348322636212837,0.27538626645814296,0.3485000200950691,0.49858911151921675,0.16436570701057737,0.2682684419502998,0.11213301422332324,0.2623798797012963,0.31541664863754354,0.18303245778947985,0.09997379432497537
