time_in_hour,cumulative_size,size,pcore_ids,pcore_power,AF700 CD48_[R 730_B-A],APCCy7 Ly6G_[R 780_A-A],BV421 CD117_[V 440_F-A],BV510 SCA-1_[V 525_E-A],BV605 CD11b_[V 610_D-A],BV650 CD150_[V 660_C-A],BV711 CD11c_[V 715_B-A],BV785 B220_[V 780_A-A],FITC Ly6C_[B 525_B-A],PE CD115_[YG 582_D-A],PECF594 CD135_[YG 610_C-A],PECy5 CD3-CD19-NK11_[YG 670_B-A],PECy7 CD16-32_[YG 780_A-A],PerCPCy5-5 CD45_[B 695_A-A],_FSC-A,_SSC-A
-1,0,0,[],0,0.0,0.0,0.0,0.0,0.0,0.0,0.0,0.0,0.0,0.0,0.0,0.0,0.0,0.0,0.0,0.0
0,98143,98143,"[7,22,35,38,42,50,55,60]",8,0.27609882111816164,0.13626528984237396,NA,0.5598465849525689,0.3037208146989596,NA,-0.001416049489009641,NA,NA,0.3562639044863104,0.1708620082023149,NA,0.6220110170669347,NA,69801.48721763142,13387.301712806808
24,37533.3125,36222.0,"[55,57,60]",3,0.35804000841585437,0.19582139179863134,NA,0.5913220018983143,0.28505793697267423,0.3047966638336286,0.016935018848254213,NA,NA,0.37052611302792227,0.2077150341280234,0.6348242992774742,0.5311311236418345,NA,70320.31547974872,18142.484599514155
48,100322.49609375,93492.0,"[7,22,35,38,42,50,55,60]",8,0.20456865105852362,0.12846865662400697,NA,0.5615327174826699,0.22201757137476097,NA,0.03144583425658487,NA,NA,0.2624301812177696,0.1327609635456941,NA,0.5243011799103053,NA,69107.25440903299,14536.119706762864
48,49145.4921875,45667.0,"[22,35,42,50,57]",5,0.21889389311424345,0.19810037771893718,NA,0.6436421052023742,0.3434921296134812,NA,0.09529031172588454,NA,NA,0.33801426277786883,0.19156816953130962,NA,0.5012364368605492,NA,NA,17538.92541072647
72,48870.802001953125,46506.0,"[55,57,60]",3,0.2758461933986147,0.25150999264782614,NA,0.632480772108178,0.33029698266331886,0.25847730054384677,0.007516831820945313,NA,NA,0.3263265002027118,0.17939526363284797,0.6037095198946574,0.5936108973130801,NA,68927.88921075282,18185.220764501337
96,90449.38624572754,84779.0,"[9,11,26,27,29,31,32,39,43,44,45,51,53]",13,0.2620197908911026,NA,2.0377558498656554,1.0954597360230651,NA,NA,0.840740508514001,NA,NA,0.5709028149630516,0.1224117936681468,0.18036733701786145,2.3646460676850096,NA,68692.06947980757,20647.697548318298
96,36655.23376464844,33692.0,"[55,57]",2,0.42947141432136826,0.2434153615625183,NA,0.7285120085988361,0.3159823798275738,NA,0.13491193517229538,NA,NA,0.4182542914828381,0.2554153782318229,0.9006542583773756,0.6302435057362236,NA,69773.07884236924,16632.61325663808
120,127421.78854370117,121615.0,"[9,11,26,27,29,31,36,39,43,44,45,51,53]",13,0.1872570476669977,NA,2.226763830543717,1.1733486321596347,NA,NA,0.9478318553503717,NA,NA,0.44723820946505755,0.11287304783548935,0.16070245878611233,2.4984383373168875,NA,66337.09684222663,19279.241984190223
120,78554.51987934113,75249.0,"[11,26,27,29,31,36,39,43,46,49,59,61]",12,0.5798550403175686,NA,NA,1.248619626168817,NA,NA,NA,NA,NA,0.5854297747617175,0.2632736096814927,0.14363428376740617,2.513765750648062,NA,68332.19309567014,22749.094232678304
144,108595.22123497725,100409.0,"[9,11,26,27,29,31,36,39,44,45,51,53,61]",13,0.22846449657767187,NA,2.1818746873105153,1.401806413655346,NA,NA,1.0551916320047727,NA,NA,0.5554305130345604,0.03827773301605619,0.21454069618462612,2.505272177670328,NA,66242.08550003683,18823.43565705584
144,60013.58033531904,54934.0,"[11,26,27,29,31,36,39,46,49,54,59]",11,0.5752979589566365,NA,2.196825360188297,1.4005024870857516,NA,NA,NA,NA,NA,NA,0.19746335088547884,0.189983785790227,2.4780007691472785,NA,67492.27356034899,21027.899321414003
144,1136.0771678686142,865.0,[45],1,0.5033391641590643,NA,NA,1.3684317272708357,NA,NA,0.6083177472120718,NA,NA,NA,0.2544345106120436,0.2536032307251511,1.9102886119219806,NA,64488.24595001013,20202.171734759555
168,97617.20379504189,91001.0,"[9,11,26,31,43,44,51,61]",8,0.2536643735545743,NA,2.031065572144611,1.5262006827584482,NA,NA,0.9452230833973294,NA,NA,0.6772522604360641,0.11421043708144074,0.2021927003859494,2.1212409644724133,NA,67346.42190963987,22390.829053177444
