time_in_hour,cumulative_size,size,pcore_ids,pcore_power,AF700 CD48_[R 730_B-A],APCCy7 Ly6G_[R 780_A-A],BV421 CD117_[V 440_F-A],BV510 SCA-1_[V 525_E-A],BV605 CD11b_[V 610_D-A],BV650 CD150_[V 660_C-A],BV711 CD11c_[V 715_B-A],BV785 B220_[V 780_A-A],FITC Ly6C_[B 525_B-A],PE CD115_[YG 582_D-A],PECF594 CD135_[YG 610_C-A],PECy5 CD3-CD19-NK11_[YG 670_B-A],PECy7 CD16-32_[YG 780_A-A],PerCPCy5-5 CD45_[B 695_A-A],_FSC-A,_SSC-A
-1,0,0,[],0,0.0,0.0,0.0,0.0,0.0,0.0,0.0,0.0,0.0,0.0,0.0,0.0,0.0,0.0,0.0,0.0
0,90348,90348,"[0,1,4,12]",4,0.1715856261470583,0.23398722325678054,0.3257670764822134,0.27739128482527087,0.2597093545046433,0.22011733618641247,0.25496407834829315,0.5143929145753542,0.15618116305202748,0.10536183855455664,0.24708606347759754,0.22008310410416643,0.1468328803515634,0.26134252652212303,0.19922334867603475,0.05166879741403384
0,57589,57589,[6],1,0.1916543854565082,0.4242924720010064,0.5283461974791687,0.3037295225699245,0.5363888494725454,0.38211914072385506,0.20806157680020473,0.32679591641864614,0.5893109035528689,0.13989388468129949,0.2529776626238458,0.08792073103895383,0.35640478192784797,0.3904589471569242,0.1961818257819569,0.07938291816686173
0,65637,65637,[9],1,0.1471013621882639,0.4218044093337349,0.5246348329029149,0.3007061681530338,0.5398595817202928,0.10270671749740916,0.3160009055574108,0.3053235202132897,0.5830320972437729,0.12098587720826301,0.2314454274953303,0.09234375329837742,0.34834173152449527,0.3872905853731512,0.19235930102056364,0.07237057270931735
0,35655,35655,[10],1,0.17106321406409636,0.3585328043433479,0.43994530533748877,0.29589707450299485,0.43968963888804674,0.24581091198366786,0.2742795581209243,0.30796282657597773,0.5322092226235441,0.12836286706539887,0.2531182211386527,0.09222448056762053,0.2737758310376343,0.2616042200464476,0.1676552358867491,0.06404507195514882
0,28824,28824,[11],1,0.348773422423057,0.24799189524167806,0.4635794796691563,0.3224287983910885,0.4137564115537675,0.24658437437941225,0.2587910178497215,0.3253698137754706,0.7919089931197572,0.4490075966277573,0.27636833528055904,0.10087143059485824,0.3790719334680876,0.41297218812952174,0.21518734464956712,0.10518997167691509
24,184016.0,93668.0,"[0,1,4,12]",4,0.17045795439956749,0.2330722178151378,0.3301465511064953,0.2825442287605507,0.25648514228274283,0.22359660753693997,0.253471099010959,0.5113218996097975,0.15468115126875612,0.10329060249949334,0.24643044368758407,0.21658189251268814,0.14192723236148974,0.2603210776654036,0.20631110608214365,0.05466233434143908
24,34938.0,18938.0,[2],1,0.1465910386294001,0.22177891774668199,0.23328275342402838,0.34251152583495376,0.25699649387366713,0.23624282677674527,0.2415655386972949,0.6477165806683766,0.1690134576507308,0.10349565081649954,0.24867224367971566,0.3501411121744145,0.15994122682568118,0.48903097131099676,0.21822953418867058,0.047065697005637126
24,51360.0,28760.0,[15],1,0.16496376978405713,0.24175671181625896,0.3693648937357209,0.28383374392966115,0.26948963898672185,0.22229301426085601,0.2594895082911141,0.3104843806920587,0.19346198102529635,0.10456977049058122,0.25009435760415727,0.1087675247642095,0.12342301049789356,0.15146064705619236,0.20089012192457256,0.04819343013741769
24,104685.0,47096.0,[6],1,0.19430027220789314,0.41852772162189433,0.5336358513399139,0.307328319887482,0.5370269869151412,0.38334693039374945,0.20952868291774054,0.33046656949871744,0.5979077229597588,0.14232552552502362,0.2508433284571567,0.088410459179482,0.3518666658585617,0.388715613111281,0.19604583483906285,0.08587778261938364
24,120090.0,54453.0,[9],1,0.1500167424242177,0.41407282164186016,0.5290943099130668,0.3053153572266472,0.5389835110226789,0.10356813467124246,0.3175545124061985,0.3098157396292953,0.5917991472267443,0.12346036443528433,0.22936124722240073,0.09329538520083175,0.3422143865590709,0.3844201808427924,0.19279479490280557,0.0788833012196299
24,79082.0,43427.0,[10],1,0.17340880741115708,0.3444985844862017,0.45515333058402746,0.3020835652945033,0.43492589706200835,0.24862351165214652,0.27183383782850223,0.3130421704867787,0.5405654872049169,0.129422081077741,0.2508992986248928,0.09284930013503481,0.26340370635787314,0.2602937147612429,0.16914169103492877,0.07334463101799722
24,53004.0,24180.0,[11],1,0.3501076491400324,0.25296911989851095,0.48275732115603415,0.32971369963152614,0.41536978703318267,0.25306707412962626,0.261518803093298,0.33880907860101434,0.8029280073305755,0.4449520436521388,0.27452982916826735,0.10338173538800978,0.38052256025979153,0.41236515742668656,0.21669446481036167,0.12081500013963302
24,34988.0,18721.0,[14],1,0.2793004404445858,0.27615930588083926,0.6073371648845216,0.45907061597794346,0.45560713800233676,0.4373775320908371,0.1851368979312935,0.35202410980282284,0.6347396799658646,0.4448655115958912,0.3693253601488056,0.1425295538426592,0.36970586593153404,0.5185684555496293,0.39923611656754354,0.3672435098858409
48,270413.0,86397.0,"[0,1,4,12]",4,0.16915188707612,0.23292418942313806,0.32652065428300453,0.2804834022758678,0.25502705920991203,0.22423079444268693,0.2528086140354293,0.5147971061489841,0.15395637824804762,0.10101282315754768,0.24517615579420748,0.2124666863492422,0.14294208658387456,0.2522897037747942,0.20282766888161424,0.055251604501973944
48,48386.0,13448.0,[2],1,0.1460870901963024,0.22281826102936916,0.23361355125631578,0.3457012725421473,0.2560384296530331,0.23702494914269268,0.24337979306349392,0.6517011105573124,0.1703795309502463,0.10232271763522557,0.24815157731854684,0.3490283314776944,0.15938992872076724,0.4818082717155004,0.2171343648321286,0.048091166013683455
48,88110.0,36750.0,[15],1,0.1612467502055326,0.24444632987880763,0.3709437778636778,0.2848921808212313,0.2722875390555906,0.22237576310817825,0.2597005593789619,0.3049643849333214,0.2057700470902258,0.10428370439516647,0.2500613635386925,0.10389054101506245,0.12048710056469247,0.14951314744818783,0.19106487445422876,0.052621495516455216
48,144403.0,39718.0,[6],1,0.19522792771434574,0.41934803383583436,0.5333819792813821,0.30478063642649356,0.5428481951841392,0.38522436306741437,0.20626570683636883,0.3311853481618985,0.5976305749010482,0.13350923276900178,0.2495057003425707,0.08623717537596402,0.3588780169675729,0.38501279878052813,0.19429065594371986,0.08525495215670256
48,33976.0,10794.0,[7],1,0.2355804821203189,0.2551614033805067,0.6643547803474549,0.34951826744431197,0.2807421559343581,0.283406820092238,0.258750951839833,0.33525393216641447,0.2824490964264126,0.1620911605878469,0.2891171114459839,0.11004368216334476,0.16319530924831782,0.2173128595926095,0.17442692958496012,0.12495463527289999
48,160135.0,40045.0,[9],1,0.1471329409104651,0.41712770025365237,0.5290366854040075,0.3032417490536442,0.5456904719803745,0.10007698818431833,0.3211038701648283,0.30750193242796725,0.5908907903193935,0.11587584876822755,0.22811673896558912,0.09173825032835915,0.34958674291680647,0.38084520439848957,0.19066291351465703,0.07883994318201584
48,132182.0,53100.0,[10],1,0.16715996646823475,0.3456197437486452,0.458329938203161,0.29507690248046836,0.4315978693791643,0.2433000754783053,0.2663749928085569,0.30663651665453256,0.5401234147765179,0.12003152223605308,0.24829687966953273,0.09075866020072194,0.25597770368122424,0.24352192719357835,0.16554165345286362,0.07264485719515952
48,83269.0,30265.0,[11],1,0.35392521384823616,0.2523341931221817,0.4797531586214546,0.3268408607781641,0.4150701143918686,0.2561466127193808,0.26085030627231826,0.3348259293051279,0.8048144491293054,0.43852580036294925,0.2721202249955404,0.10195473324776906,0.38491609954075173,0.4071310606064945,0.21205840828720451,0.11969204873132677
48,46717.0,11729.0,[14],1,0.2755612283932589,0.2761425026957656,0.5996274641683276,0.4560767751643709,0.45295675097426563,0.428093591673182,0.18946408639893317,0.35015992647658856,0.6294511588500176,0.4409123789801469,0.365556144676287,0.14041335127977367,0.36733183843337996,0.5153330398760297,0.3907113397240252,0.3599565604802072
72,380627.0,110214.0,"[0,1,4,12]",4,0.16831307453152097,0.23566767084893278,0.3251231527521852,0.2864343424165301,0.2577387615684178,0.22452562228145093,0.2520529600122729,0.5089531422513862,0.15471300733556348,0.10113771348485856,0.24581699771147897,0.20410637996948938,0.14510264095277356,0.2542124864428102,0.20309878090204608,0.058238938563745485
72,61859.0,13473.0,[2],1,0.14831333903405747,0.22570380224201927,0.2335386837692926,0.3533264451522703,0.25887415013055876,0.23535903097880323,0.24443883460265095,0.6433729424275938,0.17361808722494038,0.10376493880882429,0.2485675501700796,0.33560009815740194,0.16159562837587896,0.47852091100687666,0.21733514505584328,0.05090157180839848
72,118916.0,30806.0,[15],1,0.1622089961339363,0.25154656606514675,0.373137087617544,0.29083151303683735,0.28099361786108645,0.22428215954469913,0.2591037229901786,0.3193400595460053,0.2237407242519913,0.1046516517639134,0.2513182826927448,0.10838548457578584,0.12846854075694272,0.15815563307606859,0.1887124699495284,0.057670129348888266
72,177450.0,33047.0,[6],1,0.19883520209830588,0.4145050360285764,0.5275368995455398,0.3134883210844032,0.5367270452481893,0.3859664390996786,0.20622198103993689,0.3324802799298908,0.590016297920117,0.13998679008886714,0.25577086584903247,0.0879276831629772,0.3552834370227675,0.38657021763276617,0.19936753329344378,0.09322626232953139
72,38582.0,4606.0,[7],1,0.2350256327031897,0.2563128361111368,0.6638406280297502,0.35350364267894113,0.2818831059493654,0.2830311567741692,0.25903295417210503,0.3361963090364914,0.28234215147806235,0.16105688756098663,0.28959997014137495,0.11010325633709529,0.16271232919989942,0.21837106172503315,0.17590978910442864,0.1264882069877931
72,26601.0,4886.0,[8],1,0.19407114686905053,0.2700422627224956,0.34321071159163835,0.36386625920090926,0.2893883417712238,0.2801472960898668,0.2814422767546119,0.45828897654077316,0.44257196706767893,0.12199771850891718,0.27183860965138196,0.12299450985602198,0.15424560424819975,0.27177957064854136,0.15464973264615314,0.07372888775665648
72,206002.0,45867.0,[9],1,0.1508167208686226,0.41219761745738936,0.519828511103428,0.31189702832132304,0.5394545529834057,0.10041613660586747,0.31893428550730124,0.30951498258044124,0.5812031513553692,0.12067705562989756,0.23401265444552802,0.0932267678762112,0.34427994828067526,0.38163999298211965,0.19628420063169716,0.08424128678527622
72,211661.0,79479.0,[10],1,0.1709070259595589,0.3495455893786922,0.4514111648931266,0.30771115673163024,0.43135981459720063,0.24648598170372843,0.2641933787203474,0.31163704198253545,0.5295366114308147,0.12395777383903338,0.2520194927596188,0.09237143255756142,0.25717265451783694,0.2570988407469355,0.1750075239904736,0.07890281617048155
72,101188.0,17919.0,[11],1,0.35059762062883354,0.2545036328749476,0.46839734996124915,0.34491523357744625,0.4146502036842619,0.2566326938357156,0.26040715864198594,0.3354130794346435,0.7949478672106398,0.4340112136998725,0.27490769241080243,0.1031780124536639,0.3817315064864433,0.4130043047879798,0.2173748476910488,0.12583780352902904
72,59047.0,12330.0,[14],1,0.2783667523112537,0.27905053802408486,0.5899049402065136,0.459739815630468,0.4512107897259074,0.4305432489384059,0.18789560354292523,0.3523302227282643,0.6323091244060988,0.4273280076381983,0.3658707493761399,0.13928104181042514,0.36720292198707827,0.5134592644202213,0.3932125578244002,0.3578046163865314
96,460369.0,79742.0,"[0,1,4,12]",4,0.1720096058070644,0.23609417068794314,0.32663048840078074,0.29117538865296594,0.25857415709026205,0.22412467876537617,0.2549385098934784,0.5148424561042645,0.15470590674988455,0.10337213447996083,0.24722668172793877,0.21262837709387675,0.1471405580599699,0.2606740459608231,0.20402268191003275,0.05754102340754266
96,77374.0,15515.0,[2],1,0.15296199712960296,0.2266078638169064,0.2326507087449012,0.36552830202686076,0.2606506140767827,0.23465107118619538,0.2487134472626882,0.6465796189731089,0.17331767626421646,0.1075030894493832,0.2502845330200901,0.3427084508355311,0.16409911196225987,0.4852648025619537,0.2176432705183334,0.05039245222423013
96,133484.0,14568.0,[15],1,0.16286462681171382,0.25252271151285305,0.37471093483258383,0.2928870535547654,0.28153019119075445,0.2240352719429922,0.2599347309302896,0.3191180043086385,0.22413090948254366,0.10542215870323211,0.2523006301201881,0.10874695239221387,0.12953906097844922,0.15816401556270412,0.19005606143571852,0.05753863557314897
96,28921.0,5477.0,[5],1,0.2608415893025961,0.24728454011495565,0.35978783636047695,0.3834900302662885,0.26008030173210916,0.2654957942412714,0.23182229726560669,0.33592581646225533,0.6669492899594901,0.13723244159172593,0.26427831298085075,0.21598459083245408,0.14772928251532033,0.5369144203507297,0.23953156446650153,0.07705991233314495
96,222466.0,45016.0,[6],1,0.2003822644800481,0.42539869538753294,0.5277634458415482,0.3196371767940944,0.5467322804736128,0.39022947166100425,0.2117835103726545,0.3386271825253576,0.5871532156310355,0.1410064404959519,0.25575372803996094,0.08779122850066937,0.3647216485427879,0.4030616926055057,0.19939633804195245,0.09090538007797175
96,47104.0,8522.0,[7],1,0.23603429522664177,0.25776837676067166,0.6657276127640138,0.3605205290208652,0.28345971604680914,0.2836381378427836,0.2631473529534763,0.3418828190444091,0.2801290196899561,0.16316735658728215,0.29247230168529603,0.1142748662110385,0.16496221898104607,0.22381372604503802,0.17676345685962366,0.12623710106600156
96,28701.0,2100.0,[8],1,0.19517317021428263,0.27008160583259805,0.3407715362525615,0.3680448495397419,0.2883395547358017,0.2803955703486018,0.2827405772327351,0.458728818766306,0.4449798386571802,0.12323637860000275,0.2730071138713706,0.1226835024039221,0.15396810626805738,0.2735643641003664,0.15516393620691213,0.07367651421384919
96,262001.0,55999.0,[9],1,0.1520345236994408,0.42203834804594714,0.5221703382294198,0.31945704842274975,0.548773653040512,0.0987076438722253,0.3280849448987393,0.3157852252932489,0.5788648952322748,0.1218971109814708,0.23393829092785498,0.09374686463010114,0.3538998714707234,0.3983433892790483,0.19614448951765137,0.0826399732575456
96,242589.0,30928.0,[10],1,0.17338128354485122,0.3513040491651026,0.4511212636905731,0.31460848069626773,0.431714033937245,0.24789862812992722,0.27057650384337534,0.317796659085401,0.5300465440385269,0.12605157254674534,0.2537938932306052,0.09325702518764499,0.2589380533104062,0.2638409103008763,0.17455065462653868,0.07833100887372275
96,122755.0,21567.0,[11],1,0.3559874599281997,0.25506071796628127,0.4653281409989543,0.35861068161736587,0.41454997352768397,0.25601360741531565,0.26365885189645794,0.34036616903224276,0.7947124375985491,0.4310218346110946,0.27798724997047664,0.10471829731395481,0.3832141371779935,0.4246979689009884,0.2165025696835339,0.12409559514621273
96,69030.0,9983.0,[14],1,0.2832253095548496,0.2799913566225977,0.590076824585094,0.46425141553287674,0.4533030498006825,0.4317940955318901,0.19280440554345302,0.35569189548914637,0.6352524168966532,0.4282309420360077,0.3698278273825489,0.14167320053744406,0.37278842096619846,0.5219210815069273,0.39506450046971264,0.3572937887201669
120,526004.0,65635.0,"[0,1,4,12]",4,0.17267158619648412,0.23655874143225217,0.3287006220198903,0.29380672745470054,0.25925730688039716,0.2236142049804013,0.2567935309552596,0.516745868657046,0.1543927047898434,0.10418324849146665,0.2482860090644629,0.21548900901942245,0.1471428410824242,0.2643384714478355,0.20400514399745645,0.05696303531273367
120,91772.0,14398.0,[2],1,0.15290449067891068,0.22640318990672773,0.23445443195742924,0.3748847365425681,0.26221029604081697,0.23478173963980367,0.25109181287870647,0.649618244271302,0.1728389760323925,0.1096002753970852,0.2513595039937308,0.3495531160233477,0.1649654991247785,0.49268814080111967,0.21728351905393747,0.049674351347445106
120,154453.0,20969.0,[15],1,0.16303009364212098,0.25375442011451826,0.3769030544069871,0.29493898943749214,0.2818654558555228,0.22328829092262423,0.2611678287160507,0.3182909934793819,0.2242214323512352,0.10601178012613184,0.2538771757820721,0.10877502818022018,0.12986369009944357,0.1581367322106073,0.18957143715729013,0.05708152719389973
120,35844.0,6923.0,[5],1,0.2629034520790542,0.24802905815300144,0.36015178318004176,0.40004386560800276,0.25997414444613565,0.2667103227986035,0.2353676396727306,0.3443611654716078,0.6631533367379886,0.13928254299876233,0.26736878630898564,0.21564674010942705,0.14990758930910725,0.543409736918888,0.23329772172653349,0.07593368207651306
120,299898.0,77432.0,[6],1,0.20061106963821837,0.43888057006637726,0.532127296907714,0.32941211370430573,0.5609381439379074,0.39550662416966853,0.2198938356988192,0.3468962118590393,0.5857253830358763,0.13818530847451416,0.2560127324760611,0.08723096667347836,0.37689130755849504,0.42551354151338655,0.1965837065870314,0.0871867925663889
120,59176.0,12072.0,[7],1,0.23646590976831833,0.26139928129294576,0.6635696839111646,0.365530744772532,0.28766169084247933,0.2854574273898365,0.2691642660311337,0.3464770785301961,0.2800357479654284,0.16330137246550955,0.2947962509434009,0.11707303976147766,0.16963863830979678,0.23100402774491594,0.1738766079385625,0.1238865615578976
120,34147.0,5446.0,[8],1,0.1960557214729402,0.2701994697848174,0.3393238656458634,0.3797935224792702,0.287119378041868,0.28047211690295476,0.28733864770911427,0.46284049205036587,0.45094098081005085,0.12464866805332461,0.27575871396194396,0.12183290465582265,0.15297360234175664,0.2800074663210961,0.1534784916002976,0.07308241772269816
120,349564.0,87563.0,[9],1,0.15116143744749977,0.4343273573014816,0.5283084468379721,0.3289559454894763,0.5625523900814172,0.09665906173872477,0.338373237769921,0.3227955060760811,0.5778460877586821,0.11921088325081318,0.23419257595678353,0.09357982658771916,0.3664093594834887,0.41953060619252985,0.19350877893636156,0.08012997643528326
120,268497.0,25908.0,[10],1,0.1750229268088409,0.3521696414369694,0.45303490631418325,0.3177439736239464,0.43172598189017597,0.2479751474666597,0.2731972777181853,0.3187497207893285,0.5290644165973784,0.12788194787210252,0.25519979274365046,0.09353001380315526,0.2593146023121164,0.26557081419387113,0.1732901183477473,0.07754042058368572
120,147165.0,24410.0,[11],1,0.36048512826118967,0.255583377445278,0.4656712768040972,0.37437855795834296,0.4140259664434659,0.2549596663190739,0.26535835459996954,0.3475644897209633,0.7944893874214736,0.4299212478305907,0.28082114383578755,0.10630454033571103,0.3851045839280019,0.43534476417421264,0.21331102198994153,0.12189611328962913
120,80929.0,11899.0,[14],1,0.28966593794501777,0.2830850039215773,0.5915693777348079,0.46965397539581694,0.4579455785094823,0.432819328104663,0.1973238427238608,0.35847198815736353,0.6362697406569398,0.428467396215374,0.3734615316021705,0.14434926166866807,0.37770584970944054,0.5325798809318485,0.3941208561161532,0.35473682171244775
144,590411.0,64407.0,"[0,1,4,12]",4,0.17438545747874157,0.2362442330487336,0.33052158431602013,0.3023909200777338,0.259696233394446,0.22374122750756428,0.25963688021538367,0.5219458944876555,0.1554442422611753,0.10540152901879332,0.2489273914909976,0.22233961107443634,0.14907076654941046,0.2706880633824726,0.203823237179502,0.056673669082137675
144,116700.0,24928.0,[2],1,0.1541648625054193,0.22481627213829777,0.23422417208512525,0.40246949520502606,0.26353631794057175,0.23486621425919177,0.25515296175610613,0.6545614609304389,0.18157209401565,0.11232911809740823,0.2517610547392898,0.35955341127212703,0.16812545963466885,0.5027429896105896,0.21624993674823612,0.04893011754135063
144,170457.0,16004.0,[15],1,0.16405044330670016,0.2542544996267335,0.3787969601951518,0.3000955654803304,0.282293016285523,0.22364896870710937,0.26294865247391647,0.3189177272007083,0.22441032553087428,0.1066809201735943,0.2548405940503958,0.1101269699965834,0.13165064594881085,0.16020946517534018,0.18961493164645538,0.05677200865566647
144,46115.0,10271.0,[5],1,0.2650738315187442,0.24713522772969715,0.3614669053321529,0.4294941589427054,0.2581487965798925,0.2687085578260032,0.2383403511970478,0.352794813916403,0.657817369509893,0.140159890614102,0.2691084735783123,0.21987546886614923,0.1484608886618361,0.5537376384272529,0.2295442551033734,0.07503480635677605
144,361653.0,61755.0,[6],1,0.20100092595432997,0.4452072842108901,0.5311481914679802,0.33838785392953236,0.5659712677322974,0.39689375328357657,0.2261265266832371,0.3510332988778129,0.5805451183976752,0.13902051249055106,0.25441531564949804,0.08849266206756189,0.3810686509671518,0.43526913218428653,0.19475532720710048,0.08457787163805025
144,66463.0,7287.0,[7],1,0.2369313963403086,0.2629802042273652,0.663577084230569,0.3706710594430459,0.28963463584253707,0.2867391587233807,0.2728989622573481,0.349075560641867,0.2816551538487912,0.16576277952270144,0.2952588546658399,0.11868936956059066,0.17327929898933275,0.2342148329808645,0.17390440521048298,0.12282404317548645
144,39852.0,5705.0,[8],1,0.19779337367444405,0.26847280403994667,0.3380599373339168,0.3945918434489052,0.28557027254177414,0.2801039651854783,0.29164852773147876,0.471761472952785,0.4576385335967292,0.12729766338953308,0.27655919790747696,0.12951238849085525,0.1551213982612863,0.28912429361698516,0.15388790479306175,0.07167430861237165
144,420541.0,70977.0,[9],1,0.1518518101538261,0.43968451014339327,0.5281307652862817,0.33980233162752776,0.5674008842664068,0.09697112267883509,0.3462959239447808,0.3268954053760731,0.5738069117991237,0.12027946414300017,0.23302666526830282,0.09514903593346116,0.37081985559051783,0.4302413148839158,0.19139702122917981,0.07805924194668312
144,283067.0,14570.0,[10],1,0.17727072357200616,0.35125704998068835,0.4545348161303078,0.32284713343517324,0.4309596786041781,0.2484542231155148,0.2765355560110331,0.32038550344905714,0.5295728619718605,0.13094944216202808,0.2562390878043032,0.09445124243655094,0.26007837348598956,0.26815685768766934,0.17261030861597523,0.07743305600545401
144,171626.0,24461.0,[11],1,0.3628187505654451,0.2551004017501594,0.46777377117900754,0.38825931584803197,0.41625204014516887,0.25322964217445637,0.2696871554527809,0.34904124501804623,0.7909051935784295,0.43612940569562997,0.2829849586890133,0.1091106207483224,0.3839834359881742,0.4473204788207427,0.21280289284546328,0.12192410106075287
144,26103.0,4958.0,[13],1,0.2329981489154201,0.23489674307594485,0.38482687833564705,0.3827994741283666,0.2697351391144621,0.24868346385683746,0.24315481551457016,0.2987093134937846,0.19565758835062338,0.12857531190749868,0.2545964098155586,0.25055261923817834,0.12698308576735004,0.5361160706892031,0.24430488372282916,0.06387786291934482
144,93478.0,12549.0,[14],1,0.2921847287110367,0.28260588128318276,0.5874804041580829,0.47844282348068606,0.46301039117040566,0.4334624450205241,0.20487681178044614,0.3633111421151377,0.6430908952376589,0.42940536512964306,0.3746453632705693,0.1478315799502577,0.37950570551320595,0.5435944107794146,0.39243188464430895,0.34915042657484385
168,634141.0,43730.0,"[0,1,4,12]",4,0.17352282023958296,0.23605734852692273,0.33095839248024855,0.3067279766303918,0.259840766772635,0.22402172900819908,0.2608473106034695,0.5242601515667764,0.156429801774342,0.10558601869768869,0.24904676372300102,0.2224518989453261,0.14959753563257988,0.2714005111409048,0.20398274736840272,0.05671581515089333
168,140818.0,24118.0,[2],1,0.15132288492252438,0.22446329404958829,0.2362281525748701,0.4214081927256143,0.2647645983144377,0.23710414282832848,0.26152902925081334,0.6587498469461641,0.1900612672322461,0.11530207755470054,0.2522968924472629,0.3606131658027506,0.16999821315539984,0.5040904641886677,0.21666066197407222,0.04976219922208137
168,25969.0,6915.0,[3],1,0.3275167483712305,0.29640750892713574,0.6035005717257204,0.5290924314015854,0.42317903756394304,0.34581833017912367,0.4583064402397472,0.41364553615215627,0.422899421518192,0.29213701748843124,0.365574504941998,0.18176236737568066,0.3413691335668932,0.5225564522188323,0.228595315117513,0.15447264045592785
168,199142.0,28685.0,[15],1,0.164097720657384,0.2562631530406826,0.3814982888332448,0.3108395057758273,0.2892812729774057,0.22315579685045508,0.265825974849121,0.3157905239953079,0.2314386159430464,0.10824674272630784,0.25546157905259237,0.1104479383333218,0.1364805385251556,0.16599347765937847,0.18672213304363422,0.058185665578942544
168,59632.0,13517.0,[5],1,0.25834143400489307,0.2458511366659093,0.3634695829286329,0.4591452617950585,0.25855043820630536,0.26837616635661093,0.24653113640671195,0.35999468459539125,0.6534302129448594,0.14204818796907182,0.27260519598260347,0.22127359675110903,0.14768568384246603,0.5514069257723064,0.23394941241685668,0.07800493250608406
168,400303.0,38650.0,[6],1,0.20106759856613599,0.44621600928868554,0.5314579564933684,0.34336093081131713,0.5687848329964975,0.3985405965068753,0.22848806055682952,0.3519590769094756,0.5759452408120125,0.13957830383927597,0.25405863019235697,0.08835997667560361,0.38105307177223247,0.4347693926859351,0.19458026901705688,0.08441918091311709
168,75938.0,9475.0,[7],1,0.237345280557267,0.2645052658966552,0.6642804008118515,0.37709899487688836,0.2944733844732639,0.28825970877871304,0.27416916497593835,0.3480608996362117,0.2876254590924177,0.16964873784839202,0.2955218907205165,0.11710758684409395,0.17872283746124343,0.23562679431822256,0.17283235883346565,0.12440881752453083
168,62218.0,22366.0,[8],1,0.19568610639235118,0.2613484331243516,0.3364847976723746,0.43383463092026625,0.284258225113704,0.277128300823071,0.3018787488573449,0.4850622673717481,0.4823295440171875,0.13641621008343996,0.2796339924535734,0.1387077209561881,0.16018326821570655,0.3084201378863626,0.15922350990613698,0.07566125941620724
168,467523.0,46982.0,[9],1,0.1509217562950815,0.44085817359755697,0.5285961708484059,0.34439395655895705,0.5701340133430151,0.09528154103110849,0.34934809227058544,0.32709100780528777,0.5689819288545678,0.12072989515467675,0.2322588106112859,0.095055147293823,0.37092159122825263,0.4292394611615836,0.19129822772282087,0.07812087953307248
168,351895.0,68828.0,[10],1,0.1759477061486965,0.3478182154388673,0.4559428435546295,0.33200592107726623,0.4333448128119923,0.24861207742460978,0.27766690470746014,0.3180180937323419,0.5273808433984615,0.13383569516757765,0.2563897877438698,0.09396848096563944,0.2610964190042403,0.26703546208576007,0.1711655771880375,0.07929624370199986
168,201242.0,29616.0,[11],1,0.3598514461500525,0.25436939907957345,0.47329513570840037,0.4047810462105227,0.42075834489199976,0.25178695324668704,0.27518164808071405,0.34610691537300625,0.783192829066273,0.4356693623889764,0.28417692671743744,0.10995176248566303,0.3835474982457587,0.4508819973982381,0.21094715016310378,0.12451457246692173
168,32292.0,6189.0,[13],1,0.2288724237584024,0.23527281648112353,0.3856223977024472,0.40428420135549015,0.26864973476286996,0.2498939131236852,0.24384529766469612,0.2999587644172452,0.20057872208904184,0.12989429855846255,0.25581855053239644,0.255385506389178,0.12602680478317654,0.5353526047560935,0.24832881519758426,0.06617637344161856
168,114407.0,20929.0,[14],1,0.29512543217730663,0.28110862271606846,0.5851795272624448,0.49154750006408515,0.46618513144622875,0.4323221620454633,0.2161006691039831,0.3654998016080262,0.6507392830881298,0.43228194331640335,0.37473089310341184,0.14875640168786144,0.37720828611366375,0.5453144111562499,0.39104676866693233,0.34344706287362886
