time_in_hour,cumulative_size,size,pcore_ids,pcore_power,AF700 CD48_[R 730_B-A],APCCy7 Ly6G_[R 780_A-A],BV421 CD117_[V 440_F-A],BV510 SCA-1_[V 525_E-A],BV605 CD11b_[V 610_D-A],BV650 CD150_[V 660_C-A],BV711 CD11c_[V 715_B-A],BV785 B220_[V 780_A-A],FITC Ly6C_[B 525_B-A],PE CD115_[YG 582_D-A],PECF594 CD135_[YG 610_C-A],PECy5 CD3-CD19-NK11_[YG 670_B-A],PECy7 CD16-32_[YG 780_A-A],PerCPCy5-5 CD45_[B 695_A-A],_FSC-A,_SSC-A
-1,0,0,[],0,0.0,0.0,0.0,0.0,0.0,0.0,0.0,0.0,0.0,0.0,0.0,0.0,0.0,0.0,0.0,0.0
0,127375,127375,"[2,7,8,12,14,16,17,25,27,34,37,42,43,44,51]",15,0.3077901507046146,0.16144855589401308,NA,0.5980788212286545,0.311924476294398,NA,0.006608383411189855,NA,NA,0.39704517256133554,0.20290481866928545,NA,0.63612951698528,NA,69030.6075132482,14416.415654563265
0,133156,133156,"[9,10,11,13,15,21,30,31,32,38,39,45,49]",13,0.24058877554898195,NA,NA,0.6505310287557435,NA,NA,NA,NA,NA,NA,0.1040116800144193,0.11134333232449123,2.1115905387815763,NA,NA,18703.496290065785
0,56137,56137,"[10,11,13,15,21,30,31]",7,0.34990894921353277,NA,NA,0.6656084240874955,NA,NA,NA,NA,NA,NA,0.14270257584124568,0.09774950182589182,2.245567679533995,NA,NA,18893.668275825254
0,48137,48137,"[7,8,12,14,16,17,25,27,37]",9,0.3107357724411557,0.1693822206203195,NA,0.6997343082452132,0.3411633014105564,NA,-0.04115562648274329,NA,NA,NA,0.23481595674844735,NA,0.6504242800548424,NA,NA,13796.592891123262
24,188467.5,169714.0,"[1,2,3,5,8,12,14,16,17,25,27,34,36,37,42,43,44,45,51]",19,0.3564166555692614,0.22500093367822016,NA,0.6493204839707136,0.36271957590631754,NA,0.007778851297966849,NA,NA,0.38222514448844147,0.19143135952617962,NA,0.5883323783424198,NA,NA,16567.23328955922
24,11492.625,10240.0,[7],1,-0.015300292829094841,0.005171852242202402,NA,1.2146480657813141,0.29213892366843996,NA,NA,NA,NA,0.32158907761499067,0.16531591098639886,NA,0.7038852300170727,NA,75952.38790093665,13074.054012899504
24,125523.5,110129.0,"[9,10,11,13,15,21,30,31,32,38,39,49]",12,0.2777501124341266,NA,NA,0.703318183212704,NA,NA,NA,NA,NA,NA,0.04558036150800282,0.11307861361916294,2.0751838975849117,NA,NA,21586.20586583388
24,59213.125,52196.0,"[10,11,13,15,21,30,31]",7,0.38232898210067345,NA,NA,0.7064817061061226,NA,NA,NA,NA,NA,NA,0.09214690617156363,0.10291974172955765,2.141255743912348,NA,NA,21650.946340021757
24,71509.5,64767.0,"[3,5,8,12,14,16,25,27,36,37,7]",11,0.3799901193530226,0.15701979671407562,NA,NA,0.26473339290933096,NA,-0.07377694624490383,NA,NA,0.42509974539396844,0.19938749811388545,NA,0.5273370105213285,NA,NA,15313.522147407017
48,207161.1875,182832.0,"[1,2,8,12,14,16,17,25,26,27,30,34,36,37,42,43,44,45,51]",19,NA,0.30165789745371807,NA,NA,NA,NA,NA,NA,NA,0.3641641995254129,0.18339105952468193,NA,NA,NA,NA,17423.179605011657
48,7998.578125,6562.0,[7],1,NA,0.03864214351183204,NA,NA,0.3136996756161756,NA,NA,4.386949302342826,NA,0.2843401222814995,0.15275733215864928,NA,0.6974882678855018,NA,72894.41021744095,13514.475486854037
48,83946.15625,72127.0,"[9,10,11,13,21,31,32,39,49]",9,NA,NA,NA,NA,NA,NA,NA,NA,NA,0.3270911184900154,NA,0.0860904923213438,NA,NA,NA,20185.119101269127
48,25601.921875,22852.0,"[8,12,14,16,17]",5,NA,0.24255172458061702,NA,NA,0.25247205611578716,NA,NA,NA,NA,0.43285441119288615,0.2965353373422235,NA,NA,NA,NA,19183.28184102389
48,69661.96875,61858.0,"[27,30,34,37,44,11,21,31,39]",9,NA,NA,NA,NA,NA,NA,NA,NA,NA,NA,0.21309693757376724,0.2401490449507736,NA,NA,NA,21194.68571579812
72,212647.111328125,187073.0,"[1,2,5,7,8,12,14,16,17,25,27,34,37,42,43,44,45,51]",18,0.2791319424014769,0.3991583124579319,NA,0.7728576396787568,0.5606307392446737,NA,0.013979520318659233,NA,NA,0.3801066500063971,0.19315479689208548,NA,0.7397070237514506,NA,68654.72662580712,18413.542383879598
72,138565.814453125,123043.0,"[4,6,9,10,11,13,15,21,30,31,32,38,39,48,49]",15,0.3399416861636839,NA,NA,0.945262876496967,NA,NA,NA,NA,NA,0.5071912818243357,0.2579441477444675,0.13424658808468548,1.8716252451682136,NA,NA,24227.16732658217
72,10725.5234375,8726.0,"[6,8,24,36]",4,0.9624113482759065,0.49869074693287985,NA,1.5005772930329404,NA,NA,NA,NA,NA,NA,0.40949775738454663,0.3987916513597106,NA,NA,NA,31776.766267963292
72,65137.478515625,55338.0,"[5,7,12,14,16,17,25,27,34,37]",10,0.3856693005880396,0.293126042011262,NA,NA,0.4173547025131574,NA,-0.06966304012220004,NA,NA,0.5306912196270656,0.25496052016967097,NA,0.6986055142561921,NA,NA,20311.10478021712
72,84849.41796875,74812.0,"[44,10,11,13,15,21,30,31,32,39]",10,0.28389956187535614,NA,NA,0.9163192764815076,NA,NA,NA,NA,NA,0.4908690543984148,0.2482639531559201,0.1343745988195043,NA,NA,NA,22655.59910744453
96,125706.98803710938,106007.0,"[2,7,8,12,14,16,17,25,27,34,37,42,43,44,51]",15,0.4323879558572805,0.21946999752127505,NA,NA,0.34418510884446807,NA,0.11197250517584179,NA,NA,0.46001387323465415,0.25896120263416567,NA,0.7065331203993895,NA,71068.72486963635,16123.03661269354
96,117074.52856445312,103345.0,"[10,11,13,15,21,30,31,32,38,39,45,49]",12,NA,NA,NA,1.0355597598420312,NA,NA,NA,NA,NA,0.5366824087141769,0.14352655458290853,0.1278652832475884,2.402814581834922,NA,NA,20193.47286580965
96,8704.7822265625,8178.0,[11],1,0.10034945179197252,NA,NA,1.0086995870926772,NA,NA,NA,NA,NA,0.5781574122101615,0.18419305052670998,0.12058923275853017,2.4955487002160046,NA,NA,18856.39442668962
96,18054.749267578125,14659.0,"[13,21,30,31]",4,0.47659603798054384,NA,NA,1.0793334747075392,NA,NA,NA,NA,NA,0.524017043929304,0.17970605437088016,0.1392866493421775,2.1937436973798197,NA,NA,23905.410766701036
96,41769.485595703125,34619.0,"[7,12,14,16,17,25,27,37]",8,0.4159278654611074,0.2333360113801679,NA,NA,0.37074694217075654,NA,0.048642806737349,NA,NA,0.5791613591158818,0.3153315551227549,NA,0.7282378338410217,NA,NA,16664.51044220198
120,109123.39453125,94402.0,"[2,7,12,16,17,25,27,34,37,42,43,44,51]",13,0.3794150308639306,0.2570776379118431,NA,NA,0.4058893015808178,NA,0.1581147901667892,NA,NA,0.46686748066536243,0.2963652973951838,NA,0.6666025124726497,NA,69556.49340232273,15876.663666568811
120,156017.10879516602,142615.0,"[10,11,13,15,21,30,31,32,38,39,49]",11,NA,NA,NA,1.1473278748567801,NA,NA,NA,NA,NA,0.4266472968176851,NA,0.10815701182103366,2.639514410414233,NA,66467.78122221949,18952.3363066334
120,14221.097778320312,13133.0,[11],1,0.016266498983163125,NA,2.238030026095743,1.0794280943704413,3.4083004893503523,NA,NA,NA,NA,0.44660079212924875,NA,0.10013410395256794,2.6597851348057175,NA,66407.76092251182,17714.005824982443
120,23636.843658447266,21380.0,"[13,21,30,31]",4,0.472500214933147,NA,NA,1.2224258412107165,NA,NA,NA,NA,NA,0.4224584061984745,0.15337689936853494,0.13219563036529036,2.2880865572067304,NA,NA,22670.16148325311
144,162159.25731658936,137240.0,"[0,4,9,10,11,13,15,21,30,31,32,38,39,45,49]",15,NA,NA,2.193537651951575,NA,NA,NA,NA,NA,NA,NA,0.05469961082043939,0.15301385099884002,2.529886317041849,NA,65539.97196452446,17884.772818914218
144,89553.958278656,77338.0,"[2,12,16,25,27,34,37,42,43,44]",10,0.47441838496475386,0.17964527042015987,NA,NA,0.3181655094515943,NA,0.18971440377426463,NA,NA,0.4613144819930689,0.26781608120456646,NA,0.7130822945226379,NA,69635.21842273528,15237.689957510744
144,31734.714740753174,26856.0,"[4,10,11]",3,NA,NA,2.123100139277182,NA,NA,NA,NA,NA,NA,NA,0.13105654961429591,0.15840592556608224,2.6050606697157552,NA,65646.06411016118,17023.322170430627
144,27666.639572143555,22826.0,"[9,13,21,30,31]",5,NA,NA,NA,NA,NA,NA,NA,NA,NA,NA,0.08140504797270731,0.17393927067021842,2.2583402952659326,NA,64528.67992194962,20281.764663683123
144,27356.50731277466,23569.0,"[12,16,25,27,37,51]",6,0.5488256067801798,0.20998901909819345,NA,NA,0.2978932618690817,NA,0.07695949218644982,NA,NA,0.538313566211451,0.3068271815302075,NA,NA,NA,NA,15446.127906387657
168,154427.2513756752,139577.0,"[9,10,11,13,16,21,27,30,31,32,39,44,45]",13,0.22204038983224272,NA,NA,NA,NA,NA,NA,NA,NA,0.6332689705974962,0.15485696025472517,0.1670849888422694,NA,NA,NA,21633.535713517354
168,40863.13225698471,34982.0,"[10,11,13,21,30,31]",6,0.375641473293959,NA,NA,NA,NA,NA,NA,NA,NA,0.6746552679111818,0.17517994317046126,0.14855788786475232,2.2739143924283503,NA,NA,22359.701987023138
168,38932.99585914612,37225.0,"[16,27,39,44]",4,0.36782068782475585,0.7398111207339184,NA,NA,NA,NA,0.3205150211226284,NA,NA,NA,0.31866484116866145,0.2111855463589959,NA,NA,NA,22909.993201800637
