time_in_hour,cumulative_size,size,pcore_ids,pcore_power,AF700 CD48_[R 730_B-A],APCCy7 Ly6G_[R 780_A-A],BV421 CD117_[V 440_F-A],BV510 SCA-1_[V 525_E-A],BV605 CD11b_[V 610_D-A],BV650 CD150_[V 660_C-A],BV711 CD11c_[V 715_B-A],BV785 B220_[V 780_A-A],FITC Ly6C_[B 525_B-A],PE CD115_[YG 582_D-A],PECF594 CD135_[YG 610_C-A],PECy5 CD3-CD19-NK11_[YG 670_B-A],PECy7 CD16-32_[YG 780_A-A],PerCPCy5-5 CD45_[B 695_A-A],_FSC-A,_SSC-A
-1,0,0,[],0,0.0,0.0,0.0,0.0,0.0,0.0,0.0,0.0,0.0,0.0,0.0,0.0,0.0,0.0,0.0,0.0
0,116159,116159,"[2,3,6,24,25,33,40,47,50,52]",10,0.2808679387477562,0.15561908175001626,0.42340019060943135,0.5390021337046607,0.312768574557281,0.18129547311874128,0.03557334425227321,2.4101458816622223,0.7895493362632263,0.36332605567368936,0.18384768140221475,0.9173437258585269,0.6021219623274997,1.0391203497361365,69236.57014953639,13998.824094559992
24,251470.0,130676.0,"[1,2,3,6,24,25,33,40,50,52]",10,0.3076009167495197,0.1588120322503701,0.607182653421888,0.5388993746291795,0.2653227375631273,0.2719658111742993,0.010557556205515795,2.232986679162532,0.813981344554021,0.35051553052054185,0.181137207647029,0.8116897587227094,0.546455688682547,0.8948451940509792,70454.5884598561,15143.647067244523
24,20241.0,11207.0,[47],1,-0.03774499021787214,0.041827586482895196,-0.19870974902424043,0.97352045684501,0.4452577156761124,-0.3935110183291327,0.25959338189811865,4.0712299714934534,0.7560263062595663,0.2967123494392585,0.1288730957462776,1.856227611234635,0.7200082969220923,2.168885992935127,73531.604960229,12863.440343856555
24,31277.0,17067.0,"[3,21,43]",3,0.2426691214310861,0.16735120040284768,0.09646307465550308,0.9285926413338763,0.31948548159989576,0.49475676631390875,-0.11574590750390978,2.227165759535782,1.3331934079035697,0.39653939706493746,0.2288056886210188,1.03333134242415,0.6010895329795075,1.341365846596541,65790.46327972639,13962.636314224466
24,231196.0,108957.0,"[10,11,13,18,19,20,29,31,35,42,44,45,49]",13,0.2191109149898789,1.9097543024100831,1.9537499115512342,0.6735444314347938,2.7126231849296656,0.15803854676119156,0.24482442547880678,0.6196037204925684,3.8628218003425583,0.524312051795878,0.08111932690444057,0.12084842924185535,1.998269306899771,1.5309245687944353,65792.76015155972,19546.903718057394
24,12634.0,6754.0,[21],1,0.13547787177458193,-0.01747141578281397,-0.708580314706333,1.240175050419496,0.06734553340192706,0.9012949484723818,-0.4938836893303664,4.416626236979597,0.7497489145163857,0.36614603593477957,0.2224631875098857,2.1532124804495885,0.7367009771252232,2.4208813834098475,75193.9059680228,12828.231122368143
24,77968.0,33223.0,"[11,13,18,19,20,41,46]",7,0.39316944179663604,1.965156112969428,2.137002988033552,0.7220697565283167,2.8834309864944543,0.8579716608608658,-0.15652447464344021,0.6984939359224298,4.06124140544839,0.5943467972629798,0.15463456770726225,0.10762640862918205,2.1668531211522675,1.681835652152164,69155.24646008619,21586.56105068744
24,70343.0,40137.0,"[31,35,42,44,45]",5,0.31766339286069467,1.0759640528410865,1.9837273412706353,0.7098444947471667,2.281810172327018,0.07192593271541381,0.3618136255775317,0.6285629215842383,3.79585422206901,0.4576415465646859,0.13562692837951484,0.1391469650142857,1.6308827648806474,1.0684225107828749,64280.46435324053,21794.770879831674
24,21761.0,12251.0,"[24,33]",2,0.5166621625384831,0.3319991412159444,2.3588504285189296,0.9364465745600006,0.48724159634208375,0.4103285015854017,0.13698684996092725,0.8121283253986338,1.4540151652957132,0.6122668307063127,0.4162616693166781,0.3446059632829379,0.6190319728413213,0.7371506801617573,66172.2442902441,25344.844078856582
48,393451.0,135193.0,"[1,2,3,6,7,14,24,25,33,40,50,52]",12,0.30547446672648304,0.16897960838071135,0.6141766924877636,0.5758000643155001,0.2563443826143512,0.28999661449074865,0.02863955782042993,2.2117070917242403,0.9298364783467242,0.34108572161209616,0.18707843171575522,0.7506204957186515,0.5399959983377843,0.8679901082904882,69213.57867688753,15882.367176598778
48,28295.0,8054.0,[47],1,-0.059152891535605656,0.05017897653297698,-0.20262868711785087,1.0060017232019858,0.4410984096483559,-0.395257715603461,0.3069026875066121,4.096895827213234,0.762450633150732,0.2881672070683833,0.1245363006184963,1.836908950238568,0.7070967499204884,2.123027802191197,72913.30793426391,13074.418519172936
48,97183.0,42309.0,"[30,44,45]",3,0.4395872356276247,1.006046838037531,1.4448320987209673,0.5985685304631492,1.6135248212032933,0.39170418962163533,0.08119953607112729,0.5627344335737683,3.721515112149256,0.7640805077637026,0.21196673332784544,0.12471586097362675,1.3616260143029164,0.8219205716226046,60749.78874906128,19590.781762242303
48,22615.0,5913.0,"[21,26]",2,0.36091494242759437,0.052303961618392236,-0.30389196926817563,1.1820813532611205,0.14287407534821916,0.6254898982975945,-0.3495842307318058,3.4672390232588812,1.7760518377183279,0.3763831460535064,0.2154524515144738,1.8798379669246148,0.6713340493035665,2.441489815432229,75994.44050409031,14582.75162502757
48,300278.0,82691.0,"[8,9,10,11,13,18,19,20,28,29,31,35,42,49]",14,0.21915674635504456,2.0615812108479608,2.029091420883303,0.6670118799712172,2.8820034455038273,0.15990325492044133,0.24428606739421,0.6322300840054886,3.9317245834726458,0.4825954783200912,0.06762580753501313,0.10885617314954776,2.1498239969794635,1.6203761712712874,66053.12570351476,19730.272560760357
48,17024.0,4050.0,[9],1,0.5620009857847765,2.013889064027249,2.0611093297109524,0.6262255884046128,2.6217685862899187,1.4440255285479424,-0.7201435848214295,0.8945883283599803,3.915358888921532,0.5622024671052644,0.2328641425046909,0.09575994807330801,2.059308730321904,1.434824203712402,65615.99248120321,20600.496240601522
48,14938.0,5005.0,"[7,39]",2,1.4742094035346078,0.2919642334315089,3.9495225429776712,1.3302862359753749,0.48165660844825053,0.7687273066006153,0.06156040206184654,0.9795262561922566,1.6054218834515943,1.034973939684034,0.7209243557370488,0.24391153481055206,0.9279057675726322,1.1843830467264702,69192.96719775075,36572.89811219708
48,24843.0,7321.0,"[14,21]",2,0.3420885081511922,0.07293722690496418,-0.30790596268565507,1.5746691061868638,0.11208920830817837,0.822455776395769,0.17147339532263528,4.040602540031375,1.9418069752445284,0.39531609672744916,0.313467126474253,1.5283899238819858,0.67303771601659,2.1526534792094303,68584.73968522329,15348.43295898236
48,109522.0,31554.0,"[11,13,18,19,20,41,46]",7,0.3893738231588175,1.9990243744087914,2.136454483427982,0.7037888460309376,2.935038081636556,0.8800617370756585,-0.1762156898157441,0.6865407119482856,4.06223317034934,0.5296375773908443,0.14854371080696138,0.09289565610562456,2.229278659109585,1.6631356498603038,68920.16318182644,21658.403608407414
48,20611.0,7172.0,"[28,31]",2,0.46522067497938036,0.8224718957353088,2.3766277161224534,0.8588993830964089,2.5630395655232694,-0.30276065770705074,0.8139145488331376,0.6585569576439751,3.9047279395468366,0.5174938742419112,0.1776266546504388,0.17866414007083298,1.8795990319246987,1.2040946035126874,63278.723011983915,24682.6708068508
48,12871.0,4243.0,[40],1,0.3520438327247304,0.11039887506796964,1.0245653435630517,0.8829766973817064,0.14245049172557556,0.8269894343096984,-0.4821491738792636,3.878576673607342,1.0174406224846497,0.4583330408670657,0.21363033462822134,1.751283659078545,0.7324526390334866,1.9886183897909866,75828.70763732432,16529.96037603912
48,20072.0,7417.0,"[35,42]",2,0.4624671065165351,0.8953742736149972,3.1597231271422888,0.9545059608409789,3.4976069855520024,-0.6849076987843754,0.9539963761957022,0.7811059230270998,4.917035008320075,0.33672372548824314,-0.04170069649261876,0.13491733100836856,2.4227465045834977,1.6591006001893176,76253.72977281775,32152.404942208057
48,5538.0,2188.0,[33],1,0.4645863302636386,0.15099629739978626,0.9077847744673115,0.9083586654026732,0.5953803001083404,-0.23973102816901215,0.6071224505236539,0.45768765222101937,1.0386273555435115,0.45551696894185534,0.18082571596244223,0.7634272253521126,0.4945278080534482,1.8158936133983412,76424.17045864931,17202.871794871717
72,538710.0,139829.0,"[1,2,3,6,24,25,30,33,40,50,52]",11,0.33076443806315603,0.19847317477863635,0.58718729979952,0.589330184861983,0.30976750815095144,0.28211370452933604,0.0015449149227069192,2.1603394797237936,1.0334868042044838,0.4162195913070148,0.18507623321267008,0.7163839685730746,0.6105887197304657,0.8753589624844487,69058.22671195999,16639.377119414785
72,37871.0,9576.0,[47],1,-0.0281378293417065,0.07576965900030252,-0.23306501095825594,1.0779091153653222,0.44943065395685666,-0.3600263036360214,0.2711204987457343,4.0310819688151955,0.7726001124871312,0.30102521229965007,0.12925305257320652,1.7464389835494334,0.7263309104856001,2.116359168308208,73095.18565657105,13806.378917905467
72,140895.0,56188.0,"[28,44,45]",3,0.2721541628020767,1.1967283318570656,1.4469112129458206,0.7097008699031195,1.7648818285673706,0.34597240523085326,0.13804968597892087,0.613405428269298,3.2146071168458903,0.4405764051527723,0.22519307853367554,0.1422280158983582,1.3094889296994343,0.8796987476560569,62542.2581071014,20088.252045849644
72,21067.0,3951.0,[21],1,0.18586759700005473,0.016804476669666446,-0.7097356610813028,1.332372422604076,0.06931280737646084,0.9290870175630197,-0.4924339231024808,4.37087689120423,0.7858146203066395,0.36972121934779856,0.22133303441401786,2.0378246148953445,0.7470395165899345,2.362353982152173,74650.25679973427,13728.682014524991
72,434761.0,100434.0,"[8,9,10,11,13,15,18,19,20,29,31,35,38,41,42,46,49]",17,0.3273723108673505,1.8661329541104283,2.0488006003758303,0.7834658474863136,2.771955180855677,0.27963883605475437,0.13907057696067415,0.6989129526314448,3.951146409556056,0.5308563132157683,0.13600402112654475,0.13036320779232757,2.0805740067278333,1.617117226526755,68315.82306600643,22670.187988343005
72,21028.0,4004.0,[9],1,0.5788137196119447,1.9241521055735094,2.0143924467852083,0.7187861880350042,2.589440467424326,1.4230957455297715,-0.675645155078942,0.90474522888531,3.871119343113945,0.6044495817956993,0.28153792590830884,0.11012256510367135,2.0291872694978212,1.4596456440460248,66990.8069241012,22798.895187369268
72,13327.0,1649.0,[39],1,1.592184136339757,0.23908973399864086,4.218235202971417,1.2829714752757746,0.4828715259248093,0.6602932600735265,0.1959350815637313,0.8875034115704836,1.4691657085615577,1.0138555531627573,0.6827379752382416,0.20422163622720946,0.9209983414872019,1.1926277652885136,61370.00675320768,35440.2100997973
72,21067.0,3951.0,[21],1,0.18586759700005473,0.016804476669666446,-0.7097356610813028,1.332372422604076,0.06931280737646084,0.9290870175630197,-0.4924339231024808,4.37087689120423,0.7858146203066395,0.36972121934779856,0.22133303441401786,2.0378246148953445,0.7470395165899345,2.362353982152173,74650.25679973427,13728.682014524991
72,87412.0,15179.0,"[13,18,19,20]",4,0.2297438760467705,2.2182790816363847,1.9203458897634174,0.7128660296298057,2.7826565521324143,0.5565550449251828,0.08206159287053838,0.5996250473619145,3.8491995073902845,0.5532347938269339,0.14613880621653585,0.11487122872145916,2.1549162715073384,1.681871705749778,67299.86143778892,20316.186152930888
72,61078.0,13846.0,"[34,37,53]",3,1.208491265725794,0.6194936502505004,2.669079276335179,2.2562291410982778,2.1707568281869034,1.436106270850401,-0.5503614734437985,1.0430445896558513,4.327031731065203,3.1237883166442915,1.3822223352270893,0.4845952420184044,2.345711996365301,2.423345079210177,118300.53374373744,98406.34048266159
72,43057.0,7509.0,"[28,15,31,38]",4,0.801468892677146,0.6312214935782996,2.5838750937594326,1.0474729674152878,1.830678296374582,0.10290575274636216,0.4257384257844219,0.6958777898831743,4.099146071649187,0.7331641485240518,0.2850088092760745,0.28134336161367335,1.6328742560791505,1.3360422727779446,65467.398100192695,29834.62628608591
72,7021.0,1483.0,[33],1,0.47911196197123873,0.21387837003276333,0.9349211837345042,0.9402814614727393,0.6986252814413918,-0.23568106708445957,0.6279052666286753,0.48360470687936274,1.0865757584389644,0.5124163056544636,0.1884880964250093,0.7138433401224868,0.5876033416892187,1.7971991016949225,75502.233869819,17546.099985756973
72,15944.0,3073.0,[40],1,0.35810250852985726,0.13256142605367227,0.9748732237205222,0.9327170361891559,0.17312583655293068,0.7997458928750689,-0.4528294633717982,3.8080204434897187,1.0408015677370765,0.4635950629076756,0.22005179829401467,1.6661524592323054,0.7538046391746068,1.9798285614651177,75884.19869543405,17154.773707977874
72,24855.0,4783.0,"[35,42]",2,0.5086304803459989,0.8984425781130545,3.096049817622205,1.04535066111448,3.4035644280828765,-0.6344224228123102,0.8907115024743675,0.8084466541943209,4.841933754737501,0.4065123196942263,0.01969197135385592,0.14676422977267978,2.3752438912090073,1.6643671308388661,76365.38966002793,32747.655441561135
72,8693.0,2099.0,[50],1,0.6297764939606523,0.48428035580351425,0.8537441046819336,1.3261826850339338,0.5071571207868351,0.7110237308179044,0.263244657655596,2.082598166800894,2.744187139767617,0.5556922013114048,0.5250443317611864,0.3069718019095815,0.674822190613137,1.127976752789606,57373.2575635569,21618.74059588168
96,637135.0,98425.0,"[1,2,3,6,24,25,30,33,40,50,52]",11,0.3543222166746476,0.20018252517127344,0.5936334971097241,0.6234716553462047,0.3098723319437813,0.2795371625102936,0.022745939049053643,2.230679009869192,1.0128417716182518,0.42532983144389014,0.19677876784040205,0.7690279045743829,0.6216819447652352,0.9032121013380148,69322.34591413104,16495.28276424918
96,47593.0,9722.0,[47],1,0.028195425566785115,0.08520664982245751,-0.22616002195701457,1.140836543462266,0.4635997388691604,-0.37952529180761996,0.3106894609081192,4.0500184461580355,0.7643158426869466,0.3274459676212852,0.14371824791460508,1.7878976436660983,0.7508399787573853,2.1347128524152694,73200.65656714236,13721.344231294486
96,151324.0,15015.0,"[44,45]",2,0.24691507801140955,1.2373729908210276,1.4318760388702345,0.7022887523525703,1.795414770908787,0.34085923772171345,0.12808754984007953,0.6283015271933308,3.2432684920237516,0.42716497837091394,0.21305211288363513,0.13904244704078106,1.3058648744416028,0.858672343250245,62776.35040046561,19773.299569136227
96,26721.0,5654.0,[21],1,0.21979802237941426,0.028757936005392004,-0.7028307032296586,1.4969734092286835,0.08358553976272587,0.9466499893716611,-0.4405855848957727,4.412639548632157,0.7864921093521858,0.4085208079413286,0.23895905969087794,2.1009642304554617,0.7558900200217141,2.4062132650349857,74856.94218030761,13587.192096104036
96,511728.0,103963.0,"[8,9,10,11,13,18,19,20,28,29,31,35,38,41,42,49]",16,0.2829939230333296,2.052612209339742,1.9832045739103479,0.830423621480548,2.8751441399473854,0.20633426775552732,0.28597906743621104,0.7307234340880182,3.851781914309941,0.5269610891626021,0.12829516846644262,0.13518159260974583,2.158332487159198,1.71657363208774,68084.42822749597,21240.808554544616
96,49144.0,9595.0,"[15,27,46]",3,1.3296787071259903,0.7099860268394966,2.8684826763185796,1.1539014794481575,2.385789814931623,1.2631681345637416,-0.47755650852596476,1.1300854600765113,4.94009251625835,1.0985479254435955,0.37131508684680936,0.1383061657374245,2.1816544131938858,1.5991548239866589,70673.79065603143,33985.55884746858
96,19422.0,2152.0,[18],1,0.35528955524662686,1.6593735448460558,1.9786903727216711,0.7267413005869527,2.38472107440016,0.9460209947482177,-0.036485034033576724,0.5227310009782613,3.8164392018329747,0.5398639627741683,0.24659889686953074,0.1243185459272993,1.8366533447121811,1.260042284522695,65865.53310678617,21938.288538770314
96,16040.0,2713.0,[39],1,1.6274587686408875,0.24798957624688045,4.244837400748128,1.3406768385286858,0.5014984600374026,0.6661373341645813,0.257681100748115,0.9378480196383898,1.4687871341645793,1.036039160536165,0.7026222546758181,0.22742692462593728,0.9609793999999957,1.243076205361599,61203.786533665705,35318.51571072319
96,66943.0,11452.0,"[32,36,51]",3,2.20084346415607,0.35870517641875566,1.9897799033506014,1.222248952108517,1.836745882317802,0.5893654936587795,-0.04980822057571821,0.9874376835516703,5.772479519800438,3.423347684492774,0.44910328942534594,0.20546350608727149,2.630313075960147,2.003887901438535,75308.87065115113,33744.973484905
96,16350.0,2928.0,[15],1,1.4900521556574817,0.42033972477065173,3.796336702446514,1.3067521801223414,1.1484881437920569,0.7865483228746213,-0.03715321938837457,0.9009836811620682,4.744417054067265,1.2413283278287497,0.504745276391426,0.20165454746177336,1.7510732812844076,1.275902625565749,63061.90874617752,42214.13773700299
96,71592.0,10514.0,"[34,37,53]",3,1.2482423335009576,0.6299551389540787,2.6777560607330373,2.292914973293114,2.2026626492624817,1.438511163733392,-0.4905207940412435,1.0703638759079221,4.348552263646778,3.1350522346770626,1.4206653076181737,0.5040398987037695,2.3930126614845264,2.471356850081009,118973.62029276995,98600.63738965263
96,17811.0,2988.0,[32],1,2.278252053393963,0.3142374539891106,3.0900627577339574,1.3018617494245173,0.4634544145752839,0.8357653976755925,-0.11468312795462365,0.7752186519566471,5.478649192577598,3.66522210521588,0.5658118663747262,0.21220596839032224,2.583018690472185,1.3334869829880416,74059.70332940316,44963.30761888712
96,12088.0,2232.0,"[28,38]",2,0.9556016779450631,0.3725533102250238,1.2711709003970948,1.398872766545331,0.7419558625910048,0.2697226920913287,0.6694911280608853,0.5787993689609605,2.7076212384182665,0.7813748316512269,0.513685103821973,0.7025263366975532,1.0173081471707488,1.9808779206651186,69027.7220383852,20919.45996029119
96,8060.0,1039.0,[33],1,0.5094232815136537,0.21360691104218255,0.957496476674927,0.9734207459057287,0.6991597266749343,-0.24334319987593067,0.6499604093052076,0.4938773841191053,1.088946109057067,0.5271048888337452,0.20929001327543206,0.7147083588089296,0.6034844377171237,1.8164080089330115,75651.66054590562,17550.42779156327
96,31680.0,6644.0,"[27,41,42]",3,1.2499880818181774,0.6994978131944496,2.7577389254419225,1.2663219069128813,2.6279267923611065,0.733292903756311,0.053322056849744115,1.084201495202021,5.246414715467178,1.1944266858585828,0.39002840590277366,0.18312082383207084,2.398338958806814,1.7503910583333366,82176.88080808069,35689.29898989899
96,20612.0,4668.0,[40],1,0.42882005744227647,0.14536823170966162,0.9921954145158143,0.960888911847467,0.18281777382108055,0.7936394180574455,-0.43149525087326923,3.81030137017272,1.032933139093731,0.4881421594216965,0.23980241170192462,1.701253181884332,0.780081853240827,1.989672317484951,76075.85484183973,17093.126334174136
96,9449.0,756.0,[50],1,0.6380895860937621,0.48387761921896244,0.8520248332098683,1.355955036194307,0.4999912259498327,0.7152685269340713,0.2585984098846552,2.093775858609403,2.7467357458990236,0.565607149116314,0.5345981685892673,0.3165068298232615,0.6739463184463966,1.1328787536247253,57487.327759551285,21550.931527145673
120,729500.0,92365.0,"[1,2,3,6,24,25,30,33,40,50,52]",11,0.357576479262512,0.2092950483372138,0.6226836961740929,0.6459092403742361,0.3160139923331098,0.27959424096641183,0.03810958199591097,2.2333704531076286,1.0059245271240522,0.4287872876984269,0.20955282603837633,0.7789222132350921,0.620348082788207,0.9121700687731247,69227.54184509926,16410.251054146516
120,57182.0,9589.0,[47],1,0.03592385857437752,0.08709906279947832,-0.19523543830226897,1.198038628169718,0.48272033909271705,-0.3980673566681836,0.3438921670281032,4.064753207145594,0.7574304000909248,0.3418489377776228,0.1539289462068547,1.8238075406421665,0.7584496433318214,2.1566762384841263,73123.32971914255,13568.12871183239
120,167369.0,16045.0,"[44,45]",2,0.2539029198477536,1.2519033394296466,1.4429306168406315,0.722334160961704,1.8005966837227945,0.3369089312118778,0.15205011132884705,0.6339399095711,3.228865408002686,0.4367641539890911,0.22552245339341104,0.14079167377470847,1.3071072776619421,0.862982763767487,62642.35752140512,19572.134098907078
120,742980.0,174219.0,"[5,8,9,10,11,13,15,18,19,20,27,29,31,35,41,42,46,49]",18,0.3660040510794338,2.064886620125721,2.1574083817518592,0.9303245238512452,3.023401207140147,0.33208985966513493,0.2973262398489873,0.8383464668510316,3.9915949961331463,0.5502229456566782,0.14484092645966085,0.11989106617809608,2.2860857563770307,1.8006972434910702,67762.79100917936,21887.362653099743
120,33252.0,6531.0,[21],1,0.22055414519428784,0.028476255232761094,-0.6671641978828289,1.6383006785155962,0.10711633820520516,0.9596062350234671,-0.39063405774088444,4.438027802237491,0.7898069395224346,0.43875500547335755,0.25074473601588343,2.153179257608575,0.7666807068447076,2.442624343167324,74631.16371947572,13430.688319499413
120,15257.0,3169.0,"[28,38]",2,0.9853345516811858,0.3775227820672571,1.3204908342400201,1.4594295764567042,0.7519423488234889,0.2639475050140896,0.719840180835023,0.6023790245133429,2.6955079217408393,0.806486929606084,0.5440855207445789,0.7046436597627361,1.0412619600183532,2.013851714557247,67823.61093268664,20658.72766598934
120,24766.0,2083.0,[9],1,0.5890369554631287,1.9289108326738198,2.0155763851247266,0.7462226183073573,2.6232641090607625,1.4358370317774358,-0.6587846114431084,0.9347674120164782,3.846150460066226,0.5979103798756343,0.2885343902931372,0.11033118412339704,2.034537974561896,1.466280915044808,66685.80602438854,22425.224259064948
120,20080.0,658.0,[18],1,0.35457816424302857,1.657344955627492,1.9809110232071805,0.7317056696215012,2.3909991160358497,0.9472139059262903,-0.03130175204183949,0.5200848613545674,3.81085283844622,0.5379012983067663,0.24656346982071708,0.12329190054780803,1.835747670717125,1.2591864486055668,65741.587250996,21823.627091633338
120,19134.0,3094.0,[39],1,1.6734353391344994,0.2536472242604799,4.265531655691412,1.379897056078197,0.5253345486045684,0.666707540921919,0.3061500544057516,0.9620996231315839,1.4575798160342774,1.0230717568725853,0.7259417538936064,0.23828185209574926,0.9936009062401928,1.2954423825128076,60397.77735967385,34908.52137556178
120,19988.0,3638.0,[15],1,1.5380476926155742,0.4176779367620731,3.8262382373924493,1.3811826975185282,1.1297339751350894,0.7899708566139714,-0.01636629152491098,0.9307044078947206,4.745450139783851,1.256933633580151,0.5345204219531516,0.20835446057634643,1.795868397438459,1.3177667958274966,62474.9921953173,41321.275965579385
120,84145.0,12553.0,"[34,37,53]",3,1.3098865196624982,0.659139423495164,2.7009656282013146,2.328848302263958,2.2550494268227337,1.4347734867074873,-0.4502081848475914,1.0819033467704608,4.359576068310644,3.135175158726008,1.451817130738608,0.5188737733079829,2.4339312113732245,2.525567609863927,118797.71803434526,97842.04085804304
120,60858.0,11726.0,"[36,51]",2,2.2066353953465434,0.3885009685826204,1.5940885831443832,1.4011026541128628,2.3564102031614707,0.4973349200926691,0.012656586841490736,1.1708249393177517,5.872990612327081,3.335824184889412,0.44095623234415715,0.21922865246968615,2.652162313779609,2.326820429803809,74877.86098787357,29385.557198724753
120,15257.0,3169.0,"[28,38]",2,0.9853345516811858,0.3775227820672571,1.3204908342400201,1.4594295764567042,0.7519423488234889,0.2639475050140896,0.719840180835023,0.6023790245133429,2.6955079217408393,0.806486929606084,0.5440855207445789,0.7046436597627361,1.0412619600183532,2.013851714557247,67823.61093268664,20658.72766598934
120,9368.0,1308.0,[33],1,0.5252139684030792,0.21078983336891932,0.9767868385994749,0.9958866110162408,0.708631374893252,-0.25838672128522644,0.6598835270068277,0.4855214104397927,1.075690301131511,0.5345657221391958,0.23190495911614128,0.7029289011528559,0.6011814264517549,1.8312663789496268,75232.34158838596,17472.690008539714
120,42312.0,10632.0,"[27,41,42]",3,1.3074474204008257,0.6861627051900174,2.7258264540083306,1.4041288494044353,2.6438616638778547,0.7480151357534524,0.10047109117980568,1.1709668811920992,5.242580280558709,1.2147212407827523,0.40971800642843226,0.1875154115144635,2.435122922409709,1.8213242398846707,80314.28701077706,34459.93117791642
120,11130.0,1681.0,[50],1,0.640872243126684,0.49300508706198887,0.8482496326145621,1.4003291809523803,0.4909390828391724,0.7313377302785311,0.25185659667565696,2.1080077678347013,2.7590646545372706,0.5742685373764639,0.5529665620844577,0.32408737187780434,0.6677874746630713,1.1354113982030578,57244.210601976476,21313.08104222818
144,809182.0,79682.0,"[1,2,3,6,24,25,30,33,40,50,52]",11,0.3696940528570931,0.2078531489887241,0.6371368629776684,0.7046134791678615,0.31662176737372016,0.28226187359209143,0.057922689768210134,2.275161053294574,1.0011292965389678,0.4333583909565486,0.21588404749857837,0.8131781929948974,0.630722155884578,0.9353972140816265,69229.43666072626,16325.061190189488
144,71756.0,14574.0,[47],1,0.05318352934946047,0.07434039710963747,-0.17150284696748974,1.3911570439126972,0.5011645810245993,-0.41890785075812775,0.40339995100065984,4.093827930138217,0.7860056659094546,0.36078784030603617,0.15547157270472534,1.8739363248926897,0.7771694476141316,2.1849404582752405,73037.35726629154,13442.345727186655
144,175345.0,7976.0,"[44,45]",2,0.2664017753571446,1.2474148580626796,1.452101862995813,0.756822372978978,1.7973632213293893,0.33548942688414773,0.1734030229205037,0.648426074544497,3.220425092879774,0.45499103667626717,0.23226575258492188,0.1485602603381857,1.3121731530867784,0.8710514055091385,62570.50546066351,19561.82839544884
144,876384.0,133404.0,"[5,8,9,10,11,13,15,18,19,20,27,29,31,35,41,42,46,49]",18,0.36213084318061184,2.140297093942867,2.16937216687317,1.0045521304702025,3.08683702736584,0.33810913107040186,0.362297578494136,0.8706499049172289,3.953470387585815,0.5539881128649068,0.1313868273405343,0.12899347057112198,2.3303591453141586,1.8539470740519983,67466.37966918622,21374.030306349723
144,46063.0,12811.0,[21],1,0.22886551459958104,0.011241779367408444,-0.6519924427414612,1.9981107474979587,0.1337947489525071,0.9556788255867066,-0.30840916288560294,4.47853811325796,0.8878275692638314,0.4713756326986952,0.25417777728327096,2.2242874618674566,0.8000494021014753,2.4841286049757967,74069.14252219771,13256.701821418323
144,19446.0,4189.0,"[28,38]",2,1.002820042219468,0.3811103929342887,1.3768983738557972,1.6107253455723525,0.7557160647433898,0.26073244626143754,0.7933308333333375,0.6524331440913262,2.687822081867732,0.8445220356885713,0.5565432621104636,0.7292634390105981,1.067952450838221,2.034663841921221,66908.78124035793,20464.067468888174
144,128637.0,22871.0,"[12,23,36,51]",4,2.121585693532958,0.369488249003012,1.5147244119343743,1.5572228082278152,2.155151358979134,0.3134953919712018,0.22241744056529145,1.0685210781967864,5.761596493186239,3.1452477232600216,0.449767066714867,0.2339736083941627,2.537022925938882,2.2366721192114274,72252.59544299098,28835.081912668993
144,49263.0,15314.0,"[14,17,43]",3,0.8868241884984676,0.23954274745752402,0.38150128343786527,3.0101009134441754,0.42597800523719753,0.3435868748147679,1.384897684935949,3.0815972555670514,4.283215309116353,0.539536193390577,0.5165508278829956,0.5702004503988785,0.6262469066845336,2.148885607250881,60921.65365487278,18999.08783468323
144,20924.0,844.0,[18],1,0.3668499128751661,1.648104543681896,1.988009052619017,0.7637467261517741,2.3944458008028966,0.9495088465876445,-0.010285648107439371,0.5298280549130006,3.8007421403651525,0.5524542716497739,0.25211529965590174,0.13011259391129593,1.842369912158281,1.2672088553813698,65754.7207034984,21978.628942840623
144,24237.0,3521.0,[32],1,2.327361977802541,0.30082852032016927,3.035258415315425,1.4965151573214381,0.4112205369476718,0.8338203177786065,-0.09437055605066469,0.8123449665387694,5.41073147749311,3.7512505110781063,0.6140281932995211,0.23069923315592233,2.575440694557908,1.385891073070092,72367.83430292553,43632.58951190333
144,21411.0,2277.0,[39],1,1.675706011395991,0.2590945561160183,4.275072281864441,1.4531155485965357,0.5309129347531516,0.672113022932141,0.3512779085516562,0.9971008371397652,1.4584852829386654,1.0462358810891632,0.7286865246368821,0.2532445771799571,1.0041492490775723,1.3113093104011968,60287.64130587071,34619.964691046625
144,16371.0,978.0,[27],1,1.8754381443405983,0.4328293845214186,1.4538191838006256,1.479134002870932,1.841349894691835,0.9246966093091478,-0.22732090348787715,1.3780905546393116,5.746376105613567,2.0260655437664186,0.49441372029807207,0.2190848905992283,2.408474325392456,1.9506381406755893,71256.10897318409,27409.23242318735
144,21461.0,1473.0,[15],1,1.543875378547143,0.41711080313128157,3.8165452470528147,1.4233195062671946,1.1307920126275732,0.7942620157495004,-0.0017243208610935312,0.9526095697777217,4.722721744187106,1.263042811984537,0.5464782727272595,0.2179727313731884,1.7898340194771793,1.3287996481990596,62470.131307954165,41008.34369321102
144,96797.0,12652.0,"[34,37,53]",3,1.3281154576898182,0.6521994979596575,2.6820241574738932,2.394893410591242,2.3099210130479197,1.4220196731923684,-0.3598937701375138,1.10666708845317,4.409908950948881,3.131415668905029,1.4607910035125036,0.5372001229790204,2.4497194925462473,2.57573556452163,118352.39455768258,96243.10571608691
144,10945.0,1577.0,[33],1,0.545866403654643,0.206434668798539,1.0086292220191742,1.0687363671082784,0.6958967127455398,-0.26382690041114765,0.6777759833713972,0.5053883244403798,1.0694930808588397,0.5405354933759708,0.2423246098675227,0.7217349047967065,0.6067791994518076,1.8551144311557881,75171.79205116484,17447.183554134306
144,19446.0,4189.0,"[28,38]",2,1.002820042219468,0.3811103929342887,1.3768983738557972,1.6107253455723525,0.7557160647433898,0.26073244626143754,0.7933308333333375,0.6524331440913262,2.687822081867732,0.8445220356885713,0.5565432621104636,0.7292634390105981,1.067952450838221,2.034663841921221,66908.78124035793,20464.067468888174
144,29298.0,2379.0,"[41,42]",2,1.0081995367601777,0.8257148988668157,3.446047076899458,1.4458521050583797,3.1088238567820317,0.645752343026827,0.3459370667963726,1.0823332506314474,4.919012112021313,0.7803259478804,0.3683784114274027,0.18583941419209493,2.4415566982729118,1.7806861782715615,84510.7483104651,38058.14676769739
168,1211546.0,154219.0,"[0,5,8,9,10,11,13,15,18,19,20,29,31,35,41,42,44,45,46,49]",20,0.317815041232437,1.9924295834058459,2.0460085511437325,1.003994677246257,2.8747531161557096,0.33477160972839926,0.3506476266448031,0.8218557604135377,3.7592569496701063,0.5260715613554886,0.1439811042973287,0.12870208305504138,2.1337994384876926,1.6576411785949456,66338.42784013157,21110.889947224427
168,891817.0,82635.0,"[1,2,3,6,24,25,30,33,40,50,52]",11,0.3650299228608691,0.2129902673754751,0.6542115164041418,0.768410453722022,0.3347564112031969,0.2919769954217042,0.07124566282097566,2.257026147443943,1.0439227215280642,0.44228344668020503,0.221416707824575,0.8020812805530695,0.6428660984921725,0.9404515664570141,68981.3942008281,16524.196008822313
168,83951.0,12195.0,[47],1,0.02553461631189191,0.07178384849495378,-0.15078473047371466,1.5311819963669233,0.5168594238186723,-0.4253017308906337,0.4683937759050609,4.12313432932304,0.8187987701277987,0.3775655905230365,0.1578818961060806,1.8774110554251782,0.78524113171969,2.1843190777596413,73219.74923467319,13653.422019987918
168,15800.0,5717.0,[38],1,0.624110933227846,0.254754376518993,0.6407740037974623,1.68389544955695,0.3625499466455633,0.20104513056962303,0.031382088417732934,0.4189221319620251,3.4648859309493396,0.5211418960759412,0.2823279055063326,0.8961257660759443,0.4514230255696229,2.0845244661392446,77832.84658227838,18816.587341772105
168,22314.0,5943.0,[27],1,1.755017108720972,0.4034967213856935,1.4946067519046227,1.7460356439455103,1.86897204817604,0.9592514599354691,-0.19347501707447323,1.3160264057094269,5.5983275229900515,2.0234653575782096,0.518310047638237,0.22380859576947376,2.351730254190182,1.9326392415075586,70054.67132741751,28697.652774043243
168,12700.0,3337.0,[28],1,1.249085573858258,0.510527808976386,2.2469759822834505,2.1375118686614134,1.2340212963779384,0.3121921929921223,1.7431095375590666,0.9924786197637814,1.979007169842514,1.2476762306299238,0.883819644094491,0.5654494787401596,1.7286432802362306,1.8830277426771616,56073.62519685023,24576.866771653473
168,150467.0,21830.0,"[12,23,36,51]",4,2.0927077662012135,0.3616377916154345,1.5740811175872556,1.716337850977303,2.2191244726019606,0.29979318818743805,0.30118455947813993,1.0467862483999832,5.7031275463191164,3.1385035983438265,0.4578655966956209,0.24400224806768156,2.5388518595506064,2.2660516759821165,71994.42546206171,29482.923431715968
168,55644.0,15794.0,"[14,17]",2,0.7034323424628011,0.22737313293437067,0.24960848219034792,3.048416511052453,0.4848626027424179,0.3104455315218104,1.6867942328912204,3.644288968172644,4.155203834483498,0.5308433269175444,0.5666443202501701,0.46583600276759485,0.6847753570555682,1.9865847471425473,58347.04162173825,19322.61030838896
168,30564.0,6327.0,[32],1,2.3131145292501127,0.29471994163067583,2.9773470354665563,1.6881676884570016,0.4355771200759335,0.8519239262858249,-0.0843743213257393,0.776856600019618,5.316764251505049,3.7686947282751055,0.6501651372530013,0.2375441980434575,2.5493311156262295,1.4115650492409462,71858.65096191605,44924.618243685225
168,23160.0,2236.0,[18],1,0.3586251707685657,1.6414047760794452,1.9854615296200548,0.8104126840673347,2.4154899583333305,0.9577173570379902,0.01455948229706161,0.5086294407167227,3.7891460276770554,0.5589356731865228,0.24960474892055373,0.1265193360967174,1.838671031951633,1.264427014032804,65615.40034542314,21968.817962003348
168,56938.0,10875.0,[21],1,0.2061371281393949,0.009886785538652187,-0.6391140230074832,2.1624162714180195,0.14817804079877384,0.9706482967438446,-0.23048203066493178,4.510539327215662,0.9722958096877178,0.5009901895394914,0.26006529207206697,2.2143232822368275,0.8181910130668538,2.475720262601436,74105.32101584174,13496.814078471145
168,24287.0,2876.0,[39],1,1.6635087518013598,0.26705629711368806,4.279682607114891,1.5913389029933933,0.5578773425289034,0.6775323568987544,0.39725557981634685,1.012674508543645,1.4961020100053526,1.082056059990952,0.7612026934162377,0.2560775517354995,1.017901738296199,1.3207694316712657,60242.535677522756,35212.074278420485
168,22314.0,5943.0,[27],1,1.755017108720972,0.4034967213856935,1.4946067519046227,1.7460356439455103,1.86897204817604,0.9592514599354691,-0.19347501707447323,1.3160264057094269,5.5983275229900515,2.0234653575782096,0.518310047638237,0.22380859576947376,2.351730254190182,1.9326392415075586,70054.67132741751,28697.652774043243
168,117225.0,20428.0,"[34,37,53]",3,1.342601436007696,0.6420878593218164,2.6661605154019985,2.5167660392237248,2.3418981930304956,1.4053668950479954,-0.22219405999574215,1.1317629302793843,4.464995968214977,3.12804343541907,1.4585063162977017,0.5459960129665145,2.424236822179557,2.5809483336319055,118056.058622308,94452.48300277312
168,13280.0,2335.0,[33],1,0.5085399823042189,0.20829463298193573,1.0108223542168622,1.193002382906637,0.6897918078313188,-0.277589429442771,0.675955489533127,0.5003699301204811,1.0807064962349364,0.5349878681475874,0.24678571159638318,0.7310473700301203,0.5884726267319339,1.8449648906626626,75491.30120481935,17816.925301204894
168,15800.0,5717.0,[38],1,0.624110933227846,0.254754376518993,0.6407740037974623,1.68389544955695,0.3625499466455633,0.20104513056962303,0.031382088417732934,0.4189221319620251,3.4648859309493396,0.5211418960759412,0.2823279055063326,0.8961257660759443,0.4514230255696229,2.0845244661392446,77832.84658227838,18816.587341772105
168,12700.0,3337.0,[28],1,1.249085573858258,0.510527808976386,2.2469759822834505,2.1375118686614134,1.2340212963779384,0.3121921929921223,1.7431095375590666,0.9924786197637814,1.979007169842514,1.2476762306299238,0.883819644094491,0.5654494787401596,1.7286432802362306,1.8830277426771616,56073.62519685023,24576.866771653473
168,33691.0,4393.0,"[41,42]",2,1.0136816898281327,0.8245088576771233,3.425030748627234,1.5436611938203244,3.1319468351488458,0.6458046993262301,0.41550176225105595,1.1097450362411352,4.858941768424809,0.8136254688492476,0.3758827954646593,0.19261357356564046,2.4385753780534802,1.7875786749873959,84490.74233474825,38309.390163545104
