time_in_hour,cumulative_size,size,pcore_ids,pcore_power,AF700 CD48_[R 730_B-A],APCCy7 Ly6G_[R 780_A-A],BV421 CD117_[V 440_F-A],BV510 SCA-1_[V 525_E-A],BV605 CD11b_[V 610_D-A],BV650 CD150_[V 660_C-A],BV711 CD11c_[V 715_B-A],BV785 B220_[V 780_A-A],FITC Ly6C_[B 525_B-A],PE CD115_[YG 582_D-A],PECF594 CD135_[YG 610_C-A],PECy5 CD3-CD19-NK11_[YG 670_B-A],PECy7 CD16-32_[YG 780_A-A],PerCPCy5-5 CD45_[B 695_A-A],_FSC-A,_SSC-A
-1,0,0,[],0,0.0,0.0,0.0,0.0,0.0,0.0,0.0,0.0,0.0,0.0,0.0,0.0,0.0,0.0,0.0,0.0
0,95278,95278,"[0,1,6,7,9,12,26,28,32,34]",10,0.3328946317303052,0.15874947764436698,NA,0.494072000440815,0.3171311950922582,0.22230106887214163,0.001046800583552443,NA,NA,0.376592330464537,0.16717503775267906,0.9866852024391759,0.6421485690820555,NA,69226.67293603974,14225.18927769265
0,100215,100215,"[8,11,20,22,25,29]",6,0.25669902713166737,1.723323364526267,NA,0.7316255859701584,NA,NA,0.40810397168086965,0.6858088475377992,NA,0.6099511369954608,0.13007900689515894,0.18927321496782168,1.9532290468692342,NA,67756.31176969482,20630.037100234516
0,18508,18508,[15],1,0.28847996936459097,0.2303601838664351,NA,0.5034095957423999,0.38194719975146807,0.24031309039333681,0.05671481613355889,NA,NA,0.38853453944240024,0.21319814193863662,0.3479362013723817,0.4886869107953401,NA,69990.56321590666,13595.46660903401
0,37952,37952,"[21,24]",2,0.5903433997154244,NA,NA,0.815737253715215,NA,NA,-0.4005600065872552,0.8685820216325721,NA,NA,0.27335452107926006,0.15994868639333992,2.1927886417580167,NA,71617.43507588535,24727.490725126383
0,56550,56550,"[1,6,7,9,12,26,28,32]",8,0.34493876387267797,0.1743613523961085,NA,0.536038486366047,0.354016433722371,0.22817069069849794,0.017011242475685417,NA,NA,0.41223007996463434,0.18139039267904034,1.0146964486118455,0.6698567811847923,NA,69773.43943412905,15068.814146772773
24,194113.0,98835.0,"[0,1,6,7,9,12,26,28,32,34]",10,0.3240653592855707,0.15015769365781173,NA,0.5400378727133184,0.2878840820965083,0.24338656846269968,-0.007143279909126665,NA,NA,0.35894654142175364,0.16282350869338602,0.9487130730038649,0.599456692534761,NA,70672.15059269598,15066.352979965206
24,47220.0,26418.0,"[1,15]",2,0.31778252219396985,0.2359213873358761,NA,0.5652524230622604,0.3799571134053408,0.26740214161371645,0.05129393490047596,NA,NA,0.3917291726175304,0.21391325239306003,0.38931262706480196,0.4992898342439659,NA,71351.81092757315,15459.541550190585
24,185793.0,85578.0,"[8,11,20,22,25,29]",6,0.2774054438434119,1.625410697663531,1.939930624571415,0.7744236265790319,NA,NA,0.40986985832082246,0.7224801197730875,NA,0.6136590204259657,0.11296945137866521,0.19613521365175401,1.8868577063344771,NA,67973.13569402491,22386.759974810862
24,54819.0,26480.0,"[14,31]",2,1.8729443292471604,0.3750262707820329,1.8904080564585528,1.0050829130410999,NA,NA,0.06274044382423183,0.9361452323828958,NA,NA,0.45755349205567253,0.23366840974844438,2.389038978657052,NA,76228.61854466487,35048.15308560885
24,18069.0,9001.0,"[9,12]",2,0.3905661994576277,0.18587989794675686,NA,0.5827678118324235,0.3814452935414252,0.25320327522275865,0.004665710332621753,NA,NA,0.44683251795893786,0.1923027518401743,0.9694456622391923,0.6611222804803815,NA,71805.64812662572,17382.18960650837
24,102797.0,49712.0,"[16,21,24]",3,0.5699095257351898,1.6763553252526795,NA,0.8388280802455332,NA,NA,-0.3220267434166342,0.8754790996137998,NA,NA,0.26048738239441915,0.17247949620125014,2.04737144783408,NA,71119.48185258347,26342.111618043247
24,32702.0,18526.0,[18],1,0.16246578768883557,0.04430604427864138,-0.2069984696960514,0.9967897236866183,0.2696063779585569,NA,-0.057340403400400586,NA,NA,0.3716249437037512,0.18561986832609545,1.7316223866430165,0.7160898231912342,NA,73495.52785762341,13707.188551158944
24,11374.0,3290.0,[20],1,0.37903166757518014,1.761216226745209,1.8444864159486687,0.7996034003868391,NA,NA,0.05491241761914312,0.7756205612801073,NA,0.7237644160365787,0.21932561570247566,0.20114760101986795,1.9327339435554758,NA,68962.4645683137,22993.043784068985
24,26374.0,9679.0,"[11,22]",2,0.40317817862288097,1.567461349169644,1.8763078606202988,0.7917846735800471,NA,NA,0.13091006589824206,0.7708563273678646,NA,0.6941626439296252,0.233338908546306,0.20967212792902168,1.7774615246833991,NA,68133.57397436872,23688.102525214126
24,20746.0,9858.0,"[7,26]",2,0.340201809409042,0.15047964142484815,NA,0.7114244919020654,0.3872669491950109,NA,0.004425804058613814,NA,NA,0.45703084570519414,0.19852999060059773,1.2691790373565968,0.7241861890966897,NA,72658.33992094887,16229.025354285199
24,23861.0,13048.0,[35],1,1.2901915123423333,0.5507608624533726,2.762853690289561,2.0478560231758656,2.029304900465227,NA,-0.5379297638405869,1.05833596659819,NA,NA,1.2139827305645023,0.48131576388248287,2.266749206906671,2.3441705882402357,108372.28816897805,NA
48,282630.0,93557.0,"[0,6,7,9,12,26,28,32,34]",9,0.29827353242401755,0.14302380120652947,NA,0.5192653141421699,0.2595636240597221,NA,-0.003166389304039452,NA,NA,0.3300188846336253,0.14963585414145708,NA,0.5890422517779447,NA,70072.16411562829,15130.580730990998
48,416875.0,98191.0,"[2,4,5,8,11,16,20,21,22,24,25,29]",12,NA,NA,NA,0.7581514068125936,NA,NA,NA,NA,NA,NA,0.1435042516293792,0.16072515108125862,NA,NA,NA,NA
48,70697.0,28517.0,[15],1,0.2864132744246384,0.23100175505326304,NA,0.5612244777571758,0.39193082333056095,NA,0.07689553826895423,NA,NA,0.3942108344059815,0.20484176027271106,0.28135501463994605,0.4666995454262618,NA,NA,15619.863700015363
48,45972.0,13270.0,[18],1,0.15247246656662528,0.04536525421995341,NA,NA,0.2449747274645584,NA,NA,NA,NA,0.3493844785086617,0.17875268476463502,NA,0.7201869384842864,NA,72977.35734795092,13672.997476724937
48,7824.0,207.0,[4],1,NA,NA,NA,NA,NA,NA,NA,NA,NA,NA,0.22886434879856177,0.1930374516871194,NA,NA,NA,NA
48,9964.0,440.0,[5],1,NA,NA,NA,NA,NA,NA,NA,NA,NA,NA,0.2744613589923732,0.18860135598153593,NA,NA,NA,NA
48,82744.0,27925.0,"[14,31]",2,1.9354206499202238,0.354705925118437,NA,NA,NA,NA,NA,NA,NA,NA,0.424684027989946,0.21528079359228003,NA,NA,NA,NA
48,52835.0,36787.0,[17],1,0.24903475351566406,0.9492580451783916,NA,0.6544074671903171,NA,NA,0.12451402212546103,NA,NA,0.44084750517650706,0.21535915686571805,0.162982945074293,1.001716680211973,NA,60027.083259203675,19074.255474590624
48,12779.0,1405.0,[20],1,0.3629255283668562,NA,NA,NA,NA,NA,NA,NA,NA,NA,0.20092608592220618,0.18553439455356302,NA,NA,NA,NA
48,10604.0,628.0,[22],1,NA,NA,NA,NA,NA,NA,NA,NA,NA,NA,0.2390274429460577,0.20750142729158882,NA,NA,NA,NA
48,26915.0,4555.0,"[9,12,26]",3,0.39468160910272676,0.20151130577744825,NA,NA,0.40333289188185306,NA,NA,NA,NA,NA,0.1970010571428622,NA,0.6806105028422827,NA,NA,18006.50878692178
48,23231.0,7774.0,[30],1,NA,0.34283799647024127,NA,NA,0.502215838233405,NA,0.057728057595437754,NA,NA,NA,0.5264798906202754,0.29203950329302175,NA,NA,NA,32618.34893030859
48,32738.0,8877.0,[35],1,1.2680120403201254,0.5552475695522063,NA,2.0596075067199933,NA,NA,NA,NA,NA,NA,1.2191669320667065,0.4677105693383815,2.2879934611155166,NA,NA,NA
72,480581.0,151979.0,"[0,6,7,9,12,18,26,28,32,34]",10,0.2735931634875328,0.18326628329043926,NA,0.6497199053354139,0.3092377411612133,0.2579719488910286,-0.01798368360173397,NA,NA,0.3349072703914652,0.16363953022071875,0.9491180828975672,0.6311959708644345,NA,70411.96711480456,15977.65504670381
72,520611.0,103736.0,"[2,4,5,8,11,16,20,21,22,24,25,29]",12,0.3762733588591196,1.7061396271438594,1.9595117608848143,0.8313456634204788,2.622022978794113,NA,0.127467537103517,0.7584987070711202,NA,0.6248457111163593,0.182717153458146,0.16500368703312196,2.004341637128293,1.595960926050343,69511.7789213055,24338.874437920033
72,74831.0,4134.0,[15],1,0.29432412294367505,0.2552098204353883,1.0153849676738256,0.5851435437318617,0.4281675846507529,0.25184116300730963,0.07777452984723787,0.7896146415122387,NA,0.40214842902005155,0.2077050206999762,0.29101684996859867,0.49737825426629245,0.5309339736205556,69083.70445403695,15703.959268217513
72,7824.0,0.0,[4],1,0.4552286235940628,1.7266651903118562,2.012318996932518,0.8146155492075842,2.494154027862973,0.6770995924079717,-0.04239890529140844,0.8167352530675052,4.073377083844604,0.7331271257668711,0.22886434879856177,0.1930374516871194,1.995935058282222,1.6504328264314918,70279.92638036796,25313.693251533634
72,132255.0,69456.0,"[5,17]",2,0.35556557546406653,1.1414782274394515,1.4131112484140167,0.8526232235908044,1.6153177616120313,NA,0.08122505937767777,0.7088681826623229,NA,0.55517138956561,0.27610375005104393,0.17373872674757374,1.2486713288571174,NA,64153.91938301011,22875.033836149832
72,105054.0,22310.0,"[14,31]",2,1.8925836429169463,0.4037951772421726,1.7791092763055487,1.1538901162259547,1.7801461199097472,NA,0.04978997243322958,0.8916350913910689,5.560608930007449,NA,0.4761894637424482,0.22949609022978446,2.4317842776096343,NA,77122.02318807457,37116.519580406464
72,12779.0,0.0,[20],1,0.3629255283668562,1.8248529622036136,1.8167787880898438,0.7812082493152754,2.4154728983488725,0.4644048448235427,0.02443128554661156,0.7551143689647062,3.7340608520228504,0.6789738059316134,0.20092608592220618,0.18553439455356302,1.9625096056029459,1.6523042930589258,68246.49690899145,22257.05047343304
72,10604.0,0.0,[22],1,0.38966502235005374,1.5515375840249077,1.7696885590343352,0.7856573580724375,2.0583129422859456,0.39794872802716297,0.10519232223689068,0.7919764088079959,3.431807316390022,0.6762079032440594,0.2390274429460577,0.20750142729158882,1.710086970105615,1.4398293473217674,67003.5820445116,22406.856280648757
72,26915.0,0.0,"[9,12,26]",3,0.39468160910272676,0.20151130577744825,0.9771074837451317,0.5973703721344972,0.40333289188185306,0.23978206015233172,0.01302086736021657,2.578649912873882,1.2926524188370805,0.45684573557495733,0.1970010571428622,0.9628947934608918,0.6806105028422827,1.2269118684376756,71672.44079509567,18006.50878692178
72,23231.0,0.0,[30],1,0.8178713682579357,0.34283799647024127,3.232136934613252,1.0865779692652144,0.502215838233405,0.5546736934699272,0.057728057595437754,0.9292143890921465,1.6080398603159423,0.7756637296715568,0.5264798906202754,0.29203950329302175,0.7440383868107284,0.8134640290990378,66156.48125349765,32618.34893030859
72,40519.0,7781.0,[35],1,1.2825703686912557,0.610681213060547,2.6423543111379684,2.073281179816876,2.051237126878783,NA,-0.5011528380759662,1.0577412633085608,4.458308564698046,2.9700468196648595,1.2122977842493636,0.4567599031565469,2.293142942816936,2.320589653051655,108103.87383696559,NA
96,578566.0,97985.0,"[0,6,7,9,12,18,26,28,32,34]",10,0.31202692883612504,0.19280117705153632,NA,0.7070401862432254,0.32799053442130033,0.257261609743745,0.013757903183042597,NA,NA,0.36052001800831845,0.18025563069209483,0.9965425631215687,0.6551030620326833,NA,70559.04978861514,15924.460407282757
96,653274.0,132663.0,"[2,4,5,8,11,16,20,21,22,24,25,29]",12,0.40554770178976995,1.7716743277139373,1.964513199790607,0.912403223703985,NA,NA,0.2138067120718139,0.8396979870911645,NA,0.6499342390528334,0.1949491072291285,0.1773334036284947,2.0594578158200054,NA,69566.51039533142,24096.370613249535
96,17739.0,2939.0,[3],1,0.9260167168385995,0.752596880940299,NA,0.9304781049664745,NA,NA,0.04175680455493147,0.8445814326625012,NA,1.0201863845199877,0.36849055206043824,0.2061898665088271,1.801899443373352,NA,66004.4313659168,32806.21094762966
96,91050.0,16219.0,[15],1,0.30925998607356675,0.2685485332235138,NA,0.6225452769247704,0.4279173201757396,0.25921915347611657,0.09717657026905435,NA,NA,0.4120639816694103,0.22265050168041123,0.3516899227567274,0.5168708378912698,NA,69358.73370675466,15984.389060955493
96,7824.0,0.0,[4],1,0.4552286235940628,1.7266651903118562,2.012318996932518,0.8146155492075842,2.494154027862973,0.6770995924079717,-0.04239890529140844,0.8167352530675052,4.073377083844604,0.7331271257668711,0.22886434879856177,0.1930374516871194,1.995935058282222,1.6504328264314918,70279.92638036796,25313.693251533634
96,141033.0,8778.0,"[5,17]",2,0.35765672519906877,1.1594540351336478,1.4166111839072535,0.8592447565676342,1.6354253255692082,NA,0.096889977374083,0.7257214445981157,NA,0.5546202861954287,0.27595221333305275,0.1767903634610375,1.2640988830202673,NA,64116.43323193862,22629.262881736875
96,9192.0,2085.0,[9],1,0.42147408866406,0.2413676441470809,NA,0.7560899754134116,0.4298454180809377,NA,0.061256525021767594,NA,NA,0.4809486213011327,0.23747387924282615,0.9523285773498669,0.7103937375979122,NA,71962.51348999103,18180.832027850363
96,123822.0,18768.0,"[14,31]",2,1.924010532215571,0.41329817756940646,NA,1.2781369705302872,1.7846214637705948,NA,0.09654624498877151,0.9489316086801978,NA,NA,0.4993593609051623,0.24052518403030154,2.4362502676907365,NA,76763.42569171877,36471.510910823665
96,12779.0,0.0,[20],1,0.3629255283668562,1.8248529622036136,1.8167787880898438,0.7812082493152754,2.4154728983488725,0.4644048448235427,0.02443128554661156,0.7551143689647062,3.7340608520228504,0.6789738059316134,0.20092608592220618,0.18553439455356302,1.9625096056029459,1.6523042930589258,68246.49690899145,22257.05047343304
96,10604.0,0.0,[22],1,0.38966502235005374,1.5515375840249077,1.7696885590343352,0.7856573580724375,2.0583129422859456,0.39794872802716297,0.10519232223689068,0.7919764088079959,3.431807316390022,0.6762079032440594,0.2390274429460577,0.20750142729158882,1.710086970105615,1.4398293473217674,67003.5820445116,22406.856280648757
96,4569.0,0.0,[26],1,0.4992378621142468,0.2656946439045744,1.2111279378419635,0.725973140074414,0.5287337820091915,0.25762504946377907,0.10249065309694938,2.5579273782009215,1.6154544491135976,0.5747813644123402,0.2626314887283847,0.9714145764937592,0.7660906377763185,1.3630905668636457,71844.09717662506,19986.6579120158
96,25015.0,1784.0,[30],1,0.8105008101539075,0.3819757890465749,NA,1.1155186113931714,0.5575996876274321,0.5524730395362665,0.0749936669997937,0.9567551012192541,NA,0.7897759947231676,0.5320432077553332,0.30316420703578684,0.7820192470917459,NA,66771.8715970419,32560.3780131921
96,48093.0,7574.0,[35],1,1.3368800848564406,0.6272600550184175,2.611197228869058,2.120516727611099,2.0569019995217785,NA,NA,1.1093422002370392,NA,NA,1.222563345247727,0.4786806735491653,2.314665839976703,2.3770417645187405,107627.47044268427,NA
120,660610.0,82044.0,"[0,6,7,9,12,18,26,28,32,34]",10,0.31993316495663704,0.1939972262590608,NA,0.7446303610132969,0.33607247011852603,0.2551445001528876,0.032485475675501974,NA,NA,0.37004794299208665,0.19043841245212523,1.0222736331935507,0.6586418716595283,NA,70487.8461785317,15744.971417326286
120,695751.0,161875.0,"[2,4,5,8,11,16,20,21,29]",9,0.3709186952386856,NA,2.0063425295515533,0.9960506371273743,NA,NA,0.34784912127037515,0.8998924944297477,NA,0.6249388978140143,0.186406529031228,0.17372929067727017,2.1937565497412095,NA,68886.02424718022,23041.923078802527
120,19173.0,1434.0,[3],1,0.9695973109581193,0.7324716269754377,NA,0.9924224414019878,NA,NA,0.06238037568454757,0.8694292609398668,NA,NA,0.3865579469566627,0.21080559422104517,1.81469836629635,NA,65587.37224221554,32574.64476086183
120,109938.0,18888.0,[15],1,0.30650375643543337,0.29161975448890987,NA,0.6440855838017985,0.43891643132496805,0.25932378946314816,0.10660624689369103,0.9714902220797281,NA,0.4154292573996301,0.24038751350761833,0.35553997845149166,0.5189842652949838,NA,69207.15719769314,15985.119758409339
120,77078.0,7234.0,"[4,22,25]",3,0.3561037784062986,1.4415177456732269,1.706718950310068,0.8378737150419147,NA,NA,0.2730255774669774,0.8035843298087553,NA,0.5845189032019561,0.21495209421625727,0.20077456339033273,1.6274544009963945,NA,65176.179143205554,20876.403435480952
120,159314.0,18281.0,"[5,17]",2,0.3695494510840178,1.162842244686618,1.4395265205568424,0.8930884070452318,1.648785923220796,NA,0.1430056153821826,0.7633071259337085,NA,0.5590363030870028,0.28226482254542473,0.17979339859020782,1.276728478765187,NA,63677.11804361206,22225.94413548097
120,9937.0,745.0,[9],1,0.4235832940525359,0.2488222838884968,NA,0.7735009115427234,0.43711674006239454,NA,0.06323202938513317,NA,NA,0.48077819915467557,0.2446776999094391,0.9545728889000704,0.7096179202978782,NA,71787.02304518441,18192.797021233822
120,148345.0,24523.0,"[14,31]",2,1.9603919137550736,0.41329117392565884,NA,1.4259567081532931,NA,NA,0.1382756995112704,1.020760725909204,NA,NA,0.526634149030972,0.25034950236947673,2.4479952657656194,NA,75907.8064781421,35751.230065051044
120,71460.0,14082.0,[24],1,0.8108820170165243,NA,2.583096372194254,1.1105106494122579,NA,NA,NA,1.1038120728379401,4.503050482997467,NA,0.2936938082003744,0.151450569521411,2.3756739954519923,NA,74954.26543520857,30414.721074727197
120,15757.0,2978.0,[20],1,0.40433584102304265,NA,1.8464595140572402,0.886531438725628,NA,NA,0.09839114812465377,0.8542333803389051,NA,0.680130968395002,0.23808082001648767,0.19826793209367177,1.9625278138605053,NA,68308.29218759915,22843.589008059997
120,10604.0,0.0,[22],1,0.38966502235005374,1.5515375840249077,1.7696885590343352,0.7856573580724375,2.0583129422859456,0.39794872802716297,0.10519232223689068,0.7919764088079959,3.431807316390022,0.6762079032440594,0.2390274429460577,0.20750142729158882,1.710086970105615,1.4398293473217674,67003.5820445116,22406.856280648757
120,6247.0,1678.0,[26],1,0.559434470946053,0.31806480134464765,NA,0.904204663198334,0.5845108857051402,NA,0.17697435601087497,NA,NA,0.6000437837361893,0.33187986281414483,0.9662117752521142,0.811769433327998,NA,70929.86713622538,20238.824395709962
120,32033.0,7018.0,[30],1,0.7684690057440864,0.4286943670901713,NA,1.1502585070396272,0.5971692390347565,0.5451163807635808,0.12361533490461563,1.0028118718508985,NA,0.7826157505385106,0.5460106523272694,0.3291012469640754,0.8002447786969594,NA,66161.75868635467,31775.095932319706
120,57492.0,9399.0,[35],1,1.3909073595456964,0.6537978092082679,2.611117449923445,2.1715527708550977,2.1198443441870443,1.4952205716447595,NA,1.1350223518228573,4.478767298632876,NA,1.2494828363946229,0.49161309931816644,2.3580236933486183,NA,NA,NA
144,749358.0,88748.0,"[0,6,7,9,12,18,26,28,32,34]",10,0.33471379977795257,0.1860718445495979,NA,0.8522776043306388,0.34016375177286307,0.25649282067449697,0.05961465976342506,NA,NA,0.38311775388666525,0.1966743713885739,1.078094355306797,0.6748831325521317,NA,70488.84840623537,15644.263041163156
144,748315.0,131431.0,"[2,4,5,8,20,21,29]",7,0.3630125862785254,NA,2.0264759071086575,1.1081386213453168,NA,NA,NA,0.9588988027782013,NA,0.6323636954170248,0.16317628902001013,0.19150096737069233,2.2740721300601994,NA,68781.78751996125,22406.05050012326
144,105262.0,7222.0,"[3,11,16]",3,0.6159814151070739,NA,NA,1.0161650115046337,NA,NA,0.06999729298321,0.9269908376717231,NA,0.776984519931221,0.3154889651441226,0.21088338202770163,1.8892138832627237,NA,66890.59390853302,24945.83587619469
144,122205.0,12267.0,[15],1,0.3121557793461909,0.29761678004992476,1.0576632160386321,0.6885557271306855,0.4436841723497813,0.26394044850047016,0.12224719540117057,NA,NA,0.42021813196678826,0.24570542049017918,0.36649094020702866,0.529177508890793,NA,69103.79064686391,15907.404377889628
144,69943.0,3469.0,"[4,25]",2,0.36390563924911223,1.4003093402770945,NA,0.9068801768726051,NA,NA,0.32738220170709553,0.8561103021460261,NA,0.5822970996525806,0.21222021697669158,0.21848302108860118,1.6143804703115472,NA,64746.35860629375,20657.644081609316
144,184697.0,14779.0,"[5,17,22]",3,0.3895505845141025,1.1655536124950645,NA,0.9601314265256375,1.6559117000600971,NA,0.18418839960038946,0.8406669828151077,NA,0.5783257102497793,0.2811915618824594,0.20815561077332234,1.3112137947448854,NA,63627.4460332327,21884.58303058549
144,11182.0,1245.0,[9],1,0.44831402548739585,0.24735377553210514,NA,0.8916839055625094,0.44187572142728726,NA,0.09466064076194369,NA,NA,0.4939847012162416,0.25775230763728096,0.9881074162046128,0.7274193298157726,NA,71566.62922554096,18134.264353425195
144,64310.0,9086.0,"[13,19,30]",3,0.7673277860208414,0.6081942864095624,NA,1.3049070585290008,0.8784625938734192,NA,0.2920721238687647,1.1515468658528945,NA,0.8232394989581774,0.5575707832996484,0.4097635382055719,1.0286553905457914,NA,66601.39648577198,28143.464095785977
144,175226.0,26881.0,"[14,31]",2,1.9734126348829373,0.4009483772100122,1.7542294691484064,1.5891050205220774,NA,NA,0.21221185489596506,1.057012541141146,NA,NA,0.554747270861625,0.2750748215276281,2.4289966639083245,NA,75645.47653886955,35700.989031308076
144,79351.0,7891.0,[24],1,0.8155971744275401,NA,2.5732561377046523,1.1818097337777713,NA,NA,NA,1.1366532309989745,NA,NA,0.29189272355735785,0.16445119861123714,2.376390349548199,1.88006131887436,74407.16734508696,30238.92366825863
144,10604.0,0.0,[22],1,0.38966502235005374,1.5515375840249077,1.7696885590343352,0.7856573580724375,2.0583129422859456,0.39794872802716297,0.10519232223689068,0.7919764088079959,3.431807316390022,0.6762079032440594,0.2390274429460577,0.20750142729158882,1.710086970105615,1.4398293473217674,67003.5820445116,22406.856280648757
144,21385.0,5286.0,[27],1,1.0173463743278022,0.3548189954173435,NA,1.8216799208790997,NA,NA,NA,NA,NA,0.6773753104044874,0.389352187514612,0.7514013403787592,0.707572728594808,NA,69577.24760346027,20818.95609071774
144,7035.0,788.0,[26],1,0.5885949897654583,0.32406830191898095,NA,NA,0.594181923809527,NA,0.2092811890547175,NA,NA,0.6170935175550781,0.34588331414356244,0.9916735009239483,0.835148749253731,NA,71031.99431414355,20325.854157782513
144,66316.0,8824.0,[35],1,1.4065247936998617,0.6342207973189136,2.5708707432444444,2.252547795946701,NA,NA,NA,1.1810316168948662,NA,NA,1.2573522605404421,0.5176298903281262,2.3540173504734674,2.5078628911424454,107047.84221002561,NA
168,816723.0,67365.0,"[0,6,7,9,12,18,26,28,32,34]",10,0.3223175960344091,0.18051294654000394,NA,0.9298505249846016,0.3412790561108303,0.2613207439450087,0.07904907342758571,NA,NA,0.38842349214360583,0.1984685587035,1.0985864195412522,0.6812111987577149,NA,70555.95342851838,15626.412891518803
168,829522.0,81207.0,"[2,4,5,8,20,21,29]",7,0.3578090130340388,NA,2.0338020643961197,1.1611481843640292,NA,NA,NA,0.9688187443527392,NA,0.6373157876656638,0.1572093133250383,0.19103853782177316,2.28073752746643,NA,68774.48438980499,22400.970660211085
168,137300.0,32038.0,"[3,11,16]",3,0.6456776885651969,NA,NA,NA,NA,NA,0.11504404633648502,0.9781692141587985,NA,NA,0.36611246763291394,0.22219446329206294,1.8639121590094718,NA,67293.15426074271,26977.642184996486
168,142760.0,20555.0,[15],1,0.3014256615718749,0.32418040201041354,NA,0.7537533463786135,0.5098314387293739,0.2589684270664021,0.13739140416782236,NA,NA,0.4175663072639494,0.24589010838474445,0.35017838791679246,0.5568739835528093,NA,68370.14020734117,16116.128439338725
168,95003.0,22280.0,"[22,25]",2,0.3990862811700766,1.380036130248563,NA,1.0852570248939388,NA,NA,0.410005550235248,NA,NA,0.6660374717008944,0.23823672535605045,0.22805096198014962,1.6371461893203452,NA,64903.02832542159,21343.71807206102
168,19507.0,4040.0,[10],1,0.8571398408263688,0.14909529635513907,NA,NA,0.38311009868251444,NA,NA,NA,NA,0.6179515277592654,0.2746941158558527,1.2673523805813123,0.5181612039267952,NA,80429.57133336714,18575.141231352853
168,226139.0,54186.0,"[4,17]",2,0.36452866946881457,1.0432730535246124,NA,1.118623759037578,NA,NA,0.2476822136871477,0.8846497964482412,NA,0.5878231629528853,0.28297421420459656,0.21805281038654134,1.249612202875181,NA,62806.27727194327,21855.35345959788
168,12513.0,1331.0,[9],1,0.4356302279229667,0.24669480492287255,NA,NA,0.4458845974586314,NA,0.11912181139615363,NA,NA,0.4946691503236621,0.2608083195077193,0.9859686535602987,0.7350483189482918,NA,71466.76896028139,18149.649164868573
168,80136.0,15826.0,"[13,19,30]",3,0.7676648211540325,0.607503812518702,NA,1.4498440541579272,0.924623880016469,NA,0.3629994833283452,1.1491391564590172,NA,0.8563058730907543,0.5748819009309272,0.41455389421733246,1.064733005840067,NA,66364.0003993211,28506.37276629726
168,205480.0,30254.0,"[14,31]",2,1.9504986383881533,0.38902527930212516,NA,NA,NA,NA,0.28072188597431635,1.0508532762604545,NA,NA,0.5738540524965887,0.2881612108039736,2.4308593710629003,NA,NA,36482.05816624475
168,82566.0,3215.0,[24],1,0.8254412761911711,NA,NA,1.2149543950899893,NA,NA,NA,1.145626540573606,NA,NA,0.29263028776978794,0.1634040669282788,2.378858978695824,NA,74355.47997965278,30384.09960516429
168,27792.0,1038.0,"[5,20]",2,0.4468687189479046,1.791404051237767,NA,0.9360240995969935,NA,NA,0.02254283218192521,0.8849063889248767,NA,0.7347458535909633,0.2667713692069609,0.21211467307138798,1.9793293943940755,NA,68849.41393206682,23581.179044329318
168,31817.0,10432.0,[27],1,0.997817433950398,0.32371893582046374,NA,NA,NA,NA,NA,NA,NA,0.7344813804884177,0.41924445918850406,0.8708545259766678,0.6994218679322349,NA,73803.69689159868,21925.47229468512
168,8375.0,1340.0,[26],1,0.566990375402981,0.39511081182090324,NA,NA,NA,NA,0.2938575338507379,NA,NA,0.6136102266268609,0.3302966229253621,1.0038206261492482,0.8970883680000025,NA,71945.21599999999,20556.738865671647
168,78456.0,12140.0,[35],1,1.4168733034694545,0.6178201372234593,2.550715623546956,2.3683065777760883,NA,NA,NA,1.2094350374349845,4.558803145444609,NA,1.2775262401091014,0.5299958577674047,2.3370412631538415,NA,NA,NA
