time_in_hour,cumulative_size,size,pcore_ids,pcore_power,AF700 CD48_[R 730_B-A],APCCy7 Ly6G_[R 780_A-A],BV421 CD117_[V 440_F-A],BV510 SCA-1_[V 525_E-A],BV605 CD11b_[V 610_D-A],BV650 CD150_[V 660_C-A],BV711 CD11c_[V 715_B-A],BV785 B220_[V 780_A-A],FITC Ly6C_[B 525_B-A],PE CD115_[YG 582_D-A],PECF594 CD135_[YG 610_C-A],PECy5 CD3-CD19-NK11_[YG 670_B-A],PECy7 CD16-32_[YG 780_A-A],PerCPCy5-5 CD45_[B 695_A-A],_FSC-A,_SSC-A
-1,0,0,[],0,0.0,0.0,0.0,0.0,0.0,0.0,0.0,0.0,0.0,0.0,0.0,0.0,0.0,0.0,0.0,0.0
0,90319,90319,"[13,15,17,21,23,28,39,45,47]",9,0.31328131601324216,1.968855546607033,2.067348176895225,0.7058117826813848,2.931710665607467,0.25699779224748065,0.139284400048707,0.7079774012112718,4.081892716482684,0.6046543172532911,0.11022042942237942,0.12477863021069813,2.20595943653052,1.7293570591902017,68604.07223286355,20351.44233217817
24,236907.0,162271.0,"[2,6,7,11,14,16,30,32,36,38,46,47]",12,0.3106673065126835,0.22089783015487763,0.6268784919989705,0.6356931293123464,0.39894244815475766,0.26741512834783343,0.011371028283245543,2.258848792139953,1.085711379718623,0.3770516964779439,0.1811467655894483,0.8765839603283123,0.635918031940803,1.0876566102542318,70786.30895667922,15768.91576863491
24,179178.5,114569.0,"[8,9,10,12,13,15,17,21,23,24,25,28,29,35,39,44,45]",17,0.3396618394506008,1.7876692173726276,2.081013329191275,0.7684740651250022,2.7013981783696104,0.24117021040471154,0.19564911910190164,0.7377861188284363,4.048427136486788,0.6025107484463822,0.10694152981244276,0.16124345797068373,2.012119209422447,1.6410151469344745,68078.08213597063,22392.239783232868
24,40870.0,28609.0,"[6,7]",2,0.22603361554930057,0.6179638295449044,1.1392454295815941,0.7467972637631544,1.1052880577685222,0.05023094297773856,0.1977492487032002,1.8954348704306518,2.2160432451676075,0.4309446770491777,0.18995883227306054,0.7525452978468343,0.9887933403107402,1.2880369589185205,66773.54734524104,17426.86019084893
24,20032.0,12116.0,"[9,10]",2,0.29713974555710854,2.189831161391785,1.9459472676966691,0.7099895722593743,2.7838921903953504,0.67145115355431,-0.020726369583659476,0.7370951126946914,3.9024712526457708,0.6547534118410551,0.1270855314995898,0.13258263515874402,2.1316582151058303,1.748563119833262,67877.4217252395,20638.824281150166
24,35621.0,25283.0,"[14,16,30]",3,0.33488571732967065,0.09426155832234029,0.33706137862496366,0.9282541827292992,0.24698449439936443,0.48243542917099913,-0.13475172774486488,3.081644950001399,1.0055150117206129,0.41488384513348575,0.20790636666572793,1.4905182090199625,0.6371751202801713,1.891106608826252,75110.06743213274,15872.229078352686
24,27849.5,19080.0,"[32,38,12]",3,0.5180936728666594,0.19527213027164647,1.3158612513330645,0.9047441277222155,0.23959199375212448,0.6975612971866605,-0.10356718732832171,2.4157240595881513,1.2116390631250158,0.528874810768596,0.32874182908131555,0.8992581417619667,0.6608192741521407,1.2187379890841912,70067.75475322705,21799.324512109735
48,286463.25,166205.0,"[2,6,7,11,14,16,30,32,35,36,38,46,47]",13,0.29067180298258233,0.26461658257647525,0.619651364743115,0.6074172279925949,0.4416619938526143,0.24679883419251736,0.014044289503972074,2.117094134941394,1.2752255192585773,0.353343395035838,0.1633231838769822,0.7860790557130781,0.6534257231870072,1.0120629037948123,68882.91632521803,16142.193290064188
48,180421.25,96231.0,"[8,9,10,12,13,15,17,21,23,24,28,29,34,39,44]",15,0.280948854945021,1.8339299040204518,1.9635881544704374,0.7590361351794717,2.627081261364722,0.16505468651697242,0.3047138027754439,0.764530330116334,3.9725518790940586,0.4883671446628387,0.1070338486431055,0.12389269060462782,2.016432229896706,1.5406091262351258,64963.02651710927,21194.279232629142
48,15867.0,7363.0,[6],1,0.07013543702337599,0.10669475223734803,0.610801611505011,0.8245753569357905,0.4380796666666664,-0.32625383059179547,0.23409653710533407,3.7815175342535063,0.9355371646026344,0.3179955264385198,0.12721121399760005,1.6130382205678515,0.7057184414350558,1.8926636760729758,72908.73889203998,14677.931303964204
48,19392.0,9376.0,"[9,10]",2,0.2289422800381593,2.255003741826531,1.785963820196455,0.6395474347024406,2.7452732975453737,0.5696021547029684,-0.1159983407461902,0.7217460041640953,3.783764200211442,0.5168261599113072,0.10379244201216142,0.09523163581631577,2.122201458668523,1.6763002779625624,64903.10066006588,18719.70627062703
48,39533.25,19918.0,"[14,16,30,35]",4,0.3892841912630516,0.11653982042964062,0.3985247491984598,0.9918297436777945,0.23123318225797052,0.40112325362827406,-0.12408449670846045,2.7684787661652077,1.41461529721184,0.37524379389501217,0.1927597711925979,1.4541550759044624,0.5942787450563757,1.9545797893987953,75714.43683481633,16639.624012698143
48,31779.75,17855.0,"[32,38,12]",3,0.49599989730095917,0.19387353449917155,1.2349480800352581,0.8610734545583272,0.1725247788607489,0.7797481517318403,-0.22614744492168537,2.526593564919465,1.16603502813112,0.47098309521786796,0.30847690634760294,0.9119465723456011,0.6522698924865699,1.181119019045145,68948.98493537557,21828.27794428836
72,464000.125,267076.0,"[1,2,3,6,7,8,9,11,12,15,16,17,24,28,30,32,33,34,36,38,44,46]",22,0.30407760663265027,0.7519199570452675,0.9723404822032622,0.7502311944113087,1.0519234489864142,0.29789539177737456,0.04318724197703849,1.6139267823677867,1.973081031191263,0.4072191652712377,0.21161284696690874,0.48514746237999395,1.0051226732859218,1.065649811429735,68019.80383087191,19544.747631264065
72,24762.5,13513.0,"[14,47]",2,0.6200436142554284,0.2204762949368968,0.019466715805152912,1.3685510137051988,0.7205380785108537,0.38540666487127795,-0.030951629646645884,3.0125720412064894,2.5398971498889336,0.9867892732963152,0.25471125301361974,1.211201671221612,1.2369612501766825,2.015523725290255,72831.37615345794,19575.347884906558
72,104349.625,44307.0,"[4,5,10,13,21,23,27,29,39,42,45]",11,0.4658274999538776,1.6764258176598714,2.192576579710995,0.9637732580567473,2.8588039258130986,0.2958480994672972,0.17797776791363829,0.7887059281789552,4.137535405114044,0.6091996766327618,0.191856646246932,0.1728380701691551,2.1616374000038436,1.7554601607971685,71816.23171142215,27304.54101775638
72,10496.875,4144.0,"[5,35]",2,0.7654957378624543,0.7161318985769647,2.240204801726707,1.2058075314200756,2.3507523892825097,0.28046798431675457,0.22790676575170865,0.7673570429056227,4.686064162881798,0.5406878780232246,0.23109486869901907,0.43765528303661794,1.7633104897171794,1.890532681298011,79496.61056266744,30210.508175052077
72,16601.5,8668.0,[6],1,0.11502856817907658,0.1662885078983849,0.5186933037300903,0.9532531416588976,0.4705567022558217,-0.2501402578080235,0.16322051935820525,3.640076508628746,0.9863539658690402,0.33854853675872265,0.1427233267023964,1.4368300222796004,0.7612355539032621,1.8716831947790793,73129.84537541782,16202.916122037115
72,30972.0,21276.0,"[9,10]",2,0.29841761692012225,1.9538946168071059,1.5491465762503007,0.8712081659200184,2.4804817403784045,0.5063935157884545,-0.04595744484939335,0.7824094249765827,3.473951759080768,0.5627231881215303,0.2478906575213058,0.14773331227803232,1.9320327975348723,1.6359697873603616,68969.58956476835,23065.031124886853
72,33707.75,15988.0,"[16,30,14]",3,0.3179683379267404,0.1677920051545989,0.2427440279609323,1.0678740395383848,0.29706181236510476,0.44980883329872023,-0.13086643346113958,3.0939005353961884,1.069740271588132,0.3944018311627139,0.20231916033404218,1.3556155778678534,0.6865253365435277,1.8443250819841126,74344.8506649063,17389.917748885564
72,32039.375,15113.0,"[12,32,38,44]",4,0.5057427021867638,0.3039653284981343,1.1411806193980083,1.0053815036224911,0.36057717428164127,0.6875399355207461,-0.08424739415563032,2.3929392749039335,1.3336279384156193,0.5190235369057582,0.3562934269941249,0.8197404298851039,0.7715427875699786,1.2478645842264375,69012.34496615504,22784.8392173692
96,272165.5,118307.0,"[2,6,7,11,12,14,16,30,32,36,38,46]",12,0.3391666256374819,0.3162818176130484,0.5594205374932675,0.7959628267012575,0.4725928912019999,0.2559218341882099,0.07149434696948598,2.4240155262590646,1.0845689843560251,0.38115009816361656,0.20995481441553432,0.9137510105749067,0.7132015469284801,1.116681333346571,70095.14290385836,16565.90791999711
96,201232.3125,107059.0,"[8,9,10,13,15,17,21,23,24,28,29,39,44]",13,0.32792601621694994,2.1237993386216907,1.9454530069058742,0.9962907394420113,2.888335627516645,0.1805297699682904,0.43651573409713196,0.8726376073477988,3.754638022723421,0.5710727886798747,0.16905982923406837,0.15216580079429254,2.2023960574038144,1.8036279666057562,68098.91720545625,21773.392560898978
96,22232.4375,10971.0,"[35,45,47]",3,1.2158198260846345,0.7015215936905301,1.8407692024013387,1.3950658879649378,2.2932948033138563,0.745691975435667,-0.05904798334921324,1.0928068528585686,4.9314098849709875,1.1489134395604395,0.3498390539527043,0.3153938372648062,2.0247561575035395,1.9063989429887014,74160.73977493477,27935.50837599341
96,16325.3125,4080.0,"[9,27]",2,0.3594306290499838,1.8193917043816006,1.5484353816810335,1.0015419846940148,2.36550569551501,0.4720151193124229,0.09023340938342495,0.7722043348021592,3.355149029095919,0.673458078723609,0.31321851445033566,0.17860167173676555,1.8916573129496053,1.6420571124595582,69846.84721961673,24115.64593327059
96,19578.75,11278.0,[6],1,0.26929379103939777,0.17440964157250294,0.5854456881536043,1.035381408242353,0.5164579944199792,-0.3045582559662916,0.29124463298539194,3.7076108629509417,0.9847814118974673,0.41604087786502897,0.1855384915852647,1.6098882038147204,0.8197340026336096,1.9579518903945539,73710.10243248427,15492.687735427297
96,14484.25,3876.0,"[15,17]",2,0.4581795928335928,2.027843750457408,1.8216847332835555,0.9000441804589512,2.6650168294915235,0.8798194999395916,-0.20391005507706206,0.864529669710218,3.7331699307048987,0.6243797280925846,0.28797835784990466,0.14189869218720552,2.090111946562641,1.6850443116531728,68964.88199250906,23002.8316274574
96,33029.875,16176.0,"[14,16,30]",3,0.3923611963525466,0.15991156081804547,0.25087906791200476,1.2689631404940123,0.3062559544616805,0.46366792796861933,-0.04174618291016463,3.30137165108861,1.0530330275791955,0.4590307478059592,0.24561302240395833,1.5380500124338212,0.7236414950839928,1.936310390915042,74638.25582143426,16377.745662071053
96,32228.4375,17350.0,"[12,32,38]",3,0.5517199008814069,0.2657136204788082,1.0785553183155425,1.039419410059041,0.28799407570565805,0.7081122601351728,-0.08503153788289008,2.613386578039586,1.2395921158390797,0.5442323178578666,0.3585882442059072,0.9985082917260555,0.7411674999427892,1.2711410536075451,70673.33475288717,21577.88704463243
120,229428.5,101252.0,"[2,6,7,11,12,16,30,32,36,38,46]",11,0.352753481838028,0.3196765305148226,0.7011031684472218,0.7889381227915275,0.46992989763205273,0.22648606226899215,0.11904639750823254,2.3181178622329437,1.052422752949996,0.3965867259741287,0.240243614143536,0.8860256012766494,0.6838305618797101,1.0782119774464065,69586.84700462258,16200.381704975569
120,278066.25,171411.0,"[8,9,10,13,15,17,21,23,24,28,29,35,39,44,47]",15,0.36221147616395366,2.315665599569373,2.084197840830083,1.1391965593330888,3.1007431098837617,0.21892765856585505,0.5524986593044421,0.9886784078658413,3.8691921971374836,0.5596505476635522,0.17624564847586255,0.1597653403112108,2.3849622351354105,2.0295845118831726,67003.30016318054,20393.019555591498
120,22280.875,9397.0,"[9,45]",2,0.7132859159298648,1.4121437910792336,2.3160798718589937,1.1862199572629608,3.059064899093664,1.1479525312137044,-0.20951906417218158,1.0917312520477283,4.003501599906302,0.6057151003972029,0.29561465717516366,0.1292257293923642,2.221983930744986,1.7795687716062447,70796.99203913679,26055.970871879952
120,35517.625,17822.0,"[6,14]",2,0.22195246446659067,0.11143616910002274,0.1279541683301626,1.4831329238854911,0.4258052046123284,0.09351284527312043,0.16865267712510024,4.051970586243289,0.8727508868000414,0.45738589186266165,0.2290370900345171,1.901684594987167,0.8010518131517511,2.2307673741117884,73545.69642536622,14230.816221523744
120,12586.125,5344.0,"[15,17]",2,0.486537727755759,2.021906165184391,1.9064331094781841,0.9778303664874075,2.721873585657329,0.8440303657400607,-0.13872500301919777,0.9053463418844157,3.7167025305569577,0.60581124677472,0.29825098923169646,0.1400784332871543,2.104834334793278,1.7338544851994728,67666.88555850196,22084.4135903624
120,33446.9375,16932.0,"[16,30,14]",3,0.39723637822409485,0.14987132291072447,0.3119938673196896,1.431717598720728,0.3283996030709133,0.47992784472886907,-0.006726955752673458,3.3166334546772642,1.0327820372763945,0.4848584549061832,0.27153256214226884,1.6284125200167852,0.7236936015657286,2.0392790014500575,73923.9493600872,15843.895962074253
120,57244.84375,24322.0,"[7,12,32,38]",4,0.4286853529466368,0.6973873839925666,1.3210884109305754,0.9733440929821624,0.9081124601538986,0.5192105422720876,0.09236976582551248,1.7130896343895623,2.026319692027944,0.5149033479909474,0.3426930322359931,0.622015139217778,0.9475628765904208,1.0856665071772267,66251.15789577123,20503.78509418138
144,206493.25,91779.0,"[2,6,7,11,12,16,30,32,36,38,46]",11,0.40182660455940966,0.2585898972175098,0.697872037822282,1.0267014768058371,0.4211829502486779,0.21878613593732554,0.17692009746738657,2.5241796777020964,1.0044925931360646,0.41947827841867913,0.24546319225332924,1.0448849063746637,0.705306077695567,1.1986047524400014,69982.45168788815,15796.604203769322
144,25596.625,17561.0,[14],1,0.17454618612988537,-0.017421985895355707,-0.5195523318314674,2.6923844015061706,0.2868283110242733,0.6205426596102754,0.08870286569701946,4.487436634511772,1.0435036221120582,0.5239615617824399,0.2541917604347361,2.3090061080281608,0.8437427319824952,2.5280845554425,72666.96871169562,13046.463899048982
144,244190.953125,127944.0,"[10,13,15,17,21,23,28,29,39,45]",10,0.3340882183721332,2.5547781142751536,2.232689496604132,1.2852945642355542,3.4169902228004836,0.3705579080187782,0.6178758664618877,1.0618647189216945,3.8109604798936556,0.5474652392274789,0.10439073378830832,0.16366097378441036,2.567548760813036,2.157466017062463,67005.00285374778,19647.9676236983
144,10619.0625,4326.0,"[15,17]",2,0.5041101526029221,1.9998577665062962,1.9845508260277742,1.1213573476663496,2.7867220990215213,0.7983376207174662,-0.013988941331922522,0.9716477687766694,3.6207963332641664,0.6171163682440185,0.2652052686310018,0.17008788041111356,2.1627478618757596,1.7595852544672026,66983.96850004415,21104.34767664282
144,19376.84375,10689.0,"[16,30]",2,0.650725933012023,0.2058143747449801,1.0937946913092187,1.397935479343905,0.33795128434148536,0.35872114317024395,0.04727716886377431,2.2679297462797985,1.2605650975334601,0.4993120091313893,0.2819744889389515,1.2878889260126947,0.6624137987038295,1.7801540964754932,74467.31034304801,17755.940205690073
144,49103.421875,20481.0,"[7,12,32,38]",4,0.5027655497720229,0.5543696629785626,1.2431418879568312,1.1613324836513588,0.7210474813058809,0.5897424353352965,0.08820377944286939,2.0405472422931403,1.820874953469699,0.5513977680205596,0.35710113402929844,0.7909988811004409,0.9229480245231866,1.1773513597515364,66989.9105478584,19990.047404410037
168,247142.0546875,154259.0,"[7,8,9,11,12,15,17,23,24,28,29,30,32,39,44,46,47]",17,0.4016246705915265,0.995366393497874,1.6385299821725439,1.3560662421771448,1.7439887089172452,0.24954171680586623,0.4894166366313337,1.0859287956787802,2.8068803521427834,0.6607480032284357,0.27282599388386286,0.3480505515745741,1.4404074241727698,1.2419057368375868,65952.07515212258,21773.74210675832
168,95547.6875,30761.0,"[10,13]",2,0.09453535332289742,2.8354742336928958,2.178554461748884,1.3437939063500006,3.541967460484463,-0.2926589083550738,1.1664997929456637,1.0574993781446946,3.6510916454619626,0.5056898913224234,-0.005672643130365973,0.17436161528847016,2.590831154087026,2.1968136936045433,67210.48751179918,18522.91078734913
168,55062.0078125,20725.0,"[9,21,45]",3,0.6858104603903259,2.443046924179783,2.1466343482241856,1.3219079426250882,3.359464726410749,1.4921959069611666,-0.4598148060218241,1.3284326750887718,3.706059323514252,0.6689779533145715,0.21704388565150712,0.12419300811571155,2.4928988788569035,2.085201748373329,68364.4512531822,21360.444319522187
168,82446.1640625,38455.0,"[14,16,36,38]",4,0.31538693348215396,0.07009216407941876,-0.09546595440916672,1.85486915508046,0.2468216515442072,0.4749540233953753,0.09886694902070525,3.594109300132768,0.8865970336226047,0.457611223696732,0.23243114608508852,1.641629821903285,0.746426652998566,1.9235964849388092,72866.54544589674,14527.15238627769
168,21984.53125,16675.0,"[15,17]",2,0.5137762454538357,1.9222775027700516,2.011475901766509,1.3382382650006122,2.877150391770139,0.8405519150766609,0.06482195779558797,1.0249917537956375,3.4214067197521585,0.6919849379585054,0.23039798569555225,0.1634541890125154,2.1246333427054562,1.6285708411741888,68074.45839901624,22097.817596179135
168,19876.421875,10188.0,"[16,30]",2,0.5423930541333164,0.19243263518569442,1.0534319113227881,1.7384354579621313,0.3375186917488593,0.34993588802136877,0.09897019842801624,2.228042359752947,1.3338076297399288,0.49173242232355985,0.2711859662028786,1.2725672272616597,0.6283547650683002,1.784577930084014,75539.19432493436,18051.417994467407
