time_in_hour,cumulative_size,size,pcore_ids,pcore_power,AF700 CD48_[R 730_B-A],APCCy7 Ly6G_[R 780_A-A],BV421 CD117_[V 440_F-A],BV510 SCA-1_[V 525_E-A],BV605 CD11b_[V 610_D-A],BV650 CD150_[V 660_C-A],BV711 CD11c_[V 715_B-A],BV785 B220_[V 780_A-A],FITC Ly6C_[B 525_B-A],PE CD115_[YG 582_D-A],PECF594 CD135_[YG 610_C-A],PECy5 CD3-CD19-NK11_[YG 670_B-A],PECy7 CD16-32_[YG 780_A-A],PerCPCy5-5 CD45_[B 695_A-A],_FSC-A,_SSC-A
-1,0,0,[],0,0.0,0.0,0.0,0.0,0.0,0.0,0.0,0.0,0.0,0.0,0.0,0.0,0.0,0.0,0.0,0.0
0,119542,119542,"[2,3,4,6,17,20,23,32,37,41,56]",11,0.1686651271117957,0.23734938945741496,0.3252723144315356,0.28331493831853233,0.264961281661603,0.21980301413403733,0.2551224991208193,0.49017233098304774,0.17402846818918546,0.10517305692547854,0.24805862295694012,0.21251371910575817,0.1470776134003329,0.2660122925146102,0.19829857090130407,0.05025009197388457
0,124416,124416,"[10,11,12,13,15,18,19,21,28,33,38,42,52]",13,0.1626241033105638,0.41672530054303375,0.4974896602831921,0.2993867223111372,0.5155601987030699,0.21837282849086048,0.27206953481662965,0.3128509011794002,0.5565364729733124,0.12829192738270867,0.24249625443922193,0.09325800777254932,0.33337541734119597,0.36794821897689467,0.18800583317218103,0.06986967196872967
0,55039,55039,"[11,12,13,18,19,26,34,40]",8,0.18287941065603872,0.391789562107979,0.5233442663387875,0.3056280056831619,0.5119549838940116,0.2992940742237591,0.24836191847297898,0.3182070781938481,0.5779567618894634,0.1336312198614164,0.25071196578964716,0.09289096427040902,0.3337246589419227,0.3556804316752706,0.19439536165178992,0.0800497244713342
0,61611,61611,"[3,4,6,17,20,23,32,37]",8,0.16794997681132715,0.23351244899034124,0.32856368287322485,0.29084033101434487,0.26618722889215307,0.21576249927805657,0.25302582389093337,0.5024587851601802,0.17392640441941704,0.10949383839549746,0.24842418881436132,0.228907487736079,0.14957191198067188,0.3213117868516065,0.20453169970615775,0.049808116111776254
24,170837.75,139330.0,"[2,3,4,6,17,20,23,32,37,41,50,56]",12,0.16603125965324184,0.23518010149260102,0.3258859097671177,0.294855660636538,0.26002433143315656,0.2289634347932287,0.25233873650668914,0.49040387824493176,0.17644053033612864,0.10221505894334187,0.2471537132884545,0.21362648409659493,0.13926310577740858,0.27605604026677155,0.20901906490987573,0.05424953971798329
24,9157.25,7577.0,[22],1,0.19842250276791457,0.2539077278611262,0.6153289317362971,0.3360022732992503,0.27660159381809024,0.2650328450092734,0.2595751895638335,0.3409908982370732,0.26138037399317765,0.1415229006410638,0.2764735981902228,0.11898582829476215,0.14670816312850513,0.1798650812013875,0.18435638027419457,0.11262477816755175
24,150459.5,118017.0,"[10,11,12,13,15,18,19,21,28,33,38,40,52]",13,0.16854720675867294,0.3978477010211184,0.5087048150629939,0.3060006387776591,0.5120298893034091,0.22877379343671242,0.2705097631770052,0.3204156400749024,0.5700326629124786,0.13048170011124308,0.23945534029447013,0.09403701777522566,0.3195950138858214,0.35654867335684476,0.18765666112838178,0.08137307150747337
24,75348.25,58451.0,"[11,12,13,15,18,19,21]",7,0.1773252571411513,0.39290707824977794,0.5097901836187649,0.3074902054944862,0.5071378635751491,0.2795963194269963,0.2520488373929933,0.3232695595473742,0.5727692498036793,0.13316428326251162,0.24467182874089946,0.09384351091057505,0.32026437360716287,0.3541270906794386,0.19012627376492766,0.08430150941541707
24,73022.5,59144.0,"[4,6,17,20,23,32,37,22]",8,0.1713308010055322,0.23428820577120515,0.3675354855293136,0.3103713214463287,0.2643581954883465,0.22178671104960662,0.25637896847403024,0.5223903261175845,0.1893298014078752,0.1115402108587105,0.2511839513131329,0.24102836327457847,0.14817244478681052,0.34198258854220814,0.21085155031618563,0.06313582548152055
48,165813.1875,125437.0,"[2,3,4,6,17,20,23,25,32,37,41,50]",12,0.16480153755714938,0.23300245385054896,0.3130726371828342,0.2892591592073092,0.25396989708011863,0.22649784955872673,0.25207661232993506,0.4958376952539937,0.17976795713745175,0.10090485852094215,0.24488356382992488,0.20491104491926015,0.14025011075498509,0.2572776114493118,0.20206358346052178,0.055056758633650164
48,26472.0,21191.0,"[22,56]",2,0.1732223562308797,0.2811548788310304,0.4785903158725984,0.30880103943702614,0.3118703332880033,0.2711434039879155,0.2487534450567067,0.32047944797124617,0.3711430673753376,0.11692175031045528,0.2620340306382994,0.09860861549498573,0.1552535868142069,0.1646971812021045,0.1457802730221021,0.08356073037480051
48,104649.0,74991.0,"[10,12,13,15,18,19,28,33,38,52]",10,0.15077719925733687,0.3984607669294033,0.49968023499895575,0.2954421815485376,0.5132932217790588,0.168199423618774,0.293218834782416,0.30615613614401244,0.5611307041841781,0.10625858392728373,0.23375827249441616,0.08895962379279232,0.3163432273409737,0.3246147065696557,0.17808558756051102,0.07494825424550429
48,29675.875,18705.0,"[12,13,18,19]",4,0.15952752325761158,0.38252536520376346,0.4978986457249039,0.29425137587319605,0.491104724481442,0.24221064656596297,0.26435110042725074,0.3034248829547821,0.5619312633410378,0.1110625717649868,0.24211922040550454,0.08916015924167947,0.30057192221755313,0.29921869780458343,0.1800167753430381,0.07622471872226401
48,68152.25,49941.0,"[4,6,17,20,23,25,37,22]",8,0.1726131015499398,0.23643926923204214,0.3689741591883886,0.3055381126409267,0.2627828436301657,0.22916928112077517,0.2513806593298775,0.5237525361403325,0.2352568815433776,0.11594755901956673,0.2507370259985722,0.2259708952878761,0.15586336307179116,0.31791397266627697,0.19702925950330652,0.06682583865563893
48,11971.5,11194.0,[33],1,0.13758249430771285,0.4193501065531886,0.4676667153051302,0.29292333021172645,0.49489983406575594,0.10153934767038085,0.3033797457940143,0.2912848553720721,0.5164108561848222,0.10056066327980542,0.23332312949163886,0.08968365361707635,0.31626568477097194,0.3280662430770244,0.16464680908998902,0.06470239100244948
72,175328.765625,133188.0,"[2,3,4,6,17,20,22,23,32,37,41,50]",12,0.16433409519754763,0.24072271401756484,0.31983422758763813,0.3041337796052238,0.26212948082758,0.22680302069906957,0.24998461398607782,0.494737858919708,0.16854316160533975,0.10066579815336309,0.24745041621754413,0.19204567582894727,0.14673844847510573,0.2653778430431022,0.20261172289462068,0.06328721199761256
72,25429.921875,20895.0,[56],1,0.16688613392972199,0.32502860301249237,0.40430178152112856,0.31321792901579276,0.3768918436677712,0.26675834787256114,0.25335454543648,0.32428580645060484,0.4127083880770918,0.11126327129340975,0.2574587403315424,0.09926059614074018,0.20286038095660114,0.21122331346731757,0.16897777813959092,0.07526082228167653
72,138332.4375,108168.0,"[10,11,12,13,15,18,19,21,28,33,38,52]",12,0.16446134150079242,0.384903675837357,0.46401486945685283,0.322142153338161,0.48156637620368525,0.20514807253336642,0.27279898039079997,0.32209385443607336,0.5158379701595834,0.11957992183359624,0.2521420013212703,0.09598706200061417,0.2925731894224147,0.3295803730283205,0.19483748382030705,0.08655842998186568
72,39354.109375,28728.0,"[11,12,25,26,34,36,40,43,54]",9,0.2158869296702601,0.32531618259346223,0.5128263930077905,0.3498679734596904,0.4522160663795766,0.3014400745936345,0.2464536196851773,0.33540485190071273,0.5892858560908928,0.15331525453345884,0.2677751240621178,0.10240072925332984,0.2914424472550809,0.3220486559859923,0.20965578454049216,0.11458366202422382
72,28000.734375,18714.0,"[15,18,19,21,22,25]",6,0.1994003941661798,0.35107554798837365,0.5084512965179374,0.3382444366017706,0.45066449129971126,0.2849253449427736,0.24659160208920344,0.33898985290922656,0.5180697623282199,0.15042059323889134,0.26427919091989804,0.09905396655410402,0.28729465493421913,0.3254772096202264,0.19749139345270475,0.10316529859192781
72,60071.828125,45824.0,"[4,6,17,20,23,32,37]",7,0.16436428894402702,0.24072136206375094,0.31985793886744757,0.31781507150735505,0.2687194492580136,0.21339025661598035,0.2504258635798182,0.5446686061236167,0.18079482793774684,0.10403584540610279,0.2478321000543955,0.22772436037493787,0.1594774184948366,0.3502818170641812,0.20944840491125624,0.06416697731979538
72,3036.78125,1934.0,"[36,54]",2,0.24355148980752492,0.28195849678813395,0.40144929226238935,0.404171200861227,0.31419662543479904,0.29661111185350497,0.2963418592456005,0.3477767866888262,0.5052701804899031,0.16549876786474438,0.30003578271849557,0.1693803149307872,0.20331612466023885,0.4210861550096232,0.2114568313960552,0.10008916252632033
96,140965.60546875,99772.0,"[2,3,4,6,17,20,22,23,37,41]",10,0.1789580280381471,0.23953573033049014,0.3347277332799375,0.3114533559970734,0.26258241045360037,0.21929999376240114,0.26309471551122665,0.5139785149594854,0.16645134912118356,0.1090078108308487,0.25285730396495093,0.22681900430320356,0.15114333696881557,0.2767827925549971,0.20540071057622575,0.05776954518807555
96,129374.0625,99971.0,"[10,12,13,15,18,19,28,33,38,52]",10,0.1662486086554254,0.4473804972922178,0.5014091554803853,0.3377697158301219,0.5481866468602316,0.19928851546866594,0.3105146767436762,0.339516158501916,0.5376878505413437,0.12707942963885718,0.2441214866922438,0.09597485228785105,0.35916286328332264,0.41899084288789923,0.19338020587130503,0.07621160457016775
96,38186.953125,27678.0,"[3,4,6,32,44,50]",6,0.17787572531130322,0.23846667719194434,0.3308834696802059,0.340518795560676,0.26416046703046075,0.23695281281076294,0.25733415857178266,0.4792572367206306,0.1861627216831665,0.1143201985156382,0.2548628722771962,0.2315275057196259,0.14576548222270197,0.3269404370550019,0.2167253473641542,0.05395577907863813
96,38608.17578125,25775.0,"[12,13,15,18,21,26,40]",7,0.1954912427260532,0.36892106155543786,0.5304297578483305,0.34451094371541335,0.5403056722181154,0.27745080815285394,0.27189632879008285,0.34137711971912943,0.5682383830667868,0.13226939064641635,0.2548788166255734,0.09509881974247227,0.3405987346474872,0.37321274166167334,0.2043735097242126,0.0942033599570601
96,21571.27734375,11905.0,"[33,21,26]",3,0.19008044483913225,0.40081047503572936,0.49353105668692265,0.3394565521377124,0.5182484688027679,0.27608784790312324,0.2527925216655342,0.337370533047302,0.5224074841208121,0.13443003796468364,0.25773087327543653,0.09652691748525202,0.3328866389996821,0.3895031198909645,0.20734162908964673,0.08686925362317512
96,34917.1015625,22607.0,"[22,23,37,32,56]",5,0.18855196608957225,0.27194690528999743,0.39743492211124953,0.33254022808197303,0.2997365545728591,0.27141731255054746,0.25723208594784885,0.4417131569856293,0.2883992073872566,0.12425893083534427,0.2649910204294573,0.18364249381693465,0.17417971259208315,0.2791241964155897,0.1943927731103037,0.07508031359354413
120,126544.4013671875,91303.0,"[2,3,4,6,17,20,22,23,37,41]",10,0.17524815634425603,0.2415964755483314,0.3503722748438374,0.3164488795303068,0.2657792611277084,0.21853330523633926,0.2672196993509254,0.502704530840362,0.17008898011195667,0.11068817847471754,0.2568137014565941,0.22274676048992723,0.14690916614965233,0.28085762899080413,0.2012863921161168,0.05586200866632262
120,180753.41015625,150740.0,"[10,12,15,18,19,28,33,38,52]",9,0.16263307024486204,0.4777517521538682,0.5288639543426523,0.3492257599607213,0.5837972957296859,0.21187740168988814,0.3183645915596236,0.34961853903903484,0.5527367101085618,0.1168623457077264,0.24351961305385686,0.0933067666611534,0.39140776777227326,0.4668927870318729,0.18608603546633887,0.07116530304201105
120,44696.9384765625,37375.0,"[12,15,18,21,26,40]",6,0.19107578026101768,0.38177605828432226,0.5683069508002435,0.3620215898511904,0.5858433950304696,0.26713145101303837,0.30254004061811857,0.33538946069782727,0.5897636235176683,0.12229098866457729,0.2515550605992062,0.09276521274430834,0.37591036070412776,0.4255696564468354,0.19651429603791565,0.08931561157770697
120,10643.3896484375,8035.0,"[21,26]",2,0.2239841756424891,0.40439914993361264,0.5534783528107683,0.36059084074853004,0.5745190791502618,0.43440256013185524,0.21474673585324303,0.3707858812542721,0.5830675377353387,0.13762239562479917,0.26598044282994515,0.09096849767645973,0.38058739491438337,0.4408472196266575,0.21553771320437937,0.0942003808754304
144,114287.30224609375,84803.0,"[2,3,4,6,17,20,23,37,41]",9,0.17904314001823277,0.23422470799133993,0.3297727288690284,0.35930863725704115,0.26378993475117585,0.21120782888016898,0.2769485323673105,0.5431576441191932,0.17420110847712927,0.11139962562172764,0.25421915631705444,0.26167322608810895,0.15647677946609678,0.3211933359053157,0.20415890030347078,0.05163271487026299
144,165849.87890625,119286.0,"[10,12,13,15,18,19,28,33,38,52]",10,0.16567769087385598,0.4803699221934093,0.5249458362001457,0.3678287417310299,0.5852877581879931,0.22260084319093165,0.3254196145382505,0.3515204649567351,0.53917332703492,0.1255087122628257,0.23715308492636747,0.09898679294256593,0.39311473136260716,0.4684762259506344,0.18471458808360253,0.06850286120722923
144,44126.413330078125,34489.0,"[3,4,6,32,50]",5,0.17522353000974455,0.23173216296002982,0.33387524596497786,0.4190968551783368,0.2643905660561721,0.2435284697405758,0.26966024987659104,0.5170300554898322,0.20627055590104057,0.12060977045047852,0.25824306163873345,0.27840332147800123,0.15658240731244089,0.37762860560585026,0.21060986610041135,0.05214086290948103
144,42905.760986328125,30356.0,"[12,13,15,18,21,26,40]",7,0.18748098637835311,0.40427593561906555,0.5502647085692012,0.37632007297391473,0.5727326161244675,0.28565303154179894,0.31389562521250775,0.31866483797995354,0.5552640772306007,0.13332039563644996,0.2476706147532152,0.09952729593009227,0.37520942107081484,0.4287575114910096,0.18930954894621732,0.08119184991687993
144,8770.847412109375,6110.0,"[21,26]",2,0.22594760741899947,0.41337459082851485,0.5456270219855448,0.3770343477407129,0.5715624919130942,0.439744958453763,0.21766922139959868,0.3771892862893734,0.5564062076699116,0.14654707859542282,0.2591676095671596,0.09798972358760892,0.3805396509233769,0.44080391819110176,0.2019941223945425,0.08685155689636603
168,94535.02893066406,66748.0,"[2,3,4,6,17,20,23,41]",8,0.16327804823601794,0.23360619799577345,0.326774976102221,0.38205159529985644,0.26705986333578546,0.21739503460344956,0.2797091603097105,0.5381155064799065,0.18091749576644325,0.11134310914065303,0.25267478124402337,0.2433651455220488,0.15660185936831908,0.3159737296942429,0.20559814799726686,0.05555903727950471
168,104759.39166259766,74298.0,"[10,12,13,15,18,19,33,52]",8,0.15714822925695346,0.4389834450312133,0.5200515023334582,0.3842038347483869,0.5633792286944115,0.15857412865617473,0.3533671051318016,0.3347509961282527,0.521012438199249,0.13442981166871243,0.2373734469442875,0.10046717916908166,0.36000324163476616,0.41667178506699937,0.1888502625903038,0.07886322103595388
168,51078.142028808594,47015.0,"[28,34,36,56]",4,0.17495086308765134,0.299191114054117,0.43061110577383993,0.3862131633338676,0.3828071359648505,0.24004029502607793,0.28017733873206474,0.3210795464429156,0.48675115167930105,0.13894163479775176,0.2624560959031903,0.11188208769873188,0.21438787601052134,0.2614796160076035,0.16723247909304775,0.08618028671080732
168,25093.089599609375,14471.0,"[38,40]",2,0.21363865217649727,0.47654197447999713,0.5275840957212645,0.3772631250273833,0.5953764785476181,0.43654204758989706,0.20705878494878643,0.38427495262297984,0.5373533277249108,0.14556092411006158,0.25074984402097905,0.09092651187865906,0.39432566105126376,0.46566918846268357,0.1939017555181824,0.08073666900216182
168,19002.32098388672,17360.0,"[33,36]",2,0.17599826330752005,0.33000541932823446,0.4471275375009431,0.40954077142393575,0.4229803111471595,0.1711107664429607,0.3047177282438415,0.33167016361180984,0.49878177253355926,0.1397300282941729,0.2540325123565039,0.1302054155593163,0.24767486788446375,0.3600220192388086,0.19353905486344136,0.07982976180057479
