time_in_hour,cumulative_size,size,pcore_ids,pcore_power,AF700 CD48_[R 730_B-A],APCCy7 Ly6G_[R 780_A-A],BV421 CD117_[V 440_F-A],BV510 SCA-1_[V 525_E-A],BV605 CD11b_[V 610_D-A],BV650 CD150_[V 660_C-A],BV711 CD11c_[V 715_B-A],BV785 B220_[V 780_A-A],FITC Ly6C_[B 525_B-A],PE CD115_[YG 582_D-A],PECF594 CD135_[YG 610_C-A],PECy5 CD3-CD19-NK11_[YG 670_B-A],PECy7 CD16-32_[YG 780_A-A],PerCPCy5-5 CD45_[B 695_A-A],_FSC-A,_SSC-A
-1,0,0,[],0,0.0,0.0,0.0,0.0,0.0,0.0,0.0,0.0,0.0,0.0,0.0,0.0,0.0,0.0,0.0,0.0
0,101716,101716,"[7,17,20,24,26,40,51,56,58,63]",10,0.17247123513057086,0.23676740403421295,0.33731552757784283,0.28917888952322335,0.2681821588442281,0.22525085593912886,0.25154120609552977,0.48702098111571096,0.1778364225552939,0.11029435386930042,0.24947212632920768,0.21651496236814236,0.15231601628854452,0.290217090049792,0.20056486908656368,0.0523752836971056
0,6680,6680,"[17,20]",2,0.18301834699816275,0.2401981050932239,0.38005962665876025,0.2955292354364715,0.2793261666629616,0.22317221220308905,0.2555075893595217,0.4985538827024357,0.23022560951918963,0.12629908509672813,0.2518987627527266,0.2272585764352804,0.16115661098189454,0.32526399296499675,0.20579482841912516,0.06217158822065452
0,50084,50084,"[54,55,62]",3,0.15539982550465437,0.39924695437018964,0.48417831971528397,0.30314421698853816,0.5001740025032478,0.13944272683465292,0.29736805290460816,0.3185630467295691,0.5477620646426498,0.12972082252134287,0.23896668033294588,0.10347202359852407,0.31867355582317725,0.37358939298444327,0.1903331706863318,0.07328946258618006
24,138734.125,125370.0,"[7,17,20,24,26,40,51,56,58,59,63]",11,0.17238761262274416,0.23781333291166484,0.35425378089950316,0.30119260738466297,0.26622490369084717,0.2328549510196228,0.25224451876320786,0.47436449428157285,0.18836776652521042,0.10912144304700087,0.2496549629010921,0.2062513581420376,0.14470122801886656,0.28300791839526385,0.21127301864139014,0.06094865101071437
24,5598.0,4763.0,"[17,20]",2,0.1843713655381321,0.23895340509341514,0.3840016811161606,0.3052215602686153,0.27388747701125976,0.2317138391392356,0.2577034722695734,0.48881580034943306,0.24988795724657928,0.122551835058439,0.251933372815244,0.21445267159519893,0.15394029359921418,0.3162122362630562,0.21445246272456814,0.06950952621322123
24,119410.875,107723.0,"[33,34,35,36,38,39,41,43,45,46,48,50,52,54,55,62]",16,0.17876183189018136,0.37052526395066765,0.5047287720607705,0.31820018331305544,0.48538316068481546,0.22947753936294518,0.27061899571779213,0.3324557427033344,0.567584646873147,0.14510083551520783,0.2464201344114412,0.10571372724484905,0.3035802556918667,0.36210625159966114,0.19974948174905605,0.09670533963161933
24,52531.5,48080.0,"[34,35,36,38,39,41,43,45,46,48,50,52,64]",13,0.19660447352777022,0.36860162764075727,0.5077803091925255,0.32311298752225,0.47879726841705117,0.3218320828911832,0.23798024450658364,0.3406417226129359,0.5686168657111393,0.15881371647044978,0.25673543103540236,0.10670878919961627,0.30614395748018897,0.3673504913666927,0.20600581351850328,0.10561138160320983
48,121466.046875,107054.0,"[2,7,17,35,40,51,56,59]",8,0.1704870681365979,0.23858789117485976,0.35163395753479215,0.28455215269510636,0.2594598720666368,0.23593886628882926,0.25164239166289165,0.43472577815578345,0.20271324402123886,0.10726669297071732,0.24814372310657556,0.159723498025549,0.14083507585939817,0.19590441527385263,0.19035750041864685,0.0623710825450917
48,25383.546875,20659.0,[24],1,0.15609012447585727,0.226839204586656,0.261916720927202,0.3270123436884387,0.2534231585812185,0.23755379791974413,0.2472014586897131,0.6231397157593127,0.16156984135659821,0.09857350775921848,0.24571878902873875,0.30299726239466757,0.15514881432007108,0.4207724174585688,0.20794517299819104,0.050734816161111085
48,1867.046875,1207.0,[17],1,0.17502194229644358,0.24164879453661303,0.40483388684936206,0.3112021684818625,0.26605545069735614,0.25235602083344094,0.2435099107487789,0.5290362447448557,0.2581980102727244,0.1184966227327465,0.25219126452272,0.22822443579122575,0.15777219838641765,0.3415793886315971,0.2148182709481214,0.073715583375817
48,86335.640625,80910.0,"[46,52,54,55,58,62]",6,0.152586604400084,0.38238568372670867,0.479647462936893,0.29782369466033565,0.471183529894459,0.16838820097645157,0.28995206233999066,0.3067537045132227,0.5360985832912485,0.10861417203105134,0.23952106700046819,0.09349395592074702,0.2881413808070084,0.2994958230890433,0.174922622453449,0.07488813692718757
72,126617.634765625,113467.0,"[2,7,17,23,40,51,56,58]",8,0.16383203859435974,0.24520860955034296,0.33044176068009357,0.2917246251816963,0.26569707075697,0.2272175289808836,0.251309677188613,0.4486785062639346,0.17925853355484944,0.0986276002781947,0.24769089952694257,0.1557417701928036,0.14048142102051694,0.2111579043506598,0.1942284216606729,0.06432976471295404
72,19647.943359375,16475.0,[24],1,0.156003185409127,0.2359665454140179,0.24706229626082116,0.38211593315829967,0.25778246420236917,0.2456740651983386,0.24064307424314477,0.6322394525926638,0.18646315692951687,0.10361656012091904,0.25039545252533707,0.3024782723705511,0.16836009654177206,0.4604685609597066,0.21780419958199812,0.059460174218478254
72,198113.068359375,176340.0,"[26,28,29,30,31,32,33,34,36,37,38,39,41,43,45,46,50,52,54,55,59,62,64]",23,0.18524346302998626,0.3679761520616696,0.46799318271335166,0.33799399376799266,0.4661281231804309,0.24439085787170886,0.2609805657057367,0.32198299606895087,0.5226467519125676,0.14443550897702445,0.26290801438554023,0.09685674998777706,0.2912928072197361,0.3335017820517882,0.20353461925514538,0.10279096220299609
72,25663.404296875,18906.0,"[28,29,31,32,33,34,36,37,38,39,41,43,45]",13,0.21237827719478838,0.38636401467062154,0.4970564713950603,0.34405444438260047,0.519493168025432,0.3367834449837359,0.22555239876488956,0.33742261597553314,0.5666713010625051,0.1680929813090989,0.2724184451228044,0.09614887279398443,0.3490080498198324,0.39410380854516514,0.22395602611789314,0.11822631269994624
72,11199.51171875,8753.0,"[17,23,40,51]",4,0.1925884141090962,0.2554630832638452,0.35484502418930164,0.35442213522893423,0.28563507131156546,0.26514851723860977,0.2636561450577518,0.46074923390182004,0.30541022179474236,0.1301739739620451,0.26403011669833104,0.16926465967201962,0.16391791092444694,0.3095182879347486,0.201589859755431,0.08538337405919655
96,108426.36865234375,91424.0,"[2,3,7,17,18,40,51,56,58,59]",10,0.18607559911292307,0.25007075986981103,0.3616036157514871,0.3167227775846733,0.2771515976848855,0.2295962196263227,0.2654054340044701,0.47664901352688493,0.1915946874374209,0.11683775741315343,0.2571053476905714,0.20449370828356658,0.1597801970034982,0.261387447096266,0.202434717741049,0.06158567242128208
96,18096.37109375,15639.0,"[3,24]",2,0.18361458811112621,0.2355348002500695,0.2804874260306553,0.3855679174306653,0.27200865401091606,0.23478456109202092,0.2685473656079839,0.6073084710221704,0.19131842822751638,0.1250564289973321,0.257576329834854,0.3180887408981077,0.1743113042857401,0.4555124876579801,0.21495862892220954,0.05434363336485252
96,105029.21899414062,92368.0,"[46,50,52,54,55,62,64]",7,0.1792441707596282,0.4350423351135802,0.498807750944257,0.3511643146200166,0.5387165004951592,0.21389494695499947,0.31037246591536166,0.3519516531933017,0.5461253526745936,0.14214018975410467,0.25026157448598835,0.10412784433018396,0.3597344820242468,0.4366574907064601,0.20056554184205594,0.08449995182930443
96,267.2734375,238.0,[57],1,0.28856681664918354,0.3390937233660095,0.5440700054537052,0.46578644160305877,0.437279077903751,0.39258762706517986,0.3418200295002455,0.40034095487825944,0.50452874199813,0.26871360501636965,0.34628292616466444,0.16039122381875717,0.3499676828681938,0.48655145437240505,0.26328462377802075,0.16663348343632928
120,101383.21786499023,87957.0,"[2,3,7,40,51,56,59]",7,0.1799420529315296,0.2589626549738891,0.3828031900405966,0.320196126058644,0.2876030395514561,0.22941620131332605,0.26819595058914986,0.44785664525649393,0.21171607313142798,0.11686068638680122,0.2614576638195659,0.1851159359116761,0.1577699188600709,0.2564727496285702,0.1943320169645069,0.059943613649741566
120,18725.04638671875,16463.0,"[3,24]",2,0.17261234861645558,0.23230527547523422,0.291770011302623,0.38851481150336487,0.2747329506762103,0.2349795168518185,0.27103511519591844,0.6094015431959706,0.18454495148667424,0.12208901464415907,0.2583120976188897,0.32094444172061093,0.16962917460477187,0.463706632544935,0.20787716136912046,0.05077291911745041
120,133834.38702392578,123856.0,"[50,52,54,55,57,58,61,64]",8,0.17310832574540744,0.4705417976082544,0.5198933870790832,0.35754976748970074,0.5680348427807196,0.24351362553513856,0.3072853061032008,0.36255898814862275,0.5451937764309954,0.12867542291311534,0.2500046492048161,0.10158368333740822,0.38562638878743016,0.4758095878988566,0.19015162444207442,0.07580957063827326
120,3.64276123046875,3.0,[62],1,0.07351333950944047,0.34001274023284317,0.41926285056587004,0.40555433738521307,0.46898607948603827,0.23417223602673182,0.3493867861022825,0.489912521510169,0.46954593502492664,0.16668683718615984,0.3063553831053878,0.24416967325550387,0.3123146919481099,0.4726856061206178,0.1843789455203212,0.07116596597894348
144,93900.72690963745,83396.0,"[7,24,40,56,62]",5,0.18470403417377437,0.23959425661119513,0.33817487169229216,0.4018519584611613,0.2755811153559234,0.23129830727215736,0.27751182904340416,0.5452088864553954,0.20344374397380915,0.12160157927165076,0.2583379803487894,0.27424065551061666,0.17147759744881888,0.3677147217767295,0.2002865839682385,0.05575658125096003
144,183099.89920043945,155231.0,"[16,18,20,21,22,23,26,28,29,30,31,32,33,36,37,39,41,43,45,46,50,51,52,54,55,57,58,59,61,64]",30,0.18363326808670247,0.44201315706878913,0.5160836217963115,0.38717964876249866,0.5533617769506451,0.24722147234119274,0.3189395651782469,0.3656446545642878,0.5324070491676902,0.14547637113838466,0.2468870256196019,0.1139143196921587,0.3731213467314492,0.4643547164258451,0.1903092369405118,0.07744970346326209
144,25994.722995758057,19223.0,"[21,22,23,26,28,29,30,31,32,33,36,37,39,41,45,46]",16,0.21180774817409,0.3678888976909519,0.5438196390417254,0.4078226896280012,0.5403540697531479,0.2610557378708993,0.313978598602476,0.36945744038027334,0.5728666129519527,0.16603981083428407,0.26094021370722514,0.11774186959411573,0.35683949414053495,0.44688291162233107,0.20059025565043373,0.10091566192951901
168,77462.79404067993,65532.0,"[7,24,40,56,62,63]",6,0.16820642633764707,0.2426357204399444,0.34078651021897033,0.419803485715946,0.28680239832170057,0.2366313154017781,0.28264732744268195,0.5297839365222644,0.22737059362719775,0.1238027782530429,0.25766339511133896,0.2454096602160226,0.17413900167091742,0.3555647825467584,0.2025499708340525,0.06217868375659998
168,85775.20383787155,69937.0,"[50,52,54,55,57,58,59,61,64]",9,0.17889016991165665,0.4253369214843927,0.5083017458535454,0.39335831786865455,0.5403719287522079,0.22852879613452937,0.3197009507057471,0.3529617256310564,0.5016744698531802,0.153875752488278,0.2470741970912502,0.11032072239104568,0.3504445981174262,0.42012080099765614,0.1957374186432221,0.08462801129865971
