time_in_hour,cumulative_size,size,pcore_ids,pcore_power,AF700 CD48_[R 730_B-A],APCCy7 Ly6G_[R 780_A-A],BV421 CD117_[V 440_F-A],BV510 SCA-1_[V 525_E-A],BV605 CD11b_[V 610_D-A],BV650 CD150_[V 660_C-A],BV711 CD11c_[V 715_B-A],BV785 B220_[V 780_A-A],FITC Ly6C_[B 525_B-A],PE CD115_[YG 582_D-A],PECF594 CD135_[YG 610_C-A],PECy5 CD3-CD19-NK11_[YG 670_B-A],PECy7 CD16-32_[YG 780_A-A],PerCPCy5-5 CD45_[B 695_A-A],_FSC-A,_SSC-A
-1,0,0,[],0,0.0,0.0,0.0,0.0,0.0,0.0,0.0,0.0,0.0,0.0,0.0,0.0,0.0,0.0,0.0,0.0
0,117627,117627,"[2,3,6,17,22,37,46,50,52]",9,0.28407696729492393,0.17580445651083743,NA,0.47370405427325135,0.3081008857150094,NA,0.03589616651789029,NA,NA,0.3190099563790618,0.16831337328164597,NA,0.5929879718601995,NA,69107.31556530372,13561.417565694932
0,5738,5738,[47],1,NA,0.31548254287207866,NA,NA,0.43959693464622207,NA,0.1151049839665359,NA,NA,0.7118328649355202,0.48970007790171355,0.24222369501568275,0.5593361831648661,NA,NA,27629.272917392762
0,117339,117339,"[8,9,10,11,12,13,15,18,19,32,33,36,48]",13,0.18240031427743797,NA,NA,0.6403500021646709,NA,NA,NA,NA,NA,NA,0.09599569655442419,0.1216504341778939,2.0519207156785044,NA,NA,18513.860046531838
0,23224,23224,"[9,21]",2,0.4989843815880213,NA,NA,0.6371855248880358,NA,NA,NA,NA,NA,NA,0.2088672350585581,0.08287603298312274,2.251312615699283,NA,NA,18424.58146744749
0,12262,12262,"[20,40]",2,NA,-0.004024238868045149,NA,NA,0.2565836786005562,NA,NA,NA,NA,0.34298632278584307,0.20511703433371586,NA,0.8091635678519012,NA,73307.77752405798,12615.05659761864
0,49542,49542,"[11,12,13,15,18,19,38,41]",8,0.36218018325864865,NA,NA,0.6675292876751051,NA,NA,NA,NA,NA,NA,0.1773586357635919,0.11434837011020993,2.046569822917928,NA,NA,19653.99927334383
0,17635,17635,"[22,37,20,40]",4,NA,0.06122239308194066,NA,NA,0.250385400000003,NA,NA,NA,NA,0.39739049759001943,0.23357119223135925,NA,0.7888810839240149,NA,73077.90371420464,14460.882563084762
24,288440.0,135894.0,"[0,5,8,9,10,11,12,13,15,18,19,21,32,33,36,38,41,48]",18,0.2889951080918043,NA,NA,0.6895570397656354,NA,NA,NA,NA,NA,NA,0.09732614010539287,0.11739729940368782,2.0457035879766994,NA,NA,20666.164249063902
24,243278.0,125651.0,"[2,3,6,17,22,37,46,50,52]",9,0.2754119880877053,0.16596807386611223,NA,0.5166147645820778,0.29239611308050817,NA,0.03419246641291496,NA,NA,0.31134003213607686,0.15990999249418136,NA,0.55345230713011,NA,70533.57952630304,14272.274385682125
24,12570.0,6832.0,[47],1,NA,0.31318107494035363,NA,1.0194199794749466,0.41903273158313636,NA,0.11964569411296688,0.8452157677008696,NA,0.678473325218777,0.46213520986476064,0.24553186722354747,0.5550323793953845,NA,NA,29417.434526650755
24,28539.0,16277.0,"[20,40]",2,0.06750879067241566,0.0115824020463271,NA,1.1496550728126302,0.2123496971863008,NA,NA,NA,NA,0.3409246623918163,0.1891855857598439,NA,0.7316607259189155,NA,74771.05266477438,12967.40152072597
24,6438.0,3288.0,[5],1,0.5827383814849327,NA,NA,0.8961769367816177,NA,NA,NA,NA,NA,0.46148470394532526,0.1048663125194178,0.11241073780677235,2.2862705804597745,NA,NA,28978.032929481215
24,14342.0,6979.0,[9],1,0.4773404313205942,NA,NA,0.660588237205407,NA,NA,-0.506459882791805,NA,NA,0.6046304392692802,0.2307894459629134,0.11133815325616858,1.9884404940036342,NA,NA,20588.10207781339
24,26814.0,11377.0,"[11,12,35,49]",4,NA,NA,NA,0.8214260576191594,NA,NA,NA,NA,NA,NA,0.2587226241142666,0.15048751652122216,1.9479343632430806,NA,NA,22824.563884537878
24,18233.0,10463.0,"[15,18]",2,0.3428518649152632,NA,NA,0.6642568370537028,NA,NA,NA,NA,NA,NA,0.1478371233477902,0.12804692162562525,1.8494887110184863,NA,NA,21507.68913508475
24,21838.0,11715.0,"[20,37]",2,0.13923335506914847,0.08967373825441527,NA,NA,0.32719993708214234,NA,NA,NA,NA,0.37624714461031117,0.19165612061544612,NA,0.7271228292883948,NA,74741.20340690532,15332.941111823382
24,15088.0,8772.0,[43],1,1.4820615455991495,0.6266607555010655,3.0580149023727476,2.4531322736612,2.1482914153632,NA,NA,1.1461676798117795,NA,3.486091938096521,1.6482176200291563,0.5540594625530204,2.5211702661717847,2.493646545466611,NA,NA
24,1409.0,817.0,[22],1,0.734523520227113,0.3326473655074538,NA,NA,0.8562322895670715,NA,NA,NA,NA,NA,0.5096628225692004,NA,NA,NA,NA,21256.811923349887
24,14093.0,7774.0,"[47,35]",2,NA,0.34491115596397126,NA,NA,0.4905575722699238,NA,0.2276004165897958,NA,NA,0.7580228127439176,0.5360355179166989,0.2717972987298656,0.6632630741502857,NA,NA,29083.01596537288
24,15948.0,6738.0,[51],1,1.9342121790193103,0.3319991400175559,1.679999516240278,NA,NA,NA,0.5425327373338229,NA,NA,NA,0.28738964334086337,0.19719869331577777,2.518867029658888,2.056103734261344,NA,27437.99749184852
48,409418.0,120978.0,"[0,5,8,9,10,11,12,13,15,18,19,21,32,33,36,38,41,48]",18,NA,NA,NA,NA,NA,NA,NA,NA,NA,NA,NA,0.10478263870176707,NA,NA,NA,20667.324016042265
48,398349.0,146654.0,"[1,2,3,6,7,17,22,28,35,37,47,49,50]",13,NA,0.22181892003996628,NA,NA,NA,NA,NA,NA,NA,NA,0.2197088752099181,NA,NA,NA,NA,17565.363919578005
48,50430.0,13536.0,"[46,52]",2,NA,0.0979767416220434,NA,NA,0.38637380678167466,NA,NA,NA,NA,0.2953672837596636,0.1178588990283691,NA,NA,NA,NA,14220.015704937423
48,46844.0,13216.0,"[20,24,40]",3,NA,0.053281486145500434,NA,NA,0.23559655174622263,NA,NA,NA,NA,0.3463817610579786,0.18694646479804966,NA,NA,NA,NA,14082.020664332626
48,9586.0,3148.0,[5],1,NA,NA,NA,NA,NA,NA,NA,NA,NA,NA,NA,0.09910703734612891,2.386056824431466,NA,NA,30121.186730648784
48,10299.0,3399.0,[11],1,NA,NA,NA,NA,NA,NA,NA,NA,NA,NA,NA,0.07353927041460362,NA,NA,NA,15558.437906592848
48,14419.0,6225.0,[14],1,NA,0.23451379582494258,NA,NA,NA,NA,NA,NA,NA,0.4099805422706161,0.43866370615159367,NA,0.48769739642138943,NA,NA,19395.41327415226
48,7512.0,2785.0,[7],1,NA,0.23474961075612377,NA,NA,NA,NA,NA,NA,NA,NA,NA,0.2216422466719885,NA,NA,NA,NA
48,11068.0,3980.0,[18],1,NA,NA,NA,NA,NA,NA,NA,NA,NA,NA,0.18652272406940051,0.11663634866281447,NA,NA,NA,NA
48,71792.0,25223.0,"[22,29,34,44,45,51]",6,NA,0.30867984292120854,NA,NA,NA,NA,NA,NA,NA,NA,NA,0.1952515556468697,NA,NA,NA,NA
48,4926.0,1870.0,[31],1,NA,0.5365938899715879,NA,2.048885555217215,NA,NA,NA,NA,NA,NA,1.149381200771411,0.46102057145757425,NA,NA,NA,NA
48,3359.0,1836.0,[35],1,NA,0.6406264915153366,NA,NA,NA,NA,NA,NA,NA,NA,NA,0.48895440369157317,NA,NA,NA,NA
48,22026.0,8693.0,"[33,36,38]",3,NA,NA,NA,NA,NA,NA,NA,NA,NA,NA,NA,0.13835656519567752,NA,NA,NA,NA
48,16408.0,1320.0,[43],1,NA,0.6243028464163918,3.033322715077999,2.437308708800597,NA,NA,NA,NA,NA,3.4671560262676904,1.6299742389687926,0.5466807523159429,NA,NA,NA,NA
48,7323.0,2234.0,[24],1,NA,0.22053093868632967,NA,NA,NA,NA,NA,NA,NA,NA,0.20455958978560007,NA,NA,NA,NA,18883.137511948637
48,26554.0,9295.0,"[34,44,45]",3,NA,0.26583607923476116,NA,NA,NA,NA,NA,NA,NA,NA,NA,0.18410989997740568,NA,NA,NA,NA
72,618301.0,170956.0,"[0,5,8,9,10,11,12,13,15,18,19,21,32,33,36,38,41,48,50]",19,0.2908021889451904,NA,NA,0.7509921177290702,NA,NA,NA,NA,NA,0.48646653416054597,0.15370662995532047,0.1243687504548755,NA,NA,NA,21700.853765399017
72,529313.0,134478.0,"[1,2,3,6,17,22,28,35,37,46,47,52]",12,0.32972274585547523,0.1825868567766089,NA,0.596538375953366,0.2958803523246156,NA,0.02308124437715886,NA,NA,0.3970978292163668,0.1867563516274795,NA,0.6066508455601894,NA,69609.25982169341,16646.825209280643
72,50499.0,10978.0,"[20,40]",2,0.09178462183409497,0.04849533871957368,NA,NA,0.2301011488544349,NA,NA,NA,NA,0.34141996803897,0.18483391273094618,NA,0.7393947049050492,NA,74196.13441850338,13851.967920156754
72,11469.0,1883.0,[5],1,0.6418964874008191,0.9146717843752792,NA,0.971011700845767,NA,NA,NA,1.0554065625599525,NA,NA,0.12911476824483703,0.11123938678175871,2.355550000959113,NA,NA,31273.109774173678
72,25376.0,6345.0,"[25,49]",2,1.6056258304303246,0.4135448157314028,NA,1.091283792323463,NA,NA,-0.23778181143600285,0.9889035350330966,NA,NA,0.439002243064313,0.18335771437578707,1.9884634839612345,NA,NA,33854.441361916746
72,16000.0,1581.0,[14],1,0.6349294374999981,0.2476862758749867,NA,NA,0.30766707512499636,NA,NA,NA,NA,0.41498090599999726,0.4299925120624879,0.22715789518749896,0.499273888812502,NA,54938.69199999989,19397.240000000053
72,100592.0,21171.0,"[23,26,29,30,31,43,44]",7,NA,0.5206539097641985,NA,NA,NA,NA,NA,NA,NA,3.2033884782189523,1.0309573958167713,0.3732890051892801,2.4365592821596085,NA,NA,NA
72,45192.0,7190.0,"[34,45,51]",3,1.9499473616790721,0.30955391998582815,NA,NA,NA,NA,NA,NA,NA,NA,0.33353321787041024,0.1945977311028504,2.459061473734283,NA,73312.6599398124,31717.899805275294
72,9008.0,2398.0,"[22,35]",2,0.9655968876554175,0.5863517695381928,NA,NA,NA,NA,NA,NA,NA,0.9483718832149207,0.8306830599467152,0.4338210351909416,NA,NA,NA,24809.030195381863
72,26584.0,4558.0,"[33,36,38]",3,0.8185423756770944,0.9293026387300767,NA,1.0839899998871534,NA,NA,NA,NA,NA,NA,0.2581489147231446,0.14617551448239507,2.273808401971109,NA,NA,35344.04092687328
72,25203.0,5413.0,"[26,30,31]",3,0.9652071956116355,0.5992033709478992,2.505817829107658,2.1454806467880823,2.2646656725389893,NA,NA,NA,NA,2.9490076071102727,1.211799186723801,0.47644810669364623,2.184058596555962,NA,NA,NA
72,4695.0,178.0,[34],1,NA,0.1420701882854063,NA,NA,2.751405148242815,NA,NA,NA,NA,NA,0.18948857018105159,0.1304986445154418,NA,NA,71867.39254526095,18374.379552715676
72,11261.0,1274.0,[45],1,2.217093992185438,0.29294085640705925,NA,1.2096047232039702,0.459782078856231,NA,-0.0457328005505615,0.7151212443832713,NA,NA,0.5182133054790756,0.20760500745937027,2.5461764418790493,NA,NA,45661.37145901771
96,746108.0,127807.0,"[0,5,8,9,10,11,12,13,15,18,19,21,32,33,36,38,41,48,50]",19,0.30056613378358077,NA,NA,0.8018635828204514,NA,NA,NA,NA,NA,0.498669174301842,0.15267859273457418,0.12535724091686462,NA,NA,NA,21384.374637451892
96,631117.0,101804.0,"[1,2,3,6,17,22,28,35,37,46,47,52]",12,0.35665173397166927,0.18681269953747526,NA,0.6353082529673713,0.30104155831802615,NA,0.048809104334080367,NA,NA,0.41028570163060585,0.19998406335433971,NA,0.6214064700016023,NA,69802.8036006002,16527.5912009975
96,12922.0,2273.0,[49],1,1.5452638751741337,0.4172465086673829,NA,1.3312090262343421,NA,NA,NA,0.9402008573750082,NA,NA,0.536716247097965,0.1999765430273941,1.7129748838415098,NA,NA,43251.6130629933
96,63521.0,13022.0,"[20,40]",2,0.13267548890917857,0.058639277105204446,NA,NA,0.24828786193541807,NA,NA,NA,NA,0.37575576344830997,0.20098544824545517,NA,0.7581240153020291,NA,74391.1019033075,13768.186269107659
96,22278.0,6278.0,[14],1,0.7044511220935394,0.273155996229439,NA,NA,NA,NA,NA,NA,NA,0.45787791776640285,0.4854532771792721,0.2360944969925498,0.5470970620791787,NA,55524.60795403519,19483.914893617042
96,119747.0,19155.0,"[23,26,29,30,31,43,44]",7,NA,0.5256185090649472,NA,NA,NA,NA,NA,NA,NA,3.2044379732101924,1.0566086940299226,0.3857381993870438,2.4696672397972343,NA,NA,NA
96,73908.0,13989.0,"[25,34,45,51]",4,1.9320927583888097,0.3377677426530239,NA,NA,NA,NA,NA,NA,NA,NA,0.3814645550414073,0.20247563968717908,2.409385382069606,NA,72122.90220273865,30060.685176164923
96,5535.0,1031.0,[22],1,NA,0.4662587987353217,NA,NA,0.9470179109304482,NA,NA,NA,NA,0.7053468852755133,0.519844685998184,0.4309730209575431,NA,NA,NA,22570.620415537476
96,19290.0,3178.0,"[36,38]",2,0.6231428587350896,NA,NA,1.069609856143083,NA,NA,NA,NA,NA,NA,0.22369409823742759,0.11822757625712721,2.4378634533437054,NA,NA,32475.318610679053
96,17079.0,2012.0,"[30,31]",2,1.0921657633350923,0.5925111076175407,NA,2.159328860764679,NA,NA,NA,NA,NA,2.88953436975233,1.231212196147315,0.47117560653434,2.1378702065109154,NA,NA,NA
96,5743.0,1048.0,[34],1,NA,0.14959123280515385,NA,NA,2.750932547449071,NA,NA,NA,NA,NA,0.1952943405885499,0.14405323367577993,NA,NA,72736.60734807591,18405.187532648455
96,5680.0,1176.0,[35],1,1.2586438163732432,0.7068571640845107,NA,NA,NA,NA,NA,NA,NA,1.24440033362677,1.14064397253521,0.4848051794014071,NA,NA,NA,26645.91549295773
120,857537.0,181666.0,"[0,5,8,9,10,11,12,13,15,18,19,21,32,33,36,38,41,48]",18,0.30555026314199596,NA,NA,0.8787058143461999,NA,NA,NA,NA,NA,0.4940323753342378,0.14293405870185483,0.11775792919722605,NA,NA,NA,21102.087340837792
120,802009.0,100655.0,"[1,2,3,6,17,22,28,35,37,46,47,50,52]",13,0.3512336280577877,0.25720401694368444,NA,0.6701331764618734,0.3903639497412086,NA,0.0792994783973815,NA,NA,0.41730472410534714,0.21952371390969638,NA,0.6449291555581059,NA,68665.37615413299,16666.229331590926
120,15756.0,2834.0,[49],1,1.5916817833841266,0.41342169643310545,NA,1.4015329099390814,NA,NA,NA,0.9657169881314878,NA,NA,0.5637351932596988,0.20709111087839538,1.7605922014470665,NA,63873.450114242434,42343.46585427781
120,79152.0,15631.0,"[20,40]",2,0.1383900830174889,0.059786051824337605,NA,NA,0.275467564066588,NA,NA,NA,NA,0.40168789887810985,0.2136894613907354,NA,0.7695363397766332,NA,74249.83222154844,13654.413583990116
120,28954.0,6676.0,[14],1,NA,0.27436081999030604,NA,NA,NA,NA,NA,NA,NA,0.4826988682047332,0.5273269916764627,0.24667342954341753,0.5642433076258905,NA,55271.88892726368,19350.099606272077
120,121959.0,20541.0,"[23,26,29,30,31,43]",6,NA,0.5789452565370352,NA,2.0835045028083266,NA,NA,NA,NA,NA,3.1544657001697334,1.1732408392820641,0.43093844156642824,2.490926409867246,NA,NA,NA
120,111653.0,19416.0,"[25,34,44,45,51]",5,2.030275090790213,0.3401114185467491,NA,NA,NA,NA,NA,NA,NA,NA,0.4319403318047974,0.21089393788792588,2.447262835472411,NA,71561.39310184233,30528.54397105302
120,6918.0,1383.0,[22],1,NA,0.47531300939577914,NA,NA,0.948381340416312,NA,NA,NA,NA,0.7228252905463927,0.5392535958369371,NA,NA,NA,NA,22367.250650477028
120,23330.0,4040.0,"[36,38]",2,0.6267919619374143,NA,NA,1.139772154393488,NA,NA,NA,NA,NA,NA,0.23170765092156165,0.1179337185169319,2.467780929661386,NA,NA,31941.34659237024
120,20704.0,3625.0,"[30,31]",2,1.1743012021348538,0.6192326848435079,2.4771410097082813,2.2102085751545535,NA,NA,NA,NA,NA,2.8970581427260473,1.2696552491306035,0.4886072548782838,2.1943215523570268,NA,NA,NA
120,7102.0,1422.0,[35],1,1.27670416079978,0.7049719356519306,NA,NA,1.0809734753590625,NA,NA,NA,NA,1.240511422416232,1.1443648193466665,0.5052305045057737,NA,NA,NA,26375.659814136765
120,6845.0,1102.0,[34],1,NA,0.15075110241051748,NA,NA,2.8016446435354365,NA,NA,NA,NA,NA,0.21480202673484827,0.153784357633312,NA,NA,72481.37910883862,18421.546822498203
144,997132.0,139595.0,"[0,5,8,9,10,11,12,13,15,18,19,21,32,33,36,38,41,48]",18,0.30973271430662797,NA,NA,0.9539225901164476,NA,NA,NA,NA,NA,0.5050475775183169,0.13174667338728963,0.12696635312877513,NA,NA,NA,20705.476939863507
144,768468.0,67486.0,"[1,2,3,6,17,22,28,35,37,47,50]",11,0.37645486805436446,0.2736075999989396,NA,NA,0.38457394956328317,NA,0.08256481225503665,NA,NA,0.4357790634014752,0.23746286145291595,NA,0.6474173525976353,NA,68056.06575159931,16887.862292248894
144,107846.0,16515.0,[46],1,0.2593726747399172,0.12758234895129705,NA,NA,0.40884535375441544,NA,NA,NA,NA,0.3383822480759664,0.15301677253681367,1.410842273371298,0.7316676573910966,NA,71930.36173803423,14455.369619642894
144,11471.0,1775.0,[52],1,0.5982512895998651,0.1375531332054707,NA,NA,0.5530448009763691,NA,NA,NA,NA,0.44851857728183786,0.17102278310522756,NA,NA,NA,79086.97759567581,16590.62331095798
144,71101.0,16143.0,"[4,40]",2,NA,0.05487215399220835,NA,NA,0.07712725638174911,NA,NA,NA,NA,0.46059739902392005,0.25067513403465336,NA,0.6842805914122133,NA,75440.47909312086,14338.575266170625
144,16952.0,1196.0,[49],1,1.5966463846154058,0.41297735311468253,NA,1.4437362511208174,NA,NA,NA,NA,NA,NA,0.5756046003421305,0.21704639021944194,1.7550099377064634,NA,63800.58895705547,42010.302973100675
144,60731.0,9641.0,"[7,44,45]",3,2.2148310278605567,0.30199582094811595,NA,NA,0.6574780027169038,NA,NA,NA,NA,NA,0.6521248719928923,0.23975493594704522,NA,NA,NA,38570.39548171432
144,38803.0,9849.0,[14],1,NA,0.23985637548641714,NA,NA,0.41914100448418434,NA,NA,NA,NA,0.49281512581500986,0.5388695871195535,NA,0.6071684064118644,NA,55689.61740071631,18842.851532098044
144,39695.0,9101.0,"[16,24,42]",3,1.1771825643028089,0.24620453296385092,NA,NA,NA,NA,NA,NA,NA,NA,0.329568639954652,NA,0.5404860338077845,NA,79516.01682831591,19877.08436830833
144,50547.0,14617.0,[20],1,-0.02753379082834395,0.047354462856346036,NA,NA,0.5436072622113803,NA,NA,NA,NA,0.4048051840069674,0.1793849893959889,2.153085714285716,0.8230133253209847,NA,73847.29649633015,13380.75438700604
144,143639.0,21680.0,"[23,26,29,30,31,43]",6,NA,0.5683203777943349,NA,2.1773492787265387,NA,NA,NA,NA,NA,3.1621017308669663,1.1709328253816889,0.4471221231559681,2.49625421164168,NA,NA,NA
144,86269.0,11837.0,"[25,34,51]",3,1.9300654144710248,0.3445746246508006,NA,NA,NA,NA,NA,NA,NA,NA,0.38708810601723886,0.22766953632243803,2.3912196672269412,NA,70927.88482537188,26552.409973454964
144,8179.0,1261.0,[22],1,NA,0.4727389155153521,NA,NA,NA,NA,NA,NA,NA,0.7502813035823409,0.5547757169580518,NA,0.9183485530015897,NA,NA,22159.712434282916
144,25604.0,2274.0,"[36,38]",2,0.6350630091391936,NA,NA,1.1953722191454483,NA,NA,NA,NA,NA,NA,0.23422328632245115,0.12763060537416115,2.465300367481647,NA,NA,31445.67161381029
144,24011.0,3307.0,"[30,31]",2,1.2070577665653246,0.6008125867727254,2.463415922910341,2.3076741515971846,NA,NA,NA,NA,NA,NA,1.277788366706929,0.5177150724251376,2.220296243971509,NA,NA,NA
144,9268.0,2166.0,[35],1,1.2618183664221039,0.6809301457703825,NA,NA,NA,NA,NA,NA,NA,1.2660315372248645,1.1086965428355575,0.590357716551575,NA,NA,NA,25890.624082865717
144,7669.0,824.0,[34],1,NA,0.14736965640891952,NA,NA,2.8146770582866147,NA,NA,NA,NA,NA,0.21337567049158723,0.17316147294301976,NA,NA,72633.07341243967,18456.660320771964
168,1138521.0,141389.0,"[0,5,8,9,10,11,12,13,15,18,19,21,32,33,36,38,41,48]",18,0.30386395681326706,NA,NA,NA,NA,NA,NA,NA,NA,0.5151644338804385,0.12947335735310972,0.12481371120866636,NA,NA,NA,20787.03035956294
168,871131.0,91192.0,"[1,2,3,6,17,22,28,35,37,47,50,52]",12,0.3769492510977124,0.2785237299269401,NA,NA,0.4166980068451198,NA,0.11099133542831252,NA,NA,0.4519496687421317,0.2448550944909491,NA,0.6636982697022581,NA,67869.60344655404,17196.597177691896
168,115860.0,8014.0,[46],1,0.24954068614709501,0.12438734876576252,NA,NA,0.41127642326080727,NA,NA,NA,NA,0.33963900521319246,0.15195164165375852,NA,0.7343211714051417,NA,71940.5572242366,14491.103607802608
168,88803.0,17702.0,"[4,40]",2,NA,0.0560931494206125,NA,NA,0.08913908165264095,NA,NA,NA,NA,0.48685938570768605,0.26027856347192957,NA,0.6926282646307053,NA,75801.63733207196,14742.534013490427
168,20450.0,3498.0,[49],1,1.5578658646943866,0.41666763217604075,NA,NA,NA,NA,NA,NA,NA,NA,0.6102735072860512,0.22025320288508277,1.7393214349633381,NA,NA,43023.5133496333
168,70929.0,10198.0,"[7,44,45]",3,2.206262901535335,0.29959819133217724,NA,NA,0.6545977010390756,NA,NA,NA,NA,NA,0.6797507075808209,0.2444773195448996,NA,NA,NA,39611.60033272692
168,53369.0,14566.0,[14],1,NA,0.22287529245440751,NA,NA,NA,NA,NA,NA,NA,0.5140500750248206,0.5672248512994447,NA,0.6445103829563877,NA,57345.96308718537,19336.466338136423
168,51032.0,11337.0,"[16,24,42]",3,NA,0.23625724284761995,NA,NA,NA,NA,NA,NA,NA,0.6027274606717347,0.3472628520340133,NA,0.5303210336455558,NA,NA,20400.35491456339
168,62786.0,12239.0,[20],1,NA,0.04902805803840726,NA,NA,0.5637572344152884,NA,NA,NA,NA,0.43185777885197596,0.1824633058643399,NA,0.8388294669830841,NA,73931.83652406604,13698.163029974814
168,173225.0,29586.0,"[23,26,29,30,31,43]",6,NA,0.5579226373444932,NA,NA,NA,NA,NA,NA,NA,3.161238128243617,1.17307820038678,0.45677200669649276,2.4819544624505734,NA,NA,NA
168,102045.0,15776.0,"[25,34,51]",3,1.8929283238277217,0.3381893890342491,NA,NA,NA,NA,NA,NA,NA,NA,0.396675186545155,0.24038472939390199,NA,NA,70707.92125042883,27274.98934783676
168,12323.0,991.0,[30],1,1.2126182552138276,0.6057789280207553,NA,2.3039475454840503,NA,NA,NA,NA,NA,NA,1.3193808659417399,0.519581287511155,2.015465796559278,NA,NA,NA
168,10167.0,1988.0,[22],1,0.7001943667748574,0.4460227206649017,NA,NA,0.9227938986918498,NA,NA,NA,NA,0.7437002383200514,0.5679691297334357,NA,NA,NA,NA,22309.360086554458
168,14366.0,1632.0,[36],1,0.33194422601976736,NA,2.7573578458861125,NA,NA,NA,NA,NA,NA,NA,0.14598518230544544,0.11605445266601555,2.347101736948355,NA,NA,26507.957120980125
168,12555.0,3287.0,[35],1,1.2232360583831092,0.6513847654320934,NA,NA,NA,NA,NA,NA,NA,1.2984073502986955,1.1195684027877304,0.6130814448426904,NA,NA,NA,26752.071365989665
168,8651.0,982.0,[34],1,NA,0.15228770569876415,NA,NA,NA,NA,NA,NA,NA,NA,0.20775947404923523,0.2249807154086263,NA,NA,73635.77667321701,18662.80245058374
