time_in_hour,cumulative_size,size,pcore_ids,pcore_power,AF700 CD48_[R 730_B-A],APCCy7 Ly6G_[R 780_A-A],BV421 CD117_[V 440_F-A],BV510 SCA-1_[V 525_E-A],BV605 CD11b_[V 610_D-A],BV650 CD150_[V 660_C-A],BV711 CD11c_[V 715_B-A],BV785 B220_[V 780_A-A],FITC Ly6C_[B 525_B-A],PE CD115_[YG 582_D-A],PECF594 CD135_[YG 610_C-A],PECy5 CD3-CD19-NK11_[YG 670_B-A],PECy7 CD16-32_[YG 780_A-A],PerCPCy5-5 CD45_[B 695_A-A],_FSC-A,_SSC-A
-1,0,0,[],0,0.0,0.0,0.0,0.0,0.0,0.0,0.0,0.0,0.0,0.0,0.0,0.0,0.0,0.0,0.0,0.0
0,126787,126787,"[0,1,6,11,12,14,16,17,26,27,29,31]",12,0.17145263325332094,0.2369537022901618,0.3351704398755258,0.2864364900199867,0.26672486942697204,0.22501680739193838,0.25233757418923325,0.48511710877759334,0.17731911000999864,0.10879146343609465,0.24880399555230037,0.2116249894413745,0.1497406203393274,0.2739157427202724,0.19902909098306307,0.05185778581111976
0,115095,115095,"[2,3,4,7,9,19,21,28]",8,0.16861582461652586,0.38665718722118214,0.49266160921658836,0.30881859229616293,0.4908752753444113,0.18830044189592732,0.2834983896015038,0.32215646353210575,0.5571991868472186,0.1400910489171082,0.2465654791762696,0.10414192489911274,0.3169902998315537,0.36906126997218625,0.19566605053649982,0.0812459359789933
0,20467,20467,"[3,4,20]",3,0.18048636704779877,0.38070333736208317,0.48575943982112524,0.3110239378766583,0.46512168295075024,0.2684167123835985,0.2581511730342449,0.32886706819254,0.5253086750512664,0.15023407118515733,0.2576310126306953,0.10728554074415375,0.3060399812162282,0.3597487640670022,0.19526336179946005,0.08373165846390157
0,12129,12129,"[1,6,11]",3,0.1785362913491592,0.24058175703039977,0.36906245556787187,0.283473840315483,0.27083931276520445,0.22598216431574308,0.2542274066276416,0.4789861228741091,0.19618728962136328,0.11504125353260569,0.25080664002395603,0.20605908198400683,0.15159070340926575,0.2674672258407029,0.19802521196737669,0.05862297444848112
0,39631,39631,"[9,19,20,23]",4,0.19392618297352127,0.3863089120800359,0.5069010772527549,0.3148756849732123,0.49091340382776555,0.3306488765716238,0.23405835144929538,0.3346882309568291,0.5650675190606131,0.15804169533847437,0.2612259761683919,0.10401255288397125,0.32408757872272326,0.3753923253675331,0.205440244475413,0.09429197036704638
0,34591,34591,"[12,14,16,27,29]",5,0.1734550404374589,0.24278417552476816,0.36874353802520304,0.28555265901396293,0.27198148124896215,0.22748144157724043,0.25637741130882596,0.4113692608480389,0.20826028954188106,0.11230579089662554,0.25154077475721015,0.1655808759180667,0.1419899531197288,0.2099435958430241,0.19879928095063643,0.05371416814157675
24,268135.0,141348.0,"[0,1,6,11,12,14,16,17,26,27,29,31]",12,0.17029957934156753,0.23609022381863293,0.33985622853749564,0.29223492655707134,0.26337676249023334,0.22870545443015894,0.2517408233605351,0.4813626708755533,0.1792314765200862,0.10657140106227897,0.24832413773927572,0.2080058885228187,0.14397492944484352,0.27172443348440245,0.20590860519371898,0.055559805854566505
24,222687.0,107592.0,"[2,3,4,7,9,19,21,28]",8,0.17199746801361493,0.3760740358587811,0.498567301506091,0.3139955857264603,0.4859302708154476,0.19581531946463923,0.2828462914190119,0.3254169044551715,0.5650597096204909,0.14215196156501786,0.24546804200076588,0.10501930180198076,0.3078378172020294,0.3643363801984136,0.1970193396513409,0.08920347025093399
24,124225.0,57278.0,"[3,5,15,20,23]",5,0.19389343841334317,0.3786619472842103,0.4991173254581981,0.3189199117460481,0.4762980186520837,0.33753354202925345,0.23131829254477546,0.33667302863176213,0.5456984625872702,0.15821962794279926,0.26039995860917275,0.10552815138689703,0.3093353851904215,0.3670526025517908,0.2044491271444356,0.09916865437016462
24,4041.0,1812.0,[24],1,0.20767531309013332,0.3048511305906705,0.4896013393959718,0.3431509241490549,0.3678826503581487,0.26400383555436,0.2798998009705237,0.36239922316450074,0.383224181492165,0.16942793178138132,0.28332256982587845,0.13395509994163313,0.22912339765317563,0.3164215788800645,0.1912032523303726,0.09321213941674694
24,21268.0,10822.0,"[10,25]",2,0.20100790099408405,0.2668361646309191,0.5156553459233719,0.33055875450739086,0.3102098299800387,0.25372268514270757,0.2653020013970077,0.36180661234053463,0.30277095962050277,0.1475456342134427,0.2750869326466579,0.13880044181701895,0.18096258050376096,0.24280772139175094,0.19918722184555487,0.09463863135308521
24,23414.0,11285.0,"[1,6,11]",3,0.17841808129838205,0.23960936061650692,0.371872236579028,0.2892080554775977,0.268628859293806,0.22884276654197283,0.25408850012157735,0.4706312929127609,0.20555758771894678,0.11312074550191926,0.2506802097387963,0.19875394349005954,0.14763255730290226,0.26501747810128284,0.20276803437523086,0.06145887063276208
24,58646.0,28283.0,"[13,32]",2,0.3378267396324502,0.25940255800400913,0.5022694277054361,0.3402298663757465,0.415429498147361,0.27355194413122763,0.2535076750007919,0.3421895546619794,0.7815406423117399,0.4214937396509538,0.2808262826308747,0.10958441214990652,0.3728990705016692,0.41490912299052357,0.2350765227699498,0.14258631322490986
24,16379.0,9096.0,[9],1,0.18287456846568903,0.3783318006149953,0.5058642999743651,0.3172453468223093,0.48116585686446106,0.25249007438918714,0.2637725098918691,0.3299914683154831,0.5864330752375055,0.15407068698353035,0.2524231139222813,0.10523418098231925,0.3132006318474061,0.3673671658234962,0.20208241997379417,0.09932361452001551
24,13870.0,7071.0,"[19,20]",2,0.18560245472069767,0.33408214850395057,0.4714340634927328,0.31855889544917443,0.4041139646775907,0.2615639127421812,0.26338829983118456,0.3412005980500964,0.44119550537438973,0.1437325407581063,0.2633341976479665,0.11656371416800998,0.24523156818621306,0.3094614903584332,0.18535494049561974,0.08348882371863459
24,6223.0,3388.0,[30],1,0.2571024269478319,0.29798868073164136,0.6232935602351961,0.35316770339640896,0.49965564239185084,0.36914214941320667,0.22791484351923547,0.35194131298402026,0.71285771296975,0.19759571904843545,0.27788085577643623,0.10773401728801935,0.34996505522117405,0.39142822954311707,0.24093682713202375,0.15304332040403523
24,2234.0,1117.0,"[16,26]",2,0.2026543710472964,0.2512889564047766,0.41159529278816137,0.32607127418931486,0.301751102641639,0.2463217721945902,0.2707000024316604,0.4754172644386151,0.30380907860649037,0.14846671818048923,0.2653286789953034,0.1967211046794683,0.17593968304926233,0.35173131113925943,0.20602819197427452,0.08099918454225681
24,5421.0,2182.0,[29],1,0.18857542191398433,0.2388333797924885,0.4118294089357778,0.30415066934755963,0.2829781180842639,0.2231349703978894,0.25294497862871335,0.49040063338842627,0.20127807187997487,0.13553536409389066,0.25307644121661493,0.23189703723574379,0.161225481174044,0.3615055802621547,0.21018917948748592,0.06602714438749065
48,359608.0,121310.0,"[0,1,6,11,14,16,17,27,29,31]",10,0.16728448420318284,0.23405620338032218,0.3247912749577599,0.2904613228729611,0.25894936669102836,0.2275556965473966,0.25166140723180225,0.4963334004281737,0.16609137110242697,0.10281622035916399,0.2464098228495301,0.21098626888787406,0.1424919727298081,0.27030572906483635,0.20323308397227843,0.05460119780792416
48,285969.0,63755.0,"[2,3,4,7,9,21,28]",7,0.16619270340231068,0.3845749087549705,0.5013635447584488,0.3098096567194798,0.4972898871948553,0.18151601540768547,0.2890754592488154,0.31997177845163355,0.5673959229122754,0.1315742207103684,0.2421309710283303,0.10137700302726851,0.31653932862885953,0.36020767018596067,0.19286979001718704,0.08602447818120706
48,134387.0,23559.0,"[3,5,15,23]",4,0.19343150597654168,0.39579160615669795,0.4994177768340817,0.3138179189522398,0.49487654677547294,0.35794884967284024,0.2191942640048668,0.33537284782449106,0.5586643957439706,0.15168367426297139,0.25756203832415997,0.09984902644026773,0.32506944999530046,0.3737799530903177,0.20088744812775094,0.0949486710066892
48,51938.0,34500.0,"[20,24]",2,0.17163651724611598,0.33384397722554215,0.4596636111552811,0.3026902443038074,0.3987015202019569,0.262672800158531,0.25675640843556263,0.31536924789713877,0.4798897587181082,0.12289402828400038,0.2570663733012488,0.10087552325550751,0.2249789894192099,0.24269303265509942,0.17052367667521476,0.07718952605811903
48,9610.0,4320.0,[1],1,0.17674113959487955,0.24427441617150003,0.3759272806494663,0.302440619932357,0.2800296380437829,0.22721537092975921,0.26823385046101317,0.447683476688638,0.2583528029528106,0.12076629042207629,0.2530663353449755,0.1685535397072637,0.14754786674063178,0.2557115971519792,0.1977266137903327,0.06595173717912972
48,79682.0,30802.0,"[10,12,25]",3,0.18840733824406716,0.25744338198870953,0.4698605021056965,0.31246728093535514,0.2920642931359184,0.24565767623007054,0.2624011985731329,0.34889631040895763,0.2831823170547954,0.1276157131411112,0.2649261879056971,0.12511691241712308,0.15490889668971325,0.197032529880592,0.18370602156602706,0.08140469595988062
48,6517.0,190.0,[11],1,0.18966794939890746,0.24557349197285233,0.4080062885890693,0.3027333457464488,0.2831963814249423,0.2327554226110711,0.25995396014697136,0.46485371504177414,0.2646488124754379,0.12928416936802303,0.25797977151009344,0.1957437844707005,0.16208176111230566,0.29447732721104375,0.205122054157987,0.07163030874376627
48,83795.0,25149.0,"[13,32]",2,0.3466833580988142,0.2566457979144196,0.4912593269954896,0.33521332798862474,0.42006394077782466,0.26772919124070216,0.25608483696752365,0.3370173263927047,0.7907787079807209,0.42884848143226195,0.2766026997171172,0.10650282317145987,0.3824738015704816,0.4167622275558923,0.22659430988530602,0.1343796050899557
48,16745.0,366.0,[9],1,0.18253219029323625,0.37832918126955223,0.505876801246964,0.3167655323657294,0.4813433217292363,0.2521105672965236,0.26362410953502236,0.3301464003252648,0.587102800124128,0.15331391422083282,0.25232744649974487,0.10498361401149942,0.3129204842766917,0.36610492280635093,0.20168328346651573,0.09880295211404741
48,27437.0,11864.0,[22],1,0.270217846821335,0.2800813613832016,0.5784220533163541,0.44518601908157374,0.4497914683856284,0.4162180604129556,0.20817226270656528,0.3510638798718952,0.6105678534160469,0.4181279934849922,0.3558469828146753,0.13963967284185552,0.35661221077152205,0.5059996535942483,0.35921039725667997,0.31244787872846685
48,18397.0,12174.0,[30],1,0.25353429509224024,0.3051308571509256,0.6325794106673748,0.336168603501266,0.5372184750525146,0.38810174933474506,0.21610999305957898,0.347741981213366,0.7025861447948959,0.15043809693007662,0.2626534661745622,0.09605849042923131,0.3740289356300065,0.3745551104777828,0.23400869396579993,0.14204880729802588
48,14563.0,4258.0,[28],1,0.21319209560511915,0.3214704750343199,0.5834983303922072,0.33154056608133115,0.5144545317615561,0.26404798024296333,0.27207488514152056,0.33076661448640293,0.6712998174228382,0.1529090018576809,0.2568806253692888,0.10272109246421983,0.3401562387128611,0.36444035826494753,0.21768184011872588,0.1257286430916717
48,7050.0,1629.0,[29],1,0.18586684694672603,0.23886259513963579,0.42392820508264656,0.3044170140663896,0.2797333905163415,0.2130923932489104,0.2518680653883194,0.5018652854663533,0.2059273951767135,0.12832566736468912,0.25188071655743954,0.23689476755803063,0.15913983743526997,0.36542967001238796,0.2136797833998896,0.06892782436065456
72,514919.0,155311.0,"[0,1,6,11,14,16,17,27,29,31]",10,0.16694347850917987,0.23796119216405973,0.32474837627734005,0.29692657589485155,0.26253488885157267,0.2277339616608718,0.25085604264121103,0.4927177335294271,0.1737313320223196,0.10311459534005324,0.24728891297549663,0.20284843064185604,0.14566977411973223,0.27047227394955364,0.2034028803805722,0.05838930519939221
72,368220.0,82251.0,"[2,3,4,7,9,21,28]",7,0.16891370500745378,0.3831024454639215,0.49185392292776464,0.31719712282967655,0.49502744993995484,0.17975902053046344,0.28916785116053556,0.3184263767837163,0.5613867384656175,0.13623895476105558,0.24533455563675066,0.10037945197627691,0.3146456673453085,0.3605193852387407,0.196116533435933,0.08860560203729644
72,292047.0,110233.0,"[3,5,15,20,23]",5,0.19621983284969044,0.366331060741468,0.479215346056588,0.32671886880578266,0.45686815879754433,0.3205562788424388,0.23288436152190087,0.32922798641063106,0.5388875685623407,0.15537938692951622,0.26398281483861513,0.09956416449405817,0.2918606278278925,0.3334492883755965,0.19959624137312532,0.10150012484442833
72,4511.0,0.0,[24],1,0.213527601332993,0.30279883982010425,0.4974297504716794,0.34862263944073923,0.36449544819393337,0.2667873543546516,0.2825360645091777,0.3627793424124055,0.38732972624015,0.17216383039145713,0.2867869214872038,0.13312614717052984,0.23247665812999113,0.31891239306632496,0.18869083656332866,0.09757570294701634
72,9610.0,0.0,[1],1,0.17674113959487955,0.24427441617150003,0.3759272806494663,0.302440619932357,0.2800296380437829,0.22721537092975921,0.26823385046101317,0.447683476688638,0.2583528029528106,0.12076629042207629,0.2530663353449755,0.1685535397072637,0.14754786674063178,0.2557115971519792,0.1977266137903327,0.06595173717912972
72,79682.0,0.0,"[10,12,25]",3,0.18840733824406716,0.25744338198870953,0.4698605021056965,0.31246728093535514,0.2920642931359184,0.24565767623007054,0.2624011985731329,0.34889631040895763,0.2831823170547954,0.1276157131411112,0.2649261879056971,0.12511691241712308,0.15490889668971325,0.197032529880592,0.18370602156602706,0.08140469595988062
72,6517.0,0.0,[11],1,0.18966794939890746,0.24557349197285233,0.4080062885890693,0.3027333457464488,0.2831963814249423,0.2327554226110711,0.25995396014697136,0.46485371504177414,0.2646488124754379,0.12928416936802303,0.25797977151009344,0.1957437844707005,0.16208176111230566,0.29447732721104375,0.205122054157987,0.07163030874376627
72,83795.0,0.0,"[13,32]",2,0.3466833580988142,0.2566457979144196,0.4912593269954896,0.33521332798862474,0.42006394077782466,0.26772919124070216,0.25608483696752365,0.3370173263927047,0.7907787079807209,0.42884848143226195,0.2766026997171172,0.10650282317145987,0.3824738015704816,0.4167622275558923,0.22659430988530602,0.1343796050899557
72,16745.0,0.0,[9],1,0.18253219029323625,0.37832918126955223,0.505876801246964,0.3167655323657294,0.4813433217292363,0.2521105672965236,0.26362410953502236,0.3301464003252648,0.587102800124128,0.15331391422083282,0.25232744649974487,0.10498361401149942,0.3129204842766917,0.36610492280635093,0.20168328346651573,0.09880295211404741
72,39642.0,12205.0,[22],1,0.28280191870888993,0.2832823132059339,0.5625126324466554,0.44789963839969976,0.4480180314529932,0.39938150623775553,0.21556098477783192,0.3518710579918608,0.6214087104476245,0.40738698669221207,0.3520973832437389,0.13645917012356773,0.36307428561921357,0.4983682901980539,0.3553332055749823,0.3012767410537615
72,18397.0,0.0,[30],1,0.25353429509224024,0.3051308571509256,0.6325794106673748,0.336168603501266,0.5372184750525146,0.38810174933474506,0.21610999305957898,0.347741981213366,0.7025861447948959,0.15043809693007662,0.2626534661745622,0.09605849042923131,0.3740289356300065,0.3745551104777828,0.23400869396579993,0.14204880729802588
72,14563.0,0.0,[28],1,0.21319209560511915,0.3214704750343199,0.5834983303922072,0.33154056608133115,0.5144545317615561,0.26404798024296333,0.27207488514152056,0.33076661448640293,0.6712998174228382,0.1529090018576809,0.2568806253692888,0.10272109246421983,0.3401562387128611,0.36444035826494753,0.21768184011872588,0.1257286430916717
72,7050.0,0.0,[29],1,0.18586684694672603,0.23886259513963579,0.42392820508264656,0.3044170140663896,0.2797333905163415,0.2130923932489104,0.2518680653883194,0.5018652854663533,0.2059273951767135,0.12832566736468912,0.25188071655743954,0.23689476755803063,0.15913983743526997,0.36542967001238796,0.2136797833998896,0.06892782436065456
96,632088.0,117169.0,"[0,1,6,11,14,16,17,27,29,31]",10,0.1707606177961492,0.23857839743181125,0.3277332167443378,0.30406673332538536,0.2630740365266741,0.22798467480453158,0.2538748357155082,0.49792879176764104,0.17623655292176835,0.10566148114316205,0.24934246953302208,0.21078218542702878,0.14735667089242616,0.27777985048585285,0.20424442870860035,0.05831338680382602
96,449116.0,80896.0,"[2,3,4,7,9,21,28]",7,0.17083666716897652,0.3884923234612247,0.4924443387089397,0.32426086022279305,0.49965336460763915,0.17572118207226195,0.2980137057991445,0.3226819212795937,0.5584137872758198,0.13771318922125533,0.24558224314375623,0.10072781338208216,0.3202102303611687,0.37106669202102516,0.19456904569773484,0.08634334228745391
96,377674.0,67230.0,"[3,5,15,20,23,30]",6,0.20428411421502304,0.37277465461476406,0.49420294884665933,0.3342700187806661,0.47519126529415595,0.3294904079654421,0.23745297162684775,0.3367344832584107,0.5542002350015711,0.15935856028075895,0.26461014214046047,0.09975009022860988,0.311161049789183,0.3577032456662682,0.20314121138198435,0.10269567067653694
96,4511.0,0.0,[24],1,0.213527601332993,0.30279883982010425,0.4974297504716794,0.34862263944073923,0.36449544819393337,0.2667873543546516,0.2825360645091777,0.3627793424124055,0.38732972624015,0.17216383039145713,0.2867869214872038,0.13312614717052984,0.23247665812999113,0.31891239306632496,0.18869083656332866,0.09757570294701634
96,9610.0,0.0,[1],1,0.17674113959487955,0.24427441617150003,0.3759272806494663,0.302440619932357,0.2800296380437829,0.22721537092975921,0.26823385046101317,0.447683476688638,0.2583528029528106,0.12076629042207629,0.2530663353449755,0.1685535397072637,0.14754786674063178,0.2557115971519792,0.1977266137903327,0.06595173717912972
96,83649.0,3967.0,"[10,12,25]",3,0.18956426537552915,0.25999371240675073,0.46986388446664,0.31533022110749215,0.29544128352639026,0.24548192074322697,0.26387219681973023,0.34999875091768634,0.2872233811755699,0.12932551702825518,0.2656280186213562,0.12539134545301314,0.1582812713600749,0.20332127489889315,0.18465813406219464,0.08163449612008425
96,6517.0,0.0,[11],1,0.18966794939890746,0.24557349197285233,0.4080062885890693,0.3027333457464488,0.2831963814249423,0.2327554226110711,0.25995396014697136,0.46485371504177414,0.2646488124754379,0.12928416936802303,0.25797977151009344,0.1957437844707005,0.16208176111230566,0.29447732721104375,0.205122054157987,0.07163030874376627
96,104883.0,21088.0,"[13,32]",2,0.34816769037270595,0.26041138752201787,0.4942651199479823,0.3530448097677484,0.4191463057095115,0.2748877159453543,0.26007466325770345,0.34231402842415015,0.779413620754794,0.4203088932310134,0.28462399155294893,0.1103562069002991,0.3818062310166321,0.42985830627630506,0.23222900458707565,0.14203901220002185
96,43287.0,3645.0,[22],1,0.2853543072106608,0.2838802866503111,0.5628565937754773,0.45134462236504946,0.44814389346123945,0.3979865602912614,0.22064218536298827,0.35365015128363164,0.621519760736613,0.40788647669758965,0.3541335384855233,0.13798529027592482,0.36520795306251946,0.502925165730201,0.35584826451115004,0.29913899657210674
96,14563.0,0.0,[28],1,0.21319209560511915,0.3214704750343199,0.5834983303922072,0.33154056608133115,0.5144545317615561,0.26404798024296333,0.27207488514152056,0.33076661448640293,0.6712998174228382,0.1529090018576809,0.2568806253692888,0.10272109246421983,0.3401562387128611,0.36444035826494753,0.21768184011872588,0.1257286430916717
96,7050.0,0.0,[29],1,0.18586684694672603,0.23886259513963579,0.42392820508264656,0.3044170140663896,0.2797333905163415,0.2130923932489104,0.2518680653883194,0.5018652854663533,0.2059273951767135,0.12832566736468912,0.25188071655743954,0.23689476755803063,0.15913983743526997,0.36542967001238796,0.2136797833998896,0.06892782436065456
120,733793.0,101705.0,"[0,1,6,11,14,16,17,27,29,31]",10,0.17236241851468653,0.2405384474910647,0.33380940436627987,0.3086802866874938,0.26657201009492465,0.22824616203767872,0.2563318103760753,0.49620059088582774,0.17897224005731371,0.10749100888879597,0.2508663115604145,0.21216038768027795,0.1496844900442531,0.28395717987410174,0.2036779577643399,0.058233602480259126
120,571337.0,122221.0,"[2,3,4,7,9,21,28]",7,0.17154309382202598,0.4005626910571102,0.49845489457253106,0.3325110216529925,0.5112235919659414,0.17544793850669663,0.30481160624481707,0.3306220238690925,0.5587971733133917,0.13616922678826882,0.2458404892719486,0.10113492042451848,0.3319525772217497,0.3908760761514978,0.19246908714127003,0.08369692970889972
120,292448.0,59445.0,"[3,5,15,23,30]",5,0.21141558402396252,0.4008594367281713,0.5204505912917753,0.34291337022121704,0.5207010525675956,0.3648830913739965,0.23589662030364053,0.35140663095310515,0.580357160287966,0.16251090970910928,0.2642017817835872,0.10043608010991478,0.3540319183630341,0.4184516921949583,0.20783035218051854,0.1014943681867567
120,168077.0,18895.0,"[20,24]",2,0.19328897227646047,0.3443532346634831,0.4615080456513553,0.3353923523800181,0.4226148981892997,0.2789513814862697,0.25421192196038145,0.3270859615596604,0.5082700137076894,0.14984011256673463,0.2670288319647272,0.10029781723599472,0.25942145615026196,0.2943867273368892,0.18968252664252805,0.09777608099590183
120,81351.0,18398.0,"[1,12]",2,0.17806559338304864,0.26343254022775786,0.4198546798968506,0.31110112437353565,0.29850976702966975,0.23552351930225532,0.26710503496404747,0.36826016957431496,0.2901383374329728,0.1220734855487476,0.26145183400645994,0.13311496907958825,0.15534967762547827,0.20421006739168118,0.18544194562237032,0.07070337716381517
120,33078.0,2772.0,"[10,25]",2,0.20973249517842796,0.27185580379159235,0.5566333829960695,0.33826653862968764,0.31214325043838526,0.26095838922804376,0.26684183553242247,0.35551085326584275,0.3039023354442505,0.1451310375272073,0.2781649877240627,0.12807830228510475,0.18279634943119863,0.24688369617517003,0.1869233465579501,0.10208288882928297
120,6517.0,0.0,[11],1,0.18966794939890746,0.24557349197285233,0.4080062885890693,0.3027333457464488,0.2831963814249423,0.2327554226110711,0.25995396014697136,0.46485371504177414,0.2646488124754379,0.12928416936802303,0.25797977151009344,0.1957437844707005,0.16208176111230566,0.29447732721104375,0.205122054157987,0.07163030874376627
120,126682.0,21799.0,"[13,32]",2,0.3481315611362308,0.26440900814821316,0.4929209381176425,0.3697439917691786,0.4234695028147628,0.270721592611195,0.26453703759665836,0.3489497197025235,0.7724364124740803,0.4123812559604299,0.2870429599325439,0.11167529065867136,0.38282509449471475,0.44201047736170473,0.22899718553760862,0.1394042584218606
120,16745.0,0.0,[9],1,0.18253219029323625,0.37832918126955223,0.505876801246964,0.3167655323657294,0.4813433217292363,0.2521105672965236,0.26362410953502236,0.3301464003252648,0.587102800124128,0.15331391422083282,0.25232744649974487,0.10498361401149942,0.3129204842766917,0.36610492280635093,0.20168328346651573,0.09880295211404741
120,54659.0,11372.0,[22],1,0.2909423807190959,0.29160722621123336,0.5670196584181322,0.45535001917768986,0.4555117771820056,0.4029213825263266,0.22741273307467055,0.3606545831730052,0.6265403081239234,0.39663351778832595,0.3528731176154323,0.13902701414778468,0.37138796311307837,0.5143033588040858,0.346910413076844,0.28457167813228074
120,9998.0,2948.0,[29],1,0.1878841953177889,0.2454922598823513,0.42136968442542994,0.3136425303694705,0.2871196346475701,0.21784143066194153,0.2556021295532852,0.4983938482144737,0.22556202679208237,0.12770623152660884,0.25636849300691117,0.23309527188282192,0.163802924531406,0.3646800234603892,0.21178552317061605,0.07094824072475987
144,833061.0,99268.0,"[0,1,6,11,14,16,17,27,29,31]",10,0.17414190990026088,0.2403316075568476,0.33547946900920333,0.31988454214181133,0.2675026515724159,0.22879366320796043,0.2590562437455639,0.5008887871850305,0.1810422964872993,0.10923750048775084,0.25161513723535217,0.2192054583993022,0.15210517463452722,0.2928356037959929,0.20352303841517508,0.05793984610875835
144,114297.0,14113.0,"[10,12,25]",3,0.18875910806952487,0.2702419731938905,0.46854372194053134,0.3281561027378758,0.30721200299587464,0.24512438939594502,0.27023185307791153,0.35796173807260045,0.301326964745483,0.13152800288880165,0.2682175198975674,0.12930013417118524,0.1685487357907334,0.21328994623593156,0.1835733848119204,0.08078244649404975
144,665616.0,94279.0,"[2,3,4,7,9,21,28]",7,0.17253606170491256,0.40464500773642686,0.4987687092057545,0.3424709313681265,0.5152068333668032,0.17395495507222683,0.310571505021498,0.3367689556036163,0.5565625351612205,0.13748297955300473,0.24509767415122116,0.10440364123131508,0.33634002752236253,0.40367808381928544,0.191856838098493,0.08206291929300324
144,351073.0,58625.0,"[3,5,15,23,30]",5,0.21194829283179437,0.40601803569489386,0.5190814545915955,0.3547106798656007,0.5256491944254696,0.36670480543092693,0.24420679837130302,0.3566350403365766,0.576250479083417,0.1650448658446631,0.2633083849660891,0.10374982434755858,0.35851265361386697,0.4315332138741472,0.2060277678038449,0.09915377519769132
144,185577.0,17500.0,"[20,24]",2,0.19557488874326004,0.34529246664223995,0.46321343094282963,0.34255675324820534,0.42387860441187103,0.2796049320056551,0.25913782587711437,0.33251531309697796,0.5082403863595858,0.1511376497151253,0.2667740146586396,0.10336630231107018,0.26272109092063456,0.30199002162330696,0.18839515305830673,0.09583852330007124
144,16515.0,515.0,[19],1,0.25640027080387817,0.2910766782167116,0.5223621184637219,0.342196149368353,0.36340475643513254,0.27733099396284405,0.26869102230039543,0.3436282507865613,0.6907929031779383,0.2340243450280943,0.27212079849998433,0.10752036444445211,0.29166580673582454,0.29807825852582603,0.18194226736940722,0.11744378602417715
144,6517.0,0.0,[11],1,0.18966794939890746,0.24557349197285233,0.4080062885890693,0.3027333457464488,0.2831963814249423,0.2327554226110711,0.25995396014697136,0.46485371504177414,0.2646488124754379,0.12928416936802303,0.25797977151009344,0.1957437844707005,0.16208176111230566,0.29447732721104375,0.205122054157987,0.07163030874376627
144,149952.0,23270.0,"[13,32]",2,0.3492833919926568,0.26453595725130247,0.49117778706439,0.38904658506671136,0.42639021021039464,0.2692782994711315,0.2720661854782494,0.35270805781678904,0.7675983699540546,0.4140828362530004,0.28956873041763986,0.11512952408663535,0.38027308196300863,0.4563408031784262,0.22807203304595236,0.13914737142525618
144,63699.0,9040.0,[22],1,0.2939855607275466,0.29008236947606164,0.5624881720105147,0.4656545239454587,0.45704378593296574,0.40260739557646374,0.23184266385832308,0.36511219425573477,0.6336038732001791,0.3958349996960128,0.3529117131479259,0.1440155268481125,0.37010427406694246,0.5279805428107073,0.3444829391566035,0.27711783455650685
144,11535.0,1537.0,[29],1,0.1911350895232943,0.24765455267790737,0.42133128120298435,0.3308477072146941,0.2909988502627396,0.2192861431144114,0.26185350439516336,0.5006919583664716,0.2337151359701374,0.13059399161009017,0.2573188961051403,0.23762522137974262,0.16912470585574968,0.3760189528695776,0.21192977244434666,0.0708077504206028
168,906760.0,73699.0,"[0,1,6,11,14,16,17,27,29,31]",10,0.17325966505598003,0.23998243054847043,0.3348584202585787,0.3279452979255256,0.2679281196962718,0.22950797804772502,0.26073732576434,0.5031311230374633,0.1816261610115869,0.11006332696229844,0.2519095244922772,0.22121739199569676,0.15285374994989573,0.29748113731507886,0.20380001846219706,0.05806375345584796
168,165990.0,51693.0,"[10,12,25]",3,0.18329531316500883,0.2802784094363382,0.4641042544592828,0.3429772573176676,0.3313553889125827,0.24264778526307912,0.276970829941095,0.3571759162041386,0.3208499579274852,0.1305361413165082,0.2656217974998719,0.12697296553442963,0.18281314834870388,0.21979435264222513,0.17983636519634363,0.0800079796180814
168,727952.0,68182.0,"[2,4,7,9,21,28]",6,0.17183701944050497,0.40558721624263144,0.49958059370169,0.34940126701601293,0.5184244544675455,0.16989962836989322,0.31497643983348095,0.3382436293671448,0.5544873498002884,0.13864357981990216,0.24486049434523444,0.10495258125387381,0.33753641373729937,0.4060936948466851,0.19212767421748422,0.08261399692071593
168,395067.0,49840.0,"[5,15,23,30]",4,0.21092807574535177,0.40371873331838226,0.5162261951759627,0.362882960897115,0.5235714060395311,0.36889643921286347,0.24747689520226376,0.3585488894699763,0.5694648138350353,0.16556630095063007,0.26408114603767013,0.10453950460367882,0.3547433511336156,0.4285367284748107,0.2050683651923329,0.09904032504902495
168,262095.0,60003.0,"[19,20,24]",3,0.20143748023232352,0.33149329956604556,0.46482612654944194,0.36328183827285854,0.4129665809131497,0.27901905711235836,0.26714628601392926,0.34043524019077914,0.5290940884929222,0.16405975579518417,0.26874572012659287,0.1068468867918577,0.2630769744915961,0.30456384270698483,0.18604999415762014,0.09930902572978403
168,6517.0,0.0,[11],1,0.18966794939890746,0.24557349197285233,0.4080062885890693,0.3027333457464488,0.2831963814249423,0.2327554226110711,0.25995396014697136,0.46485371504177414,0.2646488124754379,0.12928416936802303,0.25797977151009344,0.1957437844707005,0.16208176111230566,0.29447732721104375,0.205122054157987,0.07163030874376627
168,180152.0,30200.0,"[13,32]",2,0.34720364340780135,0.26302119965498677,0.4943479105699549,0.41122765880745216,0.4325410014422839,0.2687425514675591,0.2802751049062769,0.3527202003377712,0.7604210087505076,0.4155065733767614,0.2921497014257958,0.11781676437431,0.38008393199382545,0.46686245420016503,0.23004997055562146,0.14256945945584765
168,18334.0,6371.0,[18],1,0.2382294047467632,0.2619910641726913,0.4010734271865059,0.4351421955378133,0.2852675258756396,0.26687277799914033,0.25301546667000147,0.3559640235891325,0.5201318709022729,0.1409689240065639,0.26990709105555294,0.22839840905462877,0.16133677777184616,0.5207513292518621,0.23868077806722718,0.08059697815513465
168,73583.0,9884.0,[22],1,0.29408935234233413,0.2874856060699369,0.5610918569204404,0.4757791726766631,0.4586893091545855,0.4092016899426514,0.23274500684433333,0.3669003532863744,0.6395864781861857,0.3992949197946713,0.3546969227824081,0.14619646753587154,0.36721323481178514,0.5329958120799035,0.34590480970360343,0.2786202971608765
168,12953.0,1418.0,[29],1,0.1920794482913364,0.24862964512157204,0.4241364976312272,0.3456171948223486,0.2943857741858759,0.21854694886107429,0.26916557764248694,0.5020729282539621,0.2383137831396302,0.13316563127822853,0.2580093599926697,0.24176206750027138,0.17278343730919693,0.38615438837224697,0.2150557074711951,0.0716498974509787
