time_in_hour,cumulative_size,size,pcore_ids,pcore_power,AF700 CD48_[R 730_B-A],APCCy7 Ly6G_[R 780_A-A],BV421 CD117_[V 440_F-A],BV510 SCA-1_[V 525_E-A],BV605 CD11b_[V 610_D-A],BV650 CD150_[V 660_C-A],BV711 CD11c_[V 715_B-A],BV785 B220_[V 780_A-A],FITC Ly6C_[B 525_B-A],PE CD115_[YG 582_D-A],PECF594 CD135_[YG 610_C-A],PECy5 CD3-CD19-NK11_[YG 670_B-A],PECy7 CD16-32_[YG 780_A-A],PerCPCy5-5 CD45_[B 695_A-A],_FSC-A,_SSC-A
-1,0,0,[],0,0.0,0.0,0.0,0.0,0.0,0.0,0.0,0.0,0.0,0.0,0.0,0.0,0.0,0.0,0.0,0.0
0,126479,126479,"[1,2,3,4,6,10,17,22,23,24,25,43,49]",13,0.17316056230615343,0.24608011274608257,0.3595459989254314,0.284705073853044,0.27483166356099575,0.2282238975936345,0.2539631810030844,0.45368225890348485,0.19855054632602837,0.10930504720958878,0.25107088969485303,0.18874850026417078,0.1528251256059505,0.243189348925922,0.19559545453207364,0.05460141920278491
0,18855,18855,"[35,46]",2,0.16216461558782755,0.22553519194278573,0.2690710508632878,0.3241475419732159,0.2642617472680066,0.22961182686110895,0.24667379099177866,0.5820156082671694,0.17032937227807232,0.10838318023047465,0.24989374964276037,0.30601722770314577,0.16172991147690585,0.4576101163588407,0.2083909002479562,0.04783380321078262
0,149517,149517,"[8,9,11,12,13,14,15,18,19,26,27,28,32,36,37,39,40,41,42,50,53]",21,0.17842410352826304,0.39158869128379914,0.5010235507420207,0.3087429768532523,0.5007395590914222,0.24115578538861304,0.2650223298085514,0.32428838982377967,0.569466318850462,0.14662623710689973,0.24936873530312742,0.10031862205935788,0.32826886517245685,0.3741750722885736,0.19677023076871047,0.08171466687916175
0,39988,39988,"[9,11,12,13,14,31]",6,0.18893031971380228,0.3769657063961277,0.48997664395473134,0.3095651236769517,0.4826038735379809,0.2782623148836835,0.25145702927699487,0.3279122765453204,0.555530031055138,0.15322379633559036,0.2554404957448674,0.1010795593576348,0.3161486574158831,0.36207081127887913,0.19452854847305337,0.08060449557000307
24,171988.75,139868.0,"[1,2,3,4,6,10,17,22,23,24,25,35,43,49]",14,0.17355672423215082,0.2438593590911737,0.3659382280031922,0.29346721139388404,0.27180782093563216,0.23229132308957323,0.253810559291699,0.4421408232332704,0.20312431935765465,0.10764181893295639,0.24985023480294064,0.18113295182637612,0.14475479757303653,0.24402811945872824,0.20533534680902144,0.060784679865187284
24,25898.75,21686.0,[46],1,0.1543088008860591,0.22644273582356547,0.2723284871188947,0.3307315603116641,0.25712388524416685,0.23708683420090118,0.24855588687650734,0.614644333066752,0.17379260352059397,0.10478825171246824,0.2481553918232283,0.3135954233335601,0.15361957116969283,0.4394129011923926,0.21879858509912153,0.05090806971594486
24,173235.25,135754.0,"[8,9,11,12,13,14,15,18,19,26,27,28,32,36,37,39,40,41,42,44,47,50]",22,0.18268265802456155,0.37710887392157505,0.5087566864739462,0.31600196757598914,0.4932319183442217,0.2457455531036882,0.2656561441963509,0.3303817146720265,0.5791373635467496,0.1489328004979393,0.2469023718153028,0.10198380963362334,0.314240053111737,0.3658798735856021,0.19814669775628238,0.09408026275979572
24,24461.75,16602.0,"[9,11,12,33,52]",5,0.1832135652684213,0.35752815306374025,0.48745566370211396,0.32289071982282036,0.44843947853135163,0.2609003734110713,0.25955202579340936,0.3313114221653857,0.5175965836295484,0.16275723088253624,0.26045814946649193,0.10844059444868354,0.2836353414567577,0.34283516994317115,0.20064496794527933,0.10034256879611522
24,5346.25,4583.0,"[14,31]",2,0.2815113504043973,0.26810445609498756,0.4903701144532355,0.3364403196170285,0.4282135442991513,0.1646004804327718,0.2987130976278236,0.3597429580791109,0.7585946493664792,0.27518201849211993,0.26067650080590166,0.1114303802361979,0.31733047537025755,0.39351968289653216,0.20194190251348573,0.10797006826583122
24,17541.25,13237.0,"[4,10]",2,0.17478752055280602,0.23590407918528347,0.30846378009737424,0.2913537640935861,0.2600030416295045,0.23270997844052574,0.25401731140257605,0.49228344299332016,0.21290534555876608,0.10595330829141396,0.24818959013282121,0.20512584384457136,0.1456325681843507,0.2614297803041828,0.2066568700957585,0.05816571718548393
24,32485.25,25590.0,"[23,24,35,43]",4,0.18060464589574074,0.2366963297792174,0.3678741794517181,0.3007424448740899,0.2662291359357971,0.2310122805001275,0.25329403154131086,0.47800521243614197,0.2185400230933728,0.11276132980396193,0.2495655157826564,0.21854161525978277,0.14532709954248718,0.31331385766861297,0.21328636435788909,0.06273807244678524
48,192507.0,150209.0,"[1,2,3,4,10,14,17,22,23,24,25,43,49]",13,0.16848496319721404,0.2464829387534876,0.3586721869208186,0.2874105735572338,0.2711205672714558,0.23263903715767148,0.2533183165159524,0.4362677547786557,0.2297807645027922,0.10559233741422597,0.24862152266889886,0.16340419820488478,0.1461305442035302,0.21080581616423252,0.18862178482468028,0.06221571010499742
48,20357.6875,13883.0,[46],1,0.15208498849468666,0.22533148456989144,0.24836004550435475,0.3393399112776452,0.25170257417393277,0.24665367850368417,0.24196238594632846,0.6436918748661702,0.170839649791649,0.09914251036717482,0.24696970576443503,0.33001968566641743,0.1564853690438463,0.45409688124074565,0.21178378820524849,0.049786719911257084
48,130276.9375,99624.0,"[9,11,12,15,18,19,32,37,39,40,41,42]",12,0.15807538621796446,0.3948868855852516,0.4975768261316781,0.2986101848570688,0.502466984136901,0.1951894122286014,0.2823012504044416,0.30936660693629014,0.5596403023203511,0.11190071916288452,0.23866861454833369,0.09141778916823225,0.31585759796845175,0.32638883499259114,0.18089975082733464,0.07859988111536892
48,5140.5625,3930.0,"[4,35]",2,0.22046338221445874,0.23275608525725552,0.3687391595992471,0.3421159770207381,0.25410593484443533,0.2596615882853509,0.238069709472835,0.2979971087509816,0.1880436422585754,0.11535886278314736,0.2499163121226336,0.2513434626257767,0.11072486668367494,0.49559258900456454,0.250530434871332,0.06543489503851763
48,3832.1875,772.0,"[11,12]",2,0.178345540961913,0.38236898271381164,0.48593811021899486,0.3090566425331315,0.46023280931079613,0.2915207215002802,0.24458553917744308,0.32640103226539974,0.5239519826623726,0.13910657067512242,0.2539250746129059,0.1000118050914663,0.2965200703805479,0.33707857001351726,0.18806209197411466,0.08468910656206934
48,6840.875,6501.0,[14],1,0.2443699577316673,0.2590057786346379,0.40602493374091936,0.3113880707736808,0.3272958390989926,0.2499743965802574,0.26872364273894833,0.346305989613758,0.7636830805314098,0.2548758608583234,0.2645737139748011,0.10018957393400015,0.2718522846780586,0.2403550019112314,0.1781179813774239,0.0957476286057351
48,40309.0,29436.0,"[3,22,23,24,18,19,47]",7,0.17729132569838058,0.2673120363847564,0.46413253087332235,0.30555024053203805,0.29739658930472973,0.2364869753979581,0.25611470580109913,0.40611149701763205,0.2867829947655316,0.11895471374580252,0.2591561777570895,0.14451898449993605,0.1638249251317864,0.22757182780152416,0.18218333067929054,0.08331847202692692
48,14124.5,7672.0,"[32,37]",2,0.1785976203842963,0.33113311277163854,0.5809929566363649,0.31788409553687663,0.565299688841403,0.12021802923450059,0.3269163922397006,0.3197046895818283,0.654322450410974,0.10849278606526719,0.23159795139502415,0.09477163545384332,0.36018072343429486,0.3554623127399277,0.20446154348636064,0.11024625166536668
48,8535.8125,5739.0,"[40,41,44]",3,0.2681781741225807,0.29443755156244533,0.6489144309044944,0.33620069945547226,0.40194332249926573,0.30974183641677033,0.2475690450743683,0.3279540879874457,0.655986718454428,0.20555024662463323,0.26752161366168087,0.09916827429474993,0.3204946709658337,0.32051239062303144,0.18577956821060188,0.1495908587974035
48,14927.1875,11063.0,"[43,35]",2,0.17977632251046588,0.2340046915910788,0.36023000107648734,0.3146136704851454,0.2598518199834307,0.22425993440601102,0.24728879400699527,0.486482452874413,0.22121098636641934,0.10574502737245862,0.24635096394470873,0.25862884485843246,0.1408849678700068,0.40702608610340124,0.2242868265521091,0.06201916184721497
72,275280.640625,218065.0,"[1,2,3,4,6,7,9,10,17,19,22,23,24,25,35,43,47,49]",18,0.16826333664597118,0.28431524304758654,0.37264343979994774,0.3095914922089165,0.32404403094523304,0.2288580392034148,0.2558138231806699,0.4166683121231547,0.2832148508596709,0.11042557479767713,0.2522283662358315,0.14898343282225093,0.18416212711002344,0.26107153756771145,0.19544799071266344,0.07325079478371968
72,16064.421875,10975.0,[46],1,0.15794616717437432,0.2354060945749191,0.2695269999011323,0.3512955347787675,0.26434082238981244,0.23515864308627468,0.24415004110617344,0.6050794887911431,0.19007504409376585,0.10598508917403388,0.24875286552468795,0.28376938163652043,0.1654335223565987,0.4279862583187434,0.21545429561729615,0.06119606542559602
72,137500.296875,101169.0,"[3,4,6,7,11,12,13,14,15,18,26,28,32,37,39,40,41,42,44,53]",20,0.18928428907871842,0.3697834140651985,0.48014747229724675,0.33892936582521876,0.4808757814019913,0.24722275405405142,0.2622346545170629,0.3327075088197617,0.5525774191308501,0.14478694476718704,0.2608937209639858,0.10079394717315479,0.3093642622462698,0.35682471939046495,0.20829738783662916,0.10510729198422732
72,20183.765625,13875.0,"[11,12,13,14]",4,0.21940447980250496,0.36803463051441276,0.47404623540022306,0.3434143271391954,0.4807809132013726,0.3652755423771369,0.21165635234054503,0.3448148161592029,0.5944703262808488,0.17652105685666208,0.269791415260965,0.09736491194932505,0.3253239949592209,0.3687602138117158,0.2156533393790624,0.11160479053302844
72,50285.0,39404.0,"[19,22,23,24,18,51]",6,0.1777936256685625,0.3078578540223892,0.4377916297667482,0.32522972632259406,0.35611442828598444,0.23430414304230884,0.2593289946889127,0.381183614441002,0.35022334542143563,0.12309335886613228,0.26066824565069086,0.13065849580555136,0.20776856155056625,0.2777230071951355,0.19234879941265723,0.08817033897955902
72,23456.5625,14943.0,"[26,28,32,37,50,52]",6,0.24094757994060192,0.3012004022061714,0.5311455635630937,0.3754329523002845,0.48570398530601727,0.2665516153370646,0.2599084069487476,0.3400794937074855,0.6581573365305452,0.2064510077969589,0.2754042135124367,0.11084027647597326,0.33571656189046295,0.394667832282276,0.2416527041141184,0.15061074362239435
72,742.140625,0.0,"[40,41]",2,0.1951070149535555,0.36686245076258317,0.539539163464647,0.3226087632808061,0.528734402869888,0.3278655172986166,0.24905452443385756,0.3360300473102357,0.6129549302723127,0.14481677496414153,0.2517423963474962,0.098680915003965,0.3377543734596448,0.37454118186665386,0.2130504569710645,0.1062102712567283
96,170696.19921875,113299.0,"[1,2,3,6,10,17,22,23,24,25,35,43,47,49,51]",15,0.18410385518098638,0.25895103179225776,0.36941272989182683,0.31872492907648364,0.2897091117394505,0.23222032266797119,0.2636599864533109,0.4646489395861312,0.22043486460785017,0.11665226847990154,0.25706376612686166,0.19460958447705815,0.16718258806154118,0.2700260886649607,0.20071687089964754,0.06480175121182072
96,19275.10546875,15259.0,[46],1,0.17665500446980537,0.23362706286601154,0.26630068651754163,0.3830289988938153,0.2689398620666676,0.23208609052711046,0.2663985265742927,0.6212804186366094,0.19208640399319882,0.12000003325486452,0.2562064088174319,0.32422541145396544,0.17185781391460703,0.4619203571853957,0.21467064040123307,0.05340775489264027
96,163615.03125,121019.0,"[8,9,11,12,13,15,18,19,26,32,37,39,40,41,42]",15,0.1803534156579072,0.4261666813543669,0.49942442873863185,0.34600823678332226,0.5336709802466915,0.24069504195533725,0.2949067930676743,0.3490625932583453,0.5437241296082214,0.13794900054908368,0.2521065044229741,0.1014696243508416,0.35286629963731314,0.4183228538963347,0.20018097101564822,0.08617569391449456
96,7655.56640625,5489.0,"[14,28,44]",3,0.2818610942051651,0.26744967413747184,0.5179178258423304,0.4024714918383417,0.3533673973641346,0.25600990583470257,0.28224525099156855,0.3582944147144095,0.6748423575546892,0.21649263423563697,0.2850031622205015,0.13496156792207578,0.2721745264490275,0.3904206477860965,0.20080538626422897,0.12098684924814306
96,14735.6796875,12520.0,"[11,12,27,36,50,52]",6,0.22995244340951287,0.39490517568563943,0.4854696851030766,0.38276293500105313,0.4998481118507022,0.28056897592142616,0.28781006396682635,0.3592703701223399,0.5921808543455026,0.20890206035313988,0.2703996278052606,0.10940855599857921,0.36771394809904095,0.4609577692142645,0.21550572558654274,0.10354152331506676
96,14338.109375,8998.0,[10],1,0.18269590601895827,0.24542778260040354,0.30949577821902824,0.31287891312072436,0.26923641989389774,0.2328486926871828,0.2624528346993795,0.5103587708081014,0.24549883145396284,0.11220168909673214,0.2527697877713204,0.21479731732740232,0.1589259980941382,0.2650585268671453,0.20245384719154771,0.06183710494673714
96,37251.4609375,22978.0,"[3,6,22,23,24,18,19,14]",8,0.19369244781751999,0.29767788913212734,0.43625765195618155,0.3408669422915692,0.34534524283551066,0.23344220262167364,0.27393187061795565,0.408307961689013,0.3612434685373285,0.13971340015487896,0.2668292058191538,0.1572296571145306,0.21223136127905534,0.2968669027322309,0.19753402805740927,0.08117185864390965
96,8587.19921875,6089.0,"[35,43]",2,0.20165312642459157,0.2437689633890065,0.36594962133736314,0.3520904388222156,0.28050614972181953,0.23002920835060403,0.2653903854719711,0.5077676058566666,0.24309834489973683,0.12921066655465885,0.25886253356090067,0.2571246060435105,0.16791239718072518,0.4039380951355494,0.22049345407334034,0.06537938032456568
120,150482.064453125,108309.0,"[1,2,3,6,10,17,22,23,24,25,43,47,51]",13,0.18281283615843869,0.26023728336689295,0.3871887001022546,0.32353198189980786,0.2908461526083436,0.23091522128094388,0.268232685895282,0.45365125552507585,0.22232544313931943,0.11785264466855908,0.26192466510364576,0.18897195654495139,0.16281541454105536,0.26826538586564863,0.19466610758786418,0.062327962614851976
120,17895.7763671875,13077.0,[46],1,0.1670688811622919,0.22879959314204065,0.2678302746446704,0.39628288960158176,0.271344222745117,0.23524746062346186,0.27105954178533015,0.6301918848435188,0.18526642389660422,0.11969566929234098,0.25750313182110873,0.33742615387077335,0.16889925027374494,0.4825226391799094,0.21092626916451945,0.049531818815901324
120,224961.7578125,184058.0,"[8,9,11,12,13,15,18,19,26,32,37,39,40,41,42]",15,0.1754831958533436,0.4526596131936772,0.5245837661929192,0.35638269575086734,0.5656646755291198,0.2446725409935153,0.30574046872404664,0.35813911668442955,0.5519682670614714,0.12758061705838322,0.2505388686876583,0.09992983533922022,0.3791201132599034,0.4597849533762643,0.19145417666895392,0.07891575244096281
120,12412.994140625,8498.0,"[9,11]",2,0.17573170893710569,0.3747951498405403,0.47421756800711395,0.3404133630077317,0.4609890850276816,0.1923081152973275,0.3017254401431226,0.3400272666166481,0.5051179293931936,0.12688045947876742,0.2578977515987495,0.10577662981147155,0.280023944166537,0.333523791963318,0.17600433447863822,0.07502978182719651
120,12788.07421875,8773.0,"[10,35]",2,0.19299353696525853,0.24324897589347358,0.3263102116341856,0.3359280086963853,0.269837373752402,0.2391153039343369,0.262042478457172,0.48222271419523566,0.23181600628848575,0.11837008374414348,0.2580821368619472,0.2260800361998714,0.15202078424836063,0.3305664354207649,0.20445560565025842,0.058974942760667115
144,122983.07885742188,86941.0,"[1,2,3,6,10,17,22,23,24,25,40,47,51]",13,0.1903061831661792,0.2510807179907224,0.3825138778448371,0.35651104748925433,0.28199051541770587,0.23147095603964019,0.27603605674057186,0.47859744670377147,0.21005852912024822,0.12192380232177656,0.26141379850423924,0.21518884420117962,0.16769100725460226,0.28783723436783537,0.19566132361445449,0.060382067862616115
144,33885.00732421875,27832.0,"[43,46]",2,0.1672735073626809,0.2243478396688846,0.2821181245586771,0.4672199654292902,0.2716251900544563,0.23207468812390275,0.2819615370168279,0.638214452179601,0.21976461617764925,0.12330401164873787,0.255512956907616,0.3602427221831407,0.1761611270463038,0.49046385938075837,0.21092819762533918,0.0517929155457638
144,203435.748046875,146183.0,"[8,9,11,12,13,15,18,19,26,32,37,39,41,42,44]",15,0.1791170972115274,0.45455342521634945,0.5226911047732075,0.37851691341843835,0.5675316270584267,0.2466187904063123,0.3160293746683722,0.3599316655528029,0.5416422282164505,0.13809395312433856,0.24426285975441372,0.10716973394362173,0.38221874167133246,0.4668562208429299,0.18937341711323918,0.07608043432097664
144,5729.24853515625,2626.0,"[9,11]",2,0.18947863079261845,0.36579715219209796,0.4849269043988092,0.3668810525613052,0.46041586624525094,0.20563646464804164,0.30753619321963777,0.3408181129726695,0.5002168779812779,0.14350846501536313,0.26032380353569556,0.11490568388510967,0.29252235681020655,0.3528642962784619,0.17668586555280535,0.07547104867188341
144,13363.0185546875,10166.0,"[10,35]",2,0.20422551744257503,0.2364232803508322,0.33236723167821514,0.39947679064037506,0.2613155750167433,0.2539301000387291,0.2633051228089225,0.4898842508745548,0.23102048098554062,0.12213293640460639,0.25811062560026843,0.26088164632236516,0.15458357371030537,0.38189779479473546,0.2086309449368187,0.05798635437128425
144,21731.860107421875,17517.0,"[24,43,35]",3,0.19814088996417387,0.23717636874296857,0.3810861599752864,0.41255465658195983,0.2753775289912813,0.2184609513965192,0.2762483948296771,0.5363200218602342,0.24008095698658066,0.12774914227083198,0.25801233089098624,0.29313304403312385,0.16992784230705102,0.4277445685236087,0.21308056565310715,0.06140933259352471
168,176343.2911376953,143835.0,"[1,2,3,6,9,10,11,17,19,22,23,24,25,40,47,51]",16,0.1750800572159504,0.27998974054900944,0.40985106882903954,0.3828810267345131,0.343388112635342,0.23350689765049515,0.28328523059972494,0.40999576086768036,0.32946778963191575,0.13178803685460497,0.2604440262063801,0.15824629660275344,0.2000899689762133,0.282514316196159,0.1858974389350423,0.07498545408922865
168,33252.25183105469,24781.0,"[43,46]",2,0.1528019879795794,0.2261919679349983,0.28316531417565105,0.47896307989707554,0.2726946657853813,0.23835898042196563,0.29172236523357686,0.6397187897463965,0.23498927186232887,0.1258913633473194,0.2558710257636186,0.3356175479810226,0.17521918053871488,0.47264637498358353,0.21462165853131077,0.05557854793127376
168,159538.2196044922,109602.0,"[8,12,13,14,15,18,26,32,37,39,41,42,44,50]",14,0.1877501262212922,0.4199523273906263,0.518089051776961,0.4017921586887473,0.5454099075034423,0.25148373359655346,0.3141202296731755,0.3546163736195416,0.5410924034902211,0.16106711803984533,0.2512480229858366,0.10706003057794665,0.3607313597668965,0.4309666618856019,0.1966246709696218,0.09173792049376886
168,6505.27587890625,4907.0,"[3,6,28,49]",4,0.23218961420504577,0.2626700650860189,0.43613136407642306,0.5066224165926456,0.32367873703652533,0.17648829502385247,0.30954597672825096,0.34678416597358347,0.5408085455681982,0.15922138481249928,0.2764008506221459,0.2200373476417821,0.18262832722581646,0.498941641539193,0.2360405697145114,0.08873711308867882
168,10833.674438476562,10727.0,[11],1,0.19282279117758025,0.3281438490011276,0.45238268313583857,0.4038278509956876,0.4202404962367561,0.3477584854594329,0.25266941028887474,0.35226657589895477,0.502029900165488,0.1673438697539089,0.27474461641306963,0.11129884416477587,0.25935595709609194,0.3136704729189743,0.18669786150698003,0.0985144005528066
168,1108.914306640625,1073.0,[33],1,0.27403937866562367,0.26503282707829173,0.5031247309093363,0.5060139870284487,0.4067126651639937,0.39748083256315636,0.24620520268759097,0.3665313538298984,0.6695571364302658,0.31148964023450676,0.32024115918966484,0.12986453778044674,0.3188331888463178,0.41999571780672973,0.2566808997442957,0.18339097306622923
168,50571.68322753906,42462.0,"[10,19,22,23,24,14,18]",7,0.19182646407375364,0.28224935669566964,0.42699511730428596,0.41554084210225406,0.35580862716349076,0.25657523843935975,0.2860418218348862,0.4178842044501945,0.42465988182465586,0.1638024985409405,0.27025567727009936,0.1591483873360398,0.22873005906393457,0.3259896514726708,0.19136928767168737,0.09188013720229954
168,29920.775634765625,20059.0,"[17,43]",2,0.16604585285382678,0.23190892971364582,0.3272575295877642,0.4135192144469395,0.2734247214338809,0.20007953798040123,0.28833534288307394,0.5904723583177035,0.19354094813877007,0.1164912360252286,0.2530717378861902,0.2836474464333635,0.17021996660166883,0.3904842101946726,0.2095421178800628,0.056284946194778154
