time_in_hour,cumulative_size,size,pcore_ids,pcore_power,AF700 CD48_[R 730_B-A],APCCy7 Ly6G_[R 780_A-A],BV421 CD117_[V 440_F-A],BV510 SCA-1_[V 525_E-A],BV605 CD11b_[V 610_D-A],BV650 CD150_[V 660_C-A],BV711 CD11c_[V 715_B-A],BV785 B220_[V 780_A-A],FITC Ly6C_[B 525_B-A],PE CD115_[YG 582_D-A],PECF594 CD135_[YG 610_C-A],PECy5 CD3-CD19-NK11_[YG 670_B-A],PECy7 CD16-32_[YG 780_A-A],PerCPCy5-5 CD45_[B 695_A-A],_FSC-A,_SSC-A
-1,0,0,[],0,0.0,0.0,0.0,0.0,0.0,0.0,0.0,0.0,0.0,0.0,0.0,0.0,0.0,0.0,0.0,0.0
0,117654,117654,"[2,3,4,9,19,22,38]",7,0.2744034828140167,0.1369470054481794,NA,0.5035498694647078,0.2824127048124154,NA,0.02106087262651224,NA,NA,0.3302111589321255,0.16090538987199832,NA,0.5972935276063703,NA,69797.28791201317,13429.911571217259
0,6411,6411,[39],1,0.6312410057713256,0.3289035552955819,NA,0.968612008111061,0.44895977398221687,NA,0.07836391873342263,0.9309558348151623,NA,0.7213539581968526,0.5021069343316218,0.306531687880205,0.6118554748089263,NA,63479.195133364454,27818.636718140635
0,144942,144942,"[6,7,8,10,11,12,13,14,16,17,18,20,21,36,40,41,42]",17,0.25552394495039366,NA,NA,0.6743225721392041,NA,NA,NA,NA,NA,NA,0.13891234399276753,0.14040856828938386,2.0078237654027067,NA,66544.63782754476,18923.34577969117
0,12285,12285,"[7,27,47]",3,0.6142479405779391,NA,NA,0.8041895790801812,NA,NA,NA,NA,NA,NA,0.23550073024013152,0.12769978835978857,2.132507031664638,NA,NA,25409.44827024825
0,10222,10222,"[4,23]",2,0.37133596634709365,0.12358356779495061,NA,NA,0.20828039845431023,NA,NA,NA,NA,0.484033370279789,0.2645398959107834,NA,0.7680250736646471,NA,72202.36822539619,15900.443748777141
0,26402,26402,"[10,11,12,13,17]",5,0.33689788769790185,NA,NA,0.6741685142413494,NA,NA,NA,NA,NA,NA,0.22469172630861234,0.1384043603514894,2.0326807270282496,NA,66989.32747519127,18827.53367169152
0,14910,14910,"[19,23]",2,0.08667888906773813,0.018645067471500187,NA,1.022346983903423,0.322034034138162,NA,NA,NA,NA,0.34626176928236074,0.1855906142857111,NA,0.7936264059020811,NA,72563.85244802144,12784.620254862512
0,17381,17381,"[14,16,20,40]",4,0.41768783648812025,NA,NA,0.7040558736551334,NA,NA,NA,NA,NA,NA,0.2553682308267655,0.15106544640699593,NA,NA,63637.90898107129,17543.773085553214
0,16234,16234,"[46,48]",2,1.82446586300358,0.30222181661943637,NA,0.8072615094246625,NA,NA,0.3337759332265695,0.7365605527288381,NA,NA,0.38475217155352404,0.19136099205371293,2.3367832455956696,NA,NA,25537.123567820658
24,253906.0,132477.0,"[1,2,3,4,14,22,38,39,42]",9,0.3203471199656567,0.2851863759383306,NA,0.5582244586618699,0.45815833705781417,NA,0.05385829329359426,NA,NA,0.376636540743426,0.197975544721273,0.6605714454246829,0.6287716622056966,NA,69147.56875379078,16178.426724850839
24,51061.0,26119.0,"[9,19]",2,0.18849537568790686,0.06287079393275352,NA,0.8028437854331134,0.2566291689547784,NA,-0.01817831468243991,NA,NA,0.3181565408628927,0.15791779036838927,NA,0.6793133988954366,NA,72301.38446172206,13393.49248937538
24,20509.0,12409.0,"[23,26]",2,0.3767158694231816,0.05157558389000627,NA,1.0668505921790477,0.15737999102832712,NA,NA,NA,NA,0.425963978009653,0.20614705222097784,NA,0.6296331650494872,NA,76576.41971817249,14470.334779852774
24,246610.0,114086.0,"[6,7,8,10,11,12,13,16,17,18,20,21,27,36,40,41]",16,0.28221308278253043,NA,NA,0.7229132253639357,NA,NA,NA,NA,NA,NA,0.10909788483434557,0.14438797868699582,2.031128476675721,NA,67449.08667126228,21096.784980333323
24,25598.0,12944.0,"[7,35,47]",3,0.6305246212985411,NA,NA,0.8193859723415962,NA,NA,NA,0.8907194793343267,NA,NA,0.19899478869443188,0.1171059696460659,2.111276825767642,NA,NA,26382.27861551679
24,5695.0,3001.0,[29],1,1.3990209127304654,0.428083181738371,NA,1.2388446523266032,1.3084907959613634,NA,-0.00776591922739156,0.9037715395961272,NA,NA,0.49536291799824195,0.2200079257243195,1.732699077085163,NA,NA,41406.2693590869
24,24761.0,10137.0,"[11,12,13,14]",4,0.3572850532692544,NA,NA,0.78381847364808,NA,NA,0.08861182658212874,NA,NA,0.59231307095836,0.27447429982633986,0.19234472093211086,1.5989360861031439,NA,64987.29970518147,19571.102297968584
24,8426.0,3836.0,[20],1,0.19900180500830822,NA,1.88900493650605,0.7197746112034169,NA,NA,0.23202593959173434,NA,NA,0.5955326864467109,0.09123499786375566,0.15127996688820244,2.1001280486589122,NA,67747.08378827426,20026.629954901502
24,52568.0,24972.0,"[30,43,45,46,48]",5,1.9343119924288585,0.3452044641416858,NA,0.952692687452442,NA,NA,NA,0.9005494634758788,NA,NA,0.41516299564373726,0.2095389863414988,2.411354690705366,NA,NA,32306.574950540133
24,14384.0,8155.0,[34],1,1.4249396544772057,0.6114434884593929,2.992386141685206,2.411387645439396,2.173818223651289,NA,-0.9689380563820993,1.1327233947441635,NA,3.4518230481090275,1.598129540253049,0.5391130457452695,2.4701087671718516,2.5024400880144744,NA,NA
24,5309.0,2704.0,[27],1,0.8493854260689371,0.8804329359578187,NA,1.0583352633264242,NA,NA,NA,0.9005172687888487,5.018207038425329,NA,0.3019302669052437,0.16603804388773757,2.31323250386137,NA,NA,35386.87662459975
24,6062.0,3687.0,[26],1,0.7368472504123957,0.10087374892775403,0.8959446483008926,0.9771404472121437,0.34269286753547457,NA,NA,NA,NA,0.4765696906961372,0.17432368822171762,1.2216718985483346,0.3964607456285074,NA,80323.01946552297,16417.625866050817
24,6391.0,3417.0,[35],1,0.9093401200125129,NA,NA,1.0080795609450788,NA,NA,NA,1.1687809458613745,NA,NA,0.2241069007979979,0.09621908793616007,2.406392036457517,1.8793382871225155,NA,32702.347676420013
24,4391.0,2164.0,[40],1,0.7206019990890489,0.35189946936915506,NA,0.8416903568663132,NA,NA,0.38197068480984653,NA,NA,NA,0.3204543664313402,0.18755407219312326,1.0141108535641128,0.8221620309724438,57046.460487360535,19494.872238670003
24,10403.0,5553.0,"[43,45]",2,2.117684539940414,0.283874323848881,NA,1.1009006868211033,NA,NA,NA,0.733890446698072,NA,NA,0.4975157209458856,0.21604338402383794,NA,NA,75062.76574065164,40310.32894357377
48,396816.0,142910.0,"[1,2,3,4,14,22,38,39,42]",9,0.28883570966644334,0.3094017511768685,NA,NA,NA,NA,NA,NA,NA,0.3476447374853845,0.18588287180707486,NA,NA,NA,NA,16455.4047014233
48,72056.0,20995.0,"[9,19]",2,NA,0.06877875513490928,NA,NA,0.2346828772204903,NA,NA,NA,NA,0.303988520831023,0.15342762776174723,NA,0.6819304516764698,NA,72231.2938825356,13667.33962473623
48,43270.0,14577.0,"[23,26,33]",3,NA,0.10768775338572345,NA,NA,NA,NA,NA,NA,NA,0.4217165232262542,0.21779933270164165,NA,NA,NA,NA,16326.719482320297
48,379888.0,107949.0,"[5,6,7,8,10,11,12,13,16,17,18,20,21,27,29,35,36,41,47]",19,NA,NA,NA,NA,NA,NA,NA,NA,NA,NA,NA,0.12336929364970628,NA,NA,NA,NA
48,10179.0,5788.0,[40],1,NA,0.3377060066804134,NA,NA,NA,NA,NA,NA,NA,NA,0.31380595353178276,0.188892947342567,NA,NA,NA,21033.088515571286
48,8978.0,3998.0,[11],1,NA,NA,NA,NA,NA,NA,NA,NA,NA,NA,0.1470596753174358,0.16648557072844739,NA,NA,NA,16447.572287814648
48,25442.0,10423.0,"[27,48]",2,NA,0.504863500275138,NA,NA,NA,NA,NA,NA,NA,NA,0.3588390923276341,0.17369818237560086,NA,NA,NA,31026.250137567735
48,62906.0,20048.0,"[30,43,45,46]",4,NA,0.3272963443709638,NA,NA,NA,NA,NA,NA,NA,NA,NA,0.20156865841095883,NA,NA,NA,NA
48,10129.0,4067.0,[26],1,NA,0.10291589268437473,NA,NA,NA,NA,NA,NA,NA,NA,0.16693609339519977,NA,0.31618434583868205,NA,NA,16795.087372889684
48,16779.0,2395.0,[34],1,NA,0.6114200922581738,2.9536320063770147,2.3817798610167666,NA,NA,NA,NA,NA,3.406386358662628,1.5646546247094526,0.5258605393050846,2.4622099159663735,NA,NA,NA
48,9721.0,3330.0,[35],1,0.9570894734080857,NA,NA,NA,NA,NA,NA,NA,NA,NA,NA,0.07801857627815989,2.525379569797346,NA,NA,NA
48,10179.0,5788.0,[40],1,NA,0.3377060066804134,NA,NA,NA,NA,NA,NA,NA,NA,0.31380595353178276,0.188892947342567,NA,NA,NA,21033.088515571286
48,3261.0,1762.0,[45],1,NA,0.1720911199018671,NA,NA,NA,NA,NA,NA,NA,NA,NA,0.15820875406317148,NA,NA,NA,21577.85219257899
72,590223.0,184429.0,"[1,2,3,4,11,14,22,38,39,42]",10,0.2804774350779242,0.4430170950166308,NA,0.6107824243040332,0.6393737040847252,NA,0.050664794762310894,NA,NA,0.358986289634598,0.19288401057227533,0.5546879903155215,0.7287829988512796,NA,67768.9409731576,17411.556296518334
72,93680.0,21624.0,"[9,19]",2,0.19145794611443545,0.09508899871905818,NA,0.8578854741353537,0.2648469808390175,NA,-0.02784072200044596,NA,NA,0.3165127873719076,0.15634140002134966,NA,0.6955565467335517,NA,72399.04696840273,14346.078906917191
72,35559.0,5047.0,"[23,26]",2,0.4007151193509366,0.07597594308051248,NA,1.1469884906774874,0.14752128946257992,NA,NA,NA,NA,0.40734834880058524,0.20403056320481827,NA,0.6185381322028122,NA,76474.0677746844,15302.544166033867
72,479058.0,108148.0,"[5,6,7,8,10,12,13,16,17,18,20,21,27,29,35,36,41,47]",18,0.3612706980532603,NA,NA,0.8049534670415555,NA,NA,NA,0.7427905162276893,NA,0.5610892829803488,0.15843720661590233,0.13921421465250483,2.0478010459464255,NA,68750.20881813888,23732.270180228672
72,11936.0,1757.0,[40],1,0.709973875418892,0.372549664963139,NA,0.9079671544068302,0.7266227434651511,NA,0.35234354473860874,0.9312847144771919,NA,NA,0.3266678260723803,0.19249514753686148,1.0036544127848557,NA,59017.34584450412,22381.040214477227
72,111242.0,21710.0,"[25,30,43,45,46,48]",6,1.918030444031923,0.36127230532533217,NA,1.0995112096600352,NA,NA,NA,0.8835640726703895,NA,NA,0.4166090496844679,0.20435378646554114,2.4037103149260086,NA,NA,32573.514032469677
72,49736.0,10896.0,"[28,31,32,34]",4,1.235490585712564,0.6259391125140668,2.6731296971811083,2.2450817820894327,2.14826555358291,NA,NA,1.0523075556136376,NA,3.113501494732186,1.372964463125296,0.4949920692657219,2.3597415659481924,2.4170876530480867,NA,NA
72,15064.0,2306.0,[33],1,1.0844647493361583,0.26009742784122336,NA,NA,NA,NA,-0.25586253690918026,0.6984571172331431,NA,0.5574775240971875,0.27947906074082773,1.0676905628651145,0.5549568110063668,NA,81601.04514073269,21238.173127987153
72,3437.0,176.0,[45],1,1.215428953156825,0.17977564591212936,1.165623545533896,1.1568977506546378,2.7688885402967736,NA,NA,NA,NA,NA,0.24828882426535248,0.15980779167878956,1.7119872426534761,2.427941840849578,73099.60081466404,21585.74570846673
96,740255.0,130532.0,"[0,5,6,7,8,10,11,12,13,14,16,17,18,20,21,27,35,36,41,42,47]",21,0.3243011526095698,NA,NA,0.8398554962046685,NA,NA,NA,NA,NA,0.5320154362091439,0.16811881909612403,0.14573065506210603,1.9658115132231462,NA,67723.17072360203,22022.92665095133
96,537096.0,81475.0,"[1,2,3,4,22,38,39]",7,0.31531945492797986,0.21267756766388102,NA,0.601992908887802,0.31994041277536844,NA,0.04411327338501225,NA,NA,0.351911990487735,0.19508433200209518,0.7178663500454296,0.5736026440710759,NA,69352.25547760553,16647.387282720316
96,119049.0,25369.0,"[9,19]",2,0.2423515048929319,0.1016174175759752,NA,0.9375653332661384,0.2816014904955044,NA,0.02134713167686675,NA,NA,0.34607597065074425,0.17309858590160765,NA,0.7182183129971679,NA,72420.90796226736,14228.437164528994
96,43349.0,7790.0,"[23,26]",2,0.4356359968165351,0.08474169913953933,NA,NA,0.1605533890285784,NA,NA,NA,NA,0.4396073980253308,0.2224414054534165,NA,0.6501082290479588,NA,76446.7797642392,15198.953978177
96,16424.0,2867.0,[29],1,1.440893423465648,0.4348470661836368,NA,1.312513245859721,1.290374607769131,NA,-0.009247880723327384,0.9181777165124045,NA,NA,0.5072202842182212,0.21256926680467392,1.8153309492815426,NA,NA,42488.85338528961
96,13440.0,1504.0,[40],1,0.7306360776785585,0.3769001907738114,NA,NA,0.7257960019345195,NA,NA,0.9962859052083228,NA,NA,0.34406210215773303,0.19984555714285712,1.013544722395837,NA,58940.54761904771,22175.457142857183
96,11914.0,2403.0,[15],1,1.8304191454591072,0.27180480031896126,NA,NA,0.5755365501930498,NA,NA,1.008914938056075,NA,1.2066292933523717,0.8146478881148269,0.25863731660231404,1.1494300263555481,NA,66292.29477925139,39404.1725700856
96,135589.0,24347.0,"[25,30,43,45,46,48]",6,1.9654540771375182,0.36581825333914164,NA,NA,NA,NA,NA,0.9359192440463411,NA,NA,0.44749222967202407,0.21498331252535308,2.413549393947882,NA,NA,32105.121447905054
96,59644.0,9908.0,"[28,31,32,34]",4,1.2845639936288682,0.6303461554724632,2.6739092937763993,2.2929492620380967,2.1742619457615153,NA,NA,1.0865657819227423,NA,3.119548655422165,1.4122193102742906,0.5161706575850025,2.4019144938803465,2.4746705214103644,NA,NA
96,18886.0,3822.0,[33],1,1.1314443660383293,0.2700915135550206,NA,NA,NA,NA,NA,0.7266804270888532,NA,0.5946115523668362,0.3032811364502752,1.0866376472519421,0.578225975749228,NA,81084.42825373288,21060.693423700035
96,13628.0,3936.0,[37],1,0.732498562078072,0.27492643190490895,NA,NA,0.3681226538010085,NA,NA,NA,NA,0.4521423127384775,0.4814292125036732,0.2615195511447054,0.569732206413268,NA,55609.26562958602,19363.22160258286
96,4355.0,918.0,[45],1,1.2968671928817506,0.1870541616532697,NA,NA,2.7517604698048213,NA,NA,NA,NA,NA,0.2709096902411079,0.18010376624569602,1.7408181593570538,NA,73795.01262916198,21592.497818599335
120,787302.0,97529.0,"[1,2,3,4,11,14,22,38,39,42]",10,0.30791651200936565,0.44764038434552367,NA,0.6661580929287632,NA,NA,0.09586741243257624,NA,NA,0.38111674232505977,0.21677507816948482,0.6069343409111121,0.7342973662508131,NA,67956.41076994596,17170.97518360166
120,139915.0,20866.0,"[9,19]",2,0.24759592839937317,0.10417406972091747,NA,NA,0.29584016525032686,NA,0.05632695665225018,NA,NA,0.3582627969696004,0.18342614874031948,NA,0.7236020574848979,NA,72265.80252296,14056.862294964922
120,15717.0,2935.0,[26],1,0.8159949879748021,0.12057144792264118,NA,NA,0.2974612967487449,NA,NA,NA,NA,0.45686907361455265,0.21152393949227477,NA,0.41439200260864095,NA,79989.03403957492,17064.817967805546
120,769934.0,175552.0,"[5,6,7,8,10,12,13,16,17,18,20,21,27,29,35,36,41,47]",18,0.3696608721994312,NA,NA,0.9448289014616651,NA,NA,NA,NA,NA,0.5537570389384036,0.16139576380704002,0.1369897826930616,2.230834706033247,NA,68234.88749944807,22507.333875371158
120,14754.0,1314.0,[40],1,0.7451966638877443,0.3857269985766578,NA,1.0469601081062683,0.7380859124983057,NA,0.40849874027381006,NA,NA,NA,0.3563616598888415,0.2025887734851589,1.031226824115493,NA,58804.33129998652,22018.073471600936
120,37191.0,6624.0,[23],1,0.2992859062945361,0.06631590618698047,NA,NA,0.11685333820009358,NA,NA,NA,NA,0.45681630192788525,0.2473270003495558,NA,0.7672201127692154,NA,74496.33040251702,14251.219058374203
120,14876.0,2962.0,[15],1,1.8354365837590538,0.2817116324280704,NA,NA,0.5971329561710159,NA,NA,1.0499065874563023,NA,1.175359028838408,0.832747961212708,0.28473157569239127,1.1660963755041647,NA,NA,38410.35547190087
120,163166.0,27577.0,"[25,30,43,45,46,48]",6,2.0046720528480177,0.36865624173541933,NA,NA,NA,NA,NA,NA,NA,NA,0.47574895363617387,0.2246528297562015,2.4268532156209,NA,72735.20650135439,31528.06207175503
120,71470.0,11826.0,"[28,31,32,34]",4,1.3489565699174537,0.6569209128025633,2.6916817506646082,2.3389252260109212,2.22860723996082,NA,NA,1.1058366777529116,NA,3.1125597204981053,1.4409152027144287,0.5350948052329618,2.441482659143686,2.537677940142711,NA,NA
120,22528.0,3642.0,[33],1,1.1463608973277746,0.2729097851562421,0.9099971234463866,NA,NA,NA,NA,NA,NA,0.5997619293323927,0.3152342132457333,1.1059133998579556,0.5842647677556748,NA,80195.24715909125,20745.701704545478
120,19401.0,5773.0,[37],1,0.7701531011803529,0.28437672326167585,NA,NA,NA,NA,NA,NA,NA,0.48235429343848013,0.5299366775939509,0.27592181186537257,0.6013828067625396,NA,55267.03984330688,19069.77990825212
120,5335.0,980.0,[45],1,1.321757818369263,0.18171167628865792,NA,NA,2.804093236738536,NA,NA,NA,NA,NA,0.3003561906279324,0.1897507587628886,1.7544322835988706,NA,73462.63092783508,21431.494657919462
144,1079275.0,148322.0,"[0,5,6,7,8,10,11,12,13,14,16,17,18,20,21,27,35,36,41,42,47]",21,0.3371738100280235,NA,NA,0.9926770839841392,NA,NA,NA,NA,NA,0.5392288376215538,0.15971394406987205,0.15411291287299533,NA,NA,67208.24938963665,21138.94196011205
144,684498.0,67917.0,"[1,2,3,4,22,38,39]",7,0.3324241983380596,0.22565558454662415,NA,0.6907347636662258,0.33713981533035264,NA,0.08907585976437682,NA,NA,0.37093793360828664,0.2159157620051375,0.7580085572477917,0.5897047653608863,NA,69233.92584930846,16530.243933510374
144,166839.0,26924.0,"[9,19]",2,0.2574895678828095,0.09499348257903284,NA,NA,0.31019249334388377,NA,0.10625209438440741,NA,NA,0.36955625277663895,0.18558628234407593,NA,0.7425405801401254,NA,72208.77919431278,13902.237822092111
144,19373.0,3656.0,[26],1,0.8540489468848389,0.11999923734063378,NA,NA,0.29290907376244935,NA,NA,NA,NA,0.4624130789242753,0.22662329293347083,1.246315800856869,0.4352054615702252,NA,79704.14246631897,17135.207969854808
144,21722.0,1535.0,[29],1,1.481143939554374,0.43728286677102135,NA,1.452773607540744,NA,NA,NA,0.9999377509437286,NA,NA,0.5444971431267858,0.23593289494521552,1.842109067074846,NA,64416.80434582475,40915.76392597359
144,15507.0,753.0,[40],1,0.7465000352098896,0.3872965222157725,NA,NA,0.7370743681563123,NA,NA,NA,NA,NA,0.3596536068227203,0.21180952176436696,1.0313804598568344,NA,58725.10737086479,21919.345843812498
144,50110.0,12919.0,[23],1,0.3121868341448839,0.048217903651978755,NA,NA,0.1274182898423244,NA,NA,NA,NA,0.4815974279185721,0.25217576858909263,2.0403099569347565,0.7910449822590305,NA,74036.30476950704,14063.451446816975
144,16979.0,2103.0,[15],1,NA,0.29448398733730174,NA,NA,0.6066251363448978,NA,NA,1.1039116803698543,NA,1.2016906052771152,0.826725281877621,0.31393464685788075,1.1793033748159467,NA,65195.9017609989,37980.368219565236
144,93786.0,13005.0,"[24,28,31,32,34]",5,1.3481416974601823,0.6410345038065399,2.6246832413046666,2.386908000821014,2.246856788678483,NA,NA,1.1505247700403207,NA,3.0548279983259663,1.4224647296718023,0.555385386656855,2.402488457466994,NA,NA,NA
144,190042.0,26876.0,"[25,30,43,45,46,48]",6,2.0283987777964896,0.36263407160522876,NA,NA,NA,NA,NA,NA,NA,NA,0.49401072727607387,0.2410925517938156,2.421204790477891,NA,72488.26293135202,31529.369886656554
144,28706.0,6178.0,[33],1,1.1677709985368911,0.2683366681181458,NA,NA,NA,NA,NA,NA,NA,0.6102839375740313,0.32401343011913175,1.1243251771754978,0.5814213529924005,NA,79439.37908451223,20508.727095380847
144,29081.0,9680.0,[37],1,0.8176158065059622,0.23739747570578995,NA,NA,0.4715245652831861,NA,NA,NA,NA,0.5019911938035116,0.539585045080988,NA,0.661023901929101,NA,56121.20848664074,18418.731680478686
144,9818.0,2477.0,[44],1,1.5371160822978254,0.812184772153171,2.4279386981055073,NA,NA,NA,NA,NA,NA,NA,1.2710114722957777,0.7940440214911424,NA,NA,NA,35142.98798125878
144,6028.0,693.0,[45],1,1.3527267728931707,0.1709995214001312,NA,NA,2.8131667869940418,NA,NA,NA,NA,NA,0.3075311380225605,0.212946983576644,1.7937166894492305,NA,73527.2727272727,21313.592568015978
168,1243232.0,163957.0,"[0,5,6,7,8,10,11,12,13,14,16,17,18,20,21,27,35,36,41,42,47]",21,0.3345323017465731,NA,NA,NA,NA,NA,NA,NA,NA,0.5549293765363189,0.1612054751639347,0.1533013446629451,NA,NA,66973.986615531,21266.075879642663
168,652717.0,59471.0,"[1,2,3,4,22,39]",6,0.3245395255386394,0.23958896210761305,NA,0.743227353588177,0.3441256985339707,NA,0.09346801741641331,NA,NA,0.37096672199437386,0.22484985132759272,0.6652841868604553,0.5784839618701415,NA,68566.6985722757,16717.0082225527
168,283753.0,25662.0,"[9,19,38]",3,0.27350163284264983,0.11843115859920283,NA,NA,0.3605302878454042,NA,NA,NA,NA,0.3918077633082372,0.1870806200780324,NA,0.7490794385116625,NA,72255.61950005805,14790.018755748992
168,24302.0,4929.0,[26],1,0.807647089581103,0.12531056480949232,NA,NA,0.2763741456670159,NA,NA,NA,NA,0.4715098706690781,0.23895979055222272,NA,0.4132682591144753,NA,80702.17759855137,17700.935231667983
168,25764.0,4042.0,[29],1,1.469826409408472,0.4352954717047157,NA,1.5793474317264318,NA,NA,NA,NA,NA,NA,0.5801453960953262,0.2423444992237226,1.824093698183511,NA,NA,41877.243906225696
168,24313.0,8806.0,[40],1,0.6619842526631654,0.3777380086373565,NA,NA,NA,NA,NA,NA,NA,1.0604744287006973,0.3786332347303949,0.222769659811628,1.0809666059309837,NA,59137.853164973385,23503.028009706726
168,63904.0,13794.0,[23],1,0.2850051127942004,0.044686182226465476,NA,NA,0.1382049215542076,NA,NA,NA,NA,0.5110223214196189,0.2598080575394368,2.0413694636799082,0.8094944642588958,NA,74135.50625938896,14312.696044066035
168,19361.0,2382.0,[15],1,NA,0.30083688316719925,NA,NA,0.6268614962036954,NA,NA,NA,NA,1.2358627903000974,0.8515674255978425,0.31373322380042035,1.1975205211507625,NA,NA,38541.40096069415
168,241461.0,33313.0,"[25,28,30,43,45,46,48]",7,1.9646528516199246,0.37195268964760997,NA,NA,NA,NA,NA,NA,NA,NA,0.5715672955383999,0.2677907255954405,2.4189501380098646,NA,NA,35703.26093240722
168,83418.0,17560.0,"[31,32,34]",3,1.3763447569349598,0.6474781120021982,2.6822506939509254,2.6196220033685704,NA,NA,NA,NA,NA,3.124231101380993,1.479017305701407,0.5948708757821997,2.4442359182550555,NA,NA,NA
168,37587.0,8881.0,[33],1,1.1119593472211153,0.2562564009896833,NA,NA,NA,NA,NA,NA,NA,0.6342716434139536,0.34757486394233084,1.1666982785803528,0.5705945468380017,NA,81129.28065554585,21060.04395136621
168,41909.0,12828.0,[37],1,NA,0.21691935581855804,NA,NA,0.4836144504521598,NA,NA,NA,NA,0.5233066112290915,0.5644256998019506,NA,0.7041214118208542,NA,57869.93800854247,18989.01791977861
168,13514.0,3696.0,[44],1,1.5065023147846703,0.7754293622909461,NA,NA,NA,NA,NA,NA,NA,1.5857163756844774,1.2756616450347744,NA,NA,NA,NA,35544.01065561637
168,7001.0,973.0,[45],1,1.3446166297671815,0.17600447764605587,NA,NA,NA,NA,NA,NA,NA,NA,0.3017936561919674,0.2826992511069857,NA,NA,74864.34052278256,21456.692472503986
